Data from PL_2polymer_F8BT_MEHPPV_USB2H096331_0108.txt Node
Date: Tue Dec 15 15:18:10 CET 2020
User: spadmin
Spectrometer: USB2+H09633
Trigger mode: 0
Integration Time (sec): 1.000000E-2
Scans to average: 1
Electric dark correction enabled: true
Nonlinearity correction enabled: false
Boxcar width: 0
XAxis mode: Wavelengths
Number of Pixels in Spectrum: 2048
>>>>>Begin Spectral Data<<<<<
174.027	-65.68
174.405	-65.68
174.783	-65.68
175.162	-126.69
175.54	-131.21
175.918	-88.27
176.296	-108.61
176.674	-108.61
177.052	-106.35
177.43	-115.39
177.808	-70.2
178.186	-58.9
178.564	33.76
178.942	-36.3
179.32	6.64
179.698	33.76
180.076	29.24
180.453	101.55
180.831	63.13
181.209	103.81
181.587	121.89
181.965	110.59
182.342	92.51
182.72	149.01
183.098	216.8
183.475	252.96
183.853	189.68
184.231	223.58
184.608	257.48
184.986	286.86
185.363	293.64
185.741	243.92
186.118	318.49
186.496	302.68
186.873	323.01
187.251	370.47
187.628	359.17
188.006	338.83
188.383	363.69
188.76	243.92
189.138	323.01
189.515	268.78
189.892	386.29
190.27	334.31
190.647	377.25
191.024	318.49
191.401	295.9
191.778	291.38
192.155	359.17
192.533	363.69
192.91	368.21
193.287	298.16
193.664	356.91
194.041	320.75
194.418	284.6
194.795	282.34
195.172	323.01
195.549	316.23
195.926	332.05
196.302	286.86
196.679	311.71
197.056	295.9
197.433	291.38
197.81	307.2
198.187	298.16
198.563	277.82
198.94	241.66
199.317	345.61
199.693	295.9
200.07	311.71
200.447	282.34
200.823	338.83
201.2	332.05
201.576	300.42
201.953	300.42
202.329	300.42
202.706	313.97
203.082	318.49
203.459	365.95
203.835	329.79
204.212	309.46
204.588	275.56
204.964	332.05
205.341	255.22
205.717	280.08
206.093	284.6
206.469	327.53
206.846	259.74
207.222	282.34
207.598	316.23
207.974	320.75
208.35	302.68
208.726	329.79
209.102	289.12
209.479	334.31
209.855	329.79
210.231	302.68
210.607	341.09
210.982	318.49
211.358	313.97
211.734	433.75
212.11	341.09
212.486	271.04
212.862	325.27
213.238	336.57
213.614	356.91
213.989	320.75
214.365	291.38
214.741	354.65
215.116	365.95
215.492	325.27
215.868	277.82
216.243	284.6
216.619	291.38
216.995	336.57
217.37	411.15
217.746	304.94
218.121	370.47
218.497	334.31
218.872	334.31
219.247	334.31
219.623	354.65
219.998	343.35
220.374	323.01
220.749	347.87
221.124	406.63
221.499	332.05
221.875	311.71
222.25	325.27
222.625	304.94
223	284.6
223.376	316.23
223.751	332.05
224.126	363.69
224.501	336.57
224.876	370.47
225.251	275.56
225.626	397.59
226.001	323.01
226.376	300.42
226.751	370.47
227.126	343.35
227.501	304.94
227.875	309.46
228.25	404.37
228.625	359.17
229	338.83
229.375	316.23
229.749	334.31
230.124	381.77
230.499	327.53
230.873	343.35
231.248	309.46
231.623	341.09
231.997	370.47
232.372	345.61
232.746	356.91
233.121	377.25
233.495	356.91
233.87	329.79
234.244	277.82
234.619	313.97
234.993	354.65
235.367	352.39
235.742	431.49
236.116	377.25
236.49	300.42
236.865	370.47
237.239	374.99
237.613	320.75
237.987	327.53
238.361	399.85
238.736	343.35
239.11	359.17
239.484	393.07
239.858	365.95
240.232	372.73
240.606	361.43
240.98	266.52
241.354	356.91
241.728	377.25
242.102	320.75
242.475	338.83
242.849	377.25
243.223	438.27
243.597	327.53
243.971	307.2
244.344	316.23
244.718	347.87
245.092	379.51
245.466	334.31
245.839	429.23
246.213	393.07
246.586	352.39
246.96	352.39
247.334	354.65
247.707	404.37
248.081	329.79
248.454	399.85
248.828	402.11
249.201	323.01
249.574	350.13
249.948	417.93
250.321	454.08
250.694	404.37
251.068	363.69
251.441	345.61
251.814	411.15
252.187	374.99
252.561	370.47
252.934	408.89
253.307	359.17
253.68	316.23
254.053	370.47
254.426	442.78
254.799	408.89
255.172	397.59
255.545	397.59
255.918	336.57
256.291	282.34
256.664	372.73
257.037	372.73
257.41	442.78
257.782	408.89
258.155	402.11
258.528	406.63
258.901	338.83
259.273	372.73
259.646	352.39
260.019	402.11
260.391	436.01
260.764	365.95
261.137	370.47
261.509	363.69
261.882	365.95
262.254	374.99
262.627	397.59
262.999	327.53
263.372	411.15
263.744	329.79
264.116	420.19
264.489	424.71
264.861	343.35
265.233	411.15
265.606	318.49
265.978	329.79
266.35	415.67
266.722	393.07
267.094	347.87
267.467	372.73
267.839	374.99
268.211	345.61
268.583	325.27
268.955	365.95
269.327	395.33
269.699	370.47
270.071	415.67
270.443	417.93
270.815	368.21
271.186	350.13
271.558	388.55
271.93	386.29
272.302	404.37
272.674	422.45
273.045	431.49
273.417	390.81
273.789	420.19
274.16	393.07
274.532	426.97
274.904	386.29
275.275	467.64
275.647	456.34
276.018	438.27
276.39	374.99
276.761	372.73
277.133	424.71
277.504	381.77
277.875	447.3
278.247	458.6
278.618	374.99
278.989	386.29
279.361	456.34
279.732	429.23
280.103	467.64
280.474	379.51
280.846	309.46
281.217	399.85
281.588	424.71
281.959	411.15
282.33	408.89
282.701	438.27
283.072	451.82
283.443	402.11
283.814	361.43
284.185	408.89
284.556	406.63
284.927	370.47
285.297	395.33
285.668	381.77
286.039	424.71
286.41	393.07
286.781	379.51
287.151	386.29
287.522	449.56
287.893	447.3
288.263	469.9
288.634	449.56
289.004	438.27
289.375	379.51
289.745	508.32
290.116	445.04
290.486	438.27
290.857	402.11
291.227	460.86
291.598	454.08
291.968	445.04
292.338	411.15
292.709	485.72
293.079	476.68
293.449	429.23
293.819	397.59
294.189	402.11
294.56	454.08
294.93	393.07
295.3	424.71
295.67	347.87
296.04	503.8
296.41	447.3
296.78	388.55
297.15	463.12
297.52	379.51
297.89	420.19
298.259	424.71
298.629	440.53
298.999	472.16
299.369	492.5
299.739	474.42
300.108	469.9
300.478	478.94
300.848	429.23
301.217	478.94
301.587	528.66
301.957	417.93
302.326	469.9
302.696	390.81
303.065	492.5
303.435	474.42
303.804	501.54
304.174	494.76
304.543	456.34
304.912	460.86
305.282	481.2
305.651	451.82
306.02	449.56
306.39	458.6
306.759	490.24
307.128	501.54
307.497	553.52
307.866	454.08
308.235	558.04
308.604	478.94
308.974	456.34
309.343	456.34
309.712	472.16
310.08	481.2
310.449	506.06
310.818	517.36
311.187	465.38
311.556	535.44
311.925	544.48
312.294	508.32
312.662	510.58
313.031	478.94
313.4	512.84
313.769	524.14
314.137	487.98
314.506	447.3
314.874	487.98
315.243	537.7
315.612	546.74
315.98	469.9
316.349	497.02
316.717	458.6
317.085	524.14
317.454	485.72
317.822	467.64
318.191	490.24
318.559	524.14
318.927	485.72
319.295	478.94
319.664	497.02
320.032	497.02
320.4	494.76
320.768	478.94
321.136	506.06
321.504	560.3
321.872	528.66
322.24	447.3
322.608	549
322.976	503.8
323.344	560.3
323.712	460.86
324.08	465.38
324.448	512.84
324.816	526.4
325.183	517.36
325.551	497.02
325.919	494.76
326.287	526.4
326.654	494.76
327.022	519.62
327.389	512.84
327.757	503.8
328.125	634.87
328.492	524.14
328.86	503.8
329.227	524.14
329.594	542.22
329.962	524.14
330.329	512.84
330.697	567.08
331.064	578.37
331.431	612.27
331.798	478.94
332.166	542.22
332.533	625.83
332.9	578.37
333.267	580.63
333.634	558.04
334.001	616.79
334.368	576.11
334.735	614.53
335.102	560.3
335.469	562.56
335.836	623.57
336.203	420.19
336.57	503.8
336.937	549
337.304	569.34
337.67	587.41
338.037	625.83
338.404	580.63
338.771	564.82
339.137	700.41
339.504	641.65
339.87	661.99
340.237	625.83
340.604	632.61
340.97	585.15
341.337	607.75
341.703	605.49
342.069	673.29
342.436	607.75
342.802	528.66
343.169	612.27
343.535	610.01
343.901	591.93
344.267	664.25
344.634	680.07
345	698.15
345.366	610.01
345.732	560.3
346.098	582.89
346.464	677.81
346.83	652.95
347.196	625.83
347.562	652.95
347.928	650.69
348.294	702.67
348.66	634.87
349.026	704.92
349.392	736.56
349.757	695.89
350.123	702.67
350.489	623.57
350.855	779.5
351.22	727.52
351.586	655.21
351.951	664.25
352.317	700.41
352.683	716.22
353.048	727.52
353.414	793.06
353.779	797.58
354.144	770.46
354.51	759.16
354.875	752.38
355.24	743.34
355.606	743.34
355.971	761.42
356.336	788.54
356.701	772.72
357.067	802.1
357.432	858.59
357.797	743.34
358.162	725.26
358.527	833.74
358.892	838.25
359.257	869.89
359.622	799.84
359.987	835.99
360.352	883.45
360.717	881.19
361.082	845.03
361.446	790.8
361.811	833.74
362.176	885.71
362.541	928.65
362.905	930.91
363.27	937.69
363.635	915.09
363.999	953.51
364.364	958.03
364.728	899.27
365.093	901.53
365.457	960.29
365.822	958.03
366.186	964.81
366.55	1048.42
366.915	1037.12
367.279	1025.82
367.643	1091.36
368.008	1154.63
368.372	1059.72
368.736	1138.81
369.1	1089.1
369.464	1007.74
369.828	1052.94
370.192	1122.99
370.556	1204.35
370.92	1184.01
371.284	1303.78
371.648	1294.74
372.012	1283.44
372.376	1414.51
372.74	1328.64
373.104	1446.15
373.468	1527.5
373.831	1461.97
374.195	1466.49
374.559	1579.48
374.922	1672.13
375.286	1665.35
375.65	1633.71
376.013	1701.51
376.377	1708.29
376.74	1875.52
377.104	1974.95
377.467	2054.04
377.83	2078.9
378.194	2182.85
378.557	2284.54
378.92	2449.51
379.284	2609.96
379.647	2738.77
380.01	2969.27
380.373	3127.46
380.736	3303.73
381.1	3660.78
381.463	3898.06
381.826	4083.37
382.189	4469.8
382.552	4799.73
382.915	5170.34
383.278	5391.81
383.64	6110.43
384.003	6700.25
384.366	7120.58
384.729	7825.64
385.092	8193.99
385.454	9025.61
385.817	10008.64
386.18	10969.06
386.542	12123.83
386.905	13253.75
387.268	14320.39
387.63	15949.72
387.993	17086.42
388.355	19124.78
388.718	21034.33
389.08	22663.67
389.442	24799.21
389.805	27379.93
390.167	28835.26
390.529	32509.74
390.892	35915.3
391.254	37964.96
391.616	40331
391.978	45517.31
392.34	49142.07
392.702	50807.56
393.064	54052.67
393.426	55856.02
393.788	57672.92
394.15	59177.96
394.512	60918.03
394.874	62289.75
395.236	64391.39
395.598	65024.14
395.96	65024.14
396.321	65024.14
396.683	65024.14
397.045	65024.14
397.406	65024.14
397.768	65024.14
398.13	65024.14
398.491	65024.14
398.853	65024.14
399.214	65024.14
399.576	65024.14
399.937	65024.14
400.299	65024.14
400.66	65024.14
401.021	65024.14
401.383	65024.14
401.744	65024.14
402.105	65024.14
402.466	65024.14
402.827	65024.14
403.189	65024.14
403.55	65024.14
403.911	65024.14
404.272	65024.14
404.633	65024.14
404.994	65024.14
405.355	65024.14
405.716	65024.14
406.077	65024.14
406.437	65024.14
406.798	65024.14
407.159	65024.14
407.52	65024.14
407.88	65024.14
408.241	65024.14
408.602	65024.14
408.962	65024.14
409.323	65024.14
409.684	65024.14
410.044	65024.14
410.405	65024.14
410.765	65024.14
411.125	65024.14
411.486	65024.14
411.846	65024.14
412.206	65024.14
412.567	65024.14
412.927	65024.14
413.287	65024.14
413.647	65024.14
414.007	65024.14
414.368	65024.14
414.728	65024.14
415.088	65024.14
415.448	65024.14
415.808	65024.14
416.168	65024.14
416.528	65024.14
416.887	65024.14
417.247	65024.14
417.607	65024.14
417.967	65024.14
418.327	65024.14
418.686	65024.14
419.046	65024.14
419.406	65024.14
419.765	65024.14
420.125	65024.14
420.484	65024.14
420.844	65024.14
421.203	65024.14
421.563	65024.14
421.922	65024.14
422.282	64181.22
422.641	62558.67
423	61322.54
423.36	60362.11
423.719	58567.81
424.078	56574.64
424.437	54870.73
424.796	53636.87
425.155	52082.11
425.515	49937.53
425.874	48665.25
426.233	44432.59
426.592	42227
426.95	41366
427.309	38825.96
427.668	37574.01
428.027	34767.31
428.386	33802.36
428.745	30884.92
429.103	29117.74
429.462	27802.52
429.821	26037.59
430.179	25305.41
430.538	24037.64
430.897	23334.84
431.255	22006.06
431.614	20421.92
431.972	20049.05
432.33	18937.21
432.689	18760.95
433.047	17436.69
433.405	16602.81
433.764	15924.86
434.122	15524.87
434.48	14659.36
434.838	14114.74
435.197	13493.29
435.555	12790.48
435.913	12126.09
436.271	11491.08
436.629	11208.6
436.987	10894.49
437.345	10065.13
437.703	9954.4
438.061	9321.65
438.418	8756.69
438.776	8388.34
439.134	8268.57
439.492	7814.34
439.849	7608.7
440.207	7204.19
440.565	6801.94
440.922	6356.75
441.28	6196.31
441.637	5769.2
441.995	5644.91
442.352	5547.74
442.71	5179.38
443.067	5082.21
443.425	4865.27
443.782	4704.82
444.139	4589.57
444.496	4467.54
444.854	4157.94
445.211	3913.88
445.568	3904.84
445.925	3780.55
446.282	3597.5
446.639	3432.54
446.996	3428.02
447.353	3507.11
447.71	3315.03
448.067	3362.48
448.424	3093.56
448.781	3050.63
449.137	2872.1
449.494	2777.19
449.851	2743.29
450.208	2542.16
450.564	2508.27
450.921	2332
451.278	2291.32
451.634	2295.84
451.991	2313.92
452.347	2286.8
452.704	2115.06
453.06	2029.18
453.416	1932.01
453.773	1895.85
454.129	1871
454.485	1719.59
454.841	1782.86
455.198	1642.75
455.554	1552.36
455.91	1692.47
456.266	1685.69
456.622	1613.38
456.978	1419.03
457.334	1450.67
457.69	1367.05
458.046	1306.04
458.402	1321.86
458.758	1315.08
459.114	1170.45
459.469	1215.65
459.825	1193.05
460.181	1100.39
460.536	1186.27
460.892	1170.45
461.248	1116.21
461.603	1057.46
461.959	1055.2
462.314	1059.72
462.67	944.47
463.025	919.61
463.38	980.62
463.736	883.45
464.091	967.06
464.446	876.67
464.802	901.53
465.157	910.57
465.512	915.09
465.867	815.66
466.222	770.46
466.577	849.55
466.932	845.03
467.287	872.15
467.642	824.7
467.997	811.14
468.352	761.42
468.707	754.64
469.062	763.68
469.417	759.16
469.771	713.96
470.126	750.12
470.481	650.69
470.835	734.3
471.19	723
471.544	707.18
471.899	768.2
472.253	723
472.608	657.47
472.962	637.13
473.317	716.22
473.671	639.39
474.025	573.85
474.38	677.81
474.734	621.31
475.088	630.35
475.442	711.7
475.796	607.75
476.15	637.13
476.504	630.35
476.858	551.26
477.212	639.39
477.566	558.04
477.92	648.43
478.274	607.75
478.628	603.23
478.982	625.83
479.336	680.07
479.689	643.91
480.043	560.3
480.397	587.41
480.75	623.57
481.104	571.6
481.457	591.93
481.811	621.31
482.164	562.56
482.518	562.56
482.871	553.52
483.225	623.57
483.578	517.36
483.931	501.54
484.284	607.75
484.638	544.48
484.991	549
485.344	497.02
485.697	537.7
486.05	533.18
486.403	510.58
486.756	533.18
487.109	560.3
487.462	494.76
487.815	533.18
488.168	501.54
488.52	569.34
488.873	487.98
489.226	494.76
489.579	546.74
489.931	456.34
490.284	530.92
490.637	451.82
490.989	510.58
491.342	481.2
491.694	451.82
492.047	463.12
492.399	487.98
492.751	492.5
493.104	460.86
493.456	492.5
493.808	476.68
494.16	481.2
494.513	517.36
494.865	381.77
495.217	478.94
495.569	503.8
495.921	408.89
496.273	465.38
496.625	454.08
496.977	478.94
497.329	372.73
497.68	447.3
498.032	415.67
498.384	327.53
498.736	440.53
499.087	420.19
499.439	388.55
499.791	467.64
500.142	442.78
500.494	456.34
500.845	483.46
501.197	426.97
501.548	402.11
501.9	395.33
502.251	438.27
502.602	476.68
502.954	404.37
503.305	481.2
503.656	451.82
504.007	447.3
504.358	445.04
504.709	530.92
505.061	431.49
505.412	415.67
505.763	476.68
506.113	388.55
506.464	411.15
506.815	431.49
507.166	449.56
507.517	347.87
507.868	458.6
508.218	447.3
508.569	329.79
508.92	411.15
509.27	365.95
509.621	433.75
509.971	388.55
510.322	456.34
510.672	397.59
511.023	402.11
511.373	390.81
511.723	402.11
512.074	433.75
512.424	424.71
512.774	388.55
513.124	426.97
513.475	469.9
513.825	474.42
514.175	451.82
514.525	379.51
514.875	420.19
515.225	485.72
515.575	395.33
515.924	393.07
516.274	395.33
516.624	451.82
516.974	551.26
517.324	390.81
517.673	465.38
518.023	417.93
518.373	388.55
518.722	368.21
519.072	381.77
519.421	483.46
519.771	420.19
520.12	456.34
520.469	440.53
520.819	460.86
521.168	395.33
521.517	478.94
521.867	445.04
522.216	384.03
522.565	417.93
522.914	433.75
523.263	438.27
523.612	497.02
523.961	438.27
524.31	442.78
524.659	456.34
525.008	472.16
525.357	399.85
525.705	413.41
526.054	524.14
526.403	449.56
526.752	472.16
527.1	436.01
527.449	469.9
527.797	456.34
528.146	426.97
528.495	478.94
528.843	393.07
529.191	429.23
529.54	458.6
529.888	359.17
530.236	417.93
530.585	379.51
530.933	420.19
531.281	379.51
531.629	365.95
531.977	406.63
532.325	361.43
532.673	397.59
533.021	356.91
533.369	384.03
533.717	397.59
534.065	445.04
534.413	506.06
534.761	517.36
535.108	420.19
535.456	429.23
535.804	345.61
536.151	338.83
536.499	350.13
536.847	332.05
537.194	354.65
537.542	422.45
537.889	465.38
538.236	399.85
538.584	318.49
538.931	411.15
539.278	359.17
539.626	381.77
539.973	384.03
540.32	329.79
540.667	377.25
541.014	293.64
541.361	329.79
541.708	411.15
542.055	365.95
542.402	399.85
542.749	406.63
543.096	370.47
543.443	338.83
543.789	345.61
544.136	295.9
544.483	313.97
544.83	325.27
545.176	325.27
545.523	388.55
545.869	402.11
546.216	352.39
546.562	377.25
546.909	338.83
547.255	352.39
547.601	420.19
547.948	370.47
548.294	354.65
548.64	363.69
548.986	345.61
549.332	336.57
549.678	341.09
550.025	390.81
550.371	361.43
550.717	399.85
551.062	388.55
551.408	347.87
551.754	370.47
552.1	300.42
552.446	350.13
552.792	332.05
553.137	309.46
553.483	280.08
553.828	291.38
554.174	334.31
554.52	379.51
554.865	329.79
555.211	361.43
555.556	298.16
555.901	384.03
556.247	334.31
556.592	354.65
556.937	374.99
557.282	365.95
557.628	338.83
557.973	374.99
558.318	384.03
558.663	365.95
559.008	377.25
559.353	295.9
559.698	341.09
560.043	316.23
560.388	356.91
560.732	316.23
561.077	323.01
561.422	286.86
561.766	368.21
562.111	268.78
562.456	318.49
562.8	293.64
563.145	356.91
563.489	354.65
563.834	311.71
564.178	397.59
564.523	343.35
564.867	368.21
565.211	370.47
565.555	291.38
565.9	343.35
566.244	370.47
566.588	352.39
566.932	257.48
567.276	289.12
567.62	345.61
567.964	365.95
568.308	320.75
568.652	397.59
568.996	241.66
569.339	282.34
569.683	316.23
570.027	338.83
570.371	329.79
570.714	395.33
571.058	345.61
571.401	309.46
571.745	345.61
572.088	347.87
572.432	295.9
572.775	280.08
573.118	293.64
573.462	264.26
573.805	356.91
574.148	327.53
574.491	248.44
574.835	291.38
575.178	320.75
575.521	329.79
575.864	329.79
576.207	323.01
576.55	365.95
576.892	343.35
577.235	268.78
577.578	338.83
577.921	318.49
578.264	408.89
578.606	298.16
578.949	262
579.292	246.18
579.634	309.46
579.977	313.97
580.319	239.4
580.662	275.56
581.004	311.71
581.346	280.08
581.689	307.2
582.031	275.56
582.373	268.78
582.715	289.12
583.057	352.39
583.4	277.82
583.742	316.23
584.084	327.53
584.426	282.34
584.768	259.74
585.109	266.52
585.451	277.82
585.793	298.16
586.135	286.86
586.477	289.12
586.818	246.18
587.16	347.87
587.502	298.16
587.843	329.79
588.185	271.04
588.526	329.79
588.868	250.7
589.209	347.87
589.55	313.97
589.892	252.96
590.233	334.31
590.574	255.22
590.915	313.97
591.257	338.83
591.598	377.25
591.939	262
592.28	289.12
592.621	302.68
592.962	295.9
593.303	318.49
593.643	325.27
593.984	334.31
594.325	311.71
594.666	291.38
595.006	327.53
595.347	291.38
595.688	286.86
596.028	295.9
596.369	291.38
596.709	323.01
597.05	320.75
597.39	354.65
597.73	264.26
598.071	356.91
598.411	332.05
598.751	271.04
599.091	266.52
599.431	386.29
599.772	264.26
600.112	307.2
600.452	284.6
600.792	338.83
601.132	284.6
601.471	298.16
601.811	250.7
602.151	329.79
602.491	345.61
602.831	298.16
603.17	316.23
603.51	293.64
603.849	264.26
604.189	295.9
604.528	298.16
604.868	280.08
605.207	336.57
605.547	320.75
605.886	257.48
606.225	318.49
606.565	286.86
606.904	309.46
607.243	289.12
607.582	329.79
607.921	302.68
608.26	295.9
608.599	309.46
608.938	268.78
609.277	316.23
609.616	313.97
609.955	286.86
610.293	275.56
610.632	262
610.971	318.49
611.309	352.39
611.648	325.27
611.987	338.83
612.325	225.84
612.664	277.82
613.002	280.08
613.34	293.64
613.679	286.86
614.017	284.6
614.355	323.01
614.694	282.34
615.032	311.71
615.37	293.64
615.708	241.66
616.046	289.12
616.384	293.64
616.722	277.82
617.06	334.31
617.398	352.39
617.736	271.04
618.073	311.71
618.411	255.22
618.749	284.6
619.086	221.32
619.424	246.18
619.762	273.3
620.099	341.09
620.437	311.71
620.774	309.46
621.112	239.4
621.449	284.6
621.786	234.88
622.123	309.46
622.461	280.08
622.798	266.52
623.135	248.44
623.472	302.68
623.809	230.36
624.146	295.9
624.483	255.22
624.82	275.56
625.157	219.06
625.494	214.54
625.83	291.38
626.167	257.48
626.504	320.75
626.841	259.74
627.177	298.16
627.514	268.78
627.85	264.26
628.187	189.68
628.523	243.92
628.86	329.79
629.196	302.68
629.532	343.35
629.869	259.74
630.205	284.6
630.541	293.64
630.877	327.53
631.213	223.58
631.549	210.02
631.885	289.12
632.221	273.3
632.557	332.05
632.893	257.48
633.229	304.94
633.564	284.6
633.9	262
634.236	298.16
634.572	230.36
634.907	291.38
635.243	232.62
635.578	271.04
635.914	232.62
636.249	325.27
636.585	262
636.92	280.08
637.255	280.08
637.59	225.84
637.926	302.68
638.261	243.92
638.596	248.44
638.931	232.62
639.266	282.34
639.601	298.16
639.936	268.78
640.271	255.22
640.606	313.97
640.94	284.6
641.275	250.7
641.61	318.49
641.945	289.12
642.279	293.64
642.614	185.16
642.948	289.12
643.283	300.42
643.617	289.12
643.952	248.44
644.286	221.32
644.62	338.83
644.955	352.39
645.289	185.16
645.623	237.14
645.957	341.09
646.291	273.3
646.625	338.83
646.959	291.38
647.293	280.08
647.627	309.46
647.961	309.46
648.295	289.12
648.629	325.27
648.962	250.7
649.296	284.6
649.63	246.18
649.963	329.79
650.297	259.74
650.63	275.56
650.964	214.54
651.297	307.2
651.631	234.88
651.964	207.76
652.297	286.86
652.631	273.3
652.964	284.6
653.297	277.82
653.63	223.58
653.963	264.26
654.296	248.44
654.629	295.9
654.962	377.25
655.295	250.7
655.628	293.64
655.961	273.3
656.293	271.04
656.626	243.92
656.959	275.56
657.291	293.64
657.624	250.7
657.956	239.4
658.289	252.96
658.621	228.1
658.954	291.38
659.286	257.48
659.618	302.68
659.95	268.78
660.283	248.44
660.615	298.16
660.947	293.64
661.279	291.38
661.611	284.6
661.943	280.08
662.275	248.44
662.607	293.64
662.939	264.26
663.27	341.09
663.602	264.26
663.934	257.48
664.266	271.04
664.597	275.56
664.929	243.92
665.26	302.68
665.592	266.52
665.923	289.12
666.255	289.12
666.586	250.7
666.917	239.4
667.248	252.96
667.58	286.86
667.911	243.92
668.242	275.56
668.573	228.1
668.904	252.96
669.235	243.92
669.566	203.24
669.897	289.12
670.228	264.26
670.558	221.32
670.889	230.36
671.22	302.68
671.551	255.22
671.881	230.36
672.212	246.18
672.542	210.02
672.873	280.08
673.203	284.6
673.533	259.74
673.864	268.78
674.194	241.66
674.524	250.7
674.855	262
675.185	309.46
675.515	320.75
675.845	214.54
676.175	262
676.505	246.18
676.835	239.4
677.165	252.96
677.494	262
677.824	257.48
678.154	248.44
678.484	205.5
678.813	302.68
679.143	284.6
679.472	284.6
679.802	216.8
680.131	323.01
680.461	257.48
680.79	266.52
681.119	234.88
681.449	250.7
681.778	230.36
682.107	230.36
682.436	275.56
682.765	275.56
683.094	250.7
683.423	234.88
683.752	264.26
684.081	268.78
684.41	271.04
684.739	262
685.067	277.82
685.396	320.75
685.725	255.22
686.053	262
686.382	329.79
686.711	262
687.039	241.66
687.367	291.38
687.696	225.84
688.024	255.22
688.352	291.38
688.681	329.79
689.009	266.52
689.337	225.84
689.665	257.48
689.993	282.34
690.321	248.44
690.649	273.3
690.977	212.28
691.305	203.24
691.633	198.72
691.961	264.26
692.288	277.82
692.616	243.92
692.944	230.36
693.271	164.83
693.599	275.56
693.926	210.02
694.254	275.56
694.581	307.2
694.908	212.28
695.236	219.06
695.563	271.04
695.89	334.31
696.217	234.88
696.544	259.74
696.871	275.56
697.198	264.26
697.525	250.7
697.852	210.02
698.179	311.71
698.506	291.38
698.833	232.62
699.16	194.2
699.486	250.7
699.813	282.34
700.139	304.94
700.466	304.94
700.793	277.82
701.119	262
701.445	291.38
701.772	268.78
702.098	268.78
702.424	219.06
702.75	210.02
703.077	280.08
703.403	293.64
703.729	194.2
704.055	255.22
704.381	243.92
704.707	280.08
705.033	307.2
705.358	241.66
705.684	325.27
706.01	323.01
706.336	248.44
706.661	176.13
706.987	266.52
707.312	255.22
707.638	268.78
707.963	187.42
708.289	243.92
708.614	309.46
708.939	264.26
709.265	237.14
709.59	200.98
709.915	221.32
710.24	282.34
710.565	332.05
710.89	225.84
711.215	300.42
711.54	237.14
711.865	248.44
712.19	234.88
712.515	275.56
712.839	259.74
713.164	259.74
713.489	295.9
713.813	268.78
714.138	219.06
714.462	214.54
714.787	273.3
715.111	250.7
715.435	325.27
715.76	295.9
716.084	259.74
716.408	284.6
716.732	248.44
717.056	271.04
717.381	262
717.705	149.01
718.028	332.05
718.352	259.74
718.676	207.76
719	232.62
719.324	228.1
719.648	257.48
719.971	230.36
720.295	268.78
720.618	228.1
720.942	259.74
721.265	291.38
721.589	212.28
721.912	309.46
722.236	298.16
722.559	237.14
722.882	266.52
723.205	250.7
723.528	266.52
723.851	266.52
724.174	273.3
724.497	255.22
724.82	250.7
725.143	230.36
725.466	277.82
725.789	250.7
726.112	207.76
726.434	243.92
726.757	221.32
727.08	250.7
727.402	264.26
727.725	207.76
728.047	237.14
728.37	228.1
728.692	248.44
729.014	194.2
729.336	293.64
729.659	255.22
729.981	250.7
730.303	280.08
730.625	246.18
730.947	302.68
731.269	284.6
731.591	280.08
731.913	293.64
732.235	298.16
732.556	232.62
732.878	252.96
733.2	273.3
733.521	255.22
733.843	252.96
734.164	304.94
734.486	289.12
734.807	257.48
735.129	232.62
735.45	219.06
735.771	212.28
736.092	302.68
736.414	284.6
736.735	248.44
737.056	237.14
737.377	223.58
737.698	243.92
738.019	234.88
738.34	246.18
738.66	262
738.981	273.3
739.302	189.68
739.623	250.7
739.943	255.22
740.264	228.1
740.584	264.26
740.905	259.74
741.225	219.06
741.546	264.26
741.866	246.18
742.186	221.32
742.507	241.66
742.827	234.88
743.147	246.18
743.467	266.52
743.787	252.96
744.107	191.94
744.427	237.14
744.747	239.4
745.067	243.92
745.386	295.9
745.706	232.62
746.026	246.18
746.346	284.6
746.665	185.16
746.985	300.42
747.304	316.23
747.624	334.31
747.943	246.18
748.262	210.02
748.582	257.48
748.901	255.22
749.22	264.26
749.539	205.5
749.858	239.4
750.177	246.18
750.496	295.9
750.815	280.08
751.134	219.06
751.453	243.92
751.772	282.34
752.09	237.14
752.409	264.26
752.728	250.7
753.046	295.9
753.365	252.96
753.683	191.94
754.002	243.92
754.32	228.1
754.639	246.18
754.957	178.39
755.275	255.22
755.593	246.18
755.911	275.56
756.23	216.8
756.548	298.16
756.866	243.92
757.183	323.01
757.501	259.74
757.819	289.12
758.137	286.86
758.455	225.84
758.772	248.44
759.09	309.46
759.408	284.6
759.725	232.62
760.043	259.74
760.36	259.74
760.677	289.12
760.995	273.3
761.312	223.58
761.629	246.18
761.946	234.88
762.264	243.92
762.581	237.14
762.898	248.44
763.215	271.04
763.532	277.82
763.848	230.36
764.165	241.66
764.482	268.78
764.799	255.22
765.115	300.42
765.432	225.84
765.749	248.44
766.065	216.8
766.382	228.1
766.698	291.38
767.014	232.62
767.331	230.36
767.647	228.1
767.963	158.05
768.279	293.64
768.595	282.34
768.911	295.9
769.227	257.48
769.543	280.08
769.859	259.74
770.175	266.52
770.491	268.78
770.807	230.36
771.122	271.04
771.438	250.7
771.754	250.7
772.069	214.54
772.385	207.76
772.7	291.38
773.016	234.88
773.331	289.12
773.646	223.58
773.961	210.02
774.277	289.12
774.592	180.64
774.907	216.8
775.222	259.74
775.537	291.38
775.852	216.8
776.167	264.26
776.482	277.82
776.796	257.48
777.111	210.02
777.426	307.2
777.74	237.14
778.055	221.32
778.369	243.92
778.684	243.92
778.998	262
779.313	295.9
779.627	275.56
779.941	323.01
780.255	298.16
780.57	277.82
780.884	205.5
781.198	241.66
781.512	250.7
781.826	248.44
782.14	250.7
782.453	225.84
782.767	243.92
783.081	176.13
783.395	228.1
783.708	207.76
784.022	243.92
784.335	284.6
784.649	257.48
784.962	205.5
785.276	257.48
785.589	234.88
785.902	237.14
786.216	271.04
786.529	257.48
786.842	284.6
787.155	225.84
787.468	313.97
787.781	205.5
788.094	262
788.407	298.16
788.72	262
789.032	198.72
789.345	230.36
789.658	302.68
789.97	262
790.283	214.54
790.595	239.4
790.908	271.04
791.22	198.72
791.532	282.34
791.845	266.52
792.157	198.72
792.469	252.96
792.781	241.66
793.093	210.02
793.405	241.66
793.717	212.28
794.029	243.92
794.341	298.16
794.653	223.58
794.965	259.74
795.276	207.76
795.588	210.02
795.9	191.94
796.211	239.4
796.523	255.22
796.834	210.02
797.146	259.74
797.457	228.1
797.768	241.66
798.08	232.62
798.391	185.16
798.702	225.84
799.013	252.96
799.324	194.2
799.635	264.26
799.946	216.8
800.257	291.38
800.568	300.42
800.878	234.88
801.189	200.98
801.5	246.18
801.81	289.12
802.121	255.22
802.431	252.96
802.742	239.4
803.052	252.96
803.363	203.24
803.673	268.78
803.983	304.94
804.293	257.48
804.603	216.8
804.913	318.49
805.224	216.8
805.533	280.08
805.843	280.08
806.153	291.38
806.463	286.86
806.773	311.71
807.083	239.4
807.392	210.02
807.702	225.84
808.011	262
808.321	248.44
808.63	264.26
808.94	273.3
809.249	280.08
809.558	318.49
809.868	221.32
810.177	275.56
810.486	189.68
810.795	198.72
811.104	273.3
811.413	216.8
811.722	309.46
812.031	268.78
812.339	250.7
812.648	262
812.957	309.46
813.266	300.42
813.574	232.62
813.883	289.12
814.191	259.74
814.5	198.72
814.808	268.78
815.116	268.78
815.424	223.58
815.733	298.16
816.041	248.44
816.349	298.16
816.657	271.04
816.965	155.79
817.273	219.06
817.581	262
817.889	237.14
818.196	280.08
818.504	291.38
818.812	259.74
819.12	198.72
819.427	250.7
819.735	304.94
820.042	266.52
820.349	280.08
820.657	257.48
820.964	203.24
821.271	246.18
821.579	259.74
821.886	246.18
822.193	329.79
822.5	273.3
822.807	271.04
823.114	248.44
823.421	237.14
823.727	307.2
824.034	241.66
824.341	228.1
824.648	219.06
824.954	259.74
825.261	246.18
825.567	223.58
825.874	225.84
826.18	309.46
826.486	282.34
826.793	252.96
827.099	329.79
827.405	151.27
827.711	243.92
828.017	234.88
828.323	266.52
828.629	259.74
828.935	271.04
829.241	271.04
829.547	146.75
829.852	239.4
830.158	185.16
830.464	241.66
830.769	268.78
831.075	203.24
831.38	271.04
831.686	277.82
831.991	225.84
832.296	280.08
832.601	243.92
832.907	271.04
833.212	205.5
833.517	207.76
833.822	214.54
834.127	277.82
834.432	268.78
834.737	316.23
835.041	221.32
835.346	241.66
835.651	298.16
835.956	216.8
836.26	219.06
836.565	128.67
836.869	250.7
837.174	255.22
837.478	248.44
837.782	203.24
838.087	289.12
838.391	196.46
838.695	230.36
838.999	313.97
839.303	275.56
839.607	262
839.911	257.48
840.215	205.5
840.519	243.92
840.822	212.28
841.126	313.97
841.43	239.4
841.733	277.82
842.037	259.74
842.34	325.27
842.644	275.56
842.947	243.92
843.251	198.72
843.554	230.36
843.857	234.88
844.16	237.14
844.463	257.48
844.766	214.54
845.069	203.24
845.372	237.14
845.675	280.08
845.978	223.58
846.281	271.04
846.583	336.57
846.886	248.44
847.189	257.48
847.491	280.08
847.794	239.4
848.096	304.94
848.399	185.16
848.701	173.87
849.003	266.52
849.305	241.66
849.608	248.44
849.91	277.82
850.212	325.27
850.514	259.74
850.816	280.08
851.118	205.5
851.419	275.56
851.721	273.3
852.023	300.42
852.325	243.92
852.626	259.74
852.928	280.08
853.229	234.88
853.531	291.38
853.832	248.44
854.133	271.04
854.435	300.42
854.736	252.96
855.037	225.84
855.338	325.27
855.639	323.01
855.94	203.24
856.241	273.3
856.542	191.94
856.843	230.36
857.144	252.96
857.444	295.9
857.745	257.48
858.046	300.42
858.346	221.32
858.647	212.28
858.947	243.92
859.247	354.65
859.548	280.08
859.848	194.2
860.148	243.92
860.448	277.82
860.749	266.52
861.049	262
861.349	320.75
861.648	198.72
861.948	282.34
862.248	252.96
862.548	234.88
862.848	300.42
863.147	221.32
863.447	266.52
863.746	262
864.046	239.4
864.345	250.7
864.645	207.76
864.944	203.24
865.243	268.78
865.542	221.32
865.842	250.7
866.141	259.74
866.44	268.78
866.739	334.31
867.038	259.74
867.337	221.32
867.635	300.42
867.934	248.44
868.233	257.48
868.531	221.32
868.83	275.56
869.129	214.54
869.427	243.92
869.725	228.1
870.024	259.74
870.322	291.38
870.62	291.38
870.918	264.26
871.217	228.1
871.515	243.92
871.813	237.14
872.111	191.94
872.409	318.49
872.706	266.52
873.004	266.52
873.302	252.96
873.6	257.48
873.897	196.46
874.195	214.54
874.492	325.27
874.79	257.48
875.087	266.52
875.384	252.96
875.682	302.68
875.979	268.78
876.276	259.74
876.573	185.16
876.87	185.16
877.167	185.16
