Data from PL_2polymer_F8BT_MEHPPV_USB2H096331_0025.txt Node
Date: Tue Dec 15 15:18:09 CET 2020
User: spadmin
Spectrometer: USB2+H09633
Trigger mode: 0
Integration Time (sec): 1.000000E-2
Scans to average: 1
Electric dark correction enabled: true
Nonlinearity correction enabled: false
Boxcar width: 0
XAxis mode: Wavelengths
Number of Pixels in Spectrum: 2048
>>>>>Begin Spectral Data<<<<<
174.027	-73.44
174.405	-73.44
174.783	-73.44
175.162	-100.56
175.54	-111.86
175.918	-143.5
176.296	-75.7
176.674	-62.15
177.052	-87
177.43	-84.74
177.808	-46.33
178.186	-59.89
178.564	-5.65
178.942	-23.73
179.32	39.55
179.698	-3.39
180.076	59.89
180.453	-25.99
180.831	68.92
181.209	80.22
181.587	116.38
181.965	109.6
182.342	175.14
182.72	136.72
183.098	276.83
183.475	227.11
183.853	163.84
184.231	245.19
184.608	265.53
184.986	299.43
185.363	279.09
185.741	317.51
186.118	254.23
186.496	322.03
186.873	288.13
187.251	301.69
187.628	353.66
188.006	322.03
188.383	378.52
188.76	344.62
189.138	276.83
189.515	380.78
189.892	333.32
190.27	328.8
190.647	358.18
191.024	333.32
191.401	374
191.778	351.4
192.155	360.44
192.533	376.26
192.91	360.44
193.287	324.29
193.664	344.62
194.041	315.25
194.418	294.91
194.795	310.73
195.172	308.47
195.549	283.61
195.926	340.1
196.302	344.62
196.679	299.43
197.056	279.09
197.433	272.31
197.81	290.39
198.187	290.39
198.563	349.14
198.94	310.73
199.317	360.44
199.693	299.43
200.07	353.66
200.447	251.97
200.823	324.29
201.2	355.92
201.576	303.95
201.953	292.65
202.329	303.95
202.706	315.25
203.082	380.78
203.459	315.25
203.835	335.58
204.212	308.47
204.588	312.99
204.964	242.93
205.341	276.83
205.717	283.61
206.093	333.32
206.469	283.61
206.846	224.85
207.222	387.56
207.598	265.53
207.974	371.74
208.35	344.62
208.726	294.91
209.102	227.11
209.479	299.43
209.855	303.95
210.231	358.18
210.607	281.35
210.982	261.01
211.358	340.1
211.734	371.74
212.11	290.39
212.486	364.96
212.862	308.47
213.238	353.66
213.614	324.29
213.989	319.77
214.365	317.51
214.741	322.03
215.116	376.26
215.492	274.57
215.868	319.77
216.243	351.4
216.619	312.99
216.995	331.06
217.37	297.17
217.746	360.44
218.121	288.13
218.497	283.61
218.872	353.66
219.247	346.88
219.623	335.58
219.998	281.35
220.374	294.91
220.749	333.32
221.124	299.43
221.499	378.52
221.875	251.97
222.25	337.84
222.625	335.58
223	358.18
223.376	385.3
223.751	376.26
224.126	374
224.501	331.06
224.876	297.17
225.251	360.44
225.626	364.96
226.001	290.39
226.376	380.78
226.751	360.44
227.126	319.77
227.501	358.18
227.875	374
228.25	410.16
228.625	249.71
229	371.74
229.375	367.22
229.749	344.62
230.124	306.21
230.499	380.78
230.873	376.26
231.248	344.62
231.623	392.08
231.997	353.66
232.372	376.26
232.746	410.16
233.121	290.39
233.495	385.3
233.87	353.66
234.244	367.22
234.619	392.08
234.993	360.44
235.367	403.38
235.742	351.4
236.116	389.82
236.49	410.16
236.865	267.79
237.239	344.62
237.613	380.78
237.987	385.3
238.361	398.86
238.736	355.92
239.11	315.25
239.484	353.66
239.858	360.44
240.232	376.26
240.606	333.32
240.98	355.92
241.354	389.82
241.728	358.18
242.102	374
242.475	374
242.849	414.68
243.223	322.03
243.597	351.4
243.971	369.48
244.344	369.48
244.718	435.02
245.092	317.51
245.466	335.58
245.839	376.26
246.213	398.86
246.586	380.78
246.96	360.44
247.334	335.58
247.707	371.74
248.081	416.94
248.454	367.22
248.828	389.82
249.201	358.18
249.574	416.94
249.948	419.2
250.321	319.77
250.694	430.5
251.068	351.4
251.441	342.36
251.814	392.08
252.187	396.6
252.561	392.08
252.934	401.12
253.307	355.92
253.68	364.96
254.053	358.18
254.426	362.7
254.799	292.65
255.172	349.14
255.545	342.36
255.918	364.96
256.291	453.1
256.664	378.52
257.037	387.56
257.41	374
257.782	362.7
258.155	378.52
258.528	416.94
258.901	374
259.273	369.48
259.646	351.4
260.019	398.86
260.391	416.94
260.764	326.55
261.137	394.34
261.509	410.16
261.882	428.24
262.254	403.38
262.627	421.46
262.999	396.6
263.372	378.52
263.744	419.2
264.116	378.52
264.489	396.6
264.861	439.54
265.233	482.47
265.606	369.48
265.978	344.62
266.35	369.48
266.722	383.04
267.094	423.72
267.467	419.2
267.839	342.36
268.211	281.35
268.583	401.12
268.955	344.62
269.327	374
269.699	392.08
270.071	392.08
270.443	324.29
270.815	378.52
271.186	403.38
271.558	369.48
271.93	355.92
272.302	346.88
272.674	401.12
273.045	380.78
273.417	453.1
273.789	475.69
274.16	428.24
274.532	383.04
274.904	401.12
275.275	353.66
275.647	437.28
276.018	423.72
276.39	410.16
276.761	385.3
277.133	383.04
277.504	369.48
277.875	353.66
278.247	423.72
278.618	423.72
278.989	355.92
279.361	376.26
279.732	387.56
280.103	401.12
280.474	389.82
280.846	328.8
281.217	401.12
281.588	401.12
281.959	407.9
282.33	448.58
282.701	448.58
283.072	412.42
283.443	385.3
283.814	437.28
284.185	401.12
284.556	407.9
284.927	349.14
285.297	466.65
285.668	441.8
286.039	432.76
286.41	410.16
286.781	407.9
287.151	371.74
287.522	398.86
287.893	405.64
288.263	455.36
288.634	450.84
289.004	387.56
289.375	425.98
289.745	480.21
290.116	446.32
290.486	419.2
290.857	448.58
291.227	441.8
291.598	468.91
291.968	430.5
292.338	430.5
292.709	421.46
293.079	471.17
293.449	468.91
293.819	462.13
294.189	509.59
294.56	450.84
294.93	410.16
295.3	482.47
295.67	498.29
296.04	425.98
296.41	428.24
296.78	403.38
297.15	489.25
297.52	489.25
297.89	502.81
298.259	439.54
298.629	446.32
298.999	493.77
299.369	407.9
299.739	410.16
300.108	475.69
300.478	511.85
300.848	444.06
301.217	419.2
301.587	405.64
301.957	398.86
302.326	374
302.696	489.25
303.065	419.2
303.435	453.1
303.804	496.03
304.174	484.73
304.543	496.03
304.912	520.89
305.282	428.24
305.651	498.29
306.02	480.21
306.39	435.02
306.759	453.1
307.128	514.11
307.497	473.43
307.866	441.8
308.235	552.53
308.604	525.41
308.974	489.25
309.343	464.39
309.712	475.69
310.08	435.02
310.449	489.25
310.818	480.21
311.187	511.85
311.556	423.72
311.925	550.27
312.294	455.36
312.662	416.94
313.031	477.95
313.4	486.99
313.769	518.63
314.137	493.77
314.506	507.33
314.874	507.33
315.243	480.21
315.612	471.17
315.98	432.76
316.349	502.81
316.717	484.73
317.085	511.85
317.454	552.53
317.822	520.89
318.191	523.15
318.559	523.15
318.927	489.25
319.295	477.95
319.664	536.71
320.032	486.99
320.4	473.43
320.768	514.11
321.136	545.75
321.504	480.21
321.872	545.75
322.24	557.05
322.608	563.83
322.976	552.53
323.344	561.57
323.712	496.03
324.08	498.29
324.448	459.87
324.816	484.73
325.183	543.49
325.551	496.03
325.919	575.13
326.287	459.87
326.654	500.55
327.022	525.41
327.389	509.59
327.757	572.87
328.125	493.77
328.492	554.79
328.86	523.15
329.227	554.79
329.594	557.05
329.962	527.67
330.329	518.63
330.697	586.43
331.064	577.39
331.431	514.11
331.798	586.43
332.166	557.05
332.533	649.7
332.9	609.02
333.267	590.94
333.634	525.41
334.001	606.76
334.368	629.36
334.735	577.39
335.102	599.98
335.469	588.69
335.836	523.15
336.203	579.65
336.57	561.57
336.937	572.87
337.304	590.94
337.67	586.43
338.037	581.91
338.404	618.06
338.771	640.66
339.137	651.96
339.504	615.8
339.87	597.72
340.237	642.92
340.604	613.54
340.97	590.94
341.337	602.24
341.703	611.28
342.069	584.17
342.436	595.46
342.802	595.46
343.169	642.92
343.535	595.46
343.901	572.87
344.267	642.92
344.634	624.84
345	579.65
345.366	658.74
345.732	602.24
346.098	654.22
346.464	586.43
346.83	631.62
347.196	663.26
347.562	670.04
347.928	676.82
348.294	706.2
348.66	651.96
349.026	651.96
349.392	708.46
349.757	599.98
350.123	692.64
350.489	683.6
350.855	728.79
351.22	755.91
351.586	762.69
351.951	685.86
352.317	694.9
352.683	688.12
353.048	724.27
353.414	697.16
353.779	746.87
354.144	708.46
354.51	694.9
354.875	697.16
355.24	726.53
355.606	753.65
355.971	751.39
356.336	760.43
356.701	688.12
357.067	731.05
357.432	853.08
357.797	767.21
358.162	803.37
358.527	853.08
358.892	810.15
359.257	814.67
359.622	794.33
359.987	864.38
360.352	773.99
360.717	798.85
361.082	905.06
361.446	864.38
361.811	841.79
362.176	850.83
362.541	900.54
362.905	898.28
363.27	941.22
363.635	948
363.999	900.54
364.364	925.4
364.728	950.26
365.093	968.34
365.457	932.18
365.822	927.66
366.186	995.45
366.55	1027.09
366.915	993.19
367.279	1029.35
367.643	1004.49
368.008	1124.26
368.372	1108.45
368.736	1198.84
369.1	1164.94
369.464	1112.97
369.828	1137.82
370.192	1112.97
370.556	1162.68
370.92	1178.5
371.284	1201.1
371.648	1277.93
372.012	1289.23
372.376	1314.09
372.74	1325.39
373.104	1350.25
373.468	1544.59
373.831	1418.04
374.195	1494.88
374.559	1465.5
374.922	1596.57
375.286	1510.69
375.65	1657.58
376.013	1804.47
376.377	1892.61
376.74	1867.75
377.104	1876.79
377.467	2080.17
377.83	2048.53
378.194	2215.76
378.557	2364.91
378.92	2450.78
379.284	2613.49
379.647	2816.88
380.01	2941.17
380.373	3011.22
380.736	3234.94
381.1	3580.7
381.463	3865.44
381.826	4136.61
382.189	4380.68
382.552	4843.94
382.915	5090.26
383.278	5447.31
383.64	5908.32
384.003	6450.68
384.366	7219.02
384.729	7673.24
385.092	8204.3
385.454	9110.49
385.817	9711.61
386.18	10891.24
386.542	11792.91
386.905	13153.33
387.268	14371.37
387.63	16048.17
387.993	17094.47
388.355	18576.91
388.718	20441.27
389.08	22450.26
389.442	24294.28
389.805	26312.3
390.167	28646.7
390.529	32104.24
390.892	35317.72
391.254	37636.3
391.616	40210.24
391.978	44492.62
392.34	48537.71
392.702	50286.81
393.064	53283.34
393.426	55373.69
393.788	57199.63
394.15	58612.02
394.512	60489.93
394.874	62110.23
395.236	64046.9
395.598	65034.45
395.96	65034.45
396.321	65034.45
396.683	65034.45
397.045	65034.45
397.406	65034.45
397.768	65034.45
398.13	65034.45
398.491	65034.45
398.853	65034.45
399.214	65034.45
399.576	65034.45
399.937	65034.45
400.299	65034.45
400.66	65034.45
401.021	65034.45
401.383	65034.45
401.744	65034.45
402.105	65034.45
402.466	65034.45
402.827	65034.45
403.189	65034.45
403.55	65034.45
403.911	65034.45
404.272	65034.45
404.633	65034.45
404.994	65034.45
405.355	65034.45
405.716	65034.45
406.077	65034.45
406.437	65034.45
406.798	65034.45
407.159	65034.45
407.52	65034.45
407.88	65034.45
408.241	65034.45
408.602	65034.45
408.962	65034.45
409.323	65034.45
409.684	65034.45
410.044	65034.45
410.405	65034.45
410.765	65034.45
411.125	65034.45
411.486	65034.45
411.846	65034.45
412.206	65034.45
412.567	65034.45
412.927	65034.45
413.287	65034.45
413.647	65034.45
414.007	65034.45
414.368	65034.45
414.728	65034.45
415.088	65034.45
415.448	65034.45
415.808	65034.45
416.168	65034.45
416.528	65034.45
416.887	65034.45
417.247	65034.45
417.607	65034.45
417.967	65034.45
418.327	65034.45
418.686	65034.45
419.046	65034.45
419.406	65034.45
419.765	65034.45
420.125	65034.45
420.484	65034.45
420.844	65034.45
421.203	65034.45
421.563	65034.45
421.922	65034.45
422.282	63694.37
422.641	62078.59
423	60776.93
423.36	59793.91
423.719	58087.74
424.078	56099.09
424.437	54564.67
424.796	53134.2
425.155	51821.24
425.515	49410
425.874	47685.75
426.233	44067.77
426.592	41645.23
426.95	40610.23
427.309	38298.43
427.668	37505.23
428.027	34036.39
428.386	33453.36
428.745	30339.32
429.103	28879.47
429.462	27202.67
429.821	25941.69
430.179	24644.55
430.538	23736.1
430.897	23270.57
431.255	21713.55
431.614	20154.27
431.972	19575.76
432.33	18701.2
432.689	18470.7
433.047	17309.15
433.405	15984.89
433.764	15575.86
434.122	14970.23
434.48	14224.48
434.838	13532.98
435.197	13212.08
435.555	12497.98
435.913	12224.54
436.271	11691.22
436.629	11047.17
436.987	10443.79
437.345	9966.97
437.703	9779.4
438.061	9336.48
438.418	8516.16
438.776	8220.12
439.134	8025.78
439.492	7695.84
439.849	7442.74
440.207	6816.77
440.565	6733.16
440.922	6441.64
441.28	5903.8
441.637	5978.37
441.995	5521.89
442.352	5356.92
442.71	5139.98
443.067	5024.73
443.425	4749.03
443.782	4518.53
444.139	4414.57
444.496	4303.84
444.854	4299.32
445.211	3860.92
445.568	3869.95
445.925	3711.77
446.282	3641.71
446.639	3571.66
446.996	3467.71
447.353	3533.24
447.71	3386.35
448.067	3291.44
448.424	3042.86
448.781	2936.65
449.137	2889.19
449.494	2629.31
449.851	2672.25
450.208	2577.33
450.564	2518.58
450.921	2301.63
451.278	2331.01
451.634	2412.37
451.991	2224.8
452.347	2240.62
452.704	2125.37
453.06	1955.88
453.416	1901.64
453.773	1870.01
454.129	1790.91
454.485	1829.33
454.841	1822.55
455.198	1585.27
455.554	1668.88
455.91	1700.52
456.266	1646.28
456.622	1578.49
456.978	1512.95
457.334	1320.87
457.69	1395.44
458.046	1307.31
458.402	1334.43
458.758	1262.11
459.114	1214.66
459.469	1137.82
459.825	1183.02
460.181	1189.8
460.536	1133.3
460.892	1117.48
461.248	1049.69
461.603	1106.19
461.959	1081.33
462.314	1056.47
462.67	993.19
463.025	936.7
463.38	970.6
463.736	988.67
464.091	957.04
464.446	945.74
464.802	959.3
465.157	835.01
465.512	835.01
465.867	853.08
466.222	841.79
466.577	891.5
466.932	864.38
467.287	828.23
467.642	812.41
467.997	751.39
468.352	821.45
468.707	703.94
469.062	785.29
469.417	746.87
469.771	722.01
470.126	762.69
470.481	724.27
470.835	740.09
471.19	744.61
471.544	728.79
471.899	722.01
472.253	755.91
472.608	767.21
472.962	694.9
473.317	661
473.671	651.96
474.025	679.08
474.38	667.78
474.734	647.44
475.088	670.04
475.442	638.4
475.796	593.2
476.15	609.02
476.504	613.54
476.858	640.66
477.212	620.32
477.566	606.76
477.92	654.22
478.274	602.24
478.628	658.74
478.982	633.88
479.336	496.03
479.689	622.58
480.043	609.02
480.397	615.8
480.75	633.88
481.104	595.46
481.457	559.31
481.811	602.24
482.164	529.93
482.518	557.05
482.871	557.05
483.225	561.57
483.578	561.57
483.931	584.17
484.284	523.15
484.638	511.85
484.991	581.91
485.344	613.54
485.697	548.01
486.05	581.91
486.403	561.57
486.756	604.5
487.109	572.87
487.462	624.84
487.815	518.63
488.168	523.15
488.52	575.13
488.873	554.79
489.226	468.91
489.579	432.76
489.931	563.83
490.284	570.61
490.637	541.23
490.989	538.97
491.342	493.77
491.694	493.77
492.047	590.94
492.399	493.77
492.751	550.27
493.104	527.67
493.456	448.58
493.808	439.54
494.16	498.29
494.513	486.99
494.865	480.21
495.217	484.73
495.569	523.15
495.921	500.55
496.273	423.72
496.625	484.73
496.977	523.15
497.329	453.1
497.68	570.61
498.032	462.13
498.384	385.3
498.736	507.33
499.087	444.06
499.439	514.11
499.791	509.59
500.142	554.79
500.494	538.97
500.845	462.13
501.197	453.1
501.548	516.37
501.9	493.77
502.251	550.27
502.602	491.51
502.954	374
503.305	457.62
503.656	491.51
504.007	425.98
504.358	493.77
504.709	403.38
505.061	459.87
505.412	466.65
505.763	520.89
506.113	489.25
506.464	457.62
506.815	473.43
507.166	448.58
507.517	489.25
507.868	496.03
508.218	457.62
508.569	457.62
508.92	514.11
509.27	480.21
509.621	466.65
509.971	484.73
510.322	453.1
510.672	509.59
511.023	536.71
511.373	509.59
511.723	505.07
512.074	577.39
512.424	500.55
512.774	464.39
513.124	511.85
513.475	496.03
513.825	459.87
514.175	516.37
514.525	561.57
514.875	529.93
515.225	568.35
515.575	500.55
515.924	651.96
516.274	511.85
516.624	480.21
516.974	459.87
517.324	572.87
517.673	548.01
518.023	579.65
518.373	552.53
518.722	498.29
519.072	566.09
519.421	525.41
519.771	566.09
520.12	606.76
520.469	548.01
520.819	563.83
521.168	536.71
521.517	536.71
521.867	525.41
522.216	557.05
522.565	577.39
522.914	579.65
523.263	633.88
523.612	570.61
523.961	593.2
524.31	511.85
524.659	599.98
525.008	575.13
525.357	577.39
525.705	590.94
526.054	548.01
526.403	545.75
526.752	559.31
527.1	640.66
527.449	599.98
527.797	541.23
528.146	624.84
528.495	543.49
528.843	615.8
529.191	588.69
529.54	505.07
529.888	545.75
530.236	557.05
530.585	559.31
530.933	563.83
531.281	552.53
531.629	586.43
531.977	557.05
532.325	527.67
532.673	511.85
533.021	629.36
533.369	557.05
533.717	599.98
534.065	550.27
534.413	581.91
534.761	493.77
535.108	518.63
535.456	622.58
535.804	511.85
536.151	615.8
536.499	550.27
536.847	557.05
537.194	602.24
537.542	486.99
537.889	618.06
538.236	507.33
538.584	543.49
538.931	581.91
539.278	527.67
539.626	489.25
539.973	532.19
540.32	575.13
540.667	552.53
541.014	466.65
541.361	502.81
541.708	475.69
542.055	502.81
542.402	464.39
542.749	525.41
543.096	584.17
543.443	507.33
543.789	486.99
544.136	559.31
544.483	484.73
544.83	486.99
545.176	511.85
545.523	432.76
545.869	509.59
546.216	448.58
546.562	453.1
546.909	552.53
547.255	484.73
547.601	514.11
547.948	586.43
548.294	496.03
548.64	534.45
548.986	543.49
549.332	475.69
549.678	444.06
550.025	581.91
550.371	514.11
550.717	450.84
551.062	545.75
551.408	498.29
551.754	486.99
552.1	457.62
552.446	505.07
552.792	430.5
553.137	486.99
553.483	566.09
553.828	414.68
554.174	561.57
554.52	475.69
554.865	502.81
555.211	525.41
555.556	511.85
555.901	486.99
556.247	464.39
556.592	534.45
556.937	520.89
557.282	500.55
557.628	468.91
557.973	529.93
558.318	496.03
558.663	435.02
559.008	421.46
559.353	471.17
559.698	543.49
560.043	482.47
560.388	441.8
560.732	491.51
561.077	516.37
561.422	491.51
561.766	468.91
562.111	570.61
562.456	498.29
562.8	509.59
563.145	493.77
563.489	482.47
563.834	435.02
564.178	579.65
564.523	532.19
564.867	473.43
565.211	541.23
565.555	477.95
565.9	509.59
566.244	557.05
566.588	493.77
566.932	511.85
567.276	482.47
567.62	505.07
567.964	534.45
568.308	505.07
568.652	475.69
568.996	572.87
569.339	559.31
569.683	482.47
570.027	484.73
570.371	500.55
570.714	550.27
571.058	518.63
571.401	514.11
571.745	534.45
572.088	484.73
572.432	557.05
572.775	538.97
573.118	529.93
573.462	514.11
573.805	520.89
574.148	529.93
574.491	509.59
574.835	480.21
575.178	541.23
575.521	493.77
575.864	462.13
576.207	432.76
576.55	480.21
576.892	496.03
577.235	507.33
577.578	507.33
577.921	473.43
578.264	453.1
578.606	518.63
578.949	498.29
579.292	489.25
579.634	491.51
579.977	439.54
580.319	525.41
580.662	505.07
581.004	525.41
581.346	525.41
581.689	448.58
582.031	505.07
582.373	441.8
582.715	475.69
583.057	527.67
583.4	527.67
583.742	486.99
584.084	502.81
584.426	489.25
584.768	500.55
585.109	493.77
585.451	421.46
585.793	425.98
586.135	405.64
586.477	477.95
586.818	455.36
587.16	412.42
587.502	450.84
587.843	475.69
588.185	455.36
588.526	398.86
588.868	466.65
589.209	457.62
589.55	493.77
589.892	410.16
590.233	480.21
590.574	425.98
590.915	403.38
591.257	464.39
591.598	435.02
591.939	448.58
592.28	500.55
592.621	416.94
592.962	496.03
593.303	394.34
593.643	459.87
593.984	421.46
594.325	394.34
594.666	387.56
595.006	453.1
595.347	430.5
595.688	396.6
596.028	392.08
596.369	425.98
596.709	369.48
597.05	423.72
597.39	480.21
597.73	450.84
598.071	349.14
598.411	464.39
598.751	428.24
599.091	432.76
599.431	435.02
599.772	468.91
600.112	423.72
600.452	403.38
600.792	351.4
601.132	385.3
601.471	333.32
601.811	392.08
602.151	446.32
602.491	401.12
602.831	450.84
603.17	441.8
603.51	419.2
603.849	385.3
604.189	344.62
604.528	380.78
604.868	380.78
605.207	416.94
605.547	335.58
605.886	437.28
606.225	484.73
606.565	342.36
606.904	376.26
607.243	421.46
607.582	369.48
607.921	328.8
608.26	367.22
608.599	398.86
608.938	344.62
609.277	394.34
609.616	322.03
609.955	419.2
610.293	326.55
610.632	392.08
610.971	362.7
611.309	398.86
611.648	346.88
611.987	423.72
612.325	281.35
612.664	387.56
613.002	367.22
613.34	369.48
613.679	342.36
614.017	324.29
614.355	342.36
614.694	324.29
615.032	322.03
615.37	317.51
615.708	398.86
616.046	349.14
616.384	405.64
616.722	389.82
617.06	385.3
617.398	308.47
617.736	392.08
618.073	312.99
618.411	353.66
618.749	358.18
619.086	342.36
619.424	364.96
619.762	281.35
620.099	385.3
620.437	378.52
620.774	423.72
621.112	378.52
621.449	394.34
621.786	335.58
622.123	403.38
622.461	362.7
622.798	360.44
623.135	303.95
623.472	383.04
623.809	288.13
624.146	432.76
624.483	369.48
624.82	303.95
625.157	403.38
625.494	274.57
625.83	299.43
626.167	349.14
626.504	385.3
626.841	331.06
627.177	297.17
627.514	362.7
627.85	364.96
628.187	340.1
628.523	308.47
628.86	324.29
629.196	387.56
629.532	342.36
629.869	326.55
630.205	360.44
630.541	378.52
630.877	394.34
631.213	331.06
631.549	371.74
631.885	346.88
632.221	337.84
632.557	299.43
632.893	310.73
633.229	292.65
633.564	328.8
633.9	297.17
634.236	364.96
634.572	405.64
634.907	310.73
635.243	416.94
635.578	306.21
635.914	319.77
636.249	331.06
636.585	301.69
636.92	360.44
637.255	301.69
637.59	326.55
637.926	301.69
638.261	342.36
638.596	281.35
638.931	351.4
639.266	378.52
639.601	328.8
639.936	306.21
640.271	303.95
640.606	340.1
640.94	387.56
641.275	306.21
641.61	326.55
641.945	290.39
642.279	261.01
642.614	297.17
642.948	322.03
643.283	272.31
643.617	331.06
643.952	274.57
644.286	362.7
644.62	312.99
644.955	355.92
645.289	335.58
645.623	247.45
645.957	349.14
646.291	360.44
646.625	308.47
646.959	285.87
647.293	258.75
647.627	310.73
647.961	261.01
648.295	303.95
648.629	392.08
648.962	306.21
649.296	317.51
649.63	281.35
649.963	340.1
650.297	279.09
650.63	360.44
650.964	360.44
651.297	285.87
651.631	290.39
651.964	310.73
652.297	294.91
652.631	306.21
652.964	317.51
653.297	342.36
653.63	380.78
653.963	315.25
654.296	272.31
654.629	265.53
654.962	258.75
655.295	346.88
655.628	317.51
655.961	310.73
656.293	301.69
656.626	251.97
656.959	254.23
657.291	335.58
657.624	308.47
657.956	299.43
658.289	315.25
658.621	371.74
658.954	344.62
659.286	326.55
659.618	263.27
659.95	294.91
660.283	301.69
660.615	294.91
660.947	267.79
661.279	308.47
661.611	324.29
661.943	358.18
662.275	265.53
662.607	240.67
662.939	265.53
663.27	351.4
663.602	290.39
663.934	229.37
664.266	328.8
664.597	240.67
664.929	294.91
665.26	360.44
665.592	292.65
665.923	272.31
666.255	238.41
666.586	297.17
666.917	328.8
667.248	303.95
667.58	247.45
667.911	197.73
668.242	290.39
668.573	331.06
668.904	186.44
669.235	283.61
669.566	297.17
669.897	263.27
670.228	265.53
670.558	274.57
670.889	326.55
671.22	364.96
671.551	213.55
671.881	324.29
672.212	285.87
672.542	263.27
672.873	274.57
673.203	299.43
673.533	290.39
673.864	317.51
674.194	285.87
674.524	276.83
674.855	326.55
675.185	303.95
675.515	251.97
675.845	256.49
676.175	328.8
676.505	319.77
676.835	251.97
677.165	303.95
677.494	337.84
677.824	254.23
678.154	344.62
678.484	335.58
678.813	315.25
679.143	251.97
679.472	288.13
679.802	251.97
680.131	254.23
680.461	308.47
680.79	258.75
681.119	258.75
681.449	267.79
681.778	272.31
682.107	258.75
682.436	303.95
682.765	297.17
683.094	245.19
683.423	324.29
683.752	285.87
684.081	294.91
684.41	236.15
684.739	283.61
685.067	227.11
685.396	215.81
685.725	245.19
686.053	240.67
686.382	279.09
686.711	256.49
687.039	245.19
687.367	265.53
687.696	247.45
688.024	312.99
688.352	249.71
688.681	222.59
689.009	306.21
689.337	265.53
689.665	306.21
689.993	242.93
690.321	322.03
690.649	283.61
690.977	236.15
691.305	258.75
691.633	315.25
691.961	261.01
692.288	355.92
692.616	215.81
692.944	233.89
693.271	285.87
693.599	279.09
693.926	267.79
694.254	245.19
694.581	245.19
694.908	312.99
695.236	279.09
695.563	270.05
695.89	276.83
696.217	290.39
696.544	263.27
696.871	242.93
697.198	254.23
697.525	242.93
697.852	279.09
698.179	261.01
698.506	224.85
698.833	267.79
699.16	297.17
699.486	290.39
699.813	281.35
700.139	263.27
700.466	199.99
700.793	265.53
701.119	236.15
701.445	245.19
701.772	276.83
702.098	251.97
702.424	281.35
702.75	274.57
703.077	276.83
703.403	294.91
703.729	299.43
704.055	272.31
704.381	256.49
704.707	222.59
705.033	288.13
705.358	263.27
705.684	317.51
706.01	218.07
706.336	290.39
706.661	236.15
706.987	346.88
707.312	283.61
707.638	333.32
707.963	254.23
708.289	283.61
708.614	213.55
708.939	292.65
709.265	297.17
709.59	283.61
709.915	211.29
710.24	238.41
710.565	270.05
710.89	213.55
711.215	251.97
711.54	258.75
711.865	285.87
712.19	279.09
712.515	231.63
712.839	261.01
713.164	220.33
713.489	261.01
713.813	263.27
714.138	229.37
714.462	265.53
714.787	267.79
715.111	274.57
715.435	285.87
715.76	274.57
716.084	270.05
716.408	218.07
716.732	294.91
717.056	206.77
717.381	326.55
717.705	315.25
718.028	270.05
718.352	247.45
718.676	292.65
719	306.21
719.324	297.17
719.648	310.73
719.971	258.75
720.295	233.89
720.618	263.27
720.942	247.45
721.265	247.45
721.589	249.71
721.912	310.73
722.236	265.53
722.559	263.27
722.882	254.23
723.205	272.31
723.528	227.11
723.851	240.67
724.174	312.99
724.497	297.17
724.82	267.79
725.143	270.05
725.466	270.05
725.789	267.79
726.112	202.25
726.434	254.23
726.757	256.49
727.08	297.17
727.402	265.53
727.725	258.75
728.047	263.27
728.37	254.23
728.692	222.59
729.014	331.06
729.336	236.15
729.659	308.47
729.981	224.85
730.303	242.93
730.625	261.01
730.947	274.57
731.269	170.62
731.591	231.63
731.913	193.22
732.235	312.99
732.556	312.99
732.878	249.71
733.2	279.09
733.521	283.61
733.843	322.03
734.164	258.75
734.486	263.27
734.807	240.67
735.129	211.29
735.45	274.57
735.771	303.95
736.092	272.31
736.414	238.41
736.735	283.61
737.056	265.53
737.377	247.45
737.698	303.95
738.019	267.79
738.34	285.87
738.66	276.83
738.981	247.45
739.302	261.01
739.623	267.79
739.943	258.75
740.264	263.27
740.584	224.85
740.905	254.23
741.225	215.81
741.546	240.67
741.866	276.83
742.186	290.39
742.507	312.99
742.827	254.23
743.147	245.19
743.467	247.45
743.787	276.83
744.107	245.19
744.427	251.97
744.747	227.11
745.067	276.83
745.386	270.05
745.706	272.31
746.026	218.07
746.346	270.05
746.665	301.69
746.985	206.77
747.304	242.93
747.624	283.61
747.943	303.95
748.262	290.39
748.582	222.59
748.901	312.99
749.22	220.33
749.539	270.05
749.858	224.85
750.177	186.44
750.496	245.19
750.815	236.15
751.134	281.35
751.453	233.89
751.772	258.75
752.09	251.97
752.409	267.79
752.728	301.69
753.046	292.65
753.365	272.31
753.683	267.79
754.002	213.55
754.32	249.71
754.639	238.41
754.957	224.85
755.275	267.79
755.593	276.83
755.911	231.63
756.23	270.05
756.548	213.55
756.866	294.91
757.183	254.23
757.501	263.27
757.819	272.31
758.137	238.41
758.455	245.19
758.772	301.69
759.09	299.43
759.408	249.71
759.725	222.59
760.043	224.85
760.36	294.91
760.677	294.91
760.995	218.07
761.312	249.71
761.629	274.57
761.946	258.75
762.264	220.33
762.581	231.63
762.898	249.71
763.215	227.11
763.532	199.99
763.848	270.05
764.165	294.91
764.482	199.99
764.799	263.27
765.115	297.17
765.432	195.48
765.749	297.17
766.065	267.79
766.382	251.97
766.698	242.93
767.014	227.11
767.331	297.17
767.647	254.23
767.963	236.15
768.279	272.31
768.595	261.01
768.911	308.47
769.227	263.27
769.543	188.7
769.859	220.33
770.175	263.27
770.491	270.05
770.807	288.13
771.122	294.91
771.438	288.13
771.754	220.33
772.069	213.55
772.385	251.97
772.7	195.48
773.016	209.03
773.331	281.35
773.646	288.13
773.961	285.87
774.277	267.79
774.592	197.73
774.907	312.99
775.222	285.87
775.537	236.15
775.852	242.93
776.167	274.57
776.482	303.95
776.796	326.55
777.111	220.33
777.426	258.75
777.74	265.53
778.055	245.19
778.369	170.62
778.684	274.57
778.998	215.81
779.313	251.97
779.627	319.77
779.941	297.17
780.255	326.55
780.57	249.71
780.884	211.29
781.198	249.71
781.512	322.03
781.826	202.25
782.14	224.85
782.453	222.59
782.767	251.97
783.081	281.35
783.395	231.63
783.708	188.7
784.022	236.15
784.335	177.4
784.649	340.1
784.962	242.93
785.276	263.27
785.589	215.81
785.902	279.09
786.216	258.75
786.529	224.85
786.842	326.55
787.155	303.95
787.468	283.61
787.781	227.11
788.094	236.15
788.407	211.29
788.72	276.83
789.032	299.43
789.345	270.05
789.658	301.69
789.97	240.67
790.283	258.75
790.595	294.91
790.908	233.89
791.22	238.41
791.532	222.59
791.845	229.37
792.157	265.53
792.469	238.41
792.781	326.55
793.093	288.13
793.405	242.93
793.717	193.22
794.029	218.07
794.341	245.19
794.653	281.35
794.965	247.45
795.276	238.41
795.588	218.07
795.9	267.79
796.211	358.18
796.523	267.79
796.834	258.75
797.146	265.53
797.457	238.41
797.768	251.97
798.08	256.49
798.391	249.71
798.702	290.39
799.013	267.79
799.324	265.53
799.635	242.93
799.946	274.57
800.257	218.07
800.568	240.67
800.878	227.11
801.189	206.77
801.5	233.89
801.81	245.19
802.121	240.67
802.431	288.13
802.742	297.17
803.052	308.47
803.363	285.87
803.673	249.71
803.983	245.19
804.293	285.87
804.603	290.39
804.913	247.45
805.224	270.05
805.533	294.91
805.843	294.91
806.153	245.19
806.463	297.17
806.773	288.13
807.083	294.91
807.392	222.59
807.702	265.53
808.011	209.03
808.321	238.41
808.63	199.99
808.94	292.65
809.249	258.75
809.558	222.59
809.868	254.23
810.177	283.61
810.486	285.87
810.795	251.97
811.104	254.23
811.413	258.75
811.722	256.49
812.031	193.22
812.339	245.19
812.648	218.07
812.957	249.71
813.266	355.92
813.574	227.11
813.883	247.45
814.191	272.31
814.5	245.19
814.808	258.75
815.116	240.67
815.424	209.03
815.733	276.83
816.041	283.61
816.349	199.99
816.657	213.55
816.965	299.43
817.273	322.03
817.581	322.03
817.889	258.75
818.196	285.87
818.504	256.49
818.812	274.57
819.12	179.66
819.427	324.29
819.735	274.57
820.042	249.71
820.349	276.83
820.657	292.65
820.964	301.69
821.271	276.83
821.579	236.15
821.886	213.55
822.193	231.63
822.5	245.19
822.807	270.05
823.114	251.97
823.421	276.83
823.727	294.91
824.034	218.07
824.341	290.39
824.648	220.33
824.954	215.81
825.261	211.29
825.567	218.07
825.874	281.35
826.18	238.41
826.486	242.93
826.793	279.09
827.099	265.53
827.405	251.97
827.711	227.11
828.017	317.51
828.323	211.29
828.629	294.91
828.935	251.97
829.241	242.93
829.547	240.67
829.852	231.63
830.158	240.67
830.464	251.97
830.769	276.83
831.075	261.01
831.38	215.81
831.686	256.49
831.991	186.44
832.296	261.01
832.601	258.75
832.907	265.53
833.212	297.17
833.517	240.67
833.822	294.91
834.127	224.85
834.432	179.66
834.737	170.62
835.041	238.41
835.346	211.29
835.651	281.35
835.956	258.75
836.26	190.96
836.565	247.45
836.869	270.05
837.174	224.85
837.478	229.37
837.782	283.61
838.087	265.53
838.391	301.69
838.695	274.57
838.999	290.39
839.303	303.95
839.607	294.91
839.911	344.62
840.215	301.69
840.519	258.75
840.822	315.25
841.126	279.09
841.43	265.53
841.733	283.61
842.037	335.58
842.34	276.83
842.644	229.37
842.947	285.87
843.251	197.73
843.554	270.05
843.857	315.25
844.16	236.15
844.463	258.75
844.766	276.83
845.069	249.71
845.372	283.61
845.675	247.45
845.978	224.85
846.281	265.53
846.583	206.77
846.886	247.45
847.189	258.75
847.491	299.43
847.794	281.35
848.096	256.49
848.399	222.59
848.701	285.87
849.003	297.17
849.305	143.5
849.608	220.33
849.91	265.53
850.212	272.31
850.514	195.48
850.816	231.63
851.118	333.32
851.419	245.19
851.721	263.27
852.023	224.85
852.325	297.17
852.626	312.99
852.928	355.92
853.229	265.53
853.531	238.41
853.832	270.05
854.133	186.44
854.435	270.05
854.736	254.23
855.037	166.1
855.338	274.57
855.639	227.11
855.94	227.11
856.241	274.57
856.542	256.49
856.843	218.07
857.144	308.47
857.444	283.61
857.745	247.45
858.046	283.61
858.346	288.13
858.647	224.85
858.947	233.89
859.247	324.29
859.548	288.13
859.848	292.65
860.148	301.69
860.448	247.45
860.749	331.06
861.049	202.25
861.349	242.93
861.648	285.87
861.948	247.45
862.248	204.51
862.548	222.59
862.848	272.31
863.147	310.73
863.447	270.05
863.746	231.63
864.046	263.27
864.345	267.79
864.645	152.54
864.944	233.89
865.243	215.81
865.542	274.57
865.842	236.15
866.141	249.71
866.44	294.91
866.739	220.33
867.038	157.06
867.337	229.37
867.635	240.67
867.934	279.09
868.233	270.05
868.531	303.95
868.83	299.43
869.129	240.67
869.427	274.57
869.725	281.35
870.024	283.61
870.322	245.19
870.62	206.77
870.918	222.59
871.217	256.49
871.515	349.14
871.813	204.51
872.111	335.58
872.409	227.11
872.706	206.77
873.004	213.55
873.302	229.37
873.6	220.33
873.897	254.23
874.195	297.17
874.492	242.93
874.79	256.49
875.087	274.57
875.384	279.09
875.682	231.63
875.979	224.85
876.276	254.23
876.573	249.71
876.87	249.71
877.167	249.71
