Data from PL_2polymer_F8BT_MEHPPV_USB2H096331_0149.txt Node
Date: Tue Dec 15 15:18:10 CET 2020
User: spadmin
Spectrometer: USB2+H09633
Trigger mode: 0
Integration Time (sec): 1.000000E-2
Scans to average: 1
Electric dark correction enabled: true
Nonlinearity correction enabled: false
Boxcar width: 0
XAxis mode: Wavelengths
Number of Pixels in Spectrum: 2048
>>>>>Begin Spectral Data<<<<<
174.027	-64.26
174.405	-64.26
174.783	-64.26
175.162	-55.22
175.54	-30.37
175.918	-64.26
176.296	-116.24
176.674	-120.76
177.052	-136.58
177.43	-113.98
177.808	-39.41
178.186	26.13
178.564	-10.03
178.942	-5.51
179.32	28.39
179.698	5.79
180.076	62.29
180.453	46.47
180.831	62.29
181.209	89.4
181.587	121.04
181.965	100.7
182.342	157.2
182.72	161.72
183.098	186.58
183.475	184.32
183.853	173.02
184.231	288.27
184.608	265.67
184.986	274.71
185.363	220.47
185.741	315.39
186.118	299.57
186.496	265.67
186.873	360.58
187.251	267.93
187.628	326.69
188.006	358.32
188.383	324.43
188.76	265.67
189.138	337.99
189.515	333.47
189.892	342.51
190.27	276.97
190.647	292.79
191.024	324.43
191.401	308.61
191.778	342.51
192.155	333.47
192.533	306.35
192.91	356.06
193.287	360.58
193.664	367.36
194.041	356.06
194.418	295.05
194.795	313.13
195.172	326.69
195.549	324.43
195.926	333.47
196.302	315.39
196.679	333.47
197.056	308.61
197.433	349.28
197.81	295.05
198.187	290.53
198.563	326.69
198.94	274.71
199.317	362.84
199.693	295.05
200.07	308.61
200.447	299.57
200.823	324.43
201.2	310.87
201.576	297.31
201.953	313.13
202.329	279.23
202.706	328.95
203.082	319.91
203.459	349.28
203.835	313.13
204.212	358.32
204.588	340.25
204.964	326.69
205.341	299.57
205.717	322.17
206.093	337.99
206.469	297.31
206.846	365.1
207.222	347.02
207.598	319.91
207.974	286.01
208.35	272.45
208.726	290.53
209.102	270.19
209.479	351.54
209.855	247.59
210.231	306.35
210.607	297.31
210.982	283.75
211.358	288.27
211.734	304.09
212.11	265.67
212.486	267.93
212.862	347.02
213.238	315.39
213.614	297.31
213.989	276.97
214.365	322.17
214.741	315.39
215.116	245.33
215.492	347.02
215.868	353.8
216.243	389.96
216.619	256.63
216.995	369.62
217.37	292.79
217.746	283.75
218.121	365.1
218.497	385.44
218.872	313.13
219.247	351.54
219.623	328.95
219.998	236.29
220.374	360.58
220.749	401.26
221.124	313.13
221.499	301.83
221.875	317.65
222.25	367.36
222.625	371.88
223	344.76
223.376	389.96
223.751	319.91
224.126	360.58
224.501	383.18
224.876	428.38
225.251	317.65
225.626	383.18
226.001	322.17
226.376	331.21
226.751	351.54
227.126	342.51
227.501	310.87
227.875	351.54
228.25	369.62
228.625	353.8
229	351.54
229.375	351.54
229.749	328.95
230.124	288.27
230.499	258.89
230.873	353.8
231.248	374.14
231.623	326.69
231.997	385.44
232.372	353.8
232.746	328.95
233.121	337.99
233.495	383.18
233.87	374.14
234.244	331.21
234.619	371.88
234.993	362.84
235.367	419.34
235.742	378.66
236.116	401.26
236.49	385.44
236.865	308.61
237.239	356.06
237.613	308.61
237.987	340.25
238.361	401.26
238.736	376.4
239.11	344.76
239.484	367.36
239.858	376.4
240.232	387.7
240.606	353.8
240.98	362.84
241.354	315.39
241.728	347.02
242.102	358.32
242.475	378.66
242.849	383.18
243.223	292.79
243.597	310.87
243.971	376.4
244.344	326.69
244.718	342.51
245.092	347.02
245.466	356.06
245.839	331.21
246.213	356.06
246.586	376.4
246.96	335.73
247.334	342.51
247.707	423.86
248.081	399
248.454	414.82
248.828	365.1
249.201	378.66
249.574	333.47
249.948	471.32
250.321	369.62
250.694	378.66
251.068	358.32
251.441	333.47
251.814	358.32
252.187	360.58
252.561	383.18
252.934	389.96
253.307	387.7
253.68	387.7
254.053	349.28
254.426	428.38
254.799	378.66
255.172	385.44
255.545	441.94
255.918	369.62
256.291	414.82
256.664	387.7
257.037	365.1
257.41	444.2
257.782	430.64
258.155	414.82
258.528	365.1
258.901	380.92
259.273	396.74
259.646	365.1
260.019	324.43
260.391	405.78
260.764	441.94
261.137	349.28
261.509	385.44
261.882	378.66
262.254	333.47
262.627	389.96
262.999	394.48
263.372	387.7
263.744	446.46
264.116	414.82
264.489	403.52
264.861	297.31
265.233	387.7
265.606	399
265.978	378.66
266.35	460.02
266.722	426.12
267.094	362.84
267.467	378.66
267.839	349.28
268.211	396.74
268.583	423.86
268.955	412.56
269.327	394.48
269.699	387.7
270.071	378.66
270.443	380.92
270.815	482.61
271.186	444.2
271.558	473.58
271.93	396.74
272.302	371.88
272.674	371.88
273.045	460.02
273.417	365.1
273.789	358.32
274.16	410.3
274.532	408.04
274.904	426.12
275.275	428.38
275.647	401.26
276.018	362.84
276.39	446.46
276.761	403.52
277.133	358.32
277.504	419.34
277.875	432.9
278.247	378.66
278.618	410.3
278.989	358.32
279.361	426.12
279.732	444.2
280.103	455.5
280.474	426.12
280.846	448.72
281.217	423.86
281.588	491.65
281.959	441.94
282.33	378.66
282.701	349.28
283.072	401.26
283.443	410.3
283.814	437.42
284.185	369.62
284.556	423.86
284.927	478.09
285.297	423.86
285.668	423.86
286.039	498.43
286.41	419.34
286.781	358.32
287.151	380.92
287.522	484.87
287.893	448.72
288.263	410.3
288.634	378.66
289.004	417.08
289.375	389.96
289.745	498.43
290.116	376.4
290.486	421.6
290.857	430.64
291.227	466.8
291.598	439.68
291.968	444.2
292.338	405.78
292.709	403.52
293.079	493.91
293.449	469.06
293.819	414.82
294.189	437.42
294.56	439.68
294.93	446.46
295.3	410.3
295.67	435.16
296.04	460.02
296.41	473.58
296.78	493.91
297.15	487.13
297.52	428.38
297.89	471.32
298.259	489.39
298.629	419.34
298.999	507.47
299.369	441.94
299.739	464.54
300.108	493.91
300.478	462.28
300.848	448.72
301.217	491.65
301.587	482.61
301.957	502.95
302.326	498.43
302.696	478.09
303.065	455.5
303.435	448.72
303.804	455.5
304.174	353.8
304.543	448.72
304.912	489.39
305.282	482.61
305.651	426.12
306.02	446.46
306.39	466.8
306.759	446.46
307.128	448.72
307.497	473.58
307.866	426.12
308.235	439.68
308.604	475.83
308.974	432.9
309.343	550.41
309.712	421.6
310.08	491.65
310.449	559.45
310.818	482.61
311.187	462.28
311.556	446.46
311.925	487.13
312.294	525.55
312.662	480.35
313.031	487.13
313.4	514.25
313.769	509.73
314.137	505.21
314.506	475.83
314.874	441.94
315.243	471.32
315.612	507.47
315.98	518.77
316.349	523.29
316.717	473.58
317.085	487.13
317.454	525.55
317.822	455.5
318.191	473.58
318.559	491.65
318.927	480.35
319.295	498.43
319.664	491.65
320.032	498.43
320.4	568.49
320.768	539.11
321.136	582.05
321.504	516.51
321.872	471.32
322.24	523.29
322.608	487.13
322.976	498.43
323.344	484.87
323.712	450.98
324.08	523.29
324.448	570.75
324.816	448.72
325.183	437.42
325.551	498.43
325.919	563.97
326.287	530.07
326.654	507.47
327.022	554.93
327.389	507.47
327.757	480.35
328.125	502.95
328.492	536.85
328.86	588.83
329.227	530.07
329.594	550.41
329.962	466.8
330.329	493.91
330.697	534.59
331.064	591.09
331.431	545.89
331.798	595.61
332.166	491.65
332.533	615.94
332.9	554.93
333.267	543.63
333.634	557.19
334.001	563.97
334.368	609.16
334.735	577.53
335.102	654.36
335.469	566.23
335.836	597.87
336.203	545.89
336.57	597.87
336.937	631.76
337.304	586.57
337.67	568.49
338.037	579.79
338.404	638.54
338.771	665.66
339.137	584.31
339.504	624.98
339.87	584.31
340.237	597.87
340.604	652.1
340.97	595.61
341.337	661.14
341.703	733.46
342.069	575.27
342.436	606.9
342.802	713.12
343.169	704.08
343.535	595.61
343.901	652.1
344.267	631.76
344.634	645.32
345	634.02
345.366	683.74
345.732	620.46
346.098	681.48
346.464	690.52
346.83	647.58
347.196	631.76
347.562	688.26
347.928	708.6
348.294	697.3
348.66	697.3
349.026	629.5
349.392	719.9
349.757	634.02
350.123	722.16
350.489	681.48
350.855	717.64
351.22	724.42
351.586	749.27
351.951	686
352.317	737.97
352.683	629.5
353.048	713.12
353.414	742.49
353.779	801.25
354.144	692.78
354.51	704.08
354.875	762.83
355.24	801.25
355.606	792.21
355.971	756.05
356.336	792.21
356.701	740.23
357.067	756.05
357.432	832.89
357.797	758.31
358.162	796.73
358.527	808.03
358.892	844.19
359.257	808.03
359.622	769.61
359.987	792.21
360.352	841.93
360.717	889.38
361.082	911.98
361.446	853.23
361.811	884.86
362.176	932.32
362.541	911.98
362.905	884.86
363.27	936.84
363.635	977.52
363.999	945.88
364.364	1022.71
364.728	961.7
365.093	988.82
365.457	979.78
365.822	939.1
366.186	1006.89
366.55	1047.57
366.915	927.8
367.279	1009.15
367.643	1070.17
368.008	1126.67
368.372	1079.21
368.736	1065.65
369.1	1074.69
369.464	1194.46
369.828	1061.13
370.192	1119.89
370.556	1203.5
370.92	1165.08
371.284	1171.86
371.648	1262.25
372.012	1221.58
372.376	1296.15
372.74	1311.97
373.104	1467.9
373.468	1492.76
373.831	1515.36
374.195	1531.17
374.559	1594.45
374.922	1589.93
375.286	1655.46
375.65	1644.17
376.013	1734.56
376.377	1772.98
376.74	1838.51
377.104	1967.32
377.467	2055.45
377.83	2010.26
378.194	2272.4
378.557	2340.19
378.92	2489.34
379.284	2629.45
379.647	2742.44
380.01	2896.11
380.373	3079.16
380.736	3230.56
381.1	3671.23
381.463	3745.81
381.826	4206.81
382.189	4283.64
382.552	4767.25
382.915	5033.91
383.278	5420.34
383.64	6039.53
384.003	6545.73
384.366	7149.11
384.729	7881.29
385.092	8218
385.454	9112.9
385.817	9770.51
386.18	10855.22
386.542	11847.29
386.905	13139.91
387.268	14319.54
387.63	15829.1
387.993	16954.5
388.355	18633.55
388.718	20599.6
389.08	22384.86
389.442	24167.87
389.805	26613
390.167	28567.75
390.529	32036.59
390.892	35211.64
391.254	37451.13
391.616	39903.05
391.978	44488.24
392.34	48870.04
392.702	50101.65
393.064	53405.52
393.426	55285.69
393.788	57260.78
394.15	58736.45
394.512	60273.13
394.874	62180.43
395.236	63793.94
395.598	65032.33
395.96	65032.33
396.321	65032.33
396.683	65032.33
397.045	65032.33
397.406	65032.33
397.768	65032.33
398.13	65032.33
398.491	65032.33
398.853	65032.33
399.214	65032.33
399.576	65032.33
399.937	65032.33
400.299	65032.33
400.66	65032.33
401.021	65032.33
401.383	65032.33
401.744	65032.33
402.105	65032.33
402.466	65032.33
402.827	65032.33
403.189	65032.33
403.55	65032.33
403.911	65032.33
404.272	65032.33
404.633	65032.33
404.994	65032.33
405.355	65032.33
405.716	65032.33
406.077	65032.33
406.437	65032.33
406.798	65032.33
407.159	65032.33
407.52	65032.33
407.88	65032.33
408.241	65032.33
408.602	65032.33
408.962	65032.33
409.323	65032.33
409.684	65032.33
410.044	65032.33
410.405	65032.33
410.765	65032.33
411.125	65032.33
411.486	65032.33
411.846	65032.33
412.206	65032.33
412.567	65032.33
412.927	65032.33
413.287	65032.33
413.647	65032.33
414.007	65032.33
414.368	65032.33
414.728	65032.33
415.088	65032.33
415.448	65032.33
415.808	65032.33
416.168	65032.33
416.528	65032.33
416.887	65032.33
417.247	65032.33
417.607	65032.33
417.967	65032.33
418.327	65032.33
418.686	65032.33
419.046	65032.33
419.406	65032.33
419.765	65032.33
420.125	65032.33
420.484	65032.33
420.844	65032.33
421.203	65032.33
421.563	65032.33
421.922	65032.33
422.282	63597.34
422.641	62232.4
423	60951.08
423.36	59981.61
423.719	58092.4
424.078	56045
424.437	54408.88
424.796	53019.09
425.155	51701.61
425.515	48863.26
425.874	48099.44
426.233	44027.23
426.592	41369.67
426.95	40574.22
427.309	38422.86
427.668	37403.68
428.027	34163.08
428.386	33638.8
428.745	30151.89
429.103	28547.41
429.462	27544.05
429.821	25580.26
430.179	24543
430.538	23388.23
430.897	22997.28
431.255	21614.26
431.614	20172.49
431.972	19510.36
432.33	18615.47
432.689	18448.24
433.047	17453.92
433.405	16070.91
433.764	15503.69
434.122	15374.88
434.48	14152.31
434.838	13562.5
435.197	13054.04
435.555	12771.56
435.913	12055.19
436.271	11436
436.629	11149
436.987	10556.93
437.345	10086.88
437.703	9619.1
438.061	9239.45
438.418	8559.24
438.776	8448.51
439.134	8168.29
439.492	7616.89
439.849	7295.99
440.207	7047.41
440.565	6629.35
440.922	6360.43
441.28	5942.36
441.637	5861
441.995	5531.07
442.352	5433.9
442.71	5178.54
443.067	5176.28
443.425	4812.44
443.782	4649.74
444.139	4473.47
444.496	4233.93
444.854	4283.64
445.211	4078
445.568	4041.84
445.925	3754.84
446.282	3668.97
446.639	3605.7
446.996	3413.61
447.353	3542.42
447.71	3483.67
448.067	3384.23
448.424	3079.16
448.781	2812.5
449.137	2830.58
449.494	2769.56
449.851	2663.35
450.208	2496.12
450.564	2475.78
450.921	2304.04
451.278	2346.97
451.634	2403.47
451.991	2270.14
452.347	2218.16
452.704	2075.79
453.06	2078.05
453.416	1885.97
453.773	1838.51
454.129	1872.41
454.485	1786.53
454.841	1734.56
455.198	1689.36
455.554	1610.27
455.91	1653.21
456.266	1551.51
456.622	1418.18
456.978	1492.76
457.334	1327.79
457.69	1382.03
458.046	1260
458.402	1300.67
458.758	1210.28
459.114	1239.66
459.469	1174.12
459.825	1158.3
460.181	1119.89
460.536	1167.34
460.892	1070.17
461.248	1036.27
461.603	977.52
461.959	1024.97
462.314	1020.45
462.67	966.22
463.025	970.74
463.38	918.76
463.736	939.1
464.091	930.06
464.446	952.66
464.802	893.9
465.157	893.9
465.512	841.93
465.867	819.33
466.222	945.88
466.577	900.68
466.932	835.15
467.287	753.79
467.642	762.83
467.997	817.07
468.352	780.91
468.707	785.43
469.062	747.01
469.417	778.65
469.771	695.04
470.126	715.38
470.481	647.58
470.835	695.04
471.19	812.55
471.544	715.38
471.899	747.01
472.253	726.68
472.608	728.94
472.962	679.22
473.317	595.61
473.671	686
474.025	656.62
474.38	699.56
474.734	679.22
475.088	731.2
475.442	615.94
475.796	661.14
476.15	624.98
476.504	615.94
476.858	611.42
477.212	634.02
477.566	577.53
477.92	649.84
478.274	595.61
478.628	577.53
478.982	670.18
479.336	606.9
479.689	613.68
480.043	629.5
480.397	584.31
480.75	647.58
481.104	545.89
481.457	500.69
481.811	523.29
482.164	618.2
482.518	559.45
482.871	577.53
483.225	550.41
483.578	588.83
483.931	539.11
484.284	550.41
484.638	554.93
484.991	559.45
485.344	602.39
485.697	518.77
486.05	530.07
486.403	534.59
486.756	530.07
487.109	480.35
487.462	545.89
487.815	527.81
488.168	582.05
488.52	570.75
488.873	521.03
489.226	511.99
489.579	426.12
489.931	541.37
490.284	530.07
490.637	536.85
490.989	563.97
491.342	516.51
491.694	561.71
492.047	439.68
492.399	491.65
492.751	502.95
493.104	525.55
493.456	530.07
493.808	532.33
494.16	484.87
494.513	530.07
494.865	496.17
495.217	516.51
495.569	500.69
495.921	464.54
496.273	450.98
496.625	491.65
496.977	446.46
497.329	460.02
497.68	471.32
498.032	471.32
498.384	450.98
498.736	457.76
499.087	484.87
499.439	471.32
499.791	423.86
500.142	482.61
500.494	410.3
500.845	453.24
501.197	466.8
501.548	444.2
501.9	441.94
502.251	505.21
502.602	435.16
502.954	444.2
503.305	464.54
503.656	502.95
504.007	469.06
504.358	507.47
504.709	534.59
505.061	403.52
505.412	455.5
505.763	498.43
506.113	516.51
506.464	539.11
506.815	498.43
507.166	480.35
507.517	475.83
507.868	428.38
508.218	455.5
508.569	473.58
508.92	478.09
509.27	421.6
509.621	507.47
509.971	507.47
510.322	532.33
510.672	523.29
511.023	484.87
511.373	489.39
511.723	491.65
512.074	539.11
512.424	507.47
512.774	430.64
513.124	509.73
513.475	536.85
513.825	475.83
514.175	484.87
514.525	491.65
514.875	482.61
515.225	521.03
515.575	573.01
515.924	552.67
516.274	482.61
516.624	575.27
516.974	586.57
517.324	604.65
517.673	473.58
518.023	514.25
518.373	554.93
518.722	484.87
519.072	566.23
519.421	541.37
519.771	523.29
520.12	620.46
520.469	577.53
520.819	588.83
521.168	521.03
521.517	575.27
521.867	588.83
522.216	541.37
522.565	606.9
522.914	541.37
523.263	622.72
523.612	629.5
523.961	536.85
524.31	561.71
524.659	539.11
525.008	559.45
525.357	575.27
525.705	570.75
526.054	550.41
526.403	539.11
526.752	613.68
527.1	554.93
527.449	554.93
527.797	604.65
528.146	543.63
528.495	595.61
528.843	536.85
529.191	561.71
529.54	634.02
529.888	530.07
530.236	620.46
530.585	575.27
530.933	509.73
531.281	586.57
531.629	566.23
531.977	509.73
532.325	575.27
532.673	611.42
533.021	613.68
533.369	606.9
533.717	606.9
534.065	595.61
534.413	534.59
534.761	527.81
535.108	509.73
535.456	593.35
535.804	539.11
536.151	521.03
536.499	541.37
536.847	548.15
537.194	543.63
537.542	579.79
537.889	552.67
538.236	478.09
538.584	559.45
538.931	539.11
539.278	543.63
539.626	507.47
539.973	566.23
540.32	545.89
540.667	491.65
541.014	496.17
541.361	532.33
541.708	552.67
542.055	593.35
542.402	521.03
542.749	543.63
543.096	530.07
543.443	511.99
543.789	575.27
544.136	482.61
544.483	482.61
544.83	539.11
545.176	518.77
545.523	516.51
545.869	480.35
546.216	507.47
546.562	484.87
546.909	478.09
547.255	502.95
547.601	518.77
547.948	532.33
548.294	498.43
548.64	509.73
548.986	435.16
549.332	482.61
549.678	500.69
550.025	496.17
550.371	502.95
550.717	446.46
551.062	489.39
551.408	534.59
551.754	516.51
552.1	523.29
552.446	568.49
552.792	471.32
553.137	550.41
553.483	563.97
553.828	509.73
554.174	496.17
554.52	502.95
554.865	498.43
555.211	496.17
555.556	496.17
555.901	505.21
556.247	469.06
556.592	536.85
556.937	532.33
557.282	514.25
557.628	432.9
557.973	491.65
558.318	536.85
558.663	505.21
559.008	450.98
559.353	516.51
559.698	502.95
560.043	439.68
560.388	536.85
560.732	507.47
561.077	473.58
561.422	516.51
561.766	539.11
562.111	559.45
562.456	525.55
562.8	518.77
563.145	518.77
563.489	521.03
563.834	471.32
564.178	505.21
564.523	586.57
564.867	453.24
565.211	421.6
565.555	518.77
565.9	509.73
566.244	586.57
566.588	525.55
566.932	539.11
567.276	491.65
567.62	432.9
567.964	577.53
568.308	514.25
568.652	518.77
568.996	536.85
569.339	505.21
569.683	539.11
570.027	498.43
570.371	450.98
570.714	509.73
571.058	534.59
571.401	514.25
571.745	484.87
572.088	509.73
572.432	548.15
572.775	611.42
573.118	478.09
573.462	530.07
573.805	518.77
574.148	480.35
574.491	446.46
574.835	482.61
575.178	511.99
575.521	554.93
575.864	484.87
576.207	514.25
576.55	464.54
576.892	523.29
577.235	588.83
577.578	530.07
577.921	457.76
578.264	566.23
578.606	500.69
578.949	536.85
579.292	441.94
579.634	541.37
579.977	464.54
580.319	484.87
580.662	518.77
581.004	487.13
581.346	480.35
581.689	505.21
582.031	498.43
582.373	480.35
582.715	511.99
583.057	469.06
583.4	475.83
583.742	484.87
584.084	511.99
584.426	489.39
584.768	423.86
585.109	480.35
585.451	505.21
585.793	439.68
586.135	460.02
586.477	462.28
586.818	480.35
587.16	444.2
587.502	421.6
587.843	396.74
588.185	484.87
588.526	482.61
588.868	410.3
589.209	514.25
589.55	444.2
589.892	428.38
590.233	435.16
590.574	493.91
590.915	455.5
591.257	428.38
591.598	376.4
591.939	457.76
592.28	408.04
592.621	405.78
592.962	464.54
593.303	491.65
593.643	392.22
593.984	439.68
594.325	414.82
594.666	426.12
595.006	389.96
595.347	455.5
595.688	414.82
596.028	444.2
596.369	448.72
596.709	405.78
597.05	362.84
597.39	462.28
597.73	455.5
598.071	444.2
598.411	432.9
598.751	450.98
599.091	410.3
599.431	376.4
599.772	349.28
600.112	426.12
600.452	394.48
600.792	410.3
601.132	448.72
601.471	426.12
601.811	344.76
602.151	441.94
602.491	301.83
602.831	403.52
603.17	421.6
603.51	403.52
603.849	446.46
604.189	446.46
604.528	471.32
604.868	450.98
605.207	405.78
605.547	387.7
605.886	399
606.225	469.06
606.565	328.95
606.904	383.18
607.243	367.36
607.582	475.83
607.921	371.88
608.26	322.17
608.599	367.36
608.938	387.7
609.277	392.22
609.616	337.99
609.955	378.66
610.293	344.76
610.632	347.02
610.971	328.95
611.309	317.65
611.648	380.92
611.987	301.83
612.325	403.52
612.664	410.3
613.002	380.92
613.34	401.26
613.679	360.58
614.017	417.08
614.355	353.8
614.694	360.58
615.032	421.6
615.37	403.52
615.708	322.17
616.046	337.99
616.384	421.6
616.722	351.54
617.06	383.18
617.398	385.44
617.736	356.06
618.073	356.06
618.411	358.32
618.749	333.47
619.086	335.73
619.424	362.84
619.762	385.44
620.099	376.4
620.437	405.78
620.774	414.82
621.112	344.76
621.449	322.17
621.786	435.16
622.123	385.44
622.461	389.96
622.798	392.22
623.135	337.99
623.472	304.09
623.809	304.09
624.146	365.1
624.483	326.69
624.82	274.71
625.157	319.91
625.494	333.47
625.83	319.91
626.167	365.1
626.504	358.32
626.841	333.47
627.177	349.28
627.514	399
627.85	396.74
628.187	374.14
628.523	371.88
628.86	362.84
629.196	301.83
629.532	383.18
629.869	367.36
630.205	374.14
630.541	340.25
630.877	306.35
631.213	378.66
631.549	380.92
631.885	281.49
632.221	324.43
632.557	428.38
632.893	349.28
633.229	258.89
633.564	356.06
633.9	328.95
634.236	319.91
634.572	328.95
634.907	367.36
635.243	376.4
635.578	342.51
635.914	304.09
636.249	315.39
636.585	376.4
636.92	380.92
637.255	353.8
637.59	328.95
637.926	358.32
638.261	301.83
638.596	283.75
638.931	315.39
639.266	371.88
639.601	337.99
639.936	340.25
640.271	313.13
640.606	351.54
640.94	304.09
641.275	265.67
641.61	414.82
641.945	317.65
642.279	297.31
642.614	335.73
642.948	306.35
643.283	353.8
643.617	326.69
643.952	290.53
644.286	317.65
644.62	308.61
644.955	304.09
645.289	308.61
645.623	272.45
645.957	324.43
646.291	288.27
646.625	371.88
646.959	389.96
647.293	326.69
647.627	299.57
647.961	324.43
648.295	317.65
648.629	286.01
648.962	306.35
649.296	243.07
649.63	177.54
649.963	347.02
650.297	258.89
650.63	276.97
650.964	306.35
651.297	340.25
651.631	335.73
651.964	313.13
652.297	371.88
652.631	261.15
652.964	317.65
653.297	358.32
653.63	356.06
653.963	324.43
654.296	342.51
654.629	313.13
654.962	299.57
655.295	326.69
655.628	326.69
655.961	326.69
656.293	281.49
656.626	288.27
656.959	310.87
657.291	367.36
657.624	306.35
657.956	272.45
658.289	301.83
658.621	306.35
658.954	297.31
659.286	328.95
659.618	254.37
659.95	349.28
660.283	254.37
660.615	261.15
660.947	310.87
661.279	365.1
661.611	274.71
661.943	297.31
662.275	337.99
662.607	288.27
662.939	292.79
663.27	279.23
663.602	286.01
663.934	308.61
664.266	279.23
664.597	274.71
664.929	240.81
665.26	324.43
665.592	335.73
665.923	315.39
666.255	267.93
666.586	333.47
666.917	254.37
667.248	310.87
667.58	267.93
667.911	317.65
668.242	315.39
668.573	299.57
668.904	310.87
669.235	322.17
669.566	308.61
669.897	337.99
670.228	301.83
670.558	304.09
670.889	326.69
671.22	288.27
671.551	274.71
671.881	258.89
672.212	288.27
672.542	304.09
672.873	306.35
673.203	308.61
673.533	247.59
673.864	252.11
674.194	238.55
674.524	274.71
674.855	308.61
675.185	295.05
675.515	279.23
675.845	258.89
676.175	249.85
676.505	261.15
676.835	263.41
677.165	306.35
677.494	292.79
677.824	236.29
678.154	265.67
678.484	243.07
678.813	315.39
679.143	295.05
679.472	301.83
679.802	292.79
680.131	308.61
680.461	238.55
680.79	353.8
681.119	272.45
681.449	161.72
681.778	295.05
682.107	249.85
682.436	283.75
682.765	349.28
683.094	344.76
683.423	342.51
683.752	315.39
684.081	342.51
684.41	283.75
684.739	191.1
685.067	317.65
685.396	245.33
685.725	283.75
686.053	263.41
686.382	353.8
686.711	267.93
687.039	288.27
687.367	281.49
687.696	308.61
688.024	279.23
688.352	292.79
688.681	254.37
689.009	317.65
689.337	301.83
689.665	331.21
689.993	222.73
690.321	265.67
690.649	299.57
690.977	315.39
691.305	249.85
691.633	240.81
691.961	286.01
692.288	256.63
692.616	240.81
692.944	335.73
693.271	265.67
693.599	292.79
693.926	288.27
694.254	274.71
694.581	252.11
694.908	279.23
695.236	301.83
695.563	193.36
695.89	238.55
696.217	209.18
696.544	213.69
696.871	222.73
697.198	313.13
697.525	308.61
697.852	304.09
698.179	270.19
698.506	256.63
698.833	191.1
699.16	297.31
699.486	265.67
699.813	310.87
700.139	331.21
700.466	229.51
700.793	324.43
701.119	331.21
701.445	292.79
701.772	274.71
702.098	279.23
702.424	236.29
702.75	256.63
703.077	265.67
703.403	279.23
703.729	306.35
704.055	297.31
704.381	292.79
704.707	292.79
705.033	313.13
705.358	220.47
705.684	306.35
706.01	222.73
706.336	252.11
706.661	218.21
706.987	301.83
707.312	236.29
707.638	286.01
707.963	254.37
708.289	274.71
708.614	258.89
708.939	326.69
709.265	249.85
709.59	261.15
709.915	281.49
710.24	252.11
710.565	209.18
710.89	306.35
711.215	301.83
711.54	288.27
711.865	279.23
712.19	281.49
712.515	229.51
712.839	295.05
713.164	272.45
713.489	249.85
713.813	254.37
714.138	220.47
714.462	227.25
714.787	299.57
715.111	265.67
715.435	240.81
715.76	261.15
716.084	261.15
716.408	247.59
716.732	276.97
717.056	283.75
717.381	276.97
717.705	218.21
718.028	258.89
718.352	234.03
718.676	270.19
719	234.03
719.324	308.61
719.648	229.51
719.971	240.81
720.295	204.66
720.618	220.47
720.942	267.93
721.265	258.89
721.589	261.15
721.912	270.19
722.236	222.73
722.559	231.77
722.882	267.93
723.205	279.23
723.528	243.07
723.851	322.17
724.174	234.03
724.497	279.23
724.82	249.85
725.143	243.07
725.466	261.15
725.789	328.95
726.112	243.07
726.434	218.21
726.757	272.45
727.08	299.57
727.402	211.44
727.725	252.11
728.047	234.03
728.37	234.03
728.692	279.23
729.014	288.27
729.336	290.53
729.659	286.01
729.981	288.27
730.303	279.23
730.625	238.55
730.947	179.8
731.269	290.53
731.591	274.71
731.913	218.21
732.235	256.63
732.556	292.79
732.878	337.99
733.2	238.55
733.521	236.29
733.843	281.49
734.164	236.29
734.486	274.71
734.807	315.39
735.129	258.89
735.45	209.18
735.771	292.79
736.092	308.61
736.414	276.97
736.735	256.63
737.056	215.95
737.377	222.73
737.698	240.81
738.019	245.33
738.34	276.97
738.66	286.01
738.981	288.27
739.302	267.93
739.623	290.53
739.943	295.05
740.264	252.11
740.584	245.33
740.905	191.1
741.225	202.4
741.546	324.43
741.866	256.63
742.186	227.25
742.507	261.15
742.827	213.69
743.147	279.23
743.467	256.63
743.787	261.15
744.107	286.01
744.427	263.41
744.747	276.97
745.067	227.25
745.386	261.15
745.706	218.21
746.026	261.15
746.346	245.33
746.665	206.92
746.985	258.89
747.304	310.87
747.624	290.53
747.943	279.23
748.262	265.67
748.582	267.93
748.901	213.69
749.22	256.63
749.539	261.15
749.858	270.19
750.177	272.45
750.496	213.69
750.815	247.59
751.134	328.95
751.453	256.63
751.772	328.95
752.09	281.49
752.409	283.75
752.728	256.63
753.046	238.55
753.365	182.06
753.683	218.21
754.002	270.19
754.32	265.67
754.639	274.71
754.957	281.49
755.275	349.28
755.593	215.95
755.911	222.73
756.23	310.87
756.548	261.15
756.866	243.07
757.183	299.57
757.501	297.31
757.819	290.53
758.137	261.15
758.455	261.15
758.772	254.37
759.09	200.14
759.408	245.33
759.725	283.75
760.043	292.79
760.36	215.95
760.677	202.4
760.995	292.79
761.312	222.73
761.629	290.53
761.946	319.91
762.264	308.61
762.581	249.85
762.898	227.25
763.215	220.47
763.532	258.89
763.848	272.45
764.165	295.05
764.482	279.23
764.799	299.57
765.115	220.47
765.432	301.83
765.749	258.89
766.065	270.19
766.382	238.55
766.698	295.05
767.014	206.92
767.331	313.13
767.647	279.23
767.963	227.25
768.279	258.89
768.595	206.92
768.911	229.51
769.227	261.15
769.543	204.66
769.859	211.44
770.175	283.75
770.491	224.99
770.807	252.11
771.122	292.79
771.438	258.89
771.754	252.11
772.069	267.93
772.385	252.11
772.7	254.37
773.016	254.37
773.331	222.73
773.646	245.33
773.961	186.58
774.277	295.05
774.592	258.89
774.907	256.63
775.222	195.62
775.537	258.89
775.852	188.84
776.167	258.89
776.482	236.29
776.796	234.03
777.111	206.92
777.426	304.09
777.74	256.63
778.055	265.67
778.369	254.37
778.684	286.01
778.998	182.06
779.313	204.66
779.627	245.33
779.941	304.09
780.255	252.11
780.57	240.81
780.884	281.49
781.198	227.25
781.512	306.35
781.826	213.69
782.14	211.44
782.453	243.07
782.767	274.71
783.081	252.11
783.395	249.85
783.708	256.63
784.022	319.91
784.335	286.01
784.649	256.63
784.962	227.25
785.276	213.69
785.589	247.59
785.902	254.37
786.216	270.19
786.529	238.55
786.842	315.39
787.155	263.41
787.468	218.21
787.781	270.19
788.094	297.31
788.407	263.41
788.72	215.95
789.032	243.07
789.345	195.62
789.658	270.19
789.97	256.63
790.283	191.1
790.595	283.75
790.908	272.45
791.22	254.37
791.532	276.97
791.845	243.07
792.157	283.75
792.469	206.92
792.781	328.95
793.093	224.99
793.405	272.45
793.717	254.37
794.029	292.79
794.341	256.63
794.653	211.44
794.965	313.13
795.276	240.81
795.588	222.73
795.9	261.15
796.211	249.85
796.523	270.19
796.834	245.33
797.146	270.19
797.457	267.93
797.768	245.33
798.08	245.33
798.391	224.99
798.702	267.93
799.013	186.58
799.324	227.25
799.635	218.21
799.946	267.93
800.257	292.79
800.568	227.25
800.878	229.51
801.189	263.41
801.5	270.19
801.81	254.37
802.121	229.51
802.431	256.63
802.742	276.97
803.052	267.93
803.363	286.01
803.673	263.41
803.983	272.45
804.293	222.73
804.603	267.93
804.913	265.67
805.224	243.07
805.533	218.21
805.843	290.53
806.153	238.55
806.463	265.67
806.773	286.01
807.083	256.63
807.392	245.33
807.702	234.03
808.011	234.03
808.321	301.83
808.63	249.85
808.94	267.93
809.249	279.23
809.558	245.33
809.868	349.28
810.177	263.41
810.486	249.85
810.795	231.77
811.104	270.19
811.413	252.11
811.722	254.37
812.031	204.66
812.339	202.4
812.648	240.81
812.957	265.67
813.266	240.81
813.574	288.27
813.883	252.11
814.191	306.35
814.5	270.19
814.808	270.19
815.116	276.97
815.424	283.75
815.733	306.35
816.041	263.41
816.349	276.97
816.657	267.93
816.965	234.03
817.273	238.55
817.581	261.15
817.889	234.03
818.196	276.97
818.504	240.81
818.812	236.29
819.12	254.37
819.427	222.73
819.735	279.23
820.042	324.43
820.349	238.55
820.657	213.69
820.964	247.59
821.271	265.67
821.579	324.43
821.886	247.59
822.193	283.75
822.5	224.99
822.807	279.23
823.114	227.25
823.421	276.97
823.727	240.81
824.034	267.93
824.341	256.63
824.648	281.49
824.954	202.4
825.261	218.21
825.567	252.11
825.874	306.35
826.18	249.85
826.486	252.11
826.793	249.85
827.099	310.87
827.405	191.1
827.711	236.29
828.017	249.85
828.323	274.71
828.629	295.05
828.935	202.4
829.241	310.87
829.547	290.53
829.852	229.51
830.158	274.71
830.464	267.93
830.769	263.41
831.075	270.19
831.38	301.83
831.686	218.21
831.991	236.29
832.296	240.81
832.601	252.11
832.907	254.37
833.212	274.71
833.517	270.19
833.822	299.57
834.127	238.55
834.432	265.67
834.737	229.51
835.041	236.29
835.346	265.67
835.651	263.41
835.956	276.97
836.26	175.28
836.565	220.47
836.869	218.21
837.174	263.41
837.478	234.03
837.782	331.21
838.087	252.11
838.391	265.67
838.695	281.49
838.999	236.29
839.303	256.63
839.607	276.97
839.911	265.67
840.215	286.01
840.519	256.63
840.822	308.61
841.126	195.62
841.43	261.15
841.733	234.03
842.037	267.93
842.34	186.58
842.644	236.29
842.947	256.63
843.251	258.89
843.554	231.77
843.857	290.53
844.16	243.07
844.463	179.8
844.766	292.79
845.069	342.51
845.372	319.91
845.675	227.25
845.978	197.88
846.281	272.45
846.583	252.11
846.886	299.57
847.189	270.19
847.491	249.85
847.794	299.57
848.096	276.97
848.399	213.69
848.701	263.41
849.003	197.88
849.305	267.93
849.608	236.29
849.91	295.05
850.212	272.45
850.514	213.69
850.816	290.53
851.118	328.95
851.419	249.85
851.721	238.55
852.023	290.53
852.325	313.13
852.626	224.99
852.928	286.01
853.229	175.28
853.531	204.66
853.832	261.15
854.133	222.73
854.435	227.25
854.736	290.53
855.037	252.11
855.338	243.07
855.639	263.41
855.94	188.84
856.241	168.5
856.542	247.59
856.843	229.51
857.144	240.81
857.444	247.59
857.745	227.25
858.046	243.07
858.346	272.45
858.647	274.71
858.947	270.19
859.247	227.25
859.548	215.95
859.848	220.47
860.148	206.92
860.448	184.32
860.749	209.18
861.049	202.4
861.349	240.81
861.648	220.47
861.948	215.95
862.248	215.95
862.548	295.05
862.848	238.55
863.147	295.05
863.447	247.59
863.746	274.71
864.046	240.81
864.345	215.95
864.645	304.09
864.944	286.01
865.243	263.41
865.542	234.03
865.842	258.89
866.141	215.95
866.44	265.67
866.739	200.14
867.038	218.21
867.337	193.36
867.635	238.55
867.934	258.89
868.233	245.33
868.531	252.11
868.83	279.23
869.129	281.49
869.427	286.01
869.725	206.92
870.024	240.81
870.322	274.71
870.62	254.37
870.918	256.63
871.217	215.95
871.515	270.19
871.813	215.95
872.111	281.49
872.409	222.73
872.706	265.67
873.004	283.75
873.302	224.99
873.6	258.89
873.897	299.57
874.195	211.44
874.492	322.17
874.79	308.61
875.087	188.84
875.384	195.62
875.682	281.49
875.979	272.45
876.276	288.27
876.573	315.39
876.87	315.39
877.167	315.39
