300.47	2617.00
301.26	2619.00
302.04	2625.00
302.82	2620.00
303.60	2619.00
304.38	2620.00
305.17	2619.00
305.95	2620.00
306.73	2614.00
307.51	2615.00
308.29	2615.00
309.08	2620.00
309.86	2621.00
310.64	2621.00
311.42	2619.00
312.20	2618.00
312.98	2616.00
313.76	2617.00
314.55	2623.00
315.33	2622.00
316.11	2614.00
316.89	2620.00
317.67	2618.00
318.45	2620.00
319.23	2619.00
320.01	2621.00
320.79	2616.00
321.57	2620.00
322.35	2619.00
323.13	2623.00
323.91	2624.00
324.69	2619.00
325.47	2620.00
326.25	2624.00
327.03	2625.00
327.81	2618.00
328.59	2624.00
329.37	2620.00
330.15	2621.00
330.93	2626.00
331.71	2624.00
332.49	2626.00
333.27	2623.00
334.05	2622.00
334.83	2625.00
335.61	2628.00
336.39	2624.00
337.17	2627.00
337.95	2627.00
338.73	2628.00
339.51	2631.00
340.29	2636.00
341.07	2638.00
341.84	2638.00
342.62	2635.00
343.40	2639.00
344.18	2639.00
344.96	2638.00
345.74	2649.00
346.52	2644.00
347.29	2650.00
348.07	2654.00
348.85	2648.00
349.63	2648.00
350.41	2660.00
351.18	2659.00
351.96	2665.00
352.74	2670.00
353.52	2672.00
354.30	2683.00
355.07	2677.00
355.85	2681.00
356.63	2688.00
357.41	2690.00
358.18	2692.00
358.96	2702.00
359.74	2709.00
360.52	2711.00
361.29	2714.00
362.07	2716.00
362.85	2730.00
363.62	2732.00
364.40	2740.00
365.18	2743.00
365.95	2749.00
366.73	2758.00
367.51	2769.00
368.28	2780.00
369.06	2788.00
369.84	2789.00
370.61	2799.00
371.39	2804.00
372.17	2817.00
372.94	2828.00
373.72	2839.00
374.49	2844.00
375.27	2841.00
376.05	2861.00
376.82	2878.00
377.60	2885.00
378.37	2896.00
379.15	2913.00
379.92	2920.00
380.70	2941.00
381.47	2955.00
382.25	2968.00
383.02	2981.00
383.80	3003.00
384.58	3014.00
385.35	3035.00
386.13	3045.00
386.90	3063.00
387.67	3078.00
388.45	3098.00
389.22	3108.00
390.00	3137.00
390.77	3155.00
391.55	3167.00
392.32	3182.00
393.10	3213.00
393.87	3226.00
394.65	3238.00
395.42	3264.00
396.19	3290.00
396.97	3297.00
397.74	3323.00
398.52	3359.00
399.29	3367.00
400.06	3396.00
400.84	3424.00
401.61	3453.00
402.38	3468.00
403.16	3496.00
403.93	3521.00
404.70	3542.00
405.48	3546.00
406.25	3579.00
407.02	3610.00
407.80	3641.00
408.57	3656.00
409.34	3681.00
410.12	3712.00
410.89	3728.00
411.66	3755.00
412.43	3779.00
413.21	3808.00
413.98	3847.00
414.75	3865.00
415.52	3890.00
416.30	3926.00
417.07	3955.00
417.84	3977.00
418.61	4014.00
419.39	4034.00
420.16	4082.00
420.93	4102.00
421.70	4133.00
422.47	4163.00
423.24	4206.00
424.02	4213.00
424.79	4271.00
425.56	4292.00
426.33	4320.00
427.10	4365.00
427.87	4401.00
428.64	4462.00
429.42	4483.00
430.19	4513.00
430.96	4570.00
431.73	4613.00
432.50	4659.00
433.27	4711.00
434.04	4728.00
434.81	4785.00
435.58	4829.00
436.35	4889.00
437.12	4922.00
437.89	4988.00
438.67	5032.00
439.44	5080.00
440.21	5152.00
440.98	5181.00
441.75	5243.00
442.52	5294.00
443.29	5336.00
444.06	5408.00
444.83	5469.00
445.60	5540.00
446.37	5571.00
447.13	5653.00
447.90	5727.00
448.67	5772.00
449.44	5844.00
450.21	5917.00
450.98	5981.00
451.75	6063.00
452.52	6106.00
453.29	6195.00
454.06	6293.00
454.83	6359.00
455.60	6442.00
456.37	6505.00
457.13	6575.00
457.90	6652.00
458.67	6746.00
459.44	6835.00
460.21	6913.00
460.98	6971.00
461.75	7073.00
462.51	7180.00
463.28	7262.00
464.05	7373.00
464.82	7447.00
465.59	7562.00
466.35	7643.00
467.12	7740.00
467.89	7833.00
468.66	7921.00
469.43	8036.00
470.19	8097.00
470.96	8218.00
471.73	8302.00
472.50	8426.00
473.26	8539.00
474.03	8627.00
474.80	8729.00
475.56	8849.00
476.33	8953.00
477.10	9041.00
477.87	9190.00
478.63	9273.00
479.40	9406.00
480.17	9509.00
480.93	9675.00
481.70	9733.00
482.47	9861.00
483.23	9989.00
484.00	10132.00
484.76	10283.00
485.53	10384.00
486.30	10525.00
487.06	10647.00
487.83	10766.00
488.60	10921.00
489.36	11057.00
490.13	11156.00
490.89	11250.00
491.66	11387.00
492.42	11543.00
493.19	11696.00
493.96	11837.00
494.72	11957.00
495.49	12095.00
496.25	12197.00
497.02	12390.00
497.78	12507.00
498.55	12647.00
499.31	12766.00
500.08	12893.00
500.84	13052.00
501.61	13185.00
502.37	13339.00
503.14	13486.00
503.90	13619.00
504.67	13779.00
505.43	13949.00
506.20	14083.00
506.96	14267.00
507.72	14418.00
508.49	14603.00
509.25	14774.00
510.02	14973.00
510.78	15097.00
511.54	15289.00
512.31	15465.00
513.07	15617.00
513.84	15720.00
514.60	15902.00
515.36	16102.00
516.13	16206.00
516.89	16369.00
517.65	16477.00
518.42	16624.00
519.18	16838.00
519.94	16929.00
520.71	17125.00
521.47	17252.00
522.23	17424.00
523.00	17643.00
523.76	17811.00
524.52	17972.00
525.28	18172.00
526.05	18251.00
526.81	18478.00
527.57	18662.00
528.33	18859.00
529.10	19020.00
529.86	19214.00
530.62	19409.00
531.38	19547.00
532.15	19683.00
532.91	19818.00
533.67	20012.00
534.43	20161.00
535.19	20386.00
535.96	20575.00
536.72	20722.00
537.48	20836.00
538.24	20974.00
539.00	21191.00
539.76	21427.00
540.53	21686.00
541.29	21862.00
542.05	21974.00
542.81	22147.00
543.57	22427.00
544.33	22591.00
545.09	22845.00
545.85	22954.00
546.61	23114.00
547.38	23274.00
548.14	23439.00
548.90	23646.00
549.66	23880.00
550.42	24130.00
551.18	24235.00
551.94	24444.00
552.70	24588.00
553.46	24826.00
554.22	24972.00
554.98	25159.00
555.74	25297.00
556.50	25451.00
557.26	25733.00
558.02	25985.00
558.78	26156.00
559.54	26271.00
560.30	26476.00
561.06	26629.00
561.82	26825.00
562.58	27100.00
563.34	27309.00
564.10	27445.00
564.86	27645.00
565.61	27883.00
566.37	28151.00
567.13	28321.00
567.89	28490.00
568.65	28643.00
569.41	28846.00
570.17	28989.00
570.93	29210.00
571.69	29301.00
572.44	29538.00
573.20	29744.00
573.96	29927.00
574.72	30071.00
575.48	30292.00
576.24	30411.00
576.99	30616.00
577.75	30894.00
578.51	31098.00
579.27	31333.00
580.03	31547.00
580.78	31714.00
581.54	31979.00
582.30	32150.00
583.06	32299.00
583.82	32450.00
584.57	32670.00
585.33	32831.00
586.09	33023.00
586.84	33159.00
587.60	33276.00
588.36	33393.00
589.12	33533.00
589.87	33815.00
590.63	33973.00
591.39	34142.00
592.14	34308.00
592.90	34465.00
593.66	34630.00
594.41	34905.00
595.17	35070.00
595.93	35203.00
596.68	35298.00
597.44	35505.00
598.20	35709.00
598.95	35940.00
599.71	36222.00
600.46	36390.00
601.22	36485.00
601.98	36735.00
602.73	36967.00
603.49	37254.00
604.24	37506.00
605.00	37624.00
605.76	37693.00
606.51	37911.00
607.27	38161.00
608.02	38365.00
608.78	38607.00
609.53	38759.00
610.29	38968.00
611.04	39198.00
611.80	39404.00
612.55	39748.00
613.31	40024.00
614.06	40182.00
614.82	40391.00
615.57	40630.00
616.33	40861.00
617.08	41006.00
617.84	41095.00
618.59	41135.00
619.35	41209.00
620.10	41166.00
620.85	41238.00
621.61	41177.00
622.36	41310.00
623.12	41307.00
623.87	41379.00
624.62	41500.00
625.38	41686.00
626.13	41769.00
626.89	42107.00
627.64	42264.00
628.39	42265.00
629.15	42472.00
629.90	42471.00
630.65	42501.00
631.41	42611.00
632.16	42555.00
632.91	42495.00
633.67	42486.00
634.42	42609.00
635.17	42836.00
635.92	43075.00
636.68	43528.00
637.43	44037.00
638.18	44585.00
638.94	45075.00
639.69	45335.00
640.44	45603.00
641.19	46140.00
641.95	46430.00
642.70	46779.00
643.45	46966.00
644.20	47204.00
644.95	47426.00
645.71	47495.00
646.46	47762.00
647.21	47978.00
647.96	48042.00
648.71	48040.00
649.47	48202.00
650.22	48326.00
650.97	48436.00
651.72	48690.00
652.47	48768.00
653.22	48741.00
653.97	49013.00
654.73	49080.00
655.48	49354.00
656.23	49519.00
656.98	49804.00
657.73	49889.00
658.48	49968.00
659.23	49994.00
659.98	50004.00
660.73	50104.00
661.48	50306.00
662.23	50280.00
662.99	50224.00
663.74	50297.00
664.49	50589.00
665.24	51035.00
665.99	51516.00
666.74	51574.00
667.49	51638.00
668.24	51711.00
668.99	51917.00
669.74	52105.00
670.49	52164.00
671.24	52250.00
671.99	52403.00
672.74	52485.00
673.48	52620.00
674.23	52783.00
674.98	52774.00
675.73	52920.00
676.48	53028.00
677.23	53276.00
677.98	53340.00
678.73	53267.00
679.48	53311.00
680.23	53372.00
680.98	53295.00
681.73	53218.00
682.47	53380.00
683.22	53378.00
683.97	53403.00
684.72	53577.00
685.47	53647.00
686.22	53903.00
686.97	54164.00
687.71	54297.00
688.46	54537.00
689.21	54589.00
689.96	54597.00
690.71	54638.00
691.45	54682.00
692.20	54597.00
692.95	54628.00
693.70	54618.00
694.44	54721.00
695.19	54909.00
695.94	55021.00
696.69	55072.00
697.43	55156.00
698.18	55247.00
698.93	55289.00
699.68	55294.00
700.42	55260.00
701.17	55355.00
701.92	55390.00
702.66	55501.00
703.41	55500.00
704.16	55567.00
704.90	55700.00
705.65	55729.00
706.40	55765.00
707.14	55834.00
707.89	55713.00
708.64	55755.00
709.38	55831.00
710.13	55824.00
710.88	55945.00
711.62	56016.00
712.37	56047.00
713.11	56025.00
713.86	56053.00
714.61	56068.00
715.35	56000.00
716.10	55823.00
716.84	55714.00
717.59	55424.00
718.33	55414.00
719.08	55226.00
719.83	55219.00
720.57	55030.00
721.32	54984.00
722.06	54874.00
722.81	54910.00
723.55	54995.00
724.30	54978.00
725.04	55102.00
725.79	55041.00
726.53	55106.00
727.28	55004.00
728.02	55085.00
728.76	55187.00
729.51	55243.00
730.25	55253.00
731.00	55216.00
731.74	55171.00
732.49	55150.00
733.23	55125.00
733.97	54970.00
734.72	54957.00
735.46	54795.00
736.21	54733.00
736.95	54708.00
737.69	54804.00
738.44	55019.00
739.18	55076.00
739.92	55111.00
740.67	55107.00
741.41	55277.00
742.15	55386.00
742.90	55501.00
743.64	55558.00
744.38	55597.00
745.13	55532.00
745.87	55496.00
746.61	55575.00
747.36	55565.00
748.10	55576.00
748.84	55559.00
749.58	55382.00
750.33	55295.00
751.07	55203.00
751.81	55109.00
752.55	54900.00
753.30	54876.00
754.04	54799.00
754.78	54510.00
755.52	54414.00
756.27	54168.00
757.01	54168.00
757.75	54150.00
758.49	54276.00
759.23	54323.00
759.97	54213.00
760.72	54263.00
761.46	54303.00
762.20	54363.00
762.94	54273.00
763.68	54132.00
764.42	54033.00
765.16	53995.00
765.91	54020.00
766.65	53949.00
767.39	53711.00
768.13	53700.00
768.87	53767.00
769.61	53762.00
770.35	53681.00
771.09	53626.00
771.83	53520.00
772.57	53353.00
773.31	53316.00
774.05	53417.00
774.80	53452.00
775.54	53243.00
776.28	53165.00
777.02	53020.00
777.76	53026.00
778.50	52847.00
779.24	52785.00
779.98	52621.00
780.72	52550.00
781.46	52543.00
782.20	52452.00
782.93	52483.00
783.67	52336.00
784.41	52235.00
785.15	52125.00
785.89	51904.00
786.63	51771.00
787.37	51509.00
788.11	51302.00
788.85	51226.00
789.59	51127.00
790.33	51219.00
791.07	51072.00
791.81	50977.00
792.54	50845.00
793.28	50704.00
794.02	50456.00
794.76	50253.00
795.50	50003.00
796.24	49841.00
796.97	49495.00
797.71	49324.00
798.45	49038.00
799.19	48964.00
799.93	48920.00
800.67	48734.00
801.40	48810.00
802.14	48830.00
802.88	48964.00
803.62	48971.00
804.35	48929.00
805.09	48944.00
805.83	48843.00
806.57	48796.00
807.30	48743.00
808.04	48712.00
808.78	48463.00
809.52	48243.00
810.25	48107.00
810.99	47840.00
811.73	47749.00
812.46	47736.00
813.20	47725.00
813.94	47635.00
814.68	47589.00
815.41	47550.00
816.15	47539.00
816.88	47652.00
817.62	47567.00
818.36	47498.00
819.09	47227.00
819.83	46893.00
820.57	46852.00
821.30	46695.00
822.04	46550.00
822.77	46324.00
823.51	46250.00
824.25	46123.00
824.98	45985.00
825.72	46004.00
826.45	45970.00
827.19	45844.00
827.92	45627.00
828.66	45328.00
829.40	45148.00
830.13	45089.00
830.87	45056.00
831.60	45027.00
832.34	44914.00
833.07	44822.00
833.81	44776.00
834.54	44896.00
835.28	44827.00
836.01	44932.00
836.75	44830.00
837.48	44495.00
838.22	44368.00
838.95	44230.00
839.68	44269.00
840.42	44259.00
841.15	44360.00
841.89	44220.00
842.62	44062.00
843.36	43814.00
844.09	43869.00
844.82	43843.00
845.56	43928.00
846.29	43699.00
847.02	43526.00
847.76	43349.00
848.49	43399.00
849.23	43589.00
849.96	43816.00
850.69	43882.00
851.43	43709.00
852.16	43342.00
852.89	43069.00
853.63	42883.00
854.36	42747.00
855.09	42810.00
855.82	42776.00
856.56	42580.00
857.29	42439.00
858.02	42369.00
858.76	42280.00
859.49	42317.00
860.22	42208.00
860.95	42102.00
861.69	41977.00
862.42	41745.00
863.15	41594.00
863.88	41460.00
864.61	41474.00
865.35	41534.00
866.08	41418.00
866.81	41281.00
867.54	41080.00
868.27	40974.00
869.01	40871.00
869.74	40928.00
870.47	40825.00
871.20	40765.00
871.93	40445.00
872.66	40194.00
873.40	39986.00
874.13	39817.00
874.86	39575.00
875.59	39407.00
876.32	39449.00
877.05	39385.00
877.78	39317.00
878.51	39185.00
879.24	39041.00
879.97	38965.00
880.71	38795.00
881.44	38604.00
882.17	38524.00
882.90	38413.00
883.63	38267.00
884.36	38179.00
885.09	38189.00
885.82	38298.00
886.55	38430.00
887.28	38399.00
888.01	38319.00
888.74	38157.00
889.47	38018.00
890.20	37695.00
890.93	37475.00
891.66	37401.00
892.39	37259.00
893.12	37184.00
893.85	37150.00
894.57	37127.00
895.30	37084.00
896.03	37079.00
896.76	37030.00
897.49	36927.00
898.22	36708.00
898.95	36587.00
899.68	36460.00
900.41	36117.00
901.14	36010.00
901.86	35858.00
902.59	35782.00
903.32	35792.00
904.05	35744.00
904.78	35655.00
905.51	35432.00
906.24	35379.00
906.96	35243.00
907.69	35160.00
908.42	35024.00
909.15	34797.00
909.88	34632.00
910.60	34436.00
911.33	34386.00
912.06	34216.00
912.79	33985.00
913.52	33883.00
914.24	33810.00
914.97	33760.00
915.70	33665.00
916.42	33485.00
917.15	33191.00
917.88	33091.00
918.61	32920.00
919.33	32604.00
920.06	32309.00
920.79	32176.00
921.51	32010.00
922.24	31889.00
922.97	31731.00
923.69	31647.00
924.42	31514.00
925.15	31306.00
925.87	31147.00
926.60	30889.00
927.33	30629.00
928.05	30294.00
928.78	30081.00
929.51	29720.00
930.23	29448.00
930.96	29181.00
931.68	28753.00
932.41	28471.00
933.14	28197.00
933.86	27846.00
934.59	27503.00
935.31	27058.00
936.04	26668.00
936.76	26131.00
937.49	25607.00
938.21	25139.00
938.94	24658.00
939.66	24255.00
940.39	23904.00
941.11	23563.00
941.84	23212.00
942.56	22951.00
943.29	22643.00
944.01	22497.00
944.74	22359.00
945.46	22321.00
946.19	22293.00
946.91	22318.00
947.64	22409.00
948.36	22503.00
949.09	22567.00
949.81	22643.00
950.53	22675.00
951.26	22763.00
951.98	22858.00
952.71	22841.00
953.43	22986.00
954.15	23057.00
954.88	23207.00
955.60	23242.00
956.33	23262.00
957.05	23316.00
957.77	23366.00
958.50	23464.00
959.22	23538.00
959.94	23559.00
960.67	23440.00
961.39	23365.00
962.11	23448.00
962.84	23439.00
963.56	23343.00
964.28	23271.00
965.00	23098.00
965.73	22907.00
966.45	22780.00
967.17	22623.00
967.89	22498.00
968.62	22337.00
969.34	22183.00
970.06	22060.00
970.78	21922.00
971.51	21836.00
972.23	21724.00
972.95	21522.00
973.67	21358.00
974.40	21197.00
975.12	21142.00
975.84	20919.00
976.56	20765.00
977.28	20564.00
978.00	20473.00
978.73	20409.00
979.45	20309.00
980.17	20277.00
980.89	20232.00
981.61	20183.00
982.33	20062.00
983.05	20028.00
983.77	19977.00
984.50	19898.00
985.22	19835.00
985.94	19773.00
986.66	19714.00
987.38	19609.00
988.10	19494.00
988.82	19499.00
989.54	19389.00
990.26	19319.00
990.98	19191.00
991.70	19098.00
992.42	18923.00
993.14	18774.00
993.86	18687.00
994.58	18475.00
995.30	18366.00
996.02	18283.00
996.74	18178.00
997.46	18105.00
998.18	18036.00
998.90	17844.00
999.62	17714.00
1000.34	17587.00
1001.06	17555.00
1001.78	17432.00
1002.50	17320.00
1003.22	17126.00
1003.94	16996.00
1004.66	16800.00
1005.38	16707.00
1006.09	16550.00
1006.81	16379.00
1007.53	16208.00
1008.25	16088.00
1008.97	15943.00
1009.69	15888.00
1010.41	15746.00
1011.13	15667.00
1011.84	15450.00
1012.56	15286.00
1013.28	15145.00
1014.00	15035.00
1014.72	14870.00
1015.44	14670.00
1016.15	14438.00
1016.87	14279.00
1017.59	14129.00
1018.31	14003.00
1019.03	13878.00
1019.74	13812.00
1020.46	13722.00
1021.18	13608.00
1021.90	13483.00
1022.61	13397.00
1023.33	13285.00
1024.05	13138.00
1024.76	12963.00
1025.48	12751.00
1026.20	12585.00
1026.92	12367.00
1027.63	12212.00
1028.35	12099.00
1029.07	11908.00
1029.78	11764.00
1030.50	11610.00
1031.22	11471.00
1031.93	11387.00
1032.65	11232.00
1033.37	11194.00
1034.08	11041.00
1034.80	10973.00
1035.52	10896.00
1036.23	10822.00
1036.95	10744.00
1037.66	10612.00
1038.38	10520.00
1039.10	10332.00
1039.81	10171.00
1040.53	10017.00
1041.24	9851.00
1041.96	9718.00
1042.67	9631.00
1043.39	9497.00
1044.10	9381.00
1044.82	9289.00
1045.54	9197.00
1046.25	9073.00
1046.97	8968.00
1047.68	8840.00
1048.40	8698.00
1049.11	8546.00
1049.83	8417.00
1050.54	8289.00
1051.26	8207.00
1051.97	8108.00
1052.68	7997.00
1053.40	7899.00
1054.11	7800.00
1054.83	7671.00
1055.54	7574.00
1056.26	7427.00
1056.97	7354.00
1057.69	7273.00
1058.40	7183.00
1059.11	7066.00
1059.83	6947.00
1060.54	6798.00
1061.25	6668.00
1061.97	6529.00
1062.68	6371.00
1063.40	6269.00
1064.11	6160.00
1064.82	6037.00
1065.54	5893.00
1066.25	2566.00
1066.96	2568.00
1067.68	2565.00
1068.39	2564.00
1069.10	2618.00
1069.82	2612.00
1070.53	2618.00
1071.24	2619.00
1071.95	2617.00
1072.67	2615.00
1073.38	5777.00
1074.09	5630.00
1074.80	5547.00
1075.52	5418.00
1076.23	5320.00
1076.94	5209.00
1077.65	2601.00
1078.37	2596.00
1079.08	2600.00
1079.79	2609.00
