300.47	2618.00
301.26	2617.00
302.04	2618.00
302.82	2614.00
303.60	2619.00
304.38	2622.00
305.17	2617.00
305.95	2618.00
306.73	2617.00
307.51	2619.00
308.29	2622.00
309.08	2617.00
309.86	2626.00
310.64	2621.00
311.42	2619.00
312.20	2619.00
312.98	2618.00
313.76	2621.00
314.55	2621.00
315.33	2617.00
316.11	2616.00
316.89	2618.00
317.67	2623.00
318.45	2622.00
319.23	2623.00
320.01	2619.00
320.79	2619.00
321.57	2621.00
322.35	2618.00
323.13	2620.00
323.91	2617.00
324.69	2627.00
325.47	2621.00
326.25	2623.00
327.03	2622.00
327.81	2619.00
328.59	2627.00
329.37	2625.00
330.15	2624.00
330.93	2622.00
331.71	2625.00
332.49	2629.00
333.27	2632.00
334.05	2621.00
334.83	2625.00
335.61	2630.00
336.39	2631.00
337.17	2629.00
337.95	2630.00
338.73	2631.00
339.51	2635.00
340.29	2627.00
341.07	2638.00
341.84	2636.00
342.62	2634.00
343.40	2639.00
344.18	2639.00
344.96	2645.00
345.74	2648.00
346.52	2643.00
347.29	2652.00
348.07	2654.00
348.85	2651.00
349.63	2652.00
350.41	2663.00
351.18	2659.00
351.96	2662.00
352.74	2667.00
353.52	2672.00
354.30	2678.00
355.07	2678.00
355.85	2684.00
356.63	2689.00
357.41	2689.00
358.18	2699.00
358.96	2698.00
359.74	2709.00
360.52	2711.00
361.29	2717.00
362.07	2726.00
362.85	2731.00
363.62	2732.00
364.40	2740.00
365.18	2742.00
365.95	2745.00
366.73	2753.00
367.51	2772.00
368.28	2772.00
369.06	2775.00
369.84	2787.00
370.61	2792.00
371.39	2809.00
372.17	2823.00
372.94	2828.00
373.72	2833.00
374.49	2839.00
375.27	2846.00
376.05	2862.00
376.82	2881.00
377.60	2886.00
378.37	2910.00
379.15	2921.00
379.92	2921.00
380.70	2943.00
381.47	2960.00
382.25	2968.00
383.02	2981.00
383.80	3003.00
384.58	3015.00
385.35	3025.00
386.13	3035.00
386.90	3063.00
387.67	3073.00
388.45	3091.00
389.22	3117.00
390.00	3129.00
390.77	3156.00
391.55	3163.00
392.32	3185.00
393.10	3209.00
393.87	3217.00
394.65	3259.00
395.42	3277.00
396.19	3297.00
396.97	3316.00
397.74	3339.00
398.52	3349.00
399.29	3377.00
400.06	3397.00
400.84	3430.00
401.61	3449.00
402.38	3462.00
403.16	3487.00
403.93	3511.00
404.70	3549.00
405.48	3555.00
406.25	3591.00
407.02	3619.00
407.80	3630.00
408.57	3669.00
409.34	3675.00
410.12	3700.00
410.89	3736.00
411.66	3758.00
412.43	3779.00
413.21	3816.00
413.98	3841.00
414.75	3874.00
415.52	3907.00
416.30	3912.00
417.07	3958.00
417.84	3993.00
418.61	4009.00
419.39	4058.00
420.16	4075.00
420.93	4088.00
421.70	4127.00
422.47	4169.00
423.24	4212.00
424.02	4221.00
424.79	4269.00
425.56	4291.00
426.33	4330.00
427.10	4374.00
427.87	4405.00
428.64	4448.00
429.42	4489.00
430.19	4530.00
430.96	4561.00
431.73	4608.00
432.50	4663.00
433.27	4689.00
434.04	4738.00
434.81	4801.00
435.58	4834.00
436.35	4867.00
437.12	4950.00
437.89	4989.00
438.67	5027.00
439.44	5089.00
440.21	5164.00
440.98	5193.00
441.75	5271.00
442.52	5291.00
443.29	5381.00
444.06	5409.00
444.83	5508.00
445.60	5519.00
446.37	5601.00
447.13	5643.00
447.90	5715.00
448.67	5784.00
449.44	5864.00
450.21	5941.00
450.98	5984.00
451.75	6049.00
452.52	6109.00
453.29	6184.00
454.06	6280.00
454.83	6364.00
455.60	6401.00
456.37	6496.00
457.13	6579.00
457.90	6688.00
458.67	6744.00
459.44	6847.00
460.21	6921.00
460.98	7001.00
461.75	7062.00
462.51	7190.00
463.28	7254.00
464.05	7361.00
464.82	7436.00
465.59	7545.00
466.35	7627.00
467.12	7709.00
467.89	7846.00
468.66	7897.00
469.43	8011.00
470.19	8137.00
470.96	8223.00
471.73	8329.00
472.50	8411.00
473.26	8555.00
474.03	8636.00
474.80	8739.00
475.56	8861.00
476.33	8965.00
477.10	9046.00
477.87	9187.00
478.63	9325.00
479.40	9423.00
480.17	9529.00
480.93	9646.00
481.70	9783.00
482.47	9884.00
483.23	10006.00
484.00	10106.00
484.76	10321.00
485.53	10388.00
486.30	10498.00
487.06	10652.00
487.83	10784.00
488.60	10928.00
489.36	11030.00
490.13	11155.00
490.89	11282.00
491.66	11434.00
492.42	11565.00
493.19	11723.00
493.96	11840.00
494.72	11950.00
495.49	12062.00
496.25	12238.00
497.02	12362.00
497.78	12529.00
498.55	12663.00
499.31	12780.00
500.08	12890.00
500.84	13046.00
501.61	13166.00
502.37	13357.00
503.14	13522.00
503.90	13637.00
504.67	13794.00
505.43	13956.00
506.20	14103.00
506.96	14290.00
507.72	14424.00
508.49	14622.00
509.25	14786.00
510.02	14940.00
510.78	15120.00
511.54	15243.00
512.31	15509.00
513.07	15607.00
513.84	15777.00
514.60	15918.00
515.36	16067.00
516.13	16224.00
516.89	16378.00
517.65	16464.00
518.42	16567.00
519.18	16821.00
519.94	16958.00
520.71	17153.00
521.47	17289.00
522.23	17452.00
523.00	17598.00
523.76	17844.00
524.52	17973.00
525.28	18172.00
526.05	18392.00
526.81	18490.00
527.57	18676.00
528.33	18841.00
529.10	19026.00
529.86	19233.00
530.62	19386.00
531.38	19548.00
532.15	19723.00
532.91	19899.00
533.67	20037.00
534.43	20190.00
535.19	20378.00
535.96	20540.00
536.72	20714.00
537.48	20823.00
538.24	21076.00
539.00	21217.00
539.76	21446.00
540.53	21678.00
541.29	21853.00
542.05	22064.00
542.81	22249.00
543.57	22463.00
544.33	22670.00
545.09	22806.00
545.85	23019.00
546.61	23140.00
547.38	23307.00
548.14	23457.00
548.90	23668.00
549.66	23865.00
550.42	24088.00
551.18	24315.00
551.94	24496.00
552.70	24652.00
553.46	24803.00
554.22	24975.00
554.98	25242.00
555.74	25286.00
556.50	25568.00
557.26	25714.00
558.02	25989.00
558.78	26196.00
559.54	26315.00
560.30	26514.00
561.06	26677.00
561.82	26889.00
562.58	27165.00
563.34	27340.00
564.10	27498.00
564.86	27754.00
565.61	27897.00
566.37	28113.00
567.13	28261.00
567.89	28543.00
568.65	28708.00
569.41	28869.00
570.17	29029.00
570.93	29187.00
571.69	29434.00
572.44	29576.00
573.20	29778.00
573.96	29891.00
574.72	30143.00
575.48	30283.00
576.24	30557.00
576.99	30712.00
577.75	30934.00
578.51	31158.00
579.27	31349.00
580.03	31576.00
580.78	31855.00
581.54	32053.00
582.30	32261.00
583.06	32267.00
583.82	32530.00
584.57	32649.00
585.33	32874.00
586.09	33073.00
586.84	33170.00
587.60	33326.00
588.36	33470.00
589.12	33634.00
589.87	33795.00
590.63	34029.00
591.39	34195.00
592.14	34257.00
592.90	34470.00
593.66	34722.00
594.41	34900.00
595.17	35163.00
595.93	35258.00
596.68	35356.00
597.44	35508.00
598.20	35800.00
598.95	36048.00
599.71	36243.00
600.46	36421.00
601.22	36622.00
601.98	36752.00
602.73	37005.00
603.49	37380.00
604.24	37530.00
605.00	37695.00
605.76	37744.00
606.51	37950.00
607.27	38152.00
608.02	38428.00
608.78	38582.00
609.53	38799.00
610.29	39003.00
611.04	39242.00
611.80	39496.00
612.55	39787.00
613.31	40013.00
614.06	40275.00
614.82	40438.00
615.57	40684.00
616.33	40834.00
617.08	41053.00
617.84	41259.00
618.59	41262.00
619.35	41249.00
620.10	41209.00
620.85	41248.00
621.61	41268.00
622.36	41364.00
623.12	41385.00
623.87	41432.00
624.62	41638.00
625.38	41679.00
626.13	41895.00
626.89	42143.00
627.64	42228.00
628.39	42440.00
629.15	42459.00
629.90	42540.00
630.65	42605.00
631.41	42488.00
632.16	42667.00
632.91	42644.00
633.67	42628.00
634.42	42561.00
635.17	42845.00
635.92	43134.00
636.68	43587.00
637.43	44097.00
638.18	44663.00
638.94	45009.00
639.69	45376.00
640.44	45788.00
641.19	46088.00
641.95	46530.00
642.70	46761.00
643.45	47103.00
644.20	47345.00
644.95	47462.00
645.71	47581.00
646.46	47840.00
647.21	47968.00
647.96	48018.00
648.71	48137.00
649.47	48229.00
650.22	48357.00
650.97	48456.00
651.72	48622.00
652.47	48808.00
653.22	48959.00
653.97	49120.00
654.73	49314.00
655.48	49361.00
656.23	49499.00
656.98	49860.00
657.73	49988.00
658.48	50035.00
659.23	50031.00
659.98	50107.00
660.73	50136.00
661.48	50294.00
662.23	50317.00
662.99	50282.00
663.74	50408.00
664.49	50631.00
665.24	51159.00
665.99	51440.00
666.74	51694.00
667.49	51761.00
668.24	51836.00
668.99	51991.00
669.74	52159.00
670.49	52241.00
671.24	52373.00
671.99	52380.00
672.74	52506.00
673.48	52677.00
674.23	52753.00
674.98	52868.00
675.73	52899.00
676.48	53164.00
677.23	53321.00
677.98	53346.00
678.73	53406.00
679.48	53456.00
680.23	53364.00
680.98	53298.00
681.73	53325.00
682.47	53355.00
683.22	53345.00
683.97	53471.00
684.72	53639.00
685.47	53713.00
686.22	53908.00
686.97	54169.00
687.71	54393.00
688.46	54597.00
689.21	54595.00
689.96	54690.00
690.71	54551.00
691.45	54598.00
692.20	54672.00
692.95	54694.00
693.70	54682.00
694.44	54747.00
695.19	54921.00
695.94	55048.00
696.69	55093.00
697.43	55288.00
698.18	55145.00
698.93	55313.00
699.68	55240.00
700.42	55273.00
701.17	55325.00
701.92	55348.00
702.66	55500.00
703.41	55607.00
704.16	55565.00
704.90	55631.00
705.65	55688.00
706.40	55726.00
707.14	55719.00
707.89	55714.00
708.64	55764.00
709.38	55811.00
710.13	55772.00
710.88	56001.00
711.62	55984.00
712.37	56044.00
713.11	56083.00
713.86	56069.00
714.61	56044.00
715.35	55924.00
716.10	55823.00
716.84	55716.00
717.59	55597.00
718.33	55352.00
719.08	55234.00
719.83	55181.00
720.57	55080.00
721.32	54948.00
722.06	55018.00
722.81	54829.00
723.55	54879.00
724.30	54938.00
725.04	55080.00
725.79	55040.00
726.53	54909.00
727.28	54886.00
728.02	55050.00
728.76	55123.00
729.51	55247.00
730.25	55244.00
731.00	55238.00
731.74	55169.00
732.49	55201.00
733.23	55013.00
733.97	55007.00
734.72	54900.00
735.46	54713.00
736.21	54573.00
736.95	54749.00
737.69	54869.00
738.44	54981.00
739.18	55151.00
739.92	55102.00
740.67	55200.00
741.41	55205.00
742.15	55420.00
742.90	55420.00
743.64	55540.00
744.38	55556.00
745.13	55586.00
745.87	55465.00
746.61	55487.00
747.36	55474.00
748.10	55588.00
748.84	55463.00
749.58	55335.00
750.33	55166.00
751.07	55223.00
751.81	54926.00
752.55	54900.00
753.30	54935.00
754.04	54732.00
754.78	54533.00
755.52	54303.00
756.27	54243.00
757.01	54149.00
757.75	54121.00
758.49	54212.00
759.23	54267.00
759.97	54223.00
760.72	54163.00
761.46	54191.00
762.20	54258.00
762.94	54157.00
763.68	54051.00
764.42	53957.00
765.16	53929.00
765.91	53832.00
766.65	53813.00
767.39	53648.00
768.13	53639.00
768.87	53636.00
769.61	53708.00
770.35	53699.00
771.09	53564.00
771.83	53449.00
772.57	53285.00
773.31	53260.00
774.05	53295.00
774.80	53335.00
775.54	53152.00
776.28	53063.00
777.02	53049.00
777.76	52906.00
778.50	52862.00
779.24	52576.00
779.98	52461.00
780.72	52476.00
781.46	52459.00
782.20	52439.00
782.93	52392.00
783.67	52336.00
784.41	52141.00
785.15	52023.00
785.89	51845.00
786.63	51654.00
787.37	51366.00
788.11	51221.00
788.85	51066.00
789.59	51014.00
790.33	51007.00
791.07	51035.00
791.81	50955.00
792.54	50755.00
793.28	50585.00
794.02	50331.00
794.76	50143.00
795.50	49886.00
796.24	49729.00
796.97	49488.00
797.71	49182.00
798.45	48903.00
799.19	48860.00
799.93	48836.00
800.67	48674.00
801.40	48711.00
802.14	48885.00
802.88	48866.00
803.62	48872.00
804.35	48898.00
805.09	48831.00
805.83	48683.00
806.57	48548.00
807.30	48618.00
808.04	48504.00
808.78	48288.00
809.52	48092.00
810.25	47905.00
810.99	47778.00
811.73	47649.00
812.46	47549.00
813.20	47519.00
813.94	47578.00
814.68	47458.00
815.41	47347.00
816.15	47412.00
816.88	47546.00
817.62	47476.00
818.36	47375.00
819.09	47186.00
819.83	46883.00
820.57	46646.00
821.30	46564.00
822.04	46332.00
822.77	46272.00
823.51	46040.00
824.25	45964.00
824.98	45914.00
825.72	45815.00
826.45	45809.00
827.19	45600.00
827.92	45484.00
828.66	45176.00
829.40	45035.00
830.13	44923.00
830.87	44918.00
831.60	44957.00
832.34	44875.00
833.07	44616.00
833.81	44630.00
834.54	44806.00
835.28	44938.00
836.01	44887.00
836.75	44643.00
837.48	44356.00
838.22	44248.00
838.95	44062.00
839.68	44139.00
840.42	44220.00
841.15	44293.00
841.89	44060.00
842.62	43875.00
843.36	43722.00
844.09	43701.00
844.82	43725.00
845.56	43707.00
846.29	43533.00
847.02	43376.00
847.76	43206.00
848.49	43262.00
849.23	43527.00
849.96	43678.00
850.69	43739.00
851.43	43512.00
852.16	43184.00
852.89	42866.00
853.63	42686.00
854.36	42607.00
855.09	42613.00
855.82	42637.00
856.56	42428.00
857.29	42346.00
858.02	42202.00
858.76	42143.00
859.49	42282.00
860.22	42142.00
860.95	42013.00
861.69	41796.00
862.42	41568.00
863.15	41382.00
863.88	41255.00
864.61	41370.00
865.35	41386.00
866.08	41313.00
866.81	41082.00
867.54	41036.00
868.27	40784.00
869.01	40765.00
869.74	40693.00
870.47	40739.00
871.20	40589.00
871.93	40316.00
872.66	40122.00
873.40	39875.00
874.13	39647.00
874.86	39464.00
875.59	39297.00
876.32	39280.00
877.05	39170.00
877.78	39220.00
878.51	39087.00
879.24	38902.00
879.97	38724.00
880.71	38604.00
881.44	38549.00
882.17	38390.00
882.90	38273.00
883.63	38130.00
884.36	38056.00
885.09	38085.00
885.82	38169.00
886.55	38240.00
887.28	38273.00
888.01	38172.00
888.74	38006.00
889.47	37907.00
890.20	37535.00
890.93	37391.00
891.66	37188.00
892.39	37164.00
893.12	37058.00
893.85	36963.00
894.57	36982.00
895.30	36965.00
896.03	36932.00
896.76	36813.00
897.49	36767.00
898.22	36650.00
898.95	36429.00
899.68	36170.00
900.41	36012.00
901.14	35853.00
901.86	35672.00
902.59	35664.00
903.32	35637.00
904.05	35575.00
904.78	35493.00
905.51	35327.00
906.24	35243.00
906.96	35117.00
907.69	35053.00
908.42	34879.00
909.15	34608.00
909.88	34486.00
910.60	34309.00
911.33	34170.00
912.06	34066.00
912.79	33912.00
913.52	33734.00
914.24	33597.00
914.97	33651.00
915.70	33364.00
916.42	33280.00
917.15	33110.00
917.88	32880.00
918.61	32743.00
919.33	32453.00
920.06	32114.00
920.79	31988.00
921.51	31813.00
922.24	31755.00
922.97	31634.00
923.69	31454.00
924.42	31313.00
925.15	31154.00
925.87	31016.00
926.60	30738.00
927.33	30500.00
928.05	30196.00
928.78	29855.00
929.51	29593.00
930.23	29282.00
930.96	28993.00
931.68	28652.00
932.41	28322.00
933.14	27959.00
933.86	27705.00
934.59	27365.00
935.31	26954.00
936.04	26416.00
936.76	25964.00
937.49	25528.00
938.21	25043.00
938.94	24585.00
939.66	24170.00
940.39	23776.00
941.11	23393.00
941.84	23153.00
942.56	22753.00
943.29	22604.00
944.01	22330.00
944.74	22237.00
945.46	22215.00
946.19	22142.00
946.91	22204.00
947.64	22246.00
948.36	22345.00
949.09	22421.00
949.81	22470.00
950.53	22574.00
951.26	22649.00
951.98	22747.00
952.71	22803.00
953.43	22841.00
954.15	22976.00
954.88	23019.00
955.60	23126.00
956.33	23129.00
957.05	23200.00
957.77	23287.00
958.50	23332.00
959.22	23365.00
959.94	23412.00
960.67	23329.00
961.39	23263.00
962.11	23257.00
962.84	23287.00
963.56	23190.00
964.28	23118.00
965.00	22995.00
965.73	22747.00
966.45	22595.00
967.17	22524.00
967.89	22384.00
968.62	22247.00
969.34	22050.00
970.06	21893.00
970.78	21805.00
971.51	21716.00
972.23	21534.00
972.95	21389.00
973.67	21185.00
974.40	21068.00
975.12	20913.00
975.84	20793.00
976.56	20629.00
977.28	20442.00
978.00	20318.00
978.73	20235.00
979.45	20178.00
980.17	20146.00
980.89	20072.00
981.61	20034.00
982.33	19977.00
983.05	19964.00
983.77	19860.00
984.50	19750.00
985.22	19702.00
985.94	19639.00
986.66	19535.00
987.38	19464.00
988.10	19401.00
988.82	19363.00
989.54	19265.00
990.26	19133.00
990.98	19067.00
991.70	18855.00
992.42	18790.00
993.14	18680.00
993.86	18523.00
994.58	18422.00
995.30	18208.00
996.02	18121.00
996.74	18142.00
997.46	17961.00
998.18	17854.00
998.90	17763.00
999.62	17654.00
1000.34	17584.00
1001.06	17454.00
1001.78	17336.00
1002.50	17242.00
1003.22	17012.00
1003.94	16839.00
1004.66	16732.00
1005.38	16557.00
1006.09	16458.00
1006.81	16273.00
1007.53	16102.00
1008.25	15948.00
1008.97	15866.00
1009.69	15772.00
1010.41	15647.00
1011.13	15591.00
1011.84	15335.00
1012.56	15210.00
1013.28	15110.00
1014.00	14937.00
1014.72	14792.00
1015.44	14583.00
1016.15	14370.00
1016.87	14202.00
1017.59	14011.00
1018.31	13887.00
1019.03	13817.00
1019.74	13725.00
1020.46	13605.00
1021.18	13490.00
1021.90	13405.00
1022.61	13290.00
1023.33	13167.00
1024.05	13028.00
1024.76	12820.00
1025.48	12667.00
1026.20	12513.00
1026.92	12315.00
1027.63	12133.00
1028.35	11982.00
1029.07	11872.00
1029.78	11728.00
1030.50	11549.00
1031.22	11399.00
1031.93	11300.00
1032.65	11158.00
1033.37	11078.00
1034.08	10973.00
1034.80	10874.00
1035.52	10789.00
1036.23	10704.00
1036.95	10663.00
1037.66	10525.00
1038.38	10438.00
1039.10	10258.00
1039.81	10116.00
1040.53	9928.00
1041.24	9800.00
1041.96	9657.00
1042.67	9529.00
1043.39	9424.00
1044.10	9312.00
1044.82	9183.00
1045.54	9108.00
1046.25	9011.00
1046.97	8910.00
1047.68	8767.00
1048.40	8627.00
1049.11	8485.00
1049.83	8343.00
1050.54	8273.00
1051.26	8163.00
1051.97	8069.00
1052.68	7927.00
1053.40	7824.00
1054.11	7735.00
1054.83	7616.00
1055.54	7515.00
1056.26	7396.00
1056.97	7297.00
1057.69	7186.00
1058.40	7107.00
1059.11	7016.00
1059.83	6883.00
1060.54	6756.00
1061.25	6612.00
1061.97	6461.00
1062.68	6350.00
1063.40	6197.00
1064.11	6100.00
1064.82	5976.00
1065.54	5862.00
1066.25	2570.00
1066.96	2564.00
1067.68	2563.00
1068.39	2564.00
1069.10	2617.00
1069.82	2617.00
1070.53	2618.00
1071.24	2617.00
1071.95	2615.00
1072.67	2622.00
1073.38	5736.00
1074.09	5595.00
1074.80	5491.00
1075.52	5394.00
1076.23	5282.00
1076.94	5168.00
1077.65	2585.00
1078.37	2581.00
1079.08	2586.00
1079.79	2597.00
