300.47	2619.00
301.26	2619.00
302.04	2619.00
302.82	2615.00
303.60	2620.00
304.38	2621.00
305.17	2620.00
305.95	2616.00
306.73	2616.00
307.51	2619.00
308.29	2620.00
309.08	2622.00
309.86	2619.00
310.64	2618.00
311.42	2619.00
312.20	2619.00
312.98	2621.00
313.76	2625.00
314.55	2615.00
315.33	2620.00
316.11	2618.00
316.89	2618.00
317.67	2618.00
318.45	2617.00
319.23	2617.00
320.01	2618.00
320.79	2622.00
321.57	2624.00
322.35	2623.00
323.13	2626.00
323.91	2620.00
324.69	2619.00
325.47	2621.00
326.25	2624.00
327.03	2623.00
327.81	2621.00
328.59	2626.00
329.37	2626.00
330.15	2620.00
330.93	2625.00
331.71	2622.00
332.49	2626.00
333.27	2627.00
334.05	2626.00
334.83	2627.00
335.61	2629.00
336.39	2628.00
337.17	2627.00
337.95	2628.00
338.73	2634.00
339.51	2634.00
340.29	2638.00
341.07	2635.00
341.84	2635.00
342.62	2634.00
343.40	2633.00
344.18	2640.00
344.96	2646.00
345.74	2646.00
346.52	2645.00
347.29	2649.00
348.07	2645.00
348.85	2651.00
349.63	2661.00
350.41	2664.00
351.18	2661.00
351.96	2665.00
352.74	2673.00
353.52	2669.00
354.30	2677.00
355.07	2677.00
355.85	2682.00
356.63	2685.00
357.41	2691.00
358.18	2694.00
358.96	2701.00
359.74	2707.00
360.52	2708.00
361.29	2715.00
362.07	2722.00
362.85	2728.00
363.62	2730.00
364.40	2735.00
365.18	2743.00
365.95	2750.00
366.73	2752.00
367.51	2766.00
368.28	2777.00
369.06	2781.00
369.84	2787.00
370.61	2794.00
371.39	2808.00
372.17	2813.00
372.94	2824.00
373.72	2835.00
374.49	2846.00
375.27	2855.00
376.05	2865.00
376.82	2881.00
377.60	2881.00
378.37	2903.00
379.15	2914.00
379.92	2921.00
380.70	2940.00
381.47	2948.00
382.25	2971.00
383.02	2979.00
383.80	2985.00
384.58	3008.00
385.35	3027.00
386.13	3045.00
386.90	3059.00
387.67	3084.00
388.45	3099.00
389.22	3108.00
390.00	3128.00
390.77	3147.00
391.55	3171.00
392.32	3196.00
393.10	3210.00
393.87	3233.00
394.65	3242.00
395.42	3267.00
396.19	3291.00
396.97	3312.00
397.74	3336.00
398.52	3357.00
399.29	3376.00
400.06	3386.00
400.84	3419.00
401.61	3447.00
402.38	3469.00
403.16	3486.00
403.93	3526.00
404.70	3546.00
405.48	3555.00
406.25	3594.00
407.02	3609.00
407.80	3623.00
408.57	3660.00
409.34	3686.00
410.12	3705.00
410.89	3741.00
411.66	3761.00
412.43	3788.00
413.21	3816.00
413.98	3835.00
414.75	3876.00
415.52	3909.00
416.30	3923.00
417.07	3966.00
417.84	3983.00
418.61	4009.00
419.39	4040.00
420.16	4057.00
420.93	4109.00
421.70	4137.00
422.47	4160.00
423.24	4200.00
424.02	4225.00
424.79	4261.00
425.56	4299.00
426.33	4342.00
427.10	4362.00
427.87	4411.00
428.64	4449.00
429.42	4487.00
430.19	4520.00
430.96	4557.00
431.73	4610.00
432.50	4666.00
433.27	4690.00
434.04	4739.00
434.81	4790.00
435.58	4827.00
436.35	4890.00
437.12	4933.00
437.89	4990.00
438.67	5036.00
439.44	5075.00
440.21	5138.00
440.98	5161.00
441.75	5239.00
442.52	5292.00
443.29	5366.00
444.06	5386.00
444.83	5473.00
445.60	5524.00
446.37	5600.00
447.13	5652.00
447.90	5710.00
448.67	5794.00
449.44	5829.00
450.21	5918.00
450.98	5994.00
451.75	6045.00
452.52	6118.00
453.29	6194.00
454.06	6286.00
454.83	6360.00
455.60	6415.00
456.37	6501.00
457.13	6585.00
457.90	6657.00
458.67	6756.00
459.44	6861.00
460.21	6904.00
460.98	6986.00
461.75	7074.00
462.51	7165.00
463.28	7254.00
464.05	7371.00
464.82	7465.00
465.59	7536.00
466.35	7628.00
467.12	7722.00
467.89	7821.00
468.66	7926.00
469.43	8003.00
470.19	8102.00
470.96	8197.00
471.73	8317.00
472.50	8398.00
473.26	8521.00
474.03	8613.00
474.80	8736.00
475.56	8827.00
476.33	8977.00
477.10	9055.00
477.87	9162.00
478.63	9264.00
479.40	9417.00
480.17	9525.00
480.93	9650.00
481.70	9756.00
482.47	9880.00
483.23	9975.00
484.00	10156.00
484.76	10282.00
485.53	10399.00
486.30	10551.00
487.06	10632.00
487.83	10776.00
488.60	10919.00
489.36	11029.00
490.13	11116.00
490.89	11259.00
491.66	11410.00
492.42	11518.00
493.19	11710.00
493.96	11852.00
494.72	11967.00
495.49	12078.00
496.25	12200.00
497.02	12363.00
497.78	12527.00
498.55	12671.00
499.31	12751.00
500.08	12909.00
500.84	13063.00
501.61	13151.00
502.37	13373.00
503.14	13496.00
503.90	13604.00
504.67	13769.00
505.43	13928.00
506.20	14091.00
506.96	14264.00
507.72	14462.00
508.49	14603.00
509.25	14771.00
510.02	14978.00
510.78	15097.00
511.54	15309.00
512.31	15489.00
513.07	15606.00
513.84	15751.00
514.60	15899.00
515.36	16055.00
516.13	16207.00
516.89	16327.00
517.65	16448.00
518.42	16613.00
519.18	16747.00
519.94	16955.00
520.71	17156.00
521.47	17239.00
522.23	17419.00
523.00	17584.00
523.76	17829.00
524.52	17966.00
525.28	18152.00
526.05	18356.00
526.81	18440.00
527.57	18667.00
528.33	18869.00
529.10	19024.00
529.86	19134.00
530.62	19340.00
531.38	19517.00
532.15	19706.00
532.91	19811.00
533.67	20027.00
534.43	20150.00
535.19	20368.00
535.96	20562.00
536.72	20695.00
537.48	20770.00
538.24	21033.00
539.00	21184.00
539.76	21492.00
540.53	21674.00
541.29	21868.00
542.05	22050.00
542.81	22258.00
543.57	22450.00
544.33	22653.00
545.09	22805.00
545.85	23028.00
546.61	23158.00
547.38	23293.00
548.14	23413.00
548.90	23684.00
549.66	23880.00
550.42	24047.00
551.18	24290.00
551.94	24434.00
552.70	24621.00
553.46	24793.00
554.22	24986.00
554.98	25228.00
555.74	25303.00
556.50	25449.00
557.26	25672.00
558.02	25985.00
558.78	26147.00
559.54	26359.00
560.30	26423.00
561.06	26660.00
561.82	26851.00
562.58	27118.00
563.34	27301.00
564.10	27525.00
564.86	27673.00
565.61	27882.00
566.37	28067.00
567.13	28307.00
567.89	28504.00
568.65	28654.00
569.41	28785.00
570.17	29001.00
570.93	29188.00
571.69	29417.00
572.44	29531.00
573.20	29702.00
573.96	29910.00
574.72	30066.00
575.48	30248.00
576.24	30463.00
576.99	30609.00
577.75	30888.00
578.51	31090.00
579.27	31304.00
580.03	31438.00
580.78	31765.00
581.54	31906.00
582.30	32190.00
583.06	32334.00
583.82	32522.00
584.57	32673.00
585.33	32820.00
586.09	32946.00
586.84	33087.00
587.60	33270.00
588.36	33376.00
589.12	33497.00
589.87	33791.00
590.63	33884.00
591.39	34111.00
592.14	34306.00
592.90	34478.00
593.66	34714.00
594.41	34912.00
595.17	35092.00
595.93	35153.00
596.68	35351.00
597.44	35527.00
598.20	35620.00
598.95	35967.00
599.71	36224.00
600.46	36391.00
601.22	36554.00
601.98	36686.00
602.73	36973.00
603.49	37244.00
604.24	37538.00
605.00	37679.00
605.76	37732.00
606.51	37948.00
607.27	38041.00
608.02	38310.00
608.78	38573.00
609.53	38764.00
610.29	38927.00
611.04	39169.00
611.80	39475.00
612.55	39715.00
613.31	39983.00
614.06	40240.00
614.82	40456.00
615.57	40634.00
616.33	40815.00
617.08	40932.00
617.84	41141.00
618.59	41258.00
619.35	41158.00
620.10	41172.00
620.85	41138.00
621.61	41194.00
622.36	41318.00
623.12	41371.00
623.87	41402.00
624.62	41518.00
625.38	41586.00
626.13	41751.00
626.89	42026.00
627.64	42224.00
628.39	42327.00
629.15	42404.00
629.90	42485.00
630.65	42447.00
631.41	42619.00
632.16	42522.00
632.91	42500.00
633.67	42528.00
634.42	42550.00
635.17	42754.00
635.92	43078.00
636.68	43494.00
637.43	43988.00
638.18	44593.00
638.94	44987.00
639.69	45337.00
640.44	45631.00
641.19	46073.00
641.95	46391.00
642.70	46724.00
643.45	46970.00
644.20	47211.00
644.95	47351.00
645.71	47613.00
646.46	47724.00
647.21	47962.00
647.96	47944.00
648.71	48063.00
649.47	48188.00
650.22	48319.00
650.97	48432.00
651.72	48632.00
652.47	48741.00
653.22	48871.00
653.97	49070.00
654.73	49129.00
655.48	49378.00
656.23	49542.00
656.98	49732.00
657.73	49930.00
658.48	49916.00
659.23	50075.00
659.98	50011.00
660.73	50060.00
661.48	50215.00
662.23	50265.00
662.99	50216.00
663.74	50205.00
664.49	50541.00
665.24	51053.00
665.99	51429.00
666.74	51658.00
667.49	51641.00
668.24	51774.00
668.99	51911.00
669.74	52136.00
670.49	52275.00
671.24	52242.00
671.99	52356.00
672.74	52466.00
673.48	52648.00
674.23	52693.00
674.98	52799.00
675.73	52900.00
676.48	53078.00
677.23	53209.00
677.98	53295.00
678.73	53336.00
679.48	53254.00
680.23	53352.00
680.98	53357.00
681.73	53268.00
682.47	53297.00
683.22	53310.00
683.97	53377.00
684.72	53520.00
685.47	53684.00
686.22	53872.00
686.97	54077.00
687.71	54359.00
688.46	54553.00
689.21	54644.00
689.96	54646.00
690.71	54674.00
691.45	54600.00
692.20	54554.00
692.95	54591.00
693.70	54614.00
694.44	54698.00
695.19	54834.00
695.94	54926.00
696.69	54981.00
697.43	55156.00
698.18	55178.00
698.93	55227.00
699.68	55190.00
700.42	55398.00
701.17	55363.00
701.92	55400.00
702.66	55472.00
703.41	55459.00
704.16	55514.00
704.90	55622.00
705.65	55741.00
706.40	55595.00
707.14	55698.00
707.89	55707.00
708.64	55776.00
709.38	55801.00
710.13	55844.00
710.88	55936.00
711.62	56026.00
712.37	56021.00
713.11	56044.00
713.86	56077.00
714.61	56088.00
715.35	55904.00
716.10	55759.00
716.84	55589.00
717.59	55519.00
718.33	55273.00
719.08	55183.00
719.83	55140.00
720.57	54982.00
721.32	54881.00
722.06	54930.00
722.81	54801.00
723.55	54835.00
724.30	54927.00
725.04	54980.00
725.79	55030.00
726.53	55061.00
727.28	54969.00
728.02	55007.00
728.76	55105.00
729.51	55220.00
730.25	55243.00
731.00	55281.00
731.74	55155.00
732.49	55200.00
733.23	55191.00
733.97	54931.00
734.72	54921.00
735.46	54707.00
736.21	54687.00
736.95	54696.00
737.69	54813.00
738.44	54976.00
739.18	55080.00
739.92	55099.00
740.67	55176.00
741.41	55258.00
742.15	55379.00
742.90	55517.00
743.64	55523.00
744.38	55456.00
745.13	55519.00
745.87	55460.00
746.61	55472.00
747.36	55483.00
748.10	55503.00
748.84	55441.00
749.58	55299.00
750.33	55260.00
751.07	55129.00
751.81	55031.00
752.55	54954.00
753.30	54940.00
754.04	54771.00
754.78	54474.00
755.52	54391.00
756.27	54255.00
757.01	54195.00
757.75	54218.00
758.49	54219.00
759.23	54284.00
759.97	54138.00
760.72	54292.00
761.46	54251.00
762.20	54294.00
762.94	54296.00
763.68	54185.00
764.42	53951.00
765.16	54007.00
765.91	53923.00
766.65	53865.00
767.39	53811.00
768.13	53702.00
768.87	53699.00
769.61	53720.00
770.35	53639.00
771.09	53597.00
771.83	53435.00
772.57	53384.00
773.31	53351.00
774.05	53426.00
774.80	53388.00
775.54	53243.00
776.28	53104.00
777.02	53070.00
777.76	52977.00
778.50	52842.00
779.24	52631.00
779.98	52586.00
780.72	52519.00
781.46	52447.00
782.20	52507.00
782.93	52430.00
783.67	52345.00
784.41	52209.00
785.15	52027.00
785.89	51905.00
786.63	51698.00
787.37	51569.00
788.11	51160.00
788.85	51099.00
789.59	51093.00
790.33	51094.00
791.07	51127.00
791.81	50869.00
792.54	50789.00
793.28	50655.00
794.02	50510.00
794.76	50194.00
795.50	50007.00
796.24	49681.00
796.97	49492.00
797.71	49267.00
798.45	49022.00
799.19	48962.00
799.93	48882.00
800.67	48809.00
801.40	48625.00
802.14	48867.00
802.88	48834.00
803.62	48954.00
804.35	48894.00
805.09	48870.00
805.83	48711.00
806.57	48743.00
807.30	48664.00
808.04	48663.00
808.78	48518.00
809.52	48224.00
810.25	47989.00
810.99	47767.00
811.73	47695.00
812.46	47607.00
813.20	47678.00
813.94	47568.00
814.68	47605.00
815.41	47485.00
816.15	47438.00
816.88	47620.00
817.62	47544.00
818.36	47376.00
819.09	47211.00
819.83	46839.00
820.57	46806.00
821.30	46575.00
822.04	46511.00
822.77	46335.00
823.51	46108.00
824.25	46107.00
824.98	46010.00
825.72	46020.00
826.45	45935.00
827.19	45702.00
827.92	45569.00
828.66	45197.00
829.40	45107.00
830.13	44979.00
830.87	45040.00
831.60	45069.00
832.34	44956.00
833.07	44806.00
833.81	44793.00
834.54	44842.00
835.28	44831.00
836.01	44902.00
836.75	44770.00
837.48	44470.00
838.22	44314.00
838.95	44159.00
839.68	44254.00
840.42	44249.00
841.15	44309.00
841.89	44229.00
842.62	43955.00
843.36	43740.00
844.09	43765.00
844.82	43801.00
845.56	43830.00
846.29	43568.00
847.02	43465.00
847.76	43373.00
848.49	43479.00
849.23	43607.00
849.96	43801.00
850.69	43845.00
851.43	43608.00
852.16	43284.00
852.89	43007.00
853.63	42812.00
854.36	42690.00
855.09	42794.00
855.82	42686.00
856.56	42508.00
857.29	42439.00
858.02	42292.00
858.76	42336.00
859.49	42321.00
860.22	42197.00
860.95	42062.00
861.69	41838.00
862.42	41646.00
863.15	41470.00
863.88	41380.00
864.61	41423.00
865.35	41557.00
866.08	41378.00
866.81	41207.00
867.54	41142.00
868.27	40927.00
869.01	40766.00
869.74	40808.00
870.47	40762.00
871.20	40594.00
871.93	40452.00
872.66	40186.00
873.40	40102.00
874.13	39812.00
874.86	39620.00
875.59	39395.00
876.32	39369.00
877.05	39298.00
877.78	39305.00
878.51	39138.00
879.24	39002.00
879.97	38870.00
880.71	38739.00
881.44	38641.00
882.17	38488.00
882.90	38387.00
883.63	38226.00
884.36	38234.00
885.09	38135.00
885.82	38260.00
886.55	38302.00
887.28	38365.00
888.01	38210.00
888.74	38163.00
889.47	37955.00
890.20	37694.00
890.93	37457.00
891.66	37321.00
892.39	37153.00
893.12	37124.00
893.85	37203.00
894.57	37142.00
895.30	37086.00
896.03	37062.00
896.76	36962.00
897.49	36878.00
898.22	36737.00
898.95	36590.00
899.68	36316.00
900.41	36172.00
901.14	35887.00
901.86	35826.00
902.59	35772.00
903.32	35737.00
904.05	35657.00
904.78	35485.00
905.51	35381.00
906.24	35308.00
906.96	35331.00
907.69	35169.00
908.42	34943.00
909.15	34754.00
909.88	34599.00
910.60	34495.00
911.33	34331.00
912.06	34189.00
912.79	33928.00
913.52	33752.00
914.24	33674.00
914.97	33715.00
915.70	33516.00
916.42	33384.00
917.15	33236.00
917.88	33019.00
918.61	32831.00
919.33	32670.00
920.06	32280.00
920.79	32106.00
921.51	31893.00
922.24	31837.00
922.97	31727.00
923.69	31546.00
924.42	31486.00
925.15	31330.00
925.87	31093.00
926.60	30916.00
927.33	30604.00
928.05	30329.00
928.78	30070.00
929.51	29691.00
930.23	29413.00
930.96	29025.00
931.68	28676.00
932.41	28441.00
933.14	28108.00
933.86	27782.00
934.59	27414.00
935.31	27095.00
936.04	26467.00
936.76	26113.00
937.49	25648.00
938.21	25130.00
938.94	24708.00
939.66	24200.00
940.39	23903.00
941.11	23491.00
941.84	23208.00
942.56	22888.00
943.29	22660.00
944.01	22391.00
944.74	22287.00
945.46	22254.00
946.19	22209.00
946.91	22294.00
947.64	22385.00
948.36	22438.00
949.09	22554.00
949.81	22559.00
950.53	22687.00
951.26	22710.00
951.98	22809.00
952.71	22930.00
953.43	22926.00
954.15	23042.00
954.88	23174.00
955.60	23210.00
956.33	23218.00
957.05	23202.00
957.77	23343.00
958.50	23455.00
959.22	23509.00
959.94	23444.00
960.67	23437.00
961.39	23353.00
962.11	23333.00
962.84	23409.00
963.56	23307.00
964.28	23236.00
965.00	23058.00
965.73	22959.00
966.45	22716.00
967.17	22645.00
967.89	22471.00
968.62	22345.00
969.34	22159.00
970.06	21967.00
970.78	21920.00
971.51	21779.00
972.23	21698.00
972.95	21423.00
973.67	21284.00
974.40	21155.00
975.12	21043.00
975.84	20911.00
976.56	20736.00
977.28	20495.00
978.00	20381.00
978.73	20385.00
979.45	20253.00
980.17	20232.00
980.89	20176.00
981.61	20107.00
982.33	20056.00
983.05	19970.00
983.77	19924.00
984.50	19856.00
985.22	19785.00
985.94	19708.00
986.66	19586.00
987.38	19542.00
988.10	19472.00
988.82	19473.00
989.54	19328.00
990.26	19259.00
990.98	19091.00
991.70	19004.00
992.42	18842.00
993.14	18755.00
993.86	18597.00
994.58	18458.00
995.30	18348.00
996.02	18256.00
996.74	18167.00
997.46	18025.00
998.18	17969.00
998.90	17849.00
999.62	17730.00
1000.34	17605.00
1001.06	17528.00
1001.78	17421.00
1002.50	17293.00
1003.22	17105.00
1003.94	16960.00
1004.66	16839.00
1005.38	16651.00
1006.09	16545.00
1006.81	16378.00
1007.53	16185.00
1008.25	16051.00
1008.97	15899.00
1009.69	15850.00
1010.41	15717.00
1011.13	15632.00
1011.84	15415.00
1012.56	15265.00
1013.28	15110.00
1014.00	14961.00
1014.72	14834.00
1015.44	14648.00
1016.15	14443.00
1016.87	14254.00
1017.59	14068.00
1018.31	13981.00
1019.03	13872.00
1019.74	13793.00
1020.46	13681.00
1021.18	13600.00
1021.90	13470.00
1022.61	13395.00
1023.33	13298.00
1024.05	13088.00
1024.76	12957.00
1025.48	12694.00
1026.20	12567.00
1026.92	12354.00
1027.63	12212.00
1028.35	12018.00
1029.07	11933.00
1029.78	11774.00
1030.50	11597.00
1031.22	11433.00
1031.93	11336.00
1032.65	11226.00
1033.37	11148.00
1034.08	11071.00
1034.80	10983.00
1035.52	10842.00
1036.23	10812.00
1036.95	10738.00
1037.66	10621.00
1038.38	10476.00
1039.10	10339.00
1039.81	10171.00
1040.53	10006.00
1041.24	9831.00
1041.96	9693.00
1042.67	9587.00
1043.39	9458.00
1044.10	9386.00
1044.82	9270.00
1045.54	9200.00
1046.25	9066.00
1046.97	8930.00
1047.68	8812.00
1048.40	8653.00
1049.11	8519.00
1049.83	8396.00
1050.54	8262.00
1051.26	8191.00
1051.97	8076.00
1052.68	7976.00
1053.40	7901.00
1054.11	7771.00
1054.83	7638.00
1055.54	7564.00
1056.26	7445.00
1056.97	7320.00
1057.69	7282.00
1058.40	7151.00
1059.11	7074.00
1059.83	6936.00
1060.54	6769.00
1061.25	6618.00
1061.97	6482.00
1062.68	6367.00
1063.40	6258.00
1064.11	6125.00
1064.82	6007.00
1065.54	5878.00
1066.25	2569.00
1066.96	2565.00
1067.68	2567.00
1068.39	2567.00
1069.10	2616.00
1069.82	2618.00
1070.53	2618.00
1071.24	2619.00
1071.95	2617.00
1072.67	2615.00
1073.38	5742.00
1074.09	5640.00
1074.80	5536.00
1075.52	5418.00
1076.23	5299.00
1076.94	5213.00
1077.65	2600.00
1078.37	2594.00
1079.08	2601.00
1079.79	2609.00
