300.47	2618.00
301.26	2620.00
302.04	2618.00
302.82	2617.00
303.60	2620.00
304.38	2619.00
305.17	2622.00
305.95	2622.00
306.73	2617.00
307.51	2622.00
308.29	2618.00
309.08	2618.00
309.86	2618.00
310.64	2619.00
311.42	2618.00
312.20	2617.00
312.98	2622.00
313.76	2621.00
314.55	2620.00
315.33	2619.00
316.11	2621.00
316.89	2618.00
317.67	2619.00
318.45	2618.00
319.23	2624.00
320.01	2620.00
320.79	2620.00
321.57	2620.00
322.35	2619.00
323.13	2619.00
323.91	2622.00
324.69	2623.00
325.47	2620.00
326.25	2624.00
327.03	2620.00
327.81	2619.00
328.59	2622.00
329.37	2626.00
330.15	2621.00
330.93	2625.00
331.71	2622.00
332.49	2627.00
333.27	2622.00
334.05	2622.00
334.83	2627.00
335.61	2630.00
336.39	2625.00
337.17	2627.00
337.95	2629.00
338.73	2634.00
339.51	2636.00
340.29	2633.00
341.07	2633.00
341.84	2633.00
342.62	2638.00
343.40	2639.00
344.18	2643.00
344.96	2642.00
345.74	2645.00
346.52	2648.00
347.29	2650.00
348.07	2656.00
348.85	2655.00
349.63	2659.00
350.41	2656.00
351.18	2664.00
351.96	2661.00
352.74	2671.00
353.52	2674.00
354.30	2672.00
355.07	2678.00
355.85	2679.00
356.63	2686.00
357.41	2694.00
358.18	2693.00
358.96	2701.00
359.74	2711.00
360.52	2707.00
361.29	2716.00
362.07	2720.00
362.85	2724.00
363.62	2733.00
364.40	2737.00
365.18	2746.00
365.95	2744.00
366.73	2751.00
367.51	2769.00
368.28	2779.00
369.06	2785.00
369.84	2796.00
370.61	2797.00
371.39	2805.00
372.17	2811.00
372.94	2827.00
373.72	2831.00
374.49	2841.00
375.27	2856.00
376.05	2859.00
376.82	2872.00
377.60	2886.00
378.37	2891.00
379.15	2923.00
379.92	2933.00
380.70	2937.00
381.47	2954.00
382.25	2971.00
383.02	2991.00
383.80	3001.00
384.58	3005.00
385.35	3037.00
386.13	3045.00
386.90	3062.00
387.67	3078.00
388.45	3095.00
389.22	3110.00
390.00	3125.00
390.77	3156.00
391.55	3168.00
392.32	3186.00
393.10	3214.00
393.87	3230.00
394.65	3255.00
395.42	3273.00
396.19	3288.00
396.97	3324.00
397.74	3339.00
398.52	3352.00
399.29	3380.00
400.06	3403.00
400.84	3428.00
401.61	3441.00
402.38	3482.00
403.16	3489.00
403.93	3514.00
404.70	3544.00
405.48	3569.00
406.25	3581.00
407.02	3608.00
407.80	3623.00
408.57	3670.00
409.34	3676.00
410.12	3708.00
410.89	3735.00
411.66	3754.00
412.43	3783.00
413.21	3821.00
413.98	3846.00
414.75	3889.00
415.52	3900.00
416.30	3940.00
417.07	3958.00
417.84	3997.00
418.61	4021.00
419.39	4057.00
420.16	4076.00
420.93	4115.00
421.70	4137.00
422.47	4174.00
423.24	4179.00
424.02	4237.00
424.79	4272.00
425.56	4300.00
426.33	4331.00
427.10	4384.00
427.87	4417.00
428.64	4443.00
429.42	4493.00
430.19	4543.00
430.96	4584.00
431.73	4606.00
432.50	4661.00
433.27	4710.00
434.04	4748.00
434.81	4799.00
435.58	4838.00
436.35	4867.00
437.12	4922.00
437.89	4975.00
438.67	5033.00
439.44	5071.00
440.21	5139.00
440.98	5191.00
441.75	5242.00
442.52	5302.00
443.29	5357.00
444.06	5420.00
444.83	5482.00
445.60	5551.00
446.37	5589.00
447.13	5660.00
447.90	5721.00
448.67	5780.00
449.44	5875.00
450.21	5928.00
450.98	6001.00
451.75	6062.00
452.52	6122.00
453.29	6218.00
454.06	6292.00
454.83	6364.00
455.60	6441.00
456.37	6510.00
457.13	6596.00
457.90	6681.00
458.67	6773.00
459.44	6852.00
460.21	6918.00
460.98	7016.00
461.75	7074.00
462.51	7191.00
463.28	7266.00
464.05	7391.00
464.82	7445.00
465.59	7577.00
466.35	7630.00
467.12	7734.00
467.89	7828.00
468.66	7941.00
469.43	8041.00
470.19	8135.00
470.96	8237.00
471.73	8318.00
472.50	8435.00
473.26	8540.00
474.03	8644.00
474.80	8786.00
475.56	8843.00
476.33	9003.00
477.10	9076.00
477.87	9185.00
478.63	9305.00
479.40	9414.00
480.17	9519.00
480.93	9654.00
481.70	9725.00
482.47	9907.00
483.23	10018.00
484.00	10156.00
484.76	10289.00
485.53	10413.00
486.30	10511.00
487.06	10663.00
487.83	10795.00
488.60	10904.00
489.36	11043.00
490.13	11187.00
490.89	11320.00
491.66	11476.00
492.42	11574.00
493.19	11731.00
493.96	11823.00
494.72	11969.00
495.49	12081.00
496.25	12256.00
497.02	12368.00
497.78	12537.00
498.55	12654.00
499.31	12762.00
500.08	12921.00
500.84	13063.00
501.61	13208.00
502.37	13332.00
503.14	13531.00
503.90	13661.00
504.67	13781.00
505.43	14034.00
506.20	14151.00
506.96	14265.00
507.72	14467.00
508.49	14613.00
509.25	14827.00
510.02	14959.00
510.78	15171.00
511.54	15271.00
512.31	15504.00
513.07	15618.00
513.84	15752.00
514.60	15970.00
515.36	16078.00
516.13	16263.00
516.89	16357.00
517.65	16542.00
518.42	16675.00
519.18	16758.00
519.94	16958.00
520.71	17134.00
521.47	17331.00
522.23	17450.00
523.00	17710.00
523.76	17847.00
524.52	17993.00
525.28	18237.00
526.05	18309.00
526.81	18537.00
527.57	18733.00
528.33	18886.00
529.10	19090.00
529.86	19249.00
530.62	19415.00
531.38	19612.00
532.15	19784.00
532.91	19903.00
533.67	20084.00
534.43	20162.00
535.19	20456.00
535.96	20633.00
536.72	20744.00
537.48	20859.00
538.24	21011.00
539.00	21294.00
539.76	21497.00
540.53	21743.00
541.29	21925.00
542.05	22052.00
542.81	22284.00
543.57	22531.00
544.33	22698.00
545.09	22901.00
545.85	23020.00
546.61	23154.00
547.38	23367.00
548.14	23488.00
548.90	23722.00
549.66	24014.00
550.42	24097.00
551.18	24296.00
551.94	24525.00
552.70	24709.00
553.46	24860.00
554.22	25065.00
554.98	25240.00
555.74	25388.00
556.50	25545.00
557.26	25804.00
558.02	25986.00
558.78	26253.00
559.54	26351.00
560.30	26512.00
561.06	26721.00
561.82	26985.00
562.58	27133.00
563.34	27411.00
564.10	27586.00
564.86	27784.00
565.61	27930.00
566.37	28151.00
567.13	28387.00
567.89	28630.00
568.65	28725.00
569.41	28853.00
570.17	29058.00
570.93	29320.00
571.69	29450.00
572.44	29618.00
573.20	29758.00
573.96	30015.00
574.72	30132.00
575.48	30346.00
576.24	30546.00
576.99	30738.00
577.75	30974.00
578.51	31186.00
579.27	31367.00
580.03	31598.00
580.78	31851.00
581.54	32052.00
582.30	32240.00
583.06	32366.00
583.82	32552.00
584.57	32723.00
585.33	32924.00
586.09	33064.00
586.84	33216.00
587.60	33357.00
588.36	33459.00
589.12	33671.00
589.87	33939.00
590.63	34035.00
591.39	34213.00
592.14	34393.00
592.90	34561.00
593.66	34830.00
594.41	34972.00
595.17	35212.00
595.93	35260.00
596.68	35322.00
597.44	35580.00
598.20	35823.00
598.95	36161.00
599.71	36344.00
600.46	36571.00
601.22	36633.00
601.98	36847.00
602.73	37174.00
603.49	37358.00
604.24	37600.00
605.00	37676.00
605.76	37808.00
606.51	37970.00
607.27	38177.00
608.02	38408.00
608.78	38663.00
609.53	38855.00
610.29	39035.00
611.04	39354.00
611.80	39652.00
612.55	39904.00
613.31	40050.00
614.06	40292.00
614.82	40509.00
615.57	40744.00
616.33	40909.00
617.08	41113.00
617.84	41276.00
618.59	41333.00
619.35	41319.00
620.10	41321.00
620.85	41263.00
621.61	41327.00
622.36	41353.00
623.12	41377.00
623.87	41575.00
624.62	41565.00
625.38	41742.00
626.13	41903.00
626.89	42188.00
627.64	42294.00
628.39	42499.00
629.15	42538.00
629.90	42559.00
630.65	42615.00
631.41	42618.00
632.16	42690.00
632.91	42724.00
633.67	42532.00
634.42	42748.00
635.17	42941.00
635.92	43222.00
636.68	43678.00
637.43	44097.00
638.18	44662.00
638.94	45088.00
639.69	45466.00
640.44	45798.00
641.19	46183.00
641.95	46522.00
642.70	46888.00
643.45	47187.00
644.20	47454.00
644.95	47484.00
645.71	47653.00
646.46	47767.00
647.21	48047.00
647.96	48098.00
648.71	48201.00
649.47	48384.00
650.22	48466.00
650.97	48538.00
651.72	48686.00
652.47	48922.00
653.22	48945.00
653.97	49166.00
654.73	49337.00
655.48	49416.00
656.23	49602.00
656.98	49880.00
657.73	49975.00
658.48	50111.00
659.23	50160.00
659.98	50117.00
660.73	50232.00
661.48	50246.00
662.23	50298.00
662.99	50421.00
663.74	50477.00
664.49	50706.00
665.24	51271.00
665.99	51580.00
666.74	51741.00
667.49	51889.00
668.24	51900.00
668.99	51953.00
669.74	52260.00
670.49	52365.00
671.24	52421.00
671.99	52485.00
672.74	52576.00
673.48	52790.00
674.23	52825.00
674.98	52971.00
675.73	53040.00
676.48	53198.00
677.23	53315.00
677.98	53410.00
678.73	53317.00
679.48	53529.00
680.23	53500.00
680.98	53533.00
681.73	53401.00
682.47	53476.00
683.22	53386.00
683.97	53603.00
684.72	53807.00
685.47	53823.00
686.22	53984.00
686.97	54258.00
687.71	54501.00
688.46	54711.00
689.21	54738.00
689.96	54710.00
690.71	54737.00
691.45	54772.00
692.20	54783.00
692.95	54750.00
693.70	54843.00
694.44	54882.00
695.19	54975.00
695.94	55191.00
696.69	55270.00
697.43	55289.00
698.18	55292.00
698.93	55400.00
699.68	55469.00
700.42	55495.00
701.17	55434.00
701.92	55535.00
702.66	55618.00
703.41	55713.00
704.16	55722.00
704.90	55759.00
705.65	55840.00
706.40	55809.00
707.14	55900.00
707.89	55914.00
708.64	55841.00
709.38	55920.00
710.13	55901.00
710.88	56135.00
711.62	56199.00
712.37	56124.00
713.11	56258.00
713.86	56230.00
714.61	56291.00
715.35	56145.00
716.10	55991.00
716.84	55811.00
717.59	55672.00
718.33	55454.00
719.08	55387.00
719.83	55290.00
720.57	55057.00
721.32	55166.00
722.06	55001.00
722.81	55089.00
723.55	55039.00
724.30	55121.00
725.04	55168.00
725.79	55073.00
726.53	55099.00
727.28	55056.00
728.02	55303.00
728.76	55296.00
729.51	55348.00
730.25	55428.00
731.00	55263.00
731.74	55280.00
732.49	55360.00
733.23	55295.00
733.97	55162.00
734.72	55079.00
735.46	54973.00
736.21	54880.00
736.95	54938.00
737.69	55024.00
738.44	55224.00
739.18	55224.00
739.92	55213.00
740.67	55341.00
741.41	55400.00
742.15	55572.00
742.90	55655.00
743.64	55658.00
744.38	55705.00
745.13	55743.00
745.87	55704.00
746.61	55668.00
747.36	55727.00
748.10	55655.00
748.84	55706.00
749.58	55507.00
750.33	55442.00
751.07	55279.00
751.81	55182.00
752.55	55080.00
753.30	55119.00
754.04	54996.00
754.78	54673.00
755.52	54544.00
756.27	54382.00
757.01	54300.00
757.75	54354.00
758.49	54475.00
759.23	54393.00
759.97	54403.00
760.72	54415.00
761.46	54387.00
762.20	54333.00
762.94	54406.00
763.68	54358.00
764.42	54180.00
765.16	54106.00
765.91	54048.00
766.65	53945.00
767.39	53889.00
768.13	53824.00
768.87	53858.00
769.61	53943.00
770.35	53896.00
771.09	53800.00
771.83	53595.00
772.57	53526.00
773.31	53491.00
774.05	53544.00
774.80	53438.00
775.54	53394.00
776.28	53225.00
777.02	53159.00
777.76	53114.00
778.50	53055.00
779.24	52882.00
779.98	52809.00
780.72	52705.00
781.46	52622.00
782.20	52660.00
782.93	52612.00
783.67	52593.00
784.41	52272.00
785.15	52243.00
785.89	52081.00
786.63	51925.00
787.37	51659.00
788.11	51450.00
788.85	51345.00
789.59	51238.00
790.33	51290.00
791.07	51223.00
791.81	51131.00
792.54	51042.00
793.28	50885.00
794.02	50612.00
794.76	50392.00
795.50	50239.00
796.24	49930.00
796.97	49660.00
797.71	49348.00
798.45	49193.00
799.19	49177.00
799.93	49003.00
800.67	48958.00
801.40	48909.00
802.14	48942.00
802.88	49114.00
803.62	49066.00
804.35	49142.00
805.09	48986.00
805.83	48871.00
806.57	48847.00
807.30	48745.00
808.04	48777.00
808.78	48573.00
809.52	48309.00
810.25	48110.00
810.99	48007.00
811.73	47851.00
812.46	47769.00
813.20	47851.00
813.94	47692.00
814.68	47700.00
815.41	47645.00
816.15	47654.00
816.88	47566.00
817.62	47697.00
818.36	47653.00
819.09	47313.00
819.83	47083.00
820.57	46963.00
821.30	46694.00
822.04	46696.00
822.77	46464.00
823.51	46361.00
824.25	46228.00
824.98	46176.00
825.72	46105.00
826.45	46031.00
827.19	45771.00
827.92	45589.00
828.66	45395.00
829.40	45228.00
830.13	45188.00
830.87	45092.00
831.60	45120.00
832.34	45039.00
833.07	44943.00
833.81	44963.00
834.54	44985.00
835.28	45152.00
836.01	45017.00
836.75	44911.00
837.48	44623.00
838.22	44421.00
838.95	44364.00
839.68	44414.00
840.42	44470.00
841.15	44449.00
841.89	44408.00
842.62	44138.00
843.36	43937.00
844.09	43874.00
844.82	43935.00
845.56	43842.00
846.29	43727.00
847.02	43618.00
847.76	43505.00
848.49	43546.00
849.23	43666.00
849.96	43999.00
850.69	44015.00
851.43	43730.00
852.16	43533.00
852.89	43107.00
853.63	42906.00
854.36	42880.00
855.09	42907.00
855.82	42831.00
856.56	42645.00
857.29	42407.00
858.02	42372.00
858.76	42440.00
859.49	42439.00
860.22	42416.00
860.95	42152.00
861.69	42035.00
862.42	41792.00
863.15	41599.00
863.88	41542.00
864.61	41719.00
865.35	41681.00
866.08	41544.00
866.81	41477.00
867.54	41214.00
868.27	41033.00
869.01	41001.00
869.74	40901.00
870.47	40991.00
871.20	40745.00
871.93	40514.00
872.66	40316.00
873.40	40172.00
874.13	39915.00
874.86	39644.00
875.59	39550.00
876.32	39557.00
877.05	39467.00
877.78	39407.00
878.51	39262.00
879.24	39081.00
879.97	38979.00
880.71	38912.00
881.44	38746.00
882.17	38692.00
882.90	38532.00
883.63	38368.00
884.36	38374.00
885.09	38239.00
885.82	38331.00
886.55	38449.00
887.28	38516.00
888.01	38439.00
888.74	38309.00
889.47	38063.00
890.20	37853.00
890.93	37559.00
891.66	37388.00
892.39	37362.00
893.12	37219.00
893.85	37227.00
894.57	37248.00
895.30	37171.00
896.03	37174.00
896.76	37075.00
897.49	37066.00
898.22	36810.00
898.95	36656.00
899.68	36431.00
900.41	36240.00
901.14	35963.00
901.86	35889.00
902.59	35884.00
903.32	35895.00
904.05	35770.00
904.78	35743.00
905.51	35549.00
906.24	35506.00
906.96	35375.00
907.69	35253.00
908.42	35063.00
909.15	34872.00
909.88	34682.00
910.60	34582.00
911.33	34484.00
912.06	34298.00
912.79	34148.00
913.52	33934.00
914.24	33843.00
914.97	33767.00
915.70	33566.00
916.42	33471.00
917.15	33369.00
917.88	33199.00
918.61	32933.00
919.33	32696.00
920.06	32394.00
920.79	32255.00
921.51	31990.00
922.24	31956.00
922.97	31868.00
923.69	31672.00
924.42	31561.00
925.15	31372.00
925.87	31206.00
926.60	31028.00
927.33	30727.00
928.05	30401.00
928.78	30142.00
929.51	29837.00
930.23	29548.00
930.96	29165.00
931.68	28866.00
932.41	28560.00
933.14	28178.00
933.86	27889.00
934.59	27479.00
935.31	27137.00
936.04	26626.00
936.76	26129.00
937.49	25691.00
938.21	25244.00
938.94	24747.00
939.66	24301.00
940.39	23940.00
941.11	23622.00
941.84	23288.00
942.56	23017.00
943.29	22694.00
944.01	22547.00
944.74	22411.00
945.46	22381.00
946.19	22352.00
946.91	22407.00
947.64	22424.00
948.36	22549.00
949.09	22605.00
949.81	22688.00
950.53	22745.00
951.26	22854.00
951.98	22909.00
952.71	22965.00
953.43	23030.00
954.15	23158.00
954.88	23236.00
955.60	23312.00
956.33	23316.00
957.05	23325.00
957.77	23454.00
958.50	23492.00
959.22	23516.00
959.94	23594.00
960.67	23487.00
961.39	23422.00
962.11	23452.00
962.84	23402.00
963.56	23336.00
964.28	23293.00
965.00	23117.00
965.73	22991.00
966.45	22770.00
967.17	22687.00
967.89	22546.00
968.62	22399.00
969.34	22284.00
970.06	22071.00
970.78	21931.00
971.51	21841.00
972.23	21726.00
972.95	21506.00
973.67	21415.00
974.40	21191.00
975.12	21116.00
975.84	20951.00
976.56	20809.00
977.28	20622.00
978.00	20564.00
978.73	20441.00
979.45	20388.00
980.17	20357.00
980.89	20236.00
981.61	20207.00
982.33	20122.00
983.05	20079.00
983.77	20021.00
984.50	19944.00
985.22	19836.00
985.94	19781.00
986.66	19672.00
987.38	19617.00
988.10	19542.00
988.82	19482.00
989.54	19405.00
990.26	19296.00
990.98	19260.00
991.70	19038.00
992.42	19007.00
993.14	18812.00
993.86	18698.00
994.58	18532.00
995.30	18415.00
996.02	18287.00
996.74	18201.00
997.46	18176.00
998.18	18058.00
998.90	17921.00
999.62	17749.00
1000.34	17663.00
1001.06	17603.00
1001.78	17519.00
1002.50	17352.00
1003.22	17188.00
1003.94	17009.00
1004.66	16874.00
1005.38	16788.00
1006.09	16603.00
1006.81	16466.00
1007.53	16294.00
1008.25	16109.00
1008.97	15999.00
1009.69	15915.00
1010.41	15814.00
1011.13	15655.00
1011.84	15526.00
1012.56	15352.00
1013.28	15183.00
1014.00	15039.00
1014.72	14923.00
1015.44	14717.00
1016.15	14507.00
1016.87	14338.00
1017.59	14127.00
1018.31	14019.00
1019.03	13971.00
1019.74	13853.00
1020.46	13738.00
1021.18	13647.00
1021.90	13537.00
1022.61	13468.00
1023.33	13278.00
1024.05	13194.00
1024.76	12993.00
1025.48	12757.00
1026.20	12608.00
1026.92	12379.00
1027.63	12264.00
1028.35	12139.00
1029.07	11930.00
1029.78	11864.00
1030.50	11667.00
1031.22	11544.00
1031.93	11381.00
1032.65	11291.00
1033.37	11177.00
1034.08	11083.00
1034.80	10993.00
1035.52	10924.00
1036.23	10831.00
1036.95	10729.00
1037.66	10698.00
1038.38	10496.00
1039.10	10379.00
1039.81	10224.00
1040.53	10026.00
1041.24	9894.00
1041.96	9735.00
1042.67	9624.00
1043.39	9518.00
1044.10	9434.00
1044.82	9294.00
1045.54	9202.00
1046.25	9110.00
1046.97	8969.00
1047.68	8855.00
1048.40	8699.00
1049.11	8524.00
1049.83	8389.00
1050.54	8322.00
1051.26	8226.00
1051.97	8138.00
1052.68	8021.00
1053.40	7919.00
1054.11	7819.00
1054.83	7703.00
1055.54	7589.00
1056.26	7489.00
1056.97	7379.00
1057.69	7282.00
1058.40	7192.00
1059.11	7082.00
1059.83	6941.00
1060.54	6820.00
1061.25	6696.00
1061.97	6515.00
1062.68	6383.00
1063.40	6271.00
1064.11	6161.00
1064.82	6019.00
1065.54	5899.00
1066.25	2574.00
1066.96	2563.00
1067.68	2566.00
1068.39	2564.00
1069.10	2618.00
1069.82	2617.00
1070.53	2619.00
1071.24	2617.00
1071.95	2620.00
1072.67	2620.00
1073.38	5787.00
1074.09	5657.00
1074.80	5543.00
1075.52	5436.00
1076.23	5346.00
1076.94	5213.00
1077.65	2605.00
1078.37	2594.00
1079.08	2600.00
1079.79	2611.00
