300.47	2619.00
301.26	2615.00
302.04	2618.00
302.82	2622.00
303.60	2611.00
304.38	2617.00
305.17	2620.00
305.95	2617.00
306.73	2622.00
307.51	2621.00
308.29	2619.00
309.08	2621.00
309.86	2620.00
310.64	2619.00
311.42	2619.00
312.20	2621.00
312.98	2621.00
313.76	2619.00
314.55	2623.00
315.33	2619.00
316.11	2621.00
316.89	2617.00
317.67	2618.00
318.45	2617.00
319.23	2622.00
320.01	2626.00
320.79	2622.00
321.57	2617.00
322.35	2624.00
323.13	2625.00
323.91	2618.00
324.69	2621.00
325.47	2621.00
326.25	2620.00
327.03	2623.00
327.81	2621.00
328.59	2623.00
329.37	2622.00
330.15	2623.00
330.93	2624.00
331.71	2627.00
332.49	2626.00
333.27	2627.00
334.05	2625.00
334.83	2628.00
335.61	2623.00
336.39	2630.00
337.17	2629.00
337.95	2629.00
338.73	2630.00
339.51	2632.00
340.29	2635.00
341.07	2635.00
341.84	2635.00
342.62	2634.00
343.40	2640.00
344.18	2643.00
344.96	2641.00
345.74	2646.00
346.52	2644.00
347.29	2648.00
348.07	2653.00
348.85	2654.00
349.63	2659.00
350.41	2659.00
351.18	2665.00
351.96	2671.00
352.74	2674.00
353.52	2669.00
354.30	2674.00
355.07	2681.00
355.85	2683.00
356.63	2690.00
357.41	2682.00
358.18	2696.00
358.96	2703.00
359.74	2699.00
360.52	2708.00
361.29	2715.00
362.07	2723.00
362.85	2733.00
363.62	2731.00
364.40	2736.00
365.18	2745.00
365.95	2749.00
366.73	2761.00
367.51	2764.00
368.28	2768.00
369.06	2780.00
369.84	2793.00
370.61	2799.00
371.39	2809.00
372.17	2818.00
372.94	2823.00
373.72	2835.00
374.49	2838.00
375.27	2851.00
376.05	2865.00
376.82	2872.00
377.60	2889.00
378.37	2903.00
379.15	2906.00
379.92	2933.00
380.70	2934.00
381.47	2945.00
382.25	2972.00
383.02	2979.00
383.80	2993.00
384.58	3016.00
385.35	3039.00
386.13	3044.00
386.90	3064.00
387.67	3082.00
388.45	3099.00
389.22	3113.00
390.00	3125.00
390.77	3156.00
391.55	3166.00
392.32	3196.00
393.10	3211.00
393.87	3227.00
394.65	3251.00
395.42	3270.00
396.19	3284.00
396.97	3311.00
397.74	3339.00
398.52	3353.00
399.29	3369.00
400.06	3404.00
400.84	3418.00
401.61	3445.00
402.38	3471.00
403.16	3496.00
403.93	3527.00
404.70	3546.00
405.48	3555.00
406.25	3583.00
407.02	3626.00
407.80	3641.00
408.57	3660.00
409.34	3692.00
410.12	3724.00
410.89	3735.00
411.66	3757.00
412.43	3792.00
413.21	3807.00
413.98	3842.00
414.75	3865.00
415.52	3912.00
416.30	3937.00
417.07	3959.00
417.84	3985.00
418.61	4023.00
419.39	4046.00
420.16	4071.00
420.93	4103.00
421.70	4129.00
422.47	4155.00
423.24	4196.00
424.02	4243.00
424.79	4265.00
425.56	4299.00
426.33	4334.00
427.10	4369.00
427.87	4405.00
428.64	4461.00
429.42	4485.00
430.19	4545.00
430.96	4570.00
431.73	4617.00
432.50	4662.00
433.27	4692.00
434.04	4748.00
434.81	4809.00
435.58	4833.00
436.35	4888.00
437.12	4940.00
437.89	4992.00
438.67	5027.00
439.44	5087.00
440.21	5136.00
440.98	5211.00
441.75	5258.00
442.52	5312.00
443.29	5371.00
444.06	5431.00
444.83	5477.00
445.60	5555.00
446.37	5597.00
447.13	5666.00
447.90	5726.00
448.67	5804.00
449.44	5851.00
450.21	5936.00
450.98	5998.00
451.75	6047.00
452.52	6151.00
453.29	6196.00
454.06	6275.00
454.83	6366.00
455.60	6456.00
456.37	6513.00
457.13	6578.00
457.90	6679.00
458.67	6781.00
459.44	6851.00
460.21	6936.00
460.98	7008.00
461.75	7113.00
462.51	7176.00
463.28	7270.00
464.05	7361.00
464.82	7441.00
465.59	7548.00
466.35	7636.00
467.12	7723.00
467.89	7832.00
468.66	7953.00
469.43	8038.00
470.19	8133.00
470.96	8212.00
471.73	8338.00
472.50	8489.00
473.26	8522.00
474.03	8646.00
474.80	8778.00
475.56	8865.00
476.33	8965.00
477.10	9065.00
477.87	9173.00
478.63	9312.00
479.40	9426.00
480.17	9517.00
480.93	9655.00
481.70	9777.00
482.47	9873.00
483.23	10037.00
484.00	10154.00
484.76	10253.00
485.53	10409.00
486.30	10543.00
487.06	10685.00
487.83	10799.00
488.60	10937.00
489.36	11044.00
490.13	11160.00
490.89	11287.00
491.66	11429.00
492.42	11576.00
493.19	11734.00
493.96	11846.00
494.72	12003.00
495.49	12109.00
496.25	12217.00
497.02	12385.00
497.78	12519.00
498.55	12660.00
499.31	12770.00
500.08	12930.00
500.84	13074.00
501.61	13215.00
502.37	13397.00
503.14	13516.00
503.90	13629.00
504.67	13810.00
505.43	13947.00
506.20	14138.00
506.96	14333.00
507.72	14466.00
508.49	14623.00
509.25	14837.00
510.02	14998.00
510.78	15170.00
511.54	15339.00
512.31	15479.00
513.07	15607.00
513.84	15795.00
514.60	15905.00
515.36	16108.00
516.13	16216.00
516.89	16366.00
517.65	16492.00
518.42	16628.00
519.18	16792.00
519.94	17003.00
520.71	17186.00
521.47	17317.00
522.23	17447.00
523.00	17660.00
523.76	17790.00
524.52	18011.00
525.28	18142.00
526.05	18337.00
526.81	18596.00
527.57	18733.00
528.33	18908.00
529.10	19070.00
529.86	19210.00
530.62	19456.00
531.38	19582.00
532.15	19766.00
532.91	19831.00
533.67	20074.00
534.43	20196.00
535.19	20419.00
535.96	20606.00
536.72	20746.00
537.48	20866.00
538.24	21098.00
539.00	21283.00
539.76	21534.00
540.53	21736.00
541.29	21929.00
542.05	22094.00
542.81	22281.00
543.57	22434.00
544.33	22667.00
545.09	22915.00
545.85	23010.00
546.61	23119.00
547.38	23382.00
548.14	23525.00
548.90	23738.00
549.66	23898.00
550.42	24143.00
551.18	24321.00
551.94	24482.00
552.70	24677.00
553.46	24907.00
554.22	25073.00
554.98	25258.00
555.74	25355.00
556.50	25525.00
557.26	25800.00
558.02	25996.00
558.78	26237.00
559.54	26449.00
560.30	26623.00
561.06	26745.00
561.82	26931.00
562.58	27220.00
563.34	27460.00
564.10	27623.00
564.86	27743.00
565.61	28004.00
566.37	28142.00
567.13	28443.00
567.89	28600.00
568.65	28804.00
569.41	28913.00
570.17	29102.00
570.93	29274.00
571.69	29423.00
572.44	29582.00
573.20	29778.00
573.96	29994.00
574.72	30212.00
575.48	30392.00
576.24	30518.00
576.99	30752.00
577.75	30959.00
578.51	31206.00
579.27	31346.00
580.03	31603.00
580.78	31809.00
581.54	32146.00
582.30	32301.00
583.06	32380.00
583.82	32542.00
584.57	32741.00
585.33	32953.00
586.09	33142.00
586.84	33210.00
587.60	33367.00
588.36	33481.00
589.12	33570.00
589.87	33983.00
590.63	34071.00
591.39	34238.00
592.14	34362.00
592.90	34551.00
593.66	34755.00
594.41	34993.00
595.17	35208.00
595.93	35311.00
596.68	35407.00
597.44	35503.00
598.20	35870.00
598.95	36149.00
599.71	36447.00
600.46	36571.00
601.22	36611.00
601.98	36814.00
602.73	37056.00
603.49	37389.00
604.24	37604.00
605.00	37731.00
605.76	37824.00
606.51	37999.00
607.27	38160.00
608.02	38436.00
608.78	38670.00
609.53	38897.00
610.29	39042.00
611.04	39344.00
611.80	39535.00
612.55	39902.00
613.31	40123.00
614.06	40314.00
614.82	40492.00
615.57	40718.00
616.33	40942.00
617.08	41150.00
617.84	41256.00
618.59	41357.00
619.35	41324.00
620.10	41162.00
620.85	41289.00
621.61	41402.00
622.36	41394.00
623.12	41363.00
623.87	41543.00
624.62	41584.00
625.38	41805.00
626.13	41912.00
626.89	42054.00
627.64	42324.00
628.39	42415.00
629.15	42554.00
629.90	42567.00
630.65	42636.00
631.41	42687.00
632.16	42709.00
632.91	42706.00
633.67	42617.00
634.42	42658.00
635.17	42894.00
635.92	43154.00
636.68	43674.00
637.43	44153.00
638.18	44679.00
638.94	45139.00
639.69	45427.00
640.44	45797.00
641.19	46302.00
641.95	46526.00
642.70	46907.00
643.45	47217.00
644.20	47371.00
644.95	47508.00
645.71	47708.00
646.46	47860.00
647.21	47951.00
647.96	48146.00
648.71	48247.00
649.47	48410.00
650.22	48423.00
650.97	48577.00
651.72	48699.00
652.47	48865.00
653.22	49067.00
653.97	49232.00
654.73	49309.00
655.48	49445.00
656.23	49672.00
656.98	49797.00
657.73	50020.00
658.48	50091.00
659.23	50178.00
659.98	50105.00
660.73	50181.00
661.48	50286.00
662.23	50417.00
662.99	50405.00
663.74	50369.00
664.49	50777.00
665.24	51214.00
665.99	51671.00
666.74	51777.00
667.49	51819.00
668.24	51851.00
668.99	52010.00
669.74	52235.00
670.49	52254.00
671.24	52421.00
671.99	52427.00
672.74	52614.00
673.48	52820.00
674.23	52888.00
674.98	52908.00
675.73	53091.00
676.48	53187.00
677.23	53403.00
677.98	53488.00
678.73	53502.00
679.48	53455.00
680.23	53519.00
680.98	53416.00
681.73	53537.00
682.47	53392.00
683.22	53431.00
683.97	53445.00
684.72	53586.00
685.47	53849.00
686.22	53930.00
686.97	54271.00
687.71	54475.00
688.46	54682.00
689.21	54644.00
689.96	54753.00
690.71	54671.00
691.45	54797.00
692.20	54692.00
692.95	54753.00
693.70	54746.00
694.44	54852.00
695.19	54927.00
695.94	55111.00
696.69	55243.00
697.43	55217.00
698.18	55263.00
698.93	55362.00
699.68	55400.00
700.42	55431.00
701.17	55405.00
701.92	55406.00
702.66	55589.00
703.41	55554.00
704.16	55586.00
704.90	55658.00
705.65	55674.00
706.40	55708.00
707.14	55823.00
707.89	55824.00
708.64	55853.00
709.38	55781.00
710.13	56019.00
710.88	55933.00
711.62	56116.00
712.37	55988.00
713.11	56046.00
713.86	56286.00
714.61	56137.00
715.35	56080.00
716.10	55884.00
716.84	55711.00
717.59	55647.00
718.33	55372.00
719.08	55280.00
719.83	55188.00
720.57	55083.00
721.32	55038.00
722.06	55016.00
722.81	54957.00
723.55	54913.00
724.30	54976.00
725.04	55103.00
725.79	55106.00
726.53	55141.00
727.28	55074.00
728.02	55095.00
728.76	55158.00
729.51	55301.00
730.25	55329.00
731.00	55287.00
731.74	55249.00
732.49	55245.00
733.23	55169.00
733.97	55025.00
734.72	54886.00
735.46	54804.00
736.21	54789.00
736.95	54792.00
737.69	54868.00
738.44	55038.00
739.18	55076.00
739.92	55055.00
740.67	55188.00
741.41	55328.00
742.15	55443.00
742.90	55595.00
743.64	55619.00
744.38	55534.00
745.13	55541.00
745.87	55538.00
746.61	55530.00
747.36	55640.00
748.10	55599.00
748.84	55489.00
749.58	55427.00
750.33	55255.00
751.07	55190.00
751.81	54993.00
752.55	55011.00
753.30	54972.00
754.04	54820.00
754.78	54666.00
755.52	54429.00
756.27	54222.00
757.01	54169.00
757.75	54210.00
758.49	54246.00
759.23	54283.00
759.97	54241.00
760.72	54310.00
761.46	54368.00
762.20	54278.00
762.94	54258.00
763.68	54196.00
764.42	54030.00
765.16	53960.00
765.91	54014.00
766.65	53871.00
767.39	53794.00
768.13	53649.00
768.87	53710.00
769.61	53752.00
770.35	53713.00
771.09	53608.00
771.83	53496.00
772.57	53318.00
773.31	53314.00
774.05	53370.00
774.80	53510.00
775.54	53330.00
776.28	53044.00
777.02	53052.00
777.76	52979.00
778.50	52886.00
779.24	52668.00
779.98	52557.00
780.72	52525.00
781.46	52433.00
782.20	52405.00
782.93	52502.00
783.67	52424.00
784.41	52074.00
785.15	52039.00
785.89	51913.00
786.63	51637.00
787.37	51432.00
788.11	51233.00
788.85	51180.00
789.59	51101.00
790.33	51062.00
791.07	51051.00
791.81	50948.00
792.54	50872.00
793.28	50615.00
794.02	50471.00
794.76	50178.00
795.50	49907.00
796.24	49747.00
796.97	49522.00
797.71	49262.00
798.45	49015.00
799.19	48961.00
799.93	48870.00
800.67	48765.00
801.40	48836.00
802.14	48763.00
802.88	48964.00
803.62	48945.00
804.35	48924.00
805.09	48889.00
805.83	48763.00
806.57	48725.00
807.30	48688.00
808.04	48507.00
808.78	48376.00
809.52	48198.00
810.25	47961.00
810.99	47766.00
811.73	47640.00
812.46	47494.00
813.20	47556.00
813.94	47618.00
814.68	47549.00
815.41	47458.00
816.15	47425.00
816.88	47458.00
817.62	47503.00
818.36	47483.00
819.09	47094.00
819.83	46919.00
820.57	46759.00
821.30	46596.00
822.04	46477.00
822.77	46374.00
823.51	46083.00
824.25	46039.00
824.98	45960.00
825.72	45973.00
826.45	45781.00
827.19	45632.00
827.92	45513.00
828.66	45261.00
829.40	45073.00
830.13	45048.00
830.87	45091.00
831.60	44869.00
832.34	44854.00
833.07	44743.00
833.81	44661.00
834.54	44799.00
835.28	44830.00
836.01	44860.00
836.75	44648.00
837.48	44495.00
838.22	44143.00
838.95	44105.00
839.68	44224.00
840.42	44250.00
841.15	44300.00
841.89	44109.00
842.62	43850.00
843.36	43644.00
844.09	43665.00
844.82	43715.00
845.56	43747.00
846.29	43619.00
847.02	43484.00
847.76	43230.00
848.49	43295.00
849.23	43479.00
849.96	43752.00
850.69	43754.00
851.43	43584.00
852.16	43148.00
852.89	42864.00
853.63	42659.00
854.36	42679.00
855.09	42662.00
855.82	42593.00
856.56	42457.00
857.29	42241.00
858.02	42208.00
858.76	42134.00
859.49	42277.00
860.22	42088.00
860.95	41976.00
861.69	41775.00
862.42	41566.00
863.15	41446.00
863.88	41268.00
864.61	41320.00
865.35	41409.00
866.08	41337.00
866.81	41147.00
867.54	41003.00
868.27	40878.00
869.01	40725.00
869.74	40749.00
870.47	40747.00
871.20	40580.00
871.93	40334.00
872.66	40147.00
873.40	39943.00
874.13	39701.00
874.86	39470.00
875.59	39309.00
876.32	39313.00
877.05	39237.00
877.78	39236.00
878.51	39068.00
879.24	38859.00
879.97	38798.00
880.71	38640.00
881.44	38641.00
882.17	38483.00
882.90	38411.00
883.63	38085.00
884.36	38084.00
885.09	38039.00
885.82	38147.00
886.55	38249.00
887.28	38333.00
888.01	38222.00
888.74	38121.00
889.47	37839.00
890.20	37527.00
890.93	37349.00
891.66	37229.00
892.39	37161.00
893.12	37047.00
893.85	36984.00
894.57	37078.00
895.30	37015.00
896.03	36963.00
896.76	36921.00
897.49	36947.00
898.22	36676.00
898.95	36407.00
899.68	36232.00
900.41	35990.00
901.14	35826.00
901.86	35785.00
902.59	35798.00
903.32	35714.00
904.05	35673.00
904.78	35461.00
905.51	35364.00
906.24	35251.00
906.96	35198.00
907.69	35048.00
908.42	34864.00
909.15	34700.00
909.88	34628.00
910.60	34309.00
911.33	34329.00
912.06	34118.00
912.79	33903.00
913.52	33742.00
914.24	33640.00
914.97	33677.00
915.70	33497.00
916.42	33298.00
917.15	33086.00
917.88	32924.00
918.61	32743.00
919.33	32452.00
920.06	32183.00
920.79	31959.00
921.51	31855.00
922.24	31742.00
922.97	31651.00
923.69	31471.00
924.42	31422.00
925.15	31212.00
925.87	30953.00
926.60	30822.00
927.33	30533.00
928.05	30232.00
928.78	29958.00
929.51	29638.00
930.23	29237.00
930.96	28929.00
931.68	28640.00
932.41	28289.00
933.14	28014.00
933.86	27724.00
934.59	27363.00
935.31	26913.00
936.04	26417.00
936.76	25957.00
937.49	25558.00
938.21	25033.00
938.94	24528.00
939.66	24124.00
940.39	23796.00
941.11	23427.00
941.84	23085.00
942.56	22815.00
943.29	22559.00
944.01	22340.00
944.74	22248.00
945.46	22190.00
946.19	22153.00
946.91	22215.00
947.64	22245.00
948.36	22347.00
949.09	22416.00
949.81	22500.00
950.53	22604.00
951.26	22665.00
951.98	22719.00
952.71	22769.00
953.43	22833.00
954.15	22947.00
954.88	23073.00
955.60	23143.00
956.33	23216.00
957.05	23128.00
957.77	23267.00
958.50	23337.00
959.22	23424.00
959.94	23326.00
960.67	23336.00
961.39	23220.00
962.11	23218.00
962.84	23302.00
963.56	23243.00
964.28	23124.00
965.00	23017.00
965.73	22761.00
966.45	22597.00
967.17	22570.00
967.89	22438.00
968.62	22186.00
969.34	22038.00
970.06	21918.00
970.78	21832.00
971.51	21716.00
972.23	21557.00
972.95	21395.00
973.67	21175.00
974.40	21084.00
975.12	20954.00
975.84	20789.00
976.56	20672.00
977.28	20447.00
978.00	20351.00
978.73	20241.00
979.45	20176.00
980.17	20135.00
980.89	20058.00
981.61	20042.00
982.33	19935.00
983.05	19872.00
983.77	19877.00
984.50	19797.00
985.22	19688.00
985.94	19659.00
986.66	19581.00
987.38	19483.00
988.10	19366.00
988.82	19339.00
989.54	19281.00
990.26	19151.00
990.98	19102.00
991.70	18917.00
992.42	18789.00
993.14	18640.00
993.86	18549.00
994.58	18417.00
995.30	18206.00
996.02	18119.00
996.74	18106.00
997.46	17987.00
998.18	17852.00
998.90	17744.00
999.62	17593.00
1000.34	17460.00
1001.06	17482.00
1001.78	17346.00
1002.50	17165.00
1003.22	16998.00
1003.94	16837.00
1004.66	16706.00
1005.38	16549.00
1006.09	16416.00
1006.81	16281.00
1007.53	16134.00
1008.25	15967.00
1008.97	15879.00
1009.69	15803.00
1010.41	15696.00
1011.13	15490.00
1011.84	15348.00
1012.56	15181.00
1013.28	15102.00
1014.00	14933.00
1014.72	14729.00
1015.44	14547.00
1016.15	14386.00
1016.87	14217.00
1017.59	14004.00
1018.31	13888.00
1019.03	13786.00
1019.74	13706.00
1020.46	13603.00
1021.18	13506.00
1021.90	13400.00
1022.61	13293.00
1023.33	13163.00
1024.05	13077.00
1024.76	12891.00
1025.48	12645.00
1026.20	12447.00
1026.92	12277.00
1027.63	12120.00
1028.35	11974.00
1029.07	11873.00
1029.78	11701.00
1030.50	11586.00
1031.22	11423.00
1031.93	11284.00
1032.65	11212.00
1033.37	11091.00
1034.08	10990.00
1034.80	10896.00
1035.52	10819.00
1036.23	10734.00
1036.95	10664.00
1037.66	10527.00
1038.38	10402.00
1039.10	10264.00
1039.81	10109.00
1040.53	9931.00
1041.24	9756.00
1041.96	9670.00
1042.67	9538.00
1043.39	9426.00
1044.10	9315.00
1044.82	9218.00
1045.54	9105.00
1046.25	8984.00
1046.97	8889.00
1047.68	8765.00
1048.40	8619.00
1049.11	8442.00
1049.83	8333.00
1050.54	8234.00
1051.26	8156.00
1051.97	8025.00
1052.68	7938.00
1053.40	7845.00
1054.11	7732.00
1054.83	7612.00
1055.54	7483.00
1056.26	7406.00
1056.97	7303.00
1057.69	7243.00
1058.40	7113.00
1059.11	7024.00
1059.83	6879.00
1060.54	6748.00
1061.25	6594.00
1061.97	6448.00
1062.68	6354.00
1063.40	6201.00
1064.11	6114.00
1064.82	5970.00
1065.54	5848.00
1066.25	2570.00
1066.96	2564.00
1067.68	2561.00
1068.39	2567.00
1069.10	2620.00
1069.82	2614.00
1070.53	2615.00
1071.24	2617.00
1071.95	2616.00
1072.67	2620.00
1073.38	5720.00
1074.09	5583.00
1074.80	5496.00
1075.52	5364.00
1076.23	5290.00
1076.94	5164.00
1077.65	2593.00
1078.37	2588.00
1079.08	2589.00
1079.79	2611.00
