300.47	2616.00
301.26	2620.00
302.04	2621.00
302.82	2620.00
303.60	2617.00
304.38	2619.00
305.17	2619.00
305.95	2618.00
306.73	2619.00
307.51	2615.00
308.29	2622.00
309.08	2621.00
309.86	2618.00
310.64	2618.00
311.42	2620.00
312.20	2621.00
312.98	2620.00
313.76	2622.00
314.55	2619.00
315.33	2619.00
316.11	2622.00
316.89	2619.00
317.67	2619.00
318.45	2624.00
319.23	2625.00
320.01	2621.00
320.79	2622.00
321.57	2621.00
322.35	2622.00
323.13	2626.00
323.91	2622.00
324.69	2624.00
325.47	2624.00
326.25	2626.00
327.03	2622.00
327.81	2621.00
328.59	2626.00
329.37	2622.00
330.15	2624.00
330.93	2624.00
331.71	2620.00
332.49	2625.00
333.27	2623.00
334.05	2629.00
334.83	2626.00
335.61	2628.00
336.39	2624.00
337.17	2633.00
337.95	2630.00
338.73	2631.00
339.51	2629.00
340.29	2632.00
341.07	2634.00
341.84	2633.00
342.62	2633.00
343.40	2640.00
344.18	2642.00
344.96	2644.00
345.74	2646.00
346.52	2646.00
347.29	2648.00
348.07	2654.00
348.85	2655.00
349.63	2659.00
350.41	2659.00
351.18	2659.00
351.96	2666.00
352.74	2666.00
353.52	2668.00
354.30	2681.00
355.07	2676.00
355.85	2686.00
356.63	2688.00
357.41	2694.00
358.18	2697.00
358.96	2704.00
359.74	2700.00
360.52	2714.00
361.29	2718.00
362.07	2720.00
362.85	2725.00
363.62	2730.00
364.40	2740.00
365.18	2744.00
365.95	2749.00
366.73	2760.00
367.51	2771.00
368.28	2774.00
369.06	2776.00
369.84	2795.00
370.61	2798.00
371.39	2807.00
372.17	2819.00
372.94	2825.00
373.72	2835.00
374.49	2849.00
375.27	2852.00
376.05	2870.00
376.82	2881.00
377.60	2893.00
378.37	2903.00
379.15	2915.00
379.92	2928.00
380.70	2939.00
381.47	2958.00
382.25	2973.00
383.02	2985.00
383.80	2996.00
384.58	3014.00
385.35	3030.00
386.13	3030.00
386.90	3065.00
387.67	3084.00
388.45	3089.00
389.22	3116.00
390.00	3131.00
390.77	3155.00
391.55	3166.00
392.32	3188.00
393.10	3200.00
393.87	3231.00
394.65	3254.00
395.42	3266.00
396.19	3286.00
396.97	3314.00
397.74	3331.00
398.52	3341.00
399.29	3373.00
400.06	3405.00
400.84	3421.00
401.61	3448.00
402.38	3464.00
403.16	3489.00
403.93	3527.00
404.70	3548.00
405.48	3564.00
406.25	3594.00
407.02	3608.00
407.80	3634.00
408.57	3667.00
409.34	3689.00
410.12	3723.00
410.89	3727.00
411.66	3769.00
412.43	3779.00
413.21	3823.00
413.98	3849.00
414.75	3875.00
415.52	3897.00
416.30	3936.00
417.07	3962.00
417.84	3992.00
418.61	4005.00
419.39	4052.00
420.16	4067.00
420.93	4109.00
421.70	4134.00
422.47	4175.00
423.24	4205.00
424.02	4234.00
424.79	4248.00
425.56	4328.00
426.33	4341.00
427.10	4371.00
427.87	4416.00
428.64	4450.00
429.42	4497.00
430.19	4529.00
430.96	4574.00
431.73	4628.00
432.50	4661.00
433.27	4685.00
434.04	4742.00
434.81	4780.00
435.58	4847.00
436.35	4888.00
437.12	4934.00
437.89	4991.00
438.67	5033.00
439.44	5090.00
440.21	5133.00
440.98	5196.00
441.75	5238.00
442.52	5297.00
443.29	5377.00
444.06	5407.00
444.83	5463.00
445.60	5558.00
446.37	5604.00
447.13	5647.00
447.90	5728.00
448.67	5791.00
449.44	5862.00
450.21	5950.00
450.98	5998.00
451.75	6040.00
452.52	6115.00
453.29	6205.00
454.06	6276.00
454.83	6373.00
455.60	6447.00
456.37	6510.00
457.13	6580.00
457.90	6667.00
458.67	6758.00
459.44	6823.00
460.21	6931.00
460.98	6993.00
461.75	7115.00
462.51	7195.00
463.28	7275.00
464.05	7370.00
464.82	7487.00
465.59	7546.00
466.35	7626.00
467.12	7743.00
467.89	7829.00
468.66	7938.00
469.43	8040.00
470.19	8106.00
470.96	8249.00
471.73	8334.00
472.50	8421.00
473.26	8536.00
474.03	8634.00
474.80	8765.00
475.56	8876.00
476.33	8992.00
477.10	9073.00
477.87	9198.00
478.63	9268.00
479.40	9396.00
480.17	9552.00
480.93	9685.00
481.70	9786.00
482.47	9885.00
483.23	9994.00
484.00	10143.00
484.76	10300.00
485.53	10425.00
486.30	10532.00
487.06	10653.00
487.83	10799.00
488.60	10924.00
489.36	11029.00
490.13	11172.00
490.89	11267.00
491.66	11416.00
492.42	11543.00
493.19	11703.00
493.96	11828.00
494.72	11964.00
495.49	12082.00
496.25	12258.00
497.02	12352.00
497.78	12524.00
498.55	12689.00
499.31	12763.00
500.08	12918.00
500.84	13046.00
501.61	13202.00
502.37	13323.00
503.14	13532.00
503.90	13677.00
504.67	13853.00
505.43	13959.00
506.20	14148.00
506.96	14302.00
507.72	14468.00
508.49	14606.00
509.25	14752.00
510.02	14984.00
510.78	15145.00
511.54	15279.00
512.31	15497.00
513.07	15699.00
513.84	15762.00
514.60	15941.00
515.36	16135.00
516.13	16242.00
516.89	16359.00
517.65	16493.00
518.42	16592.00
519.18	16771.00
519.94	17004.00
520.71	17182.00
521.47	17334.00
522.23	17488.00
523.00	17682.00
523.76	17864.00
524.52	18017.00
525.28	18214.00
526.05	18406.00
526.81	18479.00
527.57	18782.00
528.33	18884.00
529.10	19058.00
529.86	19226.00
530.62	19435.00
531.38	19633.00
532.15	19745.00
532.91	19882.00
533.67	20056.00
534.43	20196.00
535.19	20415.00
535.96	20598.00
536.72	20792.00
537.48	20907.00
538.24	21048.00
539.00	21266.00
539.76	21519.00
540.53	21750.00
541.29	21906.00
542.05	22077.00
542.81	22291.00
543.57	22526.00
544.33	22701.00
545.09	22869.00
545.85	23018.00
546.61	23207.00
547.38	23347.00
548.14	23462.00
548.90	23748.00
549.66	23865.00
550.42	24108.00
551.18	24338.00
551.94	24504.00
552.70	24594.00
553.46	24897.00
554.22	25066.00
554.98	25236.00
555.74	25377.00
556.50	25543.00
557.26	25782.00
558.02	25991.00
558.78	26240.00
559.54	26333.00
560.30	26531.00
561.06	26734.00
561.82	26939.00
562.58	27196.00
563.34	27410.00
564.10	27559.00
564.86	27771.00
565.61	27909.00
566.37	28199.00
567.13	28377.00
567.89	28611.00
568.65	28817.00
569.41	28859.00
570.17	29107.00
570.93	29336.00
571.69	29500.00
572.44	29603.00
573.20	29793.00
573.96	30013.00
574.72	30150.00
575.48	30283.00
576.24	30552.00
576.99	30701.00
577.75	30943.00
578.51	31141.00
579.27	31355.00
580.03	31593.00
580.78	31855.00
581.54	32077.00
582.30	32220.00
583.06	32430.00
583.82	32539.00
584.57	32742.00
585.33	32971.00
586.09	33100.00
586.84	33230.00
587.60	33343.00
588.36	33447.00
589.12	33663.00
589.87	33895.00
590.63	34051.00
591.39	34234.00
592.14	34310.00
592.90	34565.00
593.66	34777.00
594.41	35043.00
595.17	35237.00
595.93	35340.00
596.68	35434.00
597.44	35554.00
598.20	35806.00
598.95	36089.00
599.71	36458.00
600.46	36550.00
601.22	36567.00
601.98	36821.00
602.73	37139.00
603.49	37407.00
604.24	37648.00
605.00	37689.00
605.76	37853.00
606.51	38008.00
607.27	38247.00
608.02	38485.00
608.78	38704.00
609.53	38898.00
610.29	39097.00
611.04	39266.00
611.80	39624.00
612.55	39828.00
613.31	40115.00
614.06	40327.00
614.82	40508.00
615.57	40718.00
616.33	40959.00
617.08	41106.00
617.84	41276.00
618.59	41273.00
619.35	41356.00
620.10	41242.00
620.85	41313.00
621.61	41348.00
622.36	41333.00
623.12	41422.00
623.87	41517.00
624.62	41693.00
625.38	41744.00
626.13	41931.00
626.89	42194.00
627.64	42335.00
628.39	42403.00
629.15	42402.00
629.90	42618.00
630.65	42619.00
631.41	42666.00
632.16	42608.00
632.91	42681.00
633.67	42628.00
634.42	42735.00
635.17	42928.00
635.92	43208.00
636.68	43622.00
637.43	44179.00
638.18	44655.00
638.94	45176.00
639.69	45434.00
640.44	45782.00
641.19	46363.00
641.95	46666.00
642.70	46878.00
643.45	47136.00
644.20	47449.00
644.95	47640.00
645.71	47712.00
646.46	47844.00
647.21	48007.00
647.96	48073.00
648.71	48305.00
649.47	48373.00
650.22	48519.00
650.97	48518.00
651.72	48688.00
652.47	48825.00
653.22	48974.00
653.97	49134.00
654.73	49305.00
655.48	49348.00
656.23	49643.00
656.98	49906.00
657.73	50012.00
658.48	50162.00
659.23	50120.00
659.98	50201.00
660.73	50284.00
661.48	50350.00
662.23	50396.00
662.99	50375.00
663.74	50363.00
664.49	50689.00
665.24	51202.00
665.99	51621.00
666.74	51718.00
667.49	51742.00
668.24	51976.00
668.99	52058.00
669.74	52240.00
670.49	52335.00
671.24	52399.00
671.99	52547.00
672.74	52675.00
673.48	52799.00
674.23	52851.00
674.98	53035.00
675.73	53025.00
676.48	53135.00
677.23	53336.00
677.98	53405.00
678.73	53478.00
679.48	53439.00
680.23	53590.00
680.98	53448.00
681.73	53312.00
682.47	53486.00
683.22	53461.00
683.97	53518.00
684.72	53743.00
685.47	53834.00
686.22	53945.00
686.97	54290.00
687.71	54469.00
688.46	54606.00
689.21	54767.00
689.96	54803.00
690.71	54826.00
691.45	54797.00
692.20	54716.00
692.95	54797.00
693.70	54830.00
694.44	54875.00
695.19	54955.00
695.94	55128.00
696.69	55143.00
697.43	55294.00
698.18	55349.00
698.93	55486.00
699.68	55366.00
700.42	55451.00
701.17	55448.00
701.92	55508.00
702.66	55613.00
703.41	55722.00
704.16	55770.00
704.90	55763.00
705.65	55827.00
706.40	55844.00
707.14	55829.00
707.89	55929.00
708.64	55954.00
709.38	55974.00
710.13	55916.00
710.88	56116.00
711.62	56132.00
712.37	56108.00
713.11	56223.00
713.86	56255.00
714.61	56220.00
715.35	56125.00
716.10	56021.00
716.84	55766.00
717.59	55714.00
718.33	55474.00
719.08	55532.00
719.83	55228.00
720.57	55161.00
721.32	55117.00
722.06	55031.00
722.81	55030.00
723.55	55097.00
724.30	55056.00
725.04	55165.00
725.79	55181.00
726.53	55140.00
727.28	55150.00
728.02	55044.00
728.76	55273.00
729.51	55274.00
730.25	55452.00
731.00	55442.00
731.74	55341.00
732.49	55251.00
733.23	55261.00
733.97	55212.00
734.72	55044.00
735.46	54936.00
736.21	54837.00
736.95	54949.00
737.69	55035.00
738.44	55147.00
739.18	55240.00
739.92	55269.00
740.67	55320.00
741.41	55442.00
742.15	55562.00
742.90	55641.00
743.64	55695.00
744.38	55762.00
745.13	55713.00
745.87	55627.00
746.61	55647.00
747.36	55753.00
748.10	55739.00
748.84	55672.00
749.58	55583.00
750.33	55360.00
751.07	55215.00
751.81	55172.00
752.55	55138.00
753.30	55070.00
754.04	54932.00
754.78	54751.00
755.52	54620.00
756.27	54353.00
757.01	54359.00
757.75	54403.00
758.49	54475.00
759.23	54454.00
759.97	54396.00
760.72	54431.00
761.46	54423.00
762.20	54493.00
762.94	54473.00
763.68	54239.00
764.42	54161.00
765.16	54158.00
765.91	54098.00
766.65	53990.00
767.39	53884.00
768.13	53918.00
768.87	53930.00
769.61	53973.00
770.35	53884.00
771.09	53771.00
771.83	53591.00
772.57	53576.00
773.31	53521.00
774.05	53592.00
774.80	53577.00
775.54	53458.00
776.28	53263.00
777.02	53146.00
777.76	53187.00
778.50	52978.00
779.24	52906.00
779.98	52683.00
780.72	52615.00
781.46	52662.00
782.20	52631.00
782.93	52578.00
783.67	52503.00
784.41	52370.00
785.15	52278.00
785.89	52236.00
786.63	51896.00
787.37	51522.00
788.11	51453.00
788.85	51362.00
789.59	51274.00
790.33	51345.00
791.07	51296.00
791.81	51128.00
792.54	51024.00
793.28	50776.00
794.02	50571.00
794.76	50413.00
795.50	50136.00
796.24	49974.00
796.97	49655.00
797.71	49381.00
798.45	49134.00
799.19	49105.00
799.93	48937.00
800.67	48972.00
801.40	48941.00
802.14	48994.00
802.88	49197.00
803.62	49159.00
804.35	49099.00
805.09	49110.00
805.83	48843.00
806.57	48914.00
807.30	48794.00
808.04	48800.00
808.78	48623.00
809.52	48412.00
810.25	48099.00
810.99	47945.00
811.73	47927.00
812.46	47807.00
813.20	47867.00
813.94	47764.00
814.68	47735.00
815.41	47741.00
816.15	47671.00
816.88	47683.00
817.62	47738.00
818.36	47641.00
819.09	47398.00
819.83	47015.00
820.57	46956.00
821.30	46762.00
822.04	46641.00
822.77	46464.00
823.51	46364.00
824.25	46195.00
824.98	46167.00
825.72	46149.00
826.45	46073.00
827.19	45906.00
827.92	45728.00
828.66	45454.00
829.40	45202.00
830.13	45242.00
830.87	45124.00
831.60	45199.00
832.34	45039.00
833.07	44979.00
833.81	44920.00
834.54	45002.00
835.28	45140.00
836.01	45130.00
836.75	44922.00
837.48	44643.00
838.22	44490.00
838.95	44301.00
839.68	44408.00
840.42	44461.00
841.15	44501.00
841.89	44357.00
842.62	44025.00
843.36	43958.00
844.09	43909.00
844.82	43993.00
845.56	43894.00
846.29	43832.00
847.02	43588.00
847.76	43493.00
848.49	43466.00
849.23	43753.00
849.96	43933.00
850.69	43962.00
851.43	43773.00
852.16	43532.00
852.89	43037.00
853.63	42961.00
854.36	42856.00
855.09	42864.00
855.82	42894.00
856.56	42698.00
857.29	42559.00
858.02	42379.00
858.76	42490.00
859.49	42501.00
860.22	42322.00
860.95	42258.00
861.69	42040.00
862.42	41761.00
863.15	41682.00
863.88	41536.00
864.61	41614.00
865.35	41608.00
866.08	41582.00
866.81	41498.00
867.54	41212.00
868.27	41088.00
869.01	41043.00
869.74	40989.00
870.47	40975.00
871.20	40789.00
871.93	40524.00
872.66	40324.00
873.40	40111.00
874.13	39856.00
874.86	39621.00
875.59	39583.00
876.32	39512.00
877.05	39470.00
877.78	39416.00
878.51	39259.00
879.24	39105.00
879.97	38994.00
880.71	38944.00
881.44	38785.00
882.17	38693.00
882.90	38434.00
883.63	38406.00
884.36	38308.00
885.09	38319.00
885.82	38338.00
886.55	38510.00
887.28	38558.00
888.01	38410.00
888.74	38234.00
889.47	38132.00
890.20	37859.00
890.93	37589.00
891.66	37393.00
892.39	37323.00
893.12	37307.00
893.85	37185.00
894.57	37239.00
895.30	37141.00
896.03	37161.00
896.76	37162.00
897.49	37092.00
898.22	36874.00
898.95	36746.00
899.68	36505.00
900.41	36186.00
901.14	36076.00
901.86	35924.00
902.59	35911.00
903.32	35934.00
904.05	35832.00
904.78	35645.00
905.51	35578.00
906.24	35487.00
906.96	35446.00
907.69	35264.00
908.42	35121.00
909.15	34949.00
909.88	34712.00
910.60	34639.00
911.33	34392.00
912.06	34308.00
912.79	34192.00
913.52	33962.00
914.24	33868.00
914.97	33904.00
915.70	33736.00
916.42	33535.00
917.15	33389.00
917.88	33183.00
918.61	33016.00
919.33	32741.00
920.06	32452.00
920.79	32219.00
921.51	31998.00
922.24	32003.00
922.97	31776.00
923.69	31758.00
924.42	31629.00
925.15	31392.00
925.87	31190.00
926.60	30993.00
927.33	30710.00
928.05	30402.00
928.78	30153.00
929.51	29800.00
930.23	29513.00
930.96	29184.00
931.68	28869.00
932.41	28549.00
933.14	28229.00
933.86	27946.00
934.59	27575.00
935.31	27173.00
936.04	26637.00
936.76	26217.00
937.49	25749.00
938.21	25272.00
938.94	24790.00
939.66	24309.00
940.39	23962.00
941.11	23571.00
941.84	23269.00
942.56	23041.00
943.29	22787.00
944.01	22502.00
944.74	22423.00
945.46	22363.00
946.19	22352.00
946.91	22389.00
947.64	22416.00
948.36	22538.00
949.09	22580.00
949.81	22724.00
950.53	22787.00
951.26	22925.00
951.98	22893.00
952.71	22921.00
953.43	22963.00
954.15	23112.00
954.88	23252.00
955.60	23313.00
956.33	23313.00
957.05	23358.00
957.77	23476.00
958.50	23527.00
959.22	23625.00
959.94	23543.00
960.67	23479.00
961.39	23460.00
962.11	23463.00
962.84	23537.00
963.56	23449.00
964.28	23312.00
965.00	23209.00
965.73	22950.00
966.45	22835.00
967.17	22747.00
967.89	22517.00
968.62	22458.00
969.34	22303.00
970.06	22093.00
970.78	21998.00
971.51	21893.00
972.23	21733.00
972.95	21555.00
973.67	21402.00
974.40	21310.00
975.12	21109.00
975.84	20981.00
976.56	20804.00
977.28	20642.00
978.00	20523.00
978.73	20381.00
979.45	20429.00
980.17	20320.00
980.89	20295.00
981.61	20178.00
982.33	20119.00
983.05	20070.00
983.77	20026.00
984.50	19943.00
985.22	19903.00
985.94	19821.00
986.66	19721.00
987.38	19618.00
988.10	19554.00
988.82	19566.00
989.54	19405.00
990.26	19304.00
990.98	19214.00
991.70	19077.00
992.42	18969.00
993.14	18806.00
993.86	18706.00
994.58	18538.00
995.30	18458.00
996.02	18303.00
996.74	18215.00
997.46	18180.00
998.18	18052.00
998.90	17885.00
999.62	17806.00
1000.34	17707.00
1001.06	17649.00
1001.78	17536.00
1002.50	17377.00
1003.22	17155.00
1003.94	17001.00
1004.66	16874.00
1005.38	16716.00
1006.09	16637.00
1006.81	16438.00
1007.53	16297.00
1008.25	16161.00
1008.97	15991.00
1009.69	15977.00
1010.41	15799.00
1011.13	15704.00
1011.84	15509.00
1012.56	15378.00
1013.28	15181.00
1014.00	15098.00
1014.72	14911.00
1015.44	14737.00
1016.15	14505.00
1016.87	14338.00
1017.59	14172.00
1018.31	14025.00
1019.03	13946.00
1019.74	13860.00
1020.46	13747.00
1021.18	13645.00
1021.90	13524.00
1022.61	13427.00
1023.33	13315.00
1024.05	13146.00
1024.76	13025.00
1025.48	12765.00
1026.20	12611.00
1026.92	12406.00
1027.63	12283.00
1028.35	12090.00
1029.07	11979.00
1029.78	11838.00
1030.50	11648.00
1031.22	11520.00
1031.93	11422.00
1032.65	11308.00
1033.37	11173.00
1034.08	11127.00
1034.80	11006.00
1035.52	10943.00
1036.23	10866.00
1036.95	10781.00
1037.66	10627.00
1038.38	10515.00
1039.10	10402.00
1039.81	10214.00
1040.53	10046.00
1041.24	9911.00
1041.96	9791.00
1042.67	9637.00
1043.39	9554.00
1044.10	9427.00
1044.82	9355.00
1045.54	9224.00
1046.25	9110.00
1046.97	8984.00
1047.68	8869.00
1048.40	8709.00
1049.11	8570.00
1049.83	8451.00
1050.54	8317.00
1051.26	8233.00
1051.97	8127.00
1052.68	8048.00
1053.40	7913.00
1054.11	7817.00
1054.83	7701.00
1055.54	7559.00
1056.26	7482.00
1056.97	7395.00
1057.69	7311.00
1058.40	7201.00
1059.11	7077.00
1059.83	6957.00
1060.54	6817.00
1061.25	6664.00
1061.97	6514.00
1062.68	6411.00
1063.40	6283.00
1064.11	6160.00
1064.82	6029.00
1065.54	5931.00
1066.25	2567.00
1066.96	2566.00
1067.68	2562.00
1068.39	2567.00
1069.10	2617.00
1069.82	2621.00
1070.53	2619.00
1071.24	2621.00
1071.95	2623.00
1072.67	2617.00
1073.38	5785.00
1074.09	5649.00
1074.80	5556.00
1075.52	5460.00
1076.23	5357.00
1076.94	5238.00
1077.65	2601.00
1078.37	2598.00
1079.08	2596.00
1079.79	2615.00
