300.47	2617.00
301.26	2620.00
302.04	2620.00
302.82	2616.00
303.60	2617.00
304.38	2617.00
305.17	2621.00
305.95	2619.00
306.73	2614.00
307.51	2622.00
308.29	2620.00
309.08	2619.00
309.86	2622.00
310.64	2622.00
311.42	2619.00
312.20	2619.00
312.98	2615.00
313.76	2620.00
314.55	2616.00
315.33	2617.00
316.11	2616.00
316.89	2618.00
317.67	2623.00
318.45	2621.00
319.23	2622.00
320.01	2620.00
320.79	2623.00
321.57	2619.00
322.35	2620.00
323.13	2619.00
323.91	2621.00
324.69	2619.00
325.47	2623.00
326.25	2622.00
327.03	2625.00
327.81	2624.00
328.59	2623.00
329.37	2624.00
330.15	2628.00
330.93	2625.00
331.71	2621.00
332.49	2629.00
333.27	2628.00
334.05	2625.00
334.83	2626.00
335.61	2629.00
336.39	2623.00
337.17	2630.00
337.95	2633.00
338.73	2631.00
339.51	2631.00
340.29	2635.00
341.07	2638.00
341.84	2635.00
342.62	2634.00
343.40	2637.00
344.18	2645.00
344.96	2644.00
345.74	2648.00
346.52	2644.00
347.29	2650.00
348.07	2649.00
348.85	2652.00
349.63	2659.00
350.41	2660.00
351.18	2659.00
351.96	2668.00
352.74	2669.00
353.52	2673.00
354.30	2677.00
355.07	2678.00
355.85	2681.00
356.63	2685.00
357.41	2688.00
358.18	2697.00
358.96	2702.00
359.74	2702.00
360.52	2711.00
361.29	2714.00
362.07	2724.00
362.85	2730.00
363.62	2732.00
364.40	2737.00
365.18	2748.00
365.95	2746.00
366.73	2763.00
367.51	2772.00
368.28	2772.00
369.06	2779.00
369.84	2786.00
370.61	2795.00
371.39	2805.00
372.17	2812.00
372.94	2821.00
373.72	2831.00
374.49	2854.00
375.27	2853.00
376.05	2863.00
376.82	2876.00
377.60	2888.00
378.37	2897.00
379.15	2915.00
379.92	2925.00
380.70	2939.00
381.47	2958.00
382.25	2972.00
383.02	2986.00
383.80	2991.00
384.58	3012.00
385.35	3034.00
386.13	3055.00
386.90	3068.00
387.67	3076.00
388.45	3090.00
389.22	3118.00
390.00	3135.00
390.77	3143.00
391.55	3174.00
392.32	3181.00
393.10	3202.00
393.87	3218.00
394.65	3251.00
395.42	3263.00
396.19	3298.00
396.97	3307.00
397.74	3340.00
398.52	3351.00
399.29	3374.00
400.06	3401.00
400.84	3417.00
401.61	3441.00
402.38	3462.00
403.16	3486.00
403.93	3509.00
404.70	3539.00
405.48	3573.00
406.25	3588.00
407.02	3615.00
407.80	3632.00
408.57	3652.00
409.34	3680.00
410.12	3705.00
410.89	3732.00
411.66	3773.00
412.43	3789.00
413.21	3817.00
413.98	3850.00
414.75	3859.00
415.52	3884.00
416.30	3927.00
417.07	3961.00
417.84	3985.00
418.61	3986.00
419.39	4029.00
420.16	4079.00
420.93	4111.00
421.70	4133.00
422.47	4160.00
423.24	4187.00
424.02	4226.00
424.79	4249.00
425.56	4291.00
426.33	4342.00
427.10	4363.00
427.87	4411.00
428.64	4461.00
429.42	4482.00
430.19	4509.00
430.96	4558.00
431.73	4613.00
432.50	4664.00
433.27	4685.00
434.04	4744.00
434.81	4790.00
435.58	4816.00
436.35	4890.00
437.12	4922.00
437.89	4994.00
438.67	5018.00
439.44	5079.00
440.21	5111.00
440.98	5173.00
441.75	5235.00
442.52	5307.00
443.29	5368.00
444.06	5434.00
444.83	5457.00
445.60	5528.00
446.37	5580.00
447.13	5648.00
447.90	5714.00
448.67	5780.00
449.44	5847.00
450.21	5904.00
450.98	6007.00
451.75	6046.00
452.52	6098.00
453.29	6195.00
454.06	6276.00
454.83	6349.00
455.60	6414.00
456.37	6507.00
457.13	6559.00
457.90	6674.00
458.67	6765.00
459.44	6827.00
460.21	6885.00
460.98	6979.00
461.75	7062.00
462.51	7183.00
463.28	7283.00
464.05	7362.00
464.82	7452.00
465.59	7530.00
466.35	7639.00
467.12	7707.00
467.89	7819.00
468.66	7943.00
469.43	8013.00
470.19	8099.00
470.96	8234.00
471.73	8307.00
472.50	8450.00
473.26	8529.00
474.03	8634.00
474.80	8732.00
475.56	8847.00
476.33	8926.00
477.10	9043.00
477.87	9148.00
478.63	9251.00
479.40	9418.00
480.17	9524.00
480.93	9627.00
481.70	9757.00
482.47	9850.00
483.23	9976.00
484.00	10116.00
484.76	10258.00
485.53	10406.00
486.30	10508.00
487.06	10635.00
487.83	10778.00
488.60	10908.00
489.36	11008.00
490.13	11156.00
490.89	11283.00
491.66	11430.00
492.42	11519.00
493.19	11711.00
493.96	11842.00
494.72	11936.00
495.49	12043.00
496.25	12234.00
497.02	12343.00
497.78	12504.00
498.55	12619.00
499.31	12736.00
500.08	12882.00
500.84	13051.00
501.61	13159.00
502.37	13328.00
503.14	13488.00
503.90	13615.00
504.67	13789.00
505.43	13934.00
506.20	14102.00
506.96	14267.00
507.72	14403.00
508.49	14576.00
509.25	14755.00
510.02	14930.00
510.78	15042.00
511.54	15250.00
512.31	15454.00
513.07	15607.00
513.84	15699.00
514.60	15906.00
515.36	16031.00
516.13	16197.00
516.89	16341.00
517.65	16452.00
518.42	16602.00
519.18	16742.00
519.94	16956.00
520.71	17134.00
521.47	17255.00
522.23	17425.00
523.00	17653.00
523.76	17811.00
524.52	17988.00
525.28	18182.00
526.05	18360.00
526.81	18482.00
527.57	18720.00
528.33	18875.00
529.10	18998.00
529.86	19152.00
530.62	19357.00
531.38	19561.00
532.15	19681.00
532.91	19825.00
533.67	19978.00
534.43	20139.00
535.19	20392.00
535.96	20539.00
536.72	20683.00
537.48	20861.00
538.24	21026.00
539.00	21183.00
539.76	21420.00
540.53	21714.00
541.29	21930.00
542.05	21986.00
542.81	22205.00
543.57	22453.00
544.33	22623.00
545.09	22748.00
545.85	22960.00
546.61	23058.00
547.38	23274.00
548.14	23418.00
548.90	23666.00
549.66	23826.00
550.42	24068.00
551.18	24254.00
551.94	24377.00
552.70	24629.00
553.46	24798.00
554.22	24939.00
554.98	25165.00
555.74	25310.00
556.50	25476.00
557.26	25684.00
558.02	25908.00
558.78	26135.00
559.54	26269.00
560.30	26420.00
561.06	26676.00
561.82	26879.00
562.58	27132.00
563.34	27298.00
564.10	27435.00
564.86	27656.00
565.61	27941.00
566.37	28127.00
567.13	28290.00
567.89	28491.00
568.65	28681.00
569.41	28786.00
570.17	29028.00
570.93	29186.00
571.69	29294.00
572.44	29477.00
573.20	29649.00
573.96	29955.00
574.72	30038.00
575.48	30256.00
576.24	30527.00
576.99	30671.00
577.75	30826.00
578.51	31117.00
579.27	31332.00
580.03	31419.00
580.78	31727.00
581.54	31963.00
582.30	32163.00
583.06	32284.00
583.82	32418.00
584.57	32703.00
585.33	32771.00
586.09	33029.00
586.84	33127.00
587.60	33268.00
588.36	33435.00
589.12	33584.00
589.87	33719.00
590.63	33965.00
591.39	34120.00
592.14	34332.00
592.90	34430.00
593.66	34672.00
594.41	34911.00
595.17	35160.00
595.93	35236.00
596.68	35308.00
597.44	35508.00
598.20	35663.00
598.95	35986.00
599.71	36306.00
600.46	36390.00
601.22	36503.00
601.98	36645.00
602.73	36998.00
603.49	37269.00
604.24	37515.00
605.00	37639.00
605.76	37708.00
606.51	37948.00
607.27	38090.00
608.02	38342.00
608.78	38540.00
609.53	38706.00
610.29	38930.00
611.04	39214.00
611.80	39430.00
612.55	39764.00
613.31	39999.00
614.06	40202.00
614.82	40403.00
615.57	40582.00
616.33	40760.00
617.08	40958.00
617.84	41165.00
618.59	41243.00
619.35	41153.00
620.10	41193.00
620.85	41137.00
621.61	41242.00
622.36	41165.00
623.12	41284.00
623.87	41365.00
624.62	41596.00
625.38	41649.00
626.13	41848.00
626.89	42062.00
627.64	42191.00
628.39	42296.00
629.15	42361.00
629.90	42362.00
630.65	42497.00
631.41	42517.00
632.16	42502.00
632.91	42490.00
633.67	42526.00
634.42	42637.00
635.17	42796.00
635.92	43053.00
636.68	43459.00
637.43	44121.00
638.18	44533.00
638.94	44876.00
639.69	45224.00
640.44	45685.00
641.19	46051.00
641.95	46348.00
642.70	46733.00
643.45	46945.00
644.20	47160.00
644.95	47382.00
645.71	47617.00
646.46	47733.00
647.21	47920.00
647.96	47994.00
648.71	48099.00
649.47	48220.00
650.22	48292.00
650.97	48384.00
651.72	48542.00
652.47	48742.00
653.22	48865.00
653.97	49069.00
654.73	49144.00
655.48	49316.00
656.23	49450.00
656.98	49723.00
657.73	49946.00
658.48	49974.00
659.23	49887.00
659.98	50039.00
660.73	50036.00
661.48	50257.00
662.23	50230.00
662.99	50213.00
663.74	50286.00
664.49	50527.00
665.24	51020.00
665.99	51455.00
666.74	51673.00
667.49	51565.00
668.24	51765.00
668.99	51778.00
669.74	52032.00
670.49	52201.00
671.24	52179.00
671.99	52344.00
672.74	52403.00
673.48	52569.00
674.23	52706.00
674.98	52788.00
675.73	52791.00
676.48	53061.00
677.23	53141.00
677.98	53299.00
678.73	53297.00
679.48	53193.00
680.23	53289.00
680.98	53322.00
681.73	53132.00
682.47	53202.00
683.22	53205.00
683.97	53306.00
684.72	53527.00
685.47	53634.00
686.22	53778.00
686.97	54038.00
687.71	54302.00
688.46	54456.00
689.21	54534.00
689.96	54587.00
690.71	54575.00
691.45	54511.00
692.20	54576.00
692.95	54640.00
693.70	54613.00
694.44	54640.00
695.19	54838.00
695.94	54949.00
696.69	55059.00
697.43	55174.00
698.18	55032.00
698.93	55221.00
699.68	55217.00
700.42	55264.00
701.17	55306.00
701.92	55259.00
702.66	55355.00
703.41	55442.00
704.16	55598.00
704.90	55460.00
705.65	55648.00
706.40	55629.00
707.14	55564.00
707.89	55647.00
708.64	55615.00
709.38	55677.00
710.13	55712.00
710.88	55713.00
711.62	55930.00
712.37	55850.00
713.11	55947.00
713.86	55944.00
714.61	56029.00
715.35	55865.00
716.10	55722.00
716.84	55597.00
717.59	55412.00
718.33	55203.00
719.08	55155.00
719.83	55004.00
720.57	54886.00
721.32	54902.00
722.06	54768.00
722.81	54773.00
723.55	54731.00
724.30	54841.00
725.04	54951.00
725.79	54942.00
726.53	54870.00
727.28	54870.00
728.02	54883.00
728.76	55069.00
729.51	55068.00
730.25	55106.00
731.00	55152.00
731.74	55053.00
732.49	55130.00
733.23	55006.00
733.97	54814.00
734.72	54789.00
735.46	54637.00
736.21	54561.00
736.95	54588.00
737.69	54740.00
738.44	54828.00
739.18	55025.00
739.92	55071.00
740.67	55045.00
741.41	55136.00
742.15	55276.00
742.90	55332.00
743.64	55450.00
744.38	55433.00
745.13	55440.00
745.87	55354.00
746.61	55401.00
747.36	55444.00
748.10	55342.00
748.84	55412.00
749.58	55258.00
750.33	55120.00
751.07	55129.00
751.81	54919.00
752.55	54765.00
753.30	54840.00
754.04	54721.00
754.78	54460.00
755.52	54300.00
756.27	54088.00
757.01	54054.00
757.75	54070.00
758.49	54136.00
759.23	54183.00
759.97	54050.00
760.72	54061.00
761.46	54161.00
762.20	54221.00
762.94	54092.00
763.68	54032.00
764.42	53892.00
765.16	53854.00
765.91	53729.00
766.65	53745.00
767.39	53623.00
768.13	53559.00
768.87	53583.00
769.61	53655.00
770.35	53501.00
771.09	53471.00
771.83	53405.00
772.57	53265.00
773.31	53174.00
774.05	53292.00
774.80	53236.00
775.54	53095.00
776.28	53013.00
777.02	52931.00
777.76	52772.00
778.50	52784.00
779.24	52512.00
779.98	52415.00
780.72	52372.00
781.46	52333.00
782.20	52318.00
782.93	52314.00
783.67	52191.00
784.41	51989.00
785.15	51921.00
785.89	51752.00
786.63	51520.00
787.37	51328.00
788.11	51144.00
788.85	51022.00
789.59	50883.00
790.33	50937.00
791.07	50929.00
791.81	50873.00
792.54	50631.00
793.28	50504.00
794.02	50412.00
794.76	50056.00
795.50	49795.00
796.24	49748.00
796.97	49471.00
797.71	49064.00
798.45	48898.00
799.19	48817.00
799.93	48732.00
800.67	48661.00
801.40	48633.00
802.14	48709.00
802.88	48813.00
803.62	48768.00
804.35	48790.00
805.09	48692.00
805.83	48713.00
806.57	48453.00
807.30	48481.00
808.04	48433.00
808.78	48255.00
809.52	48008.00
810.25	47867.00
810.99	47766.00
811.73	47528.00
812.46	47527.00
813.20	47471.00
813.94	47407.00
814.68	47384.00
815.41	47430.00
816.15	47312.00
816.88	47439.00
817.62	47502.00
818.36	47303.00
819.09	47054.00
819.83	46772.00
820.57	46598.00
821.30	46472.00
822.04	46282.00
822.77	46154.00
823.51	45977.00
824.25	45869.00
824.98	45814.00
825.72	45829.00
826.45	45717.00
827.19	45608.00
827.92	45408.00
828.66	45066.00
829.40	44984.00
830.13	44869.00
830.87	44813.00
831.60	44838.00
832.34	44780.00
833.07	44609.00
833.81	44594.00
834.54	44687.00
835.28	44694.00
836.01	44728.00
836.75	44609.00
837.48	44316.00
838.22	44188.00
838.95	44038.00
839.68	44085.00
840.42	44051.00
841.15	44188.00
841.89	44092.00
842.62	43844.00
843.36	43702.00
844.09	43660.00
844.82	43738.00
845.56	43687.00
846.29	43477.00
847.02	43301.00
847.76	43106.00
848.49	43164.00
849.23	43419.00
849.96	43698.00
850.69	43629.00
851.43	43448.00
852.16	43207.00
852.89	42863.00
853.63	42568.00
854.36	42610.00
855.09	42626.00
855.82	42488.00
856.56	42371.00
857.29	42149.00
858.02	42207.00
858.76	42191.00
859.49	42143.00
860.22	42093.00
860.95	41870.00
861.69	41733.00
862.42	41434.00
863.15	41301.00
863.88	41263.00
864.61	41304.00
865.35	41306.00
866.08	41286.00
866.81	41064.00
867.54	40968.00
868.27	40832.00
869.01	40722.00
869.74	40718.00
870.47	40685.00
871.20	40497.00
871.93	40220.00
872.66	40058.00
873.40	39875.00
874.13	39638.00
874.86	39340.00
875.59	39216.00
876.32	39211.00
877.05	39121.00
877.78	39105.00
878.51	39009.00
879.24	38857.00
879.97	38724.00
880.71	38594.00
881.44	38402.00
882.17	38438.00
882.90	38218.00
883.63	38069.00
884.36	37911.00
885.09	38034.00
885.82	38070.00
886.55	38212.00
887.28	38308.00
888.01	38125.00
888.74	38002.00
889.47	37747.00
890.20	37536.00
890.93	37300.00
891.66	37124.00
892.39	37046.00
893.12	37022.00
893.85	36936.00
894.57	36889.00
895.30	36924.00
896.03	36911.00
896.76	36802.00
897.49	36717.00
898.22	36579.00
898.95	36402.00
899.68	36179.00
900.41	35929.00
901.14	35768.00
901.86	35624.00
902.59	35647.00
903.32	35549.00
904.05	35589.00
904.78	35449.00
905.51	35287.00
906.24	35186.00
906.96	35114.00
907.69	34978.00
908.42	34839.00
909.15	34650.00
909.88	34477.00
910.60	34281.00
911.33	34122.00
912.06	34038.00
912.79	33826.00
913.52	33664.00
914.24	33595.00
914.97	33581.00
915.70	33472.00
916.42	33239.00
917.15	33071.00
917.88	32858.00
918.61	32680.00
919.33	32441.00
920.06	32109.00
920.79	31999.00
921.51	31783.00
922.24	31686.00
922.97	31605.00
923.69	31399.00
924.42	31254.00
925.15	31105.00
925.87	30954.00
926.60	30753.00
927.33	30481.00
928.05	30130.00
928.78	29812.00
929.51	29597.00
930.23	29239.00
930.96	28980.00
931.68	28571.00
932.41	28259.00
933.14	27940.00
933.86	27628.00
934.59	27246.00
935.31	26893.00
936.04	26394.00
936.76	25955.00
937.49	25523.00
938.21	25026.00
938.94	24507.00
939.66	24123.00
940.39	23704.00
941.11	23356.00
941.84	23053.00
942.56	22767.00
943.29	22524.00
944.01	22303.00
944.74	22197.00
945.46	22146.00
946.19	22116.00
946.91	22147.00
947.64	22228.00
948.36	22305.00
949.09	22366.00
949.81	22456.00
950.53	22560.00
951.26	22615.00
951.98	22763.00
952.71	22755.00
953.43	22832.00
954.15	22909.00
954.88	23001.00
955.60	23078.00
956.33	23082.00
957.05	23128.00
957.77	23219.00
958.50	23283.00
959.22	23377.00
959.94	23337.00
960.67	23307.00
961.39	23224.00
962.11	23227.00
962.84	23281.00
963.56	23160.00
964.28	23075.00
965.00	22941.00
965.73	22783.00
966.45	22628.00
967.17	22492.00
967.89	22379.00
968.62	22239.00
969.34	22038.00
970.06	21908.00
970.78	21752.00
971.51	21667.00
972.23	21477.00
972.95	21353.00
973.67	21209.00
974.40	21069.00
975.12	20929.00
975.84	20771.00
976.56	20648.00
977.28	20452.00
978.00	20355.00
978.73	20287.00
979.45	20110.00
980.17	20114.00
980.89	20082.00
981.61	20026.00
982.33	19887.00
983.05	19888.00
983.77	19812.00
984.50	19720.00
985.22	19685.00
985.94	19597.00
986.66	19518.00
987.38	19426.00
988.10	19347.00
988.82	19262.00
989.54	19205.00
990.26	19173.00
990.98	19022.00
991.70	18875.00
992.42	18733.00
993.14	18670.00
993.86	18549.00
994.58	18367.00
995.30	18193.00
996.02	18106.00
996.74	18049.00
997.46	17932.00
998.18	17856.00
998.90	17743.00
999.62	17622.00
1000.34	17488.00
1001.06	17410.00
1001.78	17286.00
1002.50	17197.00
1003.22	16982.00
1003.94	16829.00
1004.66	16692.00
1005.38	16536.00
1006.09	16414.00
1006.81	16222.00
1007.53	16098.00
1008.25	15942.00
1008.97	15831.00
1009.69	15731.00
1010.41	15629.00
1011.13	15479.00
1011.84	15363.00
1012.56	15179.00
1013.28	15030.00
1014.00	14873.00
1014.72	14706.00
1015.44	14582.00
1016.15	14351.00
1016.87	14144.00
1017.59	13989.00
1018.31	13869.00
1019.03	13812.00
1019.74	13668.00
1020.46	13623.00
1021.18	13463.00
1021.90	13382.00
1022.61	13252.00
1023.33	13143.00
1024.05	13012.00
1024.76	12826.00
1025.48	12676.00
1026.20	12452.00
1026.92	12326.00
1027.63	12128.00
1028.35	11963.00
1029.07	11822.00
1029.78	11693.00
1030.50	11511.00
1031.22	11396.00
1031.93	11278.00
1032.65	11148.00
1033.37	11074.00
1034.08	10940.00
1034.80	10897.00
1035.52	10795.00
1036.23	10707.00
1036.95	10598.00
1037.66	10544.00
1038.38	10412.00
1039.10	10265.00
1039.81	10077.00
1040.53	9920.00
1041.24	9750.00
1041.96	9638.00
1042.67	9524.00
1043.39	9393.00
1044.10	9308.00
1044.82	9179.00
1045.54	9090.00
1046.25	8978.00
1046.97	8850.00
1047.68	8716.00
1048.40	8573.00
1049.11	8420.00
1049.83	8318.00
1050.54	8234.00
1051.26	8100.00
1051.97	8040.00
1052.68	7916.00
1053.40	7816.00
1054.11	7711.00
1054.83	7629.00
1055.54	7480.00
1056.26	7390.00
1056.97	7308.00
1057.69	7227.00
1058.40	7140.00
1059.11	6985.00
1059.83	6901.00
1060.54	6708.00
1061.25	6584.00
1061.97	6473.00
1062.68	6337.00
1063.40	6214.00
1064.11	6106.00
1064.82	5970.00
1065.54	5856.00
1066.25	2563.00
1066.96	2560.00
1067.68	2563.00
1068.39	2561.00
1069.10	2611.00
1069.82	2618.00
1070.53	2617.00
1071.24	2619.00
1071.95	2621.00
1072.67	2620.00
1073.38	5720.00
1074.09	5583.00
1074.80	5486.00
1075.52	5388.00
1076.23	5297.00
1076.94	5176.00
1077.65	2591.00
1078.37	2591.00
1079.08	2586.00
1079.79	2604.00
