300.47	2618.00
301.26	2620.00
302.04	2620.00
302.82	2620.00
303.60	2614.00
304.38	2616.00
305.17	2618.00
305.95	2619.00
306.73	2619.00
307.51	2616.00
308.29	2616.00
309.08	2618.00
309.86	2619.00
310.64	2620.00
311.42	2619.00
312.20	2619.00
312.98	2620.00
313.76	2614.00
314.55	2616.00
315.33	2619.00
316.11	2617.00
316.89	2616.00
317.67	2617.00
318.45	2619.00
319.23	2623.00
320.01	2616.00
320.79	2619.00
321.57	2619.00
322.35	2622.00
323.13	2622.00
323.91	2621.00
324.69	2621.00
325.47	2624.00
326.25	2621.00
327.03	2619.00
327.81	2624.00
328.59	2624.00
329.37	2622.00
330.15	2621.00
330.93	2624.00
331.71	2620.00
332.49	2622.00
333.27	2624.00
334.05	2626.00
334.83	2627.00
335.61	2632.00
336.39	2627.00
337.17	2626.00
337.95	2629.00
338.73	2628.00
339.51	2630.00
340.29	2632.00
341.07	2636.00
341.84	2637.00
342.62	2633.00
343.40	2636.00
344.18	2638.00
344.96	2641.00
345.74	2646.00
346.52	2649.00
347.29	2644.00
348.07	2651.00
348.85	2653.00
349.63	2656.00
350.41	2658.00
351.18	2661.00
351.96	2662.00
352.74	2671.00
353.52	2673.00
354.30	2676.00
355.07	2678.00
355.85	2684.00
356.63	2686.00
357.41	2692.00
358.18	2699.00
358.96	2697.00
359.74	2711.00
360.52	2709.00
361.29	2717.00
362.07	2721.00
362.85	2722.00
363.62	2728.00
364.40	2738.00
365.18	2745.00
365.95	2753.00
366.73	2760.00
367.51	2769.00
368.28	2770.00
369.06	2772.00
369.84	2795.00
370.61	2800.00
371.39	2812.00
372.17	2820.00
372.94	2819.00
373.72	2842.00
374.49	2850.00
375.27	2856.00
376.05	2859.00
376.82	2880.00
377.60	2889.00
378.37	2900.00
379.15	2921.00
379.92	2928.00
380.70	2936.00
381.47	2947.00
382.25	2969.00
383.02	2986.00
383.80	2993.00
384.58	3023.00
385.35	3037.00
386.13	3049.00
386.90	3059.00
387.67	3069.00
388.45	3093.00
389.22	3120.00
390.00	3131.00
390.77	3150.00
391.55	3164.00
392.32	3189.00
393.10	3210.00
393.87	3227.00
394.65	3246.00
395.42	3274.00
396.19	3292.00
396.97	3315.00
397.74	3329.00
398.52	3360.00
399.29	3373.00
400.06	3391.00
400.84	3423.00
401.61	3437.00
402.38	3478.00
403.16	3496.00
403.93	3512.00
404.70	3551.00
405.48	3568.00
406.25	3583.00
407.02	3614.00
407.80	3640.00
408.57	3651.00
409.34	3676.00
410.12	3711.00
410.89	3731.00
411.66	3759.00
412.43	3789.00
413.21	3818.00
413.98	3849.00
414.75	3864.00
415.52	3885.00
416.30	3930.00
417.07	3950.00
417.84	3988.00
418.61	4004.00
419.39	4041.00
420.16	4071.00
420.93	4111.00
421.70	4130.00
422.47	4164.00
423.24	4203.00
424.02	4241.00
424.79	4258.00
425.56	4290.00
426.33	4348.00
427.10	4360.00
427.87	4406.00
428.64	4460.00
429.42	4487.00
430.19	4532.00
430.96	4571.00
431.73	4619.00
432.50	4664.00
433.27	4685.00
434.04	4725.00
434.81	4789.00
435.58	4843.00
436.35	4874.00
437.12	4938.00
437.89	4985.00
438.67	5043.00
439.44	5081.00
440.21	5151.00
440.98	5168.00
441.75	5254.00
442.52	5300.00
443.29	5339.00
444.06	5424.00
444.83	5489.00
445.60	5540.00
446.37	5607.00
447.13	5654.00
447.90	5710.00
448.67	5774.00
449.44	5841.00
450.21	5919.00
450.98	5986.00
451.75	6036.00
452.52	6128.00
453.29	6201.00
454.06	6308.00
454.83	6379.00
455.60	6442.00
456.37	6493.00
457.13	6588.00
457.90	6678.00
458.67	6763.00
459.44	6833.00
460.21	6902.00
460.98	6986.00
461.75	7064.00
462.51	7179.00
463.28	7270.00
464.05	7377.00
464.82	7462.00
465.59	7545.00
466.35	7655.00
467.12	7765.00
467.89	7823.00
468.66	7910.00
469.43	8033.00
470.19	8108.00
470.96	8202.00
471.73	8321.00
472.50	8432.00
473.26	8539.00
474.03	8641.00
474.80	8733.00
475.56	8850.00
476.33	8963.00
477.10	9088.00
477.87	9148.00
478.63	9282.00
479.40	9411.00
480.17	9524.00
480.93	9635.00
481.70	9762.00
482.47	9848.00
483.23	9998.00
484.00	10131.00
484.76	10261.00
485.53	10386.00
486.30	10514.00
487.06	10652.00
487.83	10776.00
488.60	10947.00
489.36	11031.00
490.13	11157.00
490.89	11263.00
491.66	11425.00
492.42	11531.00
493.19	11692.00
493.96	11797.00
494.72	11961.00
495.49	12102.00
496.25	12256.00
497.02	12404.00
497.78	12488.00
498.55	12650.00
499.31	12746.00
500.08	12903.00
500.84	13054.00
501.61	13199.00
502.37	13305.00
503.14	13513.00
503.90	13637.00
504.67	13795.00
505.43	13944.00
506.20	14120.00
506.96	14303.00
507.72	14431.00
508.49	14631.00
509.25	14750.00
510.02	14974.00
510.78	15126.00
511.54	15313.00
512.31	15452.00
513.07	15639.00
513.84	15766.00
514.60	15901.00
515.36	16087.00
516.13	16245.00
516.89	16324.00
517.65	16494.00
518.42	16601.00
519.18	16767.00
519.94	16972.00
520.71	17131.00
521.47	17282.00
522.23	17457.00
523.00	17624.00
523.76	17797.00
524.52	17969.00
525.28	18186.00
526.05	18302.00
526.81	18532.00
527.57	18713.00
528.33	18868.00
529.10	19059.00
529.86	19158.00
530.62	19343.00
531.38	19571.00
532.15	19729.00
532.91	19882.00
533.67	20033.00
534.43	20191.00
535.19	20409.00
535.96	20569.00
536.72	20736.00
537.48	20851.00
538.24	20961.00
539.00	21228.00
539.76	21484.00
540.53	21657.00
541.29	21899.00
542.05	22016.00
542.81	22238.00
543.57	22475.00
544.33	22668.00
545.09	22861.00
545.85	22998.00
546.61	23138.00
547.38	23320.00
548.14	23512.00
548.90	23673.00
549.66	23907.00
550.42	24149.00
551.18	24280.00
551.94	24426.00
552.70	24622.00
553.46	24827.00
554.22	25010.00
554.98	25189.00
555.74	25352.00
556.50	25469.00
557.26	25715.00
558.02	25936.00
558.78	26156.00
559.54	26304.00
560.30	26508.00
561.06	26705.00
561.82	26918.00
562.58	27123.00
563.34	27279.00
564.10	27575.00
564.86	27706.00
565.61	27930.00
566.37	28073.00
567.13	28356.00
567.89	28497.00
568.65	28691.00
569.41	28812.00
570.17	29054.00
570.93	29237.00
571.69	29381.00
572.44	29556.00
573.20	29669.00
573.96	29908.00
574.72	30111.00
575.48	30338.00
576.24	30484.00
576.99	30689.00
577.75	30921.00
578.51	31129.00
579.27	31357.00
580.03	31546.00
580.78	31732.00
581.54	32036.00
582.30	32167.00
583.06	32319.00
583.82	32464.00
584.57	32627.00
585.33	32868.00
586.09	33036.00
586.84	33193.00
587.60	33296.00
588.36	33415.00
589.12	33557.00
589.87	33758.00
590.63	33983.00
591.39	34150.00
592.14	34279.00
592.90	34487.00
593.66	34698.00
594.41	34912.00
595.17	35175.00
595.93	35245.00
596.68	35379.00
597.44	35441.00
598.20	35719.00
598.95	36073.00
599.71	36334.00
600.46	36421.00
601.22	36569.00
601.98	36718.00
602.73	37000.00
603.49	37273.00
604.24	37541.00
605.00	37684.00
605.76	37756.00
606.51	37950.00
607.27	38086.00
608.02	38366.00
608.78	38588.00
609.53	38763.00
610.29	39015.00
611.04	39239.00
611.80	39525.00
612.55	39796.00
613.31	39997.00
614.06	40266.00
614.82	40446.00
615.57	40650.00
616.33	40946.00
617.08	41062.00
617.84	41117.00
618.59	41190.00
619.35	41209.00
620.10	41175.00
620.85	41264.00
621.61	41353.00
622.36	41345.00
623.12	41381.00
623.87	41459.00
624.62	41605.00
625.38	41658.00
626.13	41858.00
626.89	42023.00
627.64	42290.00
628.39	42319.00
629.15	42428.00
629.90	42501.00
630.65	42530.00
631.41	42512.00
632.16	42556.00
632.91	42594.00
633.67	42479.00
634.42	42637.00
635.17	42809.00
635.92	43125.00
636.68	43559.00
637.43	43999.00
638.18	44542.00
638.94	44975.00
639.69	45350.00
640.44	45842.00
641.19	46192.00
641.95	46488.00
642.70	46871.00
643.45	47066.00
644.20	47235.00
644.95	47430.00
645.71	47587.00
646.46	47831.00
647.21	47958.00
647.96	48080.00
648.71	48115.00
649.47	48216.00
650.22	48418.00
650.97	48457.00
651.72	48650.00
652.47	48841.00
653.22	48919.00
653.97	49082.00
654.73	49226.00
655.48	49441.00
656.23	49474.00
656.98	49783.00
657.73	49988.00
658.48	50014.00
659.23	50095.00
659.98	50084.00
660.73	50139.00
661.48	50319.00
662.23	50226.00
662.99	50234.00
663.74	50203.00
664.49	50584.00
665.24	51099.00
665.99	51474.00
666.74	51678.00
667.49	51680.00
668.24	51856.00
668.99	51981.00
669.74	52169.00
670.49	52308.00
671.24	52260.00
671.99	52379.00
672.74	52486.00
673.48	52720.00
674.23	52765.00
674.98	52870.00
675.73	53075.00
676.48	53145.00
677.23	53263.00
677.98	53409.00
678.73	53346.00
679.48	53373.00
680.23	53326.00
680.98	53389.00
681.73	53343.00
682.47	53305.00
683.22	53309.00
683.97	53420.00
684.72	53640.00
685.47	53814.00
686.22	53969.00
686.97	54131.00
687.71	54296.00
688.46	54500.00
689.21	54648.00
689.96	54680.00
690.71	54694.00
691.45	54648.00
692.20	54639.00
692.95	54675.00
693.70	54723.00
694.44	54683.00
695.19	54896.00
695.94	55061.00
696.69	55156.00
697.43	55294.00
698.18	55185.00
698.93	55281.00
699.68	55299.00
700.42	55263.00
701.17	55408.00
701.92	55582.00
702.66	55567.00
703.41	55619.00
704.16	55678.00
704.90	55606.00
705.65	55788.00
706.40	55714.00
707.14	55710.00
707.89	55759.00
708.64	55865.00
709.38	55774.00
710.13	55804.00
710.88	55988.00
711.62	56092.00
712.37	56032.00
713.11	56069.00
713.86	56128.00
714.61	56171.00
715.35	56005.00
716.10	55877.00
716.84	55745.00
717.59	55548.00
718.33	55351.00
719.08	55329.00
719.83	55143.00
720.57	55056.00
721.32	55014.00
722.06	54943.00
722.81	54928.00
723.55	54947.00
724.30	55090.00
725.04	55118.00
725.79	55066.00
726.53	55091.00
727.28	55109.00
728.02	55154.00
728.76	55173.00
729.51	55350.00
730.25	55343.00
731.00	55329.00
731.74	55211.00
732.49	55311.00
733.23	55196.00
733.97	55056.00
734.72	54879.00
735.46	54861.00
736.21	54781.00
736.95	54767.00
737.69	54920.00
738.44	55058.00
739.18	55206.00
739.92	55221.00
740.67	55188.00
741.41	55286.00
742.15	55403.00
742.90	55587.00
743.64	55656.00
744.38	55664.00
745.13	55682.00
745.87	55567.00
746.61	55645.00
747.36	55557.00
748.10	55565.00
748.84	55572.00
749.58	55434.00
750.33	55411.00
751.07	55251.00
751.81	55092.00
752.55	55006.00
753.30	55057.00
754.04	54874.00
754.78	54681.00
755.52	54500.00
756.27	54264.00
757.01	54253.00
757.75	54354.00
758.49	54267.00
759.23	54334.00
759.97	54328.00
760.72	54275.00
761.46	54377.00
762.20	54386.00
762.94	54384.00
763.68	54238.00
764.42	54135.00
765.16	54062.00
765.91	53968.00
766.65	53887.00
767.39	53880.00
768.13	53770.00
768.87	53819.00
769.61	53718.00
770.35	53802.00
771.09	53710.00
771.83	53578.00
772.57	53435.00
773.31	53456.00
774.05	53521.00
774.80	53401.00
775.54	53352.00
776.28	53185.00
777.02	53161.00
777.76	53086.00
778.50	52882.00
779.24	52739.00
779.98	52739.00
780.72	52537.00
781.46	52516.00
782.20	52478.00
782.93	52546.00
783.67	52447.00
784.41	52222.00
785.15	52166.00
785.89	52026.00
786.63	51812.00
787.37	51629.00
788.11	51333.00
788.85	51249.00
789.59	51214.00
790.33	51240.00
791.07	51152.00
791.81	51022.00
792.54	50847.00
793.28	50722.00
794.02	50468.00
794.76	50394.00
795.50	50111.00
796.24	49857.00
796.97	49565.00
797.71	49263.00
798.45	49077.00
799.19	49087.00
799.93	48938.00
800.67	48848.00
801.40	48882.00
802.14	48873.00
802.88	48956.00
803.62	49103.00
804.35	49037.00
805.09	48924.00
805.83	48851.00
806.57	48748.00
807.30	48726.00
808.04	48710.00
808.78	48627.00
809.52	48381.00
810.25	48098.00
810.99	47876.00
811.73	47798.00
812.46	47848.00
813.20	47864.00
813.94	47639.00
814.68	47630.00
815.41	47524.00
816.15	47598.00
816.88	47648.00
817.62	47658.00
818.36	47541.00
819.09	47239.00
819.83	47012.00
820.57	46735.00
821.30	46714.00
822.04	46579.00
822.77	46355.00
823.51	46277.00
824.25	46167.00
824.98	46065.00
825.72	46082.00
826.45	46025.00
827.19	45929.00
827.92	45567.00
828.66	45305.00
829.40	45146.00
830.13	45153.00
830.87	45095.00
831.60	45146.00
832.34	45014.00
833.07	44981.00
833.81	44804.00
834.54	44889.00
835.28	45018.00
836.01	44940.00
836.75	44794.00
837.48	44631.00
838.22	44375.00
838.95	44274.00
839.68	44306.00
840.42	44373.00
841.15	44404.00
841.89	44333.00
842.62	44063.00
843.36	43940.00
844.09	43918.00
844.82	43909.00
845.56	43881.00
846.29	43782.00
847.02	43562.00
847.76	43331.00
848.49	43454.00
849.23	43674.00
849.96	43871.00
850.69	43969.00
851.43	43668.00
852.16	43436.00
852.89	43090.00
853.63	42898.00
854.36	42801.00
855.09	42854.00
855.82	42826.00
856.56	42614.00
857.29	42486.00
858.02	42378.00
858.76	42396.00
859.49	42465.00
860.22	42378.00
860.95	42151.00
861.69	41935.00
862.42	41722.00
863.15	41585.00
863.88	41491.00
864.61	41549.00
865.35	41566.00
866.08	41524.00
866.81	41216.00
867.54	41113.00
868.27	40996.00
869.01	40879.00
869.74	40853.00
870.47	40899.00
871.20	40748.00
871.93	40538.00
872.66	40327.00
873.40	40053.00
874.13	39891.00
874.86	39697.00
875.59	39439.00
876.32	39532.00
877.05	39372.00
877.78	39360.00
878.51	39266.00
879.24	39032.00
879.97	38956.00
880.71	38789.00
881.44	38718.00
882.17	38580.00
882.90	38489.00
883.63	38328.00
884.36	38229.00
885.09	38214.00
885.82	38388.00
886.55	38390.00
887.28	38469.00
888.01	38439.00
888.74	38184.00
889.47	37995.00
890.20	37733.00
890.93	37588.00
891.66	37368.00
892.39	37244.00
893.12	37231.00
893.85	37162.00
894.57	37208.00
895.30	37163.00
896.03	37145.00
896.76	37045.00
897.49	36943.00
898.22	36775.00
898.95	36648.00
899.68	36427.00
900.41	36182.00
901.14	35955.00
901.86	35877.00
902.59	35849.00
903.32	35768.00
904.05	35802.00
904.78	35664.00
905.51	35587.00
906.24	35422.00
906.96	35357.00
907.69	35213.00
908.42	34998.00
909.15	34814.00
909.88	34662.00
910.60	34535.00
911.33	34466.00
912.06	34318.00
912.79	34017.00
913.52	33853.00
914.24	33729.00
914.97	33750.00
915.70	33642.00
916.42	33498.00
917.15	33320.00
917.88	33084.00
918.61	32897.00
919.33	32634.00
920.06	32394.00
920.79	32207.00
921.51	32055.00
922.24	31951.00
922.97	31798.00
923.69	31706.00
924.42	31570.00
925.15	31366.00
925.87	31211.00
926.60	30951.00
927.33	30691.00
928.05	30406.00
928.78	30083.00
929.51	29781.00
930.23	29449.00
930.96	29112.00
931.68	28802.00
932.41	28460.00
933.14	28241.00
933.86	27886.00
934.59	27519.00
935.31	27161.00
936.04	26602.00
936.76	26139.00
937.49	25632.00
938.21	25211.00
938.94	24721.00
939.66	24240.00
940.39	23937.00
941.11	23579.00
941.84	23233.00
942.56	22966.00
943.29	22699.00
944.01	22501.00
944.74	22391.00
945.46	22317.00
946.19	22285.00
946.91	22355.00
947.64	22375.00
948.36	22481.00
949.09	22598.00
949.81	22677.00
950.53	22741.00
951.26	22851.00
951.98	22889.00
952.71	22917.00
953.43	22995.00
954.15	23095.00
954.88	23167.00
955.60	23283.00
956.33	23316.00
957.05	23307.00
957.77	23376.00
958.50	23466.00
959.22	23558.00
959.94	23514.00
960.67	23466.00
961.39	23418.00
962.11	23370.00
962.84	23480.00
963.56	23400.00
964.28	23291.00
965.00	23166.00
965.73	22944.00
966.45	22802.00
967.17	22711.00
967.89	22496.00
968.62	22430.00
969.34	22210.00
970.06	22063.00
970.78	21899.00
971.51	21856.00
972.23	21746.00
972.95	21493.00
973.67	21382.00
974.40	21211.00
975.12	21120.00
975.84	20929.00
976.56	20784.00
977.28	20570.00
978.00	20487.00
978.73	20479.00
979.45	20301.00
980.17	20244.00
980.89	20232.00
981.61	20172.00
982.33	20114.00
983.05	20063.00
983.77	19940.00
984.50	19866.00
985.22	19837.00
985.94	19818.00
986.66	19657.00
987.38	19596.00
988.10	19570.00
988.82	19500.00
989.54	19414.00
990.26	19311.00
990.98	19242.00
991.70	19054.00
992.42	18917.00
993.14	18760.00
993.86	18678.00
994.58	18510.00
995.30	18384.00
996.02	18267.00
996.74	18244.00
997.46	18157.00
998.18	18069.00
998.90	17868.00
999.62	17751.00
1000.34	17671.00
1001.06	17581.00
1001.78	17454.00
1002.50	17335.00
1003.22	17089.00
1003.94	16987.00
1004.66	16868.00
1005.38	16732.00
1006.09	16596.00
1006.81	16390.00
1007.53	16247.00
1008.25	16104.00
1008.97	15964.00
1009.69	15875.00
1010.41	15829.00
1011.13	15640.00
1011.84	15470.00
1012.56	15303.00
1013.28	15181.00
1014.00	15035.00
1014.72	14879.00
1015.44	14700.00
1016.15	14534.00
1016.87	14309.00
1017.59	14165.00
1018.31	14016.00
1019.03	13941.00
1019.74	13831.00
1020.46	13711.00
1021.18	13626.00
1021.90	13518.00
1022.61	13387.00
1023.33	13273.00
1024.05	13130.00
1024.76	12983.00
1025.48	12766.00
1026.20	12577.00
1026.92	12414.00
1027.63	12247.00
1028.35	12051.00
1029.07	11948.00
1029.78	11804.00
1030.50	11649.00
1031.22	11491.00
1031.93	11415.00
1032.65	11284.00
1033.37	11169.00
1034.08	11115.00
1034.80	10993.00
1035.52	10891.00
1036.23	10884.00
1036.95	10750.00
1037.66	10615.00
1038.38	10533.00
1039.10	10359.00
1039.81	10183.00
1040.53	10053.00
1041.24	9873.00
1041.96	9704.00
1042.67	9642.00
1043.39	9508.00
1044.10	9400.00
1044.82	9269.00
1045.54	9167.00
1046.25	9109.00
1046.97	8988.00
1047.68	8847.00
1048.40	8703.00
1049.11	8522.00
1049.83	8406.00
1050.54	8323.00
1051.26	8212.00
1051.97	8121.00
1052.68	7988.00
1053.40	7880.00
1054.11	7814.00
1054.83	7681.00
1055.54	7576.00
1056.26	7460.00
1056.97	7355.00
1057.69	7319.00
1058.40	7191.00
1059.11	7054.00
1059.83	6945.00
1060.54	6798.00
1061.25	6666.00
1061.97	6533.00
1062.68	6396.00
1063.40	6252.00
1064.11	6160.00
1064.82	6040.00
1065.54	5914.00
1066.25	2564.00
1066.96	2566.00
1067.68	2561.00
1068.39	2564.00
1069.10	2620.00
1069.82	2618.00
1070.53	2615.00
1071.24	2617.00
1071.95	2615.00
1072.67	2617.00
1073.38	5782.00
1074.09	5665.00
1074.80	5543.00
1075.52	5430.00
1076.23	5331.00
1076.94	5228.00
1077.65	2599.00
1078.37	2599.00
1079.08	2598.00
1079.79	2612.00
