300.47	2614.00
301.26	2622.00
302.04	2625.00
302.82	2617.00
303.60	2619.00
304.38	2617.00
305.17	2621.00
305.95	2619.00
306.73	2613.00
307.51	2621.00
308.29	2620.00
309.08	2619.00
309.86	2622.00
310.64	2621.00
311.42	2620.00
312.20	2626.00
312.98	2621.00
313.76	2621.00
314.55	2621.00
315.33	2622.00
316.11	2619.00
316.89	2623.00
317.67	2624.00
318.45	2620.00
319.23	2625.00
320.01	2619.00
320.79	2625.00
321.57	2625.00
322.35	2625.00
323.13	2623.00
323.91	2619.00
324.69	2620.00
325.47	2621.00
326.25	2625.00
327.03	2621.00
327.81	2622.00
328.59	2622.00
329.37	2623.00
330.15	2622.00
330.93	2625.00
331.71	2624.00
332.49	2628.00
333.27	2626.00
334.05	2627.00
334.83	2627.00
335.61	2625.00
336.39	2628.00
337.17	2627.00
337.95	2628.00
338.73	2632.00
339.51	2632.00
340.29	2631.00
341.07	2635.00
341.84	2635.00
342.62	2633.00
343.40	2637.00
344.18	2646.00
344.96	2641.00
345.74	2648.00
346.52	2646.00
347.29	2653.00
348.07	2649.00
348.85	2648.00
349.63	2657.00
350.41	2656.00
351.18	2660.00
351.96	2667.00
352.74	2670.00
353.52	2672.00
354.30	2677.00
355.07	2677.00
355.85	2683.00
356.63	2685.00
357.41	2694.00
358.18	2695.00
358.96	2698.00
359.74	2709.00
360.52	2710.00
361.29	2717.00
362.07	2717.00
362.85	2724.00
363.62	2731.00
364.40	2745.00
365.18	2743.00
365.95	2751.00
366.73	2759.00
367.51	2765.00
368.28	2772.00
369.06	2779.00
369.84	2797.00
370.61	2801.00
371.39	2807.00
372.17	2818.00
372.94	2827.00
373.72	2837.00
374.49	2850.00
375.27	2852.00
376.05	2868.00
376.82	2881.00
377.60	2894.00
378.37	2904.00
379.15	2920.00
379.92	2916.00
380.70	2944.00
381.47	2951.00
382.25	2966.00
383.02	2976.00
383.80	2987.00
384.58	3015.00
385.35	3032.00
386.13	3052.00
386.90	3067.00
387.67	3073.00
388.45	3098.00
389.22	3117.00
390.00	3124.00
390.77	3148.00
391.55	3172.00
392.32	3186.00
393.10	3211.00
393.87	3233.00
394.65	3252.00
395.42	3266.00
396.19	3294.00
396.97	3310.00
397.74	3339.00
398.52	3357.00
399.29	3378.00
400.06	3401.00
400.84	3429.00
401.61	3448.00
402.38	3455.00
403.16	3493.00
403.93	3518.00
404.70	3536.00
405.48	3569.00
406.25	3592.00
407.02	3612.00
407.80	3637.00
408.57	3673.00
409.34	3682.00
410.12	3711.00
410.89	3746.00
411.66	3759.00
412.43	3787.00
413.21	3839.00
413.98	3841.00
414.75	3876.00
415.52	3888.00
416.30	3935.00
417.07	3956.00
417.84	3995.00
418.61	4019.00
419.39	4038.00
420.16	4079.00
420.93	4106.00
421.70	4139.00
422.47	4168.00
423.24	4200.00
424.02	4239.00
424.79	4282.00
425.56	4308.00
426.33	4342.00
427.10	4395.00
427.87	4407.00
428.64	4434.00
429.42	4494.00
430.19	4525.00
430.96	4571.00
431.73	4615.00
432.50	4674.00
433.27	4685.00
434.04	4745.00
434.81	4791.00
435.58	4860.00
436.35	4864.00
437.12	4936.00
437.89	4989.00
438.67	5046.00
439.44	5098.00
440.21	5140.00
440.98	5199.00
441.75	5255.00
442.52	5300.00
443.29	5331.00
444.06	5408.00
444.83	5491.00
445.60	5541.00
446.37	5582.00
447.13	5674.00
447.90	5731.00
448.67	5796.00
449.44	5869.00
450.21	5946.00
450.98	5999.00
451.75	6058.00
452.52	6117.00
453.29	6209.00
454.06	6288.00
454.83	6351.00
455.60	6435.00
456.37	6531.00
457.13	6584.00
457.90	6671.00
458.67	6751.00
459.44	6821.00
460.21	6920.00
460.98	6998.00
461.75	7084.00
462.51	7178.00
463.28	7255.00
464.05	7378.00
464.82	7475.00
465.59	7576.00
466.35	7648.00
467.12	7716.00
467.89	7834.00
468.66	7943.00
469.43	8034.00
470.19	8141.00
470.96	8210.00
471.73	8343.00
472.50	8403.00
473.26	8523.00
474.03	8674.00
474.80	8722.00
475.56	8872.00
476.33	8972.00
477.10	9083.00
477.87	9154.00
478.63	9298.00
479.40	9406.00
480.17	9541.00
480.93	9648.00
481.70	9750.00
482.47	9874.00
483.23	10033.00
484.00	10126.00
484.76	10326.00
485.53	10400.00
486.30	10556.00
487.06	10637.00
487.83	10797.00
488.60	10943.00
489.36	11052.00
490.13	11169.00
490.89	11301.00
491.66	11425.00
492.42	11569.00
493.19	11698.00
493.96	11861.00
494.72	11963.00
495.49	12102.00
496.25	12254.00
497.02	12417.00
497.78	12514.00
498.55	12677.00
499.31	12770.00
500.08	12948.00
500.84	13056.00
501.61	13203.00
502.37	13359.00
503.14	13503.00
503.90	13693.00
504.67	13790.00
505.43	13953.00
506.20	14120.00
506.96	14323.00
507.72	14499.00
508.49	14609.00
509.25	14797.00
510.02	15000.00
510.78	15154.00
511.54	15326.00
512.31	15509.00
513.07	15629.00
513.84	15752.00
514.60	15944.00
515.36	16095.00
516.13	16245.00
516.89	16351.00
517.65	16474.00
518.42	16647.00
519.18	16811.00
519.94	16982.00
520.71	17146.00
521.47	17305.00
522.23	17472.00
523.00	17686.00
523.76	17823.00
524.52	18033.00
525.28	18237.00
526.05	18405.00
526.81	18522.00
527.57	18717.00
528.33	18863.00
529.10	19037.00
529.86	19232.00
530.62	19422.00
531.38	19597.00
532.15	19779.00
532.91	19851.00
533.67	20074.00
534.43	20230.00
535.19	20403.00
535.96	20599.00
536.72	20728.00
537.48	20876.00
538.24	21103.00
539.00	21300.00
539.76	21497.00
540.53	21731.00
541.29	21915.00
542.05	22088.00
542.81	22301.00
543.57	22505.00
544.33	22705.00
545.09	22868.00
545.85	22993.00
546.61	23171.00
547.38	23340.00
548.14	23466.00
548.90	23720.00
549.66	23859.00
550.42	24121.00
551.18	24327.00
551.94	24489.00
552.70	24658.00
553.46	24904.00
554.22	25092.00
554.98	25257.00
555.74	25377.00
556.50	25517.00
557.26	25781.00
558.02	25969.00
558.78	26224.00
559.54	26299.00
560.30	26560.00
561.06	26736.00
561.82	26985.00
562.58	27174.00
563.34	27346.00
564.10	27508.00
564.86	27748.00
565.61	27936.00
566.37	28104.00
567.13	28462.00
567.89	28622.00
568.65	28721.00
569.41	28845.00
570.17	29039.00
570.93	29267.00
571.69	29416.00
572.44	29651.00
573.20	29756.00
573.96	30000.00
574.72	30127.00
575.48	30273.00
576.24	30499.00
576.99	30721.00
577.75	30981.00
578.51	31174.00
579.27	31388.00
580.03	31562.00
580.78	31773.00
581.54	32073.00
582.30	32227.00
583.06	32333.00
583.82	32545.00
584.57	32764.00
585.33	32872.00
586.09	33100.00
586.84	33167.00
587.60	33325.00
588.36	33519.00
589.12	33648.00
589.87	33857.00
590.63	34048.00
591.39	34222.00
592.14	34398.00
592.90	34546.00
593.66	34795.00
594.41	35023.00
595.17	35153.00
595.93	35407.00
596.68	35384.00
597.44	35565.00
598.20	35803.00
598.95	36194.00
599.71	36410.00
600.46	36563.00
601.22	36626.00
601.98	36802.00
602.73	37051.00
603.49	37352.00
604.24	37575.00
605.00	37749.00
605.76	37838.00
606.51	38080.00
607.27	38190.00
608.02	38488.00
608.78	38755.00
609.53	38932.00
610.29	38918.00
611.04	39295.00
611.80	39622.00
612.55	39756.00
613.31	40115.00
614.06	40321.00
614.82	40531.00
615.57	40682.00
616.33	40914.00
617.08	41128.00
617.84	41201.00
618.59	41299.00
619.35	41342.00
620.10	41215.00
620.85	41355.00
621.61	41360.00
622.36	41389.00
623.12	41416.00
623.87	41470.00
624.62	41590.00
625.38	41727.00
626.13	41912.00
626.89	42116.00
627.64	42360.00
628.39	42403.00
629.15	42538.00
629.90	42537.00
630.65	42580.00
631.41	42610.00
632.16	42688.00
632.91	42625.00
633.67	42631.00
634.42	42705.00
635.17	42947.00
635.92	43120.00
636.68	43685.00
637.43	44179.00
638.18	44718.00
638.94	45077.00
639.69	45474.00
640.44	45765.00
641.19	46180.00
641.95	46613.00
642.70	46863.00
643.45	47269.00
644.20	47390.00
644.95	47559.00
645.71	47675.00
646.46	47897.00
647.21	47995.00
647.96	48183.00
648.71	48226.00
649.47	48385.00
650.22	48433.00
650.97	48571.00
651.72	48687.00
652.47	48857.00
653.22	48941.00
653.97	49204.00
654.73	49314.00
655.48	49476.00
656.23	49631.00
656.98	49907.00
657.73	50016.00
658.48	50080.00
659.23	50202.00
659.98	50122.00
660.73	50208.00
661.48	50308.00
662.23	50399.00
662.99	50336.00
663.74	50435.00
664.49	50665.00
665.24	51148.00
665.99	51607.00
666.74	51745.00
667.49	51789.00
668.24	51870.00
668.99	52020.00
669.74	52287.00
670.49	52263.00
671.24	52314.00
671.99	52464.00
672.74	52616.00
673.48	52729.00
674.23	52892.00
674.98	52950.00
675.73	53048.00
676.48	53186.00
677.23	53331.00
677.98	53393.00
678.73	53329.00
679.48	53382.00
680.23	53447.00
680.98	53446.00
681.73	53399.00
682.47	53436.00
683.22	53433.00
683.97	53473.00
684.72	53725.00
685.47	53792.00
686.22	53978.00
686.97	54254.00
687.71	54427.00
688.46	54635.00
689.21	54672.00
689.96	54753.00
690.71	54711.00
691.45	54745.00
692.20	54617.00
692.95	54726.00
693.70	54738.00
694.44	54722.00
695.19	55003.00
695.94	55029.00
696.69	55160.00
697.43	55267.00
698.18	55254.00
698.93	55277.00
699.68	55391.00
700.42	55362.00
701.17	55376.00
701.92	55464.00
702.66	55535.00
703.41	55589.00
704.16	55636.00
704.90	55645.00
705.65	55710.00
706.40	55777.00
707.14	55853.00
707.89	55769.00
708.64	55819.00
709.38	55872.00
710.13	55820.00
710.88	56000.00
711.62	55985.00
712.37	56010.00
713.11	56118.00
713.86	56166.00
714.61	56074.00
715.35	56004.00
716.10	55869.00
716.84	55665.00
717.59	55565.00
718.33	55352.00
719.08	55203.00
719.83	55138.00
720.57	55045.00
721.32	55015.00
722.06	54954.00
722.81	55024.00
723.55	54846.00
724.30	55028.00
725.04	55078.00
725.79	55038.00
726.53	55120.00
727.28	55020.00
728.02	55077.00
728.76	55212.00
729.51	55313.00
730.25	55280.00
731.00	55316.00
731.74	55249.00
732.49	55231.00
733.23	55124.00
733.97	55009.00
734.72	54958.00
735.46	54782.00
736.21	54711.00
736.95	54736.00
737.69	54871.00
738.44	55058.00
739.18	55032.00
739.92	55179.00
740.67	55125.00
741.41	55317.00
742.15	55324.00
742.90	55590.00
743.64	55565.00
744.38	55554.00
745.13	55604.00
745.87	55428.00
746.61	55493.00
747.36	55544.00
748.10	55562.00
748.84	55361.00
749.58	55392.00
750.33	55386.00
751.07	55154.00
751.81	54947.00
752.55	54942.00
753.30	54792.00
754.04	54694.00
754.78	54594.00
755.52	54428.00
756.27	54140.00
757.01	54185.00
757.75	54256.00
758.49	54206.00
759.23	54303.00
759.97	54229.00
760.72	54221.00
761.46	54293.00
762.20	54321.00
762.94	54261.00
763.68	54167.00
764.42	54015.00
765.16	53934.00
765.91	53999.00
766.65	53848.00
767.39	53712.00
768.13	53528.00
768.87	53703.00
769.61	53760.00
770.35	53668.00
771.09	53530.00
771.83	53477.00
772.57	53375.00
773.31	53313.00
774.05	53413.00
774.80	53370.00
775.54	53241.00
776.28	53132.00
777.02	52991.00
777.76	52955.00
778.50	52753.00
779.24	52692.00
779.98	52468.00
780.72	52504.00
781.46	52348.00
782.20	52323.00
782.93	52348.00
783.67	52292.00
784.41	52114.00
785.15	51999.00
785.89	51875.00
786.63	51658.00
787.37	51485.00
788.11	51215.00
788.85	51112.00
789.59	51070.00
790.33	51086.00
791.07	51072.00
791.81	50937.00
792.54	50824.00
793.28	50629.00
794.02	50411.00
794.76	50138.00
795.50	49951.00
796.24	49738.00
796.97	49439.00
797.71	49188.00
798.45	48905.00
799.19	48879.00
799.93	48797.00
800.67	48765.00
801.40	48844.00
802.14	48727.00
802.88	48864.00
803.62	48871.00
804.35	48846.00
805.09	48815.00
805.83	48676.00
806.57	48625.00
807.30	48517.00
808.04	48547.00
808.78	48432.00
809.52	48125.00
810.25	47878.00
810.99	47741.00
811.73	47710.00
812.46	47567.00
813.20	47641.00
813.94	47581.00
814.68	47414.00
815.41	47369.00
816.15	47371.00
816.88	47482.00
817.62	47476.00
818.36	47331.00
819.09	47098.00
819.83	46765.00
820.57	46687.00
821.30	46535.00
822.04	46454.00
822.77	46200.00
823.51	46153.00
824.25	46039.00
824.98	45869.00
825.72	45824.00
826.45	45842.00
827.19	45716.00
827.92	45437.00
828.66	45116.00
829.40	44950.00
830.13	44934.00
830.87	44920.00
831.60	44892.00
832.34	44871.00
833.07	44748.00
833.81	44727.00
834.54	44769.00
835.28	44859.00
836.01	44857.00
836.75	44667.00
837.48	44432.00
838.22	44163.00
838.95	44096.00
839.68	44153.00
840.42	44244.00
841.15	44223.00
841.89	44116.00
842.62	43820.00
843.36	43722.00
844.09	43652.00
844.82	43674.00
845.56	43728.00
846.29	43462.00
847.02	43351.00
847.76	43294.00
848.49	43224.00
849.23	43481.00
849.96	43698.00
850.69	43711.00
851.43	43518.00
852.16	43184.00
852.89	42978.00
853.63	42706.00
854.36	42604.00
855.09	42587.00
855.82	42600.00
856.56	42392.00
857.29	42280.00
858.02	42179.00
858.76	42197.00
859.49	42247.00
860.22	42132.00
860.95	41941.00
861.69	41797.00
862.42	41633.00
863.15	41419.00
863.88	41291.00
864.61	41414.00
865.35	41436.00
866.08	41354.00
866.81	41049.00
867.54	40890.00
868.27	40847.00
869.01	40611.00
869.74	40815.00
870.47	40750.00
871.20	40575.00
871.93	40300.00
872.66	40100.00
873.40	39891.00
874.13	39818.00
874.86	39487.00
875.59	39283.00
876.32	39255.00
877.05	39188.00
877.78	39157.00
878.51	39033.00
879.24	38822.00
879.97	38773.00
880.71	38657.00
881.44	38559.00
882.17	38411.00
882.90	38249.00
883.63	38104.00
884.36	38082.00
885.09	38114.00
885.82	38097.00
886.55	38257.00
887.28	38303.00
888.01	38160.00
888.74	38036.00
889.47	37723.00
890.20	37516.00
890.93	37334.00
891.66	37229.00
892.39	37097.00
893.12	37008.00
893.85	37017.00
894.57	36986.00
895.30	36932.00
896.03	36919.00
896.76	36860.00
897.49	36763.00
898.22	36563.00
898.95	36449.00
899.68	36301.00
900.41	36010.00
901.14	35805.00
901.86	35718.00
902.59	35693.00
903.32	35622.00
904.05	35572.00
904.78	35475.00
905.51	35320.00
906.24	35195.00
906.96	35189.00
907.69	34997.00
908.42	34803.00
909.15	34650.00
909.88	34526.00
910.60	34298.00
911.33	34188.00
912.06	34124.00
912.79	33894.00
913.52	33682.00
914.24	33551.00
914.97	33563.00
915.70	33349.00
916.42	33273.00
917.15	33102.00
917.88	32934.00
918.61	32675.00
919.33	32488.00
920.06	32268.00
920.79	32036.00
921.51	31835.00
922.24	31714.00
922.97	31584.00
923.69	31427.00
924.42	31374.00
925.15	31113.00
925.87	31025.00
926.60	30823.00
927.33	30506.00
928.05	30164.00
928.78	29872.00
929.51	29577.00
930.23	29247.00
930.96	28952.00
931.68	28629.00
932.41	28297.00
933.14	27962.00
933.86	27680.00
934.59	27267.00
935.31	26881.00
936.04	26437.00
936.76	26026.00
937.49	25507.00
938.21	25015.00
938.94	24552.00
939.66	24152.00
940.39	23715.00
941.11	23355.00
941.84	23084.00
942.56	22797.00
943.29	22558.00
944.01	22307.00
944.74	22232.00
945.46	22163.00
946.19	22181.00
946.91	22211.00
947.64	22200.00
948.36	22316.00
949.09	22342.00
949.81	22458.00
950.53	22564.00
951.26	22603.00
951.98	22754.00
952.71	22719.00
953.43	22786.00
954.15	22919.00
954.88	23025.00
955.60	22998.00
956.33	23096.00
957.05	23090.00
957.77	23187.00
958.50	23309.00
959.22	23329.00
959.94	23312.00
960.67	23247.00
961.39	23213.00
962.11	23224.00
962.84	23256.00
963.56	23188.00
964.28	23100.00
965.00	22939.00
965.73	22816.00
966.45	22655.00
967.17	22494.00
967.89	22406.00
968.62	22192.00
969.34	22027.00
970.06	21851.00
970.78	21754.00
971.51	21643.00
972.23	21514.00
972.95	21321.00
973.67	21165.00
974.40	21034.00
975.12	20915.00
975.84	20779.00
976.56	20618.00
977.28	20437.00
978.00	20278.00
978.73	20225.00
979.45	20134.00
980.17	20091.00
980.89	20016.00
981.61	19982.00
982.33	19880.00
983.05	19818.00
983.77	19799.00
984.50	19720.00
985.22	19685.00
985.94	19575.00
986.66	19491.00
987.38	19381.00
988.10	19354.00
988.82	19341.00
989.54	19228.00
990.26	19097.00
990.98	19041.00
991.70	18897.00
992.42	18681.00
993.14	18630.00
993.86	18535.00
994.58	18373.00
995.30	18201.00
996.02	18053.00
996.74	18070.00
997.46	17948.00
998.18	17866.00
998.90	17725.00
999.62	17593.00
1000.34	17450.00
1001.06	17417.00
1001.78	17286.00
1002.50	17067.00
1003.22	17013.00
1003.94	16764.00
1004.66	16669.00
1005.38	16507.00
1006.09	16456.00
1006.81	16252.00
1007.53	16092.00
1008.25	15914.00
1008.97	15779.00
1009.69	15750.00
1010.41	15665.00
1011.13	15470.00
1011.84	15297.00
1012.56	15141.00
1013.28	15007.00
1014.00	14879.00
1014.72	14689.00
1015.44	14515.00
1016.15	14320.00
1016.87	14126.00
1017.59	13954.00
1018.31	13840.00
1019.03	13780.00
1019.74	13696.00
1020.46	13552.00
1021.18	13470.00
1021.90	13375.00
1022.61	13235.00
1023.33	13069.00
1024.05	12973.00
1024.76	12809.00
1025.48	12607.00
1026.20	12413.00
1026.92	12276.00
1027.63	12104.00
1028.35	11951.00
1029.07	11820.00
1029.78	11594.00
1030.50	11467.00
1031.22	11377.00
1031.93	11284.00
1032.65	11135.00
1033.37	11065.00
1034.08	10946.00
1034.80	10865.00
1035.52	10766.00
1036.23	10680.00
1036.95	10621.00
1037.66	10480.00
1038.38	10411.00
1039.10	10246.00
1039.81	10070.00
1040.53	9949.00
1041.24	9787.00
1041.96	9589.00
1042.67	9492.00
1043.39	9377.00
1044.10	9307.00
1044.82	9190.00
1045.54	9094.00
1046.25	8980.00
1046.97	8850.00
1047.68	8726.00
1048.40	8586.00
1049.11	8442.00
1049.83	8337.00
1050.54	8212.00
1051.26	8094.00
1051.97	7990.00
1052.68	7921.00
1053.40	7785.00
1054.11	7671.00
1054.83	7577.00
1055.54	7478.00
1056.26	7375.00
1056.97	7288.00
1057.69	7177.00
1058.40	7091.00
1059.11	6982.00
1059.83	6884.00
1060.54	6719.00
1061.25	6587.00
1061.97	6434.00
1062.68	6328.00
1063.40	6204.00
1064.11	6066.00
1064.82	5961.00
1065.54	5820.00
1066.25	2567.00
1066.96	2565.00
1067.68	2557.00
1068.39	2568.00
1069.10	2618.00
1069.82	2622.00
1070.53	2619.00
1071.24	2618.00
1071.95	2616.00
1072.67	2617.00
1073.38	5725.00
1074.09	5585.00
1074.80	5464.00
1075.52	5357.00
1076.23	5258.00
1076.94	5155.00
1077.65	2591.00
1078.37	2587.00
1079.08	2583.00
1079.79	2601.00
