300.47	2619.00
301.26	2620.00
302.04	2617.00
302.82	2614.00
303.60	2615.00
304.38	2616.00
305.17	2616.00
305.95	2619.00
306.73	2616.00
307.51	2620.00
308.29	2618.00
309.08	2619.00
309.86	2621.00
310.64	2619.00
311.42	2621.00
312.20	2617.00
312.98	2621.00
313.76	2617.00
314.55	2614.00
315.33	2619.00
316.11	2618.00
316.89	2616.00
317.67	2618.00
318.45	2619.00
319.23	2617.00
320.01	2620.00
320.79	2620.00
321.57	2617.00
322.35	2622.00
323.13	2621.00
323.91	2621.00
324.69	2619.00
325.47	2620.00
326.25	2624.00
327.03	2627.00
327.81	2620.00
328.59	2624.00
329.37	2622.00
330.15	2625.00
330.93	2624.00
331.71	2629.00
332.49	2625.00
333.27	2623.00
334.05	2628.00
334.83	2627.00
335.61	2625.00
336.39	2627.00
337.17	2629.00
337.95	2631.00
338.73	2633.00
339.51	2633.00
340.29	2633.00
341.07	2633.00
341.84	2635.00
342.62	2638.00
343.40	2639.00
344.18	2643.00
344.96	2640.00
345.74	2647.00
346.52	2647.00
347.29	2652.00
348.07	2654.00
348.85	2653.00
349.63	2651.00
350.41	2654.00
351.18	2664.00
351.96	2662.00
352.74	2671.00
353.52	2676.00
354.30	2679.00
355.07	2681.00
355.85	2680.00
356.63	2684.00
357.41	2691.00
358.18	2695.00
358.96	2696.00
359.74	2705.00
360.52	2708.00
361.29	2714.00
362.07	2718.00
362.85	2725.00
363.62	2738.00
364.40	2736.00
365.18	2746.00
365.95	2748.00
366.73	2753.00
367.51	2765.00
368.28	2773.00
369.06	2773.00
369.84	2791.00
370.61	2795.00
371.39	2803.00
372.17	2811.00
372.94	2831.00
373.72	2831.00
374.49	2844.00
375.27	2852.00
376.05	2860.00
376.82	2877.00
377.60	2883.00
378.37	2903.00
379.15	2921.00
379.92	2926.00
380.70	2954.00
381.47	2953.00
382.25	2972.00
383.02	2978.00
383.80	2991.00
384.58	3023.00
385.35	3028.00
386.13	3052.00
386.90	3066.00
387.67	3078.00
388.45	3102.00
389.22	3111.00
390.00	3132.00
390.77	3147.00
391.55	3162.00
392.32	3196.00
393.10	3204.00
393.87	3221.00
394.65	3255.00
395.42	3267.00
396.19	3279.00
396.97	3312.00
397.74	3329.00
398.52	3355.00
399.29	3371.00
400.06	3403.00
400.84	3418.00
401.61	3437.00
402.38	3461.00
403.16	3488.00
403.93	3520.00
404.70	3539.00
405.48	3547.00
406.25	3590.00
407.02	3623.00
407.80	3642.00
408.57	3656.00
409.34	3688.00
410.12	3706.00
410.89	3729.00
411.66	3764.00
412.43	3795.00
413.21	3807.00
413.98	3836.00
414.75	3863.00
415.52	3886.00
416.30	3927.00
417.07	3949.00
417.84	3983.00
418.61	4021.00
419.39	4032.00
420.16	4073.00
420.93	4110.00
421.70	4117.00
422.47	4158.00
423.24	4197.00
424.02	4225.00
424.79	4270.00
425.56	4291.00
426.33	4325.00
427.10	4386.00
427.87	4397.00
428.64	4461.00
429.42	4479.00
430.19	4510.00
430.96	4566.00
431.73	4619.00
432.50	4652.00
433.27	4676.00
434.04	4731.00
434.81	4774.00
435.58	4832.00
436.35	4880.00
437.12	4935.00
437.89	4992.00
438.67	5017.00
439.44	5085.00
440.21	5156.00
440.98	5191.00
441.75	5242.00
442.52	5280.00
443.29	5345.00
444.06	5412.00
444.83	5494.00
445.60	5536.00
446.37	5596.00
447.13	5632.00
447.90	5716.00
448.67	5790.00
449.44	5836.00
450.21	5931.00
450.98	5992.00
451.75	6056.00
452.52	6140.00
453.29	6184.00
454.06	6264.00
454.83	6349.00
455.60	6425.00
456.37	6481.00
457.13	6548.00
457.90	6679.00
458.67	6751.00
459.44	6825.00
460.21	6914.00
460.98	6988.00
461.75	7061.00
462.51	7164.00
463.28	7266.00
464.05	7359.00
464.82	7444.00
465.59	7530.00
466.35	7631.00
467.12	7715.00
467.89	7801.00
468.66	7927.00
469.43	8014.00
470.19	8091.00
470.96	8223.00
471.73	8316.00
472.50	8408.00
473.26	8533.00
474.03	8647.00
474.80	8723.00
475.56	8844.00
476.33	8915.00
477.10	9068.00
477.87	9156.00
478.63	9292.00
479.40	9412.00
480.17	9532.00
480.93	9647.00
481.70	9750.00
482.47	9867.00
483.23	9984.00
484.00	10149.00
484.76	10246.00
485.53	10399.00
486.30	10510.00
487.06	10618.00
487.83	10748.00
488.60	10898.00
489.36	11016.00
490.13	11144.00
490.89	11225.00
491.66	11326.00
492.42	11568.00
493.19	11705.00
493.96	11813.00
494.72	11935.00
495.49	12052.00
496.25	12200.00
497.02	12347.00
497.78	12504.00
498.55	12648.00
499.31	12765.00
500.08	12904.00
500.84	13018.00
501.61	13197.00
502.37	13349.00
503.14	13477.00
503.90	13614.00
504.67	13806.00
505.43	13949.00
506.20	14053.00
506.96	14245.00
507.72	14410.00
508.49	14587.00
509.25	14717.00
510.02	14943.00
510.78	15134.00
511.54	15311.00
512.31	15393.00
513.07	15592.00
513.84	15747.00
514.60	15880.00
515.36	16088.00
516.13	16152.00
516.89	16339.00
517.65	16450.00
518.42	16642.00
519.18	16788.00
519.94	16948.00
520.71	17092.00
521.47	17217.00
522.23	17439.00
523.00	17629.00
523.76	17774.00
524.52	18002.00
525.28	18121.00
526.05	18280.00
526.81	18506.00
527.57	18688.00
528.33	18850.00
529.10	18990.00
529.86	19179.00
530.62	19352.00
531.38	19570.00
532.15	19686.00
532.91	19816.00
533.67	19987.00
534.43	20154.00
535.19	20347.00
535.96	20562.00
536.72	20663.00
537.48	20823.00
538.24	21039.00
539.00	21231.00
539.76	21500.00
540.53	21623.00
541.29	21903.00
542.05	22050.00
542.81	22252.00
543.57	22379.00
544.33	22617.00
545.09	22794.00
545.85	22983.00
546.61	23093.00
547.38	23268.00
548.14	23456.00
548.90	23680.00
549.66	23890.00
550.42	24149.00
551.18	24269.00
551.94	24407.00
552.70	24588.00
553.46	24831.00
554.22	24930.00
554.98	25183.00
555.74	25277.00
556.50	25378.00
557.26	25680.00
558.02	25948.00
558.78	26176.00
559.54	26296.00
560.30	26455.00
561.06	26591.00
561.82	26894.00
562.58	27075.00
563.34	27286.00
564.10	27494.00
564.86	27681.00
565.61	27846.00
566.37	28091.00
567.13	28346.00
567.89	28505.00
568.65	28622.00
569.41	28851.00
570.17	28985.00
570.93	29183.00
571.69	29379.00
572.44	29519.00
573.20	29645.00
573.96	29851.00
574.72	30094.00
575.48	30196.00
576.24	30426.00
576.99	30609.00
577.75	30908.00
578.51	31085.00
579.27	31259.00
580.03	31483.00
580.78	31749.00
581.54	31965.00
582.30	32162.00
583.06	32297.00
583.82	32470.00
584.57	32607.00
585.33	32814.00
586.09	32936.00
586.84	33127.00
587.60	33279.00
588.36	33305.00
589.12	33540.00
589.87	33771.00
590.63	33954.00
591.39	34123.00
592.14	34279.00
592.90	34473.00
593.66	34699.00
594.41	34886.00
595.17	35094.00
595.93	35151.00
596.68	35270.00
597.44	35503.00
598.20	35697.00
598.95	36073.00
599.71	36236.00
600.46	36379.00
601.22	36513.00
601.98	36719.00
602.73	37006.00
603.49	37212.00
604.24	37567.00
605.00	37526.00
605.76	37629.00
606.51	37894.00
607.27	38097.00
608.02	38291.00
608.78	38520.00
609.53	38727.00
610.29	38922.00
611.04	39246.00
611.80	39446.00
612.55	39646.00
613.31	39948.00
614.06	40162.00
614.82	40434.00
615.57	40585.00
616.33	40841.00
617.08	40998.00
617.84	41152.00
618.59	41194.00
619.35	41139.00
620.10	41114.00
620.85	41140.00
621.61	41204.00
622.36	41233.00
623.12	41299.00
623.87	41391.00
624.62	41522.00
625.38	41595.00
626.13	41739.00
626.89	42026.00
627.64	42226.00
628.39	42323.00
629.15	42422.00
629.90	42505.00
630.65	42539.00
631.41	42522.00
632.16	42551.00
632.91	42533.00
633.67	42514.00
634.42	42578.00
635.17	42781.00
635.92	43083.00
636.68	43538.00
637.43	43970.00
638.18	44460.00
638.94	44922.00
639.69	45292.00
640.44	45596.00
641.19	46042.00
641.95	46438.00
642.70	46732.00
643.45	46963.00
644.20	47119.00
644.95	47381.00
645.71	47506.00
646.46	47782.00
647.21	47901.00
647.96	47938.00
648.71	48044.00
649.47	48147.00
650.22	48282.00
650.97	48392.00
651.72	48635.00
652.47	48760.00
653.22	48893.00
653.97	49005.00
654.73	49228.00
655.48	49280.00
656.23	49494.00
656.98	49676.00
657.73	49903.00
658.48	49930.00
659.23	49926.00
659.98	50074.00
660.73	50034.00
661.48	50239.00
662.23	50252.00
662.99	50178.00
663.74	50208.00
664.49	50524.00
665.24	51070.00
665.99	51495.00
666.74	51501.00
667.49	51607.00
668.24	51710.00
668.99	51906.00
669.74	52027.00
670.49	52236.00
671.24	52239.00
671.99	52363.00
672.74	52458.00
673.48	52563.00
674.23	52742.00
674.98	52764.00
675.73	52940.00
676.48	53030.00
677.23	53242.00
677.98	53282.00
678.73	53340.00
679.48	53262.00
680.23	53404.00
680.98	53237.00
681.73	53322.00
682.47	53196.00
683.22	53324.00
683.97	53430.00
684.72	53589.00
685.47	53722.00
686.22	53906.00
686.97	54091.00
687.71	54302.00
688.46	54504.00
689.21	54547.00
689.96	54614.00
690.71	54670.00
691.45	54585.00
692.20	54592.00
692.95	54534.00
693.70	54725.00
694.44	54712.00
695.19	54901.00
695.94	54908.00
696.69	55140.00
697.43	55105.00
698.18	55194.00
698.93	55266.00
699.68	55271.00
700.42	55191.00
701.17	55225.00
701.92	55416.00
702.66	55416.00
703.41	55551.00
704.16	55570.00
704.90	55544.00
705.65	55658.00
706.40	55622.00
707.14	55763.00
707.89	55726.00
708.64	55759.00
709.38	55708.00
710.13	55733.00
710.88	55861.00
711.62	55941.00
712.37	55950.00
713.11	56100.00
713.86	56077.00
714.61	56136.00
715.35	56006.00
716.10	55818.00
716.84	55668.00
717.59	55535.00
718.33	55339.00
719.08	55181.00
719.83	55046.00
720.57	54988.00
721.32	54964.00
722.06	54917.00
722.81	54832.00
723.55	54846.00
724.30	54941.00
725.04	54979.00
725.79	55010.00
726.53	54990.00
727.28	54972.00
728.02	55034.00
728.76	55221.00
729.51	55207.00
730.25	55273.00
731.00	55247.00
731.74	55193.00
732.49	55218.00
733.23	55108.00
733.97	54988.00
734.72	54930.00
735.46	54793.00
736.21	54689.00
736.95	54764.00
737.69	54906.00
738.44	54971.00
739.18	55048.00
739.92	55094.00
740.67	55169.00
741.41	55284.00
742.15	55324.00
742.90	55455.00
743.64	55492.00
744.38	55612.00
745.13	55571.00
745.87	55575.00
746.61	55410.00
747.36	55521.00
748.10	55609.00
748.84	55467.00
749.58	55479.00
750.33	55278.00
751.07	55160.00
751.81	55002.00
752.55	54889.00
753.30	54832.00
754.04	54723.00
754.78	54558.00
755.52	54327.00
756.27	54185.00
757.01	54116.00
757.75	54226.00
758.49	54362.00
759.23	54270.00
759.97	54267.00
760.72	54224.00
761.46	54390.00
762.20	54392.00
762.94	54335.00
763.68	54215.00
764.42	54158.00
765.16	54075.00
765.91	53938.00
766.65	53890.00
767.39	53774.00
768.13	53729.00
768.87	53792.00
769.61	53778.00
770.35	53709.00
771.09	53552.00
771.83	53541.00
772.57	53449.00
773.31	53387.00
774.05	53421.00
774.80	53406.00
775.54	53342.00
776.28	53187.00
777.02	53085.00
777.76	53007.00
778.50	52844.00
779.24	52736.00
779.98	52617.00
780.72	52589.00
781.46	52516.00
782.20	52377.00
782.93	52453.00
783.67	52369.00
784.41	52290.00
785.15	52041.00
785.89	51969.00
786.63	51735.00
787.37	51489.00
788.11	51282.00
788.85	51202.00
789.59	51191.00
790.33	51192.00
791.07	51046.00
791.81	51002.00
792.54	50808.00
793.28	50661.00
794.02	50514.00
794.76	50226.00
795.50	50021.00
796.24	49830.00
796.97	49652.00
797.71	49318.00
798.45	49041.00
799.19	49099.00
799.93	48928.00
800.67	48856.00
801.40	48854.00
802.14	48942.00
802.88	48920.00
803.62	49118.00
804.35	48999.00
805.09	48934.00
805.83	48778.00
806.57	48726.00
807.30	48691.00
808.04	48760.00
808.78	48583.00
809.52	48302.00
810.25	47953.00
810.99	47887.00
811.73	47725.00
812.46	47676.00
813.20	47761.00
813.94	47719.00
814.68	47627.00
815.41	47640.00
816.15	47563.00
816.88	47609.00
817.62	47595.00
818.36	47514.00
819.09	47334.00
819.83	46946.00
820.57	46809.00
821.30	46656.00
822.04	46580.00
822.77	46396.00
823.51	46272.00
824.25	46219.00
824.98	46047.00
825.72	46025.00
826.45	46021.00
827.19	45864.00
827.92	45564.00
828.66	45400.00
829.40	45205.00
830.13	45139.00
830.87	45041.00
831.60	45095.00
832.34	44952.00
833.07	44865.00
833.81	44840.00
834.54	44831.00
835.28	44960.00
836.01	44963.00
836.75	44764.00
837.48	44565.00
838.22	44375.00
838.95	44226.00
839.68	44252.00
840.42	44321.00
841.15	44296.00
841.89	44305.00
842.62	44017.00
843.36	43893.00
844.09	43794.00
844.82	43802.00
845.56	43795.00
846.29	43670.00
847.02	43525.00
847.76	43377.00
848.49	43411.00
849.23	43645.00
849.96	43850.00
850.69	43919.00
851.43	43668.00
852.16	43407.00
852.89	42985.00
853.63	42829.00
854.36	42781.00
855.09	42783.00
855.82	42738.00
856.56	42622.00
857.29	42481.00
858.02	42405.00
858.76	42433.00
859.49	42418.00
860.22	42294.00
860.95	42168.00
861.69	41908.00
862.42	41677.00
863.15	41546.00
863.88	41459.00
864.61	41541.00
865.35	41589.00
866.08	41521.00
866.81	41283.00
867.54	41090.00
868.27	41001.00
869.01	40860.00
869.74	40913.00
870.47	40941.00
871.20	40726.00
871.93	40443.00
872.66	40236.00
873.40	39955.00
874.13	39816.00
874.86	39583.00
875.59	39489.00
876.32	39355.00
877.05	39398.00
877.78	39419.00
878.51	39185.00
879.24	39069.00
879.97	38922.00
880.71	38798.00
881.44	38767.00
882.17	38563.00
882.90	38413.00
883.63	38255.00
884.36	38196.00
885.09	38164.00
885.82	38343.00
886.55	38349.00
887.28	38456.00
888.01	38331.00
888.74	38224.00
889.47	37975.00
890.20	37689.00
890.93	37480.00
891.66	37369.00
892.39	37260.00
893.12	37255.00
893.85	37169.00
894.57	37166.00
895.30	37130.00
896.03	37140.00
896.76	37113.00
897.49	36974.00
898.22	36810.00
898.95	36674.00
899.68	36497.00
900.41	36159.00
901.14	35939.00
901.86	35875.00
902.59	35798.00
903.32	35819.00
904.05	35702.00
904.78	35629.00
905.51	35463.00
906.24	35413.00
906.96	35356.00
907.69	35219.00
908.42	34951.00
909.15	34849.00
909.88	34716.00
910.60	34498.00
911.33	34375.00
912.06	34300.00
912.79	34013.00
913.52	33876.00
914.24	33800.00
914.97	33765.00
915.70	33637.00
916.42	33500.00
917.15	33305.00
917.88	33101.00
918.61	32925.00
919.33	32644.00
920.06	32387.00
920.79	32191.00
921.51	32060.00
922.24	31923.00
922.97	31721.00
923.69	31668.00
924.42	31528.00
925.15	31377.00
925.87	31112.00
926.60	30945.00
927.33	30662.00
928.05	30306.00
928.78	30060.00
929.51	29764.00
930.23	29476.00
930.96	29126.00
931.68	28793.00
932.41	28507.00
933.14	28151.00
933.86	27965.00
934.59	27559.00
935.31	27131.00
936.04	26609.00
936.76	26117.00
937.49	25703.00
938.21	25168.00
938.94	24716.00
939.66	24258.00
940.39	23901.00
941.11	23566.00
941.84	23210.00
942.56	22927.00
943.29	22725.00
944.01	22538.00
944.74	22381.00
945.46	22308.00
946.19	22316.00
946.91	22402.00
947.64	22458.00
948.36	22502.00
949.09	22572.00
949.81	22623.00
950.53	22675.00
951.26	22791.00
951.98	22928.00
952.71	22908.00
953.43	23003.00
954.15	23091.00
954.88	23210.00
955.60	23242.00
956.33	23294.00
957.05	23296.00
957.77	23388.00
958.50	23465.00
959.22	23592.00
959.94	23562.00
960.67	23468.00
961.39	23432.00
962.11	23424.00
962.84	23489.00
963.56	23405.00
964.28	23315.00
965.00	23191.00
965.73	22948.00
966.45	22869.00
967.17	22725.00
967.89	22566.00
968.62	22416.00
969.34	22221.00
970.06	22084.00
970.78	21936.00
971.51	21807.00
972.23	21735.00
972.95	21502.00
973.67	21350.00
974.40	21227.00
975.12	21102.00
975.84	20933.00
976.56	20785.00
977.28	20607.00
978.00	20485.00
978.73	20415.00
979.45	20339.00
980.17	20320.00
980.89	20253.00
981.61	20135.00
982.33	20084.00
983.05	19977.00
983.77	20030.00
984.50	19943.00
985.22	19871.00
985.94	19786.00
986.66	19696.00
987.38	19646.00
988.10	19523.00
988.82	19546.00
989.54	19430.00
990.26	19302.00
990.98	19160.00
991.70	19053.00
992.42	19001.00
993.14	18793.00
993.86	18701.00
994.58	18486.00
995.30	18354.00
996.02	18295.00
996.74	18213.00
997.46	18188.00
998.18	18016.00
998.90	17904.00
999.62	17745.00
1000.34	17619.00
1001.06	17592.00
1001.78	17485.00
1002.50	17351.00
1003.22	17175.00
1003.94	16978.00
1004.66	16865.00
1005.38	16728.00
1006.09	16576.00
1006.81	16467.00
1007.53	16272.00
1008.25	16142.00
1008.97	16032.00
1009.69	15886.00
1010.41	15812.00
1011.13	15627.00
1011.84	15507.00
1012.56	15343.00
1013.28	15226.00
1014.00	15026.00
1014.72	14877.00
1015.44	14732.00
1016.15	14481.00
1016.87	14284.00
1017.59	14158.00
1018.31	14040.00
1019.03	13914.00
1019.74	13853.00
1020.46	13742.00
1021.18	13632.00
1021.90	13530.00
1022.61	13421.00
1023.33	13295.00
1024.05	13165.00
1024.76	12977.00
1025.48	12853.00
1026.20	12563.00
1026.92	12395.00
1027.63	12248.00
1028.35	12115.00
1029.07	11953.00
1029.78	11794.00
1030.50	11687.00
1031.22	11524.00
1031.93	11373.00
1032.65	11292.00
1033.37	11217.00
1034.08	11062.00
1034.80	10996.00
1035.52	10910.00
1036.23	10839.00
1036.95	10766.00
1037.66	10665.00
1038.38	10561.00
1039.10	10388.00
1039.81	10189.00
1040.53	10026.00
1041.24	9885.00
1041.96	9764.00
1042.67	9605.00
1043.39	9548.00
1044.10	9434.00
1044.82	9318.00
1045.54	9175.00
1046.25	9083.00
1046.97	9000.00
1047.68	8850.00
1048.40	8715.00
1049.11	8579.00
1049.83	8429.00
1050.54	8331.00
1051.26	8223.00
1051.97	8127.00
1052.68	8020.00
1053.40	7939.00
1054.11	7804.00
1054.83	7679.00
1055.54	7584.00
1056.26	7467.00
1056.97	7386.00
1057.69	7284.00
1058.40	7212.00
1059.11	7083.00
1059.83	6945.00
1060.54	6831.00
1061.25	6670.00
1061.97	6530.00
1062.68	6398.00
1063.40	6274.00
1064.11	6157.00
1064.82	6018.00
1065.54	5935.00
1066.25	2566.00
1066.96	2561.00
1067.68	2563.00
1068.39	2565.00
1069.10	2617.00
1069.82	2613.00
1070.53	2623.00
1071.24	2617.00
1071.95	2620.00
1072.67	2622.00
1073.38	5773.00
1074.09	5653.00
1074.80	5551.00
1075.52	5433.00
1076.23	5334.00
1076.94	5217.00
1077.65	2602.00
1078.37	2600.00
1079.08	2602.00
1079.79	2610.00
