174.03	675.69
174.41	675.69
174.78	675.69
175.16	655.35
175.54	664.39
175.92	698.29
176.30	786.42
176.67	657.61
177.05	729.92
177.43	768.34
177.81	757.04
178.19	768.34
178.56	824.84
178.94	818.06
179.32	779.64
179.70	802.24
180.08	854.21
180.45	815.80
180.83	845.18
181.21	897.15
181.59	980.77
181.96	919.75
182.34	890.37
182.72	960.43
183.10	1111.84
183.48	1181.89
183.85	1145.73
184.23	1077.94
184.61	1141.21
184.99	1188.67
185.36	1193.19
185.74	1193.19
186.12	1249.68
186.50	1150.25
186.87	1154.77
187.25	1193.19
187.63	1190.93
188.01	1168.33
188.38	1184.15
188.76	1199.97
189.14	1190.93
189.52	1209.01
189.89	1233.87
190.27	1109.58
190.65	1254.20
191.02	1240.65
191.40	1236.13
191.78	1238.39
192.16	1170.59
192.53	1179.63
192.91	1186.41
193.29	1086.98
193.66	1188.67
194.04	1190.93
194.42	1188.67
194.79	1166.07
195.17	1145.73
195.55	1213.53
195.93	1199.97
196.30	1168.33
196.68	1218.05
197.06	1206.75
197.43	1150.25
197.81	1220.31
198.19	1102.80
198.56	1263.24
198.94	1335.56
199.32	1202.23
199.69	1215.79
200.07	1186.41
200.45	1215.79
200.82	1150.25
201.20	1159.29
201.58	1215.79
201.95	1123.13
202.33	1279.06
202.71	1213.53
203.08	1179.63
203.46	1145.73
203.84	1236.13
204.21	1274.54
204.59	1220.31
204.96	1245.16
205.34	1260.98
205.72	1328.78
206.09	1256.46
206.47	1184.15
206.85	1172.85
207.22	1218.05
207.60	1288.10
207.97	1175.11
208.35	1288.10
208.73	1240.65
209.10	1247.42
209.48	1288.10
209.85	1227.09
210.23	1197.71
210.61	1236.13
210.98	1175.11
211.36	1197.71
211.73	1249.68
212.11	1209.01
212.49	1279.06
212.86	1184.15
213.24	1251.94
213.61	1265.50
213.99	1222.57
214.37	1229.35
214.74	1242.91
215.12	1260.98
215.49	1292.62
215.87	1213.53
216.24	1242.91
216.62	1184.15
216.99	1263.24
217.37	1227.09
217.75	1202.23
218.12	1272.28
218.50	1276.80
218.87	1247.42
219.25	1179.63
219.62	1265.50
220.00	1292.62
220.37	1310.70
220.75	1209.01
221.12	1285.84
221.50	1224.83
221.87	1279.06
222.25	1285.84
222.63	1186.41
223.00	1315.22
223.38	1188.67
223.75	1247.42
224.13	1254.20
224.50	1247.42
224.88	1310.70
225.25	1193.19
225.63	1274.54
226.00	1229.35
226.38	1238.39
226.75	1229.35
227.13	1342.34
227.50	1215.79
227.88	1301.66
228.25	1265.50
228.63	1335.56
229.00	1288.10
229.37	1274.54
229.75	1263.24
230.12	1236.13
230.50	1242.91
230.87	1285.84
231.25	1328.78
231.62	1328.78
232.00	1310.70
232.37	1303.92
232.75	1272.28
233.12	1355.90
233.50	1297.14
233.87	1346.86
234.24	1326.52
234.62	1337.82
234.99	1396.57
235.37	1328.78
235.74	1310.70
236.12	1312.96
236.49	1267.76
236.86	1272.28
237.24	1310.70
237.61	1297.14
237.99	1258.72
238.36	1380.75
238.74	1306.18
239.11	1322.00
239.48	1290.36
239.86	1279.06
240.23	1265.50
240.61	1344.60
240.98	1308.44
241.35	1319.74
241.73	1265.50
242.10	1367.20
242.48	1301.66
242.85	1279.06
243.22	1344.60
243.60	1274.54
243.97	1290.36
244.34	1204.49
244.72	1315.22
245.09	1337.82
245.47	1396.57
245.84	1312.96
246.21	1306.18
246.59	1407.87
246.96	1283.58
247.33	1270.02
247.71	1369.46
248.08	1281.32
248.45	1322.00
248.83	1410.13
249.20	1251.94
249.57	1288.10
249.95	1335.56
250.32	1319.74
250.69	1322.00
251.07	1358.16
251.44	1303.92
251.81	1324.26
252.19	1349.12
252.56	1340.08
252.93	1407.87
253.31	1353.64
253.68	1385.27
254.05	1380.75
254.43	1401.09
254.80	1423.69
255.17	1351.38
255.55	1373.98
255.92	1360.42
256.29	1380.75
256.66	1326.52
257.04	1294.88
257.41	1367.20
257.78	1396.57
258.16	1383.01
258.53	1362.68
258.90	1412.39
259.27	1319.74
259.65	1344.60
260.02	1434.99
260.39	1349.12
260.76	1428.21
261.14	1450.81
261.51	1380.75
261.88	1303.92
262.25	1360.42
262.63	1401.09
263.00	1378.49
263.37	1342.34
263.74	1324.26
264.12	1315.22
264.49	1364.94
264.86	1401.09
265.23	1340.08
265.61	1457.59
265.98	1430.47
266.35	1407.87
266.72	1392.05
267.09	1346.86
267.47	1373.98
267.84	1380.75
268.21	1373.98
268.58	1328.78
268.95	1410.13
269.33	1396.57
269.70	1432.73
270.07	1439.51
270.44	1376.24
270.81	1410.13
271.19	1358.16
271.56	1401.09
271.93	1421.43
272.30	1423.69
272.67	1376.24
273.05	1369.46
273.42	1351.38
273.79	1351.38
274.16	1389.79
274.53	1486.97
274.90	1392.05
275.28	1385.27
275.65	1396.57
276.02	1380.75
276.39	1448.55
276.76	1369.46
277.13	1396.57
277.50	1471.15
277.88	1441.77
278.25	1392.05
278.62	1419.17
278.99	1459.85
279.36	1349.12
279.73	1484.71
280.10	1423.69
280.47	1389.79
280.85	1405.61
281.22	1412.39
281.59	1439.51
281.96	1405.61
282.33	1507.30
282.70	1446.29
283.07	1491.49
283.44	1373.98
283.81	1486.97
284.18	1462.11
284.56	1387.53
284.93	1459.85
285.30	1455.33
285.67	1464.37
286.04	1575.10
286.41	1434.99
286.78	1434.99
287.15	1396.57
287.52	1450.81
287.89	1527.64
288.26	1468.89
288.63	1367.20
289.00	1518.60
289.37	1459.85
289.75	1547.98
290.12	1523.12
290.49	1557.02
290.86	1557.02
291.23	1527.64
291.60	1505.05
291.97	1529.90
292.34	1505.05
292.71	1516.34
293.08	1514.08
293.45	1493.75
293.82	1505.05
294.19	1507.30
294.56	1480.19
294.93	1459.85
295.30	1538.94
295.67	1529.90
296.04	1552.50
296.41	1468.89
296.78	1536.68
297.15	1557.02
297.52	1507.30
297.89	1538.94
298.26	1525.38
298.63	1536.68
299.00	1471.15
299.37	1536.68
299.74	1561.54
300.11	1577.36
300.48	1430.47
300.85	1529.90
301.22	1572.84
301.59	1554.76
301.96	1532.16
302.33	1545.72
302.70	1615.78
303.07	1536.68
303.43	1511.82
303.80	1446.29
304.17	1563.80
304.54	1575.10
304.91	1588.66
305.28	1588.66
305.65	1638.38
306.02	1593.18
306.39	1579.62
306.76	1575.10
307.13	1642.89
307.50	1599.96
307.87	1618.04
308.24	1566.06
308.60	1572.84
308.97	1636.12
309.34	1563.80
309.71	1620.30
310.08	1599.96
310.45	1715.21
310.82	1633.86
311.19	1658.71
311.56	1633.86
311.92	1624.82
312.29	1636.12
312.66	1667.75
313.03	1724.25
313.40	1640.63
313.77	1622.56
314.14	1651.93
314.51	1636.12
314.87	1622.56
315.24	1712.95
315.61	1731.03
315.98	1697.13
316.35	1663.23
316.72	1701.65
317.09	1767.19
317.45	1647.41
317.82	1681.31
318.19	1670.01
318.56	1656.45
318.93	1670.01
319.30	1667.75
319.66	1703.91
320.03	1640.63
320.40	1656.45
320.77	1731.03
321.14	1706.17
321.50	1627.08
321.87	1665.49
322.24	1640.63
322.61	1645.15
322.98	1708.43
323.34	1690.35
323.71	1676.79
324.08	1660.97
324.45	1726.51
324.82	1633.86
325.18	1769.44
325.55	1667.75
325.92	1717.47
326.29	1631.60
326.65	1656.45
327.02	1735.55
327.39	1744.59
327.76	1731.03
328.12	1703.91
328.49	1746.85
328.86	1721.99
329.23	1735.55
329.59	1746.85
329.96	1733.29
330.33	1764.93
330.70	1735.55
331.06	1735.55
331.43	1819.16
331.80	1844.02
332.17	1776.22
332.53	2334.40
332.90	1850.80
333.27	1812.38
333.63	1846.28
334.00	1882.44
334.37	1814.64
334.74	1832.72
335.10	1889.22
335.47	1893.74
335.84	1909.55
336.20	1884.70
336.57	1884.70
336.94	1830.46
337.30	1889.22
337.67	1891.48
338.04	1905.03
338.40	1871.14
338.77	1907.29
339.14	1871.14
339.50	2038.36
339.87	1995.43
340.24	2051.92
340.60	1968.31
340.97	1929.89
341.34	1984.13
341.70	1884.70
342.07	1975.09
342.44	2038.36
342.80	1932.15
343.17	2006.73
343.53	2117.46
343.90	2006.73
344.27	2013.51
344.63	1977.35
345.00	2022.55
345.37	1997.69
345.73	1905.03
346.10	2029.33
346.46	1981.87
346.83	1984.13
347.20	1970.57
347.56	2063.22
347.93	2094.86
348.29	2047.40
348.66	2081.30
349.03	2144.58
349.39	2124.24
349.76	2038.36
350.12	2228.19
350.49	2162.66
350.85	2153.62
351.22	2110.68
351.59	2257.57
351.95	2173.95
352.32	2142.32
352.68	2302.76
353.05	2137.80
353.41	2185.25
353.78	2176.21
354.14	2167.17
354.51	2266.61
354.88	2305.02
355.24	2323.10
355.61	2228.19
355.97	2271.13
356.34	2395.42
356.70	2372.82
357.07	2436.09
357.43	2336.66
357.80	2352.48
358.16	2402.20
358.53	2456.43
358.89	2341.18
359.26	2440.61
359.62	2485.81
359.99	2483.55
360.35	2512.93
360.72	2431.57
361.08	2488.07
361.45	2517.45
361.81	2625.92
362.18	2614.62
362.54	2738.91
362.91	2718.57
363.27	2675.64
363.63	2788.63
364.00	2804.45
364.36	2797.67
364.73	2732.13
365.09	2935.52
365.46	2921.96
365.82	2833.82
366.19	2860.94
366.55	3093.70
366.91	2924.22
367.28	3089.18
367.64	2976.19
368.01	3048.51
368.37	3107.26
368.74	3082.40
369.10	3220.25
369.46	3251.89
369.83	3312.91
370.19	3204.44
370.56	3281.27
370.92	3387.48
371.28	3371.66
371.65	3439.46
372.01	3579.57
372.38	3733.24
372.74	3710.64
373.10	3902.72
373.47	4167.12
373.83	4239.44
374.19	4112.89
374.56	4130.96
374.92	4069.95
375.29	4255.26
375.65	4515.14
376.01	4668.80
376.38	4677.84
376.74	4671.06
377.10	4752.42
377.47	5274.44
377.83	5299.30
378.19	5502.68
378.56	5724.14
378.92	6017.92
379.28	6413.39
379.65	6745.59
380.01	7116.20
380.37	7348.96
380.74	7807.70
381.10	8614.46
381.46	9170.38
381.83	9629.13
382.19	10239.28
382.55	11055.08
382.91	11830.20
383.28	12718.31
383.64	14284.37
384.00	15109.21
384.37	16772.44
384.73	18408.56
385.09	19581.41
385.45	21057.07
385.82	23337.24
386.18	26015.14
386.54	28462.53
386.91	31576.57
387.27	34428.47
387.63	38353.79
387.99	40509.67
388.36	44322.00
388.72	48861.99
389.08	52136.48
389.44	55171.43
389.80	57578.15
390.17	59697.87
390.53	62746.37
390.89	65489.80
391.25	65535.00
391.62	65535.00
391.98	65535.00
392.34	65535.00
392.70	65535.00
393.06	65535.00
393.43	65535.00
393.79	65535.00
394.15	65535.00
394.51	65535.00
394.87	65535.00
395.24	65535.00
395.60	65535.00
395.96	65535.00
396.32	65535.00
396.68	65535.00
397.04	65535.00
397.41	65535.00
397.77	65535.00
398.13	65535.00
398.49	65535.00
398.85	65535.00
399.21	65535.00
399.58	65535.00
399.94	65535.00
400.30	65535.00
400.66	65535.00
401.02	65535.00
401.38	65535.00
401.74	65535.00
402.11	65535.00
402.47	65535.00
402.83	65535.00
403.19	65535.00
403.55	65535.00
403.91	65535.00
404.27	65535.00
404.63	65535.00
404.99	65535.00
405.35	65535.00
405.72	65535.00
406.08	65535.00
406.44	65535.00
406.80	65535.00
407.16	65535.00
407.52	65535.00
407.88	65535.00
408.24	65535.00
408.60	65535.00
408.96	65535.00
409.32	65535.00
409.68	65535.00
410.04	65535.00
410.40	65535.00
410.76	65535.00
411.13	65535.00
411.49	65535.00
411.85	65535.00
412.21	65535.00
412.57	65535.00
412.93	65535.00
413.29	65535.00
413.65	65535.00
414.01	65535.00
414.37	65535.00
414.73	65535.00
415.09	65535.00
415.45	65535.00
415.81	65535.00
416.17	65535.00
416.53	65535.00
416.89	65535.00
417.25	65535.00
417.61	65535.00
417.97	65535.00
418.33	65535.00
418.69	65535.00
419.05	65535.00
419.41	65535.00
419.77	65535.00
420.12	65535.00
420.48	65535.00
420.84	65535.00
421.20	65535.00
421.56	65535.00
421.92	65535.00
422.28	65535.00
422.64	65535.00
423.00	65535.00
423.36	65535.00
423.72	65535.00
424.08	65535.00
424.44	65535.00
424.80	65535.00
425.16	65535.00
425.51	65535.00
425.87	65535.00
426.23	65535.00
426.59	65535.00
426.95	65535.00
427.31	65535.00
427.67	65535.00
428.03	65535.00
428.39	65535.00
428.74	65535.00
429.10	65535.00
429.46	64976.82
429.82	63331.67
430.18	62572.37
430.54	61462.79
430.90	60904.61
431.26	59494.48
431.61	57804.13
431.97	56789.47
432.33	55790.62
432.69	55322.84
433.05	53112.73
433.41	50927.47
433.76	49388.53
434.12	48161.45
434.48	45775.07
434.84	43937.83
435.20	42450.86
435.55	41354.84
435.91	39443.03
436.27	37811.44
436.63	36315.43
436.99	35133.54
437.34	32998.00
437.70	32292.94
438.06	30663.60
438.42	28677.21
438.78	27750.68
439.13	27253.52
439.49	25741.70
439.85	24605.00
440.21	23466.05
440.56	22431.05
440.92	21725.98
441.28	20096.65
441.64	19488.75
441.99	19115.88
442.35	18259.41
442.71	17210.85
443.07	17251.52
443.42	16399.57
443.78	15500.16
444.14	15215.42
444.50	14639.16
444.85	14169.12
445.21	13601.90
445.57	13328.46
445.93	12401.93
446.28	12218.89
446.64	12029.06
447.00	11638.11
447.35	11771.44
447.71	11660.71
448.07	11116.09
448.42	10630.23
448.78	10178.26
449.14	9778.27
449.49	9170.38
449.85	9296.93
450.21	8824.63
450.56	8257.41
450.92	7886.80
451.28	7782.85
451.63	8257.41
451.99	7764.77
452.35	7617.88
452.70	7168.17
453.06	6802.08
453.42	6591.92
453.77	6320.74
454.13	6280.06
454.49	5900.41
454.84	5839.39
455.20	5771.60
455.55	5636.01
455.91	5507.20
456.27	5398.73
456.62	5208.90
456.98	5071.05
457.33	4707.22
457.69	4648.47
458.05	4517.40
458.40	4377.29
458.76	4309.49
459.11	4173.90
459.47	4133.22
459.83	3871.08
460.18	3801.03
460.54	3810.07
460.89	3726.46
461.25	3730.98
461.60	3645.10
461.96	3536.63
462.31	3489.17
462.67	3405.56
463.03	3410.08
463.38	3324.21
463.74	3245.11
464.09	3249.63
464.45	3168.28
464.80	3156.98
465.16	3093.70
465.51	3059.81
465.87	3071.11
466.22	2953.59
466.58	3014.61
466.93	2915.18
467.29	2933.26
467.64	2858.68
468.00	2912.92
468.35	2829.30
468.71	2768.29
469.06	2763.77
469.42	2707.27
469.77	2707.27
470.13	2546.83
470.48	2503.89
470.84	2587.50
471.19	2578.46
471.54	2567.16
471.90	2549.09
472.25	2469.99
472.61	2467.73
472.96	2445.13
473.32	2542.31
473.67	2379.60
474.03	2460.95
474.38	2408.98
474.73	2295.98
475.09	2334.40
475.44	2424.80
475.80	2424.80
476.15	2316.32
476.50	2345.70
476.86	2318.58
477.21	2311.80
477.57	2192.03
477.92	2223.67
478.27	2273.39
478.63	2228.19
478.98	2302.76
479.34	2198.81
479.69	2289.21
480.04	2162.66
480.40	2194.29
480.75	2325.36
481.10	2189.77
481.46	2221.41
481.81	2232.71
482.16	2160.40
482.52	2228.19
482.87	2187.51
483.22	2169.43
483.58	2198.81
483.93	2171.69
484.28	2196.55
484.64	2323.10
484.99	2207.85
485.34	2182.99
485.70	2253.05
486.05	2325.36
486.40	2253.05
486.76	2232.71
487.11	2293.72
487.46	2325.36
487.81	2300.50
488.17	2295.98
488.52	2259.83
488.87	2350.22
489.23	2361.52
489.58	2300.50
489.93	2447.39
490.28	2420.28
490.64	2390.90
490.99	2469.99
491.34	2393.16
491.69	2456.43
492.05	2576.20
492.40	2639.48
492.75	2673.38
493.10	2630.44
493.46	2671.12
493.81	2747.95
494.16	2879.02
494.51	2890.32
494.86	2964.89
495.22	2971.67
495.57	3053.03
495.92	3032.69
496.27	3184.10
496.62	3163.76
496.98	3306.13
497.33	3398.78
497.68	3396.52
498.03	3575.05
498.38	3717.42
498.74	3830.41
499.09	3776.17
499.44	3911.76
499.79	3945.66
500.14	4056.39
500.49	4399.88
500.85	4533.21
501.20	4497.06
501.55	4695.92
501.90	4786.31
502.25	4978.40
502.60	5109.47
502.95	5236.02
503.30	5579.51
503.66	5683.47
504.01	5997.58
504.36	6042.78
504.71	6110.57
505.06	6381.75
505.41	6754.62
505.76	6878.92
506.11	7125.24
506.46	7206.59
506.82	7572.68
507.17	8074.36
507.52	8085.66
507.87	8469.83
508.22	8673.22
508.57	8964.74
508.92	9202.02
509.27	9579.41
509.62	10051.71
509.97	10185.04
510.32	10553.39
510.67	10838.13
511.02	11256.20
511.37	11253.94
511.72	11983.87
512.07	12307.02
512.42	12612.10
512.77	12984.97
513.12	13518.29
513.47	13771.39
513.82	14171.38
514.17	14621.08
514.52	15009.77
514.87	15497.90
515.22	16130.65
515.57	16324.99
515.92	16966.79
516.27	17346.44
516.62	17909.13
516.97	18137.38
517.32	18919.28
517.67	19100.06
518.02	19997.21
518.37	20290.99
518.72	20476.30
519.07	21038.99
519.42	21841.23
519.77	21920.33
520.12	22840.08
520.47	23283.00
520.82	23468.31
521.17	24006.15
521.52	24501.05
521.87	25156.40
522.22	25563.17
522.56	25732.66
522.91	26363.15
523.26	27102.11
523.61	27321.32
523.96	27721.30
524.31	28279.48
524.66	28595.86
525.01	29079.46
525.36	29291.89
525.71	29836.50
526.05	30241.01
526.40	30756.25
526.75	30943.82
527.10	31352.85
527.45	31233.08
527.80	32141.53
528.15	31859.05
528.49	32713.26
528.84	32783.32
529.19	32988.96
529.54	33556.18
529.89	34051.08
530.24	33694.03
530.58	34620.56
530.93	34767.45
531.28	34742.59
531.63	35291.73
531.98	34875.92
532.33	35488.33
532.67	35741.43
533.02	36152.72
533.37	35800.19
533.72	36222.78
534.07	36317.69
534.41	36272.49
534.76	36735.76
535.11	36789.99
535.46	37492.80
535.80	37528.96
536.15	37605.79
536.50	37140.27
536.85	37630.65
537.19	37461.16
537.54	37980.92
537.89	37944.76
538.24	37458.90
538.58	37603.53
538.93	37693.92
539.28	37474.72
539.63	37547.04
539.97	37727.82
540.32	37589.97
540.67	37644.21
541.01	37476.98
541.36	37680.37
541.71	37897.31
542.06	37644.21
542.40	37397.89
542.75	37508.62
543.10	37400.15
543.44	37316.53
543.79	37334.61
544.14	36860.05
544.48	36862.31
544.83	36855.53
545.18	36860.05
545.52	36627.29
545.87	36417.12
546.22	36848.75
546.56	36394.52
546.91	35813.75
547.25	36048.77
547.60	35651.04
547.95	35965.16
548.29	35953.86
548.64	35431.84
548.99	35357.26
549.33	35201.33
549.68	35515.45
550.02	35271.39
550.37	35031.85
550.72	34677.05
551.06	34814.90
551.41	34819.42
551.75	34611.52
552.10	34249.95
552.45	34118.88
552.79	34159.55
553.14	33777.64
553.48	33890.63
553.83	33513.24
554.17	33449.97
554.52	33205.91
554.87	33707.59
555.21	32828.52
555.56	33086.14
555.90	32882.75
556.25	32514.40
556.59	32810.44
556.94	32835.29
557.28	32405.93
557.63	32315.53
557.97	31850.01
558.32	32161.87
558.66	31601.43
559.01	31508.78
559.35	31872.61
559.70	31323.47
560.04	31090.71
560.39	31348.33
560.73	31337.03
561.08	31163.02
561.42	30964.16
561.77	30866.98
562.11	30579.99
562.46	30453.44
562.80	30482.81
563.14	29929.16
563.49	29504.31
563.83	30175.48
564.18	29831.98
564.52	29721.25
564.87	29793.57
565.21	29332.56
565.56	29192.45
565.90	29045.56
566.24	28751.79
566.59	29011.67
566.93	28500.95
567.28	28961.95
567.62	28467.05
567.96	28322.42
568.31	28446.71
568.65	28087.40
569.00	28030.90
569.34	27660.29
569.68	27319.06
570.03	27838.82
570.37	27185.73
570.71	26959.74
571.06	26736.02
571.40	27129.23
571.74	26844.49
572.09	26699.86
572.43	26299.87
572.78	26157.50
573.12	26046.77
573.46	26008.36
573.80	25628.70
574.15	25493.12
574.49	25280.69
574.83	25642.26
575.18	25307.81
575.52	24919.12
575.86	25097.65
576.21	24550.77
576.55	24521.39
576.89	24385.80
577.24	24421.96
577.58	24245.69
577.92	23863.78
578.26	23863.78
578.61	23710.11
578.95	23479.61
579.29	23434.41
579.63	23237.81
579.98	23251.37
580.32	23029.90
580.66	22797.14
581.00	22489.80
581.35	22736.13
581.69	22532.74
582.03	22379.07
582.37	22342.92
582.72	21800.56
583.06	21906.77
583.40	21730.50
583.74	21728.24
584.08	21377.97
584.43	21425.43
584.77	21081.93
585.11	21185.88
585.45	20813.01
585.79	21045.77
586.13	20541.83
586.48	20173.48
586.82	20519.23
587.16	20284.21
587.50	20281.95
587.84	19452.60
588.18	19787.05
588.53	19319.27
588.87	19466.15
589.21	19237.91
589.55	19454.86
589.89	19025.49
590.23	18763.35
590.57	18616.46
590.92	18618.72
591.26	18252.63
591.60	18392.74
591.94	18306.86
592.28	18004.05
592.62	17782.58
592.96	17949.81
593.30	17547.56
593.64	17360.00
593.98	17398.41
594.32	17265.08
594.67	17242.48
595.01	16652.67
595.35	16912.55
595.69	16856.05
596.03	16435.73
596.37	16532.90
596.71	16191.66
597.05	16160.03
597.39	15859.47
597.73	16006.36
598.07	15995.06
598.41	15583.77
598.75	15461.74
599.09	15258.36
599.43	15000.74
599.77	14894.52
600.11	14871.93
600.45	14804.13
600.79	14932.94
601.13	14503.57
601.47	14367.98
601.81	14399.62
602.15	14180.42
602.49	13974.77
602.83	14058.39
603.17	13891.16
603.51	13699.07
603.85	13586.08
604.19	13671.96
604.53	13502.47
604.87	13271.97
605.21	13140.90
605.55	12978.19
605.89	13052.76
606.23	12808.70
606.56	12555.60
606.90	12523.96
607.24	12212.11
607.58	12155.61
607.92	12453.91
608.26	12094.60
608.60	11735.28
608.94	11800.82
609.28	11798.56
609.62	11742.06
609.95	11549.98
610.29	11484.44
610.63	11244.90
610.97	11276.54
611.31	10994.06
611.65	11023.44
611.99	11075.42
612.33	10899.15
612.66	10772.60
613.00	10621.19
613.34	10368.09
613.68	10422.32
614.02	10293.51
614.36	10246.06
614.69	10133.07
615.03	10230.24
615.37	9974.88
615.71	9816.69
616.05	9968.10
616.38	9751.16
616.72	9622.35
617.06	9378.28
617.40	9629.13
617.74	9597.49
618.07	9468.68
618.41	9409.92
618.75	9195.24
619.09	9161.34
619.42	9086.77
619.76	9005.41
620.10	8955.70
620.44	8903.72
620.77	8967.00
621.11	8503.73
621.45	8725.19
621.79	8722.93
622.12	8580.57
622.46	8365.88
622.80	8388.48
623.13	8408.82
623.47	8293.57
623.81	8153.46
624.15	8106.00
624.48	8022.39
624.82	8090.18
625.16	7918.44
625.49	7791.89
625.83	7875.50
626.17	7660.82
626.50	7832.56
626.84	7674.37
627.18	7416.75
627.51	7563.64
627.85	7414.49
628.19	7344.44
628.52	7362.52
628.86	7245.01
629.20	7084.56
629.53	7231.45
629.87	6978.35
630.20	6951.23
630.54	6996.43
630.88	7005.47
631.21	6894.73
631.55	6831.46
631.89	6734.29
632.22	6722.99
632.56	6483.45
632.89	6490.22
633.23	6530.90
633.56	6454.07
633.90	6456.33
634.24	6377.23
634.57	6325.26
634.91	6200.97
635.24	6002.10
635.58	6146.73
635.91	6320.74
636.25	6087.98
636.58	6169.33
636.92	5866.51
637.26	5764.82
637.59	5728.66
637.93	5762.56
638.26	5848.43
638.60	5794.20
638.93	5586.29
639.27	5568.22
639.60	5545.62
639.94	5495.90
640.27	5475.56
640.61	5534.32
640.94	5380.65
641.28	5315.11
641.61	5353.53
641.94	5351.27
642.28	5294.78
642.61	5231.50
642.95	5127.55
643.28	4994.22
643.62	5213.42
643.95	5048.45
644.29	4989.70
644.62	4928.68
644.95	4985.18
645.29	4761.46
645.62	4858.63
645.96	4729.82
646.29	4616.83
646.63	4603.27
646.96	4582.93
647.29	4555.81
647.63	4614.57
647.96	4445.08
648.29	4359.21
648.63	4302.71
648.96	4431.52
649.30	4494.80
649.63	4399.88
649.96	4370.51
650.30	4334.35
650.63	4255.26
650.96	4255.26
651.30	4090.29
651.63	4056.39
651.96	4198.76
652.30	4130.96
652.63	4051.87
652.96	4074.47
653.30	3952.44
653.63	3882.38
653.96	3898.20
654.30	3984.08
654.63	3843.97
654.96	3798.77
655.29	3832.67
655.63	3807.81
655.96	3758.09
656.29	3798.77
656.63	3776.17
656.96	3656.40
657.29	3701.60
657.62	3658.66
657.96	3543.41
658.29	3608.94
658.62	3595.39
658.95	3504.99
659.29	3486.91
659.62	3550.19
659.95	3532.11
660.28	3434.94
660.61	3453.02
660.95	3480.13
661.28	3349.06
661.61	3249.63
661.94	3236.07
662.27	3263.19
662.61	3197.66
662.94	3150.20
663.27	3084.66
663.60	3082.40
663.93	3032.69
664.27	3057.55
664.60	3141.16
664.93	3114.04
665.26	2982.97
665.59	3034.95
665.92	3071.11
666.25	2928.74
666.59	2917.44
666.92	3010.09
667.25	2811.23
667.58	2937.78
667.91	2806.71
668.24	2806.71
668.57	2811.23
668.90	2738.91
669.23	2682.42
669.57	2842.86
669.90	2775.07
670.23	2711.79
670.56	2671.12
670.89	2718.57
671.22	2677.90
671.55	2662.08
671.88	2603.32
672.21	2562.64
672.54	2684.68
672.87	2598.80
673.20	2469.99
673.53	2619.14
673.86	2560.38
674.19	2492.59
674.52	2433.83
674.85	2420.28
675.18	2542.31
675.51	2467.73
675.84	2420.28
676.17	2472.25
676.50	2390.90
676.83	2341.18
677.16	2341.18
677.49	2338.92
677.82	2384.12
678.15	2259.83
678.48	2368.30
678.81	2302.76
679.14	2266.61
679.47	2241.75
679.80	2228.19
680.13	2219.15
680.46	2259.83
680.79	2253.05
681.12	2176.21
681.45	2232.71
681.78	2178.47
682.11	2137.80
682.44	1975.09
682.77	2133.28
683.09	2151.36
683.42	1993.17
683.75	1988.65
684.08	2067.74
684.41	2042.88
684.74	2083.56
685.07	2092.60
685.40	1988.65
685.72	1941.19
686.05	1905.03
686.38	1918.59
686.71	1920.85
687.04	1801.08
687.37	1898.26
687.70	1905.03
688.02	1909.55
688.35	1927.63
688.68	1952.49
689.01	1821.42
689.34	1902.77
689.67	1886.96
689.99	1970.57
690.32	1762.67
690.65	1810.12
690.98	1862.10
691.30	1825.94
691.63	1810.12
691.96	1703.91
692.29	1758.15
692.62	1699.39
692.94	1733.29
693.27	1758.15
693.60	1731.03
693.93	1697.13
694.25	1706.17
694.58	1627.08
694.91	1710.69
695.24	1690.35
695.56	1642.89
695.89	1633.86
696.22	1676.79
696.54	1647.41
696.87	1670.01
697.20	1701.65
697.53	1620.30
697.85	1717.47
698.18	1618.04
698.51	1484.71
698.83	1588.66
699.16	1622.56
699.49	1557.02
699.81	1557.02
700.14	1570.58
700.47	1586.40
700.79	1505.05
701.12	1536.68
701.45	1557.02
701.77	1547.98
702.10	1502.79
702.42	1584.14
702.75	1468.89
703.08	1486.97
703.40	1568.32
703.73	1529.90
704.05	1502.79
704.38	1489.23
704.71	1484.71
705.03	1464.37
705.36	1475.67
705.68	1496.01
706.01	1464.37
706.34	1446.29
706.66	1394.31
706.99	1396.57
707.31	1407.87
707.64	1450.81
707.96	1471.15
708.29	1423.69
708.61	1389.79
708.94	1389.79
709.26	1430.47
709.59	1398.83
709.92	1349.12
710.24	1403.35
710.57	1373.98
710.89	1414.65
711.22	1383.01
711.54	1407.87
711.87	1407.87
712.19	1396.57
712.51	1364.94
712.84	1453.07
713.16	1434.99
713.49	1281.32
713.81	1306.18
714.14	1428.21
714.46	1346.86
714.79	1312.96
715.11	1335.56
715.44	1317.48
715.76	1346.86
716.08	1317.48
716.41	1274.54
716.73	1405.61
717.06	1376.24
717.38	1351.38
717.70	1297.14
718.03	1326.52
718.35	1240.65
718.68	1294.88
719.00	1290.36
719.32	1288.10
719.65	1260.98
719.97	1297.14
720.29	1285.84
720.62	1294.88
720.94	1279.06
721.27	1227.09
721.59	1190.93
721.91	1285.84
722.24	1209.01
722.56	1297.14
722.88	1319.74
723.21	1231.61
723.53	1231.61
723.85	1215.79
724.17	1281.32
724.50	1292.62
724.82	1157.03
725.14	1267.76
725.47	1157.03
725.79	1193.19
726.11	1181.89
726.43	1247.42
726.76	1218.05
727.08	1209.01
727.40	1188.67
727.72	1161.55
728.05	1143.47
728.37	1186.41
728.69	1154.77
729.01	1184.15
729.34	1152.51
729.66	1184.15
729.98	1209.01
730.30	1181.89
730.62	1150.25
730.95	1220.31
731.27	1136.69
731.59	1129.91
731.91	1129.91
732.23	1193.19
732.56	1206.75
732.88	1150.25
733.20	1161.55
733.52	1159.29
733.84	1163.81
734.16	1159.29
734.49	1242.91
734.81	1233.87
735.13	1186.41
735.45	1141.21
735.77	1084.72
736.09	1091.50
736.41	1073.42
736.73	1123.13
737.06	1118.61
737.38	1105.06
737.70	1118.61
738.02	1066.64
738.34	1184.15
738.66	1129.91
738.98	1179.63
739.30	1016.92
739.62	1046.30
739.94	1114.10
740.26	1098.28
740.58	1077.94
740.90	1066.64
741.23	1066.64
741.55	1096.02
741.87	1134.43
742.19	1141.21
742.51	1064.38
742.83	1107.32
743.15	1114.10
743.47	1003.36
743.79	1116.35
744.11	1102.80
744.43	1102.80
744.75	1197.71
745.07	1118.61
745.39	1057.60
745.71	1086.98
746.03	1001.10
746.35	1093.76
746.67	1123.13
746.98	1116.35
747.30	1075.68
747.62	1075.68
747.94	1010.14
748.26	1082.46
748.58	1025.96
748.90	1039.52
749.22	1071.16
749.54	1102.80
749.86	1114.10
750.18	1032.74
750.50	1129.91
750.82	1084.72
751.13	1059.86
751.45	1080.20
751.77	1136.69
752.09	1028.22
752.41	998.84
752.73	1028.22
753.05	1025.96
753.36	983.02
753.68	1059.86
754.00	1116.35
754.32	1057.60
754.64	976.25
754.96	1021.44
755.28	1010.14
755.59	1007.88
755.91	1014.66
756.23	1019.18
756.55	958.17
756.87	1075.68
757.18	1003.36
757.50	1016.92
757.82	1091.50
758.14	1109.58
758.45	998.84
758.77	1014.66
759.09	996.58
759.41	1048.56
759.73	1016.92
760.04	960.43
760.36	1012.40
760.68	1025.96
760.99	987.54
761.31	1041.78
761.63	1071.16
761.95	985.28
762.26	971.73
762.58	1100.54
762.90	1048.56
763.21	1003.36
763.53	989.80
763.85	1001.10
764.17	1003.36
764.48	989.80
764.80	1035.00
765.12	976.25
765.43	998.84
765.75	960.43
766.07	989.80
766.38	983.02
766.70	1016.92
767.01	969.47
767.33	1012.40
767.65	980.77
767.96	1046.30
768.28	1025.96
768.60	1001.10
768.91	1048.56
769.23	1028.22
769.54	1050.82
769.86	973.99
770.18	976.25
770.49	980.77
770.81	960.43
771.12	931.05
771.44	1007.88
771.75	987.54
772.07	967.21
772.38	1046.30
772.70	1023.70
773.02	1082.46
773.33	935.57
773.65	1030.48
773.96	971.73
774.28	994.32
774.59	996.58
774.91	953.65
775.22	1055.34
775.54	1028.22
775.85	967.21
776.17	976.25
776.48	985.28
776.80	1014.66
777.11	960.43
777.43	994.32
777.74	1010.14
778.05	1019.18
778.37	978.51
778.68	962.69
779.00	967.21
779.31	971.73
779.63	944.61
779.94	1030.48
780.26	1023.70
780.57	946.87
780.88	962.69
781.20	1014.66
781.51	983.02
781.83	1012.40
782.14	1025.96
782.45	946.87
782.77	964.95
783.08	1025.96
783.39	960.43
783.71	973.99
784.02	958.17
784.34	1037.26
784.65	973.99
784.96	958.17
785.28	958.17
785.59	1005.62
785.90	983.02
786.22	940.09
786.53	958.17
786.84	964.95
787.15	960.43
787.47	960.43
787.78	935.57
788.09	1032.74
788.41	940.09
788.72	955.91
789.03	931.05
789.35	897.15
789.66	989.80
789.97	949.13
790.28	951.39
790.60	933.31
790.91	971.73
791.22	946.87
791.53	1001.10
791.84	969.47
792.16	969.47
792.47	935.57
792.78	935.57
793.09	1012.40
793.41	933.31
793.72	953.65
794.03	942.35
794.34	1035.00
794.65	967.21
794.96	980.77
795.28	998.84
795.59	937.83
795.90	967.21
796.21	926.53
796.52	1007.88
796.83	1019.18
797.15	960.43
797.46	946.87
797.77	983.02
798.08	987.54
798.39	964.95
798.70	989.80
799.01	1012.40
799.32	940.09
799.63	976.25
799.95	903.93
800.26	935.57
800.57	903.93
800.88	901.67
801.19	937.83
801.50	910.71
801.81	894.89
802.12	910.71
802.43	951.39
802.74	915.23
803.05	994.32
803.36	983.02
803.67	931.05
803.98	980.77
804.29	946.87
804.60	935.57
804.91	985.28
805.22	967.21
805.53	1001.10
805.84	897.15
806.15	987.54
806.46	953.65
806.77	944.61
807.08	919.75
807.39	973.99
807.70	933.31
808.01	1010.14
808.32	1007.88
808.63	962.69
808.94	973.99
809.25	951.39
809.56	933.31
809.87	940.09
810.18	944.61
810.49	928.79
810.79	969.47
811.10	883.59
811.41	996.58
811.72	960.43
812.03	958.17
812.34	933.31
812.65	958.17
812.96	949.13
813.27	958.17
813.57	924.27
813.88	922.01
814.19	946.87
814.50	903.93
814.81	908.45
815.12	912.97
815.42	1016.92
815.73	1014.66
816.04	967.21
816.35	946.87
816.66	976.25
816.97	960.43
817.27	1021.44
817.58	899.41
817.89	937.83
818.20	1014.66
818.50	973.99
818.81	915.23
819.12	924.27
819.43	903.93
819.73	969.47
820.04	983.02
820.35	953.65
820.66	922.01
820.96	897.15
821.27	960.43
821.58	885.85
821.89	958.17
822.19	919.75
822.50	960.43
822.81	969.47
823.11	955.91
823.42	926.53
823.73	962.69
824.03	910.71
824.34	940.09
824.65	969.47
824.95	976.25
825.26	931.05
825.57	926.53
825.87	908.45
826.18	901.67
826.49	906.19
826.79	881.33
827.10	885.85
827.40	980.77
827.71	973.99
828.02	944.61
828.32	935.57
828.63	897.15
828.93	865.51
829.24	949.13
829.55	928.79
829.85	942.35
830.16	1014.66
830.46	944.61
830.77	980.77
831.07	885.85
831.38	931.05
831.69	937.83
831.99	931.05
832.30	958.17
832.60	872.29
832.91	928.79
833.21	942.35
833.52	964.95
833.82	922.01
834.13	935.57
834.43	903.93
834.74	919.75
835.04	910.71
835.35	922.01
835.65	899.41
835.96	985.28
836.26	983.02
836.56	951.39
836.87	967.21
837.17	903.93
837.48	919.75
837.78	912.97
838.09	890.37
838.39	980.77
838.69	908.45
839.00	912.97
839.30	906.19
839.61	962.69
839.91	962.69
840.21	910.71
840.52	940.09
840.82	964.95
841.13	944.61
841.43	910.71
841.73	894.89
842.04	989.80
842.34	856.47
842.64	949.13
842.95	951.39
843.25	922.01
843.55	944.61
843.86	879.07
844.16	935.57
844.46	949.13
844.77	949.13
845.07	919.75
845.37	964.95
845.68	973.99
845.98	836.14
846.28	926.53
846.58	912.97
846.89	946.87
847.19	992.06
847.49	980.77
847.79	885.85
848.10	922.01
848.40	962.69
848.70	912.97
849.00	942.35
849.31	881.33
849.61	919.75
849.91	924.27
850.21	881.33
850.51	928.79
850.82	969.47
851.12	892.63
851.42	890.37
851.72	942.35
852.02	910.71
852.32	910.71
852.63	926.53
852.93	890.37
853.23	973.99
853.53	940.09
853.83	917.49
854.13	903.93
854.43	949.13
854.74	960.43
855.04	912.97
855.34	953.65
855.64	928.79
855.94	897.15
856.24	937.83
856.54	935.57
856.84	894.89
857.14	919.75
857.44	906.19
857.74	870.03
858.05	940.09
858.35	928.79
858.65	946.87
858.95	955.91
859.25	944.61
859.55	960.43
859.85	998.84
860.15	899.41
860.45	906.19
860.75	917.49
861.05	940.09
861.35	899.41
861.65	919.75
861.95	940.09
862.25	888.11
862.55	931.05
862.85	917.49
863.15	946.87
863.45	879.07
863.75	924.27
864.05	867.77
864.35	899.41
864.64	926.53
864.94	964.95
865.24	969.47
865.54	901.67
865.84	919.75
866.14	924.27
866.44	924.27
866.74	946.87
867.04	944.61
867.34	996.58
867.64	1023.70
867.93	931.05
868.23	901.67
868.53	890.37
868.83	926.53
869.13	942.35
869.43	897.15
869.73	899.41
870.02	940.09
870.32	910.71
870.62	931.05
870.92	910.71
871.22	876.81
871.51	983.02
871.81	897.15
872.11	890.37
872.41	908.45
872.71	888.11
873.00	928.79
873.30	944.61
873.60	937.83
873.90	935.57
874.19	917.49
874.49	917.49
874.79	998.84
875.09	946.87
875.38	946.87
875.68	942.35
875.98	976.25
876.28	899.41
876.57	971.73
876.87	971.73
877.17	971.73
