174.03	738.96
174.41	738.96
174.78	738.96
175.16	637.27
175.54	668.91
175.92	700.55
176.30	684.73
176.67	693.77
177.05	693.77
177.43	698.29
177.81	777.38
178.19	745.74
178.56	784.16
178.94	738.96
179.32	806.76
179.70	858.73
180.08	876.81
180.45	894.89
180.83	842.92
181.21	888.11
181.59	931.05
181.96	831.62
182.34	892.63
182.72	1066.64
183.10	1030.48
183.48	1064.38
183.85	1157.03
184.23	1197.71
184.61	1143.47
184.99	1068.90
185.36	1177.37
185.74	1195.45
186.12	1129.91
186.50	1159.29
186.87	1202.23
187.25	1195.45
187.63	1170.59
188.01	1238.39
188.38	1265.50
188.76	1168.33
189.14	1211.27
189.52	1202.23
189.89	1245.16
190.27	1188.67
190.65	1229.35
191.02	1195.45
191.40	1211.27
191.78	1143.47
192.16	1181.89
192.53	1154.77
192.91	1190.93
193.29	1199.97
193.66	1154.77
194.04	1138.95
194.42	1213.53
194.79	1129.91
195.17	1120.87
195.55	1245.16
195.93	1125.39
196.30	1218.05
196.68	1152.51
197.06	1193.19
197.43	1150.25
197.81	1118.61
198.19	1111.84
198.56	1129.91
198.94	1181.89
199.32	1179.63
199.69	1089.24
200.07	1159.29
200.45	1143.47
200.82	1145.73
201.20	1168.33
201.58	1220.31
201.95	1211.27
202.33	1213.53
202.71	1220.31
203.08	1202.23
203.46	1172.85
203.84	1227.09
204.21	1224.83
204.59	1206.75
204.96	1186.41
205.34	1199.97
205.72	1107.32
206.09	1143.47
206.47	1152.51
206.85	1227.09
207.22	1105.06
207.60	1190.93
207.97	1132.17
208.35	1136.69
208.73	1166.07
209.10	1213.53
209.48	1190.93
209.85	1222.57
210.23	1152.51
210.61	1199.97
210.98	1188.67
211.36	1260.98
211.73	1251.94
212.11	1202.23
212.49	1166.07
212.86	1172.85
213.24	1211.27
213.61	1222.57
213.99	1272.28
214.37	1206.75
214.74	1240.65
215.12	1215.79
215.49	1220.31
215.87	1181.89
216.24	1238.39
216.62	1202.23
216.99	1206.75
217.37	1184.15
217.75	1177.37
218.12	1159.29
218.50	1258.72
218.87	1285.84
219.25	1177.37
219.62	1199.97
220.00	1209.01
220.37	1224.83
220.75	1172.85
221.12	1132.17
221.50	1224.83
221.87	1263.24
222.25	1197.71
222.63	1247.42
223.00	1181.89
223.38	1215.79
223.75	1204.49
224.13	1222.57
224.50	1260.98
224.88	1251.94
225.25	1238.39
225.63	1265.50
226.00	1299.40
226.38	1227.09
226.75	1199.97
227.13	1236.13
227.50	1229.35
227.88	1245.16
228.25	1260.98
228.63	1290.36
229.00	1184.15
229.37	1247.42
229.75	1247.42
230.12	1270.02
230.50	1251.94
230.87	1193.19
231.25	1218.05
231.62	1249.68
232.00	1245.16
232.37	1322.00
232.75	1315.22
233.12	1292.62
233.50	1265.50
233.87	1294.88
234.24	1260.98
234.62	1283.58
234.99	1281.32
235.37	1342.34
235.74	1222.57
236.12	1238.39
236.49	1247.42
236.86	1258.72
237.24	1247.42
237.61	1326.52
237.99	1299.40
238.36	1301.66
238.74	1322.00
239.11	1297.14
239.48	1270.02
239.86	1256.46
240.23	1371.72
240.61	1297.14
240.98	1263.24
241.35	1290.36
241.73	1251.94
242.10	1335.56
242.48	1251.94
242.85	1258.72
243.22	1342.34
243.60	1351.38
243.97	1299.40
244.34	1299.40
244.72	1362.68
245.09	1270.02
245.47	1340.08
245.84	1204.49
246.21	1308.44
246.59	1283.58
246.96	1290.36
247.33	1224.83
247.71	1254.20
248.08	1331.04
248.45	1315.22
248.83	1310.70
249.20	1227.09
249.57	1256.46
249.95	1383.01
250.32	1331.04
250.69	1310.70
251.07	1299.40
251.44	1263.24
251.81	1337.82
252.19	1274.54
252.56	1353.64
252.93	1310.70
253.31	1274.54
253.68	1407.87
254.05	1236.13
254.43	1344.60
254.80	1285.84
255.17	1355.90
255.55	1378.49
255.92	1267.76
256.29	1369.46
256.66	1335.56
257.04	1364.94
257.41	1344.60
257.78	1317.48
258.16	1292.62
258.53	1317.48
258.90	1324.26
259.27	1317.48
259.65	1378.49
260.02	1349.12
260.39	1378.49
260.76	1364.94
261.14	1362.68
261.51	1450.81
261.88	1394.31
262.25	1364.94
262.63	1270.02
263.00	1333.30
263.37	1364.94
263.74	1364.94
264.12	1367.20
264.49	1396.57
264.86	1394.31
265.23	1358.16
265.61	1337.82
265.98	1322.00
266.35	1306.18
266.72	1310.70
267.09	1331.04
267.47	1353.64
267.84	1410.13
268.21	1326.52
268.58	1319.74
268.95	1333.30
269.33	1410.13
269.70	1297.14
270.07	1337.82
270.44	1380.75
270.81	1378.49
271.19	1319.74
271.56	1310.70
271.93	1270.02
272.30	1412.39
272.67	1322.00
273.05	1432.73
273.42	1385.27
273.79	1364.94
274.16	1401.09
274.53	1401.09
274.90	1367.20
275.28	1337.82
275.65	1335.56
276.02	1344.60
276.39	1383.01
276.76	1326.52
277.13	1328.78
277.50	1410.13
277.88	1437.25
278.25	1355.90
278.62	1412.39
278.99	1434.99
279.36	1412.39
279.73	1351.38
280.10	1376.24
280.47	1371.72
280.85	1432.73
281.22	1349.12
281.59	1432.73
281.96	1312.96
282.33	1351.38
282.70	1371.72
283.07	1385.27
283.44	1371.72
283.81	1455.33
284.18	1437.25
284.56	1410.13
284.93	1446.29
285.30	1491.49
285.67	1403.35
286.04	1389.79
286.41	1401.09
286.78	1462.11
287.15	1529.90
287.52	1412.39
287.89	1403.35
288.26	1378.49
288.63	1425.95
289.00	1344.60
289.37	1486.97
289.75	1376.24
290.12	1450.81
290.49	1489.23
290.86	1412.39
291.23	1380.75
291.60	1475.67
291.97	1444.03
292.34	1444.03
292.71	1464.37
293.08	1416.91
293.45	1444.03
293.82	1446.29
294.19	1500.53
294.56	1554.76
294.93	1511.82
295.30	1502.79
295.67	1482.45
296.04	1441.77
296.41	1396.57
296.78	1534.42
297.15	1527.64
297.52	1502.79
297.89	1505.05
298.26	1464.37
298.63	1509.56
299.00	1538.94
299.37	1450.81
299.74	1491.49
300.11	1453.07
300.48	1523.12
300.85	1493.75
301.22	1552.50
301.59	1430.47
301.96	1464.37
302.33	1529.90
302.70	1439.51
303.07	1480.19
303.43	1491.49
303.80	1554.76
304.17	1489.23
304.54	1577.36
304.91	1572.84
305.28	1527.64
305.65	1552.50
306.02	1534.42
306.39	1509.56
306.76	1599.96
307.13	1484.71
307.50	1550.24
307.87	1579.62
308.24	1532.16
308.60	1561.54
308.97	1561.54
309.34	1563.80
309.71	1604.48
310.08	1554.76
310.45	1588.66
310.82	1563.80
311.19	1568.32
311.56	1554.76
311.92	1586.40
312.29	1620.30
312.66	1554.76
313.03	1550.24
313.40	1613.52
313.77	1536.68
314.14	1618.04
314.51	1554.76
314.87	1613.52
315.24	1631.60
315.61	1681.31
315.98	1633.86
316.35	1547.98
316.72	1613.52
317.09	1656.45
317.45	1658.71
317.82	1604.48
318.19	1593.18
318.56	1674.53
318.93	1627.08
319.30	1690.35
319.66	1577.36
320.03	1629.34
320.40	1563.80
320.77	1654.19
321.14	1618.04
321.50	1640.63
321.87	1703.91
322.24	1593.18
322.61	1665.49
322.98	1604.48
323.34	1679.05
323.71	1613.52
324.08	1642.89
324.45	1604.48
324.82	1658.71
325.18	1654.19
325.55	1728.77
325.92	1627.08
326.29	1647.41
326.65	1606.74
327.02	1674.53
327.39	1672.27
327.76	1638.38
328.12	1692.61
328.49	1694.87
328.86	1618.04
329.23	1640.63
329.59	1665.49
329.96	1665.49
330.33	1656.45
330.70	1697.13
331.06	1647.41
331.43	1599.96
331.80	1742.33
332.17	1719.73
332.53	2135.54
332.90	1742.33
333.27	1758.15
333.63	1816.90
334.00	1814.64
334.37	1875.66
334.74	1769.44
335.10	1780.74
335.47	1796.56
335.84	1789.78
336.20	1832.72
336.57	1855.32
336.94	1796.56
337.30	1728.77
337.67	1749.11
338.04	1810.12
338.40	1859.84
338.77	1776.22
339.14	1893.74
339.50	1828.20
339.87	1882.44
340.24	1882.44
340.60	1882.44
340.97	1905.03
341.34	1954.75
341.70	1966.05
342.07	1825.94
342.44	1859.84
342.80	1841.76
343.17	1934.41
343.53	1893.74
343.90	1918.59
344.27	1898.26
344.63	1932.15
345.00	1891.48
345.37	1950.23
345.73	1932.15
346.10	1934.41
346.46	1911.81
346.83	1936.67
347.20	1993.17
347.56	2090.34
347.93	1970.57
348.29	1984.13
348.66	1999.95
349.03	1970.57
349.39	2070.00
349.76	1997.69
350.12	2006.73
350.49	2076.78
350.85	2103.90
351.22	2072.26
351.59	2063.22
351.95	2106.16
352.32	2103.90
352.68	2115.20
353.05	2079.04
353.41	2106.16
353.78	2090.34
354.14	2182.99
354.51	2169.43
354.88	2244.01
355.24	2149.10
355.61	2194.29
355.97	2210.11
356.34	2131.02
356.70	2115.20
357.07	2185.25
357.43	2295.98
357.80	2262.09
358.16	2338.92
358.53	2343.44
358.89	2395.42
359.26	2275.65
359.62	2302.76
359.99	2350.22
360.35	2438.35
360.72	2354.74
361.08	2499.37
361.45	2474.51
361.81	2551.35
362.18	2571.68
362.54	2488.07
362.91	2594.28
363.27	2603.32
363.63	2727.61
364.00	2723.09
364.36	2732.13
364.73	2729.87
365.09	2689.19
365.46	2709.53
365.82	2677.90
366.19	2723.09
366.55	2854.16
366.91	2833.82
367.28	2881.28
367.64	2845.12
368.01	2892.58
368.37	2908.40
368.74	2906.14
369.10	2910.66
369.46	3023.65
369.83	3132.12
370.19	3159.24
370.56	3274.49
370.92	3206.70
371.28	3258.67
371.65	3279.01
372.01	3504.99
372.38	3529.85
372.74	3651.88
373.10	3502.73
373.47	3832.67
373.83	3909.50
374.19	4126.45
374.56	3956.96
374.92	4036.05
375.29	4013.45
375.65	4214.58
376.01	4246.22
376.38	4365.99
376.74	4478.98
377.10	4591.97
377.47	4813.43
377.83	5001.00
378.19	5333.19
378.56	5595.33
378.92	5701.54
379.28	5889.11
379.65	6347.86
380.01	6693.61
380.37	7066.48
380.74	7342.18
381.10	8160.24
381.46	8569.27
381.83	9473.20
382.19	9708.22
382.55	10609.89
382.91	11461.85
383.28	12090.08
383.64	13644.84
384.00	14401.88
384.37	15784.90
384.73	17344.18
385.09	18435.67
385.45	20311.33
385.82	22295.46
386.18	24618.56
386.54	27221.88
386.91	29495.27
387.27	32674.85
387.63	36193.40
387.99	38728.93
388.36	42202.28
388.72	46498.21
389.08	50188.51
389.44	53257.36
389.80	56118.30
390.17	58430.10
390.53	61309.12
390.89	64131.65
391.25	65478.50
391.62	65535.00
391.98	65535.00
392.34	65535.00
392.70	65535.00
393.06	65535.00
393.43	65535.00
393.79	65535.00
394.15	65535.00
394.51	65535.00
394.87	65535.00
395.24	65535.00
395.60	65535.00
395.96	65535.00
396.32	65535.00
396.68	65535.00
397.04	65535.00
397.41	65535.00
397.77	65535.00
398.13	65535.00
398.49	65535.00
398.85	65535.00
399.21	65535.00
399.58	65535.00
399.94	65535.00
400.30	65535.00
400.66	65535.00
401.02	65535.00
401.38	65535.00
401.74	65535.00
402.11	65535.00
402.47	65535.00
402.83	65535.00
403.19	65535.00
403.55	65535.00
403.91	65535.00
404.27	65535.00
404.63	65535.00
404.99	65535.00
405.35	65535.00
405.72	65535.00
406.08	65535.00
406.44	65535.00
406.80	65535.00
407.16	65535.00
407.52	65535.00
407.88	65535.00
408.24	65535.00
408.60	65535.00
408.96	65535.00
409.32	65535.00
409.68	65535.00
410.04	65535.00
410.40	65535.00
410.76	65535.00
411.13	65535.00
411.49	65535.00
411.85	65535.00
412.21	65535.00
412.57	65535.00
412.93	65535.00
413.29	65535.00
413.65	65535.00
414.01	65535.00
414.37	65535.00
414.73	65535.00
415.09	65535.00
415.45	65535.00
415.81	65535.00
416.17	65535.00
416.53	65535.00
416.89	65535.00
417.25	65535.00
417.61	65535.00
417.97	65535.00
418.33	65535.00
418.69	65535.00
419.05	65535.00
419.41	65535.00
419.77	65535.00
420.12	65535.00
420.48	65535.00
420.84	65535.00
421.20	65535.00
421.56	65535.00
421.92	65535.00
422.28	65535.00
422.64	65535.00
423.00	65535.00
423.36	65535.00
423.72	65535.00
424.08	65535.00
424.44	65535.00
424.80	65535.00
425.16	65535.00
425.51	65535.00
425.87	65535.00
426.23	65535.00
426.59	65535.00
426.95	65535.00
427.31	65535.00
427.67	65535.00
428.03	65535.00
428.39	65535.00
428.74	65535.00
429.10	63926.00
429.46	62784.79
429.82	61227.77
430.18	60104.63
430.54	59083.19
430.90	58653.82
431.26	56823.36
431.61	54886.69
431.97	53429.10
432.33	52484.50
432.69	51856.26
433.05	49275.54
433.41	46794.25
433.76	45820.26
434.12	44353.64
434.48	42019.23
434.84	40245.27
435.20	38604.63
435.55	37558.33
435.91	35379.86
436.27	34087.24
436.63	32946.03
436.99	31716.68
437.34	29886.22
437.70	29280.59
438.06	27775.54
438.42	25976.72
438.78	25258.09
439.13	24573.37
439.49	23685.25
439.85	22042.36
440.21	21461.58
440.56	20385.90
440.92	19312.49
441.28	18376.92
441.64	17956.59
441.99	17115.93
442.35	16413.13
442.71	15450.44
443.07	15319.37
443.42	14424.48
443.78	13956.70
444.14	13771.39
444.50	13281.01
444.85	12648.26
445.21	12467.47
445.57	11895.73
445.93	11292.36
446.28	10815.53
446.64	10725.14
447.00	10551.14
447.35	10731.92
447.71	10187.30
448.07	10056.23
448.42	9493.54
448.78	9217.84
449.14	8677.74
449.49	8393.00
449.85	8255.15
450.21	7959.11
450.56	7545.56
450.92	7030.32
451.28	6876.66
451.63	7193.03
451.99	6840.50
452.35	6802.08
452.70	6524.12
453.06	6151.25
453.42	5841.65
453.77	5780.64
454.13	5579.51
454.49	5380.65
454.84	5312.85
455.20	5048.45
455.55	4987.44
455.91	5059.75
456.27	5077.83
456.62	4734.34
456.98	4469.94
457.33	4289.15
457.69	4228.14
458.05	4072.21
458.40	3968.26
458.76	3782.95
459.11	3749.05
459.47	3742.27
459.83	3575.05
460.18	3552.45
460.54	3493.69
460.89	3504.99
461.25	3401.04
461.60	3274.49
461.96	3222.51
462.31	3136.64
462.67	3055.29
463.03	2982.97
463.38	3077.89
463.74	2926.48
464.09	2937.78
464.45	2955.85
464.80	2788.63
465.16	2752.47
465.51	2761.51
465.87	2727.61
466.22	2671.12
466.58	2589.76
466.93	2580.72
467.29	2612.36
467.64	2560.38
468.00	2558.12
468.35	2578.46
468.71	2479.03
469.06	2413.50
469.42	2492.59
469.77	2429.31
470.13	2327.62
470.48	2277.91
470.84	2262.09
471.19	2345.70
471.54	2205.59
471.90	2234.97
472.25	2228.19
472.61	2248.53
472.96	2173.95
473.32	2164.91
473.67	2173.95
474.03	2167.17
474.38	2153.62
474.73	2065.48
475.09	2085.82
475.44	2090.34
475.80	2124.24
476.15	2133.28
476.50	2058.70
476.86	2027.07
477.21	2049.66
477.57	1995.43
477.92	2079.04
478.27	1952.49
478.63	1968.31
478.98	1952.49
479.34	1898.26
479.69	1920.85
480.04	2031.58
480.40	1959.27
480.75	1957.01
481.10	1877.92
481.46	1830.46
481.81	1891.48
482.16	1929.89
482.52	1862.10
482.87	1916.33
483.22	1873.40
483.58	1839.50
483.93	1819.16
484.28	1841.76
484.64	1866.62
484.99	1834.98
485.34	1886.96
485.70	1862.10
486.05	1864.36
486.40	1857.58
486.76	1825.94
487.11	1837.24
487.46	1792.04
487.81	1796.56
488.17	1850.80
488.52	1776.22
488.87	1776.22
489.23	1848.54
489.58	1760.41
489.93	1758.15
490.28	1821.42
490.64	1780.74
490.99	1755.89
491.34	1751.37
491.69	1778.48
492.05	1805.60
492.40	1776.22
492.75	1719.73
493.10	1812.38
493.46	1773.96
493.81	1670.01
494.16	1778.48
494.51	1762.67
494.86	1773.96
495.22	1731.03
495.57	1771.70
495.92	1801.08
496.27	1703.91
496.62	1807.86
496.98	1841.76
497.33	1853.06
497.68	1837.24
498.03	1801.08
498.38	1785.26
498.74	1862.10
499.09	1830.46
499.44	1846.28
499.79	1877.92
500.14	1771.70
500.49	1866.62
500.85	1920.85
501.20	1954.75
501.55	1909.55
501.90	1993.17
502.25	2008.99
502.60	1938.93
502.95	2115.20
503.30	2049.66
503.66	2076.78
504.01	2151.36
504.36	2110.68
504.71	2160.40
505.06	2167.17
505.41	2259.83
505.76	2194.29
506.11	2277.91
506.46	2350.22
506.82	2314.06
507.17	2327.62
507.52	2359.26
507.87	2445.13
508.22	2551.35
508.57	2580.72
508.92	2524.23
509.27	2598.80
509.62	2614.62
509.97	2668.86
510.32	2616.88
510.67	2745.69
511.02	2775.07
511.37	2978.45
511.72	2885.80
512.07	2960.37
512.42	2976.19
512.77	2935.52
513.12	3082.40
513.47	3215.73
513.82	3303.87
514.17	3401.04
514.52	3346.80
514.87	3367.14
515.22	3471.10
515.57	3495.95
515.92	3629.28
516.27	3688.04
516.62	3728.72
516.97	3708.38
517.32	3805.55
517.67	3909.50
518.02	3984.08
518.37	3968.26
518.72	4042.83
519.07	4140.00
519.42	4103.85
519.77	4214.58
520.12	4277.85
520.47	4458.64
520.82	4388.59
521.17	4402.14
521.52	4573.89
521.87	4619.09
522.22	4691.40
522.56	4616.83
522.91	4718.52
523.26	4777.28
523.61	4822.47
523.96	4894.79
524.31	4967.10
524.66	4921.90
525.01	5123.03
525.36	5048.45
525.71	5152.41
526.05	5168.23
526.40	5181.78
526.75	5215.68
527.10	5349.01
527.45	5319.63
527.80	5400.99
528.15	5441.66
528.49	5473.30
528.84	5572.73
529.19	5538.84
529.54	5504.94
529.89	5651.83
530.24	5565.96
530.58	5620.19
530.93	5737.70
531.28	5744.48
531.63	5771.60
531.98	5776.12
532.33	5737.70
532.67	5857.47
533.02	5821.32
533.37	5787.42
533.72	5882.33
534.07	5952.39
534.41	5981.76
534.76	5791.94
535.11	5911.71
535.46	5902.67
535.80	5945.61
536.15	5762.56
536.50	5907.19
536.85	5744.48
537.19	5938.83
537.54	5923.01
537.89	5875.55
538.24	5796.46
538.58	5841.65
538.93	5918.49
539.28	5913.97
539.63	5848.43
539.97	6087.98
540.32	5812.28
540.67	5703.80
541.01	5875.55
541.36	5902.67
541.71	5925.27
542.06	5721.88
542.40	5913.97
542.75	5631.49
543.10	5787.42
543.44	5769.34
543.79	5787.42
544.14	5785.16
544.48	5717.36
544.83	5739.96
545.18	5803.24
545.52	5699.29
545.87	5672.17
546.22	5710.58
546.56	5611.15
546.91	5656.35
547.25	5676.69
547.60	5629.23
547.95	5597.59
548.29	5459.74
548.64	5475.56
548.99	5518.50
549.33	5568.22
549.68	5509.46
550.02	5462.00
550.37	5428.11
550.72	5572.73
551.06	5577.25
551.41	5475.56
551.75	5504.94
552.10	5493.64
552.45	5344.49
552.79	5245.06
553.14	5414.55
553.48	5220.20
553.83	5170.49
554.17	5299.30
554.52	5292.52
554.87	5247.32
555.21	5263.14
555.56	5156.93
555.90	5102.69
556.25	5089.13
556.59	5111.73
556.94	5141.11
557.28	5154.67
557.63	5267.66
557.97	5150.15
558.32	5039.42
558.66	5077.83
559.01	4976.14
559.35	5068.79
559.70	5095.91
560.04	4985.18
560.39	4892.53
560.73	4949.02
561.08	4849.59
561.42	4845.07
561.77	4829.25
562.11	4799.87
562.46	5023.60
562.80	4797.61
563.14	4885.75
563.49	4786.31
563.83	4817.95
564.18	4806.65
564.52	4700.44
564.87	4829.25
565.21	4826.99
565.56	4709.48
565.90	4702.70
566.24	4709.48
566.59	4752.42
566.93	4530.95
567.28	4634.91
567.62	4591.97
567.96	4558.07
568.31	4510.62
568.65	4530.95
569.00	4711.74
569.34	4558.07
569.68	4526.43
570.03	4546.77
570.37	4510.62
570.71	4431.52
571.06	4494.80
571.40	4393.10
571.74	4402.14
572.09	4456.38
572.43	4440.56
572.78	4356.95
573.12	4318.53
573.46	4253.00
573.80	4361.47
574.15	4420.22
574.49	4320.79
574.83	4221.36
575.18	4268.81
575.52	4117.41
575.86	4173.90
576.21	4169.38
576.55	4214.58
576.89	4085.77
577.24	4196.50
577.58	4140.00
577.92	3986.34
578.26	4031.53
578.61	4045.09
578.95	4133.22
579.29	3972.78
579.63	3853.01
579.98	3938.88
580.32	4040.57
580.66	3902.72
581.00	3868.82
581.35	3932.10
581.69	3825.89
582.03	3950.18
582.37	3837.19
582.72	3742.27
583.06	3814.59
583.40	3726.46
583.74	3782.95
584.08	3690.30
584.43	3703.86
584.77	3719.68
585.11	3685.78
585.45	3726.46
585.79	3676.74
586.13	3656.40
586.48	3645.10
586.82	3575.05
587.16	3495.95
587.50	3570.53
587.84	3523.07
588.18	3425.90
588.53	3441.72
588.87	3450.76
589.21	3401.04
589.55	3351.32
589.89	3369.40
590.23	3428.16
590.57	3353.58
590.92	3342.28
591.26	3285.79
591.60	3344.54
591.94	3310.65
592.28	3208.96
592.62	3412.34
592.96	3233.81
593.30	3193.14
593.64	3145.68
593.98	3141.16
594.32	3242.85
594.67	3217.99
595.01	3129.86
595.35	3147.94
595.69	3089.18
596.03	3086.92
596.37	3091.44
596.71	3073.37
597.05	3021.39
597.39	3032.69
597.73	2903.88
598.07	2946.82
598.41	2888.06
598.75	2964.89
599.09	2937.78
599.43	2890.32
599.77	2897.10
600.11	2897.10
600.45	2915.18
600.79	2935.52
601.13	2879.02
601.47	2836.08
601.81	2756.99
602.15	2867.72
602.49	2795.41
602.83	2673.38
603.17	2793.15
603.51	2747.95
603.85	2736.65
604.19	2634.96
604.53	2691.45
604.87	2612.36
605.21	2598.80
605.55	2648.52
605.89	2691.45
606.23	2542.31
606.56	2569.42
606.90	2553.61
607.24	2555.86
607.58	2542.31
607.92	2549.09
608.26	2634.96
608.60	2506.15
608.94	2458.69
609.28	2485.81
609.62	2512.93
609.95	2415.76
610.29	2445.13
610.63	2431.57
610.97	2307.28
611.31	2323.10
611.65	2316.32
611.99	2271.13
612.33	2250.79
612.66	2320.84
613.00	2327.62
613.34	2341.18
613.68	2182.99
614.02	2257.57
614.36	2255.31
614.69	2320.84
615.03	2262.09
615.37	2302.76
615.71	2117.46
616.05	2173.95
616.38	2171.69
616.72	2194.29
617.06	2259.83
617.40	2079.04
617.74	2115.20
618.07	2146.84
618.41	2051.92
618.75	2108.42
619.09	2081.30
619.42	2056.44
619.76	2137.80
620.10	2115.20
620.44	2067.74
620.77	2076.78
621.11	2151.36
621.45	2097.12
621.79	1986.39
622.12	1997.69
622.46	1977.35
622.80	1968.31
623.13	2070.00
623.47	2070.00
623.81	1993.17
624.15	2013.51
624.48	1941.19
624.82	1993.17
625.16	1961.53
625.49	1884.70
625.83	1981.87
626.17	1864.36
626.50	1932.15
626.84	1945.71
627.18	2027.07
627.51	1880.18
627.85	1986.39
628.19	1923.11
628.52	1909.55
628.86	1875.66
629.20	1873.40
629.53	1855.32
629.87	1844.02
630.20	1807.86
630.54	1884.70
630.88	1746.85
631.21	1830.46
631.55	1780.74
631.89	1803.34
632.22	1751.37
632.56	1821.42
632.89	1726.51
633.23	1755.89
633.56	1744.59
633.90	1658.71
634.24	1794.30
634.57	1692.61
634.91	1746.85
635.24	1760.41
635.58	1780.74
635.91	1751.37
636.25	1685.83
636.58	1758.15
636.92	1606.74
637.26	1640.63
637.59	1694.87
637.93	1672.27
638.26	1706.17
638.60	1633.86
638.93	1744.59
639.27	1638.38
639.60	1624.82
639.94	1665.49
640.27	1636.12
640.61	1579.62
640.94	1615.78
641.28	1629.34
641.61	1563.80
641.94	1527.64
642.28	1640.63
642.61	1588.66
642.95	1676.79
643.28	1606.74
643.62	1588.66
643.95	1579.62
644.29	1590.92
644.62	1500.53
644.95	1599.96
645.29	1514.08
645.62	1547.98
645.96	1559.28
646.29	1545.72
646.63	1471.15
646.96	1475.67
647.29	1529.90
647.63	1489.23
647.96	1520.86
648.29	1516.34
648.63	1446.29
648.96	1459.85
649.30	1439.51
649.63	1518.60
649.96	1505.05
650.30	1432.73
650.63	1450.81
650.96	1430.47
651.30	1493.75
651.63	1459.85
651.96	1489.23
652.30	1380.75
652.63	1396.57
652.96	1414.65
653.30	1394.31
653.63	1407.87
653.96	1398.83
654.30	1455.33
654.63	1423.69
654.96	1383.01
655.29	1394.31
655.63	1364.94
655.96	1380.75
656.29	1455.33
656.63	1322.00
656.96	1407.87
657.29	1405.61
657.62	1373.98
657.96	1312.96
658.29	1322.00
658.62	1346.86
658.95	1326.52
659.29	1389.79
659.62	1328.78
659.95	1297.14
660.28	1392.05
660.61	1317.48
660.95	1355.90
661.28	1308.44
661.61	1340.08
661.94	1315.22
662.27	1317.48
662.61	1267.76
662.94	1310.70
663.27	1249.68
663.60	1254.20
663.93	1256.46
664.27	1265.50
664.60	1218.05
664.93	1215.79
665.26	1258.72
665.59	1224.83
665.92	1355.90
666.25	1251.94
666.59	1179.63
666.92	1263.24
667.25	1206.75
667.58	1283.58
667.91	1290.36
668.24	1283.58
668.57	1285.84
668.90	1251.94
669.23	1322.00
669.57	1260.98
669.90	1220.31
670.23	1222.57
670.56	1179.63
670.89	1245.16
671.22	1240.65
671.55	1152.51
671.88	1222.57
672.21	1251.94
672.54	1215.79
672.87	1181.89
673.20	1186.41
673.53	1154.77
673.86	1170.59
674.19	1263.24
674.52	1233.87
674.85	1184.15
675.18	1186.41
675.51	1197.71
675.84	1147.99
676.17	1222.57
676.50	1159.29
676.83	1125.39
677.16	1197.71
677.49	1147.99
677.82	1190.93
678.15	1202.23
678.48	1193.19
678.81	1177.37
679.14	1170.59
679.47	1206.75
679.80	1096.02
680.13	1204.49
680.46	1143.47
680.79	1120.87
681.12	1150.25
681.45	1157.03
681.78	1141.21
682.11	1046.30
682.44	1096.02
682.77	1114.10
683.09	1102.80
683.42	1159.29
683.75	1098.28
684.08	1053.08
684.41	1136.69
684.74	1118.61
685.07	1080.20
685.40	1134.43
685.72	1125.39
686.05	1132.17
686.38	1143.47
686.71	1062.12
687.04	1123.13
687.37	1141.21
687.70	1066.64
688.02	1068.90
688.35	1093.76
688.68	1136.69
689.01	1111.84
689.34	1116.35
689.67	1105.06
689.99	1098.28
690.32	1147.99
690.65	1102.80
690.98	1111.84
691.30	1037.26
691.63	1066.64
691.96	1116.35
692.29	1071.16
692.62	1005.62
692.94	1141.21
693.27	1059.86
693.60	1028.22
693.93	1032.74
694.25	1086.98
694.58	1032.74
694.91	1030.48
695.24	1100.54
695.56	1143.47
695.89	1025.96
696.22	1062.12
696.54	1073.42
696.87	1007.88
697.20	1100.54
697.53	1025.96
697.85	1086.98
698.18	1039.52
698.51	1046.30
698.83	1077.94
699.16	1077.94
699.49	1066.64
699.81	1041.78
700.14	933.31
700.47	976.25
700.79	987.54
701.12	971.73
701.45	1077.94
701.77	1019.18
702.10	996.58
702.42	1059.86
702.75	1005.62
703.08	987.54
703.40	1050.82
703.73	1032.74
704.05	983.02
704.38	1037.26
704.71	1055.34
705.03	1023.70
705.36	994.32
705.68	1093.76
706.01	998.84
706.34	949.13
706.66	1010.14
706.99	1028.22
707.31	951.39
707.64	1007.88
707.96	978.51
708.29	987.54
708.61	1007.88
708.94	1025.96
709.26	994.32
709.59	1021.44
709.92	994.32
710.24	1030.48
710.57	998.84
710.89	1025.96
711.22	958.17
711.54	1016.92
711.87	987.54
712.19	1019.18
712.51	967.21
712.84	983.02
713.16	1057.60
713.49	955.91
713.81	1053.08
714.14	1010.14
714.46	1019.18
714.79	985.28
715.11	1007.88
715.44	978.51
715.76	1014.66
716.08	983.02
716.41	978.51
716.73	998.84
717.06	955.91
717.38	967.21
717.70	1007.88
718.03	1021.44
718.35	1007.88
718.68	1019.18
719.00	1001.10
719.32	1010.14
719.65	1012.40
719.97	1039.52
720.29	942.35
720.62	962.69
720.94	1023.70
721.27	955.91
721.59	983.02
721.91	1044.04
722.24	951.39
722.56	951.39
722.88	976.25
723.21	953.65
723.53	935.57
723.85	949.13
724.17	912.97
724.50	969.47
724.82	922.01
725.14	1012.40
725.47	1007.88
725.79	942.35
726.11	998.84
726.43	964.95
726.76	998.84
727.08	1003.36
727.40	976.25
727.72	960.43
728.05	996.58
728.37	973.99
728.69	949.13
729.01	955.91
729.34	976.25
729.66	1021.44
729.98	1016.92
730.30	1003.36
730.62	935.57
730.95	944.61
731.27	996.58
731.59	983.02
731.91	964.95
732.23	940.09
732.56	994.32
732.88	908.45
733.20	924.27
733.52	944.61
733.84	967.21
734.16	912.97
734.49	912.97
734.81	940.09
735.13	901.67
735.45	951.39
735.77	1010.14
736.09	1007.88
736.41	987.54
736.73	960.43
737.06	1001.10
737.38	969.47
737.70	960.43
738.02	980.77
738.34	953.65
738.66	973.99
738.98	924.27
739.30	960.43
739.62	992.06
739.94	985.28
740.26	955.91
740.58	980.77
740.90	969.47
741.23	946.87
741.55	931.05
741.87	915.23
742.19	971.73
742.51	949.13
742.83	967.21
743.15	958.17
743.47	935.57
743.79	1003.36
744.11	964.95
744.43	919.75
744.75	953.65
745.07	973.99
745.39	1003.36
745.71	940.09
746.03	962.69
746.35	953.65
746.67	946.87
746.98	926.53
747.30	1010.14
747.62	1001.10
747.94	924.27
748.26	915.23
748.58	946.87
748.90	944.61
749.22	1044.04
749.54	973.99
749.86	994.32
750.18	942.35
750.50	937.83
750.82	935.57
751.13	953.65
751.45	944.61
751.77	983.02
752.09	946.87
752.41	967.21
752.73	935.57
753.05	935.57
753.36	989.80
753.68	985.28
754.00	1014.66
754.32	1001.10
754.64	931.05
754.96	958.17
755.28	967.21
755.59	883.59
755.91	912.97
756.23	915.23
756.55	978.51
756.87	1023.70
757.18	971.73
757.50	958.17
757.82	958.17
758.14	931.05
758.45	962.69
758.77	958.17
759.09	985.28
759.41	922.01
759.73	996.58
760.04	951.39
760.36	958.17
760.68	992.06
760.99	915.23
761.31	1001.10
761.63	942.35
761.95	953.65
762.26	935.57
762.58	953.65
762.90	946.87
763.21	935.57
763.53	1007.88
763.85	962.69
764.17	958.17
764.48	926.53
764.80	985.28
765.12	917.49
765.43	946.87
765.75	976.25
766.07	899.41
766.38	978.51
766.70	944.61
767.01	874.55
767.33	912.97
767.65	944.61
767.96	944.61
768.28	969.47
768.60	946.87
768.91	953.65
769.23	908.45
769.54	976.25
769.86	946.87
770.18	881.33
770.49	980.77
770.81	894.89
771.12	933.31
771.44	919.75
771.75	922.01
772.07	962.69
772.38	937.83
772.70	942.35
773.02	933.31
773.33	937.83
773.65	876.81
773.96	890.37
774.28	931.05
774.59	919.75
774.91	946.87
775.22	910.71
775.54	953.65
775.85	935.57
776.17	962.69
776.48	867.77
776.80	901.67
777.11	924.27
777.43	944.61
777.74	951.39
778.05	964.95
778.37	953.65
778.68	978.51
779.00	940.09
779.31	1007.88
779.63	978.51
779.94	973.99
780.26	910.71
780.57	926.53
780.88	969.47
781.20	892.63
781.51	994.32
781.83	969.47
782.14	931.05
782.45	903.93
782.77	942.35
783.08	890.37
783.39	960.43
783.71	944.61
784.02	894.89
784.34	951.39
784.65	910.71
784.96	926.53
785.28	922.01
785.59	960.43
785.90	942.35
786.22	955.91
786.53	933.31
786.84	973.99
787.15	935.57
787.47	1003.36
787.78	949.13
788.09	953.65
788.41	980.77
788.72	989.80
789.03	953.65
789.35	962.69
789.66	912.97
789.97	901.67
790.28	949.13
790.60	908.45
790.91	951.39
791.22	922.01
791.53	876.81
791.84	958.17
792.16	967.21
792.47	863.25
792.78	937.83
793.09	910.71
793.41	897.15
793.72	924.27
794.03	940.09
794.34	919.75
794.65	903.93
794.96	958.17
795.28	942.35
795.59	962.69
795.90	906.19
796.21	946.87
796.52	933.31
796.83	931.05
797.15	926.53
797.46	958.17
797.77	922.01
798.08	937.83
798.39	962.69
798.70	910.71
799.01	940.09
799.32	940.09
799.63	1016.92
799.95	903.93
800.26	931.05
800.57	912.97
800.88	912.97
801.19	940.09
801.50	940.09
801.81	1014.66
802.12	969.47
802.43	912.97
802.74	922.01
803.05	992.06
803.36	996.58
803.67	910.71
803.98	935.57
804.29	899.41
804.60	931.05
804.91	888.11
805.22	958.17
805.53	962.69
805.84	919.75
806.15	962.69
806.46	937.83
806.77	917.49
807.08	940.09
807.39	901.67
807.70	912.97
808.01	969.47
808.32	1007.88
808.63	940.09
808.94	901.67
809.25	944.61
809.56	949.13
809.87	935.57
810.18	944.61
810.49	937.83
810.79	903.93
811.10	926.53
811.41	931.05
811.72	933.31
812.03	955.91
812.34	958.17
812.65	976.25
812.96	888.11
813.27	946.87
813.57	987.54
813.88	890.37
814.19	935.57
814.50	951.39
814.81	919.75
815.12	888.11
815.42	912.97
815.73	953.65
816.04	892.63
816.35	992.06
816.66	888.11
816.97	906.19
817.27	872.29
817.58	971.73
817.89	1014.66
818.20	949.13
818.50	908.45
818.81	1019.18
819.12	928.79
819.43	917.49
819.73	899.41
820.04	944.61
820.35	924.27
820.66	903.93
820.96	944.61
821.27	973.99
821.58	903.93
821.89	949.13
822.19	949.13
822.50	973.99
822.81	967.21
823.11	924.27
823.42	903.93
823.73	903.93
824.03	926.53
824.34	985.28
824.65	1001.10
824.95	910.71
825.26	962.69
825.57	885.85
825.87	973.99
826.18	926.53
826.49	888.11
826.79	942.35
827.10	919.75
827.40	903.93
827.71	901.67
828.02	910.71
828.32	858.73
828.63	928.79
828.93	915.23
829.24	915.23
829.55	949.13
829.85	933.31
830.16	912.97
830.46	924.27
830.77	949.13
831.07	937.83
831.38	951.39
831.69	897.15
831.99	976.25
832.30	976.25
832.60	912.97
832.91	912.97
833.21	935.57
833.52	847.44
833.82	944.61
834.13	885.85
834.43	888.11
834.74	940.09
835.04	951.39
835.35	960.43
835.65	985.28
835.96	931.05
836.26	910.71
836.56	996.58
836.87	964.95
837.17	901.67
837.48	933.31
837.78	894.89
838.09	946.87
838.39	944.61
838.69	919.75
839.00	926.53
839.30	922.01
839.61	874.55
839.91	926.53
840.21	951.39
840.52	924.27
840.82	942.35
841.13	949.13
841.43	949.13
841.73	940.09
842.04	854.21
842.34	879.07
842.64	906.19
842.95	980.77
843.25	910.71
843.55	922.01
843.86	890.37
844.16	926.53
844.46	940.09
844.77	953.65
845.07	888.11
845.37	910.71
845.68	937.83
845.98	917.49
846.28	901.67
846.58	924.27
846.89	854.21
847.19	928.79
847.49	931.05
847.79	858.73
848.10	924.27
848.40	915.23
848.70	897.15
849.00	955.91
849.31	899.41
849.61	924.27
849.91	883.59
850.21	940.09
850.51	976.25
850.82	908.45
851.12	915.23
851.42	908.45
851.72	940.09
852.02	870.03
852.32	942.35
852.63	949.13
852.93	933.31
853.23	931.05
853.53	985.28
853.83	922.01
854.13	872.29
854.43	940.09
854.74	901.67
855.04	967.21
855.34	944.61
855.64	969.47
855.94	865.51
856.24	890.37
856.54	924.27
856.84	912.97
857.14	924.27
857.44	933.31
857.74	915.23
858.05	894.89
858.35	842.92
858.65	924.27
858.95	926.53
859.25	951.39
859.55	931.05
859.85	971.73
860.15	951.39
860.45	955.91
860.75	987.54
861.05	935.57
861.35	942.35
861.65	915.23
861.95	928.79
862.25	942.35
862.55	917.49
862.85	922.01
863.15	890.37
863.45	928.79
863.75	922.01
864.05	967.21
864.35	955.91
864.64	967.21
864.94	922.01
865.24	1012.40
865.54	964.95
865.84	867.77
866.14	978.51
866.44	892.63
866.74	937.83
867.04	892.63
867.34	962.69
867.64	992.06
867.93	953.65
868.23	944.61
868.53	994.32
868.83	924.27
869.13	903.93
869.43	917.49
869.73	1001.10
870.02	926.53
870.32	926.53
870.62	953.65
870.92	998.84
871.22	962.69
871.51	897.15
871.81	824.84
872.11	953.65
872.41	949.13
872.71	953.65
873.00	964.95
873.30	924.27
873.60	989.80
873.90	919.75
874.19	955.91
874.49	849.70
874.79	935.57
875.09	928.79
875.38	937.83
875.68	953.65
875.98	933.31
876.28	951.39
876.57	922.01
876.87	922.01
877.17	922.01
