174.03	682.47
174.41	682.47
174.78	682.47
175.16	698.29
175.54	693.77
175.92	675.69
176.30	677.95
176.67	709.59
177.05	698.29
177.43	795.46
177.81	743.48
178.19	795.46
178.56	768.34
178.94	729.92
179.32	772.86
179.70	831.62
180.08	822.58
180.45	876.81
180.83	881.33
181.21	998.84
181.59	962.69
181.96	996.58
182.34	937.83
182.72	1023.70
183.10	1107.32
183.48	1080.20
183.85	1166.07
184.23	1204.49
184.61	1263.24
184.99	1163.81
185.36	1256.46
185.74	1270.02
186.12	1236.13
186.50	1224.83
186.87	1218.05
187.25	1254.20
187.63	1249.68
188.01	1322.00
188.38	1263.24
188.76	1227.09
189.14	1227.09
189.52	1231.61
189.89	1166.07
190.27	1134.43
190.65	1175.11
191.02	1270.02
191.40	1247.42
191.78	1245.16
192.16	1211.27
192.53	1168.33
192.91	1247.42
193.29	1177.37
193.66	1211.27
194.04	1229.35
194.42	1220.31
194.79	1206.75
195.17	1215.79
195.55	1274.54
195.93	1184.15
196.30	1220.31
196.68	1190.93
197.06	1211.27
197.43	1222.57
197.81	1254.20
198.19	1258.72
198.56	1138.95
198.94	1238.39
199.32	1195.45
199.69	1215.79
200.07	1231.61
200.45	1168.33
200.82	1249.68
201.20	1224.83
201.58	1229.35
201.95	1272.28
202.33	1186.41
202.71	1213.53
203.08	1238.39
203.46	1285.84
203.84	1242.91
204.21	1179.63
204.59	1249.68
204.96	1213.53
205.34	1245.16
205.72	1193.19
206.09	1204.49
206.47	1258.72
206.85	1276.80
207.22	1254.20
207.60	1147.99
207.97	1190.93
208.35	1227.09
208.73	1270.02
209.10	1222.57
209.48	1233.87
209.85	1218.05
210.23	1215.79
210.61	1238.39
210.98	1267.76
211.36	1238.39
211.73	1238.39
212.11	1263.24
212.49	1215.79
212.86	1270.02
213.24	1254.20
213.61	1337.82
213.99	1310.70
214.37	1195.45
214.74	1270.02
215.12	1294.88
215.49	1270.02
215.87	1299.40
216.24	1202.23
216.62	1315.22
216.99	1233.87
217.37	1197.71
217.75	1159.29
218.12	1301.66
218.50	1258.72
218.87	1340.08
219.25	1301.66
219.62	1297.14
220.00	1317.48
220.37	1288.10
220.75	1292.62
221.12	1294.88
221.50	1267.76
221.87	1242.91
222.25	1306.18
222.63	1322.00
223.00	1285.84
223.38	1270.02
223.75	1331.04
224.13	1285.84
224.50	1265.50
224.88	1175.11
225.25	1371.72
225.63	1267.76
226.00	1292.62
226.38	1342.34
226.75	1220.31
227.13	1301.66
227.50	1326.52
227.88	1270.02
228.25	1294.88
228.63	1371.72
229.00	1251.94
229.37	1251.94
229.75	1254.20
230.12	1260.98
230.50	1233.87
230.87	1355.90
231.25	1290.36
231.62	1312.96
232.00	1376.24
232.37	1294.88
232.75	1344.60
233.12	1301.66
233.50	1322.00
233.87	1263.24
234.24	1342.34
234.62	1242.91
234.99	1328.78
235.37	1317.48
235.74	1283.58
236.12	1369.46
236.49	1263.24
236.86	1349.12
237.24	1315.22
237.61	1355.90
237.99	1362.68
238.36	1306.18
238.74	1353.64
239.11	1328.78
239.48	1263.24
239.86	1274.54
240.23	1324.26
240.61	1274.54
240.98	1344.60
241.35	1324.26
241.73	1263.24
242.10	1283.58
242.48	1351.38
242.85	1294.88
243.22	1346.86
243.60	1353.64
243.97	1328.78
244.34	1285.84
244.72	1337.82
245.09	1308.44
245.47	1373.98
245.84	1373.98
246.21	1346.86
246.59	1315.22
246.96	1333.30
247.33	1326.52
247.71	1389.79
248.08	1371.72
248.45	1358.16
248.83	1351.38
249.20	1434.99
249.57	1331.04
249.95	1414.65
250.32	1355.90
250.69	1274.54
251.07	1383.01
251.44	1306.18
251.81	1362.68
252.19	1303.92
252.56	1328.78
252.93	1362.68
253.31	1308.44
253.68	1425.95
254.05	1272.28
254.43	1378.49
254.80	1389.79
255.17	1425.95
255.55	1385.27
255.92	1367.20
256.29	1448.55
256.66	1367.20
257.04	1303.92
257.41	1376.24
257.78	1392.05
258.16	1285.84
258.53	1355.90
258.90	1407.87
259.27	1371.72
259.65	1446.29
260.02	1392.05
260.39	1392.05
260.76	1380.75
261.14	1383.01
261.51	1407.87
261.88	1367.20
262.25	1392.05
262.63	1322.00
263.00	1362.68
263.37	1419.17
263.74	1407.87
264.12	1346.86
264.49	1319.74
264.86	1430.47
265.23	1358.16
265.61	1360.42
265.98	1360.42
266.35	1353.64
266.72	1333.30
267.09	1353.64
267.47	1310.70
267.84	1423.69
268.21	1371.72
268.58	1369.46
268.95	1355.90
269.33	1403.35
269.70	1315.22
270.07	1403.35
270.44	1387.53
270.81	1401.09
271.19	1297.14
271.56	1349.12
271.93	1414.65
272.30	1407.87
272.67	1477.93
273.05	1353.64
273.42	1410.13
273.79	1416.91
274.16	1392.05
274.53	1346.86
274.90	1416.91
275.28	1500.53
275.65	1403.35
276.02	1421.43
276.39	1471.15
276.76	1493.75
277.13	1389.79
277.50	1520.86
277.88	1421.43
278.25	1502.79
278.62	1511.82
278.99	1448.55
279.36	1421.43
279.73	1534.42
280.10	1538.94
280.47	1385.27
280.85	1383.01
281.22	1446.29
281.59	1405.61
281.96	1489.23
282.33	1466.63
282.70	1518.60
283.07	1441.77
283.44	1428.21
283.81	1448.55
284.18	1529.90
284.56	1491.49
284.93	1419.17
285.30	1430.47
285.67	1437.25
286.04	1457.59
286.41	1511.82
286.78	1477.93
287.15	1468.89
287.52	1444.03
287.89	1428.21
288.26	1453.07
288.63	1457.59
289.00	1466.63
289.37	1500.53
289.75	1437.25
290.12	1468.89
290.49	1491.49
290.86	1534.42
291.23	1516.34
291.60	1459.85
291.97	1502.79
292.34	1455.33
292.71	1498.27
293.08	1523.12
293.45	1484.71
293.82	1500.53
294.19	1575.10
294.56	1453.07
294.93	1552.50
295.30	1425.95
295.67	1577.36
296.04	1534.42
296.41	1491.49
296.78	1505.05
297.15	1450.81
297.52	1464.37
297.89	1477.93
298.26	1482.45
298.63	1543.46
299.00	1566.06
299.37	1536.68
299.74	1563.80
300.11	1618.04
300.48	1496.01
300.85	1471.15
301.22	1482.45
301.59	1554.76
301.96	1581.88
302.33	1561.54
302.70	1505.05
303.07	1432.73
303.43	1563.80
303.80	1516.34
304.17	1527.64
304.54	1575.10
304.91	1575.10
305.28	1615.78
305.65	1631.60
306.02	1602.22
306.39	1566.06
306.76	1604.48
307.13	1602.22
307.50	1570.58
307.87	1618.04
308.24	1633.86
308.60	1638.38
308.97	1651.93
309.34	1656.45
309.71	1489.23
310.08	1572.84
310.45	1509.56
310.82	1651.93
311.19	1622.56
311.56	1627.08
311.92	1642.89
312.29	1584.14
312.66	1645.15
313.03	1613.52
313.40	1737.81
313.77	1631.60
314.14	1611.26
314.51	1676.79
314.87	1665.49
315.24	1699.39
315.61	1715.21
315.98	1710.69
316.35	1699.39
316.72	1706.17
317.09	1706.17
317.45	1622.56
317.82	1604.48
318.19	1703.91
318.56	1688.09
318.93	1604.48
319.30	1599.96
319.66	1697.13
320.03	1706.17
320.40	1719.73
320.77	1631.60
321.14	1719.73
321.50	1667.75
321.87	1654.19
322.24	1706.17
322.61	1674.53
322.98	1665.49
323.34	1708.43
323.71	1719.73
324.08	1654.19
324.45	1665.49
324.82	1708.43
325.18	1746.85
325.55	1699.39
325.92	1703.91
326.29	1645.15
326.65	1801.08
327.02	1776.22
327.39	1751.37
327.76	1740.07
328.12	1760.41
328.49	1712.95
328.86	1690.35
329.23	1816.90
329.59	1636.12
329.96	1785.26
330.33	1778.48
330.70	1706.17
331.06	1767.19
331.43	1798.82
331.80	1746.85
332.17	1717.47
332.53	2440.61
332.90	1905.03
333.27	1873.40
333.63	1789.78
334.00	1848.54
334.37	1907.29
334.74	1828.20
335.10	1945.71
335.47	1821.42
335.84	1866.62
336.20	1970.57
336.57	1961.53
336.94	1902.77
337.30	1805.60
337.67	1920.85
338.04	1853.06
338.40	1880.18
338.77	1891.48
339.14	1945.71
339.50	1943.45
339.87	2006.73
340.24	1954.75
340.60	1977.35
340.97	1952.49
341.34	2033.84
341.70	1909.55
342.07	1920.85
342.44	1947.97
342.80	1966.05
343.17	2074.52
343.53	1929.89
343.90	1966.05
344.27	1938.93
344.63	1970.57
345.00	1968.31
345.37	2090.34
345.73	2049.66
346.10	2042.88
346.46	2108.42
346.83	2054.18
347.20	2038.36
347.56	2063.22
347.93	2070.00
348.29	2178.47
348.66	2056.44
349.03	2158.14
349.39	2083.56
349.76	2056.44
350.12	2198.81
350.49	2151.36
350.85	2176.21
351.22	2176.21
351.59	2205.59
351.95	2176.21
352.32	2182.99
352.68	2244.01
353.05	2189.77
353.41	2230.45
353.78	2241.75
354.14	2318.58
354.51	2241.75
354.88	2253.05
355.24	2253.05
355.61	2413.50
355.97	2282.43
356.34	2225.93
356.70	2277.91
357.07	2433.83
357.43	2445.13
357.80	2332.14
358.16	2402.20
358.53	2366.04
358.89	2424.80
359.26	2402.20
359.62	2454.17
359.99	2497.11
360.35	2467.73
360.72	2540.05
361.08	2537.79
361.45	2510.67
361.81	2619.14
362.18	2718.57
362.54	2711.79
362.91	2734.39
363.27	2682.42
363.63	2707.27
364.00	2906.14
364.36	2720.83
364.73	2763.77
365.09	2863.20
365.46	2917.44
365.82	2879.02
366.19	2946.82
366.55	3012.35
366.91	2912.92
367.28	2955.85
367.64	3001.05
368.01	3037.21
368.37	3111.78
368.74	3091.44
369.10	3102.74
369.46	3328.73
369.83	3152.46
370.19	3247.37
370.56	3414.60
370.92	3371.66
371.28	3441.72
371.65	3428.16
372.01	3672.22
372.38	3563.75
372.74	3597.65
373.10	3767.13
373.47	4097.07
373.83	4040.57
374.19	4178.42
374.56	4117.41
374.92	4126.45
375.29	4185.20
375.65	4345.65
376.01	4478.98
376.38	4655.24
376.74	4693.66
377.10	4865.41
377.47	5055.23
377.83	5267.66
378.19	5570.48
378.56	5773.86
378.92	6092.50
379.28	6239.38
379.65	6802.08
380.01	6989.65
380.37	7437.09
380.74	7868.72
381.10	8752.31
381.46	8820.11
381.83	9825.73
382.19	10372.61
382.55	11023.44
382.91	12042.62
383.28	12856.16
383.64	14270.81
384.00	15294.51
384.37	16589.39
384.73	18639.06
385.09	19452.60
385.45	21149.73
385.82	23612.94
386.18	25395.94
386.54	28315.64
386.91	31454.54
387.27	34719.99
387.63	38349.27
387.99	40855.42
388.36	44656.45
388.72	48932.05
389.08	52028.01
389.44	55164.65
389.80	57738.59
390.17	59801.82
390.53	62432.26
390.89	65535.00
391.25	65535.00
391.62	65535.00
391.98	65535.00
392.34	65535.00
392.70	65535.00
393.06	65535.00
393.43	65535.00
393.79	65535.00
394.15	65535.00
394.51	65535.00
394.87	65535.00
395.24	65535.00
395.60	65535.00
395.96	65535.00
396.32	65535.00
396.68	65535.00
397.04	65535.00
397.41	65535.00
397.77	65535.00
398.13	65535.00
398.49	65535.00
398.85	65535.00
399.21	65535.00
399.58	65535.00
399.94	65535.00
400.30	65535.00
400.66	65535.00
401.02	65535.00
401.38	65535.00
401.74	65535.00
402.11	65535.00
402.47	65535.00
402.83	65535.00
403.19	65535.00
403.55	65535.00
403.91	65535.00
404.27	65535.00
404.63	65535.00
404.99	65535.00
405.35	65535.00
405.72	65535.00
406.08	65535.00
406.44	65535.00
406.80	65535.00
407.16	65535.00
407.52	65535.00
407.88	65535.00
408.24	65535.00
408.60	65535.00
408.96	65535.00
409.32	65535.00
409.68	65535.00
410.04	65535.00
410.40	65535.00
410.76	65535.00
411.13	65535.00
411.49	65535.00
411.85	65535.00
412.21	65535.00
412.57	65535.00
412.93	65535.00
413.29	65535.00
413.65	65535.00
414.01	65535.00
414.37	65535.00
414.73	65535.00
415.09	65535.00
415.45	65535.00
415.81	65535.00
416.17	65535.00
416.53	65535.00
416.89	65535.00
417.25	65535.00
417.61	65535.00
417.97	65535.00
418.33	65535.00
418.69	65535.00
419.05	65535.00
419.41	65535.00
419.77	65535.00
420.12	65535.00
420.48	65535.00
420.84	65535.00
421.20	65535.00
421.56	65535.00
421.92	65535.00
422.28	65535.00
422.64	65535.00
423.00	65535.00
423.36	65535.00
423.72	65535.00
424.08	65535.00
424.44	65535.00
424.80	65535.00
425.16	65535.00
425.51	65535.00
425.87	65535.00
426.23	65535.00
426.59	65535.00
426.95	65535.00
427.31	65535.00
427.67	65535.00
428.03	65535.00
428.39	65535.00
428.74	65535.00
429.10	65535.00
429.46	64716.94
429.82	63281.95
430.18	62138.48
430.54	61503.47
430.90	60549.82
431.26	58954.38
431.61	57417.70
431.97	56506.99
432.33	55329.62
432.69	54681.05
433.05	52692.40
433.41	50437.09
433.76	48785.16
434.12	47612.31
434.48	45198.81
434.84	43167.23
435.20	41940.14
435.55	40844.12
435.91	38484.86
436.27	37465.68
436.63	35404.72
436.99	34532.43
437.34	32552.82
437.70	31741.54
438.06	30073.79
438.42	27978.93
438.78	27321.32
439.13	26900.99
439.49	25784.63
439.85	24263.77
440.21	23133.86
440.56	21918.07
440.92	21339.55
441.28	20062.75
441.64	19626.60
441.99	18704.59
442.35	17687.67
442.71	16749.84
443.07	16853.79
443.42	15952.12
443.78	15380.39
444.14	15120.51
444.50	14311.49
444.85	14209.80
445.21	13371.40
445.57	12975.93
445.93	12325.10
446.28	11997.42
446.64	11690.09
447.00	11466.37
447.35	11721.73
447.71	11267.50
448.07	10987.28
448.42	10087.87
448.78	9947.76
449.14	9545.51
449.49	9269.81
449.85	8908.24
450.21	8544.41
450.56	8307.13
450.92	7694.71
451.28	7746.69
451.63	7943.29
451.99	7570.42
452.35	7301.50
452.70	6919.59
453.06	6840.50
453.42	6539.94
453.77	6133.17
454.13	6264.24
454.49	5814.54
454.84	5871.03
455.20	5574.99
455.55	5432.63
455.91	5622.45
456.27	5407.77
456.62	5147.89
456.98	4784.06
457.33	4616.83
457.69	4549.03
458.05	4397.62
458.40	4219.10
458.76	4167.12
459.11	4069.95
459.47	4049.61
459.83	3803.29
460.18	3789.73
460.54	3819.11
460.89	3735.50
461.25	3633.80
461.60	3568.27
461.96	3493.69
462.31	3482.39
462.67	3285.79
463.03	3260.93
463.38	3303.87
463.74	3204.44
464.09	3240.59
464.45	3016.87
464.80	3154.72
465.16	2960.37
465.51	3114.04
465.87	3055.29
466.22	2890.32
466.58	2992.01
466.93	2890.32
467.29	2768.29
467.64	2734.39
468.00	2729.87
468.35	2709.53
468.71	2641.74
469.06	2677.90
469.42	2517.45
469.77	2508.41
470.13	2531.01
470.48	2544.57
470.84	2445.13
471.19	2467.73
471.54	2431.57
471.90	2440.61
472.25	2375.08
472.61	2381.86
472.96	2289.21
473.32	2332.14
473.67	2232.71
474.03	2350.22
474.38	2323.10
474.73	2255.31
475.09	2286.95
475.44	2341.18
475.80	2293.72
476.15	2205.59
476.50	2099.38
476.86	2214.63
477.21	2241.75
477.57	2259.83
477.92	2196.55
478.27	2149.10
478.63	1993.17
478.98	2167.17
479.34	2076.78
479.69	2101.64
480.04	2083.56
480.40	1997.69
480.75	2063.22
481.10	2083.56
481.46	2072.26
481.81	2133.28
482.16	2108.42
482.52	2079.04
482.87	2137.80
483.22	2042.88
483.58	1986.39
483.93	2008.99
484.28	1986.39
484.64	2006.73
484.99	1941.19
485.34	2002.21
485.70	2063.22
486.05	1936.67
486.40	1975.09
486.76	2015.77
487.11	2117.46
487.46	2056.44
487.81	2058.70
488.17	2137.80
488.52	2070.00
488.87	2006.73
489.23	1975.09
489.58	2049.66
489.93	2056.44
490.28	2004.47
490.64	2038.36
490.99	2006.73
491.34	2029.33
491.69	1979.61
492.05	2045.14
492.40	2038.36
492.75	2027.07
493.10	2079.04
493.46	2042.88
493.81	2056.44
494.16	2031.58
494.51	2101.64
494.86	2137.80
495.22	2121.98
495.57	2126.50
495.92	2250.79
496.27	2223.67
496.62	2108.42
496.98	2266.61
497.33	2255.31
497.68	2295.98
498.03	2336.66
498.38	2363.78
498.74	2467.73
499.09	2338.92
499.44	2399.94
499.79	2474.51
500.14	2510.67
500.49	2472.25
500.85	2510.67
501.20	2650.78
501.55	2714.05
501.90	2691.45
502.25	2840.60
502.60	2894.84
502.95	2915.18
503.30	2998.79
503.66	3098.22
504.01	3138.90
504.36	3152.46
504.71	3297.09
505.06	3260.93
505.41	3446.24
505.76	3462.06
506.11	3534.37
506.46	3685.78
506.82	3746.79
507.17	3773.91
507.52	3805.55
507.87	3945.66
508.22	4058.65
508.57	4067.69
508.92	4160.34
509.27	4282.37
509.62	4404.40
509.97	4596.49
510.32	4628.13
510.67	4747.90
511.02	4842.81
511.37	5021.34
511.72	5086.87
512.07	5066.53
512.42	5489.12
512.77	5441.66
513.12	5647.31
513.47	5703.80
513.82	5900.41
514.17	5941.09
514.52	6133.17
514.87	6316.22
515.22	6374.97
515.57	6589.66
515.92	6707.17
516.27	6854.06
516.62	6840.50
516.97	7080.04
517.32	7369.30
517.67	7344.44
518.02	7452.91
518.37	7715.05
518.72	7904.88
519.07	8024.65
519.42	8160.24
519.77	8417.86
520.12	8361.36
520.47	8576.05
520.82	8675.48
521.17	8820.11
521.52	9143.26
521.87	8985.07
522.22	9520.65
522.56	9437.04
522.91	9491.28
523.26	9613.31
523.61	9805.39
523.96	9889.01
524.31	10108.21
524.66	10259.62
525.01	10284.48
525.36	10472.04
525.71	10594.07
526.05	10838.13
526.40	10912.71
526.75	11116.09
527.10	11082.19
527.45	10887.85
527.80	11161.29
528.15	11247.16
528.49	11373.71
528.84	11446.03
529.19	11475.40
529.54	11427.95
529.89	11816.64
530.24	11823.42
530.58	11554.50
530.93	11959.01
531.28	11798.56
531.63	12033.58
531.98	12169.17
532.33	12178.21
532.67	11997.42
533.02	12270.86
533.37	12277.64
533.72	12203.07
534.07	12388.37
534.41	12476.51
534.76	12273.12
535.11	12420.01
535.46	12300.24
535.80	12483.29
536.15	12465.21
536.50	12372.56
536.85	12761.25
537.19	12530.74
537.54	12596.28
537.89	12553.34
538.24	12406.45
538.58	12546.56
538.93	12745.43
539.28	12560.12
539.63	12578.20
539.97	12325.10
540.32	12496.85
540.67	12526.22
541.01	12397.41
541.36	12499.11
541.71	12442.61
542.06	12356.74
542.40	12189.51
542.75	12444.87
543.10	12413.23
543.44	12257.30
543.79	12343.18
544.14	12117.20
544.48	12166.91
544.83	12194.03
545.18	11992.90
545.52	12074.26
545.87	11990.65
546.22	12060.70
546.56	12119.46
546.91	11916.07
547.25	11911.55
547.60	11895.73
547.95	11873.13
548.29	11766.92
548.64	11850.54
548.99	11629.07
549.33	11830.20
549.68	11651.67
550.02	11626.81
550.37	11703.65
550.72	11317.22
551.06	11735.28
551.41	11317.22
551.75	11559.02
552.10	11466.37
552.45	11581.62
552.79	11276.54
553.14	11253.94
553.48	11326.26
553.83	11156.77
554.17	11181.63
554.52	11118.35
554.87	11165.81
555.21	11003.10
555.56	10998.58
555.90	10885.59
556.25	10801.98
556.59	10912.71
556.94	10811.02
557.28	10555.65
557.63	10643.79
557.97	10731.92
558.32	10666.39
558.66	10429.10
559.01	10648.31
559.35	10401.99
559.70	10555.65
560.04	10460.74
560.39	10191.82
560.73	10571.47
561.08	10268.66
561.42	10178.26
561.77	10246.06
562.11	10196.34
562.46	10128.55
562.80	10239.28
563.14	10099.17
563.49	9918.38
563.83	9868.67
564.18	10022.34
564.52	9947.76
564.87	9977.14
565.21	9800.87
565.56	9703.70
565.90	9705.96
566.24	9834.77
566.59	9771.49
566.93	9565.85
567.28	9599.75
567.62	9746.64
567.96	9448.34
568.31	9672.06
568.65	9412.18
569.00	9529.69
569.34	9446.08
569.68	9373.76
570.03	9317.27
570.37	9229.14
570.71	9068.69
571.06	9043.83
571.40	9147.78
571.74	8919.54
572.09	8915.02
572.43	9012.19
572.78	8971.52
573.12	8896.94
573.46	8978.30
573.80	8648.36
574.15	8673.22
574.49	8664.18
574.83	8530.85
575.18	8454.02
575.52	8548.93
575.86	8422.38
576.21	8530.85
576.55	8356.84
576.89	8451.76
577.24	8209.95
577.58	8142.16
577.92	8277.75
578.26	8155.72
578.61	8024.65
578.95	8110.52
579.29	8255.15
579.63	8056.29
579.98	8026.91
580.32	7999.79
580.66	7823.52
581.00	7884.54
581.35	7735.39
581.69	7886.80
582.03	7742.17
582.37	7764.77
582.72	7651.78
583.06	7633.70
583.40	7466.47
583.74	7518.45
584.08	7547.82
584.43	7570.42
584.77	7364.78
585.11	7443.87
585.45	7226.93
585.79	7163.65
586.13	7177.21
586.48	7023.54
586.82	7086.82
587.16	7174.95
587.50	6955.75
587.84	7039.36
588.18	6946.71
588.53	6833.72
588.87	6661.97
589.21	6759.14
589.55	6802.08
589.89	6711.69
590.23	6716.21
590.57	6711.69
590.92	6652.93
591.26	6512.82
591.60	6390.79
591.94	6361.41
592.28	6456.33
592.62	6390.79
592.96	6275.54
593.30	6097.01
593.64	6119.61
593.98	6291.36
594.32	6137.69
594.67	6203.23
595.01	5945.61
595.35	5839.39
595.69	5850.69
596.03	5929.79
596.37	5859.73
596.71	5823.58
597.05	5771.60
597.39	5674.43
597.73	5877.81
598.07	5595.33
598.41	5498.16
598.75	5577.25
599.09	5550.14
599.43	5452.96
599.77	5570.48
600.11	5480.08
600.45	5419.07
600.79	5389.69
601.13	5170.49
601.47	5147.89
601.81	5091.39
602.15	5211.16
602.49	5141.11
602.83	5184.04
603.17	5154.67
603.51	5052.97
603.85	5100.43
604.19	4863.15
604.53	4865.41
604.87	4967.10
605.21	4953.54
605.55	4888.01
605.89	4747.90
606.23	4725.30
606.56	4863.15
606.90	4657.50
607.24	4650.73
607.58	4526.43
607.92	4564.85
608.26	4478.98
608.60	4458.64
608.94	4598.75
609.28	4411.18
609.62	4474.46
609.95	4451.86
610.29	4431.52
610.63	4447.34
610.97	4316.27
611.31	4212.32
611.65	4158.08
611.99	4268.81
612.33	4282.37
612.66	4094.81
613.00	4085.77
613.34	4020.23
613.68	4078.99
614.02	4004.41
614.36	4024.75
614.69	3952.44
615.03	4013.45
615.37	3868.82
615.71	3857.53
616.05	3884.64
616.38	3794.25
616.72	3721.94
617.06	3740.01
617.40	3828.15
617.74	3712.90
618.07	3647.36
618.41	3706.12
618.75	3746.79
619.09	3751.31
619.42	3620.24
619.76	3523.07
620.10	3523.07
620.44	3570.53
620.77	3572.79
621.11	3620.24
621.45	3561.49
621.79	3471.10
622.12	3434.94
622.46	3378.44
622.80	3514.03
623.13	3459.80
623.47	3389.74
623.81	3464.32
624.15	3351.32
624.48	3362.62
624.82	3288.05
625.16	3337.77
625.49	3014.61
625.83	3269.97
626.17	3224.77
626.50	3279.01
626.84	3184.10
627.18	3093.70
627.51	3116.30
627.85	3116.30
628.19	3030.43
628.52	3041.73
628.86	3082.40
629.20	2955.85
629.53	2987.49
629.87	3025.91
630.20	2987.49
630.54	2998.79
630.88	2933.26
631.21	2901.62
631.55	3064.33
631.89	2933.26
632.22	2921.96
632.56	2883.54
632.89	2894.84
633.23	2845.12
633.56	2799.93
633.90	2788.63
634.24	2867.72
634.57	2623.66
634.91	2781.85
635.24	2630.44
635.58	2738.91
635.91	2754.73
636.25	2650.78
636.58	2625.92
636.92	2677.90
637.26	2662.08
637.59	2589.76
637.93	2659.82
638.26	2499.37
638.60	2542.31
638.93	2573.94
639.27	2501.63
639.60	2531.01
639.94	2501.63
640.27	2479.03
640.61	2458.69
640.94	2438.35
641.28	2463.21
641.61	2422.54
641.94	2357.00
642.28	2472.25
642.61	2361.52
642.95	2352.48
643.28	2300.50
643.62	2418.02
643.95	2302.76
644.29	2399.94
644.62	2350.22
644.95	2336.66
645.29	2311.80
645.62	2284.69
645.96	2372.82
646.29	2259.83
646.63	2241.75
646.96	2302.76
647.29	2246.27
647.63	2162.66
647.96	2219.15
648.29	2126.50
648.63	2178.47
648.96	2173.95
649.30	2124.24
649.63	2144.58
649.96	2164.91
650.30	2081.30
650.63	2088.08
650.96	2169.43
651.30	2074.52
651.63	2094.86
651.96	2083.56
652.30	2142.32
652.63	2056.44
652.96	2063.22
653.30	1934.41
653.63	1938.93
653.96	1966.05
654.30	1968.31
654.63	2006.73
654.96	1929.89
655.29	1984.13
655.63	1936.67
655.96	1855.32
656.29	1938.93
656.63	1877.92
656.96	1871.14
657.29	1841.76
657.62	1857.58
657.96	1896.00
658.29	1837.24
658.62	1889.22
658.95	1902.77
659.29	1785.26
659.62	1859.84
659.95	1834.98
660.28	1814.64
660.61	1898.26
660.95	1796.56
661.28	1857.58
661.61	1841.76
661.94	1776.22
662.27	1749.11
662.61	1837.24
662.94	1699.39
663.27	1744.59
663.60	1755.89
663.93	1715.21
664.27	1651.93
664.60	1699.39
664.93	1699.39
665.26	1740.07
665.59	1724.25
665.92	1726.51
666.25	1670.01
666.59	1604.48
666.92	1708.43
667.25	1631.60
667.58	1566.06
667.91	1615.78
668.24	1647.41
668.57	1624.82
668.90	1577.36
669.23	1615.78
669.57	1552.50
669.90	1609.00
670.23	1559.28
670.56	1604.48
670.89	1507.30
671.22	1599.96
671.55	1577.36
671.88	1602.22
672.21	1505.05
672.54	1597.70
672.87	1566.06
673.20	1538.94
673.53	1480.19
673.86	1538.94
674.19	1516.34
674.52	1511.82
674.85	1518.60
675.18	1559.28
675.51	1468.89
675.84	1455.33
676.17	1507.30
676.50	1437.25
676.83	1541.20
677.16	1423.69
677.49	1468.89
677.82	1464.37
678.15	1434.99
678.48	1507.30
678.81	1459.85
679.14	1419.17
679.47	1389.79
679.80	1322.00
680.13	1416.91
680.46	1425.95
680.79	1387.53
681.12	1401.09
681.45	1344.60
681.78	1410.13
682.11	1383.01
682.44	1362.68
682.77	1416.91
683.09	1319.74
683.42	1405.61
683.75	1340.08
684.08	1371.72
684.41	1428.21
684.74	1340.08
685.07	1274.54
685.40	1367.20
685.72	1267.76
686.05	1299.40
686.38	1315.22
686.71	1301.66
687.04	1294.88
687.37	1236.13
687.70	1349.12
688.02	1281.32
688.35	1288.10
688.68	1362.68
689.01	1319.74
689.34	1322.00
689.67	1265.50
689.99	1190.93
690.32	1299.40
690.65	1265.50
690.98	1204.49
691.30	1202.23
691.63	1283.58
691.96	1233.87
692.29	1267.76
692.62	1229.35
692.94	1206.75
693.27	1202.23
693.60	1202.23
693.93	1258.72
694.25	1279.06
694.58	1136.69
694.91	1260.98
695.24	1240.65
695.56	1224.83
695.89	1197.71
696.22	1195.45
696.54	1166.07
696.87	1231.61
697.20	1150.25
697.53	1166.07
697.85	1190.93
698.18	1238.39
698.51	1127.65
698.83	1184.15
699.16	1168.33
699.49	1247.42
699.81	1172.85
700.14	1206.75
700.47	1193.19
700.79	1118.61
701.12	1263.24
701.45	1195.45
701.77	1127.65
702.10	1118.61
702.42	1190.93
702.75	1138.95
703.08	1157.03
703.40	1143.47
703.73	1186.41
704.05	1204.49
704.38	1245.16
704.71	1175.11
705.03	1127.65
705.36	1150.25
705.68	1136.69
706.01	1186.41
706.34	1123.13
706.66	1100.54
706.99	1080.20
707.31	1019.18
707.64	1138.95
707.96	1147.99
708.29	1093.76
708.61	1082.46
708.94	1093.76
709.26	1111.84
709.59	1107.32
709.92	1134.43
710.24	1229.35
710.57	1170.59
710.89	1154.77
711.22	1098.28
711.54	1143.47
711.87	1127.65
712.19	1100.54
712.51	1125.39
712.84	1098.28
713.16	1120.87
713.49	1046.30
713.81	1062.12
714.14	1064.38
714.46	1073.42
714.79	1109.58
715.11	1109.58
715.44	1093.76
715.76	1041.78
716.08	1066.64
716.41	1073.42
716.73	1166.07
717.06	1145.73
717.38	1021.44
717.70	1075.68
718.03	1053.08
718.35	1035.00
718.68	1132.17
719.00	1093.76
719.32	1123.13
719.65	1118.61
719.97	1091.50
720.29	1105.06
720.62	1050.82
720.94	1096.02
721.27	1064.38
721.59	983.02
721.91	996.58
722.24	1039.52
722.56	1057.60
722.88	1068.90
723.21	1084.72
723.53	1064.38
723.85	1120.87
724.17	1032.74
724.50	1019.18
724.82	1064.38
725.14	1075.68
725.47	1086.98
725.79	1050.82
726.11	1059.86
726.43	1145.73
726.76	1073.42
727.08	1025.96
727.40	1057.60
727.72	1120.87
728.05	1037.26
728.37	1064.38
728.69	1014.66
729.01	1086.98
729.34	1077.94
729.66	1138.95
729.98	1084.72
730.30	1035.00
730.62	1055.34
730.95	1057.60
731.27	1044.04
731.59	1019.18
731.91	1021.44
732.23	949.13
732.56	1001.10
732.88	1010.14
733.20	1021.44
733.52	1050.82
733.84	1077.94
734.16	994.32
734.49	1041.78
734.81	1019.18
735.13	1050.82
735.45	1023.70
735.77	1021.44
736.09	983.02
736.41	1048.56
736.73	1077.94
737.06	1021.44
737.38	1062.12
737.70	1046.30
738.02	1073.42
738.34	1007.88
738.66	1014.66
738.98	1005.62
739.30	1021.44
739.62	1012.40
739.94	989.80
740.26	971.73
740.58	973.99
740.90	992.06
741.23	1003.36
741.55	964.95
741.87	935.57
742.19	1019.18
742.51	1005.62
742.83	998.84
743.15	1014.66
743.47	955.91
743.79	1001.10
744.11	985.28
744.43	1062.12
744.75	1030.48
745.07	992.06
745.39	967.21
745.71	1016.92
746.03	955.91
746.35	1035.00
746.67	1035.00
746.98	1035.00
747.30	969.47
747.62	971.73
747.94	1014.66
748.26	1089.24
748.58	985.28
748.90	983.02
749.22	980.77
749.54	998.84
749.86	1050.82
750.18	1005.62
750.50	1014.66
750.82	1014.66
751.13	971.73
751.45	960.43
751.77	976.25
752.09	989.80
752.41	996.58
752.73	969.47
753.05	1062.12
753.36	949.13
753.68	983.02
754.00	983.02
754.32	1086.98
754.64	1014.66
754.96	980.77
755.28	942.35
755.59	964.95
755.91	960.43
756.23	917.49
756.55	985.28
756.87	1007.88
757.18	989.80
757.50	967.21
757.82	933.31
758.14	967.21
758.45	928.79
758.77	976.25
759.09	955.91
759.41	962.69
759.73	1012.40
760.04	998.84
760.36	971.73
760.68	960.43
760.99	994.32
761.31	989.80
761.63	935.57
761.95	996.58
762.26	985.28
762.58	931.05
762.90	998.84
763.21	967.21
763.53	1044.04
763.85	994.32
764.17	996.58
764.48	951.39
764.80	1021.44
765.12	933.31
765.43	942.35
765.75	1023.70
766.07	1021.44
766.38	1021.44
766.70	980.77
767.01	1044.04
767.33	912.97
767.65	983.02
767.96	951.39
768.28	1023.70
768.60	953.65
768.91	951.39
769.23	964.95
769.54	971.73
769.86	906.19
770.18	971.73
770.49	960.43
770.81	973.99
771.12	942.35
771.44	937.83
771.75	928.79
772.07	976.25
772.38	980.77
772.70	964.95
773.02	1001.10
773.33	969.47
773.65	942.35
773.96	1021.44
774.28	944.61
774.59	1019.18
774.91	1035.00
775.22	983.02
775.54	976.25
775.85	935.57
776.17	944.61
776.48	942.35
776.80	940.09
777.11	924.27
777.43	922.01
777.74	940.09
778.05	998.84
778.37	944.61
778.68	992.06
779.00	937.83
779.31	983.02
779.63	976.25
779.94	980.77
780.26	910.71
780.57	940.09
780.88	971.73
781.20	985.28
781.51	944.61
781.83	1030.48
782.14	994.32
782.45	919.75
782.77	951.39
783.08	980.77
783.39	960.43
783.71	967.21
784.02	944.61
784.34	944.61
784.65	935.57
784.96	1007.88
785.28	978.51
785.59	978.51
785.90	976.25
786.22	949.13
786.53	897.15
786.84	1005.62
787.15	978.51
787.47	944.61
787.78	890.37
788.09	962.69
788.41	928.79
788.72	946.87
789.03	971.73
789.35	928.79
789.66	992.06
789.97	910.71
790.28	953.65
790.60	912.97
790.91	1001.10
791.22	926.53
791.53	894.89
791.84	949.13
792.16	931.05
792.47	1003.36
792.78	926.53
793.09	940.09
793.41	1035.00
793.72	944.61
794.03	964.95
794.34	1019.18
794.65	967.21
794.96	894.89
795.28	926.53
795.59	958.17
795.90	955.91
796.21	942.35
796.52	958.17
796.83	987.54
797.15	903.93
797.46	949.13
797.77	937.83
798.08	897.15
798.39	946.87
798.70	922.01
799.01	976.25
799.32	994.32
799.63	973.99
799.95	994.32
800.26	915.23
800.57	937.83
800.88	942.35
801.19	951.39
801.50	892.63
801.81	964.95
802.12	942.35
802.43	996.58
802.74	949.13
803.05	1001.10
803.36	944.61
803.67	926.53
803.98	987.54
804.29	899.41
804.60	971.73
804.91	960.43
805.22	971.73
805.53	987.54
805.84	971.73
806.15	960.43
806.46	1001.10
806.77	962.69
807.08	983.02
807.39	926.53
807.70	989.80
808.01	976.25
808.32	928.79
808.63	931.05
808.94	931.05
809.25	978.51
809.56	971.73
809.87	998.84
810.18	969.47
810.49	980.77
810.79	969.47
811.10	989.80
811.41	969.47
811.72	935.57
812.03	937.83
812.34	919.75
812.65	931.05
812.96	994.32
813.27	946.87
813.57	949.13
813.88	958.17
814.19	879.07
814.50	978.51
814.81	998.84
815.12	917.49
815.42	944.61
815.73	1001.10
816.04	922.01
816.35	953.65
816.66	996.58
816.97	989.80
817.27	992.06
817.58	894.89
817.89	989.80
818.20	955.91
818.50	953.65
818.81	967.21
819.12	1003.36
819.43	908.45
819.73	910.71
820.04	928.79
820.35	926.53
820.66	960.43
820.96	978.51
821.27	973.99
821.58	1021.44
821.89	897.15
822.19	973.99
822.50	1019.18
822.81	980.77
823.11	971.73
823.42	980.77
823.73	937.83
824.03	996.58
824.34	996.58
824.65	951.39
824.95	942.35
825.26	946.87
825.57	908.45
825.87	865.51
826.18	962.69
826.49	969.47
826.79	976.25
827.10	935.57
827.40	899.41
827.71	928.79
828.02	951.39
828.32	996.58
828.63	987.54
828.93	935.57
829.24	967.21
829.55	1039.52
829.85	967.21
830.16	962.69
830.46	933.31
830.77	1003.36
831.07	1021.44
831.38	915.23
831.69	949.13
831.99	942.35
832.30	897.15
832.60	919.75
832.91	996.58
833.21	915.23
833.52	926.53
833.82	942.35
834.13	967.21
834.43	955.91
834.74	967.21
835.04	908.45
835.35	989.80
835.65	978.51
835.96	1007.88
836.26	969.47
836.56	931.05
836.87	969.47
837.17	1003.36
837.48	962.69
837.78	870.03
838.09	973.99
838.39	962.69
838.69	933.31
839.00	955.91
839.30	915.23
839.61	928.79
839.91	894.89
840.21	933.31
840.52	922.01
840.82	1001.10
841.13	915.23
841.43	935.57
841.73	919.75
842.04	935.57
842.34	958.17
842.64	944.61
842.95	933.31
843.25	940.09
843.55	944.61
843.86	912.97
844.16	940.09
844.46	971.73
844.77	935.57
845.07	935.57
845.37	922.01
845.68	958.17
845.98	971.73
846.28	931.05
846.58	908.45
846.89	960.43
847.19	919.75
847.49	931.05
847.79	912.97
848.10	1005.62
848.40	960.43
848.70	973.99
849.00	992.06
849.31	946.87
849.61	919.75
849.91	949.13
850.21	899.41
850.51	1016.92
850.82	967.21
851.12	926.53
851.42	931.05
851.72	971.73
852.02	908.45
852.32	989.80
852.63	912.97
852.93	978.51
853.23	940.09
853.53	949.13
853.83	912.97
854.13	892.63
854.43	917.49
854.74	980.77
855.04	933.31
855.34	933.31
855.64	940.09
855.94	922.01
856.24	951.39
856.54	922.01
856.84	1023.70
857.14	949.13
857.44	994.32
857.74	901.67
858.05	944.61
858.35	926.53
858.65	917.49
858.95	942.35
859.25	1001.10
859.55	962.69
859.85	994.32
860.15	928.79
860.45	976.25
860.75	940.09
861.05	926.53
861.35	858.73
861.65	924.27
861.95	933.31
862.25	967.21
862.55	1010.14
862.85	926.53
863.15	928.79
863.45	960.43
863.75	946.87
864.05	951.39
864.35	973.99
864.64	944.61
864.94	967.21
865.24	915.23
865.54	1001.10
865.84	919.75
866.14	901.67
866.44	917.49
866.74	915.23
867.04	928.79
867.34	935.57
867.64	969.47
867.93	940.09
868.23	967.21
868.53	1046.30
868.83	994.32
869.13	987.54
869.43	879.07
869.73	922.01
870.02	933.31
870.32	908.45
870.62	928.79
870.92	992.06
871.22	906.19
871.51	1032.74
871.81	967.21
872.11	971.73
872.41	933.31
872.71	976.25
873.00	917.49
873.30	958.17
873.60	944.61
873.90	951.39
874.19	964.95
874.49	949.13
874.79	967.21
875.09	976.25
875.38	899.41
875.68	967.21
875.98	953.65
876.28	987.54
876.57	1035.00
876.87	1035.00
877.17	1035.00
