174.03	641.79
174.41	641.79
174.78	641.79
175.16	673.43
175.54	711.85
175.92	650.83
176.30	727.66
176.67	675.69
177.05	727.66
177.43	709.59
177.81	736.70
178.19	815.80
178.56	790.94
178.94	838.40
179.32	824.84
179.70	836.14
180.08	840.66
180.45	856.47
180.83	906.19
181.21	964.95
181.59	958.17
181.96	937.83
182.34	935.57
182.72	1044.04
183.10	1050.82
183.48	1073.42
183.85	1161.55
184.23	1125.39
184.61	1143.47
184.99	1134.43
185.36	1209.01
185.74	1197.71
186.12	1181.89
186.50	1181.89
186.87	1263.24
187.25	1161.55
187.63	1238.39
188.01	1161.55
188.38	1168.33
188.76	1215.79
189.14	1215.79
189.52	1145.73
189.89	1163.81
190.27	1143.47
190.65	1274.54
191.02	1199.97
191.40	1197.71
191.78	1199.97
192.16	1236.13
192.53	1218.05
192.91	1168.33
193.29	1147.99
193.66	1170.59
194.04	1147.99
194.42	1186.41
194.79	1199.97
195.17	1186.41
195.55	1238.39
195.93	1181.89
196.30	1227.09
196.68	1157.03
197.06	1172.85
197.43	1181.89
197.81	1193.19
198.19	1202.23
198.56	1179.63
198.94	1195.45
199.32	1247.42
199.69	1154.77
200.07	1172.85
200.45	1218.05
200.82	1224.83
201.20	1184.15
201.58	1260.98
201.95	1220.31
202.33	1233.87
202.71	1186.41
203.08	1218.05
203.46	1195.45
203.84	1154.77
204.21	1163.81
204.59	1258.72
204.96	1170.59
205.34	1220.31
205.72	1224.83
206.09	1218.05
206.47	1238.39
206.85	1175.11
207.22	1213.53
207.60	1181.89
207.97	1215.79
208.35	1220.31
208.73	1260.98
209.10	1218.05
209.48	1211.27
209.85	1218.05
210.23	1197.71
210.61	1233.87
210.98	1233.87
211.36	1233.87
211.73	1206.75
212.11	1245.16
212.49	1301.66
212.86	1231.61
213.24	1209.01
213.61	1258.72
213.99	1272.28
214.37	1209.01
214.74	1211.27
215.12	1204.49
215.49	1242.91
215.87	1206.75
216.24	1206.75
216.62	1186.41
216.99	1197.71
217.37	1260.98
217.75	1256.46
218.12	1229.35
218.50	1218.05
218.87	1272.28
219.25	1254.20
219.62	1161.55
220.00	1186.41
220.37	1215.79
220.75	1267.76
221.12	1224.83
221.50	1136.69
221.87	1294.88
222.25	1231.61
222.63	1134.43
223.00	1260.98
223.38	1190.93
223.75	1213.53
224.13	1265.50
224.50	1279.06
224.88	1240.65
225.25	1256.46
225.63	1222.57
226.00	1254.20
226.38	1340.08
226.75	1308.44
227.13	1260.98
227.50	1222.57
227.88	1322.00
228.25	1281.32
228.63	1276.80
229.00	1292.62
229.37	1256.46
229.75	1335.56
230.12	1299.40
230.50	1281.32
230.87	1240.65
231.25	1199.97
231.62	1224.83
232.00	1301.66
232.37	1227.09
232.75	1274.54
233.12	1279.06
233.50	1344.60
233.87	1328.78
234.24	1301.66
234.62	1251.94
234.99	1301.66
235.37	1283.58
235.74	1256.46
236.12	1272.28
236.49	1303.92
236.86	1279.06
237.24	1263.24
237.61	1303.92
237.99	1371.72
238.36	1242.91
238.74	1288.10
239.11	1312.96
239.48	1258.72
239.86	1292.62
240.23	1294.88
240.61	1283.58
240.98	1242.91
241.35	1319.74
241.73	1396.57
242.10	1317.48
242.48	1308.44
242.85	1281.32
243.22	1247.42
243.60	1303.92
243.97	1285.84
244.34	1322.00
244.72	1383.01
245.09	1281.32
245.47	1247.42
245.84	1229.35
246.21	1301.66
246.59	1369.46
246.96	1245.16
247.33	1303.92
247.71	1349.12
248.08	1337.82
248.45	1358.16
248.83	1310.70
249.20	1369.46
249.57	1267.76
249.95	1331.04
250.32	1272.28
250.69	1315.22
251.07	1294.88
251.44	1303.92
251.81	1337.82
252.19	1317.48
252.56	1199.97
252.93	1279.06
253.31	1367.20
253.68	1276.80
254.05	1340.08
254.43	1358.16
254.80	1322.00
255.17	1376.24
255.55	1322.00
255.92	1340.08
256.29	1326.52
256.66	1274.54
257.04	1272.28
257.41	1385.27
257.78	1358.16
258.16	1346.86
258.53	1337.82
258.90	1407.87
259.27	1362.68
259.65	1369.46
260.02	1299.40
260.39	1416.91
260.76	1396.57
261.14	1376.24
261.51	1340.08
261.88	1324.26
262.25	1299.40
262.63	1378.49
263.00	1337.82
263.37	1387.53
263.74	1360.42
264.12	1337.82
264.49	1308.44
264.86	1328.78
265.23	1258.72
265.61	1324.26
265.98	1385.27
266.35	1376.24
266.72	1410.13
267.09	1335.56
267.47	1396.57
267.84	1358.16
268.21	1283.58
268.58	1389.79
268.95	1328.78
269.33	1349.12
269.70	1387.53
270.07	1364.94
270.44	1270.02
270.81	1428.21
271.19	1369.46
271.56	1414.65
271.93	1378.49
272.30	1407.87
272.67	1342.34
273.05	1410.13
273.42	1423.69
273.79	1312.96
274.16	1353.64
274.53	1351.38
274.90	1398.83
275.28	1425.95
275.65	1484.71
276.02	1367.20
276.39	1371.72
276.76	1403.35
277.13	1367.20
277.50	1412.39
277.88	1412.39
278.25	1407.87
278.62	1432.73
278.99	1464.37
279.36	1419.17
279.73	1455.33
280.10	1441.77
280.47	1392.05
280.85	1430.47
281.22	1346.86
281.59	1439.51
281.96	1396.57
282.33	1403.35
282.70	1407.87
283.07	1380.75
283.44	1367.20
283.81	1455.33
284.18	1434.99
284.56	1401.09
284.93	1407.87
285.30	1473.41
285.67	1419.17
286.04	1459.85
286.41	1432.73
286.78	1373.98
287.15	1453.07
287.52	1421.43
287.89	1471.15
288.26	1579.62
288.63	1525.38
289.00	1471.15
289.37	1477.93
289.75	1462.11
290.12	1505.05
290.49	1450.81
290.86	1507.30
291.23	1432.73
291.60	1527.64
291.97	1466.63
292.34	1428.21
292.71	1468.89
293.08	1493.75
293.45	1450.81
293.82	1486.97
294.19	1450.81
294.56	1486.97
294.93	1475.67
295.30	1403.35
295.67	1473.41
296.04	1462.11
296.41	1507.30
296.78	1525.38
297.15	1430.47
297.52	1477.93
297.89	1439.51
298.26	1484.71
298.63	1493.75
299.00	1489.23
299.37	1464.37
299.74	1455.33
300.11	1554.76
300.48	1570.58
300.85	1493.75
301.22	1498.27
301.59	1462.11
301.96	1484.71
302.33	1588.66
302.70	1599.96
303.07	1480.19
303.43	1514.08
303.80	1529.90
304.17	1538.94
304.54	1599.96
304.91	1588.66
305.28	1455.33
305.65	1595.44
306.02	1480.19
306.39	1498.27
306.76	1599.96
307.13	1566.06
307.50	1566.06
307.87	1505.05
308.24	1615.78
308.60	1534.42
308.97	1559.28
309.34	1575.10
309.71	1670.01
310.08	1550.24
310.45	1629.34
310.82	1588.66
311.19	1584.14
311.56	1557.02
311.92	1645.15
312.29	1636.12
312.66	1599.96
313.03	1590.92
313.40	1620.30
313.77	1550.24
314.14	1613.52
314.51	1683.57
314.87	1701.65
315.24	1663.23
315.61	1649.67
315.98	1651.93
316.35	1577.36
316.72	1631.60
317.09	1654.19
317.45	1656.45
317.82	1566.06
318.19	1645.15
318.56	1552.50
318.93	1631.60
319.30	1670.01
319.66	1656.45
320.03	1568.32
320.40	1697.13
320.77	1604.48
321.14	1679.05
321.50	1667.75
321.87	1588.66
322.24	1721.99
322.61	1627.08
322.98	1645.15
323.34	1703.91
323.71	1642.89
324.08	1647.41
324.45	1647.41
324.82	1622.56
325.18	1683.57
325.55	1694.87
325.92	1701.65
326.29	1672.27
326.65	1692.61
327.02	1642.89
327.39	1681.31
327.76	1665.49
328.12	1735.55
328.49	1715.21
328.86	1638.38
329.23	1703.91
329.59	1703.91
329.96	1688.09
330.33	1694.87
330.70	1728.77
331.06	1688.09
331.43	1649.67
331.80	1721.99
332.17	1712.95
332.53	2194.29
332.90	1796.56
333.27	1830.46
333.63	1778.48
334.00	1789.78
334.37	1785.26
334.74	1821.42
335.10	1807.86
335.47	1778.48
335.84	1726.51
336.20	1834.98
336.57	1866.62
336.94	1834.98
337.30	1783.00
337.67	1776.22
338.04	1864.36
338.40	1760.41
338.77	1900.52
339.14	1925.37
339.50	1925.37
339.87	1877.92
340.24	1859.84
340.60	1918.59
340.97	1920.85
341.34	1905.03
341.70	1830.46
342.07	1889.22
342.44	1850.80
342.80	1839.50
343.17	1891.48
343.53	2006.73
343.90	1902.77
344.27	1907.29
344.63	1972.83
345.00	1902.77
345.37	1914.07
345.73	2013.51
346.10	1952.49
346.46	1916.33
346.83	1914.07
347.20	1970.57
347.56	1977.35
347.93	2002.21
348.29	2024.81
348.66	1975.09
349.03	2047.40
349.39	2063.22
349.76	2020.29
350.12	2108.42
350.49	2126.50
350.85	2067.74
351.22	2031.58
351.59	2047.40
351.95	2176.21
352.32	2137.80
352.68	2135.54
353.05	2140.06
353.41	2160.40
353.78	2164.91
354.14	2264.35
354.51	2259.83
354.88	2146.84
355.24	2137.80
355.61	2203.33
355.97	2237.23
356.34	2239.49
356.70	2307.28
357.07	2239.49
357.43	2300.50
357.80	2241.75
358.16	2264.35
358.53	2289.21
358.89	2320.84
359.26	2268.87
359.62	2332.14
359.99	2397.68
360.35	2463.21
360.72	2449.65
361.08	2393.16
361.45	2427.05
361.81	2408.98
362.18	2485.81
362.54	2578.46
362.91	2623.66
363.27	2610.10
363.63	2750.21
364.00	2698.23
364.36	2689.19
364.73	2659.82
365.09	2653.04
365.46	2761.51
365.82	2806.71
366.19	2822.52
366.55	2899.36
366.91	2874.50
367.28	2879.02
367.64	2860.94
368.01	2772.81
368.37	2919.70
368.74	2955.85
369.10	2996.53
369.46	3143.42
369.83	3071.11
370.19	3177.32
370.56	3177.32
370.92	3170.54
371.28	3276.75
371.65	3414.60
372.01	3351.32
372.38	3412.34
372.74	3516.29
373.10	3608.94
373.47	3895.94
373.83	3891.42
374.19	3918.54
374.56	3947.92
374.92	3950.18
375.29	3954.70
375.65	4214.58
376.01	4284.63
376.38	4248.48
376.74	4598.75
377.10	4551.29
377.47	4842.81
377.83	5021.34
378.19	5213.42
378.56	5448.44
378.92	5651.83
379.28	5961.43
379.65	6393.05
380.01	6628.07
380.37	7023.54
380.74	7355.74
381.10	8151.20
381.46	8637.06
381.83	9172.64
382.19	9900.30
382.55	10657.35
382.91	11319.48
383.28	12157.87
383.64	13398.52
384.00	14562.33
384.37	16049.30
384.73	17520.44
385.09	18630.02
385.45	20003.99
385.82	21963.26
386.18	24656.98
386.54	27025.28
386.91	29691.87
387.27	32164.13
387.63	36055.55
387.99	38511.98
388.36	42554.81
388.72	46335.50
389.08	49842.76
389.44	53557.91
389.80	56425.64
390.17	58070.79
390.53	61085.40
390.89	64041.25
391.25	65333.88
391.62	65535.00
391.98	65535.00
392.34	65535.00
392.70	65535.00
393.06	65535.00
393.43	65535.00
393.79	65535.00
394.15	65535.00
394.51	65535.00
394.87	65535.00
395.24	65535.00
395.60	65535.00
395.96	65535.00
396.32	65535.00
396.68	65535.00
397.04	65535.00
397.41	65535.00
397.77	65535.00
398.13	65535.00
398.49	65535.00
398.85	65535.00
399.21	65535.00
399.58	65535.00
399.94	65535.00
400.30	65535.00
400.66	65535.00
401.02	65535.00
401.38	65535.00
401.74	65535.00
402.11	65535.00
402.47	65535.00
402.83	65535.00
403.19	65535.00
403.55	65535.00
403.91	65535.00
404.27	65535.00
404.63	65535.00
404.99	65535.00
405.35	65535.00
405.72	65535.00
406.08	65535.00
406.44	65535.00
406.80	65535.00
407.16	65535.00
407.52	65535.00
407.88	65535.00
408.24	65535.00
408.60	65535.00
408.96	65535.00
409.32	65535.00
409.68	65535.00
410.04	65535.00
410.40	65535.00
410.76	65535.00
411.13	65535.00
411.49	65535.00
411.85	65535.00
412.21	65535.00
412.57	65535.00
412.93	65535.00
413.29	65535.00
413.65	65535.00
414.01	65535.00
414.37	65535.00
414.73	65535.00
415.09	65535.00
415.45	65535.00
415.81	65535.00
416.17	65535.00
416.53	65535.00
416.89	65535.00
417.25	65535.00
417.61	65535.00
417.97	65535.00
418.33	65535.00
418.69	65535.00
419.05	65535.00
419.41	65535.00
419.77	65535.00
420.12	65535.00
420.48	65535.00
420.84	65535.00
421.20	65535.00
421.56	65535.00
421.92	65535.00
422.28	65535.00
422.64	65535.00
423.00	65535.00
423.36	65535.00
423.72	65535.00
424.08	65535.00
424.44	65535.00
424.80	65535.00
425.16	65535.00
425.51	65535.00
425.87	65535.00
426.23	65535.00
426.59	65535.00
426.95	65535.00
427.31	65535.00
427.67	65535.00
428.03	65535.00
428.39	65535.00
428.74	65223.14
429.10	63544.09
429.46	62495.53
429.82	61004.05
430.18	60016.50
430.54	58902.41
430.90	58253.84
431.26	56778.17
431.61	54672.01
431.97	53350.01
432.33	51964.74
432.69	51517.29
433.05	48791.94
433.41	46260.93
433.76	44604.48
434.12	43958.17
434.48	41223.77
434.84	39443.03
435.20	38170.75
435.55	37479.24
435.91	35124.50
436.27	33953.91
436.63	32844.33
436.99	31167.54
437.34	29314.48
437.70	28876.08
438.06	27529.22
438.42	25655.82
438.78	24977.87
439.13	24241.17
439.49	23154.19
439.85	22327.10
440.21	20921.48
440.56	19906.82
440.92	19149.78
441.28	17913.65
441.64	17391.63
441.99	16851.53
442.35	16033.48
442.71	15262.88
443.07	15235.76
443.42	14417.70
443.78	13852.74
444.14	13662.92
444.50	12788.36
444.85	12842.60
445.21	12092.34
445.57	11590.66
445.93	10969.20
446.28	10883.33
446.64	10548.88
447.00	10187.30
447.35	10424.58
447.71	10166.96
448.07	9859.63
448.42	9364.73
448.78	9075.47
449.14	8478.87
449.49	8320.69
449.85	8167.02
450.21	7757.99
450.56	7432.57
450.92	6991.91
451.28	6946.71
451.63	7179.47
451.99	6899.25
452.35	6741.07
452.70	6483.45
453.06	6259.72
453.42	5889.11
453.77	5586.29
454.13	5574.99
454.49	5462.00
454.84	5342.23
455.20	5055.23
455.55	4856.37
455.91	4901.57
456.27	4793.09
456.62	4682.36
456.98	4422.48
457.33	4205.54
457.69	3956.96
458.05	4042.83
458.40	3914.02
458.76	3789.73
459.11	3764.87
459.47	3753.57
459.83	3419.12
460.18	3529.85
460.54	3581.83
460.89	3367.14
461.25	3312.91
461.60	3297.09
461.96	3075.63
462.31	3204.44
462.67	3175.06
463.03	2897.10
463.38	2973.93
463.74	2917.44
464.09	2820.26
464.45	2892.58
464.80	2915.18
465.16	2858.68
465.51	2766.03
465.87	2707.27
466.22	2779.59
466.58	2659.82
466.93	2653.04
467.29	2630.44
467.64	2519.71
468.00	2578.46
468.35	2510.67
468.71	2406.72
469.06	2363.78
469.42	2481.29
469.77	2424.80
470.13	2345.70
470.48	2363.78
470.84	2280.17
471.19	2225.93
471.54	2291.47
471.90	2241.75
472.25	2246.27
472.61	2221.41
472.96	2108.42
473.32	2182.99
473.67	2255.31
474.03	2210.11
474.38	2090.34
474.73	2133.28
475.09	2137.80
475.44	2140.06
475.80	2121.98
476.15	2144.58
476.50	2164.91
476.86	2106.16
477.21	2045.14
477.57	2060.96
477.92	2036.10
478.27	1988.65
478.63	1990.91
478.98	1954.75
479.34	1977.35
479.69	1959.27
480.04	1767.19
480.40	1911.81
480.75	1966.05
481.10	1905.03
481.46	1850.80
481.81	1841.76
482.16	1871.14
482.52	1832.72
482.87	1837.24
483.22	1832.72
483.58	1837.24
483.93	1810.12
484.28	1807.86
484.64	1857.58
484.99	1880.18
485.34	1726.51
485.70	1834.98
486.05	1755.89
486.40	1821.42
486.76	1749.11
487.11	1783.00
487.46	1685.83
487.81	1706.17
488.17	1701.65
488.52	1746.85
488.87	1663.23
489.23	1712.95
489.58	1676.79
489.93	1710.69
490.28	1728.77
490.64	1717.47
490.99	1715.21
491.34	1699.39
491.69	1731.03
492.05	1640.63
492.40	1631.60
492.75	1554.76
493.10	1670.01
493.46	1593.18
493.81	1545.72
494.16	1636.12
494.51	1572.84
494.86	1529.90
495.22	1529.90
495.57	1536.68
495.92	1597.70
496.27	1484.71
496.62	1468.89
496.98	1529.90
497.33	1507.30
497.68	1498.27
498.03	1554.76
498.38	1462.11
498.74	1568.32
499.09	1493.75
499.44	1405.61
499.79	1448.55
500.14	1502.79
500.49	1475.67
500.85	1493.75
501.20	1511.82
501.55	1498.27
501.90	1423.69
502.25	1543.46
502.60	1419.17
502.95	1439.51
503.30	1468.89
503.66	1430.47
504.01	1505.05
504.36	1502.79
504.71	1464.37
505.06	1511.82
505.41	1496.01
505.76	1364.94
506.11	1421.43
506.46	1475.67
506.82	1383.01
507.17	1437.25
507.52	1369.46
507.87	1473.41
508.22	1349.12
508.57	1367.20
508.92	1432.73
509.27	1455.33
509.62	1455.33
509.97	1453.07
510.32	1416.91
510.67	1396.57
511.02	1430.47
511.37	1349.12
511.72	1448.55
512.07	1407.87
512.42	1448.55
512.77	1421.43
513.12	1453.07
513.47	1378.49
513.82	1389.79
514.17	1493.75
514.52	1441.77
514.87	1416.91
515.22	1403.35
515.57	1423.69
515.92	1430.47
516.27	1439.51
516.62	1385.27
516.97	1421.43
517.32	1405.61
517.67	1498.27
518.02	1446.29
518.37	1385.27
518.72	1414.65
519.07	1423.69
519.42	1421.43
519.77	1378.49
520.12	1457.59
520.47	1455.33
520.82	1425.95
521.17	1444.03
521.52	1464.37
521.87	1464.37
522.22	1432.73
522.56	1498.27
522.91	1509.56
523.26	1477.93
523.61	1441.77
523.96	1392.05
524.31	1385.27
524.66	1324.26
525.01	1401.09
525.36	1416.91
525.71	1412.39
526.05	1464.37
526.40	1459.85
526.75	1387.53
527.10	1541.20
527.45	1407.87
527.80	1416.91
528.15	1437.25
528.49	1394.31
528.84	1376.24
529.19	1383.01
529.54	1414.65
529.89	1471.15
530.24	1475.67
530.58	1398.83
530.93	1468.89
531.28	1430.47
531.63	1319.74
531.98	1407.87
532.33	1430.47
532.67	1340.08
533.02	1299.40
533.37	1464.37
533.72	1416.91
534.07	1376.24
534.41	1437.25
534.76	1419.17
535.11	1403.35
535.46	1425.95
535.80	1340.08
536.15	1414.65
536.50	1378.49
536.85	1351.38
537.19	1340.08
537.54	1308.44
537.89	1383.01
538.24	1407.87
538.58	1383.01
538.93	1254.20
539.28	1362.68
539.63	1335.56
539.97	1227.09
540.32	1276.80
540.67	1367.20
541.01	1340.08
541.36	1317.48
541.71	1256.46
542.06	1297.14
542.40	1258.72
542.75	1342.34
543.10	1247.42
543.44	1310.70
543.79	1209.01
544.14	1229.35
544.48	1349.12
544.83	1276.80
545.18	1378.49
545.52	1283.58
545.87	1224.83
546.22	1288.10
546.56	1331.04
546.91	1272.28
547.25	1215.79
547.60	1193.19
547.95	1195.45
548.29	1240.65
548.64	1301.66
548.99	1279.06
549.33	1215.79
549.68	1231.61
550.02	1319.74
550.37	1231.61
550.72	1206.75
551.06	1308.44
551.41	1220.31
551.75	1256.46
552.10	1283.58
552.45	1308.44
552.79	1265.50
553.14	1301.66
553.48	1245.16
553.83	1179.63
554.17	1215.79
554.52	1186.41
554.87	1197.71
555.21	1263.24
555.56	1251.94
555.90	1209.01
556.25	1270.02
556.59	1193.19
556.94	1242.91
557.28	1238.39
557.63	1229.35
557.97	1224.83
558.32	1188.67
558.66	1260.98
559.01	1213.53
559.35	1274.54
559.70	1231.61
560.04	1202.23
560.39	1163.81
560.73	1186.41
561.08	1150.25
561.42	1209.01
561.77	1102.80
562.11	1224.83
562.46	1161.55
562.80	1224.83
563.14	1152.51
563.49	1143.47
563.83	1204.49
564.18	1195.45
564.52	1245.16
564.87	1177.37
565.21	1143.47
565.56	1220.31
565.90	1179.63
566.24	1177.37
566.59	1186.41
566.93	1199.97
567.28	1184.15
567.62	1157.03
567.96	1129.91
568.31	1218.05
568.65	1159.29
569.00	1179.63
569.34	1206.75
569.68	1256.46
570.03	1136.69
570.37	1209.01
570.71	1177.37
571.06	1190.93
571.40	1195.45
571.74	1152.51
572.09	1186.41
572.43	1145.73
572.78	1218.05
573.12	1197.71
573.46	1102.80
573.80	1089.24
574.15	1109.58
574.49	1107.32
574.83	1170.59
575.18	1125.39
575.52	1238.39
575.86	1147.99
576.21	1197.71
576.55	1197.71
576.89	1109.58
577.24	1170.59
577.58	1123.13
577.92	1114.10
578.26	1186.41
578.61	1206.75
578.95	1154.77
579.29	1145.73
579.63	1093.76
579.98	1170.59
580.32	1055.34
580.66	1118.61
581.00	1082.46
581.35	1062.12
581.69	1114.10
582.03	1125.39
582.37	1064.38
582.72	1134.43
583.06	1168.33
583.40	1107.32
583.74	1098.28
584.08	1127.65
584.43	1141.21
584.77	1172.85
585.11	1147.99
585.45	1132.17
585.79	1186.41
586.13	1150.25
586.48	1111.84
586.82	1204.49
587.16	1181.89
587.50	1127.65
587.84	1086.98
588.18	1138.95
588.53	1134.43
588.87	1138.95
589.21	1197.71
589.55	1199.97
589.89	1105.06
590.23	1154.77
590.57	1062.12
590.92	1096.02
591.26	1096.02
591.60	1120.87
591.94	1157.03
592.28	1116.35
592.62	1073.42
592.96	1080.20
593.30	1062.12
593.64	1100.54
593.98	1091.50
594.32	1120.87
594.67	1057.60
595.01	1100.54
595.35	1127.65
595.69	1057.60
596.03	1084.72
596.37	1098.28
596.71	1062.12
597.05	1050.82
597.39	1111.84
597.73	1132.17
598.07	1048.56
598.41	1100.54
598.75	1096.02
599.09	1143.47
599.43	1030.48
599.77	1125.39
600.11	1147.99
600.45	1118.61
600.79	1096.02
601.13	1102.80
601.47	1111.84
601.81	1059.86
602.15	1114.10
602.49	1129.91
602.83	1037.26
603.17	1080.20
603.51	1064.38
603.85	1041.78
604.19	1055.34
604.53	1109.58
604.87	1037.26
605.21	1030.48
605.55	1111.84
605.89	1154.77
606.23	1082.46
606.56	1102.80
606.90	1077.94
607.24	1091.50
607.58	1066.64
607.92	1053.08
608.26	1071.16
608.60	1055.34
608.94	1073.42
609.28	1010.14
609.62	1053.08
609.95	1073.42
610.29	1105.06
610.63	1093.76
610.97	1154.77
611.31	1089.24
611.65	1035.00
611.99	1057.60
612.33	1066.64
612.66	1059.86
613.00	1037.26
613.34	1077.94
613.68	1075.68
614.02	1073.42
614.36	1016.92
614.69	1096.02
615.03	1111.84
615.37	1046.30
615.71	1012.40
616.05	1066.64
616.38	1028.22
616.72	1075.68
617.06	1077.94
617.40	1075.68
617.74	1111.84
618.07	1091.50
618.41	1050.82
618.75	1105.06
619.09	1073.42
619.42	1093.76
619.76	1048.56
620.10	1005.62
620.44	1021.44
620.77	964.95
621.11	1025.96
621.45	994.32
621.79	1096.02
622.12	1093.76
622.46	1035.00
622.80	1066.64
623.13	1041.78
623.47	1086.98
623.81	1048.56
624.15	1098.28
624.48	1114.10
624.82	1116.35
625.16	1037.26
625.49	1071.16
625.83	1053.08
626.17	1055.34
626.50	1030.48
626.84	1039.52
627.18	1068.90
627.51	1068.90
627.85	1005.62
628.19	1100.54
628.52	1014.66
628.86	1089.24
629.20	1041.78
629.53	1116.35
629.87	1089.24
630.20	1055.34
630.54	1053.08
630.88	1039.52
631.21	1012.40
631.55	1057.60
631.89	1037.26
632.22	1075.68
632.56	1014.66
632.89	1041.78
633.23	1062.12
633.56	992.06
633.90	983.02
634.24	992.06
634.57	1073.42
634.91	1064.38
635.24	1062.12
635.58	1091.50
635.91	1032.74
636.25	1023.70
636.58	1019.18
636.92	1039.52
637.26	1050.82
637.59	1086.98
637.93	1012.40
638.26	1071.16
638.60	1068.90
638.93	987.54
639.27	1016.92
639.60	1044.04
639.94	1003.36
640.27	1071.16
640.61	1044.04
640.94	1057.60
641.28	1091.50
641.61	985.28
641.94	1055.34
642.28	1077.94
642.61	976.25
642.95	1030.48
643.28	1044.04
643.62	1044.04
643.95	1016.92
644.29	942.35
644.62	1032.74
644.95	962.69
645.29	1007.88
645.62	1010.14
645.96	1028.22
646.29	1021.44
646.63	1016.92
646.96	1077.94
647.29	949.13
647.63	1021.44
647.96	935.57
648.29	1041.78
648.63	973.99
648.96	1001.10
649.30	969.47
649.63	1021.44
649.96	985.28
650.30	973.99
650.63	1010.14
650.96	1003.36
651.30	1064.38
651.63	971.73
651.96	1082.46
652.30	1016.92
652.63	1010.14
652.96	1039.52
653.30	1012.40
653.63	994.32
653.96	967.21
654.30	1032.74
654.63	1014.66
654.96	1075.68
655.29	992.06
655.63	1066.64
655.96	962.69
656.29	998.84
656.63	1035.00
656.96	1037.26
657.29	962.69
657.62	987.54
657.96	978.51
658.29	978.51
658.62	971.73
658.95	969.47
659.29	1014.66
659.62	1001.10
659.95	1048.56
660.28	989.80
660.61	978.51
660.95	1019.18
661.28	1048.56
661.61	1050.82
661.94	994.32
662.27	1068.90
662.61	937.83
662.94	1091.50
663.27	1003.36
663.60	998.84
663.93	964.95
664.27	980.77
664.60	946.87
664.93	1019.18
665.26	1066.64
665.59	998.84
665.92	1044.04
666.25	1001.10
666.59	1080.20
666.92	962.69
667.25	1019.18
667.58	1021.44
667.91	998.84
668.24	989.80
668.57	992.06
668.90	985.28
669.23	996.58
669.57	946.87
669.90	1007.88
670.23	987.54
670.56	980.77
670.89	998.84
671.22	951.39
671.55	951.39
671.88	1003.36
672.21	1037.26
672.54	1010.14
672.87	1010.14
673.20	1007.88
673.53	1007.88
673.86	989.80
674.19	1003.36
674.52	1062.12
674.85	1046.30
675.18	967.21
675.51	994.32
675.84	971.73
676.17	998.84
676.50	1005.62
676.83	937.83
677.16	962.69
677.49	937.83
677.82	1005.62
678.15	1012.40
678.48	998.84
678.81	980.77
679.14	978.51
679.47	967.21
679.80	989.80
680.13	1019.18
680.46	976.25
680.79	949.13
681.12	973.99
681.45	901.67
681.78	928.79
682.11	980.77
682.44	1001.10
682.77	996.58
683.09	973.99
683.42	1048.56
683.75	942.35
684.08	955.91
684.41	985.28
684.74	953.65
685.07	951.39
685.40	989.80
685.72	931.05
686.05	994.32
686.38	1007.88
686.71	994.32
687.04	955.91
687.37	931.05
687.70	980.77
688.02	942.35
688.35	971.73
688.68	960.43
689.01	964.95
689.34	994.32
689.67	989.80
689.99	978.51
690.32	985.28
690.65	1010.14
690.98	1025.96
691.30	1035.00
691.63	1041.78
691.96	996.58
692.29	998.84
692.62	958.17
692.94	937.83
693.27	976.25
693.60	1001.10
693.93	969.47
694.25	980.77
694.58	969.47
694.91	994.32
695.24	973.99
695.56	1001.10
695.89	978.51
696.22	935.57
696.54	980.77
696.87	958.17
697.20	996.58
697.53	1001.10
697.85	969.47
698.18	989.80
698.51	987.54
698.83	1046.30
699.16	944.61
699.49	944.61
699.81	998.84
700.14	994.32
700.47	1037.26
700.79	1014.66
701.12	983.02
701.45	987.54
701.77	962.69
702.10	953.65
702.42	937.83
702.75	967.21
703.08	962.69
703.40	967.21
703.73	983.02
704.05	1019.18
704.38	973.99
704.71	1005.62
705.03	1030.48
705.36	973.99
705.68	1023.70
706.01	994.32
706.34	949.13
706.66	985.28
706.99	989.80
707.31	922.01
707.64	989.80
707.96	996.58
708.29	967.21
708.61	996.58
708.94	969.47
709.26	1003.36
709.59	885.85
709.92	1035.00
710.24	1019.18
710.57	1012.40
710.89	953.65
711.22	1025.96
711.54	942.35
711.87	942.35
712.19	996.58
712.51	953.65
712.84	987.54
713.16	971.73
713.49	894.89
713.81	937.83
714.14	1030.48
714.46	980.77
714.79	899.41
715.11	976.25
715.44	998.84
715.76	976.25
716.08	949.13
716.41	951.39
716.73	908.45
717.06	915.23
717.38	933.31
717.70	971.73
718.03	1003.36
718.35	917.49
718.68	931.05
719.00	937.83
719.32	928.79
719.65	1005.62
719.97	944.61
720.29	940.09
720.62	971.73
720.94	1021.44
721.27	969.47
721.59	971.73
721.91	987.54
722.24	967.21
722.56	985.28
722.88	933.31
723.21	870.03
723.53	949.13
723.85	885.85
724.17	958.17
724.50	964.95
724.82	949.13
725.14	922.01
725.47	964.95
725.79	946.87
726.11	1053.08
726.43	910.71
726.76	908.45
727.08	969.47
727.40	987.54
727.72	998.84
728.05	926.53
728.37	980.77
728.69	973.99
729.01	1014.66
729.34	949.13
729.66	992.06
729.98	908.45
730.30	949.13
730.62	985.28
730.95	958.17
731.27	924.27
731.59	994.32
731.91	973.99
732.23	928.79
732.56	935.57
732.88	976.25
733.20	958.17
733.52	949.13
733.84	953.65
734.16	969.47
734.49	1005.62
734.81	996.58
735.13	924.27
735.45	985.28
735.77	955.91
736.09	994.32
736.41	951.39
736.73	985.28
737.06	953.65
737.38	946.87
737.70	1025.96
738.02	912.97
738.34	881.33
738.66	983.02
738.98	976.25
739.30	973.99
739.62	944.61
739.94	1023.70
740.26	1007.88
740.58	953.65
740.90	983.02
741.23	955.91
741.55	894.89
741.87	937.83
742.19	976.25
742.51	919.75
742.83	917.49
743.15	924.27
743.47	944.61
743.79	976.25
744.11	919.75
744.43	935.57
744.75	971.73
745.07	969.47
745.39	969.47
745.71	953.65
746.03	937.83
746.35	1019.18
746.67	908.45
746.98	978.51
747.30	919.75
747.62	944.61
747.94	960.43
748.26	962.69
748.58	860.99
748.90	899.41
749.22	951.39
749.54	983.02
749.86	958.17
750.18	989.80
750.50	1005.62
750.82	1001.10
751.13	978.51
751.45	985.28
751.77	890.37
752.09	964.95
752.41	1003.36
752.73	969.47
753.05	953.65
753.36	998.84
753.68	962.69
754.00	980.77
754.32	1046.30
754.64	973.99
754.96	922.01
755.28	901.67
755.59	978.51
755.91	949.13
756.23	946.87
756.55	946.87
756.87	958.17
757.18	971.73
757.50	942.35
757.82	912.97
758.14	937.83
758.45	973.99
758.77	903.93
759.09	879.07
759.41	976.25
759.73	949.13
760.04	983.02
760.36	940.09
760.68	942.35
760.99	917.49
761.31	940.09
761.63	910.71
761.95	992.06
762.26	910.71
762.58	980.77
762.90	969.47
763.21	915.23
763.53	987.54
763.85	890.37
764.17	922.01
764.48	987.54
764.80	912.97
765.12	953.65
765.43	960.43
765.75	935.57
766.07	962.69
766.38	912.97
766.70	958.17
767.01	983.02
767.33	1019.18
767.65	1007.88
767.96	958.17
768.28	944.61
768.60	946.87
768.91	917.49
769.23	953.65
769.54	987.54
769.86	906.19
770.18	971.73
770.49	994.32
770.81	969.47
771.12	922.01
771.44	942.35
771.75	946.87
772.07	928.79
772.38	989.80
772.70	958.17
773.02	1016.92
773.33	1001.10
773.65	1010.14
773.96	951.39
774.28	978.51
774.59	1007.88
774.91	980.77
775.22	969.47
775.54	989.80
775.85	922.01
776.17	973.99
776.48	955.91
776.80	937.83
777.11	962.69
777.43	940.09
777.74	933.31
778.05	962.69
778.37	1001.10
778.68	890.37
779.00	967.21
779.31	944.61
779.63	949.13
779.94	946.87
780.26	940.09
780.57	960.43
780.88	989.80
781.20	949.13
781.51	924.27
781.83	964.95
782.14	973.99
782.45	964.95
782.77	987.54
783.08	931.05
783.39	978.51
783.71	960.43
784.02	922.01
784.34	1021.44
784.65	949.13
784.96	942.35
785.28	1035.00
785.59	944.61
785.90	983.02
786.22	931.05
786.53	958.17
786.84	967.21
787.15	928.79
787.47	962.69
787.78	967.21
788.09	908.45
788.41	912.97
788.72	912.97
789.03	958.17
789.35	858.73
789.66	885.85
789.97	924.27
790.28	949.13
790.60	987.54
790.91	953.65
791.22	917.49
791.53	953.65
791.84	931.05
792.16	962.69
792.47	985.28
792.78	969.47
793.09	897.15
793.41	960.43
793.72	944.61
794.03	915.23
794.34	1003.36
794.65	1025.96
794.96	994.32
795.28	985.28
795.59	958.17
795.90	967.21
796.21	1010.14
796.52	924.27
796.83	912.97
797.15	940.09
797.46	994.32
797.77	998.84
798.08	922.01
798.39	944.61
798.70	928.79
799.01	964.95
799.32	980.77
799.63	915.23
799.95	908.45
800.26	980.77
800.57	912.97
800.88	985.28
801.19	994.32
801.50	960.43
801.81	969.47
802.12	989.80
802.43	1025.96
802.74	924.27
803.05	998.84
803.36	960.43
803.67	971.73
803.98	906.19
804.29	931.05
804.60	915.23
804.91	935.57
805.22	922.01
805.53	987.54
805.84	960.43
806.15	946.87
806.46	926.53
806.77	960.43
807.08	933.31
807.39	989.80
807.70	1021.44
808.01	937.83
808.32	906.19
808.63	998.84
808.94	949.13
809.25	883.59
809.56	922.01
809.87	1037.26
810.18	983.02
810.49	955.91
810.79	994.32
811.10	967.21
811.41	953.65
811.72	1046.30
812.03	973.99
812.34	958.17
812.65	917.49
812.96	892.63
813.27	912.97
813.57	967.21
813.88	942.35
814.19	962.69
814.50	944.61
814.81	978.51
815.12	912.97
815.42	953.65
815.73	922.01
816.04	1012.40
816.35	951.39
816.66	955.91
816.97	951.39
817.27	967.21
817.58	960.43
817.89	946.87
818.20	969.47
818.50	996.58
818.81	931.05
819.12	928.79
819.43	1019.18
819.73	980.77
820.04	1007.88
820.35	958.17
820.66	992.06
820.96	953.65
821.27	980.77
821.58	935.57
821.89	901.67
822.19	978.51
822.50	976.25
822.81	917.49
823.11	1014.66
823.42	946.87
823.73	928.79
824.03	908.45
824.34	989.80
824.65	955.91
824.95	894.89
825.26	987.54
825.57	910.71
825.87	1012.40
826.18	937.83
826.49	1007.88
826.79	937.83
827.10	953.65
827.40	928.79
827.71	942.35
828.02	960.43
828.32	960.43
828.63	983.02
828.93	899.41
829.24	1025.96
829.55	971.73
829.85	998.84
830.16	980.77
830.46	994.32
830.77	953.65
831.07	885.85
831.38	1016.92
831.69	960.43
831.99	946.87
832.30	946.87
832.60	940.09
832.91	1023.70
833.21	953.65
833.52	949.13
833.82	976.25
834.13	960.43
834.43	996.58
834.74	983.02
835.04	949.13
835.35	928.79
835.65	935.57
835.96	910.71
836.26	892.63
836.56	1039.52
836.87	994.32
837.17	937.83
837.48	980.77
837.78	1044.04
838.09	992.06
838.39	1003.36
838.69	989.80
839.00	1012.40
839.30	987.54
839.61	933.31
839.91	874.55
840.21	946.87
840.52	940.09
840.82	946.87
841.13	992.06
841.43	919.75
841.73	937.83
842.04	973.99
842.34	976.25
842.64	1005.62
842.95	983.02
843.25	910.71
843.55	922.01
843.86	937.83
844.16	1037.26
844.46	944.61
844.77	951.39
845.07	964.95
845.37	951.39
845.68	906.19
845.98	933.31
846.28	996.58
846.58	942.35
846.89	985.28
847.19	1021.44
847.49	989.80
847.79	953.65
848.10	958.17
848.40	1023.70
848.70	924.27
849.00	949.13
849.31	978.51
849.61	983.02
849.91	958.17
850.21	1007.88
850.51	915.23
850.82	980.77
851.12	983.02
851.42	946.87
851.72	1010.14
852.02	1005.62
852.32	976.25
852.63	1001.10
852.93	967.21
853.23	958.17
853.53	969.47
853.83	940.09
854.13	888.11
854.43	919.75
854.74	879.07
855.04	919.75
855.34	1007.88
855.64	894.89
855.94	980.77
856.24	969.47
856.54	942.35
856.84	989.80
857.14	933.31
857.44	1025.96
857.74	980.77
858.05	978.51
858.35	969.47
858.65	989.80
858.95	953.65
859.25	969.47
859.55	942.35
859.85	998.84
860.15	870.03
860.45	931.05
860.75	942.35
861.05	967.21
861.35	994.32
861.65	985.28
861.95	937.83
862.25	1010.14
862.55	946.87
862.85	989.80
863.15	998.84
863.45	976.25
863.75	890.37
864.05	937.83
864.35	946.87
864.64	933.31
864.94	983.02
865.24	1001.10
865.54	1001.10
865.84	912.97
866.14	912.97
866.44	971.73
866.74	937.83
867.04	890.37
867.34	910.71
867.64	994.32
867.93	985.28
868.23	894.89
868.53	1030.48
868.83	978.51
869.13	888.11
869.43	953.65
869.73	937.83
870.02	940.09
870.32	940.09
870.62	955.91
870.92	967.21
871.22	964.95
871.51	933.31
871.81	971.73
872.11	960.43
872.41	928.79
872.71	958.17
873.00	983.02
873.30	992.06
873.60	983.02
873.90	851.96
874.19	994.32
874.49	899.41
874.79	885.85
875.09	931.05
875.38	922.01
875.68	935.57
875.98	908.45
876.28	915.23
876.57	912.97
876.87	912.97
877.17	912.97
