174.03	725.40
174.41	725.40
174.78	725.40
175.16	671.17
175.54	632.75
175.92	666.65
176.30	723.14
176.67	705.07
177.05	772.86
177.43	657.61
177.81	750.26
178.19	759.30
178.56	720.88
178.94	815.80
179.32	768.34
179.70	799.98
180.08	901.67
180.45	840.66
180.83	842.92
181.21	867.77
181.59	917.49
181.96	946.87
182.34	863.25
182.72	1010.14
183.10	1141.21
183.48	1109.58
183.85	1107.32
184.23	1138.95
184.61	1215.79
184.99	1143.47
185.36	1134.43
185.74	1077.94
186.12	1118.61
186.50	1184.15
186.87	1177.37
187.25	1204.49
187.63	1272.28
188.01	1175.11
188.38	1195.45
188.76	1224.83
189.14	1231.61
189.52	1136.69
189.89	1195.45
190.27	1132.17
190.65	1159.29
191.02	1204.49
191.40	1150.25
191.78	1229.35
192.16	1206.75
192.53	1143.47
192.91	1186.41
193.29	1197.71
193.66	1204.49
194.04	1224.83
194.42	1145.73
194.79	1181.89
195.17	1209.01
195.55	1143.47
195.93	1159.29
196.30	1188.67
196.68	1157.03
197.06	1186.41
197.43	1181.89
197.81	1159.29
198.19	1064.38
198.56	1084.72
198.94	1247.42
199.32	1224.83
199.69	1213.53
200.07	1206.75
200.45	1177.37
200.82	1276.80
201.20	1154.77
201.58	1199.97
201.95	1242.91
202.33	1242.91
202.71	1270.02
203.08	1229.35
203.46	1161.55
203.84	1233.87
204.21	1199.97
204.59	1204.49
204.96	1186.41
205.34	1175.11
205.72	1193.19
206.09	1256.46
206.47	1288.10
206.85	1188.67
207.22	1186.41
207.60	1177.37
207.97	1188.67
208.35	1229.35
208.73	1211.27
209.10	1229.35
209.48	1186.41
209.85	1227.09
210.23	1199.97
210.61	1240.65
210.98	1152.51
211.36	1188.67
211.73	1193.19
212.11	1193.19
212.49	1141.21
212.86	1175.11
213.24	1195.45
213.61	1274.54
213.99	1181.89
214.37	1215.79
214.74	1224.83
215.12	1179.63
215.49	1159.29
215.87	1247.42
216.24	1206.75
216.62	1319.74
216.99	1220.31
217.37	1220.31
217.75	1218.05
218.12	1272.28
218.50	1233.87
218.87	1245.16
219.25	1283.58
219.62	1258.72
220.00	1224.83
220.37	1220.31
220.75	1310.70
221.12	1308.44
221.50	1254.20
221.87	1224.83
222.25	1227.09
222.63	1283.58
223.00	1242.91
223.38	1245.16
223.75	1267.76
224.13	1306.18
224.50	1315.22
224.88	1263.24
225.25	1288.10
225.63	1213.53
226.00	1276.80
226.38	1211.27
226.75	1276.80
227.13	1276.80
227.50	1281.32
227.88	1238.39
228.25	1254.20
228.63	1224.83
229.00	1315.22
229.37	1220.31
229.75	1270.02
230.12	1301.66
230.50	1204.49
230.87	1229.35
231.25	1281.32
231.62	1258.72
232.00	1301.66
232.37	1310.70
232.75	1233.87
233.12	1306.18
233.50	1312.96
233.87	1312.96
234.24	1274.54
234.62	1254.20
234.99	1242.91
235.37	1279.06
235.74	1322.00
236.12	1310.70
236.49	1251.94
236.86	1288.10
237.24	1294.88
237.61	1283.58
237.99	1270.02
238.36	1258.72
238.74	1340.08
239.11	1256.46
239.48	1251.94
239.86	1231.61
240.23	1306.18
240.61	1292.62
240.98	1310.70
241.35	1353.64
241.73	1315.22
242.10	1328.78
242.48	1344.60
242.85	1297.14
243.22	1315.22
243.60	1310.70
243.97	1322.00
244.34	1181.89
244.72	1267.76
245.09	1242.91
245.47	1324.26
245.84	1315.22
246.21	1335.56
246.59	1290.36
246.96	1326.52
247.33	1322.00
247.71	1274.54
248.08	1276.80
248.45	1328.78
248.83	1360.42
249.20	1292.62
249.57	1276.80
249.95	1342.34
250.32	1267.76
250.69	1294.88
251.07	1355.90
251.44	1265.50
251.81	1274.54
252.19	1344.60
252.56	1385.27
252.93	1333.30
253.31	1294.88
253.68	1324.26
254.05	1342.34
254.43	1285.84
254.80	1315.22
255.17	1371.72
255.55	1396.57
255.92	1263.24
256.29	1301.66
256.66	1333.30
257.04	1383.01
257.41	1326.52
257.78	1288.10
258.16	1360.42
258.53	1306.18
258.90	1342.34
259.27	1383.01
259.65	1405.61
260.02	1349.12
260.39	1441.77
260.76	1396.57
261.14	1319.74
261.51	1373.98
261.88	1276.80
262.25	1380.75
262.63	1342.34
263.00	1340.08
263.37	1312.96
263.74	1378.49
264.12	1306.18
264.49	1303.92
264.86	1385.27
265.23	1335.56
265.61	1355.90
265.98	1337.82
266.35	1306.18
266.72	1308.44
267.09	1283.58
267.47	1328.78
267.84	1385.27
268.21	1315.22
268.58	1276.80
268.95	1392.05
269.33	1353.64
269.70	1385.27
270.07	1419.17
270.44	1306.18
270.81	1360.42
271.19	1373.98
271.56	1401.09
271.93	1297.14
272.30	1421.43
272.67	1385.27
273.05	1369.46
273.42	1423.69
273.79	1349.12
274.16	1371.72
274.53	1337.82
274.90	1335.56
275.28	1387.53
275.65	1371.72
276.02	1385.27
276.39	1520.86
276.76	1412.39
277.13	1392.05
277.50	1394.31
277.88	1398.83
278.25	1428.21
278.62	1416.91
278.99	1412.39
279.36	1412.39
279.73	1448.55
280.10	1416.91
280.47	1416.91
280.85	1351.38
281.22	1484.71
281.59	1367.20
281.96	1434.99
282.33	1457.59
282.70	1364.94
283.07	1439.51
283.44	1441.77
283.81	1416.91
284.18	1301.66
284.56	1419.17
284.93	1484.71
285.30	1473.41
285.67	1448.55
286.04	1428.21
286.41	1480.19
286.78	1398.83
287.15	1425.95
287.52	1493.75
287.89	1489.23
288.26	1471.15
288.63	1496.01
289.00	1473.41
289.37	1405.61
289.75	1473.41
290.12	1419.17
290.49	1430.47
290.86	1498.27
291.23	1416.91
291.60	1425.95
291.97	1477.93
292.34	1398.83
292.71	1511.82
293.08	1507.30
293.45	1444.03
293.82	1453.07
294.19	1482.45
294.56	1486.97
294.93	1423.69
295.30	1419.17
295.67	1394.31
296.04	1541.20
296.41	1520.86
296.78	1473.41
297.15	1543.46
297.52	1568.32
297.89	1439.51
298.26	1498.27
298.63	1378.49
299.00	1502.79
299.37	1538.94
299.74	1498.27
300.11	1532.16
300.48	1441.77
300.85	1561.54
301.22	1518.60
301.59	1511.82
301.96	1475.67
302.33	1541.20
302.70	1457.59
303.07	1457.59
303.43	1518.60
303.80	1534.42
304.17	1575.10
304.54	1480.19
304.91	1563.80
305.28	1543.46
305.65	1606.74
306.02	1529.90
306.39	1514.08
306.76	1520.86
307.13	1532.16
307.50	1566.06
307.87	1681.31
308.24	1525.38
308.60	1613.52
308.97	1642.89
309.34	1516.34
309.71	1595.44
310.08	1599.96
310.45	1597.70
310.82	1663.23
311.19	1624.82
311.56	1606.74
311.92	1670.01
312.29	1557.02
312.66	1559.28
313.03	1624.82
313.40	1606.74
313.77	1631.60
314.14	1658.71
314.51	1547.98
314.87	1579.62
315.24	1656.45
315.61	1593.18
315.98	1658.71
316.35	1656.45
316.72	1685.83
317.09	1654.19
317.45	1498.27
317.82	1559.28
318.19	1649.67
318.56	1629.34
318.93	1602.22
319.30	1629.34
319.66	1620.30
320.03	1633.86
320.40	1579.62
320.77	1602.22
321.14	1690.35
321.50	1563.80
321.87	1638.38
322.24	1636.12
322.61	1572.84
322.98	1557.02
323.34	1615.78
323.71	1572.84
324.08	1640.63
324.45	1649.67
324.82	1629.34
325.18	1656.45
325.55	1762.67
325.92	1622.56
326.29	1615.78
326.65	1670.01
327.02	1638.38
327.39	1563.80
327.76	1721.99
328.12	1710.69
328.49	1726.51
328.86	1633.86
329.23	1701.65
329.59	1692.61
329.96	1697.13
330.33	1692.61
330.70	1660.97
331.06	1787.52
331.43	1744.59
331.80	1624.82
332.17	1638.38
332.53	2158.14
332.90	1758.15
333.27	1812.38
333.63	1830.46
334.00	1810.12
334.37	1719.73
334.74	1769.44
335.10	1796.56
335.47	1812.38
335.84	1792.04
336.20	1830.46
336.57	1717.47
336.94	1792.04
337.30	1773.96
337.67	1708.43
338.04	1773.96
338.40	1778.48
338.77	1920.85
339.14	1907.29
339.50	1925.37
339.87	1864.36
340.24	1966.05
340.60	1972.83
340.97	1954.75
341.34	1918.59
341.70	1853.06
342.07	1816.90
342.44	1844.02
342.80	1941.19
343.17	1932.15
343.53	1853.06
343.90	1914.07
344.27	1886.96
344.63	1882.44
345.00	1977.35
345.37	1889.22
345.73	1911.81
346.10	1966.05
346.46	1979.61
346.83	1970.57
347.20	2049.66
347.56	1968.31
347.93	2049.66
348.29	1990.91
348.66	2018.03
349.03	2110.68
349.39	1988.65
349.76	2060.96
350.12	2112.94
350.49	2042.88
350.85	2047.40
351.22	2097.12
351.59	2117.46
351.95	2124.24
352.32	2074.52
352.68	2153.62
353.05	2155.88
353.41	2115.20
353.78	2189.77
354.14	2155.88
354.51	2221.41
354.88	2250.79
355.24	2158.14
355.61	2192.03
355.97	2135.54
356.34	2241.75
356.70	2266.61
357.07	2334.40
357.43	2264.35
357.80	2268.87
358.16	2266.61
358.53	2390.90
358.89	2266.61
359.26	2298.24
359.62	2318.58
359.99	2334.40
360.35	2481.29
360.72	2449.65
361.08	2354.74
361.45	2309.54
361.81	2499.37
362.18	2404.46
362.54	2544.57
362.91	2535.53
363.27	2431.57
363.63	2644.00
364.00	2729.87
364.36	2777.33
364.73	2662.08
365.09	2795.41
365.46	2761.51
365.82	2653.04
366.19	2802.19
366.55	2854.16
366.91	2788.63
367.28	2879.02
367.64	2906.14
368.01	2869.98
368.37	2958.11
368.74	2942.30
369.10	3109.52
369.46	2989.75
369.83	3001.05
370.19	3154.72
370.56	3129.86
370.92	3231.55
371.28	3197.66
371.65	3247.37
372.01	3385.22
372.38	3443.98
372.74	3615.72
373.10	3665.44
373.47	3834.93
373.83	3871.08
374.19	3968.26
374.56	4045.09
374.92	4004.41
375.29	4045.09
375.65	4173.90
376.01	4262.03
376.38	4332.09
376.74	4460.90
377.10	4614.57
377.47	4865.41
377.83	5154.67
378.19	5310.59
378.56	5448.44
378.92	5782.90
379.28	6033.74
379.65	6558.02
380.01	6736.55
380.37	7161.39
380.74	7437.09
381.10	8268.71
381.46	8533.11
381.83	9204.28
382.19	9647.20
382.55	10472.04
382.91	11421.17
383.28	12239.23
383.64	13461.79
384.00	14716.00
384.37	15945.34
384.73	17497.84
385.09	18661.66
385.45	19940.72
385.82	22453.65
386.18	24232.13
386.54	27108.89
386.91	29913.34
387.27	32783.32
387.63	36134.64
387.99	38410.29
388.36	42733.34
388.72	46599.90
389.08	50335.40
389.44	53474.30
389.80	56186.09
390.17	58441.40
390.53	61311.38
390.89	64149.73
391.25	65535.00
391.62	65535.00
391.98	65535.00
392.34	65535.00
392.70	65535.00
393.06	65535.00
393.43	65535.00
393.79	65535.00
394.15	65535.00
394.51	65535.00
394.87	65535.00
395.24	65535.00
395.60	65535.00
395.96	65535.00
396.32	65535.00
396.68	65535.00
397.04	65535.00
397.41	65535.00
397.77	65535.00
398.13	65535.00
398.49	65535.00
398.85	65535.00
399.21	65535.00
399.58	65535.00
399.94	65535.00
400.30	65535.00
400.66	65535.00
401.02	65535.00
401.38	65535.00
401.74	65535.00
402.11	65535.00
402.47	65535.00
402.83	65535.00
403.19	65535.00
403.55	65535.00
403.91	65535.00
404.27	65535.00
404.63	65535.00
404.99	65535.00
405.35	65535.00
405.72	65535.00
406.08	65535.00
406.44	65535.00
406.80	65535.00
407.16	65535.00
407.52	65535.00
407.88	65535.00
408.24	65535.00
408.60	65535.00
408.96	65535.00
409.32	65535.00
409.68	65535.00
410.04	65535.00
410.40	65535.00
410.76	65535.00
411.13	65535.00
411.49	65535.00
411.85	65535.00
412.21	65535.00
412.57	65535.00
412.93	65535.00
413.29	65535.00
413.65	65535.00
414.01	65535.00
414.37	65535.00
414.73	65535.00
415.09	65535.00
415.45	65535.00
415.81	65535.00
416.17	65535.00
416.53	65535.00
416.89	65535.00
417.25	65535.00
417.61	65535.00
417.97	65535.00
418.33	65535.00
418.69	65535.00
419.05	65535.00
419.41	65535.00
419.77	65535.00
420.12	65535.00
420.48	65535.00
420.84	65535.00
421.20	65535.00
421.56	65535.00
421.92	65535.00
422.28	65535.00
422.64	65535.00
423.00	65535.00
423.36	65535.00
423.72	65535.00
424.08	65535.00
424.44	65535.00
424.80	65535.00
425.16	65535.00
425.51	65535.00
425.87	65535.00
426.23	65535.00
426.59	65535.00
426.95	65535.00
427.31	65535.00
427.67	65535.00
428.03	65535.00
428.39	65535.00
428.74	65535.00
429.10	63919.22
429.46	62922.64
429.82	61144.16
430.18	60296.72
430.54	59175.85
430.90	58561.17
431.26	57056.13
431.61	55157.87
431.97	54057.34
432.33	52624.60
432.69	51876.60
433.05	49598.70
433.41	46895.94
433.76	45255.31
434.12	44735.55
434.48	41870.09
434.84	40186.51
435.20	38993.32
435.55	37827.25
435.91	35847.64
436.27	34075.94
436.63	32936.99
436.99	31529.11
437.34	30118.98
437.70	29377.76
438.06	27599.27
438.42	25811.75
438.78	25000.47
439.13	24756.41
439.49	23330.46
439.85	22503.36
440.21	21149.73
440.56	20584.77
440.92	19481.97
441.28	18112.52
441.64	17913.65
441.99	16889.95
442.35	16605.21
442.71	15685.46
443.07	15421.06
443.42	14713.74
443.78	13909.24
444.14	13764.61
444.50	13109.26
444.85	13156.72
445.21	12295.72
445.57	11977.09
445.93	11475.40
446.28	11003.10
446.64	10560.17
447.00	10521.76
447.35	10822.31
447.71	10440.40
448.07	10230.24
448.42	9631.39
448.78	9190.72
449.14	8804.29
449.49	8266.45
449.85	8295.83
450.21	7983.97
450.56	7489.07
450.92	7084.56
451.28	7111.68
451.63	7301.50
451.99	6878.92
452.35	6958.01
452.70	6521.86
453.06	6379.49
453.42	6106.05
453.77	5730.92
454.13	5776.12
454.49	5349.01
454.84	5518.50
455.20	5181.78
455.55	4991.96
455.91	5003.26
456.27	4869.93
456.62	4842.81
456.98	4637.17
457.33	4295.93
457.69	4201.02
458.05	4119.67
458.40	3959.22
458.76	3932.10
459.11	3728.72
459.47	3807.81
459.83	3597.65
460.18	3538.89
460.54	3489.17
460.89	3516.29
461.25	3285.79
461.60	3215.73
461.96	3105.00
462.31	3229.29
462.67	3143.42
463.03	3062.07
463.38	3154.72
463.74	3059.81
464.09	2960.37
464.45	2924.22
464.80	2856.42
465.16	2788.63
465.51	2804.45
465.87	2772.81
466.22	2729.87
466.58	2756.99
466.93	2680.16
467.29	2610.10
467.64	2677.90
468.00	2567.16
468.35	2628.18
468.71	2578.46
469.06	2531.01
469.42	2528.75
469.77	2334.40
470.13	2399.94
470.48	2343.44
470.84	2384.12
471.19	2314.06
471.54	2318.58
471.90	2347.96
472.25	2257.57
472.61	2302.76
472.96	2228.19
473.32	2282.43
473.67	2228.19
474.03	2221.41
474.38	2216.89
474.73	2189.77
475.09	2176.21
475.44	2065.48
475.80	2149.10
476.15	2106.16
476.50	2207.85
476.86	2079.04
477.21	2083.56
477.57	2081.30
477.92	2169.43
478.27	2137.80
478.63	2060.96
478.98	2070.00
479.34	2070.00
479.69	2011.25
480.04	2117.46
480.40	2008.99
480.75	2013.51
481.10	1945.71
481.46	1975.09
481.81	1896.00
482.16	1986.39
482.52	2008.99
482.87	1938.93
483.22	1984.13
483.58	1966.05
483.93	1916.33
484.28	1943.45
484.64	1925.37
484.99	1864.36
485.34	1868.88
485.70	1975.09
486.05	1889.22
486.40	2015.77
486.76	1952.49
487.11	1855.32
487.46	1821.42
487.81	1898.26
488.17	1954.75
488.52	1918.59
488.87	1900.52
489.23	1871.14
489.58	1916.33
489.93	1844.02
490.28	1970.57
490.64	1785.26
490.99	1898.26
491.34	1862.10
491.69	1909.55
492.05	1950.23
492.40	1855.32
492.75	1968.31
493.10	1846.28
493.46	1877.92
493.81	1932.15
494.16	1957.01
494.51	1925.37
494.86	1981.87
495.22	2020.29
495.57	1975.09
495.92	2110.68
496.27	2070.00
496.62	2097.12
496.98	2070.00
497.33	2088.08
497.68	2038.36
498.03	2126.50
498.38	2280.17
498.74	2180.73
499.09	2216.89
499.44	2207.85
499.79	2372.82
500.14	2345.70
500.49	2406.72
500.85	2429.31
501.20	2537.79
501.55	2458.69
501.90	2585.24
502.25	2598.80
502.60	2734.39
502.95	2716.31
503.30	2727.61
503.66	2806.71
504.01	2903.88
504.36	2790.89
504.71	2971.67
505.06	2982.97
505.41	3123.08
505.76	3231.55
506.11	3238.33
506.46	3306.13
506.82	3360.36
507.17	3448.50
507.52	3660.92
507.87	3733.24
508.22	3703.86
508.57	3911.76
508.92	4108.37
509.27	4130.96
509.62	4108.37
509.97	4243.96
510.32	4356.95
510.67	4657.50
511.02	4666.54
511.37	4707.22
511.72	4775.02
512.07	5030.38
512.42	5184.04
512.77	5335.45
513.12	5459.74
513.47	5480.08
513.82	5730.92
514.17	5631.49
514.52	5868.77
514.87	6045.04
515.22	6261.98
515.57	6261.98
515.92	6573.84
516.27	6664.23
516.62	6842.76
516.97	7000.95
517.32	7217.89
517.67	7362.52
518.02	7419.01
518.37	7669.85
518.72	7837.08
519.07	7974.93
519.42	8151.20
519.77	8395.26
520.12	8329.72
520.47	8686.78
520.82	9021.23
521.17	8881.12
521.52	9073.21
521.87	9188.46
522.22	9407.66
522.56	9629.13
522.91	9631.39
523.26	10044.93
523.61	10087.87
523.96	10397.47
524.31	10607.63
524.66	10560.17
525.01	10824.57
525.36	11079.93
525.71	11122.87
526.05	11229.08
526.40	11538.68
526.75	11500.26
527.10	11794.04
527.45	11423.43
527.80	11705.91
528.15	12069.74
528.49	12049.40
528.84	12368.04
529.19	12196.29
529.54	12589.50
529.89	12571.42
530.24	12544.30
530.58	12874.24
530.93	13097.96
531.28	12826.78
531.63	13122.82
531.98	13445.97
532.33	13208.69
532.67	13389.48
533.02	13536.37
533.37	13518.29
533.72	13382.70
534.07	13558.97
534.41	13642.58
534.76	13920.54
535.11	13751.05
535.46	13981.55
535.80	14042.57
536.15	13875.34
536.50	14132.96
536.85	14223.35
537.19	14193.98
537.54	14123.92
537.89	14212.06
538.24	13990.59
538.58	14130.70
538.93	13949.92
539.28	14114.88
539.63	14148.78
539.97	14103.58
540.32	14268.55
540.67	14074.21
541.01	14257.25
541.36	14135.22
541.71	14232.39
542.06	14207.54
542.40	14227.87
542.75	14004.15
543.10	14264.03
543.44	14103.58
543.79	14031.27
544.14	14193.98
544.48	13868.56
544.83	13882.12
545.18	13866.30
545.52	13610.94
545.87	14008.67
546.22	13577.04
546.56	13958.96
546.91	13687.78
547.25	13642.58
547.60	13678.74
547.95	13633.54
548.29	13619.98
548.64	13423.38
548.99	13538.63
549.33	13538.63
549.68	13326.20
550.02	13389.48
550.37	13378.18
550.72	13461.79
551.06	13479.87
551.41	13156.72
551.75	13100.22
552.10	13129.60
552.45	13005.31
552.79	13055.02
553.14	13122.82
553.48	12966.89
553.83	12815.48
554.17	12822.26
554.52	12908.14
554.87	12627.92
555.21	12688.93
555.56	12772.55
555.90	12609.84
556.25	12684.41
556.59	12557.86
556.94	12368.04
557.28	12487.81
557.63	12383.86
557.97	12189.51
558.32	12214.37
558.66	12331.88
559.01	12209.85
559.35	11972.57
559.70	11974.83
560.04	12092.34
560.39	12004.20
560.73	12090.08
561.08	11954.49
561.42	11760.14
561.77	11800.82
562.11	11701.39
562.46	11764.66
562.80	11699.13
563.14	11475.40
563.49	11705.91
563.83	11613.25
564.18	11479.92
564.52	11425.69
564.87	11507.04
565.21	11409.87
565.56	11281.06
565.90	11229.08
566.24	11174.85
566.59	11247.16
566.93	11113.83
567.28	11120.61
567.62	11027.96
567.96	11000.84
568.31	10759.04
568.65	10783.90
569.00	10860.73
569.34	10637.01
569.68	10844.91
570.03	10607.63
570.37	10580.51
570.71	10397.47
571.06	10377.13
571.40	10517.24
571.74	10404.25
572.09	10354.53
572.43	10453.96
572.78	10426.84
573.12	10015.56
573.46	10169.22
573.80	10040.41
574.15	10060.75
574.49	9922.90
574.83	9902.56
575.18	9950.02
575.52	9694.66
575.86	9850.59
576.21	9663.02
576.55	9746.64
576.89	9649.46
577.24	9344.39
577.58	9362.47
577.92	9244.95
578.26	9380.54
578.61	9152.30
578.95	9299.19
579.29	9179.42
579.63	9190.72
579.98	9150.04
580.32	9086.77
580.66	9233.66
581.00	9009.93
581.35	9034.79
581.69	8765.87
582.03	8765.87
582.37	8811.07
582.72	8741.01
583.06	8580.57
583.40	8596.38
583.74	8623.50
584.08	8521.81
584.43	8449.50
584.77	8218.99
585.11	8300.35
585.45	8368.14
585.79	8356.84
586.13	8225.77
586.48	8081.14
586.82	8264.19
587.16	8189.62
587.50	8076.62
587.84	7785.11
588.18	7769.29
588.53	7757.99
588.87	7631.44
589.21	7728.61
589.55	7581.72
589.89	7593.02
590.23	7624.66
590.57	7545.56
590.92	7407.71
591.26	7416.75
591.60	7272.13
591.94	7353.48
592.28	7206.59
592.62	7168.17
592.96	7235.97
593.30	7195.29
593.64	7048.40
593.98	6969.31
594.32	6795.30
594.67	6982.87
595.01	6919.59
595.35	7014.50
595.69	6781.74
596.03	6616.78
596.37	6745.59
596.71	6648.41
597.05	6610.00
597.39	6494.74
597.73	6591.92
598.07	6675.53
598.41	6338.82
598.75	6261.98
599.09	6230.34
599.43	6343.34
599.77	6187.41
600.11	5956.91
600.45	6056.34
600.79	6008.88
601.13	6191.93
601.47	5936.57
601.81	5907.19
602.15	5965.94
602.49	6024.70
602.83	5812.28
603.17	5663.13
603.51	5719.62
603.85	5593.07
604.19	5749.00
604.53	5518.50
604.87	5547.88
605.21	5475.56
605.55	5477.82
605.89	5482.34
606.23	5446.18
606.56	5480.08
606.90	5335.45
607.24	5202.12
607.58	5080.09
607.92	5159.19
608.26	5113.99
608.60	5165.97
608.94	5084.61
609.28	5003.26
609.62	5019.08
609.95	5014.56
610.29	4756.94
610.63	4933.20
610.97	4813.43
611.31	4781.80
611.65	4872.19
611.99	4781.80
612.33	4695.92
612.66	4648.47
613.00	4657.50
613.34	4544.51
613.68	4591.97
614.02	4585.19
614.36	4329.83
614.69	4449.60
615.03	4354.69
615.37	4298.19
615.71	4289.15
616.05	4178.42
616.38	4210.06
616.72	4463.16
617.06	4171.64
617.40	4257.52
617.74	4191.98
618.07	4191.98
618.41	4203.28
618.75	4047.35
619.09	4031.53
619.42	4031.53
619.76	4167.12
620.10	4054.13
620.44	3855.27
620.77	4042.83
621.11	3875.60
621.45	3900.46
621.79	3936.62
622.12	3900.46
622.46	3803.29
622.80	3694.82
623.13	3828.15
623.47	3794.25
623.81	3703.86
624.15	3744.53
624.48	3658.66
624.82	3629.28
625.16	3776.17
625.49	3597.65
625.83	3645.10
626.17	3611.20
626.50	3611.20
626.84	3647.36
627.18	3525.33
627.51	3525.33
627.85	3412.34
628.19	3543.41
628.52	3421.38
628.86	3412.34
629.20	3367.14
629.53	3319.69
629.87	3312.91
630.20	3310.65
630.54	3263.19
630.88	3317.43
631.21	3202.18
631.55	3150.20
631.89	3132.12
632.22	3227.03
632.56	3125.34
632.89	3095.96
633.23	3028.17
633.56	3086.92
633.90	3105.00
634.24	3073.37
634.57	3118.56
634.91	3057.55
635.24	2958.11
635.58	3025.91
635.91	3046.25
636.25	2897.10
636.58	2854.16
636.92	2879.02
637.26	2779.59
637.59	2847.38
637.93	2901.62
638.26	2786.37
638.60	2720.83
638.93	2709.53
639.27	2741.17
639.60	2743.43
639.94	2702.75
640.27	2625.92
640.61	2711.79
640.94	2781.85
641.28	2743.43
641.61	2770.55
641.94	2671.12
642.28	2648.52
642.61	2639.48
642.95	2607.84
643.28	2515.19
643.62	2533.27
643.95	2506.15
644.29	2603.32
644.62	2499.37
644.95	2508.41
645.29	2438.35
645.62	2411.24
645.96	2458.69
646.29	2454.17
646.63	2418.02
646.96	2377.34
647.29	2427.05
647.63	2488.07
647.96	2424.80
648.29	2289.21
648.63	2379.60
648.96	2338.92
649.30	2323.10
649.63	2323.10
649.96	2343.44
650.30	2250.79
650.63	2341.18
650.96	2343.44
651.30	2126.50
651.63	2239.49
651.96	2198.81
652.30	2180.73
652.63	2248.53
652.96	2151.36
653.30	2237.23
653.63	2153.62
653.96	2065.48
654.30	2255.31
654.63	2076.78
654.96	2094.86
655.29	2126.50
655.63	2047.40
655.96	2047.40
656.29	2060.96
656.63	2013.51
656.96	2103.90
657.29	2106.16
657.62	1990.91
657.96	2036.10
658.29	2054.18
658.62	1968.31
658.95	1932.15
659.29	1984.13
659.62	1938.93
659.95	1984.13
660.28	1914.07
660.61	1889.22
660.95	1868.88
661.28	1898.26
661.61	1884.70
661.94	1846.28
662.27	1834.98
662.61	1877.92
662.94	1893.74
663.27	1868.88
663.60	1884.70
663.93	1825.94
664.27	1828.20
664.60	1796.56
664.93	1875.66
665.26	1871.14
665.59	1773.96
665.92	1830.46
666.25	1780.74
666.59	1789.78
666.92	1769.44
667.25	1685.83
667.58	1724.25
667.91	1683.57
668.24	1710.69
668.57	1712.95
668.90	1733.29
669.23	1656.45
669.57	1740.07
669.90	1622.56
670.23	1658.71
670.56	1645.15
670.89	1613.52
671.22	1629.34
671.55	1624.82
671.88	1595.44
672.21	1647.41
672.54	1604.48
672.87	1663.23
673.20	1559.28
673.53	1597.70
673.86	1604.48
674.19	1620.30
674.52	1613.52
674.85	1532.16
675.18	1629.34
675.51	1552.50
675.84	1547.98
676.17	1529.90
676.50	1570.58
676.83	1446.29
677.16	1543.46
677.49	1561.54
677.82	1486.97
678.15	1468.89
678.48	1557.02
678.81	1527.64
679.14	1484.71
679.47	1457.59
679.80	1498.27
680.13	1475.67
680.46	1486.97
680.79	1441.77
681.12	1383.01
681.45	1500.53
681.78	1444.03
682.11	1373.98
682.44	1387.53
682.77	1396.57
683.09	1403.35
683.42	1448.55
683.75	1394.31
684.08	1423.69
684.41	1378.49
684.74	1294.88
685.07	1387.53
685.40	1308.44
685.72	1249.68
686.05	1371.72
686.38	1344.60
686.71	1315.22
687.04	1358.16
687.37	1265.50
687.70	1364.94
688.02	1274.54
688.35	1328.78
688.68	1326.52
689.01	1351.38
689.34	1346.86
689.67	1326.52
689.99	1242.91
690.32	1303.92
690.65	1319.74
690.98	1331.04
691.30	1256.46
691.63	1231.61
691.96	1283.58
692.29	1297.14
692.62	1240.65
692.94	1227.09
693.27	1337.82
693.60	1324.26
693.93	1297.14
694.25	1193.19
694.58	1254.20
694.91	1283.58
695.24	1213.53
695.56	1256.46
695.89	1254.20
696.22	1276.80
696.54	1254.20
696.87	1272.28
697.20	1260.98
697.53	1227.09
697.85	1263.24
698.18	1213.53
698.51	1163.81
698.83	1231.61
699.16	1220.31
699.49	1281.32
699.81	1211.27
700.14	1193.19
700.47	1233.87
700.79	1233.87
701.12	1220.31
701.45	1159.29
701.77	1197.71
702.10	1227.09
702.42	1184.15
702.75	1166.07
703.08	1129.91
703.40	1175.11
703.73	1190.93
704.05	1186.41
704.38	1177.37
704.71	1154.77
705.03	1161.55
705.36	1152.51
705.68	1197.71
706.01	1195.45
706.34	1186.41
706.66	1163.81
706.99	1134.43
707.31	1172.85
707.64	1161.55
707.96	1172.85
708.29	1186.41
708.61	1132.17
708.94	1116.35
709.26	1159.29
709.59	1143.47
709.92	1188.67
710.24	1100.54
710.57	1150.25
710.89	1166.07
711.22	1089.24
711.54	1152.51
711.87	1136.69
712.19	1179.63
712.51	1127.65
712.84	1096.02
713.16	1111.84
713.49	1145.73
713.81	1086.98
714.14	1120.87
714.46	1116.35
714.79	1118.61
715.11	1111.84
715.44	1109.58
715.76	1193.19
716.08	1138.95
716.41	1086.98
716.73	1075.68
717.06	1118.61
717.38	1107.32
717.70	1096.02
718.03	998.84
718.35	1089.24
718.68	1055.34
719.00	1080.20
719.32	1107.32
719.65	1105.06
719.97	1107.32
720.29	1035.00
720.62	1105.06
720.94	1141.21
721.27	1141.21
721.59	1055.34
721.91	1141.21
722.24	1082.46
722.56	1080.20
722.88	1046.30
723.21	1064.38
723.53	1012.40
723.85	1066.64
724.17	1001.10
724.50	1039.52
724.82	1093.76
725.14	1073.42
725.47	1064.38
725.79	1134.43
726.11	973.99
726.43	1032.74
726.76	1111.84
727.08	1064.38
727.40	994.32
727.72	1044.04
728.05	1073.42
728.37	1037.26
728.69	1100.54
729.01	1025.96
729.34	1089.24
729.66	1046.30
729.98	1068.90
730.30	1044.04
730.62	1107.32
730.95	1093.76
731.27	1001.10
731.59	1066.64
731.91	1030.48
732.23	1003.36
732.56	1098.28
732.88	1050.82
733.20	980.77
733.52	1005.62
733.84	1014.66
734.16	1046.30
734.49	1080.20
734.81	1123.13
735.13	1016.92
735.45	1019.18
735.77	1053.08
736.09	987.54
736.41	1012.40
736.73	937.83
737.06	978.51
737.38	1068.90
737.70	1019.18
738.02	1037.26
738.34	998.84
738.66	1012.40
738.98	1096.02
739.30	1075.68
739.62	1035.00
739.94	1105.06
740.26	922.01
740.58	978.51
740.90	1048.56
741.23	980.77
741.55	1007.88
741.87	1007.88
742.19	1062.12
742.51	1035.00
742.83	962.69
743.15	962.69
743.47	937.83
743.79	1012.40
744.11	940.09
744.43	998.84
744.75	1023.70
745.07	915.23
745.39	976.25
745.71	1014.66
746.03	1035.00
746.35	1007.88
746.67	1012.40
746.98	1053.08
747.30	1019.18
747.62	978.51
747.94	953.65
748.26	1073.42
748.58	1037.26
748.90	985.28
749.22	1053.08
749.54	976.25
749.86	1005.62
750.18	1016.92
750.50	987.54
750.82	992.06
751.13	1016.92
751.45	1037.26
751.77	1007.88
752.09	955.91
752.41	960.43
752.73	994.32
753.05	1016.92
753.36	985.28
753.68	958.17
754.00	951.39
754.32	1046.30
754.64	973.99
754.96	964.95
755.28	1048.56
755.59	967.21
755.91	1019.18
756.23	978.51
756.55	996.58
756.87	935.57
757.18	983.02
757.50	978.51
757.82	1010.14
758.14	992.06
758.45	994.32
758.77	924.27
759.09	960.43
759.41	983.02
759.73	1012.40
760.04	949.13
760.36	942.35
760.68	983.02
760.99	976.25
761.31	944.61
761.63	980.77
761.95	901.67
762.26	994.32
762.58	987.54
762.90	949.13
763.21	1016.92
763.53	971.73
763.85	1005.62
764.17	1021.44
764.48	969.47
764.80	985.28
765.12	996.58
765.43	980.77
765.75	964.95
766.07	955.91
766.38	1001.10
766.70	992.06
767.01	926.53
767.33	985.28
767.65	998.84
767.96	976.25
768.28	933.31
768.60	985.28
768.91	985.28
769.23	962.69
769.54	973.99
769.86	910.71
770.18	928.79
770.49	955.91
770.81	964.95
771.12	969.47
771.44	958.17
771.75	960.43
772.07	980.77
772.38	958.17
772.70	976.25
773.02	978.51
773.33	944.61
773.65	942.35
773.96	1007.88
774.28	978.51
774.59	994.32
774.91	1001.10
775.22	1003.36
775.54	949.13
775.85	973.99
776.17	1012.40
776.48	951.39
776.80	958.17
777.11	973.99
777.43	874.55
777.74	960.43
778.05	910.71
778.37	951.39
778.68	917.49
779.00	951.39
779.31	967.21
779.63	937.83
779.94	942.35
780.26	964.95
780.57	983.02
780.88	976.25
781.20	973.99
781.51	912.97
781.83	933.31
782.14	953.65
782.45	1003.36
782.77	992.06
783.08	955.91
783.39	976.25
783.71	1039.52
784.02	915.23
784.34	906.19
784.65	935.57
784.96	919.75
785.28	944.61
785.59	940.09
785.90	933.31
786.22	1023.70
786.53	980.77
786.84	949.13
787.15	998.84
787.47	962.69
787.78	951.39
788.09	971.73
788.41	897.15
788.72	917.49
789.03	944.61
789.35	973.99
789.66	917.49
789.97	976.25
790.28	949.13
790.60	960.43
790.91	1019.18
791.22	992.06
791.53	946.87
791.84	953.65
792.16	964.95
792.47	955.91
792.78	926.53
793.09	890.37
793.41	1003.36
793.72	989.80
794.03	919.75
794.34	903.93
794.65	940.09
794.96	987.54
795.28	949.13
795.59	937.83
795.90	946.87
796.21	922.01
796.52	973.99
796.83	967.21
797.15	931.05
797.46	976.25
797.77	881.33
798.08	971.73
798.39	976.25
798.70	992.06
799.01	1001.10
799.32	881.33
799.63	1014.66
799.95	962.69
800.26	962.69
800.57	996.58
800.88	996.58
801.19	937.83
801.50	964.95
801.81	903.93
802.12	971.73
802.43	924.27
802.74	933.31
803.05	931.05
803.36	960.43
803.67	953.65
803.98	955.91
804.29	987.54
804.60	951.39
804.91	1001.10
805.22	1016.92
805.53	888.11
805.84	940.09
806.15	962.69
806.46	924.27
806.77	951.39
807.08	903.93
807.39	1005.62
807.70	903.93
808.01	917.49
808.32	922.01
808.63	944.61
808.94	935.57
809.25	987.54
809.56	931.05
809.87	931.05
810.18	978.51
810.49	976.25
810.79	915.23
811.10	973.99
811.41	926.53
811.72	908.45
812.03	951.39
812.34	928.79
812.65	962.69
812.96	953.65
813.27	919.75
813.57	983.02
813.88	992.06
814.19	908.45
814.50	885.85
814.81	924.27
815.12	944.61
815.42	951.39
815.73	955.91
816.04	879.07
816.35	955.91
816.66	926.53
816.97	962.69
817.27	983.02
817.58	962.69
817.89	926.53
818.20	953.65
818.50	926.53
818.81	962.69
819.12	978.51
819.43	901.67
819.73	903.93
820.04	940.09
820.35	931.05
820.66	926.53
820.96	949.13
821.27	917.49
821.58	976.25
821.89	906.19
822.19	892.63
822.50	928.79
822.81	912.97
823.11	917.49
823.42	942.35
823.73	946.87
824.03	973.99
824.34	962.69
824.65	910.71
824.95	989.80
825.26	985.28
825.57	946.87
825.87	933.31
826.18	906.19
826.49	978.51
826.79	967.21
827.10	937.83
827.40	912.97
827.71	953.65
828.02	915.23
828.32	937.83
828.63	976.25
828.93	903.93
829.24	1028.22
829.55	935.57
829.85	1012.40
830.16	962.69
830.46	931.05
830.77	922.01
831.07	894.89
831.38	908.45
831.69	937.83
831.99	951.39
832.30	933.31
832.60	928.79
832.91	919.75
833.21	951.39
833.52	992.06
833.82	962.69
834.13	942.35
834.43	983.02
834.74	937.83
835.04	912.97
835.35	931.05
835.65	944.61
835.96	910.71
836.26	989.80
836.56	994.32
836.87	953.65
837.17	894.89
837.48	928.79
837.78	922.01
838.09	937.83
838.39	894.89
838.69	944.61
839.00	960.43
839.30	978.51
839.61	964.95
839.91	937.83
840.21	964.95
840.52	953.65
840.82	971.73
841.13	919.75
841.43	962.69
841.73	931.05
842.04	879.07
842.34	980.77
842.64	892.63
842.95	922.01
843.25	942.35
843.55	901.67
843.86	940.09
844.16	928.79
844.46	1007.88
844.77	933.31
845.07	946.87
845.37	949.13
845.68	908.45
845.98	885.85
846.28	897.15
846.58	926.53
846.89	926.53
847.19	942.35
847.49	951.39
847.79	897.15
848.10	973.99
848.40	944.61
848.70	949.13
849.00	946.87
849.31	912.97
849.61	964.95
849.91	924.27
850.21	890.37
850.51	901.67
850.82	940.09
851.12	931.05
851.42	955.91
851.72	917.49
852.02	949.13
852.32	946.87
852.63	917.49
852.93	973.99
853.23	899.41
853.53	937.83
853.83	933.31
854.13	903.93
854.43	931.05
854.74	928.79
855.04	989.80
855.34	935.57
855.64	935.57
855.94	926.53
856.24	926.53
856.54	953.65
856.84	944.61
857.14	901.67
857.44	994.32
857.74	944.61
858.05	912.97
858.35	897.15
858.65	897.15
858.95	973.99
859.25	996.58
859.55	969.47
859.85	951.39
860.15	983.02
860.45	906.19
860.75	964.95
861.05	924.27
861.35	985.28
861.65	951.39
861.95	992.06
862.25	872.29
862.55	949.13
862.85	917.49
863.15	854.21
863.45	917.49
863.75	897.15
864.05	937.83
864.35	946.87
864.64	933.31
864.94	937.83
865.24	910.71
865.54	964.95
865.84	899.41
866.14	1003.36
866.44	942.35
866.74	992.06
867.04	928.79
867.34	892.63
867.64	994.32
867.93	964.95
868.23	892.63
868.53	924.27
868.83	955.91
869.13	940.09
869.43	910.71
869.73	1005.62
870.02	967.21
870.32	917.49
870.62	989.80
870.92	946.87
871.22	915.23
871.51	971.73
871.81	1014.66
872.11	989.80
872.41	985.28
872.71	953.65
873.00	928.79
873.30	953.65
873.60	942.35
873.90	915.23
874.19	926.53
874.49	922.01
874.79	942.35
875.09	989.80
875.38	958.17
875.68	969.47
875.98	960.43
876.28	924.27
876.57	888.11
876.87	888.11
877.17	888.11
