174.03	734.44
174.41	734.44
174.78	734.44
175.16	680.21
175.54	705.07
175.92	673.43
176.30	736.70
176.67	738.96
177.05	702.81
177.43	759.30
177.81	761.56
178.19	723.14
178.56	770.60
178.94	795.46
179.32	822.58
179.70	874.55
180.08	813.54
180.45	912.97
180.83	903.93
181.21	937.83
181.59	903.93
181.96	897.15
182.34	926.53
182.72	1073.42
183.10	1111.84
183.48	1116.35
183.85	1016.92
184.23	1147.99
184.61	1134.43
184.99	1118.61
185.36	1163.81
185.74	1184.15
186.12	1251.94
186.50	1159.29
186.87	1127.65
187.25	1231.61
187.63	1181.89
188.01	1073.42
188.38	1175.11
188.76	1199.97
189.14	1218.05
189.52	1222.57
189.89	1222.57
190.27	1181.89
190.65	1199.97
191.02	1197.71
191.40	1254.20
191.78	1177.37
192.16	1229.35
192.53	1181.89
192.91	1159.29
193.29	1251.94
193.66	1170.59
194.04	1159.29
194.42	1260.98
194.79	1143.47
195.17	1199.97
195.55	1247.42
195.93	1240.65
196.30	1190.93
196.68	1238.39
197.06	1145.73
197.43	1152.51
197.81	1236.13
198.19	1251.94
198.56	1175.11
198.94	1141.21
199.32	1202.23
199.69	1181.89
200.07	1213.53
200.45	1206.75
200.82	1220.31
201.20	1215.79
201.58	1222.57
201.95	1227.09
202.33	1202.23
202.71	1197.71
203.08	1172.85
203.46	1181.89
203.84	1154.77
204.21	1227.09
204.59	1245.16
204.96	1218.05
205.34	1188.67
205.72	1227.09
206.09	1209.01
206.47	1236.13
206.85	1215.79
207.22	1206.75
207.60	1263.24
207.97	1263.24
208.35	1215.79
208.73	1193.19
209.10	1166.07
209.48	1236.13
209.85	1256.46
210.23	1129.91
210.61	1199.97
210.98	1242.91
211.36	1172.85
211.73	1172.85
212.11	1211.27
212.49	1195.45
212.86	1222.57
213.24	1096.02
213.61	1233.87
213.99	1308.44
214.37	1209.01
214.74	1222.57
215.12	1215.79
215.49	1249.68
215.87	1236.13
216.24	1240.65
216.62	1206.75
216.99	1236.13
217.37	1247.42
217.75	1272.28
218.12	1229.35
218.50	1229.35
218.87	1254.20
219.25	1204.49
219.62	1251.94
220.00	1220.31
220.37	1220.31
220.75	1279.06
221.12	1310.70
221.50	1310.70
221.87	1184.15
222.25	1188.67
222.63	1279.06
223.00	1242.91
223.38	1256.46
223.75	1215.79
224.13	1236.13
224.50	1227.09
224.88	1319.74
225.25	1211.27
225.63	1270.02
226.00	1274.54
226.38	1233.87
226.75	1227.09
227.13	1245.16
227.50	1263.24
227.88	1199.97
228.25	1233.87
228.63	1301.66
229.00	1272.28
229.37	1229.35
229.75	1281.32
230.12	1222.57
230.50	1231.61
230.87	1267.76
231.25	1340.08
231.62	1263.24
232.00	1283.58
232.37	1299.40
232.75	1186.41
233.12	1256.46
233.50	1292.62
233.87	1276.80
234.24	1285.84
234.62	1346.86
234.99	1276.80
235.37	1328.78
235.74	1270.02
236.12	1326.52
236.49	1227.09
236.86	1195.45
237.24	1340.08
237.61	1324.26
237.99	1322.00
238.36	1258.72
238.74	1326.52
239.11	1315.22
239.48	1220.31
239.86	1260.98
240.23	1335.56
240.61	1315.22
240.98	1285.84
241.35	1331.04
241.73	1319.74
242.10	1270.02
242.48	1281.32
242.85	1288.10
243.22	1290.36
243.60	1276.80
243.97	1294.88
244.34	1310.70
244.72	1222.57
245.09	1256.46
245.47	1319.74
245.84	1301.66
246.21	1297.14
246.59	1317.48
246.96	1224.83
247.33	1288.10
247.71	1260.98
248.08	1373.98
248.45	1299.40
248.83	1306.18
249.20	1294.88
249.57	1294.88
249.95	1299.40
250.32	1270.02
250.69	1299.40
251.07	1355.90
251.44	1294.88
251.81	1342.34
252.19	1267.76
252.56	1346.86
252.93	1333.30
253.31	1310.70
253.68	1301.66
254.05	1322.00
254.43	1373.98
254.80	1367.20
255.17	1385.27
255.55	1401.09
255.92	1373.98
256.29	1450.81
256.66	1369.46
257.04	1326.52
257.41	1340.08
257.78	1288.10
258.16	1351.38
258.53	1324.26
258.90	1376.24
259.27	1353.64
259.65	1331.04
260.02	1364.94
260.39	1344.60
260.76	1315.22
261.14	1328.78
261.51	1315.22
261.88	1373.98
262.25	1322.00
262.63	1392.05
263.00	1312.96
263.37	1310.70
263.74	1367.20
264.12	1349.12
264.49	1419.17
264.86	1324.26
265.23	1376.24
265.61	1407.87
265.98	1328.78
266.35	1376.24
266.72	1351.38
267.09	1288.10
267.47	1380.75
267.84	1299.40
268.21	1328.78
268.58	1412.39
268.95	1405.61
269.33	1355.90
269.70	1335.56
270.07	1340.08
270.44	1367.20
270.81	1312.96
271.19	1308.44
271.56	1342.34
271.93	1349.12
272.30	1414.65
272.67	1428.21
273.05	1322.00
273.42	1358.16
273.79	1349.12
274.16	1340.08
274.53	1371.72
274.90	1414.65
275.28	1389.79
275.65	1392.05
276.02	1389.79
276.39	1398.83
276.76	1412.39
277.13	1337.82
277.50	1308.44
277.88	1410.13
278.25	1369.46
278.62	1441.77
278.99	1428.21
279.36	1392.05
279.73	1392.05
280.10	1480.19
280.47	1403.35
280.85	1482.45
281.22	1410.13
281.59	1462.11
281.96	1430.47
282.33	1466.63
282.70	1459.85
283.07	1441.77
283.44	1364.94
283.81	1462.11
284.18	1392.05
284.56	1405.61
284.93	1491.49
285.30	1428.21
285.67	1525.38
286.04	1457.59
286.41	1439.51
286.78	1444.03
287.15	1364.94
287.52	1412.39
287.89	1459.85
288.26	1477.93
288.63	1505.05
289.00	1428.21
289.37	1387.53
289.75	1403.35
290.12	1410.13
290.49	1448.55
290.86	1432.73
291.23	1446.29
291.60	1396.57
291.97	1500.53
292.34	1410.13
292.71	1450.81
293.08	1486.97
293.45	1367.20
293.82	1432.73
294.19	1505.05
294.56	1450.81
294.93	1428.21
295.30	1444.03
295.67	1441.77
296.04	1514.08
296.41	1505.05
296.78	1498.27
297.15	1509.56
297.52	1464.37
297.89	1559.28
298.26	1459.85
298.63	1532.16
299.00	1493.75
299.37	1441.77
299.74	1518.60
300.11	1423.69
300.48	1516.34
300.85	1493.75
301.22	1486.97
301.59	1502.79
301.96	1475.67
302.33	1480.19
302.70	1541.20
303.07	1459.85
303.43	1502.79
303.80	1498.27
304.17	1579.62
304.54	1459.85
304.91	1511.82
305.28	1532.16
305.65	1536.68
306.02	1486.97
306.39	1477.93
306.76	1455.33
307.13	1523.12
307.50	1455.33
307.87	1561.54
308.24	1559.28
308.60	1525.38
308.97	1514.08
309.34	1518.60
309.71	1500.53
310.08	1584.14
310.45	1631.60
310.82	1500.53
311.19	1615.78
311.56	1534.42
311.92	1505.05
312.29	1543.46
312.66	1566.06
313.03	1649.67
313.40	1599.96
313.77	1575.10
314.14	1624.82
314.51	1588.66
314.87	1554.76
315.24	1586.40
315.61	1588.66
315.98	1647.41
316.35	1595.44
316.72	1692.61
317.09	1624.82
317.45	1620.30
317.82	1590.92
318.19	1581.88
318.56	1631.60
318.93	1665.49
319.30	1566.06
319.66	1706.17
320.03	1615.78
320.40	1599.96
320.77	1660.97
321.14	1604.48
321.50	1579.62
321.87	1538.94
322.24	1602.22
322.61	1624.82
322.98	1588.66
323.34	1649.67
323.71	1642.89
324.08	1622.56
324.45	1681.31
324.82	1640.63
325.18	1701.65
325.55	1660.97
325.92	1633.86
326.29	1604.48
326.65	1647.41
327.02	1685.83
327.39	1694.87
327.76	1613.52
328.12	1758.15
328.49	1724.25
328.86	1751.37
329.23	1710.69
329.59	1645.15
329.96	1701.65
330.33	1638.38
330.70	1599.96
331.06	1737.81
331.43	1690.35
331.80	1749.11
332.17	1676.79
332.53	2404.46
332.90	1801.08
333.27	1803.34
333.63	1733.29
334.00	1694.87
334.37	1783.00
334.74	1785.26
335.10	1832.72
335.47	1647.41
335.84	1708.43
336.20	1773.96
336.57	1749.11
336.94	1803.34
337.30	1814.64
337.67	1819.16
338.04	1873.40
338.40	1810.12
338.77	1805.60
339.14	1862.10
339.50	1914.07
339.87	1853.06
340.24	1884.70
340.60	1884.70
340.97	1911.81
341.34	1923.11
341.70	1914.07
342.07	1889.22
342.44	1834.98
342.80	1801.08
343.17	1905.03
343.53	1909.55
343.90	1812.38
344.27	1898.26
344.63	1862.10
345.00	1875.66
345.37	1862.10
345.73	1941.19
346.10	2002.21
346.46	1959.27
346.83	1911.81
347.20	2013.51
347.56	1925.37
347.93	1999.95
348.29	1963.79
348.66	1938.93
349.03	1997.69
349.39	2047.40
349.76	1984.13
350.12	2045.14
350.49	2047.40
350.85	2085.82
351.22	2079.04
351.59	1984.13
351.95	2110.68
352.32	2060.96
352.68	2097.12
353.05	2121.98
353.41	2079.04
353.78	2072.26
354.14	2167.17
354.51	2182.99
354.88	2223.67
355.24	2187.51
355.61	2173.95
355.97	2194.29
356.34	2298.24
356.70	2255.31
357.07	2246.27
357.43	2266.61
357.80	2280.17
358.16	2286.95
358.53	2237.23
358.89	2381.86
359.26	2332.14
359.62	2352.48
359.99	2354.74
360.35	2375.08
360.72	2404.46
361.08	2289.21
361.45	2418.02
361.81	2404.46
362.18	2549.09
362.54	2531.01
362.91	2614.62
363.27	2560.38
363.63	2707.27
364.00	2716.31
364.36	2693.71
364.73	2752.47
365.09	2684.68
365.46	2698.23
365.82	2684.68
366.19	2795.41
366.55	2856.42
366.91	2795.41
367.28	2824.78
367.64	2802.19
368.01	2885.80
368.37	3107.26
368.74	2921.96
369.10	3093.70
369.46	3086.92
369.83	3064.33
370.19	3134.38
370.56	3206.70
370.92	3224.77
371.28	3197.66
371.65	3432.68
372.01	3279.01
372.38	3529.85
372.74	3475.61
373.10	3649.62
373.47	3715.16
373.83	3866.56
374.19	3941.14
374.56	3909.50
374.92	3990.86
375.29	3961.48
375.65	4223.62
376.01	4368.25
376.38	4302.71
376.74	4506.10
377.10	4650.73
377.47	4831.51
377.83	5048.45
378.19	5222.46
378.56	5471.04
378.92	5681.21
379.28	5916.23
379.65	6307.18
380.01	6756.88
380.37	7032.58
380.74	7455.17
381.10	8234.81
381.46	8408.82
381.83	9159.08
382.19	9730.82
382.55	10575.99
382.91	11391.79
383.28	12072.00
383.64	13448.23
384.00	14336.35
384.37	15590.55
384.73	17210.85
385.09	18575.78
385.45	20168.96
385.82	22331.62
386.18	24501.05
386.54	26815.11
386.91	29705.43
387.27	32485.02
387.63	36410.34
387.99	38462.27
388.36	42450.86
388.72	46502.73
389.08	49978.35
389.44	53257.36
389.80	56079.88
390.17	58127.29
390.53	61187.09
390.89	64000.58
391.25	65487.54
391.62	65535.00
391.98	65535.00
392.34	65535.00
392.70	65535.00
393.06	65535.00
393.43	65535.00
393.79	65535.00
394.15	65535.00
394.51	65535.00
394.87	65535.00
395.24	65535.00
395.60	65535.00
395.96	65535.00
396.32	65535.00
396.68	65535.00
397.04	65535.00
397.41	65535.00
397.77	65535.00
398.13	65535.00
398.49	65535.00
398.85	65535.00
399.21	65535.00
399.58	65535.00
399.94	65535.00
400.30	65535.00
400.66	65535.00
401.02	65535.00
401.38	65535.00
401.74	65535.00
402.11	65535.00
402.47	65535.00
402.83	65535.00
403.19	65535.00
403.55	65535.00
403.91	65535.00
404.27	65535.00
404.63	65535.00
404.99	65535.00
405.35	65535.00
405.72	65535.00
406.08	65535.00
406.44	65535.00
406.80	65535.00
407.16	65535.00
407.52	65535.00
407.88	65535.00
408.24	65535.00
408.60	65535.00
408.96	65535.00
409.32	65535.00
409.68	65535.00
410.04	65535.00
410.40	65535.00
410.76	65535.00
411.13	65535.00
411.49	65535.00
411.85	65535.00
412.21	65535.00
412.57	65535.00
412.93	65535.00
413.29	65535.00
413.65	65535.00
414.01	65535.00
414.37	65535.00
414.73	65535.00
415.09	65535.00
415.45	65535.00
415.81	65535.00
416.17	65535.00
416.53	65535.00
416.89	65535.00
417.25	65535.00
417.61	65535.00
417.97	65535.00
418.33	65535.00
418.69	65535.00
419.05	65535.00
419.41	65535.00
419.77	65535.00
420.12	65535.00
420.48	65535.00
420.84	65535.00
421.20	65535.00
421.56	65535.00
421.92	65535.00
422.28	65535.00
422.64	65535.00
423.00	65535.00
423.36	65535.00
423.72	65535.00
424.08	65535.00
424.44	65535.00
424.80	65535.00
425.16	65535.00
425.51	65535.00
425.87	65535.00
426.23	65535.00
426.59	65535.00
426.95	65535.00
427.31	65535.00
427.67	65535.00
428.03	65535.00
428.39	65535.00
428.74	65193.77
429.10	63550.87
429.46	62475.19
429.82	60999.53
430.18	59978.08
430.54	58825.57
430.90	58077.57
431.26	56436.93
431.61	54742.06
431.97	53575.99
432.33	52118.40
432.69	51386.22
433.05	49006.62
433.41	46627.02
433.76	45045.14
434.12	43727.66
434.48	41239.59
434.84	39626.08
435.20	38005.78
435.55	37542.52
435.91	35364.04
436.27	34152.77
436.63	32665.81
436.99	31298.61
437.34	29504.31
437.70	28611.68
438.06	27470.46
438.42	25748.48
438.78	24781.27
439.13	24247.95
439.49	23047.98
439.85	21872.87
440.21	20993.80
440.56	20297.77
440.92	19088.76
441.28	18175.79
441.64	17581.46
441.99	16901.25
442.35	16162.29
442.71	15079.83
443.07	15276.43
443.42	14320.53
443.78	13714.89
444.14	13681.00
444.50	12980.45
444.85	12779.32
445.21	12015.50
445.57	12162.39
445.93	11346.59
446.28	10921.75
446.64	10792.94
447.00	10087.87
447.35	10587.29
447.71	10176.00
448.07	9857.37
448.42	9378.28
448.78	9000.89
449.14	8578.31
449.49	8460.79
449.85	7952.33
450.21	7755.73
450.56	7437.09
450.92	6971.57
451.28	6946.71
451.63	7084.56
451.99	6815.64
452.35	6752.36
452.70	6336.56
453.06	6038.26
453.42	5911.71
453.77	5581.77
454.13	5480.08
454.49	5236.02
454.84	5333.19
455.20	5111.73
455.55	5066.53
455.91	4930.94
456.27	4863.15
456.62	4637.17
456.98	4381.81
457.33	4088.03
457.69	4011.19
458.05	4078.99
458.40	3873.34
458.76	3740.01
459.11	3660.92
459.47	3667.70
459.83	3475.61
460.18	3448.50
460.54	3538.89
460.89	3306.13
461.25	3346.80
461.60	3242.85
461.96	3224.77
462.31	3150.20
462.67	3120.82
463.03	2949.08
463.38	2931.00
463.74	2978.45
464.09	2888.06
464.45	2860.94
464.80	2797.67
465.16	2869.98
465.51	2865.46
465.87	2695.97
466.22	2725.35
466.58	2686.94
466.93	2544.57
467.29	2535.53
467.64	2596.54
468.00	2540.05
468.35	2456.43
468.71	2469.99
469.06	2422.54
469.42	2508.41
469.77	2492.59
470.13	2334.40
470.48	2366.04
470.84	2316.32
471.19	2277.91
471.54	2180.73
471.90	2282.43
472.25	2210.11
472.61	2239.49
472.96	2255.31
473.32	2203.33
473.67	2180.73
474.03	2171.69
474.38	2203.33
474.73	2173.95
475.09	2040.62
475.44	2045.14
475.80	2033.84
476.15	2049.66
476.50	2124.24
476.86	2004.47
477.21	1943.45
477.57	2002.21
477.92	1941.19
478.27	1934.41
478.63	1938.93
478.98	1986.39
479.34	2002.21
479.69	1975.09
480.04	1909.55
480.40	1929.89
480.75	1882.44
481.10	1920.85
481.46	1941.19
481.81	1902.77
482.16	1798.82
482.52	1859.84
482.87	1893.74
483.22	1898.26
483.58	1753.63
483.93	1771.70
484.28	1762.67
484.64	1855.32
484.99	1848.54
485.34	1762.67
485.70	1740.07
486.05	1726.51
486.40	1814.64
486.76	1798.82
487.11	1780.74
487.46	1697.13
487.81	1721.99
488.17	1719.73
488.52	1681.31
488.87	1667.75
489.23	1719.73
489.58	1685.83
489.93	1726.51
490.28	1624.82
490.64	1764.93
490.99	1712.95
491.34	1581.88
491.69	1690.35
492.05	1579.62
492.40	1660.97
492.75	1701.65
493.10	1496.01
493.46	1575.10
493.81	1570.58
494.16	1545.72
494.51	1557.02
494.86	1577.36
495.22	1523.12
495.57	1520.86
495.92	1507.30
496.27	1568.32
496.62	1581.88
496.98	1552.50
497.33	1482.45
497.68	1552.50
498.03	1475.67
498.38	1575.10
498.74	1520.86
499.09	1507.30
499.44	1477.93
499.79	1550.24
500.14	1511.82
500.49	1448.55
500.85	1450.81
501.20	1486.97
501.55	1484.71
501.90	1484.71
502.25	1448.55
502.60	1459.85
502.95	1448.55
503.30	1450.81
503.66	1392.05
504.01	1437.25
504.36	1525.38
504.71	1430.47
505.06	1344.60
505.41	1446.29
505.76	1421.43
506.11	1380.75
506.46	1423.69
506.82	1423.69
507.17	1425.95
507.52	1405.61
507.87	1369.46
508.22	1509.56
508.57	1423.69
508.92	1471.15
509.27	1441.77
509.62	1450.81
509.97	1439.51
510.32	1387.53
510.67	1324.26
511.02	1421.43
511.37	1439.51
511.72	1450.81
512.07	1464.37
512.42	1484.71
512.77	1421.43
513.12	1419.17
513.47	1405.61
513.82	1376.24
514.17	1358.16
514.52	1432.73
514.87	1346.86
515.22	1401.09
515.57	1423.69
515.92	1407.87
516.27	1387.53
516.62	1491.49
516.97	1364.94
517.32	1446.29
517.67	1446.29
518.02	1414.65
518.37	1407.87
518.72	1376.24
519.07	1358.16
519.42	1455.33
519.77	1471.15
520.12	1373.98
520.47	1446.29
520.82	1462.11
521.17	1441.77
521.52	1360.42
521.87	1364.94
522.22	1484.71
522.56	1326.52
522.91	1373.98
523.26	1407.87
523.61	1401.09
523.96	1421.43
524.31	1360.42
524.66	1441.77
525.01	1421.43
525.36	1414.65
525.71	1412.39
526.05	1425.95
526.40	1448.55
526.75	1419.17
527.10	1353.64
527.45	1373.98
527.80	1340.08
528.15	1373.98
528.49	1428.21
528.84	1505.05
529.19	1421.43
529.54	1378.49
529.89	1407.87
530.24	1423.69
530.58	1437.25
530.93	1446.29
531.28	1380.75
531.63	1441.77
531.98	1324.26
532.33	1403.35
532.67	1369.46
533.02	1380.75
533.37	1419.17
533.72	1362.68
534.07	1317.48
534.41	1369.46
534.76	1297.14
535.11	1342.34
535.46	1378.49
535.80	1410.13
536.15	1349.12
536.50	1423.69
536.85	1340.08
537.19	1349.12
537.54	1317.48
537.89	1328.78
538.24	1322.00
538.58	1369.46
538.93	1342.34
539.28	1383.01
539.63	1301.66
539.97	1274.54
540.32	1279.06
540.67	1240.65
541.01	1331.04
541.36	1288.10
541.71	1297.14
542.06	1272.28
542.40	1281.32
542.75	1331.04
543.10	1308.44
543.44	1236.13
543.79	1299.40
544.14	1258.72
544.48	1301.66
544.83	1256.46
545.18	1251.94
545.52	1254.20
545.87	1301.66
546.22	1231.61
546.56	1312.96
546.91	1218.05
547.25	1213.53
547.60	1238.39
547.95	1285.84
548.29	1197.71
548.64	1290.36
548.99	1270.02
549.33	1224.83
549.68	1213.53
550.02	1190.93
550.37	1281.32
550.72	1231.61
551.06	1193.19
551.41	1186.41
551.75	1193.19
552.10	1213.53
552.45	1251.94
552.79	1238.39
553.14	1197.71
553.48	1190.93
553.83	1170.59
554.17	1204.49
554.52	1242.91
554.87	1204.49
555.21	1270.02
555.56	1172.85
555.90	1256.46
556.25	1247.42
556.59	1172.85
556.94	1163.81
557.28	1152.51
557.63	1204.49
557.97	1213.53
558.32	1254.20
558.66	1188.67
559.01	1143.47
559.35	1247.42
559.70	1193.19
560.04	1181.89
560.39	1147.99
560.73	1134.43
561.08	1179.63
561.42	1193.19
561.77	1222.57
562.11	1222.57
562.46	1161.55
562.80	1168.33
563.14	1204.49
563.49	1240.65
563.83	1229.35
564.18	1215.79
564.52	1240.65
564.87	1220.31
565.21	1163.81
565.56	1170.59
565.90	1157.03
566.24	1150.25
566.59	1163.81
566.93	1136.69
567.28	1197.71
567.62	1188.67
567.96	1120.87
568.31	1172.85
568.65	1188.67
569.00	1199.97
569.34	1150.25
569.68	1213.53
570.03	1138.95
570.37	1161.55
570.71	1157.03
571.06	1120.87
571.40	1143.47
571.74	1175.11
572.09	1125.39
572.43	1120.87
572.78	1190.93
573.12	1145.73
573.46	1181.89
573.80	1100.54
574.15	1181.89
574.49	1204.49
574.83	1197.71
575.18	1175.11
575.52	1159.29
575.86	1129.91
576.21	1193.19
576.55	1170.59
576.89	1125.39
577.24	1138.95
577.58	1102.80
577.92	1163.81
578.26	1125.39
578.61	1147.99
578.95	1125.39
579.29	1179.63
579.63	1152.51
579.98	1157.03
580.32	1159.29
580.66	1077.94
581.00	1125.39
581.35	1172.85
581.69	1175.11
582.03	1096.02
582.37	1152.51
582.72	1111.84
583.06	1039.52
583.40	1107.32
583.74	1179.63
584.08	1179.63
584.43	1188.67
584.77	1120.87
585.11	1127.65
585.45	1091.50
585.79	1147.99
586.13	1147.99
586.48	1186.41
586.82	1066.64
587.16	1120.87
587.50	1102.80
587.84	1159.29
588.18	1109.58
588.53	1172.85
588.87	1091.50
589.21	1138.95
589.55	1127.65
589.89	1154.77
590.23	1116.35
590.57	1118.61
590.92	1082.46
591.26	1193.19
591.60	1096.02
591.94	1068.90
592.28	1066.64
592.62	1105.06
592.96	1096.02
593.30	1116.35
593.64	1154.77
593.98	1105.06
594.32	1071.16
594.67	1147.99
595.01	1159.29
595.35	1096.02
595.69	1127.65
596.03	1123.13
596.37	1136.69
596.71	1100.54
597.05	1068.90
597.39	1030.48
597.73	1134.43
598.07	1048.56
598.41	1195.45
598.75	1044.04
599.09	1082.46
599.43	1120.87
599.77	1123.13
600.11	1163.81
600.45	1093.76
600.79	1055.34
601.13	1089.24
601.47	1143.47
601.81	1096.02
602.15	1071.16
602.49	1037.26
602.83	1075.68
603.17	1129.91
603.51	1071.16
603.85	1053.08
604.19	1062.12
604.53	1046.30
604.87	1048.56
605.21	1059.86
605.55	1118.61
605.89	1005.62
606.23	1086.98
606.56	1134.43
606.90	1105.06
607.24	1116.35
607.58	1023.70
607.92	1102.80
608.26	1044.04
608.60	1123.13
608.94	1044.04
609.28	1059.86
609.62	1048.56
609.95	1016.92
610.29	1055.34
610.63	1109.58
610.97	1053.08
611.31	1105.06
611.65	1046.30
611.99	1066.64
612.33	1080.20
612.66	1039.52
613.00	1102.80
613.34	1053.08
613.68	1044.04
614.02	1109.58
614.36	1098.28
614.69	1037.26
615.03	1055.34
615.37	1014.66
615.71	1041.78
616.05	1064.38
616.38	1096.02
616.72	1046.30
617.06	1098.28
617.40	1066.64
617.74	1048.56
618.07	1066.64
618.41	1127.65
618.75	1089.24
619.09	1010.14
619.42	1021.44
619.76	1025.96
620.10	1098.28
620.44	1003.36
620.77	989.80
621.11	1005.62
621.45	1048.56
621.79	992.06
622.12	1055.34
622.46	1082.46
622.80	1007.88
623.13	1003.36
623.47	989.80
623.81	1109.58
624.15	1035.00
624.48	1019.18
624.82	1116.35
625.16	1114.10
625.49	1037.26
625.83	1082.46
626.17	1066.64
626.50	1120.87
626.84	1077.94
627.18	1039.52
627.51	1100.54
627.85	1025.96
628.19	1082.46
628.52	1021.44
628.86	1066.64
629.20	1039.52
629.53	1062.12
629.87	1016.92
630.20	1025.96
630.54	1041.78
630.88	1071.16
631.21	1037.26
631.55	1021.44
631.89	1035.00
632.22	1105.06
632.56	996.58
632.89	1035.00
633.23	971.73
633.56	1012.40
633.90	1039.52
634.24	1007.88
634.57	1073.42
634.91	1025.96
635.24	1007.88
635.58	1023.70
635.91	1005.62
636.25	1055.34
636.58	1048.56
636.92	976.25
637.26	1107.32
637.59	1005.62
637.93	1019.18
638.26	998.84
638.60	1019.18
638.93	1077.94
639.27	1035.00
639.60	1066.64
639.94	1044.04
640.27	1057.60
640.61	1057.60
640.94	1093.76
641.28	994.32
641.61	1046.30
641.94	989.80
642.28	992.06
642.61	1030.48
642.95	1030.48
643.28	1096.02
643.62	973.99
643.95	994.32
644.29	962.69
644.62	1012.40
644.95	1021.44
645.29	1028.22
645.62	1166.07
645.96	1093.76
646.29	976.25
646.63	1007.88
646.96	985.28
647.29	1014.66
647.63	985.28
647.96	994.32
648.29	1030.48
648.63	1019.18
648.96	1050.82
649.30	1062.12
649.63	1037.26
649.96	989.80
650.30	1030.48
650.63	1044.04
650.96	994.32
651.30	996.58
651.63	1023.70
651.96	1089.24
652.30	1073.42
652.63	987.54
652.96	1001.10
653.30	1028.22
653.63	1064.38
653.96	1025.96
654.30	1019.18
654.63	1048.56
654.96	1035.00
655.29	1023.70
655.63	1025.96
655.96	994.32
656.29	983.02
656.63	1014.66
656.96	908.45
657.29	1055.34
657.62	1057.60
657.96	937.83
658.29	1003.36
658.62	1005.62
658.95	1012.40
659.29	1041.78
659.62	1014.66
659.95	976.25
660.28	1007.88
660.61	1010.14
660.95	1039.52
661.28	989.80
661.61	998.84
661.94	971.73
662.27	940.09
662.61	955.91
662.94	1007.88
663.27	1032.74
663.60	994.32
663.93	983.02
664.27	1005.62
664.60	962.69
664.93	994.32
665.26	1012.40
665.59	992.06
665.92	1007.88
666.25	1021.44
666.59	976.25
666.92	980.77
667.25	1007.88
667.58	998.84
667.91	1001.10
668.24	1014.66
668.57	969.47
668.90	996.58
669.23	1030.48
669.57	1001.10
669.90	940.09
670.23	967.21
670.56	971.73
670.89	998.84
671.22	1035.00
671.55	1028.22
671.88	996.58
672.21	985.28
672.54	983.02
672.87	987.54
673.20	1048.56
673.53	1007.88
673.86	1025.96
674.19	1023.70
674.52	996.58
674.85	946.87
675.18	1025.96
675.51	964.95
675.84	973.99
676.17	949.13
676.50	958.17
676.83	985.28
677.16	1035.00
677.49	1023.70
677.82	1010.14
678.15	1025.96
678.48	1035.00
678.81	976.25
679.14	996.58
679.47	942.35
679.80	964.95
680.13	971.73
680.46	1032.74
680.79	1003.36
681.12	1035.00
681.45	919.75
681.78	964.95
682.11	1014.66
682.44	992.06
682.77	998.84
683.09	980.77
683.42	971.73
683.75	964.95
684.08	1003.36
684.41	1010.14
684.74	996.58
685.07	987.54
685.40	978.51
685.72	951.39
686.05	962.69
686.38	935.57
686.71	967.21
687.04	1012.40
687.37	924.27
687.70	1007.88
688.02	969.47
688.35	967.21
688.68	983.02
689.01	944.61
689.34	1001.10
689.67	949.13
689.99	973.99
690.32	978.51
690.65	912.97
690.98	856.47
691.30	924.27
691.63	951.39
691.96	983.02
692.29	942.35
692.62	1021.44
692.94	976.25
693.27	994.32
693.60	1028.22
693.93	1019.18
694.25	976.25
694.58	980.77
694.91	1035.00
695.24	971.73
695.56	928.79
695.89	1010.14
696.22	955.91
696.54	1044.04
696.87	944.61
697.20	964.95
697.53	971.73
697.85	976.25
698.18	944.61
698.51	1057.60
698.83	992.06
699.16	978.51
699.49	992.06
699.81	933.31
700.14	973.99
700.47	940.09
700.79	944.61
701.12	1053.08
701.45	960.43
701.77	1005.62
702.10	998.84
702.42	1021.44
702.75	971.73
703.08	962.69
703.40	935.57
703.73	838.40
704.05	960.43
704.38	940.09
704.71	942.35
705.03	980.77
705.36	989.80
705.68	917.49
706.01	978.51
706.34	987.54
706.66	958.17
706.99	944.61
707.31	987.54
707.64	976.25
707.96	935.57
708.29	998.84
708.61	885.85
708.94	942.35
709.26	992.06
709.59	967.21
709.92	949.13
710.24	960.43
710.57	964.95
710.89	912.97
711.22	876.81
711.54	967.21
711.87	969.47
712.19	973.99
712.51	940.09
712.84	969.47
713.16	978.51
713.49	922.01
713.81	983.02
714.14	926.53
714.46	964.95
714.79	985.28
715.11	944.61
715.44	969.47
715.76	912.97
716.08	910.71
716.41	935.57
716.73	967.21
717.06	1001.10
717.38	969.47
717.70	987.54
718.03	955.91
718.35	960.43
718.68	1019.18
719.00	946.87
719.32	987.54
719.65	955.91
719.97	967.21
720.29	969.47
720.62	899.41
720.94	937.83
721.27	928.79
721.59	978.51
721.91	969.47
722.24	960.43
722.56	958.17
722.88	953.65
723.21	917.49
723.53	937.83
723.85	933.31
724.17	944.61
724.50	953.65
724.82	989.80
725.14	940.09
725.47	971.73
725.79	969.47
726.11	953.65
726.43	926.53
726.76	903.93
727.08	992.06
727.40	967.21
727.72	940.09
728.05	994.32
728.37	908.45
728.69	919.75
729.01	969.47
729.34	935.57
729.66	942.35
729.98	940.09
730.30	919.75
730.62	922.01
730.95	973.99
731.27	922.01
731.59	901.67
731.91	989.80
732.23	955.91
732.56	933.31
732.88	1003.36
733.20	946.87
733.52	971.73
733.84	942.35
734.16	922.01
734.49	1014.66
734.81	960.43
735.13	901.67
735.45	924.27
735.77	924.27
736.09	915.23
736.41	978.51
736.73	955.91
737.06	980.77
737.38	942.35
737.70	915.23
738.02	946.87
738.34	985.28
738.66	917.49
738.98	940.09
739.30	926.53
739.62	949.13
739.94	955.91
740.26	946.87
740.58	942.35
740.90	919.75
741.23	949.13
741.55	937.83
741.87	953.65
742.19	1003.36
742.51	980.77
742.83	1003.36
743.15	967.21
743.47	960.43
743.79	980.77
744.11	944.61
744.43	962.69
744.75	958.17
745.07	942.35
745.39	1003.36
745.71	971.73
746.03	922.01
746.35	917.49
746.67	960.43
746.98	955.91
747.30	992.06
747.62	910.71
747.94	949.13
748.26	958.17
748.58	955.91
748.90	931.05
749.22	944.61
749.54	944.61
749.86	980.77
750.18	897.15
750.50	1019.18
750.82	944.61
751.13	931.05
751.45	915.23
751.77	933.31
752.09	924.27
752.41	915.23
752.73	894.89
753.05	1001.10
753.36	996.58
753.68	949.13
754.00	876.81
754.32	1039.52
754.64	931.05
754.96	899.41
755.28	962.69
755.59	888.11
755.91	933.31
756.23	942.35
756.55	901.67
756.87	953.65
757.18	951.39
757.50	946.87
757.82	946.87
758.14	1028.22
758.45	955.91
758.77	924.27
759.09	976.25
759.41	958.17
759.73	912.97
760.04	987.54
760.36	980.77
760.68	915.23
760.99	955.91
761.31	958.17
761.63	944.61
761.95	971.73
762.26	949.13
762.58	874.55
762.90	935.57
763.21	940.09
763.53	935.57
763.85	795.46
764.17	915.23
764.48	933.31
764.80	971.73
765.12	897.15
765.43	946.87
765.75	935.57
766.07	908.45
766.38	989.80
766.70	946.87
767.01	1003.36
767.33	917.49
767.65	976.25
767.96	967.21
768.28	935.57
768.60	926.53
768.91	955.91
769.23	964.95
769.54	971.73
769.86	931.05
770.18	960.43
770.49	998.84
770.81	985.28
771.12	897.15
771.44	899.41
771.75	973.99
772.07	958.17
772.38	960.43
772.70	933.31
773.02	971.73
773.33	924.27
773.65	951.39
773.96	922.01
774.28	917.49
774.59	971.73
774.91	960.43
775.22	937.83
775.54	969.47
775.85	924.27
776.17	971.73
776.48	949.13
776.80	1001.10
777.11	994.32
777.43	919.75
777.74	1014.66
778.05	924.27
778.37	987.54
778.68	962.69
779.00	1025.96
779.31	994.32
779.63	906.19
779.94	1021.44
780.26	958.17
780.57	953.65
780.88	942.35
781.20	971.73
781.51	890.37
781.83	899.41
782.14	958.17
782.45	940.09
782.77	1035.00
783.08	958.17
783.39	985.28
783.71	1030.48
784.02	894.89
784.34	998.84
784.65	942.35
784.96	944.61
785.28	870.03
785.59	960.43
785.90	892.63
786.22	958.17
786.53	917.49
786.84	1001.10
787.15	953.65
787.47	946.87
787.78	967.21
788.09	933.31
788.41	931.05
788.72	1007.88
789.03	987.54
789.35	1014.66
789.66	998.84
789.97	996.58
790.28	915.23
790.60	960.43
790.91	953.65
791.22	906.19
791.53	933.31
791.84	931.05
792.16	942.35
792.47	944.61
792.78	949.13
793.09	937.83
793.41	955.91
793.72	926.53
794.03	879.07
794.34	940.09
794.65	910.71
794.96	922.01
795.28	908.45
795.59	910.71
795.90	953.65
796.21	924.27
796.52	958.17
796.83	915.23
797.15	1023.70
797.46	962.69
797.77	960.43
798.08	962.69
798.39	942.35
798.70	953.65
799.01	922.01
799.32	953.65
799.63	946.87
799.95	973.99
800.26	1005.62
800.57	973.99
800.88	885.85
801.19	1016.92
801.50	955.91
801.81	944.61
802.12	946.87
802.43	924.27
802.74	996.58
803.05	903.93
803.36	922.01
803.67	967.21
803.98	998.84
804.29	967.21
804.60	969.47
804.91	931.05
805.22	962.69
805.53	958.17
805.84	872.29
806.15	969.47
806.46	901.67
806.77	951.39
807.08	946.87
807.39	937.83
807.70	924.27
808.01	897.15
808.32	903.93
808.63	933.31
808.94	985.28
809.25	926.53
809.56	926.53
809.87	978.51
810.18	960.43
810.49	876.81
810.79	973.99
811.10	1035.00
811.41	928.79
811.72	917.49
812.03	922.01
812.34	958.17
812.65	1016.92
812.96	989.80
813.27	1010.14
813.57	872.29
813.88	937.83
814.19	1014.66
814.50	955.91
814.81	976.25
815.12	926.53
815.42	953.65
815.73	962.69
816.04	906.19
816.35	953.65
816.66	985.28
816.97	919.75
817.27	962.69
817.58	933.31
817.89	958.17
818.20	971.73
818.50	919.75
818.81	949.13
819.12	964.95
819.43	994.32
819.73	1037.26
820.04	926.53
820.35	951.39
820.66	1003.36
820.96	922.01
821.27	946.87
821.58	994.32
821.89	944.61
822.19	1010.14
822.50	903.93
822.81	955.91
823.11	885.85
823.42	946.87
823.73	935.57
824.03	976.25
824.34	944.61
824.65	931.05
824.95	944.61
825.26	985.28
825.57	964.95
825.87	933.31
826.18	967.21
826.49	989.80
826.79	908.45
827.10	910.71
827.40	935.57
827.71	897.15
828.02	933.31
828.32	962.69
828.63	888.11
828.93	910.71
829.24	964.95
829.55	901.67
829.85	931.05
830.16	922.01
830.46	1039.52
830.77	912.97
831.07	942.35
831.38	980.77
831.69	937.83
831.99	962.69
832.30	976.25
832.60	931.05
832.91	998.84
833.21	940.09
833.52	962.69
833.82	883.59
834.13	933.31
834.43	971.73
834.74	944.61
835.04	908.45
835.35	926.53
835.65	899.41
835.96	969.47
836.26	973.99
836.56	987.54
836.87	998.84
837.17	973.99
837.48	973.99
837.78	953.65
838.09	926.53
838.39	935.57
838.69	940.09
839.00	992.06
839.30	994.32
839.61	926.53
839.91	928.79
840.21	944.61
840.52	976.25
840.82	912.97
841.13	973.99
841.43	944.61
841.73	890.37
842.04	890.37
842.34	983.02
842.64	964.95
842.95	933.31
843.25	931.05
843.55	964.95
843.86	969.47
844.16	987.54
844.46	931.05
844.77	908.45
845.07	951.39
845.37	946.87
845.68	946.87
845.98	937.83
846.28	928.79
846.58	931.05
846.89	926.53
847.19	944.61
847.49	942.35
847.79	924.27
848.10	901.67
848.40	910.71
848.70	933.31
849.00	951.39
849.31	876.81
849.61	944.61
849.91	989.80
850.21	1007.88
850.51	935.57
850.82	940.09
851.12	953.65
851.42	973.99
851.72	944.61
852.02	980.77
852.32	922.01
852.63	987.54
852.93	958.17
853.23	827.10
853.53	933.31
853.83	944.61
854.13	969.47
854.43	944.61
854.74	942.35
855.04	933.31
855.34	942.35
855.64	935.57
855.94	953.65
856.24	881.33
856.54	894.89
856.84	915.23
857.14	980.77
857.44	928.79
857.74	940.09
858.05	885.85
858.35	872.29
858.65	906.19
858.95	960.43
859.25	1025.96
859.55	1014.66
859.85	955.91
860.15	951.39
860.45	881.33
860.75	969.47
861.05	901.67
861.35	985.28
861.65	910.71
861.95	940.09
862.25	962.69
862.55	885.85
862.85	910.71
863.15	906.19
863.45	915.23
863.75	937.83
864.05	964.95
864.35	953.65
864.64	967.21
864.94	983.02
865.24	980.77
865.54	967.21
865.84	867.77
866.14	967.21
866.44	931.05
866.74	910.71
867.04	912.97
867.34	908.45
867.64	933.31
867.93	890.37
868.23	953.65
868.53	940.09
868.83	892.63
869.13	940.09
869.43	967.21
869.73	951.39
870.02	983.02
870.32	917.49
870.62	978.51
870.92	935.57
871.22	985.28
871.51	980.77
871.81	919.75
872.11	971.73
872.41	919.75
872.71	987.54
873.00	903.93
873.30	1003.36
873.60	969.47
873.90	960.43
874.19	906.19
874.49	922.01
874.79	964.95
875.09	987.54
875.38	908.45
875.68	1037.26
875.98	1001.10
876.28	958.17
876.57	885.85
876.87	885.85
877.17	885.85
