174.03	745.74
174.41	745.74
174.78	745.74
175.16	659.87
175.54	775.12
175.92	707.33
176.30	648.57
176.67	720.88
177.05	750.26
177.43	772.86
177.81	766.08
178.19	729.92
178.56	781.90
178.94	786.42
179.32	836.14
179.70	881.33
180.08	883.59
180.45	906.19
180.83	860.99
181.21	931.05
181.59	922.01
181.96	946.87
182.34	1023.70
182.72	1039.52
183.10	1102.80
183.48	1129.91
183.85	1132.17
184.23	1193.19
184.61	1116.35
184.99	1127.65
185.36	1233.87
185.74	1179.63
186.12	1170.59
186.50	1276.80
186.87	1206.75
187.25	1251.94
187.63	1199.97
188.01	1193.19
188.38	1220.31
188.76	1231.61
189.14	1215.79
189.52	1229.35
189.89	1213.53
190.27	1222.57
190.65	1260.98
191.02	1267.76
191.40	1274.54
191.78	1247.42
192.16	1272.28
192.53	1175.11
192.91	1211.27
193.29	1258.72
193.66	1222.57
194.04	1206.75
194.42	1258.72
194.79	1168.33
195.17	1272.28
195.55	1202.23
195.93	1224.83
196.30	1195.45
196.68	1245.16
197.06	1172.85
197.43	1179.63
197.81	1260.98
198.19	1127.65
198.56	1249.68
198.94	1186.41
199.32	1129.91
199.69	1254.20
200.07	1272.28
200.45	1222.57
200.82	1254.20
201.20	1274.54
201.58	1249.68
201.95	1175.11
202.33	1184.15
202.71	1211.27
203.08	1240.65
203.46	1195.45
203.84	1206.75
204.21	1179.63
204.59	1245.16
204.96	1306.18
205.34	1175.11
205.72	1206.75
206.09	1245.16
206.47	1238.39
206.85	1220.31
207.22	1238.39
207.60	1188.67
207.97	1215.79
208.35	1283.58
208.73	1245.16
209.10	1240.65
209.48	1236.13
209.85	1188.67
210.23	1267.76
210.61	1242.91
210.98	1267.76
211.36	1265.50
211.73	1240.65
212.11	1242.91
212.49	1249.68
212.86	1238.39
213.24	1265.50
213.61	1218.05
213.99	1188.67
214.37	1238.39
214.74	1249.68
215.12	1249.68
215.49	1231.61
215.87	1251.94
216.24	1229.35
216.62	1288.10
216.99	1229.35
217.37	1181.89
217.75	1256.46
218.12	1240.65
218.50	1333.30
218.87	1270.02
219.25	1260.98
219.62	1270.02
220.00	1303.92
220.37	1301.66
220.75	1209.01
221.12	1265.50
221.50	1193.19
221.87	1222.57
222.25	1245.16
222.63	1283.58
223.00	1270.02
223.38	1294.88
223.75	1340.08
224.13	1267.76
224.50	1299.40
224.88	1229.35
225.25	1263.24
225.63	1256.46
226.00	1254.20
226.38	1238.39
226.75	1236.13
227.13	1279.06
227.50	1369.46
227.88	1245.16
228.25	1251.94
228.63	1288.10
229.00	1270.02
229.37	1279.06
229.75	1335.56
230.12	1256.46
230.50	1285.84
230.87	1373.98
231.25	1387.53
231.62	1380.75
232.00	1299.40
232.37	1335.56
232.75	1288.10
233.12	1283.58
233.50	1362.68
233.87	1310.70
234.24	1319.74
234.62	1303.92
234.99	1299.40
235.37	1333.30
235.74	1387.53
236.12	1331.04
236.49	1288.10
236.86	1270.02
237.24	1303.92
237.61	1349.12
237.99	1319.74
238.36	1326.52
238.74	1369.46
239.11	1319.74
239.48	1319.74
239.86	1364.94
240.23	1335.56
240.61	1378.49
240.98	1380.75
241.35	1360.42
241.73	1425.95
242.10	1335.56
242.48	1344.60
242.85	1328.78
243.22	1371.72
243.60	1349.12
243.97	1355.90
244.34	1297.14
244.72	1342.34
245.09	1328.78
245.47	1312.96
245.84	1355.90
246.21	1364.94
246.59	1312.96
246.96	1358.16
247.33	1326.52
247.71	1335.56
248.08	1337.82
248.45	1270.02
248.83	1355.90
249.20	1373.98
249.57	1344.60
249.95	1355.90
250.32	1274.54
250.69	1310.70
251.07	1369.46
251.44	1371.72
251.81	1378.49
252.19	1396.57
252.56	1351.38
252.93	1364.94
253.31	1331.04
253.68	1364.94
254.05	1346.86
254.43	1414.65
254.80	1335.56
255.17	1371.72
255.55	1425.95
255.92	1378.49
256.29	1403.35
256.66	1328.78
257.04	1405.61
257.41	1394.31
257.78	1351.38
258.16	1315.22
258.53	1358.16
258.90	1398.83
259.27	1425.95
259.65	1385.27
260.02	1473.41
260.39	1385.27
260.76	1450.81
261.14	1362.68
261.51	1405.61
261.88	1364.94
262.25	1371.72
262.63	1405.61
263.00	1376.24
263.37	1453.07
263.74	1355.90
264.12	1380.75
264.49	1385.27
264.86	1482.45
265.23	1367.20
265.61	1419.17
265.98	1373.98
266.35	1344.60
266.72	1362.68
267.09	1333.30
267.47	1315.22
267.84	1466.63
268.21	1378.49
268.58	1396.57
268.95	1405.61
269.33	1383.01
269.70	1441.77
270.07	1405.61
270.44	1398.83
270.81	1448.55
271.19	1423.69
271.56	1401.09
271.93	1536.68
272.30	1367.20
272.67	1387.53
273.05	1410.13
273.42	1439.51
273.79	1419.17
274.16	1450.81
274.53	1441.77
274.90	1434.99
275.28	1369.46
275.65	1500.53
276.02	1434.99
276.39	1475.67
276.76	1534.42
277.13	1430.47
277.50	1473.41
277.88	1414.65
278.25	1396.57
278.62	1475.67
278.99	1396.57
279.36	1389.79
279.73	1482.45
280.10	1444.03
280.47	1486.97
280.85	1441.77
281.22	1416.91
281.59	1434.99
281.96	1416.91
282.33	1457.59
282.70	1455.33
283.07	1502.79
283.44	1509.56
283.81	1559.28
284.18	1532.16
284.56	1450.81
284.93	1516.34
285.30	1453.07
285.67	1502.79
286.04	1471.15
286.41	1566.06
286.78	1468.89
287.15	1457.59
287.52	1532.16
287.89	1439.51
288.26	1464.37
288.63	1482.45
289.00	1480.19
289.37	1502.79
289.75	1516.34
290.12	1491.49
290.49	1486.97
290.86	1464.37
291.23	1493.75
291.60	1437.25
291.97	1532.16
292.34	1552.50
292.71	1441.77
293.08	1532.16
293.45	1496.01
293.82	1502.79
294.19	1545.72
294.56	1516.34
294.93	1482.45
295.30	1550.24
295.67	1588.66
296.04	1554.76
296.41	1532.16
296.78	1529.90
297.15	1532.16
297.52	1500.53
297.89	1554.76
298.26	1563.80
298.63	1439.51
299.00	1622.56
299.37	1527.64
299.74	1509.56
300.11	1527.64
300.48	1536.68
300.85	1514.08
301.22	1532.16
301.59	1547.98
301.96	1527.64
302.33	1547.98
302.70	1529.90
303.07	1575.10
303.43	1613.52
303.80	1566.06
304.17	1520.86
304.54	1547.98
304.91	1642.89
305.28	1557.02
305.65	1566.06
306.02	1593.18
306.39	1532.16
306.76	1599.96
307.13	1511.82
307.50	1663.23
307.87	1620.30
308.24	1572.84
308.60	1624.82
308.97	1554.76
309.34	1523.12
309.71	1636.12
310.08	1667.75
310.45	1615.78
310.82	1629.34
311.19	1769.44
311.56	1651.93
311.92	1674.53
312.29	1649.67
312.66	1640.63
313.03	1620.30
313.40	1731.03
313.77	1715.21
314.14	1708.43
314.51	1667.75
314.87	1755.89
315.24	1597.70
315.61	1683.57
315.98	1665.49
316.35	1740.07
316.72	1724.25
317.09	1690.35
317.45	1737.81
317.82	1721.99
318.19	1654.19
318.56	1645.15
318.93	1674.53
319.30	1710.69
319.66	1751.37
320.03	1694.87
320.40	1640.63
320.77	1620.30
321.14	1694.87
321.50	1724.25
321.87	1706.17
322.24	1656.45
322.61	1620.30
322.98	1710.69
323.34	1683.57
323.71	1649.67
324.08	1744.59
324.45	1749.11
324.82	1724.25
325.18	1712.95
325.55	1656.45
325.92	1764.93
326.29	1660.97
326.65	1692.61
327.02	1708.43
327.39	1728.77
327.76	1744.59
328.12	1755.89
328.49	1767.19
328.86	1735.55
329.23	1816.90
329.59	1798.82
329.96	1792.04
330.33	1771.70
330.70	1776.22
331.06	1816.90
331.43	1719.73
331.80	1762.67
332.17	1864.36
332.53	2497.11
332.90	1954.75
333.27	1891.48
333.63	1880.18
334.00	1868.88
334.37	1889.22
334.74	1857.58
335.10	1893.74
335.47	1907.29
335.84	1896.00
336.20	1905.03
336.57	1884.70
336.94	1785.26
337.30	1938.93
337.67	1914.07
338.04	1909.55
338.40	1853.06
338.77	1968.31
339.14	2033.84
339.50	1943.45
339.87	1954.75
340.24	2002.21
340.60	1907.29
340.97	1981.87
341.34	2002.21
341.70	1914.07
342.07	2033.84
342.44	1954.75
342.80	1889.22
343.17	2040.62
343.53	1986.39
343.90	2013.51
344.27	2060.96
344.63	2042.88
345.00	1961.53
345.37	2036.10
345.73	1952.49
346.10	2033.84
346.46	2051.92
346.83	1977.35
347.20	2015.77
347.56	2002.21
347.93	2054.18
348.29	2067.74
348.66	2097.12
349.03	2210.11
349.39	2146.84
349.76	2216.89
350.12	2194.29
350.49	2153.62
350.85	2196.55
351.22	2153.62
351.59	2176.21
351.95	2289.21
352.32	2219.15
352.68	2250.79
353.05	2185.25
353.41	2230.45
353.78	2219.15
354.14	2268.87
354.51	2268.87
354.88	2325.36
355.24	2291.47
355.61	2354.74
355.97	2359.26
356.34	2291.47
356.70	2408.98
357.07	2436.09
357.43	2476.77
357.80	2395.42
358.16	2418.02
358.53	2413.50
358.89	2386.38
359.26	2540.05
359.62	2467.73
359.99	2503.89
360.35	2506.15
360.72	2521.97
361.08	2558.12
361.45	2506.15
361.81	2605.58
362.18	2754.73
362.54	2664.34
362.91	2653.04
363.27	2743.43
363.63	2872.24
364.00	2806.71
364.36	2924.22
364.73	2756.99
365.09	2951.33
365.46	2949.08
365.82	2845.12
366.19	2910.66
366.55	2876.76
366.91	3037.21
367.28	2967.15
367.64	3007.83
368.01	3136.64
368.37	3129.86
368.74	3114.04
369.10	3285.79
369.46	3279.01
369.83	3208.96
370.19	3213.47
370.56	3371.66
370.92	3419.12
371.28	3446.24
371.65	3405.56
372.01	3529.85
372.38	3584.09
372.74	3803.29
373.10	3749.05
373.47	3972.78
373.83	4099.33
374.19	4130.96
374.56	4214.58
374.92	4187.46
375.29	4216.84
375.65	4372.77
376.01	4512.88
376.38	4680.10
376.74	4605.53
377.10	4908.35
377.47	5113.99
377.83	5326.41
378.19	5459.74
378.56	5807.76
378.92	6090.24
379.28	6393.05
379.65	6799.82
380.01	6960.27
380.37	7432.57
380.74	7796.41
381.10	8894.68
381.46	9070.95
381.83	9852.85
382.19	10424.58
382.55	10924.01
382.91	11997.42
383.28	12890.06
383.64	14259.51
384.00	15299.03
384.37	16851.53
384.73	18388.22
385.09	19739.59
385.45	21418.65
385.82	23463.79
386.18	25938.30
386.54	28469.31
386.91	31400.30
387.27	34631.86
387.63	37802.40
387.99	41004.57
388.36	44609.00
388.72	48871.03
389.08	52177.16
389.44	55155.61
389.80	57876.44
390.17	59652.67
390.53	62631.12
390.89	65535.00
391.25	65535.00
391.62	65535.00
391.98	65535.00
392.34	65535.00
392.70	65535.00
393.06	65535.00
393.43	65535.00
393.79	65535.00
394.15	65535.00
394.51	65535.00
394.87	65535.00
395.24	65535.00
395.60	65535.00
395.96	65535.00
396.32	65535.00
396.68	65535.00
397.04	65535.00
397.41	65535.00
397.77	65535.00
398.13	65535.00
398.49	65535.00
398.85	65535.00
399.21	65535.00
399.58	65535.00
399.94	65535.00
400.30	65535.00
400.66	65535.00
401.02	65535.00
401.38	65535.00
401.74	65535.00
402.11	65535.00
402.47	65535.00
402.83	65535.00
403.19	65535.00
403.55	65535.00
403.91	65535.00
404.27	65535.00
404.63	65535.00
404.99	65535.00
405.35	65535.00
405.72	65535.00
406.08	65535.00
406.44	65535.00
406.80	65535.00
407.16	65535.00
407.52	65535.00
407.88	65535.00
408.24	65535.00
408.60	65535.00
408.96	65535.00
409.32	65535.00
409.68	65535.00
410.04	65535.00
410.40	65535.00
410.76	65535.00
411.13	65535.00
411.49	65535.00
411.85	65535.00
412.21	65535.00
412.57	65535.00
412.93	65535.00
413.29	65535.00
413.65	65535.00
414.01	65535.00
414.37	65535.00
414.73	65535.00
415.09	65535.00
415.45	65535.00
415.81	65535.00
416.17	65535.00
416.53	65535.00
416.89	65535.00
417.25	65535.00
417.61	65535.00
417.97	65535.00
418.33	65535.00
418.69	65535.00
419.05	65535.00
419.41	65535.00
419.77	65535.00
420.12	65535.00
420.48	65535.00
420.84	65535.00
421.20	65535.00
421.56	65535.00
421.92	65535.00
422.28	65535.00
422.64	65535.00
423.00	65535.00
423.36	65535.00
423.72	65535.00
424.08	65535.00
424.44	65535.00
424.80	65535.00
425.16	65535.00
425.51	65535.00
425.87	65535.00
426.23	65535.00
426.59	65535.00
426.95	65535.00
427.31	65535.00
427.67	65535.00
428.03	65535.00
428.39	65535.00
428.74	65535.00
429.10	65535.00
429.46	64848.01
429.82	63372.34
430.18	62292.15
430.54	61476.35
430.90	60708.01
431.26	59096.75
431.61	57458.38
431.97	56373.66
432.33	55227.93
432.69	54997.42
433.05	52461.90
433.41	50516.19
433.76	48640.53
434.12	47734.34
434.48	45268.87
434.84	43488.12
435.20	41668.96
435.55	41011.35
435.91	38663.39
436.27	37052.13
436.63	36118.82
436.99	34358.42
437.34	32349.43
437.70	31542.67
438.06	30437.62
438.42	28372.14
438.78	27443.35
439.13	26677.26
439.49	25296.51
439.85	24175.64
440.21	22950.81
440.56	22171.17
440.92	21316.95
441.28	20087.61
441.64	19384.80
441.99	18724.93
442.35	18096.70
442.71	17075.26
443.07	16856.05
443.42	16015.40
443.78	15125.03
444.14	15147.62
444.50	14345.39
444.85	14139.74
445.21	13488.91
445.57	13086.66
445.93	12148.83
446.28	11879.91
446.64	11857.32
447.00	11502.52
447.35	11773.70
447.71	11224.56
448.07	10948.86
448.42	10279.96
448.78	10067.53
449.14	9516.13
449.49	9091.29
449.85	8786.21
450.21	8643.84
450.56	8101.48
450.92	7683.41
451.28	7651.78
451.63	8119.56
451.99	7439.35
452.35	7482.29
452.70	6996.43
453.06	6991.91
453.42	6533.16
453.77	6309.44
454.13	6191.93
454.49	5880.07
454.84	5778.38
455.20	5534.32
455.55	5430.37
455.91	5504.94
456.27	5290.26
456.62	5195.34
456.98	4910.61
457.33	4646.21
457.69	4488.02
458.05	4390.84
458.40	4390.84
458.76	4320.79
459.11	4137.74
459.47	4022.49
459.83	3853.01
460.18	3794.25
460.54	3798.77
460.89	3764.87
461.25	3721.94
461.60	3536.63
461.96	3455.28
462.31	3471.10
462.67	3358.10
463.03	3249.63
463.38	3373.92
463.74	3265.45
464.09	3186.36
464.45	3043.99
464.80	3159.24
465.16	3084.66
465.51	2906.14
465.87	2951.33
466.22	2931.00
466.58	2931.00
466.93	2874.50
467.29	2869.98
467.64	2851.90
468.00	2777.33
468.35	2766.03
468.71	2799.93
469.06	2725.35
469.42	2666.60
469.77	2542.31
470.13	2549.09
470.48	2503.89
470.84	2483.55
471.19	2424.80
471.54	2366.04
471.90	2352.48
472.25	2327.62
472.61	2332.14
472.96	2420.28
473.32	2372.82
473.67	2341.18
474.03	2284.69
474.38	2377.34
474.73	2359.26
475.09	2354.74
475.44	2336.66
475.80	2246.27
476.15	2372.82
476.50	2345.70
476.86	2239.49
477.21	2223.67
477.57	2239.49
477.92	2192.03
478.27	2115.20
478.63	2092.60
478.98	2162.66
479.34	2140.06
479.69	2110.68
480.04	2203.33
480.40	2164.91
480.75	2187.51
481.10	2144.58
481.46	2020.29
481.81	2065.48
482.16	2155.88
482.52	2070.00
482.87	2063.22
483.22	2182.99
483.58	2036.10
483.93	2065.48
484.28	2203.33
484.64	1993.17
484.99	1990.91
485.34	2110.68
485.70	2072.26
486.05	2106.16
486.40	2182.99
486.76	2155.88
487.11	2121.98
487.46	2088.08
487.81	2060.96
488.17	2036.10
488.52	1988.65
488.87	2074.52
489.23	2051.92
489.58	2045.14
489.93	2137.80
490.28	2112.94
490.64	2072.26
490.99	2083.56
491.34	2054.18
491.69	2079.04
492.05	2180.73
492.40	2187.51
492.75	2144.58
493.10	2162.66
493.46	2293.72
493.81	2244.01
494.16	2205.59
494.51	2275.65
494.86	2262.09
495.22	2300.50
495.57	2327.62
495.92	2366.04
496.27	2386.38
496.62	2415.76
496.98	2553.61
497.33	2440.61
497.68	2485.81
498.03	2549.09
498.38	2623.66
498.74	2680.16
499.09	2644.00
499.44	2754.73
499.79	2770.55
500.14	2897.10
500.49	2917.44
500.85	2933.26
501.20	3127.60
501.55	3150.20
501.90	3303.87
502.25	3227.03
502.60	3367.14
502.95	3324.21
503.30	3380.70
503.66	3611.20
504.01	3636.06
504.36	3778.43
504.71	3805.55
505.06	4065.43
505.41	4060.91
505.76	4284.63
506.11	4216.84
506.46	4449.60
506.82	4438.30
507.17	4671.06
507.52	4702.70
507.87	4795.35
508.22	4890.27
508.57	5039.42
508.92	5285.74
509.27	5317.37
509.62	5665.39
509.97	5491.38
510.32	5755.78
510.67	5995.32
511.02	6092.50
511.37	6390.79
511.72	6445.03
512.07	6560.28
512.42	6704.91
512.77	6856.32
513.12	7172.69
513.47	7452.91
513.82	7534.27
514.17	7737.65
514.52	7936.51
514.87	8083.40
515.22	8277.75
515.57	8275.49
515.92	8716.16
516.27	8881.12
516.62	9068.69
516.97	9224.62
517.32	9466.42
517.67	9649.46
518.02	9830.25
518.37	10035.89
518.72	10327.41
519.07	10408.77
519.42	10763.56
519.77	10957.90
520.12	11147.73
520.47	11242.64
520.82	11615.51
521.17	11613.25
521.52	11891.21
521.87	12053.92
522.22	12214.37
522.56	12456.17
522.91	12598.54
523.26	12777.07
523.61	12973.67
523.96	13253.89
524.31	13321.68
524.66	13647.10
525.01	13678.74
525.36	13972.51
525.71	13963.47
526.05	14336.35
526.40	14426.74
526.75	14363.46
527.10	14589.45
527.45	14501.31
527.80	14966.84
528.15	15030.11
528.49	15143.10
528.84	15066.27
529.19	15351.01
529.54	15457.22
529.89	15694.50
530.24	15531.80
530.58	15843.65
530.93	15913.71
531.28	15760.04
531.63	16141.95
531.98	16085.45
532.33	16121.61
532.67	16553.24
533.02	16245.90
533.37	16442.51
533.72	16336.29
534.07	16593.91
534.41	16761.14
534.76	16508.04
535.11	16679.79
535.46	16776.96
535.80	16885.43
536.15	16666.23
536.50	16770.18
536.85	16892.21
537.19	16756.62
537.54	17041.36
537.89	16894.47
538.24	16932.89
538.58	16828.94
538.93	16917.07
539.28	16853.79
539.63	16722.72
539.97	16788.26
540.32	16944.19
540.67	16894.47
541.01	16849.27
541.36	16496.74
541.71	16734.02
542.06	16831.20
542.40	16880.91
542.75	16654.93
543.10	16657.19
543.44	16675.27
543.79	16503.52
544.14	16049.30
544.48	16770.18
544.83	16627.81
545.18	16266.24
545.52	16191.66
545.87	16169.07
546.22	15967.94
546.56	16345.33
546.91	15915.97
547.25	15755.52
547.60	15931.78
547.95	15746.48
548.29	15802.97
548.64	15771.34
548.99	15830.09
549.33	15766.82
549.68	15613.15
550.02	15705.80
550.37	15689.98
550.72	15432.36
551.06	15213.16
551.41	15317.11
551.75	15373.61
552.10	15303.55
552.45	15186.04
552.79	15158.92
553.14	14941.98
553.48	15201.86
553.83	14831.25
554.17	14643.68
554.52	14975.88
554.87	14801.87
555.21	14697.92
555.56	14593.97
555.90	14320.53
556.25	14530.69
556.59	14302.45
556.94	14435.78
557.28	14471.94
557.63	14426.74
557.97	14318.27
558.32	14218.84
558.66	14105.84
559.01	14015.45
559.35	14334.09
559.70	14035.79
560.04	14105.84
560.39	13927.32
560.73	13728.45
561.08	13712.63
561.42	13902.46
561.77	13615.46
562.11	13601.90
562.46	13409.82
562.80	13432.42
563.14	13488.91
563.49	13271.97
563.83	13226.77
564.18	13418.86
564.52	13118.30
564.87	12973.67
565.21	13253.89
565.56	13014.35
565.90	12932.99
566.24	12869.72
566.59	12795.14
566.93	12605.32
567.28	12763.51
567.62	12844.86
567.96	12718.31
568.31	12693.45
568.65	12630.18
569.00	12655.03
569.34	12383.86
569.68	12584.98
570.03	12270.86
570.37	12417.75
570.71	12112.68
571.06	12083.30
571.40	12072.00
571.74	11990.65
572.09	11857.32
572.43	11986.13
572.78	11805.34
573.12	11615.51
573.46	11692.35
573.80	11466.37
574.15	11330.78
574.49	11507.04
574.83	11387.27
575.18	11364.67
575.52	11389.53
575.86	11190.67
576.21	11131.91
576.55	11375.97
576.89	10946.60
577.24	11073.16
577.58	11127.39
577.92	10996.32
578.26	10734.18
578.61	10553.39
578.95	10630.23
579.29	10695.76
579.63	10695.76
579.98	10526.28
580.32	10377.13
580.66	10415.55
581.00	10300.29
581.35	10051.71
581.69	10343.23
582.03	10182.78
582.37	10182.78
582.72	9913.86
583.06	9968.10
583.40	9922.90
583.74	10024.60
584.08	9780.53
584.43	9644.94
584.77	9934.20
585.11	9457.38
585.45	9380.54
585.79	9626.87
586.13	9355.69
586.48	9211.06
586.82	9489.02
587.16	9466.42
587.50	9385.06
587.84	8980.55
588.18	9170.38
588.53	9070.95
588.87	8994.11
589.21	8822.37
589.55	8885.64
589.89	8883.38
590.23	8788.47
590.57	8790.73
590.92	8623.50
591.26	8539.89
591.60	8598.64
591.94	8411.08
592.28	8146.68
592.62	8108.26
592.96	8087.92
593.30	8081.14
593.64	8038.21
593.98	8022.39
594.32	7753.47
594.67	7999.79
595.01	8081.14
595.35	7814.48
595.69	7796.41
596.03	7773.81
596.37	7498.11
596.71	7613.36
597.05	7611.10
597.39	7480.03
597.73	7441.61
598.07	7577.20
598.41	7353.48
598.75	7330.88
599.09	7188.51
599.43	7068.74
599.77	6978.35
600.11	7161.39
600.45	6987.39
600.79	6924.11
601.13	7066.48
601.47	6793.04
601.81	6784.00
602.15	6849.54
602.49	6682.31
602.83	6555.76
603.17	6458.59
603.51	6546.72
603.85	6356.90
604.19	6456.33
604.53	6304.92
604.87	6291.36
605.21	6241.64
605.55	6189.67
605.89	6119.61
606.23	6083.46
606.56	6011.14
606.90	5990.80
607.24	5988.54
607.58	6036.00
607.92	5678.95
608.26	5839.39
608.60	5708.32
608.94	5760.30
609.28	5681.21
609.62	5491.38
609.95	5543.36
610.29	5593.07
610.63	5617.93
610.97	5364.83
611.31	5450.70
611.65	5367.09
611.99	5326.41
612.33	5179.52
612.66	5211.16
613.00	5245.06
613.34	5168.23
613.68	5141.11
614.02	5057.49
614.36	5102.69
614.69	5003.26
615.03	4967.10
615.37	4982.92
615.71	4867.67
616.05	4878.97
616.38	4768.24
616.72	4924.16
617.06	4720.78
617.40	4709.48
617.74	4732.08
618.07	4772.76
618.41	4693.66
618.75	4666.54
619.09	4497.06
619.42	4591.97
619.76	4614.57
620.10	4551.29
620.44	4537.73
620.77	4402.14
621.11	4356.95
621.45	4497.06
621.79	4406.66
622.12	4311.75
622.46	4343.39
622.80	4329.83
623.13	4388.59
623.47	4338.87
623.81	4214.58
624.15	4205.54
624.48	4203.28
624.82	3997.64
625.16	4074.47
625.49	4042.83
625.83	4144.52
626.17	3934.36
626.50	4060.91
626.84	3923.06
627.18	4040.57
627.51	3886.90
627.85	3884.64
628.19	3819.11
628.52	3862.05
628.86	3875.60
629.20	3697.08
629.53	3665.44
629.87	3780.69
630.20	3694.82
630.54	3660.92
630.88	3608.94
631.21	3602.17
631.55	3459.80
631.89	3572.79
632.22	3520.81
632.56	3504.99
632.89	3459.80
633.23	3509.51
633.56	3437.20
633.90	3484.65
634.24	3448.50
634.57	3385.22
634.91	3373.92
635.24	3387.48
635.58	3385.22
635.91	3285.79
636.25	3303.87
636.58	3199.92
636.92	3227.03
637.26	3220.25
637.59	3204.44
637.93	3132.12
638.26	3141.16
638.60	3211.22
638.93	3055.29
639.27	3107.26
639.60	2969.41
639.94	3012.35
640.27	2992.01
640.61	3073.37
640.94	2946.82
641.28	2989.75
641.61	2964.89
641.94	3005.57
642.28	2958.11
642.61	2883.54
642.95	2917.44
643.28	2790.89
643.62	2865.46
643.95	2858.68
644.29	2813.49
644.62	2768.29
644.95	2732.13
645.29	2682.42
645.62	2799.93
645.96	2700.49
646.29	2738.91
646.63	2684.68
646.96	2585.24
647.29	2560.38
647.63	2558.12
647.96	2501.63
648.29	2542.31
648.63	2528.75
648.96	2558.12
649.30	2524.23
649.63	2499.37
649.96	2524.23
650.30	2519.71
650.63	2451.91
650.96	2442.87
651.30	2555.86
651.63	2449.65
651.96	2420.28
652.30	2372.82
652.63	2327.62
652.96	2336.66
653.30	2449.65
653.63	2300.50
653.96	2388.64
654.30	2379.60
654.63	2293.72
654.96	2241.75
655.29	2198.81
655.63	2246.27
655.96	2253.05
656.29	2266.61
656.63	2262.09
656.96	2230.45
657.29	2234.97
657.62	2223.67
657.96	2160.40
658.29	2180.73
658.62	2081.30
658.95	2074.52
659.29	2205.59
659.62	2117.46
659.95	2124.24
660.28	2108.42
660.61	2058.70
660.95	2085.82
661.28	2092.60
661.61	2070.00
661.94	2056.44
662.27	2070.00
662.61	1975.09
662.94	1855.32
663.27	1905.03
663.60	1988.65
663.93	1961.53
664.27	1972.83
664.60	2002.21
664.93	1909.55
665.26	1911.81
665.59	1902.77
665.92	1957.01
666.25	1907.29
666.59	1871.14
666.92	1864.36
667.25	1828.20
667.58	1911.81
667.91	1918.59
668.24	1875.66
668.57	1844.02
668.90	1792.04
669.23	1769.44
669.57	1877.92
669.90	1814.64
670.23	1807.86
670.56	1837.24
670.89	1764.93
671.22	1719.73
671.55	1787.52
671.88	1764.93
672.21	1769.44
672.54	1798.82
672.87	1721.99
673.20	1769.44
673.53	1676.79
673.86	1728.77
674.19	1767.19
674.52	1769.44
674.85	1681.31
675.18	1762.67
675.51	1670.01
675.84	1654.19
676.17	1651.93
676.50	1672.27
676.83	1647.41
677.16	1557.02
677.49	1604.48
677.82	1613.52
678.15	1651.93
678.48	1631.60
678.81	1604.48
679.14	1545.72
679.47	1570.58
679.80	1570.58
680.13	1563.80
680.46	1489.23
680.79	1563.80
681.12	1518.60
681.45	1523.12
681.78	1550.24
682.11	1505.05
682.44	1559.28
682.77	1516.34
683.09	1459.85
683.42	1550.24
683.75	1527.64
684.08	1491.49
684.41	1471.15
684.74	1466.63
685.07	1464.37
685.40	1471.15
685.72	1439.51
686.05	1360.42
686.38	1416.91
686.71	1502.79
687.04	1412.39
687.37	1459.85
687.70	1471.15
688.02	1405.61
688.35	1351.38
688.68	1351.38
689.01	1351.38
689.34	1414.65
689.67	1294.88
689.99	1362.68
690.32	1353.64
690.65	1344.60
690.98	1333.30
691.30	1396.57
691.63	1416.91
691.96	1358.16
692.29	1215.79
692.62	1364.94
692.94	1360.42
693.27	1412.39
693.60	1419.17
693.93	1326.52
694.25	1333.30
694.58	1290.36
694.91	1288.10
695.24	1317.48
695.56	1317.48
695.89	1333.30
696.22	1285.84
696.54	1294.88
696.87	1346.86
697.20	1376.24
697.53	1378.49
697.85	1247.42
698.18	1412.39
698.51	1362.68
698.83	1251.94
699.16	1265.50
699.49	1283.58
699.81	1251.94
700.14	1186.41
700.47	1236.13
700.79	1195.45
701.12	1186.41
701.45	1308.44
701.77	1263.24
702.10	1215.79
702.42	1231.61
702.75	1229.35
703.08	1218.05
703.40	1279.06
703.73	1227.09
704.05	1242.91
704.38	1285.84
704.71	1249.68
705.03	1245.16
705.36	1233.87
705.68	1238.39
706.01	1204.49
706.34	1213.53
706.66	1199.97
706.99	1136.69
707.31	1218.05
707.64	1197.71
707.96	1105.06
708.29	1141.21
708.61	1150.25
708.94	1179.63
709.26	1211.27
709.59	1188.67
709.92	1188.67
710.24	1197.71
710.57	1170.59
710.89	1159.29
711.22	1211.27
711.54	1199.97
711.87	1111.84
712.19	1181.89
712.51	1150.25
712.84	1159.29
713.16	1177.37
713.49	1184.15
713.81	1157.03
714.14	1159.29
714.46	1157.03
714.79	1141.21
715.11	1084.72
715.44	1175.11
715.76	1161.55
716.08	1152.51
716.41	1190.93
716.73	1143.47
717.06	1197.71
717.38	1220.31
717.70	1181.89
718.03	1109.58
718.35	1143.47
718.68	1145.73
719.00	1195.45
719.32	1150.25
719.65	1107.32
719.97	1150.25
720.29	1086.98
720.62	1120.87
720.94	1114.10
721.27	1161.55
721.59	1138.95
721.91	1138.95
722.24	1105.06
722.56	1098.28
722.88	1134.43
723.21	1138.95
723.53	1098.28
723.85	1091.50
724.17	1068.90
724.50	1168.33
724.82	1150.25
725.14	1116.35
725.47	1073.42
725.79	1098.28
726.11	1132.17
726.43	1046.30
726.76	1068.90
727.08	1025.96
727.40	1102.80
727.72	1089.24
728.05	1055.34
728.37	1059.86
728.69	1066.64
729.01	1062.12
729.34	1080.20
729.66	1127.65
729.98	1096.02
730.30	1091.50
730.62	1154.77
730.95	1048.56
731.27	1105.06
731.59	1053.08
731.91	1084.72
732.23	1062.12
732.56	1059.86
732.88	1093.76
733.20	1035.00
733.52	1073.42
733.84	1152.51
734.16	1152.51
734.49	1062.12
734.81	1075.68
735.13	1014.66
735.45	1005.62
735.77	1044.04
736.09	1007.88
736.41	1116.35
736.73	1084.72
737.06	1120.87
737.38	1064.38
737.70	1030.48
738.02	1039.52
738.34	1109.58
738.66	1032.74
738.98	1073.42
739.30	1125.39
739.62	1093.76
739.94	1019.18
740.26	1046.30
740.58	1084.72
740.90	1050.82
741.23	1080.20
741.55	1062.12
741.87	1048.56
742.19	973.99
742.51	1021.44
742.83	1057.60
743.15	996.58
743.47	1025.96
743.79	1105.06
744.11	1012.40
744.43	1057.60
744.75	985.28
745.07	1025.96
745.39	1046.30
745.71	1050.82
746.03	1037.26
746.35	1014.66
746.67	1028.22
746.98	1109.58
747.30	1062.12
747.62	1048.56
747.94	1046.30
748.26	989.80
748.58	994.32
748.90	960.43
749.22	1046.30
749.54	1019.18
749.86	1021.44
750.18	1039.52
750.50	955.91
750.82	967.21
751.13	1055.34
751.45	989.80
751.77	1035.00
752.09	1064.38
752.41	983.02
752.73	960.43
753.05	992.06
753.36	971.73
753.68	1012.40
754.00	989.80
754.32	960.43
754.64	967.21
754.96	1059.86
755.28	926.53
755.59	1046.30
755.91	953.65
756.23	992.06
756.55	1021.44
756.87	973.99
757.18	998.84
757.50	983.02
757.82	971.73
758.14	998.84
758.45	1057.60
758.77	1075.68
759.09	1077.94
759.41	1050.82
759.73	980.77
760.04	1025.96
760.36	967.21
760.68	1046.30
760.99	1059.86
761.31	992.06
761.63	1003.36
761.95	987.54
762.26	1025.96
762.58	1016.92
762.90	964.95
763.21	967.21
763.53	1005.62
763.85	1016.92
764.17	1028.22
764.48	1023.70
764.80	973.99
765.12	1035.00
765.43	1037.26
765.75	992.06
766.07	992.06
766.38	989.80
766.70	928.79
767.01	1023.70
767.33	1037.26
767.65	1028.22
767.96	1012.40
768.28	1016.92
768.60	1021.44
768.91	1037.26
769.23	989.80
769.54	987.54
769.86	983.02
770.18	1005.62
770.49	980.77
770.81	937.83
771.12	980.77
771.44	996.58
771.75	942.35
772.07	973.99
772.38	962.69
772.70	1001.10
773.02	992.06
773.33	978.51
773.65	1016.92
773.96	1019.18
774.28	935.57
774.59	978.51
774.91	962.69
775.22	980.77
775.54	989.80
775.85	1014.66
776.17	962.69
776.48	992.06
776.80	926.53
777.11	1062.12
777.43	1050.82
777.74	1035.00
778.05	1007.88
778.37	1005.62
778.68	1021.44
779.00	1023.70
779.31	1005.62
779.63	980.77
779.94	971.73
780.26	1003.36
780.57	973.99
780.88	953.65
781.20	1032.74
781.51	926.53
781.83	985.28
782.14	983.02
782.45	1021.44
782.77	964.95
783.08	989.80
783.39	973.99
783.71	962.69
784.02	931.05
784.34	1005.62
784.65	1014.66
784.96	1016.92
785.28	951.39
785.59	1039.52
785.90	1048.56
786.22	951.39
786.53	946.87
786.84	940.09
787.15	996.58
787.47	967.21
787.78	919.75
788.09	1030.48
788.41	989.80
788.72	967.21
789.03	1001.10
789.35	996.58
789.66	1012.40
789.97	955.91
790.28	919.75
790.60	960.43
790.91	962.69
791.22	973.99
791.53	944.61
791.84	1003.36
792.16	962.69
792.47	980.77
792.78	964.95
793.09	976.25
793.41	1028.22
793.72	989.80
794.03	1025.96
794.34	994.32
794.65	935.57
794.96	985.28
795.28	935.57
795.59	969.47
795.90	1007.88
796.21	960.43
796.52	944.61
796.83	1028.22
797.15	969.47
797.46	1025.96
797.77	906.19
798.08	983.02
798.39	1014.66
798.70	996.58
799.01	996.58
799.32	983.02
799.63	953.65
799.95	919.75
800.26	931.05
800.57	992.06
800.88	922.01
801.19	969.47
801.50	1012.40
801.81	964.95
802.12	940.09
802.43	901.67
802.74	942.35
803.05	931.05
803.36	962.69
803.67	942.35
803.98	1019.18
804.29	937.83
804.60	1050.82
804.91	955.91
805.22	971.73
805.53	1010.14
805.84	967.21
806.15	969.47
806.46	933.31
806.77	980.77
807.08	967.21
807.39	951.39
807.70	971.73
808.01	937.83
808.32	978.51
808.63	942.35
808.94	976.25
809.25	1001.10
809.56	1016.92
809.87	980.77
810.18	1030.48
810.49	885.85
810.79	1001.10
811.10	989.80
811.41	951.39
811.72	897.15
812.03	1048.56
812.34	971.73
812.65	969.47
812.96	951.39
813.27	962.69
813.57	960.43
813.88	978.51
814.19	969.47
814.50	944.61
814.81	967.21
815.12	1001.10
815.42	949.13
815.73	1007.88
816.04	976.25
816.35	1007.88
816.66	980.77
816.97	1028.22
817.27	944.61
817.58	953.65
817.89	926.53
818.20	1003.36
818.50	971.73
818.81	971.73
819.12	885.85
819.43	987.54
819.73	987.54
820.04	973.99
820.35	894.89
820.66	1001.10
820.96	964.95
821.27	942.35
821.58	964.95
821.89	928.79
822.19	987.54
822.50	933.31
822.81	949.13
823.11	937.83
823.42	1007.88
823.73	946.87
824.03	915.23
824.34	1014.66
824.65	926.53
824.95	931.05
825.26	1046.30
825.57	912.97
825.87	1003.36
826.18	953.65
826.49	978.51
826.79	958.17
827.10	973.99
827.40	935.57
827.71	987.54
828.02	980.77
828.32	1001.10
828.63	919.75
828.93	949.13
829.24	949.13
829.55	967.21
829.85	946.87
830.16	987.54
830.46	928.79
830.77	978.51
831.07	998.84
831.38	980.77
831.69	928.79
831.99	955.91
832.30	967.21
832.60	890.37
832.91	969.47
833.21	888.11
833.52	899.41
833.82	940.09
834.13	894.89
834.43	931.05
834.74	958.17
835.04	976.25
835.35	922.01
835.65	910.71
835.96	897.15
836.26	1016.92
836.56	1044.04
836.87	922.01
837.17	1016.92
837.48	1016.92
837.78	949.13
838.09	906.19
838.39	1012.40
838.69	980.77
839.00	1010.14
839.30	1012.40
839.61	944.61
839.91	983.02
840.21	885.85
840.52	989.80
840.82	980.77
841.13	971.73
841.43	983.02
841.73	960.43
842.04	1019.18
842.34	1001.10
842.64	931.05
842.95	996.58
843.25	865.51
843.55	960.43
843.86	987.54
844.16	942.35
844.46	953.65
844.77	960.43
845.07	906.19
845.37	992.06
845.68	953.65
845.98	937.83
846.28	1010.14
846.58	946.87
846.89	964.95
847.19	980.77
847.49	964.95
847.79	912.97
848.10	951.39
848.40	1001.10
848.70	894.89
849.00	958.17
849.31	978.51
849.61	987.54
849.91	1012.40
850.21	983.02
850.51	922.01
850.82	933.31
851.12	987.54
851.42	946.87
851.72	953.65
852.02	910.71
852.32	931.05
852.63	971.73
852.93	1046.30
853.23	1001.10
853.53	899.41
853.83	985.28
854.13	973.99
854.43	987.54
854.74	989.80
855.04	960.43
855.34	903.93
855.64	908.45
855.94	940.09
856.24	906.19
856.54	942.35
856.84	985.28
857.14	958.17
857.44	983.02
857.74	1001.10
858.05	926.53
858.35	1003.36
858.65	969.47
858.95	1028.22
859.25	1007.88
859.55	994.32
859.85	917.49
860.15	983.02
860.45	946.87
860.75	989.80
861.05	906.19
861.35	917.49
861.65	996.58
861.95	1001.10
862.25	960.43
862.55	962.69
862.85	998.84
863.15	951.39
863.45	879.07
863.75	894.89
864.05	949.13
864.35	978.51
864.64	931.05
864.94	1028.22
865.24	998.84
865.54	955.91
865.84	1005.62
866.14	989.80
866.44	888.11
866.74	940.09
867.04	967.21
867.34	935.57
867.64	924.27
867.93	894.89
868.23	935.57
868.53	919.75
868.83	1005.62
869.13	980.77
869.43	915.23
869.73	912.97
870.02	1035.00
870.32	1012.40
870.62	955.91
870.92	1010.14
871.22	978.51
871.51	931.05
871.81	976.25
872.11	969.47
872.41	1012.40
872.71	915.23
873.00	969.47
873.30	973.99
873.60	964.95
873.90	967.21
874.19	946.87
874.49	935.57
874.79	946.87
875.09	985.28
875.38	967.21
875.68	960.43
875.98	953.65
876.28	976.25
876.57	971.73
876.87	971.73
877.17	971.73
