174.03	653.09
174.41	653.09
174.78	653.09
175.16	589.82
175.54	668.91
175.92	709.59
176.30	763.82
176.67	768.34
177.05	759.30
177.43	754.78
177.81	741.22
178.19	804.50
178.56	772.86
178.94	838.40
179.32	831.62
179.70	856.47
180.08	860.99
180.45	849.70
180.83	901.67
181.21	872.29
181.59	885.85
181.96	1010.14
182.34	1014.66
182.72	1059.86
183.10	1163.81
183.48	1132.17
183.85	1102.80
184.23	1125.39
184.61	1082.46
184.99	1089.24
185.36	1116.35
185.74	1138.95
186.12	1179.63
186.50	1199.97
186.87	1211.27
187.25	1145.73
187.63	1190.93
188.01	1125.39
188.38	1247.42
188.76	1172.85
189.14	1215.79
189.52	1188.67
189.89	1213.53
190.27	1190.93
190.65	1093.76
191.02	1195.45
191.40	1251.94
191.78	1199.97
192.16	1127.65
192.53	1193.19
192.91	1170.59
193.29	1179.63
193.66	1102.80
194.04	1258.72
194.42	1093.76
194.79	1179.63
195.17	1100.54
195.55	1120.87
195.93	1220.31
196.30	1197.71
196.68	1159.29
197.06	1195.45
197.43	1175.11
197.81	1152.51
198.19	1186.41
198.56	1118.61
198.94	1206.75
199.32	1218.05
199.69	1190.93
200.07	1206.75
200.45	1238.39
200.82	1190.93
201.20	1213.53
201.58	1190.93
201.95	1213.53
202.33	1157.03
202.71	1181.89
203.08	1206.75
203.46	1154.77
203.84	1215.79
204.21	1134.43
204.59	1197.71
204.96	1175.11
205.34	1233.87
205.72	1238.39
206.09	1206.75
206.47	1213.53
206.85	1222.57
207.22	1233.87
207.60	1233.87
207.97	1186.41
208.35	1260.98
208.73	1138.95
209.10	1143.47
209.48	1170.59
209.85	1231.61
210.23	1163.81
210.61	1238.39
210.98	1163.81
211.36	1260.98
211.73	1242.91
212.11	1206.75
212.49	1220.31
212.86	1242.91
213.24	1265.50
213.61	1197.71
213.99	1215.79
214.37	1159.29
214.74	1195.45
215.12	1220.31
215.49	1247.42
215.87	1247.42
216.24	1204.49
216.62	1258.72
216.99	1279.06
217.37	1306.18
217.75	1220.31
218.12	1211.27
218.50	1236.13
218.87	1211.27
219.25	1251.94
219.62	1251.94
220.00	1220.31
220.37	1154.77
220.75	1213.53
221.12	1236.13
221.50	1233.87
221.87	1220.31
222.25	1233.87
222.63	1224.83
223.00	1249.68
223.38	1218.05
223.75	1279.06
224.13	1267.76
224.50	1274.54
224.88	1303.92
225.25	1299.40
225.63	1197.71
226.00	1199.97
226.38	1254.20
226.75	1249.68
227.13	1240.65
227.50	1229.35
227.88	1242.91
228.25	1242.91
228.63	1292.62
229.00	1270.02
229.37	1270.02
229.75	1197.71
230.12	1247.42
230.50	1312.96
230.87	1290.36
231.25	1256.46
231.62	1224.83
232.00	1245.16
232.37	1215.79
232.75	1301.66
233.12	1256.46
233.50	1251.94
233.87	1215.79
234.24	1290.36
234.62	1247.42
234.99	1337.82
235.37	1247.42
235.74	1301.66
236.12	1229.35
236.49	1229.35
236.86	1168.33
237.24	1240.65
237.61	1272.28
237.99	1274.54
238.36	1288.10
238.74	1265.50
239.11	1222.57
239.48	1301.66
239.86	1242.91
240.23	1324.26
240.61	1254.20
240.98	1315.22
241.35	1324.26
241.73	1220.31
242.10	1279.06
242.48	1308.44
242.85	1274.54
243.22	1312.96
243.60	1301.66
243.97	1310.70
244.34	1328.78
244.72	1260.98
245.09	1288.10
245.47	1274.54
245.84	1349.12
246.21	1301.66
246.59	1229.35
246.96	1195.45
247.33	1301.66
247.71	1317.48
248.08	1283.58
248.45	1279.06
248.83	1342.34
249.20	1263.24
249.57	1274.54
249.95	1306.18
250.32	1297.14
250.69	1340.08
251.07	1312.96
251.44	1211.27
251.81	1376.24
252.19	1290.36
252.56	1312.96
252.93	1306.18
253.31	1288.10
253.68	1258.72
254.05	1290.36
254.43	1270.02
254.80	1301.66
255.17	1340.08
255.55	1369.46
255.92	1326.52
256.29	1254.20
256.66	1288.10
257.04	1308.44
257.41	1351.38
257.78	1279.06
258.16	1288.10
258.53	1335.56
258.90	1369.46
259.27	1360.42
259.65	1360.42
260.02	1312.96
260.39	1335.56
260.76	1380.75
261.14	1290.36
261.51	1369.46
261.88	1310.70
262.25	1315.22
262.63	1324.26
263.00	1290.36
263.37	1312.96
263.74	1317.48
264.12	1297.14
264.49	1297.14
264.86	1290.36
265.23	1385.27
265.61	1328.78
265.98	1333.30
266.35	1389.79
266.72	1385.27
267.09	1322.00
267.47	1367.20
267.84	1303.92
268.21	1322.00
268.58	1335.56
268.95	1392.05
269.33	1344.60
269.70	1398.83
270.07	1319.74
270.44	1342.34
270.81	1401.09
271.19	1389.79
271.56	1337.82
271.93	1331.04
272.30	1392.05
272.67	1353.64
273.05	1306.18
273.42	1407.87
273.79	1376.24
274.16	1392.05
274.53	1360.42
274.90	1306.18
275.28	1405.61
275.65	1353.64
276.02	1303.92
276.39	1283.58
276.76	1383.01
277.13	1331.04
277.50	1349.12
277.88	1414.65
278.25	1416.91
278.62	1453.07
278.99	1398.83
279.36	1362.68
279.73	1337.82
280.10	1362.68
280.47	1466.63
280.85	1403.35
281.22	1383.01
281.59	1371.72
281.96	1353.64
282.33	1419.17
282.70	1425.95
283.07	1423.69
283.44	1486.97
283.81	1394.31
284.18	1453.07
284.56	1434.99
284.93	1421.43
285.30	1439.51
285.67	1364.94
286.04	1482.45
286.41	1412.39
286.78	1398.83
287.15	1482.45
287.52	1441.77
287.89	1421.43
288.26	1380.75
288.63	1437.25
289.00	1358.16
289.37	1489.23
289.75	1444.03
290.12	1453.07
290.49	1489.23
290.86	1392.05
291.23	1448.55
291.60	1405.61
291.97	1401.09
292.34	1464.37
292.71	1464.37
293.08	1405.61
293.45	1410.13
293.82	1496.01
294.19	1507.30
294.56	1439.51
294.93	1518.60
295.30	1457.59
295.67	1473.41
296.04	1493.75
296.41	1468.89
296.78	1477.93
297.15	1457.59
297.52	1373.98
297.89	1480.19
298.26	1428.21
298.63	1439.51
299.00	1527.64
299.37	1473.41
299.74	1448.55
300.11	1525.38
300.48	1448.55
300.85	1387.53
301.22	1489.23
301.59	1453.07
301.96	1493.75
302.33	1543.46
302.70	1525.38
303.07	1500.53
303.43	1496.01
303.80	1527.64
304.17	1505.05
304.54	1545.72
304.91	1584.14
305.28	1477.93
305.65	1496.01
306.02	1498.27
306.39	1527.64
306.76	1543.46
307.13	1629.34
307.50	1511.82
307.87	1516.34
308.24	1541.20
308.60	1599.96
308.97	1658.71
309.34	1425.95
309.71	1514.08
310.08	1520.86
310.45	1545.72
310.82	1667.75
311.19	1572.84
311.56	1532.16
311.92	1622.56
312.29	1568.32
312.66	1532.16
313.03	1588.66
313.40	1609.00
313.77	1557.02
314.14	1532.16
314.51	1538.94
314.87	1579.62
315.24	1572.84
315.61	1633.86
315.98	1660.97
316.35	1640.63
316.72	1649.67
317.09	1615.78
317.45	1615.78
317.82	1611.26
318.19	1561.54
318.56	1665.49
318.93	1599.96
319.30	1552.50
319.66	1683.57
320.03	1631.60
320.40	1595.44
320.77	1579.62
321.14	1606.74
321.50	1552.50
321.87	1604.48
322.24	1636.12
322.61	1642.89
322.98	1667.75
323.34	1627.08
323.71	1654.19
324.08	1670.01
324.45	1507.30
324.82	1622.56
325.18	1647.41
325.55	1724.25
325.92	1710.69
326.29	1645.15
326.65	1557.02
327.02	1579.62
327.39	1692.61
327.76	1651.93
328.12	1672.27
328.49	1735.55
328.86	1690.35
329.23	1699.39
329.59	1663.23
329.96	1710.69
330.33	1656.45
330.70	1604.48
331.06	1767.19
331.43	1618.04
331.80	1746.85
332.17	1771.70
332.53	2431.57
332.90	1751.37
333.27	1753.63
333.63	1764.93
334.00	1762.67
334.37	1803.34
334.74	1778.48
335.10	1834.98
335.47	1780.74
335.84	1778.48
336.20	1798.82
336.57	1796.56
336.94	1828.20
337.30	1767.19
337.67	1798.82
338.04	1805.60
338.40	1749.11
338.77	1857.58
339.14	1905.03
339.50	1832.72
339.87	1834.98
340.24	1914.07
340.60	1905.03
340.97	1898.26
341.34	1886.96
341.70	1916.33
342.07	1950.23
342.44	1893.74
342.80	1805.60
343.17	1816.90
343.53	1959.27
343.90	1907.29
344.27	1909.55
344.63	1850.80
345.00	1886.96
345.37	1923.11
345.73	2013.51
346.10	2004.47
346.46	1886.96
346.83	1954.75
347.20	2006.73
347.56	2008.99
347.93	1916.33
348.29	2045.14
348.66	2060.96
349.03	2004.47
349.39	1959.27
349.76	1988.65
350.12	2070.00
350.49	2173.95
350.85	2029.33
351.22	2112.94
351.59	2060.96
351.95	2164.91
352.32	2171.69
352.68	2058.70
353.05	2119.72
353.41	2119.72
353.78	2092.60
354.14	2192.03
354.51	2137.80
354.88	2178.47
355.24	2094.86
355.61	2160.40
355.97	2189.77
356.34	2146.84
356.70	2189.77
357.07	2225.93
357.43	2298.24
357.80	2244.01
358.16	2336.66
358.53	2314.06
358.89	2282.43
359.26	2327.62
359.62	2289.21
359.99	2386.38
360.35	2408.98
360.72	2393.16
361.08	2388.64
361.45	2384.12
361.81	2447.39
362.18	2483.55
362.54	2605.58
362.91	2603.32
363.27	2537.79
363.63	2596.54
364.00	2684.68
364.36	2752.47
364.73	2585.24
365.09	2738.91
365.46	2829.30
365.82	2714.05
366.19	2815.75
366.55	2906.14
366.91	2784.11
367.28	2761.51
367.64	2872.24
368.01	2858.68
368.37	2879.02
368.74	2912.92
369.10	3059.81
369.46	3034.95
369.83	2921.96
370.19	3114.04
370.56	3077.89
370.92	3211.22
371.28	3227.03
371.65	3310.65
372.01	3353.58
372.38	3459.80
372.74	3514.03
373.10	3561.49
373.47	3717.42
373.83	3728.72
374.19	3855.27
374.56	3979.56
374.92	3956.96
375.29	4074.47
375.65	4135.48
376.01	4182.94
376.38	4277.85
376.74	4438.30
377.10	4481.24
377.47	4933.20
377.83	5025.86
378.19	5355.79
378.56	5405.51
378.92	5663.13
379.28	6081.20
379.65	6280.06
380.01	6813.38
380.37	7055.18
380.74	7174.95
381.10	8038.21
381.46	8406.56
381.83	9104.85
382.19	9699.18
382.55	10417.81
382.91	11364.67
383.28	11945.45
383.64	13479.87
384.00	14424.48
384.37	16051.56
384.73	17355.48
385.09	18433.41
385.45	19909.08
385.82	22207.33
386.18	24184.67
386.54	27104.37
386.91	29716.73
387.27	32634.17
387.63	36331.25
387.99	38911.97
388.36	42175.16
388.72	46620.24
389.08	50041.62
389.44	53239.28
389.80	56145.42
390.17	58339.71
390.53	61085.40
390.89	64016.40
391.25	65320.32
391.62	65535.00
391.98	65535.00
392.34	65535.00
392.70	65535.00
393.06	65535.00
393.43	65535.00
393.79	65535.00
394.15	65535.00
394.51	65535.00
394.87	65535.00
395.24	65535.00
395.60	65535.00
395.96	65535.00
396.32	65535.00
396.68	65535.00
397.04	65535.00
397.41	65535.00
397.77	65535.00
398.13	65535.00
398.49	65535.00
398.85	65535.00
399.21	65535.00
399.58	65535.00
399.94	65535.00
400.30	65535.00
400.66	65535.00
401.02	65535.00
401.38	65535.00
401.74	65535.00
402.11	65535.00
402.47	65535.00
402.83	65535.00
403.19	65535.00
403.55	65535.00
403.91	65535.00
404.27	65535.00
404.63	65535.00
404.99	65535.00
405.35	65535.00
405.72	65535.00
406.08	65535.00
406.44	65535.00
406.80	65535.00
407.16	65535.00
407.52	65535.00
407.88	65535.00
408.24	65535.00
408.60	65535.00
408.96	65535.00
409.32	65535.00
409.68	65535.00
410.04	65535.00
410.40	65535.00
410.76	65535.00
411.13	65535.00
411.49	65535.00
411.85	65535.00
412.21	65535.00
412.57	65535.00
412.93	65535.00
413.29	65535.00
413.65	65535.00
414.01	65535.00
414.37	65535.00
414.73	65535.00
415.09	65535.00
415.45	65535.00
415.81	65535.00
416.17	65535.00
416.53	65535.00
416.89	65535.00
417.25	65535.00
417.61	65535.00
417.97	65535.00
418.33	65535.00
418.69	65535.00
419.05	65535.00
419.41	65535.00
419.77	65535.00
420.12	65535.00
420.48	65535.00
420.84	65535.00
421.20	65535.00
421.56	65535.00
421.92	65535.00
422.28	65535.00
422.64	65535.00
423.00	65535.00
423.36	65535.00
423.72	65535.00
424.08	65535.00
424.44	65535.00
424.80	65535.00
425.16	65535.00
425.51	65535.00
425.87	65535.00
426.23	65535.00
426.59	65535.00
426.95	65535.00
427.31	65535.00
427.67	65535.00
428.03	65535.00
428.39	65535.00
428.74	65182.47
429.10	63564.43
429.46	62604.00
429.82	60796.14
430.18	59867.35
430.54	59001.84
430.90	58134.06
431.26	56495.69
431.61	54427.95
431.97	53331.93
432.33	51994.11
432.69	51652.88
433.05	48834.87
433.41	46514.03
433.76	44834.98
434.12	44005.62
434.48	41452.02
434.84	39617.04
435.20	38337.98
435.55	37307.49
435.91	35434.10
436.27	33813.80
436.63	32814.96
436.99	31456.80
437.34	29703.17
437.70	28948.39
438.06	27136.01
438.42	25330.41
438.78	24485.23
439.13	24060.38
439.49	23086.40
439.85	21854.79
440.21	20690.98
440.56	20388.16
440.92	19091.02
441.28	18110.26
441.64	17335.14
441.99	16734.02
442.35	16160.03
442.71	15319.37
443.07	15149.88
443.42	14365.72
443.78	13755.57
444.14	13667.44
444.50	12684.41
444.85	12786.10
445.21	12169.17
445.57	12040.36
445.93	11075.42
446.28	10980.50
446.64	10476.56
447.00	10153.41
447.35	10476.56
447.71	10216.68
448.07	9733.08
448.42	9048.35
448.78	9032.53
449.14	8621.24
449.49	8058.55
449.85	8112.78
450.21	7550.08
450.56	7468.73
450.92	7233.71
451.28	6982.87
451.63	7147.83
451.99	6774.96
452.35	6661.97
452.70	6345.60
453.06	6261.98
453.42	5730.92
453.77	5617.93
454.13	5647.31
454.49	5299.30
454.84	5330.93
455.20	5034.90
455.55	4845.07
455.91	4863.15
456.27	4910.61
456.62	4804.39
456.98	4492.54
457.33	4241.70
457.69	4088.03
458.05	4006.67
458.40	3934.36
458.76	3728.72
459.11	3834.93
459.47	3568.27
459.83	3428.16
460.18	3466.58
460.54	3495.95
460.89	3556.97
461.25	3265.45
461.60	3312.91
461.96	3163.76
462.31	3202.18
462.67	3129.86
463.03	3048.51
463.38	3064.33
463.74	2919.70
464.09	2915.18
464.45	2813.49
464.80	2912.92
465.16	2761.51
465.51	2632.70
465.87	2686.94
466.22	2659.82
466.58	2698.23
466.93	2639.48
467.29	2671.12
467.64	2587.50
468.00	2531.01
468.35	2555.86
468.71	2372.82
469.06	2515.19
469.42	2488.07
469.77	2354.74
470.13	2350.22
470.48	2293.72
470.84	2259.83
471.19	2305.02
471.54	2210.11
471.90	2241.75
472.25	2275.65
472.61	2185.25
472.96	2216.89
473.32	2167.17
473.67	2144.58
474.03	2101.64
474.38	2225.93
474.73	2031.58
475.09	2049.66
475.44	2189.77
475.80	2029.33
476.15	1999.95
476.50	2088.08
476.86	2074.52
477.21	1981.87
477.57	1907.29
477.92	1968.31
478.27	1938.93
478.63	1986.39
478.98	1907.29
479.34	2011.25
479.69	1963.79
480.04	1916.33
480.40	1993.17
480.75	1938.93
481.10	1925.37
481.46	1898.26
481.81	1848.54
482.16	1864.36
482.52	1821.42
482.87	1864.36
483.22	1751.37
483.58	1864.36
483.93	1785.26
484.28	1762.67
484.64	1864.36
484.99	1819.16
485.34	1789.78
485.70	1803.34
486.05	1868.88
486.40	1837.24
486.76	1785.26
487.11	1780.74
487.46	1731.03
487.81	1672.27
488.17	1710.69
488.52	1708.43
488.87	1670.01
489.23	1674.53
489.58	1690.35
489.93	1787.52
490.28	1710.69
490.64	1658.71
490.99	1663.23
491.34	1658.71
491.69	1699.39
492.05	1631.60
492.40	1622.56
492.75	1604.48
493.10	1647.41
493.46	1570.58
493.81	1568.32
494.16	1554.76
494.51	1441.77
494.86	1518.60
495.22	1518.60
495.57	1545.72
495.92	1545.72
496.27	1525.38
496.62	1496.01
496.98	1534.42
497.33	1509.56
497.68	1493.75
498.03	1482.45
498.38	1511.82
498.74	1498.27
499.09	1500.53
499.44	1475.67
499.79	1480.19
500.14	1491.49
500.49	1520.86
500.85	1459.85
501.20	1509.56
501.55	1484.71
501.90	1448.55
502.25	1486.97
502.60	1554.76
502.95	1459.85
503.30	1428.21
503.66	1401.09
504.01	1416.91
504.36	1373.98
504.71	1421.43
505.06	1518.60
505.41	1367.20
505.76	1376.24
506.11	1434.99
506.46	1439.51
506.82	1453.07
507.17	1398.83
507.52	1355.90
507.87	1416.91
508.22	1392.05
508.57	1401.09
508.92	1416.91
509.27	1419.17
509.62	1407.87
509.97	1419.17
510.32	1459.85
510.67	1389.79
511.02	1457.59
511.37	1383.01
511.72	1362.68
512.07	1396.57
512.42	1371.72
512.77	1450.81
513.12	1412.39
513.47	1423.69
513.82	1428.21
514.17	1423.69
514.52	1353.64
514.87	1349.12
515.22	1333.30
515.57	1322.00
515.92	1430.47
516.27	1396.57
516.62	1434.99
516.97	1432.73
517.32	1421.43
517.67	1434.99
518.02	1482.45
518.37	1450.81
518.72	1383.01
519.07	1437.25
519.42	1380.75
519.77	1410.13
520.12	1477.93
520.47	1396.57
520.82	1441.77
521.17	1489.23
521.52	1383.01
521.87	1448.55
522.22	1471.15
522.56	1407.87
522.91	1444.03
523.26	1342.34
523.61	1459.85
523.96	1342.34
524.31	1437.25
524.66	1351.38
525.01	1414.65
525.36	1351.38
525.71	1439.51
526.05	1380.75
526.40	1392.05
526.75	1475.67
527.10	1376.24
527.45	1407.87
527.80	1439.51
528.15	1437.25
528.49	1333.30
528.84	1466.63
529.19	1410.13
529.54	1394.31
529.89	1407.87
530.24	1380.75
530.58	1468.89
530.93	1437.25
531.28	1398.83
531.63	1403.35
531.98	1419.17
532.33	1360.42
532.67	1335.56
533.02	1425.95
533.37	1351.38
533.72	1446.29
534.07	1430.47
534.41	1351.38
534.76	1389.79
535.11	1394.31
535.46	1383.01
535.80	1437.25
536.15	1403.35
536.50	1346.86
536.85	1328.78
537.19	1290.36
537.54	1342.34
537.89	1260.98
538.24	1283.58
538.58	1222.57
538.93	1315.22
539.28	1328.78
539.63	1283.58
539.97	1236.13
540.32	1267.76
540.67	1281.32
541.01	1342.34
541.36	1290.36
541.71	1199.97
542.06	1312.96
542.40	1285.84
542.75	1274.54
543.10	1251.94
543.44	1249.68
543.79	1204.49
544.14	1249.68
544.48	1190.93
544.83	1315.22
545.18	1351.38
545.52	1166.07
545.87	1270.02
546.22	1299.40
546.56	1227.09
546.91	1267.76
547.25	1299.40
547.60	1190.93
547.95	1240.65
548.29	1218.05
548.64	1265.50
548.99	1204.49
549.33	1202.23
549.68	1242.91
550.02	1292.62
550.37	1190.93
550.72	1227.09
551.06	1184.15
551.41	1107.32
551.75	1240.65
552.10	1265.50
552.45	1276.80
552.79	1233.87
553.14	1224.83
553.48	1220.31
553.83	1209.01
554.17	1240.65
554.52	1231.61
554.87	1199.97
555.21	1188.67
555.56	1143.47
555.90	1172.85
556.25	1179.63
556.59	1206.75
556.94	1213.53
557.28	1211.27
557.63	1193.19
557.97	1195.45
558.32	1231.61
558.66	1193.19
559.01	1240.65
559.35	1186.41
559.70	1159.29
560.04	1132.17
560.39	1242.91
560.73	1258.72
561.08	1152.51
561.42	1186.41
561.77	1181.89
562.11	1157.03
562.46	1193.19
562.80	1206.75
563.14	1163.81
563.49	1195.45
563.83	1211.27
564.18	1125.39
564.52	1233.87
564.87	1154.77
565.21	1163.81
565.56	1184.15
565.90	1249.68
566.24	1193.19
566.59	1213.53
566.93	1157.03
567.28	1197.71
567.62	1120.87
567.96	1172.85
568.31	1170.59
568.65	1143.47
569.00	1125.39
569.34	1222.57
569.68	1224.83
570.03	1186.41
570.37	1179.63
570.71	1204.49
571.06	1172.85
571.40	1197.71
571.74	1118.61
572.09	1166.07
572.43	1105.06
572.78	1159.29
573.12	1159.29
573.46	1118.61
573.80	1064.38
574.15	1170.59
574.49	1197.71
574.83	1152.51
575.18	1120.87
575.52	1084.72
575.86	1091.50
576.21	1195.45
576.55	1152.51
576.89	1111.84
577.24	1136.69
577.58	1224.83
577.92	1105.06
578.26	1163.81
578.61	1168.33
578.95	1127.65
579.29	1154.77
579.63	1068.90
579.98	1132.17
580.32	1093.76
580.66	1100.54
581.00	1118.61
581.35	1141.21
581.69	1109.58
582.03	1116.35
582.37	1134.43
582.72	1141.21
583.06	1102.80
583.40	1132.17
583.74	1236.13
584.08	1105.06
584.43	1055.34
584.77	1096.02
585.11	1127.65
585.45	1048.56
585.79	1073.42
586.13	1157.03
586.48	1055.34
586.82	1037.26
587.16	1109.58
587.50	1120.87
587.84	1159.29
588.18	1118.61
588.53	1062.12
588.87	1129.91
589.21	1116.35
589.55	1118.61
589.89	1102.80
590.23	1089.24
590.57	1098.28
590.92	1086.98
591.26	1102.80
591.60	1136.69
591.94	1143.47
592.28	1116.35
592.62	1105.06
592.96	1048.56
593.30	1127.65
593.64	1120.87
593.98	1125.39
594.32	1107.32
594.67	1093.76
595.01	1102.80
595.35	1123.13
595.69	1037.26
596.03	1116.35
596.37	1062.12
596.71	1064.38
597.05	1032.74
597.39	1118.61
597.73	1082.46
598.07	1136.69
598.41	1068.90
598.75	1084.72
599.09	1041.78
599.43	1075.68
599.77	1141.21
600.11	1109.58
600.45	1116.35
600.79	1134.43
601.13	1086.98
601.47	1064.38
601.81	989.80
602.15	1023.70
602.49	1039.52
602.83	1068.90
603.17	1105.06
603.51	1111.84
603.85	1091.50
604.19	1041.78
604.53	1012.40
604.87	1098.28
605.21	1089.24
605.55	1005.62
605.89	1046.30
606.23	1105.06
606.56	1107.32
606.90	1057.60
607.24	1127.65
607.58	1030.48
607.92	1096.02
608.26	1050.82
608.60	998.84
608.94	992.06
609.28	1068.90
609.62	1041.78
609.95	1071.16
610.29	1012.40
610.63	1157.03
610.97	998.84
611.31	1025.96
611.65	1025.96
611.99	1050.82
612.33	1046.30
612.66	1082.46
613.00	1077.94
613.34	1071.16
613.68	1039.52
614.02	1096.02
614.36	1102.80
614.69	1086.98
615.03	1014.66
615.37	1055.34
615.71	1039.52
616.05	1010.14
616.38	1073.42
616.72	1077.94
617.06	1086.98
617.40	1114.10
617.74	1019.18
618.07	1039.52
618.41	1032.74
618.75	1039.52
619.09	996.58
619.42	1010.14
619.76	1010.14
620.10	1068.90
620.44	1064.38
620.77	1100.54
621.11	1021.44
621.45	1016.92
621.79	1064.38
622.12	992.06
622.46	1082.46
622.80	1025.96
623.13	1080.20
623.47	1050.82
623.81	1055.34
624.15	1032.74
624.48	1050.82
624.82	1053.08
625.16	987.54
625.49	1023.70
625.83	1035.00
626.17	1053.08
626.50	1073.42
626.84	1084.72
627.18	1064.38
627.51	1091.50
627.85	1030.48
628.19	1012.40
628.52	1057.60
628.86	1064.38
629.20	1007.88
629.53	1030.48
629.87	1005.62
630.20	1005.62
630.54	1075.68
630.88	1021.44
631.21	1053.08
631.55	976.25
631.89	1007.88
632.22	1050.82
632.56	1010.14
632.89	1091.50
633.23	1057.60
633.56	1048.56
633.90	1050.82
634.24	1003.36
634.57	1032.74
634.91	1030.48
635.24	989.80
635.58	1044.04
635.91	1059.86
636.25	1084.72
636.58	994.32
636.92	1014.66
637.26	1035.00
637.59	1044.04
637.93	987.54
638.26	1048.56
638.60	1102.80
638.93	1037.26
639.27	1028.22
639.60	1037.26
639.94	1001.10
640.27	1071.16
640.61	1075.68
640.94	1014.66
641.28	1001.10
641.61	994.32
641.94	1016.92
642.28	1023.70
642.61	1050.82
642.95	1023.70
643.28	996.58
643.62	1037.26
643.95	1066.64
644.29	983.02
644.62	1048.56
644.95	1041.78
645.29	985.28
645.62	1001.10
645.96	1025.96
646.29	906.19
646.63	1025.96
646.96	1032.74
647.29	1071.16
647.63	1016.92
647.96	1073.42
648.29	1019.18
648.63	1075.68
648.96	1023.70
649.30	1012.40
649.63	1030.48
649.96	987.54
650.30	1005.62
650.63	942.35
650.96	967.21
651.30	1062.12
651.63	1077.94
651.96	1030.48
652.30	969.47
652.63	1028.22
652.96	1012.40
653.30	969.47
653.63	1007.88
653.96	949.13
654.30	998.84
654.63	1041.78
654.96	1053.08
655.29	1071.16
655.63	1066.64
655.96	992.06
656.29	964.95
656.63	994.32
656.96	994.32
657.29	1025.96
657.62	996.58
657.96	971.73
658.29	996.58
658.62	1023.70
658.95	1016.92
659.29	1032.74
659.62	1019.18
659.95	1044.04
660.28	1003.36
660.61	1084.72
660.95	1062.12
661.28	960.43
661.61	917.49
661.94	969.47
662.27	996.58
662.61	992.06
662.94	1016.92
663.27	967.21
663.60	980.77
663.93	951.39
664.27	976.25
664.60	1025.96
664.93	953.65
665.26	985.28
665.59	987.54
665.92	987.54
666.25	964.95
666.59	917.49
666.92	960.43
667.25	996.58
667.58	1028.22
667.91	1005.62
668.24	1066.64
668.57	953.65
668.90	980.77
669.23	1014.66
669.57	949.13
669.90	937.83
670.23	992.06
670.56	1012.40
670.89	944.61
671.22	917.49
671.55	985.28
671.88	1005.62
672.21	1001.10
672.54	996.58
672.87	980.77
673.20	983.02
673.53	1025.96
673.86	985.28
674.19	958.17
674.52	1003.36
674.85	1028.22
675.18	1005.62
675.51	1012.40
675.84	1005.62
676.17	1014.66
676.50	1014.66
676.83	1010.14
677.16	969.47
677.49	967.21
677.82	989.80
678.15	1019.18
678.48	996.58
678.81	1021.44
679.14	992.06
679.47	928.79
679.80	942.35
680.13	949.13
680.46	994.32
680.79	973.99
681.12	955.91
681.45	935.57
681.78	960.43
682.11	987.54
682.44	935.57
682.77	962.69
683.09	969.47
683.42	922.01
683.75	969.47
684.08	926.53
684.41	992.06
684.74	969.47
685.07	983.02
685.40	1005.62
685.72	942.35
686.05	964.95
686.38	1005.62
686.71	1001.10
687.04	1012.40
687.37	994.32
687.70	989.80
688.02	955.91
688.35	971.73
688.68	980.77
689.01	973.99
689.34	1037.26
689.67	953.65
689.99	953.65
690.32	989.80
690.65	976.25
690.98	994.32
691.30	946.87
691.63	890.37
691.96	980.77
692.29	958.17
692.62	994.32
692.94	958.17
693.27	951.39
693.60	962.69
693.93	1012.40
694.25	996.58
694.58	949.13
694.91	1010.14
695.24	885.85
695.56	985.28
695.89	1030.48
696.22	976.25
696.54	953.65
696.87	978.51
697.20	1005.62
697.53	926.53
697.85	969.47
698.18	940.09
698.51	980.77
698.83	1053.08
699.16	1005.62
699.49	933.31
699.81	944.61
700.14	903.93
700.47	998.84
700.79	940.09
701.12	944.61
701.45	992.06
701.77	996.58
702.10	994.32
702.42	885.85
702.75	969.47
703.08	897.15
703.40	931.05
703.73	978.51
704.05	903.93
704.38	955.91
704.71	946.87
705.03	926.53
705.36	960.43
705.68	985.28
706.01	951.39
706.34	903.93
706.66	960.43
706.99	946.87
707.31	1044.04
707.64	969.47
707.96	933.31
708.29	922.01
708.61	971.73
708.94	969.47
709.26	915.23
709.59	894.89
709.92	910.71
710.24	971.73
710.57	976.25
710.89	978.51
711.22	967.21
711.54	973.99
711.87	962.69
712.19	944.61
712.51	924.27
712.84	944.61
713.16	928.79
713.49	983.02
713.81	1014.66
714.14	1012.40
714.46	996.58
714.79	949.13
715.11	953.65
715.44	953.65
715.76	912.97
716.08	928.79
716.41	949.13
716.73	926.53
717.06	867.77
717.38	935.57
717.70	962.69
718.03	983.02
718.35	915.23
718.68	940.09
719.00	1028.22
719.32	1003.36
719.65	983.02
719.97	1012.40
720.29	953.65
720.62	892.63
720.94	917.49
721.27	926.53
721.59	978.51
721.91	922.01
722.24	976.25
722.56	928.79
722.88	978.51
723.21	958.17
723.53	890.37
723.85	935.57
724.17	933.31
724.50	924.27
724.82	906.19
725.14	949.13
725.47	908.45
725.79	946.87
726.11	919.75
726.43	953.65
726.76	928.79
727.08	969.47
727.40	949.13
727.72	946.87
728.05	967.21
728.37	931.05
728.69	928.79
729.01	912.97
729.34	962.69
729.66	926.53
729.98	944.61
730.30	906.19
730.62	969.47
730.95	992.06
731.27	989.80
731.59	910.71
731.91	958.17
732.23	933.31
732.56	960.43
732.88	924.27
733.20	842.92
733.52	917.49
733.84	962.69
734.16	955.91
734.49	967.21
734.81	903.93
735.13	976.25
735.45	971.73
735.77	976.25
736.09	953.65
736.41	949.13
736.73	946.87
737.06	992.06
737.38	980.77
737.70	897.15
738.02	987.54
738.34	917.49
738.66	933.31
738.98	994.32
739.30	1023.70
739.62	980.77
739.94	912.97
740.26	1001.10
740.58	894.89
740.90	942.35
741.23	926.53
741.55	935.57
741.87	953.65
742.19	922.01
742.51	917.49
742.83	964.95
743.15	931.05
743.47	912.97
743.79	953.65
744.11	899.41
744.43	960.43
744.75	983.02
745.07	971.73
745.39	924.27
745.71	949.13
746.03	899.41
746.35	960.43
746.67	922.01
746.98	953.65
747.30	983.02
747.62	944.61
747.94	935.57
748.26	996.58
748.58	1053.08
748.90	951.39
749.22	933.31
749.54	976.25
749.86	935.57
750.18	915.23
750.50	908.45
750.82	908.45
751.13	926.53
751.45	901.67
751.77	960.43
752.09	951.39
752.41	931.05
752.73	960.43
753.05	942.35
753.36	944.61
753.68	928.79
754.00	978.51
754.32	912.97
754.64	992.06
754.96	962.69
755.28	946.87
755.59	955.91
755.91	912.97
756.23	944.61
756.55	944.61
756.87	946.87
757.18	958.17
757.50	1010.14
757.82	883.59
758.14	953.65
758.45	919.75
758.77	949.13
759.09	967.21
759.41	969.47
759.73	953.65
760.04	890.37
760.36	978.51
760.68	926.53
760.99	973.99
761.31	994.32
761.63	951.39
761.95	917.49
762.26	903.93
762.58	897.15
762.90	951.39
763.21	967.21
763.53	935.57
763.85	940.09
764.17	942.35
764.48	897.15
764.80	931.05
765.12	942.35
765.43	962.69
765.75	926.53
766.07	872.29
766.38	985.28
766.70	987.54
767.01	903.93
767.33	1001.10
767.65	958.17
767.96	958.17
768.28	926.53
768.60	976.25
768.91	937.83
769.23	960.43
769.54	917.49
769.86	976.25
770.18	996.58
770.49	910.71
770.81	985.28
771.12	1014.66
771.44	924.27
771.75	971.73
772.07	978.51
772.38	976.25
772.70	960.43
773.02	967.21
773.33	960.43
773.65	881.33
773.96	917.49
774.28	903.93
774.59	915.23
774.91	962.69
775.22	987.54
775.54	933.31
775.85	924.27
776.17	912.97
776.48	969.47
776.80	992.06
777.11	971.73
777.43	964.95
777.74	1030.48
778.05	899.41
778.37	924.27
778.68	931.05
779.00	951.39
779.31	960.43
779.63	989.80
779.94	964.95
780.26	973.99
780.57	949.13
780.88	942.35
781.20	912.97
781.51	960.43
781.83	901.67
782.14	897.15
782.45	989.80
782.77	942.35
783.08	962.69
783.39	958.17
783.71	1005.62
784.02	958.17
784.34	971.73
784.65	860.99
784.96	928.79
785.28	1016.92
785.59	953.65
785.90	901.67
786.22	967.21
786.53	906.19
786.84	969.47
787.15	951.39
787.47	976.25
787.78	951.39
788.09	922.01
788.41	899.41
788.72	944.61
789.03	958.17
789.35	906.19
789.66	922.01
789.97	915.23
790.28	912.97
790.60	992.06
790.91	953.65
791.22	926.53
791.53	949.13
791.84	973.99
792.16	964.95
792.47	888.11
792.78	964.95
793.09	951.39
793.41	928.79
793.72	978.51
794.03	969.47
794.34	978.51
794.65	989.80
794.96	910.71
795.28	917.49
795.59	867.77
795.90	901.67
796.21	915.23
796.52	901.67
796.83	951.39
797.15	933.31
797.46	908.45
797.77	942.35
798.08	901.67
798.39	1005.62
798.70	901.67
799.01	901.67
799.32	944.61
799.63	942.35
799.95	996.58
800.26	978.51
800.57	967.21
800.88	935.57
801.19	976.25
801.50	874.55
801.81	940.09
802.12	969.47
802.43	980.77
802.74	992.06
803.05	910.71
803.36	1010.14
803.67	996.58
803.98	953.65
804.29	915.23
804.60	1001.10
804.91	962.69
805.22	940.09
805.53	892.63
805.84	928.79
806.15	942.35
806.46	901.67
806.77	910.71
807.08	985.28
807.39	969.47
807.70	865.51
808.01	903.93
808.32	931.05
808.63	969.47
808.94	933.31
809.25	978.51
809.56	885.85
809.87	962.69
810.18	958.17
810.49	973.99
810.79	899.41
811.10	926.53
811.41	980.77
811.72	908.45
812.03	870.03
812.34	919.75
812.65	924.27
812.96	960.43
813.27	976.25
813.57	998.84
813.88	919.75
814.19	928.79
814.50	919.75
814.81	946.87
815.12	969.47
815.42	922.01
815.73	958.17
816.04	917.49
816.35	915.23
816.66	890.37
816.97	933.31
817.27	1001.10
817.58	989.80
817.89	983.02
818.20	971.73
818.50	964.95
818.81	942.35
819.12	935.57
819.43	978.51
819.73	926.53
820.04	931.05
820.35	926.53
820.66	1025.96
820.96	971.73
821.27	983.02
821.58	964.95
821.89	917.49
822.19	958.17
822.50	935.57
822.81	960.43
823.11	845.18
823.42	946.87
823.73	962.69
824.03	892.63
824.34	951.39
824.65	937.83
824.95	897.15
825.26	992.06
825.57	931.05
825.87	969.47
826.18	899.41
826.49	915.23
826.79	917.49
827.10	960.43
827.40	924.27
827.71	910.71
828.02	978.51
828.32	976.25
828.63	978.51
828.93	978.51
829.24	888.11
829.55	937.83
829.85	899.41
830.16	917.49
830.46	937.83
830.77	953.65
831.07	894.89
831.38	942.35
831.69	910.71
831.99	969.47
832.30	983.02
832.60	888.11
832.91	1055.34
833.21	992.06
833.52	1016.92
833.82	946.87
834.13	998.84
834.43	962.69
834.74	906.19
835.04	912.97
835.35	890.37
835.65	924.27
835.96	865.51
836.26	922.01
836.56	994.32
836.87	919.75
837.17	940.09
837.48	937.83
837.78	967.21
838.09	967.21
838.39	1014.66
838.69	967.21
839.00	919.75
839.30	944.61
839.61	973.99
839.91	937.83
840.21	912.97
840.52	960.43
840.82	935.57
841.13	899.41
841.43	897.15
841.73	942.35
842.04	935.57
842.34	937.83
842.64	885.85
842.95	937.83
843.25	949.13
843.55	964.95
843.86	926.53
844.16	922.01
844.46	924.27
844.77	908.45
845.07	872.29
845.37	958.17
845.68	980.77
845.98	962.69
846.28	903.93
846.58	978.51
846.89	940.09
847.19	989.80
847.49	940.09
847.79	881.33
848.10	985.28
848.40	899.41
848.70	892.63
849.00	885.85
849.31	894.89
849.61	962.69
849.91	962.69
850.21	958.17
850.51	1016.92
850.82	901.67
851.12	919.75
851.42	1012.40
851.72	951.39
852.02	1003.36
852.32	989.80
852.63	919.75
852.93	985.28
853.23	971.73
853.53	883.59
853.83	973.99
854.13	899.41
854.43	960.43
854.74	958.17
855.04	946.87
855.34	962.69
855.64	874.55
855.94	931.05
856.24	985.28
856.54	867.77
856.84	967.21
857.14	946.87
857.44	915.23
857.74	964.95
858.05	912.97
858.35	917.49
858.65	937.83
858.95	912.97
859.25	937.83
859.55	978.51
859.85	973.99
860.15	922.01
860.45	978.51
860.75	937.83
861.05	935.57
861.35	944.61
861.65	958.17
861.95	944.61
862.25	944.61
862.55	951.39
862.85	912.97
863.15	894.89
863.45	917.49
863.75	912.97
864.05	899.41
864.35	940.09
864.64	912.97
864.94	899.41
865.24	1003.36
865.54	917.49
865.84	985.28
866.14	953.65
866.44	917.49
866.74	978.51
867.04	924.27
867.34	955.91
867.64	994.32
867.93	955.91
868.23	926.53
868.53	969.47
868.83	935.57
869.13	919.75
869.43	915.23
869.73	912.97
870.02	937.83
870.32	924.27
870.62	967.21
870.92	978.51
871.22	931.05
871.51	931.05
871.81	928.79
872.11	910.71
872.41	1019.18
872.71	987.54
873.00	935.57
873.30	915.23
873.60	863.25
873.90	897.15
874.19	985.28
874.49	940.09
874.79	924.27
875.09	910.71
875.38	926.53
875.68	894.89
875.98	951.39
876.28	967.21
876.57	949.13
876.87	949.13
877.17	949.13
