174.03	686.99
174.41	686.99
174.78	686.99
175.16	637.27
175.54	646.31
175.92	675.69
176.30	714.11
176.67	691.51
177.05	729.92
177.43	752.52
177.81	777.38
178.19	775.12
178.56	743.48
178.94	768.34
179.32	838.40
179.70	833.88
180.08	879.07
180.45	931.05
180.83	928.79
181.21	926.53
181.59	940.09
181.96	962.69
182.34	969.47
182.72	994.32
183.10	1111.84
183.48	1125.39
183.85	1125.39
184.23	1170.59
184.61	1170.59
184.99	1193.19
185.36	1206.75
185.74	1227.09
186.12	1263.24
186.50	1170.59
186.87	1218.05
187.25	1116.35
187.63	1249.68
188.01	1224.83
188.38	1111.84
188.76	1161.55
189.14	1175.11
189.52	1181.89
189.89	1199.97
190.27	1172.85
190.65	1184.15
191.02	1188.67
191.40	1211.27
191.78	1204.49
192.16	1123.13
192.53	1134.43
192.91	1175.11
193.29	1197.71
193.66	1197.71
194.04	1242.91
194.42	1193.19
194.79	1172.85
195.17	1195.45
195.55	1177.37
195.93	1129.91
196.30	1186.41
196.68	1213.53
197.06	1136.69
197.43	1147.99
197.81	1166.07
198.19	1263.24
198.56	1206.75
198.94	1141.21
199.32	1172.85
199.69	1170.59
200.07	1231.61
200.45	1150.25
200.82	1193.19
201.20	1238.39
201.58	1258.72
201.95	1251.94
202.33	1209.01
202.71	1175.11
203.08	1184.15
203.46	1211.27
203.84	1123.13
204.21	1222.57
204.59	1211.27
204.96	1206.75
205.34	1190.93
205.72	1242.91
206.09	1209.01
206.47	1199.97
206.85	1204.49
207.22	1157.03
207.60	1195.45
207.97	1247.42
208.35	1344.60
208.73	1242.91
209.10	1265.50
209.48	1161.55
209.85	1227.09
210.23	1204.49
210.61	1202.23
210.98	1170.59
211.36	1283.58
211.73	1209.01
212.11	1265.50
212.49	1263.24
212.86	1274.54
213.24	1258.72
213.61	1184.15
213.99	1222.57
214.37	1279.06
214.74	1211.27
215.12	1166.07
215.49	1145.73
215.87	1251.94
216.24	1251.94
216.62	1109.58
216.99	1209.01
217.37	1240.65
217.75	1351.38
218.12	1276.80
218.50	1199.97
218.87	1251.94
219.25	1258.72
219.62	1283.58
220.00	1168.33
220.37	1242.91
220.75	1263.24
221.12	1303.92
221.50	1202.23
221.87	1290.36
222.25	1267.76
222.63	1267.76
223.00	1233.87
223.38	1233.87
223.75	1260.98
224.13	1251.94
224.50	1256.46
224.88	1265.50
225.25	1274.54
225.63	1218.05
226.00	1317.48
226.38	1249.68
226.75	1218.05
227.13	1263.24
227.50	1333.30
227.88	1218.05
228.25	1315.22
228.63	1238.39
229.00	1245.16
229.37	1220.31
229.75	1220.31
230.12	1335.56
230.50	1279.06
230.87	1242.91
231.25	1242.91
231.62	1346.86
232.00	1360.42
232.37	1274.54
232.75	1292.62
233.12	1222.57
233.50	1322.00
233.87	1240.65
234.24	1353.64
234.62	1310.70
234.99	1283.58
235.37	1276.80
235.74	1319.74
236.12	1308.44
236.49	1324.26
236.86	1276.80
237.24	1220.31
237.61	1349.12
237.99	1292.62
238.36	1310.70
238.74	1312.96
239.11	1297.14
239.48	1274.54
239.86	1242.91
240.23	1324.26
240.61	1301.66
240.98	1310.70
241.35	1258.72
241.73	1281.32
242.10	1299.40
242.48	1333.30
242.85	1337.82
243.22	1421.43
243.60	1319.74
243.97	1281.32
244.34	1312.96
244.72	1283.58
245.09	1233.87
245.47	1328.78
245.84	1353.64
246.21	1285.84
246.59	1276.80
246.96	1331.04
247.33	1301.66
247.71	1401.09
248.08	1333.30
248.45	1364.94
248.83	1344.60
249.20	1340.08
249.57	1272.28
249.95	1331.04
250.32	1335.56
250.69	1371.72
251.07	1346.86
251.44	1342.34
251.81	1360.42
252.19	1312.96
252.56	1342.34
252.93	1303.92
253.31	1349.12
253.68	1367.20
254.05	1383.01
254.43	1337.82
254.80	1317.48
255.17	1353.64
255.55	1380.75
255.92	1299.40
256.29	1335.56
256.66	1405.61
257.04	1444.03
257.41	1387.53
257.78	1367.20
258.16	1292.62
258.53	1378.49
258.90	1326.52
259.27	1367.20
259.65	1369.46
260.02	1416.91
260.39	1405.61
260.76	1362.68
261.14	1349.12
261.51	1310.70
261.88	1407.87
262.25	1355.90
262.63	1403.35
263.00	1392.05
263.37	1299.40
263.74	1333.30
264.12	1362.68
264.49	1364.94
264.86	1349.12
265.23	1346.86
265.61	1457.59
265.98	1335.56
266.35	1367.20
266.72	1353.64
267.09	1378.49
267.47	1369.46
267.84	1392.05
268.21	1342.34
268.58	1396.57
268.95	1369.46
269.33	1407.87
269.70	1403.35
270.07	1392.05
270.44	1373.98
270.81	1369.46
271.19	1432.73
271.56	1471.15
271.93	1376.24
272.30	1405.61
272.67	1326.52
273.05	1432.73
273.42	1416.91
273.79	1401.09
274.16	1403.35
274.53	1401.09
274.90	1453.07
275.28	1434.99
275.65	1471.15
276.02	1392.05
276.39	1419.17
276.76	1437.25
277.13	1410.13
277.50	1344.60
277.88	1423.69
278.25	1498.27
278.62	1453.07
278.99	1464.37
279.36	1364.94
279.73	1459.85
280.10	1523.12
280.47	1464.37
280.85	1355.90
281.22	1444.03
281.59	1439.51
281.96	1446.29
282.33	1434.99
282.70	1437.25
283.07	1471.15
283.44	1407.87
283.81	1439.51
284.18	1473.41
284.56	1430.47
284.93	1477.93
285.30	1434.99
285.67	1446.29
286.04	1520.86
286.41	1423.69
286.78	1462.11
287.15	1471.15
287.52	1473.41
287.89	1457.59
288.26	1450.81
288.63	1509.56
289.00	1459.85
289.37	1536.68
289.75	1566.06
290.12	1419.17
290.49	1441.77
290.86	1523.12
291.23	1401.09
291.60	1536.68
291.97	1509.56
292.34	1401.09
292.71	1471.15
293.08	1446.29
293.45	1498.27
293.82	1538.94
294.19	1464.37
294.56	1557.02
294.93	1477.93
295.30	1486.97
295.67	1489.23
296.04	1505.05
296.41	1572.84
296.78	1518.60
297.15	1523.12
297.52	1505.05
297.89	1500.53
298.26	1579.62
298.63	1534.42
299.00	1484.71
299.37	1496.01
299.74	1532.16
300.11	1604.48
300.48	1550.24
300.85	1570.58
301.22	1541.20
301.59	1480.19
301.96	1511.82
302.33	1615.78
302.70	1459.85
303.07	1588.66
303.43	1568.32
303.80	1518.60
304.17	1611.26
304.54	1579.62
304.91	1538.94
305.28	1572.84
305.65	1688.09
306.02	1599.96
306.39	1541.20
306.76	1581.88
307.13	1624.82
307.50	1588.66
307.87	1647.41
308.24	1557.02
308.60	1622.56
308.97	1606.74
309.34	1575.10
309.71	1656.45
310.08	1692.61
310.45	1658.71
310.82	1676.79
311.19	1554.76
311.56	1733.29
311.92	1620.30
312.29	1631.60
312.66	1593.18
313.03	1683.57
313.40	1744.59
313.77	1566.06
314.14	1613.52
314.51	1590.92
314.87	1599.96
315.24	1665.49
315.61	1712.95
315.98	1579.62
316.35	1672.27
316.72	1640.63
317.09	1658.71
317.45	1690.35
317.82	1604.48
318.19	1667.75
318.56	1651.93
318.93	1615.78
319.30	1593.18
319.66	1656.45
320.03	1658.71
320.40	1615.78
320.77	1633.86
321.14	1706.17
321.50	1681.31
321.87	1706.17
322.24	1706.17
322.61	1679.05
322.98	1667.75
323.34	1642.89
323.71	1758.15
324.08	1685.83
324.45	1721.99
324.82	1715.21
325.18	1690.35
325.55	1624.82
325.92	1681.31
326.29	1751.37
326.65	1694.87
327.02	1654.19
327.39	1699.39
327.76	1719.73
328.12	1640.63
328.49	1728.77
328.86	1769.44
329.23	1767.19
329.59	1710.69
329.96	1758.15
330.33	1796.56
330.70	1749.11
331.06	1760.41
331.43	1749.11
331.80	1746.85
332.17	1758.15
332.53	2320.84
332.90	1780.74
333.27	1796.56
333.63	1810.12
334.00	1848.54
334.37	1871.14
334.74	1875.66
335.10	1900.52
335.47	1873.40
335.84	1830.46
336.20	1875.66
336.57	1853.06
336.94	1866.62
337.30	1961.53
337.67	1936.67
338.04	1920.85
338.40	1986.39
338.77	1938.93
339.14	1868.88
339.50	1966.05
339.87	1972.83
340.24	1966.05
340.60	1968.31
340.97	1986.39
341.34	1997.69
341.70	1972.83
342.07	1993.17
342.44	2008.99
342.80	1920.85
343.17	1950.23
343.53	1936.67
343.90	1929.89
344.27	1934.41
344.63	1911.81
345.00	1954.75
345.37	1970.57
345.73	2013.51
346.10	1954.75
346.46	1970.57
346.83	2015.77
347.20	1943.45
347.56	2024.81
347.93	2108.42
348.29	2029.33
348.66	2042.88
349.03	2072.26
349.39	2135.54
349.76	2058.70
350.12	2101.64
350.49	2149.10
350.85	2196.55
351.22	2207.85
351.59	2146.84
351.95	2205.59
352.32	2167.17
352.68	2135.54
353.05	2171.69
353.41	2228.19
353.78	2160.40
354.14	2225.93
354.51	2293.72
354.88	2225.93
355.24	2198.81
355.61	2246.27
355.97	2268.87
356.34	2268.87
356.70	2336.66
357.07	2397.68
357.43	2318.58
357.80	2295.98
358.16	2386.38
358.53	2411.24
358.89	2332.14
359.26	2540.05
359.62	2494.85
359.99	2503.89
360.35	2481.29
360.72	2576.20
361.08	2424.80
361.45	2503.89
361.81	2612.36
362.18	2628.18
362.54	2623.66
362.91	2653.04
363.27	2625.92
363.63	2833.82
364.00	2754.73
364.36	2784.11
364.73	2829.30
365.09	2869.98
365.46	2901.62
365.82	2802.19
366.19	2926.48
366.55	3050.77
366.91	3003.31
367.28	3025.91
367.64	3034.95
368.01	3132.12
368.37	3071.11
368.74	3109.52
369.10	3075.63
369.46	3227.03
369.83	3217.99
370.19	3150.20
370.56	3276.75
370.92	3217.99
371.28	3382.96
371.65	3385.22
372.01	3599.91
372.38	3611.20
372.74	3669.96
373.10	3683.52
373.47	3972.78
373.83	3990.86
374.19	4117.41
374.56	4124.19
374.92	4178.42
375.29	4307.23
375.65	4433.78
376.01	4560.33
376.38	4673.32
376.74	4917.38
377.10	4833.77
377.47	5010.04
377.83	5337.71
378.19	5464.26
378.56	5834.87
378.92	5997.58
379.28	6289.10
379.65	6833.72
380.01	6998.69
380.37	7425.79
380.74	7884.54
381.10	8743.27
381.46	8915.02
381.83	9730.82
382.19	10429.10
382.55	11025.70
382.91	11959.01
383.28	12661.81
383.64	14090.02
384.00	15222.20
384.37	16761.14
384.73	18304.60
385.09	19380.28
385.45	21011.88
385.82	23359.84
386.18	26110.05
386.54	28478.35
386.91	30925.74
387.27	34159.55
387.63	38173.01
387.99	41370.66
388.36	44647.41
388.72	48529.80
389.08	52037.05
389.44	55191.77
389.80	57679.84
390.17	59815.38
390.53	62414.18
390.89	65286.42
391.25	65535.00
391.62	65535.00
391.98	65535.00
392.34	65535.00
392.70	65535.00
393.06	65535.00
393.43	65535.00
393.79	65535.00
394.15	65535.00
394.51	65535.00
394.87	65535.00
395.24	65535.00
395.60	65535.00
395.96	65535.00
396.32	65535.00
396.68	65535.00
397.04	65535.00
397.41	65535.00
397.77	65535.00
398.13	65535.00
398.49	65535.00
398.85	65535.00
399.21	65535.00
399.58	65535.00
399.94	65535.00
400.30	65535.00
400.66	65535.00
401.02	65535.00
401.38	65535.00
401.74	65535.00
402.11	65535.00
402.47	65535.00
402.83	65535.00
403.19	65535.00
403.55	65535.00
403.91	65535.00
404.27	65535.00
404.63	65535.00
404.99	65535.00
405.35	65535.00
405.72	65535.00
406.08	65535.00
406.44	65535.00
406.80	65535.00
407.16	65535.00
407.52	65535.00
407.88	65535.00
408.24	65535.00
408.60	65535.00
408.96	65535.00
409.32	65535.00
409.68	65535.00
410.04	65535.00
410.40	65535.00
410.76	65535.00
411.13	65535.00
411.49	65535.00
411.85	65535.00
412.21	65535.00
412.57	65535.00
412.93	65535.00
413.29	65535.00
413.65	65535.00
414.01	65535.00
414.37	65535.00
414.73	65535.00
415.09	65535.00
415.45	65535.00
415.81	65535.00
416.17	65535.00
416.53	65535.00
416.89	65535.00
417.25	65535.00
417.61	65535.00
417.97	65535.00
418.33	65535.00
418.69	65535.00
419.05	65535.00
419.41	65535.00
419.77	65535.00
420.12	65535.00
420.48	65535.00
420.84	65535.00
421.20	65535.00
421.56	65535.00
421.92	65535.00
422.28	65535.00
422.64	65535.00
423.00	65535.00
423.36	65535.00
423.72	65535.00
424.08	65535.00
424.44	65535.00
424.80	65535.00
425.16	65535.00
425.51	65535.00
425.87	65535.00
426.23	65535.00
426.59	65535.00
426.95	65535.00
427.31	65535.00
427.67	65535.00
428.03	65535.00
428.39	65535.00
428.74	65535.00
429.10	65535.00
429.46	64909.03
429.82	63426.58
430.18	62441.30
430.54	61381.44
430.90	60748.69
431.26	59241.38
431.61	57512.61
431.97	56366.88
432.33	55354.48
432.69	54992.90
433.05	52694.66
433.41	50730.87
433.76	49494.74
434.12	48179.52
434.48	45241.75
434.84	43824.84
435.20	42236.18
435.55	41370.66
435.91	39106.32
436.27	37739.12
436.63	36062.33
436.99	34783.27
437.34	32939.25
437.70	32139.27
438.06	30446.66
438.42	28198.13
438.78	27445.61
439.13	27002.68
439.49	25795.93
439.85	24164.34
440.21	23219.73
440.56	22591.50
440.92	21466.10
441.28	20272.91
441.64	19592.71
441.99	18858.26
442.35	18257.15
442.71	17276.38
443.07	16702.39
443.42	15965.68
443.78	15111.47
444.14	15025.59
444.50	14383.80
444.85	14137.48
445.21	13631.28
445.57	13168.02
445.93	12589.50
446.28	11891.21
446.64	11803.08
447.00	11482.18
447.35	11762.40
447.71	11380.49
448.07	11226.82
448.42	10474.30
448.78	9922.90
449.14	9642.68
449.49	9208.80
449.85	8826.89
450.21	8438.20
450.56	8284.53
450.92	7798.66
451.28	7773.81
451.63	8022.39
451.99	7495.85
452.35	7529.75
452.70	7193.03
453.06	6955.75
453.42	6377.23
453.77	6142.21
454.13	6146.73
454.49	5857.47
454.84	5911.71
455.20	5527.54
455.55	5552.40
455.91	5437.15
456.27	5398.73
456.62	5184.04
456.98	4969.36
457.33	4560.33
457.69	4537.73
458.05	4465.42
458.40	4289.15
458.76	4176.16
459.11	4074.47
459.47	3979.56
459.83	4040.57
460.18	3877.86
460.54	3900.46
460.89	3627.02
461.25	3606.68
461.60	3568.27
461.96	3502.73
462.31	3486.91
462.67	3358.10
463.03	3281.27
463.38	3319.69
463.74	3179.58
464.09	3224.77
464.45	3095.96
464.80	3132.12
465.16	2980.71
465.51	3098.22
465.87	2962.63
466.22	2827.04
466.58	2901.62
466.93	2860.94
467.29	2790.89
467.64	2899.36
468.00	2804.45
468.35	2727.61
468.71	2784.11
469.06	2750.21
469.42	2682.42
469.77	2560.38
470.13	2589.76
470.48	2447.39
470.84	2499.37
471.19	2553.61
471.54	2375.08
471.90	2402.20
472.25	2411.24
472.61	2476.77
472.96	2420.28
473.32	2399.94
473.67	2307.28
474.03	2237.23
474.38	2397.68
474.73	2282.43
475.09	2359.26
475.44	2232.71
475.80	2336.66
476.15	2264.35
476.50	2307.28
476.86	2232.71
477.21	2241.75
477.57	2250.79
477.92	2298.24
478.27	2126.50
478.63	2171.69
478.98	2065.48
479.34	2106.16
479.69	2103.90
480.04	2207.85
480.40	2099.38
480.75	2106.16
481.10	2097.12
481.46	2060.96
481.81	2058.70
482.16	2137.80
482.52	2106.16
482.87	2176.21
483.22	2060.96
483.58	2110.68
483.93	2101.64
484.28	2117.46
484.64	2056.44
484.99	2006.73
485.34	2047.40
485.70	2076.78
486.05	2027.07
486.40	2060.96
486.76	2115.20
487.11	2090.34
487.46	2110.68
487.81	2101.64
488.17	2092.60
488.52	2135.54
488.87	2155.88
489.23	2162.66
489.58	2203.33
489.93	2194.29
490.28	2189.77
490.64	2162.66
490.99	2164.91
491.34	2210.11
491.69	2126.50
492.05	2259.83
492.40	2203.33
492.75	2203.33
493.10	2284.69
493.46	2250.79
493.81	2329.88
494.16	2429.31
494.51	2424.80
494.86	2357.00
495.22	2458.69
495.57	2379.60
495.92	2585.24
496.27	2569.42
496.62	2646.26
496.98	2605.58
497.33	2702.75
497.68	2720.83
498.03	2750.21
498.38	2901.62
498.74	2910.66
499.09	2967.15
499.44	3046.25
499.79	3116.30
500.14	3041.73
500.49	3118.56
500.85	3238.33
501.20	3525.33
501.55	3423.64
501.90	3624.76
502.25	3595.39
502.60	3819.11
502.95	3934.36
503.30	3977.30
503.66	4167.12
504.01	4221.36
504.36	4176.16
504.71	4345.65
505.06	4512.88
505.41	4591.97
505.76	4743.38
506.11	4845.07
506.46	5014.56
506.82	5197.60
507.17	5294.78
507.52	5552.40
507.87	5642.79
508.22	5645.05
508.57	5974.98
508.92	6356.90
509.27	6289.10
509.62	6469.89
509.97	6788.52
510.32	7009.99
510.67	7043.88
511.02	7281.16
511.37	7403.20
511.72	7882.28
512.07	7931.99
512.42	8137.64
512.77	8383.96
513.12	8411.08
513.47	8713.90
513.82	9125.18
514.17	9231.40
514.52	9489.02
514.87	9956.80
515.22	10049.45
515.57	10155.67
515.92	10505.94
516.27	10627.97
516.62	10905.93
516.97	11272.02
517.32	11595.18
517.67	11730.76
518.02	12062.96
518.37	12153.35
518.72	12768.03
519.07	12664.07
519.42	12849.38
519.77	13138.64
520.12	13694.56
520.47	13859.52
520.82	14212.06
521.17	14306.97
521.52	14325.05
521.87	14654.98
522.22	15120.51
522.56	14853.85
522.91	15195.08
523.26	15748.74
523.61	16022.18
523.96	16297.88
524.31	16356.63
524.66	16898.99
525.01	16885.43
525.36	16876.39
525.71	17278.64
526.05	17484.29
526.40	17929.47
526.75	17841.34
527.10	18092.18
527.45	17992.75
527.80	18200.65
528.15	18514.77
528.49	18851.48
528.84	18923.80
529.19	18722.67
529.54	19011.93
529.89	19129.44
530.24	19120.40
530.58	19463.90
530.93	19484.23
531.28	19866.14
531.63	19680.84
531.98	19983.66
532.33	19877.44
532.67	20180.26
533.02	20428.84
533.37	20051.45
533.72	20401.72
534.07	20259.35
534.41	20275.17
534.76	20614.15
535.11	20709.06
535.46	20639.01
535.80	21018.66
536.15	20776.85
536.50	20480.82
536.85	20537.31
537.19	20729.40
537.54	20754.26
537.89	20772.34
538.24	20785.89
538.58	20704.54
538.93	21066.11
539.28	21095.49
539.63	20871.77
539.97	20813.01
540.32	20559.91
540.67	20643.52
541.01	20761.04
541.36	20851.43
541.71	20634.49
542.06	20860.47
542.40	20311.33
542.75	20485.34
543.10	20731.66
543.44	20417.54
543.79	19850.33
544.14	20320.37
544.48	19985.92
544.83	20223.20
545.18	20116.99
545.52	20290.99
545.87	20227.72
546.22	19994.95
546.56	20383.64
546.91	19753.15
547.25	19574.63
547.60	19511.35
547.95	19590.45
548.29	19653.72
548.64	19276.33
548.99	19506.83
549.33	19468.41
549.68	19249.21
550.02	19359.94
550.37	18939.62
550.72	19217.57
551.06	19179.16
551.41	19179.16
551.75	18661.66
552.10	18709.11
552.45	18706.85
552.79	18869.56
553.14	18575.78
553.48	18370.14
553.83	18311.38
554.17	18465.05
554.52	18182.57
554.87	18008.57
555.21	17735.13
555.56	18015.35
555.90	18087.66
556.25	17576.94
556.59	17665.07
556.94	17771.28
557.28	17622.14
557.63	17633.43
557.97	17289.94
558.32	17543.04
558.66	17500.10
559.01	17411.97
559.35	17115.93
559.70	17271.86
560.04	17274.12
560.39	16930.63
560.73	17041.36
561.08	16657.19
561.42	16937.41
561.77	16636.85
562.11	16528.38
562.46	16808.60
562.80	16738.54
563.14	16499.00
563.49	16465.10
563.83	16067.37
564.18	16182.63
564.52	16178.11
564.87	16218.78
565.21	16092.23
565.56	16017.66
565.90	15873.03
566.24	16101.27
566.59	15649.31
566.93	15416.54
567.28	15384.91
567.62	15531.80
567.96	15683.20
568.31	15271.91
568.65	15287.73
569.00	15339.71
569.34	15061.75
569.68	15292.25
570.03	15258.36
570.37	14747.63
570.71	14910.34
571.06	14736.34
571.40	14573.63
571.74	14395.10
572.09	14575.89
572.43	14363.46
572.78	14300.19
573.12	14356.68
573.46	13936.36
573.80	14060.65
574.15	13974.77
574.49	13893.42
574.83	13857.26
575.18	13836.92
575.52	13816.59
575.86	13375.92
576.21	13497.95
576.55	13574.78
576.89	13685.52
577.24	13513.77
577.58	13165.76
577.92	13287.79
578.26	13082.14
578.61	13251.63
578.95	13075.36
579.29	12883.28
579.63	12720.57
579.98	12847.12
580.32	12557.86
580.66	12564.64
581.00	12528.48
581.35	12449.39
581.69	12349.96
582.03	12336.40
582.37	12187.25
582.72	12008.72
583.06	12015.50
583.40	11988.39
583.74	11848.28
584.08	11703.65
584.43	11721.73
584.77	11714.95
585.11	11507.04
585.45	11380.49
585.79	11251.68
586.13	11362.41
586.48	11226.82
586.82	11344.33
587.16	11109.31
587.50	10998.58
587.84	10838.13
588.18	10894.63
588.53	10729.66
588.87	10763.56
589.21	10844.91
589.55	10582.77
589.89	10435.88
590.23	10377.13
590.57	10372.61
590.92	10295.77
591.26	10218.94
591.60	9920.64
591.94	9952.28
592.28	10214.42
592.62	10067.53
592.96	9857.37
593.30	9857.37
593.64	9611.05
593.98	9629.13
594.32	9502.58
594.67	9568.11
595.01	9486.76
595.35	9346.65
595.69	9269.81
596.03	9100.33
596.37	9192.98
596.71	8899.20
597.05	8935.36
597.39	9014.45
597.73	8833.67
598.07	8905.98
598.41	8718.41
598.75	8600.90
599.09	8544.41
599.43	8533.11
599.77	8585.08
600.11	8390.74
600.45	8347.80
600.79	8176.06
601.13	8241.59
601.47	8162.50
601.81	7988.49
602.15	8142.16
602.49	7895.84
602.83	7884.54
603.17	7791.89
603.51	7954.59
603.85	7565.90
604.19	7595.28
604.53	7608.84
604.87	7423.53
605.21	7509.41
605.55	7389.64
605.89	7299.24
606.23	7229.19
606.56	7213.37
606.90	7190.77
607.24	7172.69
607.58	6933.15
607.92	6743.33
608.26	6860.84
608.60	6718.47
608.94	6619.04
609.28	6777.22
609.62	6623.55
609.95	6517.34
610.29	6438.25
610.63	6431.47
610.97	6374.97
611.31	6298.14
611.65	6325.26
611.99	6293.62
612.33	6171.59
612.66	6185.15
613.00	6171.59
613.34	6078.94
613.68	6117.35
614.02	5893.63
614.36	5916.23
614.69	5839.39
615.03	5898.15
615.37	5663.13
615.71	5701.54
616.05	5753.52
616.38	5690.25
616.72	5579.51
617.06	5466.52
617.40	5726.40
617.74	5459.74
618.07	5437.15
618.41	5387.43
618.75	5448.44
619.09	5179.52
619.42	5308.34
619.76	5410.03
620.10	5326.41
620.44	5385.17
620.77	5197.60
621.11	5005.52
621.45	4967.10
621.79	5125.29
622.12	5025.86
622.46	5019.08
622.80	4933.20
623.13	4851.85
623.47	4878.97
623.81	4759.20
624.15	4802.13
624.48	4784.06
624.82	4761.46
625.16	4747.90
625.49	4689.14
625.83	4616.83
626.17	4539.99
626.50	4612.31
626.84	4508.36
627.18	4492.54
627.51	4517.40
627.85	4469.94
628.19	4420.22
628.52	4347.91
628.86	4483.50
629.20	4365.99
629.53	4293.67
629.87	4225.88
630.20	4083.51
630.54	4094.81
630.88	4081.25
631.21	4155.82
631.55	3977.30
631.89	3968.26
632.22	4056.39
632.56	4036.05
632.89	3979.56
633.23	3864.31
633.56	3900.46
633.90	3907.24
634.24	3823.63
634.57	3843.97
634.91	3778.43
635.24	3767.13
635.58	3769.39
635.91	3690.30
636.25	3733.24
636.58	3577.31
636.92	3620.24
637.26	3667.70
637.59	3669.96
637.93	3475.61
638.26	3453.02
638.60	3590.87
638.93	3396.52
639.27	3405.56
639.60	3450.76
639.94	3466.58
640.27	3507.25
640.61	3443.98
640.94	3321.95
641.28	3312.91
641.61	3269.97
641.94	3421.38
642.28	3412.34
642.61	3215.73
642.95	3161.50
643.28	3184.10
643.62	3093.70
643.95	3166.02
644.29	3077.89
644.62	3220.25
644.95	3034.95
645.29	3043.99
645.62	3129.86
645.96	2992.01
646.29	2951.33
646.63	2912.92
646.96	2960.37
647.29	2845.12
647.63	2700.49
647.96	2845.12
648.29	2985.23
648.63	2768.29
648.96	2865.46
649.30	2768.29
649.63	2874.50
649.96	2743.43
650.30	2793.15
650.63	2734.39
650.96	2664.34
651.30	2781.85
651.63	2662.08
651.96	2673.38
652.30	2671.12
652.63	2689.19
652.96	2585.24
653.30	2587.50
653.63	2549.09
653.96	2580.72
654.30	2580.72
654.63	2546.83
654.96	2512.93
655.29	2510.67
655.63	2653.04
655.96	2506.15
656.29	2465.47
656.63	2472.25
656.96	2381.86
657.29	2458.69
657.62	2463.21
657.96	2363.78
658.29	2368.30
658.62	2302.76
658.95	2483.55
659.29	2357.00
659.62	2309.54
659.95	2314.06
660.28	2266.61
660.61	2230.45
660.95	2271.13
661.28	2230.45
661.61	2207.85
661.94	2275.65
662.27	2255.31
662.61	2205.59
662.94	2205.59
663.27	2205.59
663.60	2063.22
663.93	2164.91
664.27	2230.45
664.60	2074.52
664.93	2097.12
665.26	2128.76
665.59	2045.14
665.92	2070.00
666.25	1981.87
666.59	2011.25
666.92	2038.36
667.25	2108.42
667.58	1927.63
667.91	1957.01
668.24	1957.01
668.57	2054.18
668.90	1995.43
669.23	1896.00
669.57	1981.87
669.90	1896.00
670.23	1918.59
670.56	1839.50
670.89	1914.07
671.22	1916.33
671.55	1896.00
671.88	1868.88
672.21	1821.42
672.54	1834.98
672.87	1857.58
673.20	1803.34
673.53	1830.46
673.86	1864.36
674.19	1936.67
674.52	1844.02
674.85	1819.16
675.18	1794.30
675.51	1749.11
675.84	1746.85
676.17	1834.98
676.50	1660.97
676.83	1735.55
677.16	1742.33
677.49	1706.17
677.82	1647.41
678.15	1728.77
678.48	1737.81
678.81	1670.01
679.14	1683.57
679.47	1658.71
679.80	1581.88
680.13	1651.93
680.46	1627.08
680.79	1613.52
681.12	1658.71
681.45	1543.46
681.78	1597.70
682.11	1593.18
682.44	1649.67
682.77	1590.92
683.09	1475.67
683.42	1514.08
683.75	1516.34
684.08	1523.12
684.41	1584.14
684.74	1568.32
685.07	1491.49
685.40	1509.56
685.72	1466.63
686.05	1446.29
686.38	1532.16
686.71	1588.66
687.04	1518.60
687.37	1471.15
687.70	1502.79
688.02	1450.81
688.35	1502.79
688.68	1403.35
689.01	1496.01
689.34	1448.55
689.67	1455.33
689.99	1403.35
690.32	1416.91
690.65	1437.25
690.98	1437.25
691.30	1371.72
691.63	1416.91
691.96	1466.63
692.29	1448.55
692.62	1389.79
692.94	1416.91
693.27	1396.57
693.60	1322.00
693.93	1367.20
694.25	1380.75
694.58	1358.16
694.91	1367.20
695.24	1383.01
695.56	1385.27
695.89	1344.60
696.22	1340.08
696.54	1383.01
696.87	1383.01
697.20	1290.36
697.53	1263.24
697.85	1258.72
698.18	1360.42
698.51	1299.40
698.83	1376.24
699.16	1322.00
699.49	1288.10
699.81	1294.88
700.14	1265.50
700.47	1319.74
700.79	1299.40
701.12	1236.13
701.45	1233.87
701.77	1224.83
702.10	1312.96
702.42	1190.93
702.75	1283.58
703.08	1238.39
703.40	1218.05
703.73	1220.31
704.05	1215.79
704.38	1224.83
704.71	1294.88
705.03	1270.02
705.36	1236.13
705.68	1301.66
706.01	1213.53
706.34	1197.71
706.66	1184.15
706.99	1197.71
707.31	1274.54
707.64	1265.50
707.96	1152.51
708.29	1175.11
708.61	1175.11
708.94	1229.35
709.26	1193.19
709.59	1172.85
709.92	1279.06
710.24	1179.63
710.57	1136.69
710.89	1188.67
711.22	1168.33
711.54	1190.93
711.87	1170.59
712.19	1188.67
712.51	1062.12
712.84	1242.91
713.16	1190.93
713.49	1109.58
713.81	1229.35
714.14	1206.75
714.46	1161.55
714.79	1125.39
715.11	1157.03
715.44	1184.15
715.76	1179.63
716.08	1157.03
716.41	1152.51
716.73	1120.87
717.06	1161.55
717.38	1129.91
717.70	1150.25
718.03	1098.28
718.35	1019.18
718.68	1159.29
719.00	1215.79
719.32	1220.31
719.65	1141.21
719.97	1132.17
720.29	1147.99
720.62	1157.03
720.94	1105.06
721.27	1016.92
721.59	1037.26
721.91	1086.98
722.24	1048.56
722.56	1098.28
722.88	1111.84
723.21	1147.99
723.53	1123.13
723.85	1096.02
724.17	1037.26
724.50	1123.13
724.82	1134.43
725.14	1046.30
725.47	1086.98
725.79	1057.60
726.11	1062.12
726.43	1132.17
726.76	1168.33
727.08	1102.80
727.40	1120.87
727.72	1100.54
728.05	1098.28
728.37	1075.68
728.69	1050.82
729.01	1084.72
729.34	1129.91
729.66	1039.52
729.98	1077.94
730.30	1093.76
730.62	1077.94
730.95	1077.94
731.27	1066.64
731.59	1080.20
731.91	1118.61
732.23	1046.30
732.56	1077.94
732.88	1019.18
733.20	1053.08
733.52	1089.24
733.84	1084.72
734.16	1102.80
734.49	1077.94
734.81	1100.54
735.13	1066.64
735.45	1057.60
735.77	980.77
736.09	1030.48
736.41	1037.26
736.73	1014.66
737.06	1089.24
737.38	1005.62
737.70	1023.70
738.02	1037.26
738.34	1016.92
738.66	1030.48
738.98	1084.72
739.30	1046.30
739.62	1021.44
739.94	994.32
740.26	1028.22
740.58	1012.40
740.90	1064.38
741.23	996.58
741.55	1082.46
741.87	978.51
742.19	1010.14
742.51	973.99
742.83	1032.74
743.15	1003.36
743.47	1025.96
743.79	1003.36
744.11	1005.62
744.43	1037.26
744.75	1019.18
745.07	1028.22
745.39	1023.70
745.71	1028.22
746.03	1035.00
746.35	1032.74
746.67	962.69
746.98	1039.52
747.30	980.77
747.62	955.91
747.94	1003.36
748.26	1066.64
748.58	1003.36
748.90	989.80
749.22	1028.22
749.54	1050.82
749.86	946.87
750.18	973.99
750.50	1059.86
750.82	1019.18
751.13	1032.74
751.45	973.99
751.77	1039.52
752.09	958.17
752.41	978.51
752.73	953.65
753.05	980.77
753.36	942.35
753.68	996.58
754.00	994.32
754.32	931.05
754.64	1019.18
754.96	1057.60
755.28	994.32
755.59	985.28
755.91	1039.52
756.23	989.80
756.55	1046.30
756.87	987.54
757.18	928.79
757.50	919.75
757.82	969.47
758.14	1019.18
758.45	958.17
758.77	973.99
759.09	928.79
759.41	1037.26
759.73	1007.88
760.04	1030.48
760.36	894.89
760.68	973.99
760.99	922.01
761.31	987.54
761.63	973.99
761.95	983.02
762.26	1021.44
762.58	996.58
762.90	1001.10
763.21	1005.62
763.53	1010.14
763.85	1010.14
764.17	937.83
764.48	978.51
764.80	958.17
765.12	960.43
765.43	949.13
765.75	1005.62
766.07	962.69
766.38	1003.36
766.70	996.58
767.01	976.25
767.33	980.77
767.65	1021.44
767.96	983.02
768.28	962.69
768.60	1037.26
768.91	1012.40
769.23	973.99
769.54	940.09
769.86	973.99
770.18	980.77
770.49	1003.36
770.81	1001.10
771.12	951.39
771.44	910.71
771.75	949.13
772.07	960.43
772.38	1010.14
772.70	1005.62
773.02	924.27
773.33	958.17
773.65	1005.62
773.96	906.19
774.28	953.65
774.59	951.39
774.91	926.53
775.22	931.05
775.54	958.17
775.85	933.31
776.17	985.28
776.48	983.02
776.80	973.99
777.11	958.17
777.43	983.02
777.74	983.02
778.05	996.58
778.37	933.31
778.68	899.41
779.00	994.32
779.31	960.43
779.63	989.80
779.94	969.47
780.26	856.47
780.57	949.13
780.88	940.09
781.20	1005.62
781.51	958.17
781.83	933.31
782.14	919.75
782.45	976.25
782.77	989.80
783.08	924.27
783.39	917.49
783.71	992.06
784.02	940.09
784.34	922.01
784.65	944.61
784.96	976.25
785.28	987.54
785.59	951.39
785.90	912.97
786.22	901.67
786.53	953.65
786.84	931.05
787.15	926.53
787.47	946.87
787.78	937.83
788.09	980.77
788.41	992.06
788.72	926.53
789.03	881.33
789.35	971.73
789.66	980.77
789.97	908.45
790.28	935.57
790.60	989.80
790.91	955.91
791.22	933.31
791.53	922.01
791.84	983.02
792.16	985.28
792.47	955.91
792.78	931.05
793.09	926.53
793.41	992.06
793.72	998.84
794.03	985.28
794.34	917.49
794.65	953.65
794.96	935.57
795.28	985.28
795.59	944.61
795.90	885.85
796.21	899.41
796.52	955.91
796.83	967.21
797.15	973.99
797.46	1021.44
797.77	996.58
798.08	942.35
798.39	922.01
798.70	926.53
799.01	926.53
799.32	983.02
799.63	915.23
799.95	1014.66
800.26	922.01
800.57	973.99
800.88	1010.14
801.19	903.93
801.50	978.51
801.81	937.83
802.12	973.99
802.43	908.45
802.74	949.13
803.05	983.02
803.36	978.51
803.67	1016.92
803.98	942.35
804.29	962.69
804.60	940.09
804.91	978.51
805.22	955.91
805.53	847.44
805.84	933.31
806.15	953.65
806.46	978.51
806.77	901.67
807.08	1028.22
807.39	1001.10
807.70	951.39
808.01	903.93
808.32	908.45
808.63	926.53
808.94	967.21
809.25	935.57
809.56	1001.10
809.87	908.45
810.18	937.83
810.49	976.25
810.79	894.89
811.10	903.93
811.41	935.57
811.72	978.51
812.03	944.61
812.34	937.83
812.65	1016.92
812.96	942.35
813.27	946.87
813.57	901.67
813.88	881.33
814.19	933.31
814.50	958.17
814.81	1001.10
815.12	964.95
815.42	931.05
815.73	1019.18
816.04	976.25
816.35	989.80
816.66	894.89
816.97	958.17
817.27	926.53
817.58	924.27
817.89	944.61
818.20	962.69
818.50	940.09
818.81	915.23
819.12	1003.36
819.43	937.83
819.73	928.79
820.04	951.39
820.35	912.97
820.66	964.95
820.96	983.02
821.27	985.28
821.58	949.13
821.89	922.01
822.19	935.57
822.50	910.71
822.81	967.21
823.11	908.45
823.42	971.73
823.73	931.05
824.03	874.55
824.34	973.99
824.65	865.51
824.95	883.59
825.26	980.77
825.57	955.91
825.87	933.31
826.18	910.71
826.49	917.49
826.79	906.19
827.10	919.75
827.40	919.75
827.71	951.39
828.02	931.05
828.32	958.17
828.63	931.05
828.93	910.71
829.24	885.85
829.55	967.21
829.85	860.99
830.16	892.63
830.46	944.61
830.77	926.53
831.07	992.06
831.38	960.43
831.69	949.13
831.99	906.19
832.30	994.32
832.60	879.07
832.91	935.57
833.21	978.51
833.52	946.87
833.82	940.09
834.13	985.28
834.43	899.41
834.74	908.45
835.04	973.99
835.35	946.87
835.65	926.53
835.96	935.57
836.26	892.63
836.56	1001.10
836.87	931.05
837.17	949.13
837.48	935.57
837.78	931.05
838.09	919.75
838.39	969.47
838.69	931.05
839.00	955.91
839.30	865.51
839.61	890.37
839.91	955.91
840.21	912.97
840.52	924.27
840.82	931.05
841.13	969.47
841.43	964.95
841.73	951.39
842.04	937.83
842.34	935.57
842.64	987.54
842.95	894.89
843.25	870.03
843.55	912.97
843.86	973.99
844.16	919.75
844.46	892.63
844.77	931.05
845.07	978.51
845.37	912.97
845.68	908.45
845.98	910.71
846.28	922.01
846.58	897.15
846.89	838.40
847.19	928.79
847.49	892.63
847.79	967.21
848.10	958.17
848.40	933.31
848.70	922.01
849.00	962.69
849.31	951.39
849.61	919.75
849.91	881.33
850.21	917.49
850.51	928.79
850.82	917.49
851.12	912.97
851.42	908.45
851.72	944.61
852.02	892.63
852.32	867.77
852.63	919.75
852.93	926.53
853.23	937.83
853.53	955.91
853.83	899.41
854.13	962.69
854.43	897.15
854.74	951.39
855.04	903.93
855.34	937.83
855.64	892.63
855.94	867.77
856.24	949.13
856.54	937.83
856.84	983.02
857.14	928.79
857.44	919.75
857.74	983.02
858.05	992.06
858.35	928.79
858.65	964.95
858.95	955.91
859.25	1012.40
859.55	992.06
859.85	955.91
860.15	953.65
860.45	931.05
860.75	1014.66
861.05	985.28
861.35	829.36
861.65	906.19
861.95	931.05
862.25	912.97
862.55	953.65
862.85	912.97
863.15	931.05
863.45	935.57
863.75	922.01
864.05	922.01
864.35	980.77
864.64	980.77
864.94	946.87
865.24	924.27
865.54	967.21
865.84	962.69
866.14	890.37
866.44	944.61
866.74	829.36
867.04	903.93
867.34	980.77
867.64	922.01
867.93	897.15
868.23	881.33
868.53	951.39
868.83	890.37
869.13	940.09
869.43	924.27
869.73	946.87
870.02	935.57
870.32	926.53
870.62	931.05
870.92	944.61
871.22	908.45
871.51	971.73
871.81	899.41
872.11	931.05
872.41	872.29
872.71	906.19
873.00	917.49
873.30	973.99
873.60	953.65
873.90	906.19
874.19	919.75
874.49	919.75
874.79	928.79
875.09	910.71
875.38	937.83
875.68	890.37
875.98	931.05
876.28	897.15
876.57	983.02
876.87	983.02
877.17	983.02
