300.47	2612.00
301.26	2613.00
302.04	2620.00
302.82	2616.00
303.60	2616.00
304.38	2622.00
305.17	2621.00
305.95	2622.00
306.73	2618.00
307.51	2622.00
308.29	2620.00
309.08	2620.00
309.86	2617.00
310.64	2617.00
311.42	2623.00
312.20	2627.00
312.98	2620.00
313.76	2616.00
314.55	2614.00
315.33	2619.00
316.11	2616.00
316.89	2618.00
317.67	2613.00
318.45	2614.00
319.23	2616.00
320.01	2624.00
320.79	2619.00
321.57	2622.00
322.35	2620.00
323.13	2621.00
323.91	2618.00
324.69	2618.00
325.47	2621.00
326.25	2625.00
327.03	2622.00
327.81	2620.00
328.59	2620.00
329.37	2623.00
330.15	2621.00
330.93	2621.00
331.71	2622.00
332.49	2626.00
333.27	2625.00
334.05	2626.00
334.83	2632.00
335.61	2629.00
336.39	2628.00
337.17	2632.00
337.95	2632.00
338.73	2621.00
339.51	2632.00
340.29	2629.00
341.07	2633.00
341.84	2631.00
342.62	2635.00
343.40	2644.00
344.18	2648.00
344.96	2641.00
345.74	2643.00
346.52	2642.00
347.29	2655.00
348.07	2659.00
348.85	2655.00
349.63	2659.00
350.41	2659.00
351.18	2665.00
351.96	2675.00
352.74	2676.00
353.52	2675.00
354.30	2680.00
355.07	2677.00
355.85	2685.00
356.63	2685.00
357.41	2698.00
358.18	2696.00
358.96	2703.00
359.74	2709.00
360.52	2714.00
361.29	2717.00
362.07	2723.00
362.85	2725.00
363.62	2734.00
364.40	2743.00
365.18	2737.00
365.95	2746.00
366.73	2756.00
367.51	2774.00
368.28	2780.00
369.06	2785.00
369.84	2785.00
370.61	2794.00
371.39	2801.00
372.17	2815.00
372.94	2830.00
373.72	2837.00
374.49	2851.00
375.27	2858.00
376.05	2866.00
376.82	2871.00
377.60	2895.00
378.37	2908.00
379.15	2917.00
379.92	2934.00
380.70	2939.00
381.47	2953.00
382.25	2964.00
383.02	2995.00
383.80	3001.00
384.58	3013.00
385.35	3027.00
386.13	3048.00
386.90	3064.00
387.67	3074.00
388.45	3087.00
389.22	3112.00
390.00	3133.00
390.77	3158.00
391.55	3173.00
392.32	3199.00
393.10	3210.00
393.87	3225.00
394.65	3249.00
395.42	3262.00
396.19	3293.00
396.97	3309.00
397.74	3332.00
398.52	3354.00
399.29	3374.00
400.06	3394.00
400.84	3420.00
401.61	3435.00
402.38	3472.00
403.16	3494.00
403.93	3504.00
404.70	3536.00
405.48	3556.00
406.25	3586.00
407.02	3620.00
407.80	3632.00
408.57	3659.00
409.34	3692.00
410.12	3707.00
410.89	3740.00
411.66	3766.00
412.43	3789.00
413.21	3808.00
413.98	3845.00
414.75	3869.00
415.52	3906.00
416.30	3924.00
417.07	3960.00
417.84	3983.00
418.61	4020.00
419.39	4055.00
420.16	4087.00
420.93	4108.00
421.70	4140.00
422.47	4187.00
423.24	4200.00
424.02	4236.00
424.79	4251.00
425.56	4312.00
426.33	4344.00
427.10	4383.00
427.87	4417.00
428.64	4442.00
429.42	4502.00
430.19	4528.00
430.96	4560.00
431.73	4624.00
432.50	4666.00
433.27	4710.00
434.04	4735.00
434.81	4794.00
435.58	4869.00
436.35	4887.00
437.12	4945.00
437.89	4980.00
438.67	5060.00
439.44	5094.00
440.21	5120.00
440.98	5215.00
441.75	5273.00
442.52	5309.00
443.29	5350.00
444.06	5422.00
444.83	5510.00
445.60	5541.00
446.37	5591.00
447.13	5668.00
447.90	5728.00
448.67	5790.00
449.44	5882.00
450.21	5952.00
450.98	6002.00
451.75	6058.00
452.52	6126.00
453.29	6229.00
454.06	6289.00
454.83	6375.00
455.60	6469.00
456.37	6512.00
457.13	6598.00
457.90	6681.00
458.67	6793.00
459.44	6855.00
460.21	6930.00
460.98	7030.00
461.75	7101.00
462.51	7185.00
463.28	7274.00
464.05	7380.00
464.82	7452.00
465.59	7540.00
466.35	7625.00
467.12	7734.00
467.89	7825.00
468.66	7986.00
469.43	8023.00
470.19	8142.00
470.96	8233.00
471.73	8331.00
472.50	8449.00
473.26	8555.00
474.03	8616.00
474.80	8760.00
475.56	8870.00
476.33	8971.00
477.10	9069.00
477.87	9167.00
478.63	9277.00
479.40	9426.00
480.17	9548.00
480.93	9653.00
481.70	9755.00
482.47	9917.00
483.23	10020.00
484.00	10145.00
484.76	10320.00
485.53	10420.00
486.30	10532.00
487.06	10645.00
487.83	10782.00
488.60	10928.00
489.36	11048.00
490.13	11193.00
490.89	11302.00
491.66	11423.00
492.42	11608.00
493.19	11766.00
493.96	11864.00
494.72	11943.00
495.49	12096.00
496.25	12201.00
497.02	12407.00
497.78	12535.00
498.55	12671.00
499.31	12793.00
500.08	12911.00
500.84	13123.00
501.61	13226.00
502.37	13385.00
503.14	13535.00
503.90	13685.00
504.67	13805.00
505.43	13973.00
506.20	14138.00
506.96	14289.00
507.72	14477.00
508.49	14599.00
509.25	14786.00
510.02	14984.00
510.78	15192.00
511.54	15326.00
512.31	15446.00
513.07	15621.00
513.84	15817.00
514.60	15967.00
515.36	16138.00
516.13	16265.00
516.89	16391.00
517.65	16500.00
518.42	16661.00
519.18	16862.00
519.94	16982.00
520.71	17230.00
521.47	17333.00
522.23	17496.00
523.00	17659.00
523.76	17857.00
524.52	18100.00
525.28	18185.00
526.05	18332.00
526.81	18597.00
527.57	18759.00
528.33	18921.00
529.10	19088.00
529.86	19257.00
530.62	19447.00
531.38	19615.00
532.15	19745.00
532.91	19938.00
533.67	20088.00
534.43	20246.00
535.19	20544.00
535.96	20619.00
536.72	20777.00
537.48	20957.00
538.24	21085.00
539.00	21328.00
539.76	21561.00
540.53	21755.00
541.29	22009.00
542.05	22087.00
542.81	22304.00
543.57	22532.00
544.33	22801.00
545.09	22925.00
545.85	23087.00
546.61	23199.00
547.38	23409.00
548.14	23522.00
548.90	23773.00
549.66	23977.00
550.42	24189.00
551.18	24339.00
551.94	24485.00
552.70	24677.00
553.46	24904.00
554.22	25084.00
554.98	25242.00
555.74	25417.00
556.50	25595.00
557.26	25887.00
558.02	26100.00
558.78	26265.00
559.54	26458.00
560.30	26586.00
561.06	26820.00
561.82	26996.00
562.58	27307.00
563.34	27456.00
564.10	27652.00
564.86	27813.00
565.61	27955.00
566.37	28281.00
567.13	28509.00
567.89	28642.00
568.65	28871.00
569.41	28959.00
570.17	29143.00
570.93	29326.00
571.69	29509.00
572.44	29652.00
573.20	29940.00
573.96	30016.00
574.72	30209.00
575.48	30491.00
576.24	30574.00
576.99	30736.00
577.75	30984.00
578.51	31251.00
579.27	31348.00
580.03	31604.00
580.78	31888.00
581.54	32087.00
582.30	32257.00
583.06	32487.00
583.82	32568.00
584.57	32760.00
585.33	32954.00
586.09	33144.00
586.84	33295.00
587.60	33328.00
588.36	33502.00
589.12	33674.00
589.87	33884.00
590.63	34098.00
591.39	34273.00
592.14	34453.00
592.90	34554.00
593.66	34795.00
594.41	35080.00
595.17	35241.00
595.93	35360.00
596.68	35488.00
597.44	35613.00
598.20	35776.00
598.95	36099.00
599.71	36348.00
600.46	36470.00
601.22	36575.00
601.98	36696.00
602.73	37089.00
603.49	37474.00
604.24	37553.00
605.00	37767.00
605.76	37883.00
606.51	38090.00
607.27	38197.00
608.02	38588.00
608.78	38755.00
609.53	38917.00
610.29	39161.00
611.04	39299.00
611.80	39586.00
612.55	39889.00
613.31	40167.00
614.06	40321.00
614.82	40508.00
615.57	40816.00
616.33	40955.00
617.08	41155.00
617.84	41276.00
618.59	41341.00
619.35	41327.00
620.10	41302.00
620.85	41322.00
621.61	41385.00
622.36	41452.00
623.12	41427.00
623.87	41496.00
624.62	41620.00
625.38	41788.00
626.13	42012.00
626.89	42179.00
627.64	42247.00
628.39	42369.00
629.15	42526.00
629.90	42509.00
630.65	42618.00
631.41	42639.00
632.16	42658.00
632.91	42600.00
633.67	42651.00
634.42	42651.00
635.17	42797.00
635.92	43154.00
636.68	43600.00
637.43	44141.00
638.18	44652.00
638.94	45075.00
639.69	45366.00
640.44	45846.00
641.19	46167.00
641.95	46506.00
642.70	46878.00
643.45	47077.00
644.20	47336.00
644.95	47459.00
645.71	47486.00
646.46	47834.00
647.21	47917.00
647.96	47949.00
648.71	48038.00
649.47	48226.00
650.22	48263.00
650.97	48339.00
651.72	48498.00
652.47	48564.00
653.22	48819.00
653.97	48935.00
654.73	49122.00
655.48	49210.00
656.23	49434.00
656.98	49669.00
657.73	49873.00
658.48	50022.00
659.23	50027.00
659.98	50152.00
660.73	50140.00
661.48	50345.00
662.23	50323.00
662.99	50289.00
663.74	50358.00
664.49	50587.00
665.24	51065.00
665.99	51410.00
666.74	51580.00
667.49	51533.00
668.24	51727.00
668.99	51825.00
669.74	52040.00
670.49	52182.00
671.24	52292.00
671.99	52408.00
672.74	52464.00
673.48	52569.00
674.23	52802.00
674.98	52782.00
675.73	52967.00
676.48	53060.00
677.23	53117.00
677.98	53316.00
678.73	53388.00
679.48	53348.00
680.23	53421.00
680.98	53390.00
681.73	53423.00
682.47	53426.00
683.22	53281.00
683.97	53504.00
684.72	53614.00
685.47	53675.00
686.22	53760.00
686.97	53940.00
687.71	54159.00
688.46	54264.00
689.21	54404.00
689.96	54461.00
690.71	54586.00
691.45	54539.00
692.20	54605.00
692.95	54472.00
693.70	54609.00
694.44	54688.00
695.19	54727.00
695.94	54956.00
696.69	55048.00
697.43	55077.00
698.18	55050.00
698.93	55095.00
699.68	55257.00
700.42	55232.00
701.17	55248.00
701.92	55316.00
702.66	55349.00
703.41	55448.00
704.16	55479.00
704.90	55545.00
705.65	55597.00
706.40	55684.00
707.14	55701.00
707.89	55725.00
708.64	55757.00
709.38	55780.00
710.13	55814.00
710.88	55877.00
711.62	55935.00
712.37	55903.00
713.11	55990.00
713.86	56077.00
714.61	56002.00
715.35	55888.00
716.10	55663.00
716.84	55491.00
717.59	55343.00
718.33	55081.00
719.08	54983.00
719.83	54924.00
720.57	54779.00
721.32	54665.00
722.06	54543.00
722.81	54593.00
723.55	54660.00
724.30	54691.00
725.04	54878.00
725.79	54906.00
726.53	54792.00
727.28	54762.00
728.02	54751.00
728.76	54954.00
729.51	54991.00
730.25	55098.00
731.00	55035.00
731.74	55005.00
732.49	55051.00
733.23	54957.00
733.97	54792.00
734.72	54786.00
735.46	54597.00
736.21	54479.00
736.95	54557.00
737.69	54757.00
738.44	54828.00
739.18	54929.00
739.92	54914.00
740.67	54997.00
741.41	55030.00
742.15	55292.00
742.90	55313.00
743.64	55554.00
744.38	55423.00
745.13	55441.00
745.87	55391.00
746.61	55409.00
747.36	55471.00
748.10	55521.00
748.84	55370.00
749.58	55285.00
750.33	55183.00
751.07	55113.00
751.81	55071.00
752.55	54819.00
753.30	54765.00
754.04	54718.00
754.78	54452.00
755.52	54239.00
756.27	54176.00
757.01	54091.00
757.75	54184.00
758.49	54172.00
759.23	54120.00
759.97	54061.00
760.72	53993.00
761.46	54126.00
762.20	54171.00
762.94	54197.00
763.68	54026.00
764.42	53955.00
765.16	53824.00
765.91	53846.00
766.65	53688.00
767.39	53701.00
768.13	53624.00
768.87	53735.00
769.61	53631.00
770.35	53549.00
771.09	53452.00
771.83	53383.00
772.57	53295.00
773.31	53264.00
774.05	53328.00
774.80	53228.00
775.54	53231.00
776.28	53093.00
777.02	52918.00
777.76	52897.00
778.50	52594.00
779.24	52442.00
779.98	52247.00
780.72	52313.00
781.46	52220.00
782.20	52198.00
782.93	52158.00
783.67	52095.00
784.41	51960.00
785.15	51820.00
785.89	51720.00
786.63	51528.00
787.37	51371.00
788.11	51126.00
788.85	50903.00
789.59	50935.00
790.33	50950.00
791.07	50901.00
791.81	50746.00
792.54	50667.00
793.28	50455.00
794.02	50190.00
794.76	49954.00
795.50	49752.00
796.24	49626.00
796.97	49276.00
797.71	48984.00
798.45	48859.00
799.19	48875.00
799.93	48652.00
800.67	48657.00
801.40	48660.00
802.14	48700.00
802.88	48847.00
803.62	48780.00
804.35	48762.00
805.09	48667.00
805.83	48563.00
806.57	48447.00
807.30	48502.00
808.04	48415.00
808.78	48225.00
809.52	47876.00
810.25	47801.00
810.99	47619.00
811.73	47499.00
812.46	47483.00
813.20	47429.00
813.94	47353.00
814.68	47297.00
815.41	47242.00
816.15	47301.00
816.88	47351.00
817.62	47446.00
818.36	47318.00
819.09	47097.00
819.83	46762.00
820.57	46652.00
821.30	46510.00
822.04	46371.00
822.77	46157.00
823.51	46030.00
824.25	45947.00
824.98	45873.00
825.72	45808.00
826.45	45784.00
827.19	45610.00
827.92	45276.00
828.66	45073.00
829.40	44919.00
830.13	44784.00
830.87	44834.00
831.60	44708.00
832.34	44773.00
833.07	44506.00
833.81	44592.00
834.54	44604.00
835.28	44728.00
836.01	44672.00
836.75	44445.00
837.48	44174.00
838.22	43922.00
838.95	43817.00
839.68	43852.00
840.42	43924.00
841.15	43941.00
841.89	43881.00
842.62	43491.00
843.36	43356.00
844.09	43310.00
844.82	43366.00
845.56	43392.00
846.29	43272.00
847.02	43044.00
847.76	42949.00
848.49	43022.00
849.23	43111.00
849.96	43473.00
850.69	43460.00
851.43	43312.00
852.16	43024.00
852.89	42659.00
853.63	42491.00
854.36	42223.00
855.09	42324.00
855.82	42292.00
856.56	42083.00
857.29	41870.00
858.02	41718.00
858.76	41706.00
859.49	41720.00
860.22	41762.00
860.95	41577.00
861.69	41408.00
862.42	41208.00
863.15	41072.00
863.88	41014.00
864.61	41096.00
865.35	41245.00
866.08	40971.00
866.81	40860.00
867.54	40646.00
868.27	40532.00
869.01	40459.00
869.74	40509.00
870.47	40420.00
871.20	40279.00
871.93	40064.00
872.66	39815.00
873.40	39769.00
874.13	39568.00
874.86	39311.00
875.59	39203.00
876.32	39102.00
877.05	39019.00
877.78	38914.00
878.51	38728.00
879.24	38492.00
879.97	38487.00
880.71	38279.00
881.44	38206.00
882.17	38041.00
882.90	37898.00
883.63	37804.00
884.36	37754.00
885.09	37834.00
885.82	37925.00
886.55	38078.00
887.28	38069.00
888.01	37947.00
888.74	37768.00
889.47	37544.00
890.20	37276.00
890.93	37051.00
891.66	36875.00
892.39	36817.00
893.12	36680.00
893.85	36673.00
894.57	36766.00
895.30	36645.00
896.03	36726.00
896.76	36545.00
897.49	36502.00
898.22	36215.00
898.95	36032.00
899.68	35967.00
900.41	35687.00
901.14	35395.00
901.86	35456.00
902.59	35387.00
903.32	35337.00
904.05	35317.00
904.78	35251.00
905.51	35054.00
906.24	34978.00
906.96	34917.00
907.69	34807.00
908.42	34542.00
909.15	34360.00
909.88	34203.00
910.60	33968.00
911.33	33916.00
912.06	33811.00
912.79	33651.00
913.52	33433.00
914.24	33392.00
914.97	33323.00
915.70	33088.00
916.42	33081.00
917.15	32865.00
917.88	32655.00
918.61	32480.00
919.33	32181.00
920.06	31846.00
920.79	31696.00
921.51	31497.00
922.24	31470.00
922.97	31323.00
923.69	31103.00
924.42	31036.00
925.15	30865.00
925.87	30771.00
926.60	30459.00
927.33	30189.00
928.05	29929.00
928.78	29582.00
929.51	29380.00
930.23	29027.00
930.96	28688.00
931.68	28361.00
932.41	28053.00
933.14	27779.00
933.86	27429.00
934.59	27037.00
935.31	26707.00
936.04	26230.00
936.76	25801.00
937.49	25347.00
938.21	24871.00
938.94	24404.00
939.66	23969.00
940.39	23582.00
941.11	23185.00
941.84	22883.00
942.56	22526.00
943.29	22366.00
944.01	22180.00
944.74	22037.00
945.46	21992.00
946.19	21983.00
946.91	22012.00
947.64	22039.00
948.36	22079.00
949.09	22193.00
949.81	22233.00
950.53	22311.00
951.26	22418.00
951.98	22458.00
952.71	22499.00
953.43	22600.00
954.15	22675.00
954.88	22797.00
955.60	22809.00
956.33	22880.00
957.05	22901.00
957.77	22997.00
958.50	23031.00
959.22	23056.00
959.94	23100.00
960.67	22971.00
961.39	22969.00
962.11	22964.00
962.84	22994.00
963.56	22992.00
964.28	22860.00
965.00	22666.00
965.73	22523.00
966.45	22375.00
967.17	22306.00
967.89	22229.00
968.62	22059.00
969.34	21847.00
970.06	21651.00
970.78	21619.00
971.51	21464.00
972.23	21386.00
972.95	21170.00
973.67	21033.00
974.40	20847.00
975.12	20705.00
975.84	20583.00
976.56	20421.00
977.28	20239.00
978.00	20118.00
978.73	20095.00
979.45	19987.00
980.17	19919.00
980.89	19870.00
981.61	19813.00
982.33	19676.00
983.05	19598.00
983.77	19542.00
984.50	19430.00
985.22	19453.00
985.94	19335.00
986.66	19254.00
987.38	19177.00
988.10	19104.00
988.82	19124.00
989.54	19041.00
990.26	18920.00
990.98	18839.00
991.70	18665.00
992.42	18563.00
993.14	18364.00
993.86	18196.00
994.58	18129.00
995.30	17967.00
996.02	17829.00
996.74	17799.00
997.46	17746.00
998.18	17625.00
998.90	17441.00
999.62	17359.00
1000.34	17321.00
1001.06	17248.00
1001.78	17112.00
1002.50	16942.00
1003.22	16825.00
1003.94	16651.00
1004.66	16530.00
1005.38	16356.00
1006.09	16194.00
1006.81	16082.00
1007.53	15861.00
1008.25	15776.00
1008.97	15572.00
1009.69	15535.00
1010.41	15444.00
1011.13	15272.00
1011.84	15074.00
1012.56	15015.00
1013.28	14859.00
1014.00	14657.00
1014.72	14626.00
1015.44	14376.00
1016.15	14168.00
1016.87	13991.00
1017.59	13805.00
1018.31	13694.00
1019.03	13565.00
1019.74	13497.00
1020.46	13447.00
1021.18	13352.00
1021.90	13209.00
1022.61	13097.00
1023.33	12982.00
1024.05	12840.00
1024.76	12711.00
1025.48	12472.00
1026.20	12250.00
1026.92	12117.00
1027.63	11966.00
1028.35	11805.00
1029.07	11709.00
1029.78	11524.00
1030.50	11384.00
1031.22	11239.00
1031.93	11119.00
1032.65	10998.00
1033.37	10911.00
1034.08	10819.00
1034.80	10741.00
1035.52	10636.00
1036.23	10559.00
1036.95	10447.00
1037.66	10372.00
1038.38	10251.00
1039.10	10122.00
1039.81	9961.00
1040.53	9797.00
1041.24	9632.00
1041.96	9478.00
1042.67	9374.00
1043.39	9251.00
1044.10	9185.00
1044.82	9085.00
1045.54	8991.00
1046.25	8837.00
1046.97	8765.00
1047.68	8636.00
1048.40	8510.00
1049.11	8341.00
1049.83	8224.00
1050.54	8113.00
1051.26	8037.00
1051.97	7913.00
1052.68	7847.00
1053.40	7721.00
1054.11	7596.00
1054.83	7510.00
1055.54	7347.00
1056.26	7286.00
1056.97	7203.00
1057.69	7131.00
1058.40	6999.00
1059.11	6903.00
1059.83	6768.00
1060.54	6651.00
1061.25	6514.00
1061.97	6350.00
1062.68	6269.00
1063.40	6128.00
1064.11	6000.00
1064.82	5882.00
1065.54	5768.00
1066.25	2565.00
1066.96	2568.00
1067.68	2569.00
1068.39	2569.00
1069.10	2622.00
1069.82	2620.00
1070.53	2623.00
1071.24	2623.00
1071.95	2619.00
1072.67	2612.00
1073.38	5640.00
1074.09	5528.00
1074.80	5407.00
1075.52	5318.00
1076.23	5237.00
1076.94	5101.00
1077.65	2576.00
1078.37	2572.00
1079.08	2555.00
1079.79	2596.00
