300.47	2620.00
301.26	2618.00
302.04	2620.00
302.82	2622.00
303.60	2614.00
304.38	2615.00
305.17	2620.00
305.95	2625.00
306.73	2625.00
307.51	2626.00
308.29	2619.00
309.08	2622.00
309.86	2619.00
310.64	2615.00
311.42	2616.00
312.20	2621.00
312.98	2621.00
313.76	2619.00
314.55	2628.00
315.33	2623.00
316.11	2621.00
316.89	2625.00
317.67	2625.00
318.45	2619.00
319.23	2619.00
320.01	2621.00
320.79	2619.00
321.57	2629.00
322.35	2629.00
323.13	2622.00
323.91	2614.00
324.69	2620.00
325.47	2626.00
326.25	2627.00
327.03	2618.00
327.81	2630.00
328.59	2626.00
329.37	2632.00
330.15	2625.00
330.93	2625.00
331.71	2623.00
332.49	2621.00
333.27	2624.00
334.05	2624.00
334.83	2623.00
335.61	2630.00
336.39	2632.00
337.17	2636.00
337.95	2632.00
338.73	2632.00
339.51	2628.00
340.29	2635.00
341.07	2638.00
341.84	2643.00
342.62	2639.00
343.40	2643.00
344.18	2636.00
344.96	2639.00
345.74	2643.00
346.52	2645.00
347.29	2644.00
348.07	2658.00
348.85	2664.00
349.63	2658.00
350.41	2658.00
351.18	2662.00
351.96	2659.00
352.74	2667.00
353.52	2676.00
354.30	2679.00
355.07	2682.00
355.85	2681.00
356.63	2685.00
357.41	2696.00
358.18	2697.00
358.96	2705.00
359.74	2715.00
360.52	2709.00
361.29	2722.00
362.07	2721.00
362.85	2725.00
363.62	2731.00
364.40	2741.00
365.18	2751.00
365.95	2756.00
366.73	2753.00
367.51	2757.00
368.28	2772.00
369.06	2776.00
369.84	2792.00
370.61	2804.00
371.39	2807.00
372.17	2815.00
372.94	2829.00
373.72	2835.00
374.49	2850.00
375.27	2854.00
376.05	2874.00
376.82	2872.00
377.60	2891.00
378.37	2895.00
379.15	2907.00
379.92	2920.00
380.70	2948.00
381.47	2960.00
382.25	2975.00
383.02	2985.00
383.80	2993.00
384.58	3017.00
385.35	3030.00
386.13	3048.00
386.90	3073.00
387.67	3090.00
388.45	3121.00
389.22	3118.00
390.00	3138.00
390.77	3144.00
391.55	3167.00
392.32	3196.00
393.10	3207.00
393.87	3240.00
394.65	3246.00
395.42	3281.00
396.19	3291.00
396.97	3325.00
397.74	3335.00
398.52	3362.00
399.29	3380.00
400.06	3398.00
400.84	3435.00
401.61	3435.00
402.38	3470.00
403.16	3488.00
403.93	3526.00
404.70	3543.00
405.48	3570.00
406.25	3599.00
407.02	3620.00
407.80	3637.00
408.57	3672.00
409.34	3681.00
410.12	3720.00
410.89	3760.00
411.66	3779.00
412.43	3795.00
413.21	3808.00
413.98	3840.00
414.75	3874.00
415.52	3890.00
416.30	3940.00
417.07	3967.00
417.84	3983.00
418.61	4021.00
419.39	4041.00
420.16	4076.00
420.93	4107.00
421.70	4143.00
422.47	4191.00
423.24	4216.00
424.02	4251.00
424.79	4273.00
425.56	4313.00
426.33	4344.00
427.10	4385.00
427.87	4429.00
428.64	4484.00
429.42	4508.00
430.19	4536.00
430.96	4559.00
431.73	4623.00
432.50	4662.00
433.27	4710.00
434.04	4761.00
434.81	4816.00
435.58	4856.00
436.35	4890.00
437.12	4936.00
437.89	4986.00
438.67	5044.00
439.44	5096.00
440.21	5162.00
440.98	5199.00
441.75	5260.00
442.52	5325.00
443.29	5356.00
444.06	5430.00
444.83	5499.00
445.60	5578.00
446.37	5614.00
447.13	5681.00
447.90	5728.00
448.67	5835.00
449.44	5865.00
450.21	5915.00
450.98	6018.00
451.75	6053.00
452.52	6140.00
453.29	6233.00
454.06	6301.00
454.83	6389.00
455.60	6427.00
456.37	6509.00
457.13	6598.00
457.90	6708.00
458.67	6797.00
459.44	6843.00
460.21	6922.00
460.98	7034.00
461.75	7092.00
462.51	7219.00
463.28	7287.00
464.05	7376.00
464.82	7478.00
465.59	7584.00
466.35	7637.00
467.12	7738.00
467.89	7855.00
468.66	7948.00
469.43	8035.00
470.19	8131.00
470.96	8237.00
471.73	8327.00
472.50	8454.00
473.26	8556.00
474.03	8637.00
474.80	8763.00
475.56	8877.00
476.33	8996.00
477.10	9120.00
477.87	9218.00
478.63	9302.00
479.40	9445.00
480.17	9596.00
480.93	9688.00
481.70	9813.00
482.47	9918.00
483.23	10078.00
484.00	10157.00
484.76	10287.00
485.53	10425.00
486.30	10546.00
487.06	10693.00
487.83	10825.00
488.60	10983.00
489.36	11063.00
490.13	11209.00
490.89	11312.00
491.66	11444.00
492.42	11631.00
493.19	11745.00
493.96	11863.00
494.72	12003.00
495.49	12116.00
496.25	12282.00
497.02	12425.00
497.78	12589.00
498.55	12688.00
499.31	12855.00
500.08	12927.00
500.84	13145.00
501.61	13253.00
502.37	13400.00
503.14	13561.00
503.90	13699.00
504.67	13843.00
505.43	14023.00
506.20	14201.00
506.96	14320.00
507.72	14509.00
508.49	14686.00
509.25	14821.00
510.02	15019.00
510.78	15213.00
511.54	15357.00
512.31	15546.00
513.07	15678.00
513.84	15843.00
514.60	15944.00
515.36	16164.00
516.13	16241.00
516.89	16420.00
517.65	16499.00
518.42	16707.00
519.18	16883.00
519.94	17131.00
520.71	17255.00
521.47	17373.00
522.23	17534.00
523.00	17761.00
523.76	17944.00
524.52	18161.00
525.28	18331.00
526.05	18435.00
526.81	18637.00
527.57	18779.00
528.33	18983.00
529.10	19151.00
529.86	19324.00
530.62	19465.00
531.38	19620.00
532.15	19876.00
532.91	19986.00
533.67	20140.00
534.43	20299.00
535.19	20487.00
535.96	20654.00
536.72	20789.00
537.48	20985.00
538.24	21179.00
539.00	21303.00
539.76	21584.00
540.53	21825.00
541.29	22030.00
542.05	22170.00
542.81	22379.00
543.57	22569.00
544.33	22763.00
545.09	23010.00
545.85	23113.00
546.61	23276.00
547.38	23421.00
548.14	23617.00
548.90	23820.00
549.66	24062.00
550.42	24221.00
551.18	24406.00
551.94	24497.00
552.70	24808.00
553.46	25009.00
554.22	25165.00
554.98	25330.00
555.74	25435.00
556.50	25703.00
557.26	25912.00
558.02	26201.00
558.78	26368.00
559.54	26569.00
560.30	26656.00
561.06	26836.00
561.82	27070.00
562.58	27315.00
563.34	27568.00
564.10	27785.00
564.86	27841.00
565.61	28034.00
566.37	28351.00
567.13	28441.00
567.89	28706.00
568.65	28889.00
569.41	29053.00
570.17	29253.00
570.93	29346.00
571.69	29636.00
572.44	29795.00
573.20	29955.00
573.96	30100.00
574.72	30285.00
575.48	30516.00
576.24	30745.00
576.99	30857.00
577.75	31107.00
578.51	31287.00
579.27	31445.00
580.03	31718.00
580.78	31919.00
581.54	32149.00
582.30	32311.00
583.06	32530.00
583.82	32636.00
584.57	32781.00
585.33	32995.00
586.09	33258.00
586.84	33333.00
587.60	33435.00
588.36	33554.00
589.12	33777.00
589.87	34004.00
590.63	34168.00
591.39	34403.00
592.14	34485.00
592.90	34716.00
593.66	34959.00
594.41	35137.00
595.17	35292.00
595.93	35456.00
596.68	35505.00
597.44	35629.00
598.20	35807.00
598.95	36174.00
599.71	36437.00
600.46	36545.00
601.22	36634.00
601.98	36837.00
602.73	37147.00
603.49	37484.00
604.24	37763.00
605.00	37805.00
605.76	38040.00
606.51	38203.00
607.27	38282.00
608.02	38650.00
608.78	38865.00
609.53	39053.00
610.29	39115.00
611.04	39436.00
611.80	39704.00
612.55	40012.00
613.31	40255.00
614.06	40444.00
614.82	40647.00
615.57	40872.00
616.33	41064.00
617.08	41225.00
617.84	41357.00
618.59	41510.00
619.35	41409.00
620.10	41454.00
620.85	41477.00
621.61	41477.00
622.36	41589.00
623.12	41542.00
623.87	41651.00
624.62	41805.00
625.38	41902.00
626.13	42027.00
626.89	42342.00
627.64	42462.00
628.39	42491.00
629.15	42546.00
629.90	42718.00
630.65	42625.00
631.41	42679.00
632.16	42817.00
632.91	42751.00
633.67	42718.00
634.42	42764.00
635.17	42979.00
635.92	43241.00
636.68	43727.00
637.43	44203.00
638.18	44657.00
638.94	45163.00
639.69	45390.00
640.44	45871.00
641.19	46310.00
641.95	46677.00
642.70	46930.00
643.45	47245.00
644.20	47426.00
644.95	47623.00
645.71	47625.00
646.46	47821.00
647.21	48004.00
647.96	48141.00
648.71	48117.00
649.47	48328.00
650.22	48289.00
650.97	48406.00
651.72	48493.00
652.47	48755.00
653.22	48869.00
653.97	48955.00
654.73	49176.00
655.48	49214.00
656.23	49484.00
656.98	49782.00
657.73	49976.00
658.48	50137.00
659.23	50142.00
659.98	50200.00
660.73	50239.00
661.48	50392.00
662.23	50509.00
662.99	50442.00
663.74	50411.00
664.49	50824.00
665.24	51193.00
665.99	51491.00
666.74	51641.00
667.49	51708.00
668.24	51883.00
668.99	51973.00
669.74	52149.00
670.49	52319.00
671.24	52406.00
671.99	52554.00
672.74	52613.00
673.48	52808.00
674.23	52868.00
674.98	53056.00
675.73	52998.00
676.48	53159.00
677.23	53251.00
677.98	53318.00
678.73	53368.00
679.48	53419.00
680.23	53525.00
680.98	53458.00
681.73	53611.00
682.47	53448.00
683.22	53566.00
683.97	53462.00
684.72	53663.00
685.47	53730.00
686.22	53852.00
686.97	54108.00
687.71	54343.00
688.46	54401.00
689.21	54553.00
689.96	54571.00
690.71	54589.00
691.45	54697.00
692.20	54723.00
692.95	54684.00
693.70	54680.00
694.44	54844.00
695.19	54959.00
695.94	55065.00
696.69	55175.00
697.43	55131.00
698.18	55097.00
698.93	55225.00
699.68	55311.00
700.42	55331.00
701.17	55284.00
701.92	55447.00
702.66	55444.00
703.41	55516.00
704.16	55588.00
704.90	55589.00
705.65	55667.00
706.40	55748.00
707.14	55688.00
707.89	55854.00
708.64	55866.00
709.38	55882.00
710.13	55885.00
710.88	55963.00
711.62	55966.00
712.37	56016.00
713.11	56039.00
713.86	56126.00
714.61	56021.00
715.35	55912.00
716.10	55754.00
716.84	55659.00
717.59	55388.00
718.33	55174.00
719.08	54969.00
719.83	54953.00
720.57	54910.00
721.32	54717.00
722.06	54681.00
722.81	54680.00
723.55	54699.00
724.30	54969.00
725.04	54951.00
725.79	54914.00
726.53	54882.00
727.28	54939.00
728.02	54904.00
728.76	55009.00
729.51	55088.00
730.25	54980.00
731.00	55113.00
731.74	55148.00
732.49	55122.00
733.23	54977.00
733.97	54914.00
734.72	54815.00
735.46	54702.00
736.21	54648.00
736.95	54612.00
737.69	54703.00
738.44	54876.00
739.18	54985.00
739.92	55054.00
740.67	55073.00
741.41	55145.00
742.15	55423.00
742.90	55610.00
743.64	55635.00
744.38	55585.00
745.13	55532.00
745.87	55485.00
746.61	55525.00
747.36	55474.00
748.10	55577.00
748.84	55629.00
749.58	55353.00
750.33	55232.00
751.07	55116.00
751.81	55093.00
752.55	55018.00
753.30	54959.00
754.04	54791.00
754.78	54508.00
755.52	54382.00
756.27	54208.00
757.01	54153.00
757.75	54228.00
758.49	54340.00
759.23	54341.00
759.97	54213.00
760.72	54155.00
761.46	54158.00
762.20	54242.00
762.94	54223.00
763.68	54157.00
764.42	54020.00
765.16	53968.00
765.91	53850.00
766.65	53948.00
767.39	53793.00
768.13	53668.00
768.87	53678.00
769.61	53668.00
770.35	53700.00
771.09	53511.00
771.83	53392.00
772.57	53404.00
773.31	53348.00
774.05	53378.00
774.80	53430.00
775.54	53239.00
776.28	53067.00
777.02	52948.00
777.76	52925.00
778.50	52790.00
779.24	52575.00
779.98	52404.00
780.72	52351.00
781.46	52272.00
782.20	52218.00
782.93	52260.00
783.67	52128.00
784.41	51980.00
785.15	51905.00
785.89	51816.00
786.63	51629.00
787.37	51386.00
788.11	51194.00
788.85	51078.00
789.59	50965.00
790.33	51001.00
791.07	50939.00
791.81	50927.00
792.54	50693.00
793.28	50623.00
794.02	50353.00
794.76	50068.00
795.50	49838.00
796.24	49604.00
796.97	49416.00
797.71	49169.00
798.45	48996.00
799.19	48889.00
799.93	48684.00
800.67	48716.00
801.40	48745.00
802.14	48743.00
802.88	48763.00
803.62	48896.00
804.35	48971.00
805.09	48641.00
805.83	48611.00
806.57	48493.00
807.30	48480.00
808.04	48481.00
808.78	48299.00
809.52	48014.00
810.25	47832.00
810.99	47714.00
811.73	47593.00
812.46	47424.00
813.20	47582.00
813.94	47442.00
814.68	47362.00
815.41	47255.00
816.15	47360.00
816.88	47475.00
817.62	47448.00
818.36	47357.00
819.09	47125.00
819.83	46843.00
820.57	46772.00
821.30	46630.00
822.04	46451.00
822.77	46240.00
823.51	46133.00
824.25	45970.00
824.98	45980.00
825.72	45876.00
826.45	45715.00
827.19	45559.00
827.92	45357.00
828.66	45098.00
829.40	44863.00
830.13	44787.00
830.87	44845.00
831.60	44786.00
832.34	44709.00
833.07	44525.00
833.81	44634.00
834.54	44646.00
835.28	44678.00
836.01	44695.00
836.75	44491.00
837.48	44185.00
838.22	44001.00
838.95	43906.00
839.68	43876.00
840.42	43969.00
841.15	43865.00
841.89	43763.00
842.62	43532.00
843.36	43324.00
844.09	43317.00
844.82	43396.00
845.56	43363.00
846.29	43337.00
847.02	43077.00
847.76	42969.00
848.49	43050.00
849.23	43255.00
849.96	43517.00
850.69	43521.00
851.43	43275.00
852.16	43007.00
852.89	42716.00
853.63	42526.00
854.36	42362.00
855.09	42377.00
855.82	42259.00
856.56	42109.00
857.29	41837.00
858.02	41828.00
858.76	41810.00
859.49	41830.00
860.22	41732.00
860.95	41574.00
861.69	41502.00
862.42	41246.00
863.15	41166.00
863.88	41039.00
864.61	41065.00
865.35	41156.00
866.08	41124.00
866.81	40919.00
867.54	40680.00
868.27	40575.00
869.01	40402.00
869.74	40517.00
870.47	40484.00
871.20	40309.00
871.93	40136.00
872.66	39966.00
873.40	39786.00
874.13	39573.00
874.86	39386.00
875.59	39194.00
876.32	39102.00
877.05	39003.00
877.78	38986.00
878.51	38827.00
879.24	38570.00
879.97	38426.00
880.71	38383.00
881.44	38157.00
882.17	38086.00
882.90	37926.00
883.63	37832.00
884.36	37804.00
885.09	37790.00
885.82	37884.00
886.55	38104.00
887.28	38057.00
888.01	37938.00
888.74	37791.00
889.47	37526.00
890.20	37294.00
890.93	37031.00
891.66	36842.00
892.39	36837.00
893.12	36690.00
893.85	36731.00
894.57	36732.00
895.30	36685.00
896.03	36672.00
896.76	36574.00
897.49	36526.00
898.22	36153.00
898.95	36056.00
899.68	35845.00
900.41	35702.00
901.14	35460.00
901.86	35348.00
902.59	35380.00
903.32	35427.00
904.05	35314.00
904.78	35222.00
905.51	35060.00
906.24	34985.00
906.96	34921.00
907.69	34811.00
908.42	34622.00
909.15	34375.00
909.88	34259.00
910.60	33984.00
911.33	33952.00
912.06	33819.00
912.79	33640.00
913.52	33509.00
914.24	33373.00
914.97	33334.00
915.70	33133.00
916.42	33004.00
917.15	32818.00
917.88	32653.00
918.61	32452.00
919.33	32129.00
920.06	31845.00
920.79	31669.00
921.51	31482.00
922.24	31408.00
922.97	31373.00
923.69	31169.00
924.42	31053.00
925.15	30923.00
925.87	30745.00
926.60	30514.00
927.33	30238.00
928.05	29897.00
928.78	29622.00
929.51	29364.00
930.23	28961.00
930.96	28651.00
931.68	28347.00
932.41	28001.00
933.14	27758.00
933.86	27442.00
934.59	27081.00
935.31	26791.00
936.04	26273.00
936.76	25792.00
937.49	25327.00
938.21	24841.00
938.94	24429.00
939.66	23962.00
940.39	23552.00
941.11	23224.00
941.84	22903.00
942.56	22611.00
943.29	22364.00
944.01	22195.00
944.74	22066.00
945.46	22038.00
946.19	21971.00
946.91	21962.00
947.64	22053.00
948.36	22134.00
949.09	22182.00
949.81	22252.00
950.53	22306.00
951.26	22430.00
951.98	22525.00
952.71	22531.00
953.43	22655.00
954.15	22760.00
954.88	22810.00
955.60	22831.00
956.33	22841.00
957.05	22969.00
957.77	22942.00
958.50	22981.00
959.22	23093.00
959.94	23067.00
960.67	22985.00
961.39	22950.00
962.11	22913.00
962.84	23026.00
963.56	22948.00
964.28	22867.00
965.00	22763.00
965.73	22600.00
966.45	22402.00
967.17	22366.00
967.89	22200.00
968.62	22016.00
969.34	21915.00
970.06	21705.00
970.78	21603.00
971.51	21438.00
972.23	21412.00
972.95	21220.00
973.67	21010.00
974.40	20866.00
975.12	20688.00
975.84	20548.00
976.56	20394.00
977.28	20206.00
978.00	20088.00
978.73	20037.00
979.45	19974.00
980.17	19893.00
980.89	19798.00
981.61	19782.00
982.33	19598.00
983.05	19600.00
983.77	19528.00
984.50	19430.00
985.22	19388.00
985.94	19358.00
986.66	19201.00
987.38	19119.00
988.10	19149.00
988.82	19080.00
989.54	19065.00
990.26	18941.00
990.98	18826.00
991.70	18678.00
992.42	18523.00
993.14	18390.00
993.86	18203.00
994.58	18074.00
995.30	17974.00
996.02	17796.00
996.74	17788.00
997.46	17700.00
998.18	17600.00
998.90	17512.00
999.62	17355.00
1000.34	17257.00
1001.06	17265.00
1001.78	17126.00
1002.50	16990.00
1003.22	16800.00
1003.94	16623.00
1004.66	16468.00
1005.38	16323.00
1006.09	16142.00
1006.81	16038.00
1007.53	15862.00
1008.25	15719.00
1008.97	15619.00
1009.69	15479.00
1010.41	15461.00
1011.13	15285.00
1011.84	15115.00
1012.56	14978.00
1013.28	14861.00
1014.00	14690.00
1014.72	14540.00
1015.44	14373.00
1016.15	14128.00
1016.87	13957.00
1017.59	13746.00
1018.31	13638.00
1019.03	13580.00
1019.74	13478.00
1020.46	13412.00
1021.18	13272.00
1021.90	13188.00
1022.61	13073.00
1023.33	12951.00
1024.05	12803.00
1024.76	12684.00
1025.48	12409.00
1026.20	12297.00
1026.92	12069.00
1027.63	11943.00
1028.35	11803.00
1029.07	11659.00
1029.78	11488.00
1030.50	11357.00
1031.22	11194.00
1031.93	11112.00
1032.65	11012.00
1033.37	10878.00
1034.08	10801.00
1034.80	10732.00
1035.52	10618.00
1036.23	10576.00
1036.95	10468.00
1037.66	10366.00
1038.38	10265.00
1039.10	10100.00
1039.81	9918.00
1040.53	9755.00
1041.24	9624.00
1041.96	9507.00
1042.67	9393.00
1043.39	9255.00
1044.10	9192.00
1044.82	9060.00
1045.54	8959.00
1046.25	8881.00
1046.97	8776.00
1047.68	8623.00
1048.40	8455.00
1049.11	8308.00
1049.83	8191.00
1050.54	8064.00
1051.26	8023.00
1051.97	7871.00
1052.68	7816.00
1053.40	7673.00
1054.11	7602.00
1054.83	7469.00
1055.54	7379.00
1056.26	7282.00
1056.97	7173.00
1057.69	7086.00
1058.40	7031.00
1059.11	6898.00
1059.83	6752.00
1060.54	6637.00
1061.25	6499.00
1061.97	6362.00
1062.68	6202.00
1063.40	6096.00
1064.11	5992.00
1064.82	5897.00
1065.54	5751.00
1066.25	2570.00
1066.96	2562.00
1067.68	2559.00
1068.39	2566.00
1069.10	2623.00
1069.82	2620.00
1070.53	2621.00
1071.24	2617.00
1071.95	2616.00
1072.67	2618.00
1073.38	5668.00
1074.09	5521.00
1074.80	5405.00
1075.52	5311.00
1076.23	5202.00
1076.94	5110.00
1077.65	2574.00
1078.37	2552.00
1079.08	2574.00
1079.79	2584.00
