300.47	2620.00
301.26	2619.00
302.04	2613.00
302.82	2618.00
303.60	2624.00
304.38	2623.00
305.17	2621.00
305.95	2619.00
306.73	2618.00
307.51	2621.00
308.29	2617.00
309.08	2617.00
309.86	2621.00
310.64	2621.00
311.42	2620.00
312.20	2620.00
312.98	2626.00
313.76	2615.00
314.55	2617.00
315.33	2624.00
316.11	2624.00
316.89	2620.00
317.67	2627.00
318.45	2615.00
319.23	2620.00
320.01	2621.00
320.79	2615.00
321.57	2619.00
322.35	2620.00
323.13	2621.00
323.91	2620.00
324.69	2625.00
325.47	2621.00
326.25	2627.00
327.03	2623.00
327.81	2621.00
328.59	2624.00
329.37	2623.00
330.15	2618.00
330.93	2628.00
331.71	2624.00
332.49	2622.00
333.27	2627.00
334.05	2626.00
334.83	2626.00
335.61	2628.00
336.39	2634.00
337.17	2632.00
337.95	2628.00
338.73	2632.00
339.51	2628.00
340.29	2639.00
341.07	2637.00
341.84	2632.00
342.62	2632.00
343.40	2639.00
344.18	2644.00
344.96	2642.00
345.74	2645.00
346.52	2649.00
347.29	2644.00
348.07	2658.00
348.85	2651.00
349.63	2653.00
350.41	2654.00
351.18	2664.00
351.96	2668.00
352.74	2672.00
353.52	2673.00
354.30	2673.00
355.07	2682.00
355.85	2695.00
356.63	2689.00
357.41	2689.00
358.18	2696.00
358.96	2701.00
359.74	2711.00
360.52	2720.00
361.29	2716.00
362.07	2717.00
362.85	2725.00
363.62	2733.00
364.40	2740.00
365.18	2742.00
365.95	2747.00
366.73	2756.00
367.51	2767.00
368.28	2770.00
369.06	2783.00
369.84	2792.00
370.61	2802.00
371.39	2811.00
372.17	2812.00
372.94	2824.00
373.72	2836.00
374.49	2851.00
375.27	2857.00
376.05	2863.00
376.82	2881.00
377.60	2892.00
378.37	2901.00
379.15	2917.00
379.92	2919.00
380.70	2946.00
381.47	2958.00
382.25	2961.00
383.02	2987.00
383.80	3005.00
384.58	3014.00
385.35	3042.00
386.13	3053.00
386.90	3060.00
387.67	3081.00
388.45	3101.00
389.22	3114.00
390.00	3133.00
390.77	3156.00
391.55	3174.00
392.32	3194.00
393.10	3210.00
393.87	3226.00
394.65	3244.00
395.42	3271.00
396.19	3292.00
396.97	3305.00
397.74	3330.00
398.52	3354.00
399.29	3384.00
400.06	3402.00
400.84	3417.00
401.61	3436.00
402.38	3477.00
403.16	3490.00
403.93	3514.00
404.70	3543.00
405.48	3573.00
406.25	3595.00
407.02	3621.00
407.80	3633.00
408.57	3656.00
409.34	3691.00
410.12	3722.00
410.89	3742.00
411.66	3767.00
412.43	3791.00
413.21	3819.00
413.98	3846.00
414.75	3865.00
415.52	3890.00
416.30	3930.00
417.07	3959.00
417.84	3990.00
418.61	4006.00
419.39	4062.00
420.16	4095.00
420.93	4113.00
421.70	4140.00
422.47	4162.00
423.24	4217.00
424.02	4235.00
424.79	4273.00
425.56	4302.00
426.33	4339.00
427.10	4394.00
427.87	4440.00
428.64	4455.00
429.42	4498.00
430.19	4536.00
430.96	4577.00
431.73	4613.00
432.50	4660.00
433.27	4706.00
434.04	4770.00
434.81	4794.00
435.58	4842.00
436.35	4890.00
437.12	4939.00
437.89	4986.00
438.67	5069.00
439.44	5093.00
440.21	5135.00
440.98	5208.00
441.75	5273.00
442.52	5317.00
443.29	5367.00
444.06	5404.00
444.83	5465.00
445.60	5549.00
446.37	5617.00
447.13	5681.00
447.90	5722.00
448.67	5790.00
449.44	5857.00
450.21	5910.00
450.98	6010.00
451.75	6064.00
452.52	6121.00
453.29	6216.00
454.06	6285.00
454.83	6355.00
455.60	6448.00
456.37	6530.00
457.13	6591.00
457.90	6673.00
458.67	6757.00
459.44	6862.00
460.21	6933.00
460.98	7008.00
461.75	7085.00
462.51	7165.00
463.28	7281.00
464.05	7400.00
464.82	7465.00
465.59	7565.00
466.35	7641.00
467.12	7738.00
467.89	7852.00
468.66	7951.00
469.43	8001.00
470.19	8137.00
470.96	8279.00
471.73	8334.00
472.50	8426.00
473.26	8559.00
474.03	8660.00
474.80	8754.00
475.56	8889.00
476.33	8965.00
477.10	9095.00
477.87	9193.00
478.63	9327.00
479.40	9453.00
480.17	9558.00
480.93	9658.00
481.70	9784.00
482.47	9863.00
483.23	10022.00
484.00	10162.00
484.76	10310.00
485.53	10453.00
486.30	10516.00
487.06	10673.00
487.83	10795.00
488.60	10962.00
489.36	11057.00
490.13	11193.00
490.89	11313.00
491.66	11432.00
492.42	11548.00
493.19	11705.00
493.96	11852.00
494.72	11941.00
495.49	12101.00
496.25	12195.00
497.02	12374.00
497.78	12558.00
498.55	12670.00
499.31	12771.00
500.08	12947.00
500.84	13075.00
501.61	13255.00
502.37	13400.00
503.14	13545.00
503.90	13676.00
504.67	13804.00
505.43	14037.00
506.20	14129.00
506.96	14344.00
507.72	14474.00
508.49	14639.00
509.25	14819.00
510.02	14950.00
510.78	15147.00
511.54	15300.00
512.31	15536.00
513.07	15663.00
513.84	15765.00
514.60	15918.00
515.36	16173.00
516.13	16254.00
516.89	16398.00
517.65	16494.00
518.42	16647.00
519.18	16856.00
519.94	17036.00
520.71	17206.00
521.47	17337.00
522.23	17496.00
523.00	17669.00
523.76	17910.00
524.52	18068.00
525.28	18251.00
526.05	18372.00
526.81	18555.00
527.57	18730.00
528.33	18931.00
529.10	19083.00
529.86	19229.00
530.62	19413.00
531.38	19601.00
532.15	19761.00
532.91	19925.00
533.67	20109.00
534.43	20295.00
535.19	20445.00
535.96	20609.00
536.72	20779.00
537.48	20876.00
538.24	21118.00
539.00	21358.00
539.76	21555.00
540.53	21774.00
541.29	21965.00
542.05	22157.00
542.81	22311.00
543.57	22581.00
544.33	22760.00
545.09	22948.00
545.85	23081.00
546.61	23289.00
547.38	23368.00
548.14	23561.00
548.90	23826.00
549.66	23954.00
550.42	24233.00
551.18	24404.00
551.94	24522.00
552.70	24704.00
553.46	24885.00
554.22	25113.00
554.98	25305.00
555.74	25468.00
556.50	25594.00
557.26	25850.00
558.02	26096.00
558.78	26355.00
559.54	26446.00
560.30	26644.00
561.06	26817.00
561.82	27058.00
562.58	27293.00
563.34	27516.00
564.10	27678.00
564.86	27842.00
565.61	27992.00
566.37	28307.00
567.13	28477.00
567.89	28702.00
568.65	28830.00
569.41	28976.00
570.17	29197.00
570.93	29354.00
571.69	29513.00
572.44	29741.00
573.20	29882.00
573.96	30048.00
574.72	30264.00
575.48	30441.00
576.24	30663.00
576.99	30884.00
577.75	31090.00
578.51	31265.00
579.27	31417.00
580.03	31699.00
580.78	31867.00
581.54	32195.00
582.30	32379.00
583.06	32470.00
583.82	32621.00
584.57	32804.00
585.33	32980.00
586.09	33197.00
586.84	33310.00
587.60	33403.00
588.36	33545.00
589.12	33710.00
589.87	34000.00
590.63	34192.00
591.39	34392.00
592.14	34472.00
592.90	34661.00
593.66	34857.00
594.41	35095.00
595.17	35330.00
595.93	35387.00
596.68	35463.00
597.44	35685.00
598.20	35885.00
598.95	36188.00
599.71	36382.00
600.46	36573.00
601.22	36704.00
601.98	36829.00
602.73	37134.00
603.49	37510.00
604.24	37737.00
605.00	37842.00
605.76	37970.00
606.51	38114.00
607.27	38347.00
608.02	38658.00
608.78	38786.00
609.53	38957.00
610.29	39201.00
611.04	39421.00
611.80	39606.00
612.55	39923.00
613.31	40156.00
614.06	40434.00
614.82	40615.00
615.57	40859.00
616.33	41062.00
617.08	41180.00
617.84	41385.00
618.59	41413.00
619.35	41473.00
620.10	41435.00
620.85	41454.00
621.61	41463.00
622.36	41623.00
623.12	41504.00
623.87	41669.00
624.62	41809.00
625.38	41880.00
626.13	41980.00
626.89	42221.00
627.64	42444.00
628.39	42492.00
629.15	42601.00
629.90	42604.00
630.65	42698.00
631.41	42738.00
632.16	42754.00
632.91	42738.00
633.67	42693.00
634.42	42764.00
635.17	42908.00
635.92	43269.00
636.68	43740.00
637.43	44106.00
638.18	44673.00
638.94	45134.00
639.69	45549.00
640.44	45930.00
641.19	46271.00
641.95	46599.00
642.70	47096.00
643.45	47268.00
644.20	47476.00
644.95	47600.00
645.71	47784.00
646.46	47862.00
647.21	47981.00
647.96	48065.00
648.71	48258.00
649.47	48329.00
650.22	48374.00
650.97	48492.00
651.72	48623.00
652.47	48752.00
653.22	48884.00
653.97	49038.00
654.73	49245.00
655.48	49313.00
656.23	49485.00
656.98	49852.00
657.73	50063.00
658.48	50083.00
659.23	50237.00
659.98	50200.00
660.73	50274.00
661.48	50458.00
662.23	50535.00
662.99	50505.00
663.74	50518.00
664.49	50837.00
665.24	51360.00
665.99	51638.00
666.74	51727.00
667.49	51768.00
668.24	51911.00
668.99	52071.00
669.74	52316.00
670.49	52334.00
671.24	52394.00
671.99	52506.00
672.74	52676.00
673.48	52914.00
674.23	52890.00
674.98	53094.00
675.73	53054.00
676.48	53243.00
677.23	53295.00
677.98	53463.00
678.73	53446.00
679.48	53484.00
680.23	53693.00
680.98	53663.00
681.73	53557.00
682.47	53520.00
683.22	53611.00
683.97	53716.00
684.72	53767.00
685.47	53912.00
686.22	53979.00
686.97	54168.00
687.71	54412.00
688.46	54651.00
689.21	54605.00
689.96	54599.00
690.71	54739.00
691.45	54772.00
692.20	54773.00
692.95	54800.00
693.70	54851.00
694.44	54782.00
695.19	55012.00
695.94	55142.00
696.69	55249.00
697.43	55237.00
698.18	55316.00
698.93	55301.00
699.68	55366.00
700.42	55411.00
701.17	55392.00
701.92	55435.00
702.66	55583.00
703.41	55623.00
704.16	55719.00
704.90	55813.00
705.65	55835.00
706.40	55873.00
707.14	55833.00
707.89	55924.00
708.64	55947.00
709.38	56023.00
710.13	56073.00
710.88	56152.00
711.62	56109.00
712.37	56201.00
713.11	56214.00
713.86	56266.00
714.61	56269.00
715.35	56047.00
716.10	55918.00
716.84	55711.00
717.59	55581.00
718.33	55215.00
719.08	55154.00
719.83	55118.00
720.57	54945.00
721.32	54862.00
722.06	54755.00
722.81	54798.00
723.55	54882.00
724.30	54926.00
725.04	55091.00
725.79	55049.00
726.53	55054.00
727.28	54977.00
728.02	55055.00
728.76	55297.00
729.51	55204.00
730.25	55260.00
731.00	55222.00
731.74	55236.00
732.49	55287.00
733.23	55102.00
733.97	55091.00
734.72	55000.00
735.46	54794.00
736.21	54742.00
736.95	54815.00
737.69	54927.00
738.44	55037.00
739.18	55209.00
739.92	55229.00
740.67	55140.00
741.41	55444.00
742.15	55506.00
742.90	55602.00
743.64	55609.00
744.38	55726.00
745.13	55636.00
745.87	55737.00
746.61	55713.00
747.36	55724.00
748.10	55707.00
748.84	55606.00
749.58	55568.00
750.33	55446.00
751.07	55439.00
751.81	55202.00
752.55	55149.00
753.30	55107.00
754.04	54844.00
754.78	54702.00
755.52	54491.00
756.27	54440.00
757.01	54357.00
757.75	54441.00
758.49	54480.00
759.23	54461.00
759.97	54479.00
760.72	54280.00
761.46	54249.00
762.20	54375.00
762.94	54332.00
763.68	54355.00
764.42	54253.00
765.16	54176.00
765.91	54029.00
766.65	54080.00
767.39	53962.00
768.13	53900.00
768.87	53876.00
769.61	53874.00
770.35	53805.00
771.09	53688.00
771.83	53644.00
772.57	53505.00
773.31	53508.00
774.05	53486.00
774.80	53531.00
775.54	53372.00
776.28	53298.00
777.02	53103.00
777.76	53104.00
778.50	52910.00
779.24	52772.00
779.98	52504.00
780.72	52535.00
781.46	52385.00
782.20	52535.00
782.93	52503.00
783.67	52317.00
784.41	52183.00
785.15	52069.00
785.89	51912.00
786.63	51742.00
787.37	51572.00
788.11	51343.00
788.85	51239.00
789.59	51105.00
790.33	51190.00
791.07	51145.00
791.81	51016.00
792.54	50861.00
793.28	50718.00
794.02	50415.00
794.76	50273.00
795.50	50066.00
796.24	49832.00
796.97	49475.00
797.71	49297.00
798.45	49113.00
799.19	49098.00
799.93	49019.00
800.67	48808.00
801.40	48870.00
802.14	48998.00
802.88	49017.00
803.62	49050.00
804.35	49000.00
805.09	48937.00
805.83	48783.00
806.57	48729.00
807.30	48711.00
808.04	48626.00
808.78	48466.00
809.52	48154.00
810.25	47949.00
810.99	47872.00
811.73	47782.00
812.46	47648.00
813.20	47625.00
813.94	47566.00
814.68	47548.00
815.41	47532.00
816.15	47393.00
816.88	47641.00
817.62	47679.00
818.36	47555.00
819.09	47269.00
819.83	47067.00
820.57	46931.00
821.30	46766.00
822.04	46678.00
822.77	46409.00
823.51	46377.00
824.25	46228.00
824.98	46076.00
825.72	46143.00
826.45	45992.00
827.19	45911.00
827.92	45562.00
828.66	45302.00
829.40	45167.00
830.13	45040.00
830.87	45102.00
831.60	45059.00
832.34	44826.00
833.07	44848.00
833.81	44775.00
834.54	44919.00
835.28	44888.00
836.01	44881.00
836.75	44673.00
837.48	44415.00
838.22	44181.00
838.95	44067.00
839.68	44096.00
840.42	44240.00
841.15	44169.00
841.89	43975.00
842.62	43707.00
843.36	43561.00
844.09	43447.00
844.82	43558.00
845.56	43580.00
846.29	43466.00
847.02	43380.00
847.76	43210.00
848.49	43285.00
849.23	43466.00
849.96	43698.00
850.69	43793.00
851.43	43523.00
852.16	43213.00
852.89	42903.00
853.63	42712.00
854.36	42531.00
855.09	42555.00
855.82	42470.00
856.56	42318.00
857.29	42151.00
858.02	42086.00
858.76	42058.00
859.49	42063.00
860.22	42034.00
860.95	41852.00
861.69	41620.00
862.42	41501.00
863.15	41320.00
863.88	41167.00
864.61	41292.00
865.35	41401.00
866.08	41349.00
866.81	41149.00
867.54	40969.00
868.27	40793.00
869.01	40789.00
869.74	40714.00
870.47	40720.00
871.20	40562.00
871.93	40328.00
872.66	40173.00
873.40	39980.00
874.13	39787.00
874.86	39641.00
875.59	39440.00
876.32	39357.00
877.05	39250.00
877.78	39241.00
878.51	38969.00
879.24	38831.00
879.97	38644.00
880.71	38623.00
881.44	38405.00
882.17	38352.00
882.90	38195.00
883.63	38021.00
884.36	38009.00
885.09	38090.00
885.82	38140.00
886.55	38291.00
887.28	38317.00
888.01	38221.00
888.74	38033.00
889.47	37715.00
890.20	37511.00
890.93	37278.00
891.66	37080.00
892.39	36932.00
893.12	36985.00
893.85	37009.00
894.57	37025.00
895.30	36949.00
896.03	36912.00
896.76	36879.00
897.49	36721.00
898.22	36612.00
898.95	36300.00
899.68	36049.00
900.41	35875.00
901.14	35815.00
901.86	35649.00
902.59	35625.00
903.32	35700.00
904.05	35620.00
904.78	35456.00
905.51	35315.00
906.24	35219.00
906.96	35101.00
907.69	35002.00
908.42	34848.00
909.15	34583.00
909.88	34429.00
910.60	34286.00
911.33	34136.00
912.06	34006.00
912.79	33868.00
913.52	33726.00
914.24	33608.00
914.97	33598.00
915.70	33432.00
916.42	33247.00
917.15	33091.00
917.88	32892.00
918.61	32678.00
919.33	32357.00
920.06	32145.00
920.79	31956.00
921.51	31707.00
922.24	31644.00
922.97	31547.00
923.69	31357.00
924.42	31282.00
925.15	31155.00
925.87	30927.00
926.60	30713.00
927.33	30469.00
928.05	30132.00
928.78	29869.00
929.51	29592.00
930.23	29205.00
930.96	28896.00
931.68	28580.00
932.41	28295.00
933.14	27986.00
933.86	27620.00
934.59	27307.00
935.31	26932.00
936.04	26515.00
936.76	26012.00
937.49	25574.00
938.21	25049.00
938.94	24531.00
939.66	24147.00
940.39	23739.00
941.11	23416.00
941.84	23081.00
942.56	22805.00
943.29	22533.00
944.01	22312.00
944.74	22233.00
945.46	22209.00
946.19	22154.00
946.91	22222.00
947.64	22195.00
948.36	22251.00
949.09	22385.00
949.81	22415.00
950.53	22465.00
951.26	22555.00
951.98	22606.00
952.71	22723.00
953.43	22820.00
954.15	22940.00
954.88	22994.00
955.60	22999.00
956.33	23041.00
957.05	23046.00
957.77	23157.00
958.50	23262.00
959.22	23229.00
959.94	23230.00
960.67	23144.00
961.39	23185.00
962.11	23118.00
962.84	23172.00
963.56	23064.00
964.28	23036.00
965.00	22933.00
965.73	22733.00
966.45	22589.00
967.17	22479.00
967.89	22370.00
968.62	22222.00
969.34	22041.00
970.06	21879.00
970.78	21764.00
971.51	21629.00
972.23	21518.00
972.95	21376.00
973.67	21106.00
974.40	21051.00
975.12	20885.00
975.84	20695.00
976.56	20506.00
977.28	20349.00
978.00	20307.00
978.73	20153.00
979.45	20124.00
980.17	20090.00
980.89	20014.00
981.61	19943.00
982.33	19819.00
983.05	19803.00
983.77	19689.00
984.50	19641.00
985.22	19598.00
985.94	19513.00
986.66	19429.00
987.38	19350.00
988.10	19290.00
988.82	19285.00
989.54	19215.00
990.26	19070.00
990.98	18985.00
991.70	18852.00
992.42	18669.00
993.14	18522.00
993.86	18379.00
994.58	18208.00
995.30	18109.00
996.02	18002.00
996.74	17956.00
997.46	17852.00
998.18	17762.00
998.90	17642.00
999.62	17510.00
1000.34	17433.00
1001.06	17366.00
1001.78	17289.00
1002.50	17157.00
1003.22	16915.00
1003.94	16778.00
1004.66	16607.00
1005.38	16468.00
1006.09	16329.00
1006.81	16144.00
1007.53	16019.00
1008.25	15816.00
1008.97	15754.00
1009.69	15698.00
1010.41	15518.00
1011.13	15450.00
1011.84	15236.00
1012.56	15109.00
1013.28	14974.00
1014.00	14798.00
1014.72	14688.00
1015.44	14511.00
1016.15	14278.00
1016.87	14068.00
1017.59	13918.00
1018.31	13765.00
1019.03	13660.00
1019.74	13632.00
1020.46	13514.00
1021.18	13410.00
1021.90	13296.00
1022.61	13160.00
1023.33	13084.00
1024.05	12888.00
1024.76	12763.00
1025.48	12548.00
1026.20	12362.00
1026.92	12171.00
1027.63	12025.00
1028.35	11908.00
1029.07	11751.00
1029.78	11612.00
1030.50	11438.00
1031.22	11299.00
1031.93	11218.00
1032.65	11093.00
1033.37	10971.00
1034.08	10914.00
1034.80	10794.00
1035.52	10720.00
1036.23	10613.00
1036.95	10541.00
1037.66	10497.00
1038.38	10337.00
1039.10	10201.00
1039.81	10027.00
1040.53	9854.00
1041.24	9714.00
1041.96	9593.00
1042.67	9454.00
1043.39	9309.00
1044.10	9234.00
1044.82	9134.00
1045.54	9033.00
1046.25	8983.00
1046.97	8842.00
1047.68	8694.00
1048.40	8531.00
1049.11	8422.00
1049.83	8262.00
1050.54	8153.00
1051.26	8086.00
1051.97	7981.00
1052.68	7877.00
1053.40	7804.00
1054.11	7651.00
1054.83	7549.00
1055.54	7424.00
1056.26	7330.00
1056.97	7260.00
1057.69	7138.00
1058.40	7067.00
1059.11	6941.00
1059.83	6814.00
1060.54	6701.00
1061.25	6534.00
1061.97	6412.00
1062.68	6271.00
1063.40	6165.00
1064.11	6046.00
1064.82	5933.00
1065.54	5837.00
1066.25	2567.00
1066.96	2569.00
1067.68	2561.00
1068.39	2563.00
1069.10	2618.00
1069.82	2621.00
1070.53	2620.00
1071.24	2623.00
1071.95	2626.00
1072.67	2618.00
1073.38	5678.00
1074.09	5558.00
1074.80	5447.00
1075.52	5343.00
1076.23	5263.00
1076.94	5120.00
1077.65	2587.00
1078.37	2571.00
1079.08	2580.00
1079.79	2605.00
