300.47	2626.00
301.26	2624.00
302.04	2620.00
302.82	2620.00
303.60	2619.00
304.38	2620.00
305.17	2621.00
305.95	2623.00
306.73	2621.00
307.51	2620.00
308.29	2617.00
309.08	2623.00
309.86	2619.00
310.64	2622.00
311.42	2618.00
312.20	2625.00
312.98	2619.00
313.76	2622.00
314.55	2620.00
315.33	2623.00
316.11	2618.00
316.89	2620.00
317.67	2617.00
318.45	2619.00
319.23	2625.00
320.01	2624.00
320.79	2621.00
321.57	2623.00
322.35	2622.00
323.13	2624.00
323.91	2620.00
324.69	2620.00
325.47	2623.00
326.25	2624.00
327.03	2623.00
327.81	2624.00
328.59	2628.00
329.37	2622.00
330.15	2628.00
330.93	2628.00
331.71	2623.00
332.49	2627.00
333.27	2623.00
334.05	2630.00
334.83	2625.00
335.61	2628.00
336.39	2626.00
337.17	2633.00
337.95	2628.00
338.73	2627.00
339.51	2630.00
340.29	2633.00
341.07	2639.00
341.84	2635.00
342.62	2645.00
343.40	2637.00
344.18	2640.00
344.96	2643.00
345.74	2649.00
346.52	2642.00
347.29	2650.00
348.07	2651.00
348.85	2648.00
349.63	2659.00
350.41	2658.00
351.18	2666.00
351.96	2666.00
352.74	2668.00
353.52	2674.00
354.30	2677.00
355.07	2681.00
355.85	2686.00
356.63	2684.00
357.41	2693.00
358.18	2697.00
358.96	2703.00
359.74	2705.00
360.52	2708.00
361.29	2717.00
362.07	2728.00
362.85	2726.00
363.62	2735.00
364.40	2742.00
365.18	2747.00
365.95	2750.00
366.73	2760.00
367.51	2772.00
368.28	2767.00
369.06	2782.00
369.84	2790.00
370.61	2794.00
371.39	2809.00
372.17	2813.00
372.94	2817.00
373.72	2835.00
374.49	2836.00
375.27	2862.00
376.05	2867.00
376.82	2868.00
377.60	2892.00
378.37	2898.00
379.15	2911.00
379.92	2928.00
380.70	2936.00
381.47	2961.00
382.25	2971.00
383.02	2993.00
383.80	3000.00
384.58	3012.00
385.35	3029.00
386.13	3057.00
386.90	3064.00
387.67	3077.00
388.45	3100.00
389.22	3110.00
390.00	3141.00
390.77	3148.00
391.55	3180.00
392.32	3190.00
393.10	3206.00
393.87	3238.00
394.65	3256.00
395.42	3278.00
396.19	3297.00
396.97	3324.00
397.74	3342.00
398.52	3348.00
399.29	3377.00
400.06	3402.00
400.84	3419.00
401.61	3442.00
402.38	3466.00
403.16	3507.00
403.93	3512.00
404.70	3542.00
405.48	3564.00
406.25	3597.00
407.02	3605.00
407.80	3631.00
408.57	3663.00
409.34	3696.00
410.12	3717.00
410.89	3735.00
411.66	3767.00
412.43	3791.00
413.21	3822.00
413.98	3860.00
414.75	3878.00
415.52	3898.00
416.30	3923.00
417.07	3960.00
417.84	3997.00
418.61	4015.00
419.39	4055.00
420.16	4085.00
420.93	4121.00
421.70	4151.00
422.47	4170.00
423.24	4197.00
424.02	4242.00
424.79	4271.00
425.56	4300.00
426.33	4341.00
427.10	4393.00
427.87	4420.00
428.64	4461.00
429.42	4498.00
430.19	4534.00
430.96	4583.00
431.73	4635.00
432.50	4664.00
433.27	4714.00
434.04	4758.00
434.81	4828.00
435.58	4839.00
436.35	4902.00
437.12	4948.00
437.89	4979.00
438.67	5055.00
439.44	5096.00
440.21	5147.00
440.98	5202.00
441.75	5256.00
442.52	5310.00
443.29	5389.00
444.06	5434.00
444.83	5485.00
445.60	5557.00
446.37	5603.00
447.13	5681.00
447.90	5742.00
448.67	5799.00
449.44	5885.00
450.21	5971.00
450.98	6010.00
451.75	6082.00
452.52	6133.00
453.29	6227.00
454.06	6302.00
454.83	6374.00
455.60	6444.00
456.37	6542.00
457.13	6588.00
457.90	6704.00
458.67	6773.00
459.44	6861.00
460.21	6961.00
460.98	7018.00
461.75	7119.00
462.51	7210.00
463.28	7287.00
464.05	7400.00
464.82	7487.00
465.59	7580.00
466.35	7686.00
467.12	7732.00
467.89	7870.00
468.66	7964.00
469.43	8043.00
470.19	8155.00
470.96	8222.00
471.73	8357.00
472.50	8463.00
473.26	8532.00
474.03	8672.00
474.80	8809.00
475.56	8878.00
476.33	9003.00
477.10	9129.00
477.87	9194.00
478.63	9318.00
479.40	9459.00
480.17	9563.00
480.93	9714.00
481.70	9763.00
482.47	9930.00
483.23	10020.00
484.00	10149.00
484.76	10280.00
485.53	10458.00
486.30	10553.00
487.06	10645.00
487.83	10837.00
488.60	10958.00
489.36	11134.00
490.13	11186.00
490.89	11355.00
491.66	11474.00
492.42	11619.00
493.19	11741.00
493.96	11892.00
494.72	12001.00
495.49	12129.00
496.25	12301.00
497.02	12440.00
497.78	12555.00
498.55	12738.00
499.31	12818.00
500.08	12910.00
500.84	13113.00
501.61	13271.00
502.37	13437.00
503.14	13551.00
503.90	13713.00
504.67	13869.00
505.43	14033.00
506.20	14179.00
506.96	14377.00
507.72	14485.00
508.49	14663.00
509.25	14833.00
510.02	15017.00
510.78	15157.00
511.54	15375.00
512.31	15481.00
513.07	15693.00
513.84	15817.00
514.60	16005.00
515.36	16110.00
516.13	16349.00
516.89	16396.00
517.65	16560.00
518.42	16745.00
519.18	16909.00
519.94	17093.00
520.71	17232.00
521.47	17343.00
522.23	17517.00
523.00	17810.00
523.76	17915.00
524.52	18128.00
525.28	18308.00
526.05	18472.00
526.81	18561.00
527.57	18801.00
528.33	18965.00
529.10	19103.00
529.86	19270.00
530.62	19487.00
531.38	19684.00
532.15	19887.00
532.91	19977.00
533.67	20193.00
534.43	20316.00
535.19	20522.00
535.96	20718.00
536.72	20872.00
537.48	20966.00
538.24	21167.00
539.00	21357.00
539.76	21692.00
540.53	21863.00
541.29	22047.00
542.05	22247.00
542.81	22371.00
543.57	22625.00
544.33	22849.00
545.09	23012.00
545.85	23173.00
546.61	23271.00
547.38	23406.00
548.14	23683.00
548.90	23852.00
549.66	24023.00
550.42	24275.00
551.18	24444.00
551.94	24667.00
552.70	24829.00
553.46	25022.00
554.22	25205.00
554.98	25393.00
555.74	25470.00
556.50	25640.00
557.26	25898.00
558.02	26139.00
558.78	26383.00
559.54	26566.00
560.30	26727.00
561.06	26911.00
561.82	27098.00
562.58	27381.00
563.34	27587.00
564.10	27782.00
564.86	27883.00
565.61	28083.00
566.37	28346.00
567.13	28539.00
567.89	28701.00
568.65	28882.00
569.41	29106.00
570.17	29279.00
570.93	29480.00
571.69	29576.00
572.44	29751.00
573.20	29952.00
573.96	30178.00
574.72	30326.00
575.48	30522.00
576.24	30691.00
576.99	30911.00
577.75	31121.00
578.51	31308.00
579.27	31577.00
580.03	31799.00
580.78	32065.00
581.54	32218.00
582.30	32409.00
583.06	32530.00
583.82	32731.00
584.57	32858.00
585.33	33094.00
586.09	33292.00
586.84	33416.00
587.60	33553.00
588.36	33652.00
589.12	33834.00
589.87	34070.00
590.63	34244.00
591.39	34449.00
592.14	34496.00
592.90	34813.00
593.66	34968.00
594.41	35259.00
595.17	35369.00
595.93	35517.00
596.68	35555.00
597.44	35800.00
598.20	35886.00
598.95	36243.00
599.71	36436.00
600.46	36711.00
601.22	36823.00
601.98	36976.00
602.73	37227.00
603.49	37558.00
604.24	37789.00
605.00	37935.00
605.76	37995.00
606.51	38263.00
607.27	38436.00
608.02	38694.00
608.78	38884.00
609.53	39007.00
610.29	39227.00
611.04	39504.00
611.80	39830.00
612.55	40133.00
613.31	40345.00
614.06	40536.00
614.82	40783.00
615.57	40991.00
616.33	41197.00
617.08	41360.00
617.84	41477.00
618.59	41561.00
619.35	41521.00
620.10	41522.00
620.85	41652.00
621.61	41630.00
622.36	41642.00
623.12	41716.00
623.87	41790.00
624.62	41897.00
625.38	42031.00
626.13	42199.00
626.89	42469.00
627.64	42586.00
628.39	42656.00
629.15	42639.00
629.90	42886.00
630.65	42877.00
631.41	42812.00
632.16	42894.00
632.91	42886.00
633.67	42928.00
634.42	42897.00
635.17	43048.00
635.92	43403.00
636.68	43792.00
637.43	44366.00
638.18	44884.00
638.94	45355.00
639.69	45749.00
640.44	46028.00
641.19	46422.00
641.95	46802.00
642.70	47242.00
643.45	47371.00
644.20	47623.00
644.95	47799.00
645.71	47846.00
646.46	47998.00
647.21	48254.00
647.96	48262.00
648.71	48401.00
649.47	48489.00
650.22	48541.00
650.97	48628.00
651.72	48763.00
652.47	48842.00
653.22	49027.00
653.97	49177.00
654.73	49415.00
655.48	49549.00
656.23	49703.00
656.98	50041.00
657.73	50287.00
658.48	50324.00
659.23	50364.00
659.98	50345.00
660.73	50467.00
661.48	50595.00
662.23	50794.00
662.99	50682.00
663.74	50749.00
664.49	50962.00
665.24	51439.00
665.99	51789.00
666.74	51917.00
667.49	51937.00
668.24	52048.00
668.99	52149.00
669.74	52506.00
670.49	52523.00
671.24	52537.00
671.99	52744.00
672.74	52953.00
673.48	52971.00
674.23	53216.00
674.98	53226.00
675.73	53180.00
676.48	53402.00
677.23	53577.00
677.98	53661.00
678.73	53692.00
679.48	53726.00
680.23	53738.00
680.98	53756.00
681.73	53845.00
682.47	53806.00
683.22	53744.00
683.97	53823.00
684.72	53965.00
685.47	54038.00
686.22	54168.00
686.97	54361.00
687.71	54656.00
688.46	54779.00
689.21	54823.00
689.96	54881.00
690.71	54814.00
691.45	54768.00
692.20	54971.00
692.95	54928.00
693.70	55076.00
694.44	55100.00
695.19	55245.00
695.94	55320.00
696.69	55473.00
697.43	55485.00
698.18	55373.00
698.93	55504.00
699.68	55586.00
700.42	55522.00
701.17	55663.00
701.92	55761.00
702.66	55832.00
703.41	55939.00
704.16	55893.00
704.90	55931.00
705.65	55943.00
706.40	56027.00
707.14	56107.00
707.89	56067.00
708.64	56209.00
709.38	56156.00
710.13	56153.00
710.88	56312.00
711.62	56396.00
712.37	56346.00
713.11	56483.00
713.86	56550.00
714.61	56529.00
715.35	56410.00
716.10	56189.00
716.84	55877.00
717.59	55749.00
718.33	55439.00
719.08	55469.00
719.83	55219.00
720.57	55152.00
721.32	55088.00
722.06	55144.00
722.81	55053.00
723.55	55060.00
724.30	55256.00
725.04	55308.00
725.79	55273.00
726.53	55273.00
727.28	55090.00
728.02	55400.00
728.76	55363.00
729.51	55376.00
730.25	55434.00
731.00	55492.00
731.74	55489.00
732.49	55520.00
733.23	55368.00
733.97	55298.00
734.72	55179.00
735.46	55050.00
736.21	54990.00
736.95	55068.00
737.69	55148.00
738.44	55230.00
739.18	55325.00
739.92	55463.00
740.67	55491.00
741.41	55576.00
742.15	55663.00
742.90	55904.00
743.64	55823.00
744.38	55870.00
745.13	55853.00
745.87	55842.00
746.61	55908.00
747.36	55843.00
748.10	55976.00
748.84	55760.00
749.58	55720.00
750.33	55586.00
751.07	55540.00
751.81	55358.00
752.55	55337.00
753.30	55245.00
754.04	55180.00
754.78	54980.00
755.52	54782.00
756.27	54601.00
757.01	54484.00
757.75	54513.00
758.49	54569.00
759.23	54687.00
759.97	54497.00
760.72	54540.00
761.46	54535.00
762.20	54563.00
762.94	54603.00
763.68	54509.00
764.42	54390.00
765.16	54235.00
765.91	54227.00
766.65	54232.00
767.39	54035.00
768.13	53990.00
768.87	54070.00
769.61	54017.00
770.35	54051.00
771.09	53832.00
771.83	53824.00
772.57	53716.00
773.31	53658.00
774.05	53749.00
774.80	53740.00
775.54	53601.00
776.28	53446.00
777.02	53403.00
777.76	53256.00
778.50	53116.00
779.24	52941.00
779.98	52814.00
780.72	52783.00
781.46	52637.00
782.20	52562.00
782.93	52599.00
783.67	52591.00
784.41	52416.00
785.15	52260.00
785.89	52211.00
786.63	51897.00
787.37	51717.00
788.11	51583.00
788.85	51432.00
789.59	51450.00
790.33	51357.00
791.07	51265.00
791.81	51286.00
792.54	51169.00
793.28	50942.00
794.02	50641.00
794.76	50444.00
795.50	50249.00
796.24	50008.00
796.97	49810.00
797.71	49533.00
798.45	49322.00
799.19	49193.00
799.93	49136.00
800.67	49001.00
801.40	49056.00
802.14	49207.00
802.88	49108.00
803.62	49240.00
804.35	49206.00
805.09	49144.00
805.83	48910.00
806.57	48871.00
807.30	48814.00
808.04	48849.00
808.78	48684.00
809.52	48430.00
810.25	48239.00
810.99	48030.00
811.73	47907.00
812.46	47817.00
813.20	47799.00
813.94	47715.00
814.68	47700.00
815.41	47645.00
816.15	47689.00
816.88	47806.00
817.62	47776.00
818.36	47726.00
819.09	47386.00
819.83	47175.00
820.57	47098.00
821.30	47090.00
822.04	46836.00
822.77	46652.00
823.51	46482.00
824.25	46311.00
824.98	46370.00
825.72	46273.00
826.45	46110.00
827.19	46012.00
827.92	45836.00
828.66	45467.00
829.40	45220.00
830.13	45199.00
830.87	45179.00
831.60	45146.00
832.34	45033.00
833.07	44932.00
833.81	44898.00
834.54	44983.00
835.28	45063.00
836.01	45068.00
836.75	44827.00
837.48	44631.00
838.22	44346.00
838.95	44268.00
839.68	44280.00
840.42	44387.00
841.15	44297.00
841.89	44113.00
842.62	43944.00
843.36	43723.00
844.09	43678.00
844.82	43758.00
845.56	43766.00
846.29	43608.00
847.02	43609.00
847.76	43330.00
848.49	43384.00
849.23	43655.00
849.96	43768.00
850.69	43918.00
851.43	43723.00
852.16	43403.00
852.89	43084.00
853.63	42846.00
854.36	42705.00
855.09	42836.00
855.82	42703.00
856.56	42468.00
857.29	42310.00
858.02	42233.00
858.76	42208.00
859.49	42207.00
860.22	42145.00
860.95	42031.00
861.69	41906.00
862.42	41642.00
863.15	41542.00
863.88	41445.00
864.61	41552.00
865.35	41520.00
866.08	41494.00
866.81	41272.00
867.54	41051.00
868.27	40966.00
869.01	40948.00
869.74	40896.00
870.47	40813.00
871.20	40686.00
871.93	40472.00
872.66	40282.00
873.40	40174.00
874.13	39994.00
874.86	39784.00
875.59	39567.00
876.32	39521.00
877.05	39383.00
877.78	39320.00
878.51	39141.00
879.24	38925.00
879.97	38826.00
880.71	38677.00
881.44	38589.00
882.17	38521.00
882.90	38351.00
883.63	38172.00
884.36	38191.00
885.09	38210.00
885.82	38374.00
886.55	38449.00
887.28	38454.00
888.01	38405.00
888.74	38165.00
889.47	37874.00
890.20	37648.00
890.93	37416.00
891.66	37323.00
892.39	37199.00
893.12	37100.00
893.85	37186.00
894.57	37128.00
895.30	37147.00
896.03	37064.00
896.76	37040.00
897.49	36808.00
898.22	36647.00
898.95	36368.00
899.68	36309.00
900.41	36043.00
901.14	35830.00
901.86	35774.00
902.59	35787.00
903.32	35823.00
904.05	35785.00
904.78	35598.00
905.51	35474.00
906.24	35356.00
906.96	35242.00
907.69	35098.00
908.42	34899.00
909.15	34764.00
909.88	34513.00
910.60	34411.00
911.33	34312.00
912.06	34197.00
912.79	34042.00
913.52	33921.00
914.24	33812.00
914.97	33733.00
915.70	33557.00
916.42	33418.00
917.15	33264.00
917.88	33018.00
918.61	32770.00
919.33	32475.00
920.06	32272.00
920.79	32097.00
921.51	31898.00
922.24	31843.00
922.97	31719.00
923.69	31467.00
924.42	31363.00
925.15	31286.00
925.87	31092.00
926.60	30861.00
927.33	30564.00
928.05	30259.00
928.78	30052.00
929.51	29691.00
930.23	29340.00
930.96	29059.00
931.68	28725.00
932.41	28454.00
933.14	28118.00
933.86	27833.00
934.59	27521.00
935.31	27180.00
936.04	26599.00
936.76	26138.00
937.49	25656.00
938.21	25207.00
938.94	24672.00
939.66	24265.00
940.39	23877.00
941.11	23496.00
941.84	23169.00
942.56	22892.00
943.29	22642.00
944.01	22454.00
944.74	22407.00
945.46	22310.00
946.19	22304.00
946.91	22264.00
947.64	22302.00
948.36	22378.00
949.09	22480.00
949.81	22543.00
950.53	22652.00
951.26	22712.00
951.98	22708.00
952.71	22806.00
953.43	22943.00
954.15	23017.00
954.88	23104.00
955.60	23164.00
956.33	23192.00
957.05	23231.00
957.77	23291.00
958.50	23346.00
959.22	23379.00
959.94	23385.00
960.67	23267.00
961.39	23252.00
962.11	23266.00
962.84	23287.00
963.56	23206.00
964.28	23190.00
965.00	23087.00
965.73	22833.00
966.45	22803.00
967.17	22627.00
967.89	22451.00
968.62	22279.00
969.34	22197.00
970.06	21966.00
970.78	21870.00
971.51	21800.00
972.23	21650.00
972.95	21521.00
973.67	21293.00
974.40	21096.00
975.12	20978.00
975.84	20908.00
976.56	20732.00
977.28	20536.00
978.00	20353.00
978.73	20329.00
979.45	20265.00
980.17	20238.00
980.89	20112.00
981.61	20055.00
982.33	19954.00
983.05	19908.00
983.77	19844.00
984.50	19732.00
985.22	19663.00
985.94	19592.00
986.66	19515.00
987.38	19449.00
988.10	19357.00
988.82	19413.00
989.54	19303.00
990.26	19221.00
990.98	19096.00
991.70	18932.00
992.42	18793.00
993.14	18682.00
993.86	18489.00
994.58	18429.00
995.30	18209.00
996.02	18171.00
996.74	18071.00
997.46	17965.00
998.18	17909.00
998.90	17767.00
999.62	17625.00
1000.34	17528.00
1001.06	17465.00
1001.78	17371.00
1002.50	17242.00
1003.22	17032.00
1003.94	16844.00
1004.66	16756.00
1005.38	16548.00
1006.09	16449.00
1006.81	16258.00
1007.53	16081.00
1008.25	15965.00
1008.97	15811.00
1009.69	15753.00
1010.41	15693.00
1011.13	15557.00
1011.84	15369.00
1012.56	15187.00
1013.28	15097.00
1014.00	14933.00
1014.72	14770.00
1015.44	14587.00
1016.15	14380.00
1016.87	14167.00
1017.59	13957.00
1018.31	13872.00
1019.03	13809.00
1019.74	13705.00
1020.46	13602.00
1021.18	13502.00
1021.90	13414.00
1022.61	13300.00
1023.33	13172.00
1024.05	13009.00
1024.76	12899.00
1025.48	12657.00
1026.20	12451.00
1026.92	12262.00
1027.63	12114.00
1028.35	11991.00
1029.07	11843.00
1029.78	11684.00
1030.50	11562.00
1031.22	11365.00
1031.93	11292.00
1032.65	11161.00
1033.37	11111.00
1034.08	10975.00
1034.80	10918.00
1035.52	10796.00
1036.23	10747.00
1036.95	10604.00
1037.66	10536.00
1038.38	10422.00
1039.10	10263.00
1039.81	10118.00
1040.53	9929.00
1041.24	9754.00
1041.96	9635.00
1042.67	9526.00
1043.39	9417.00
1044.10	9318.00
1044.82	9231.00
1045.54	9121.00
1046.25	8987.00
1046.97	8899.00
1047.68	8773.00
1048.40	8597.00
1049.11	8486.00
1049.83	8331.00
1050.54	8261.00
1051.26	8138.00
1051.97	8058.00
1052.68	7929.00
1053.40	7864.00
1054.11	7714.00
1054.83	7637.00
1055.54	7456.00
1056.26	7395.00
1056.97	7313.00
1057.69	7224.00
1058.40	7103.00
1059.11	7004.00
1059.83	6877.00
1060.54	6744.00
1061.25	6611.00
1061.97	6470.00
1062.68	6327.00
1063.40	6203.00
1064.11	6089.00
1064.82	5963.00
1065.54	5857.00
1066.25	2570.00
1066.96	2567.00
1067.68	2562.00
1068.39	2566.00
1069.10	2617.00
1069.82	2617.00
1070.53	2617.00
1071.24	2618.00
1071.95	2622.00
1072.67	2618.00
1073.38	5724.00
1074.09	5603.00
1074.80	5504.00
1075.52	5395.00
1076.23	5300.00
1076.94	5189.00
1077.65	2596.00
1078.37	2591.00
1079.08	2596.00
1079.79	2599.00
