300.47	2622.00
301.26	2620.00
302.04	2621.00
302.82	2613.00
303.60	2621.00
304.38	2622.00
305.17	2616.00
305.95	2620.00
306.73	2619.00
307.51	2620.00
308.29	2620.00
309.08	2624.00
309.86	2620.00
310.64	2623.00
311.42	2621.00
312.20	2625.00
312.98	2617.00
313.76	2616.00
314.55	2620.00
315.33	2617.00
316.11	2616.00
316.89	2621.00
317.67	2625.00
318.45	2620.00
319.23	2618.00
320.01	2621.00
320.79	2622.00
321.57	2623.00
322.35	2626.00
323.13	2625.00
323.91	2621.00
324.69	2623.00
325.47	2622.00
326.25	2625.00
327.03	2621.00
327.81	2620.00
328.59	2626.00
329.37	2622.00
330.15	2625.00
330.93	2620.00
331.71	2625.00
332.49	2627.00
333.27	2626.00
334.05	2622.00
334.83	2625.00
335.61	2629.00
336.39	2628.00
337.17	2628.00
337.95	2627.00
338.73	2629.00
339.51	2628.00
340.29	2637.00
341.07	2634.00
341.84	2634.00
342.62	2635.00
343.40	2644.00
344.18	2641.00
344.96	2641.00
345.74	2644.00
346.52	2642.00
347.29	2651.00
348.07	2649.00
348.85	2652.00
349.63	2663.00
350.41	2658.00
351.18	2665.00
351.96	2670.00
352.74	2666.00
353.52	2675.00
354.30	2670.00
355.07	2684.00
355.85	2687.00
356.63	2685.00
357.41	2692.00
358.18	2694.00
358.96	2703.00
359.74	2708.00
360.52	2714.00
361.29	2717.00
362.07	2720.00
362.85	2729.00
363.62	2737.00
364.40	2742.00
365.18	2747.00
365.95	2757.00
366.73	2757.00
367.51	2770.00
368.28	2778.00
369.06	2783.00
369.84	2790.00
370.61	2798.00
371.39	2812.00
372.17	2814.00
372.94	2821.00
373.72	2837.00
374.49	2844.00
375.27	2854.00
376.05	2857.00
376.82	2866.00
377.60	2892.00
378.37	2904.00
379.15	2902.00
379.92	2934.00
380.70	2941.00
381.47	2960.00
382.25	2973.00
383.02	2986.00
383.80	2998.00
384.58	3021.00
385.35	3035.00
386.13	3045.00
386.90	3067.00
387.67	3079.00
388.45	3096.00
389.22	3109.00
390.00	3128.00
390.77	3155.00
391.55	3162.00
392.32	3199.00
393.10	3210.00
393.87	3238.00
394.65	3260.00
395.42	3266.00
396.19	3295.00
396.97	3302.00
397.74	3337.00
398.52	3351.00
399.29	3386.00
400.06	3399.00
400.84	3423.00
401.61	3448.00
402.38	3470.00
403.16	3497.00
403.93	3516.00
404.70	3530.00
405.48	3572.00
406.25	3608.00
407.02	3601.00
407.80	3629.00
408.57	3668.00
409.34	3675.00
410.12	3709.00
410.89	3749.00
411.66	3754.00
412.43	3798.00
413.21	3837.00
413.98	3861.00
414.75	3877.00
415.52	3904.00
416.30	3923.00
417.07	3964.00
417.84	3985.00
418.61	4015.00
419.39	4032.00
420.16	4091.00
420.93	4105.00
421.70	4141.00
422.47	4164.00
423.24	4205.00
424.02	4241.00
424.79	4269.00
425.56	4314.00
426.33	4348.00
427.10	4392.00
427.87	4417.00
428.64	4456.00
429.42	4494.00
430.19	4524.00
430.96	4585.00
431.73	4612.00
432.50	4656.00
433.27	4693.00
434.04	4767.00
434.81	4820.00
435.58	4863.00
436.35	4893.00
437.12	4947.00
437.89	4991.00
438.67	5026.00
439.44	5084.00
440.21	5139.00
440.98	5197.00
441.75	5262.00
442.52	5308.00
443.29	5364.00
444.06	5424.00
444.83	5469.00
445.60	5562.00
446.37	5619.00
447.13	5680.00
447.90	5744.00
448.67	5768.00
449.44	5860.00
450.21	5934.00
450.98	5985.00
451.75	6079.00
452.52	6124.00
453.29	6211.00
454.06	6280.00
454.83	6381.00
455.60	6450.00
456.37	6505.00
457.13	6593.00
457.90	6675.00
458.67	6800.00
459.44	6861.00
460.21	6929.00
460.98	7017.00
461.75	7093.00
462.51	7213.00
463.28	7308.00
464.05	7391.00
464.82	7473.00
465.59	7548.00
466.35	7669.00
467.12	7763.00
467.89	7852.00
468.66	7951.00
469.43	8042.00
470.19	8136.00
470.96	8231.00
471.73	8337.00
472.50	8435.00
473.26	8545.00
474.03	8627.00
474.80	8751.00
475.56	8870.00
476.33	8992.00
477.10	9054.00
477.87	9203.00
478.63	9307.00
479.40	9436.00
480.17	9541.00
480.93	9668.00
481.70	9770.00
482.47	9887.00
483.23	10052.00
484.00	10212.00
484.76	10297.00
485.53	10419.00
486.30	10544.00
487.06	10682.00
487.83	10824.00
488.60	10966.00
489.36	11077.00
490.13	11188.00
490.89	11326.00
491.66	11425.00
492.42	11564.00
493.19	11696.00
493.96	11867.00
494.72	11999.00
495.49	12123.00
496.25	12250.00
497.02	12400.00
497.78	12524.00
498.55	12638.00
499.31	12761.00
500.08	12955.00
500.84	13104.00
501.61	13259.00
502.37	13397.00
503.14	13548.00
503.90	13688.00
504.67	13825.00
505.43	14012.00
506.20	14109.00
506.96	14305.00
507.72	14477.00
508.49	14650.00
509.25	14799.00
510.02	14965.00
510.78	15175.00
511.54	15327.00
512.31	15511.00
513.07	15646.00
513.84	15807.00
514.60	15967.00
515.36	16135.00
516.13	16303.00
516.89	16451.00
517.65	16495.00
518.42	16685.00
519.18	16840.00
519.94	16993.00
520.71	17192.00
521.47	17344.00
522.23	17531.00
523.00	17705.00
523.76	17901.00
524.52	18019.00
525.28	18251.00
526.05	18358.00
526.81	18552.00
527.57	18817.00
528.33	18935.00
529.10	19103.00
529.86	19185.00
530.62	19428.00
531.38	19652.00
532.15	19774.00
532.91	19901.00
533.67	20066.00
534.43	20270.00
535.19	20457.00
535.96	20645.00
536.72	20779.00
537.48	20902.00
538.24	21109.00
539.00	21298.00
539.76	21577.00
540.53	21804.00
541.29	21996.00
542.05	22156.00
542.81	22296.00
543.57	22551.00
544.33	22790.00
545.09	22938.00
545.85	23108.00
546.61	23199.00
547.38	23421.00
548.14	23592.00
548.90	23819.00
549.66	23987.00
550.42	24237.00
551.18	24435.00
551.94	24557.00
552.70	24739.00
553.46	24949.00
554.22	25106.00
554.98	25300.00
555.74	25433.00
556.50	25622.00
557.26	25871.00
558.02	26108.00
558.78	26342.00
559.54	26483.00
560.30	26648.00
561.06	26815.00
561.82	27036.00
562.58	27280.00
563.34	27441.00
564.10	27657.00
564.86	27839.00
565.61	28071.00
566.37	28275.00
567.13	28479.00
567.89	28631.00
568.65	28831.00
569.41	29040.00
570.17	29170.00
570.93	29384.00
571.69	29558.00
572.44	29714.00
573.20	29940.00
573.96	30053.00
574.72	30276.00
575.48	30427.00
576.24	30628.00
576.99	30862.00
577.75	31110.00
578.51	31284.00
579.27	31497.00
580.03	31699.00
580.78	31890.00
581.54	32133.00
582.30	32322.00
583.06	32496.00
583.82	32620.00
584.57	32805.00
585.33	33038.00
586.09	33112.00
586.84	33275.00
587.60	33434.00
588.36	33542.00
589.12	33789.00
589.87	33964.00
590.63	34238.00
591.39	34397.00
592.14	34415.00
592.90	34668.00
593.66	34881.00
594.41	35135.00
595.17	35333.00
595.93	35376.00
596.68	35548.00
597.44	35697.00
598.20	35854.00
598.95	36177.00
599.71	36394.00
600.46	36567.00
601.22	36711.00
601.98	36856.00
602.73	37122.00
603.49	37518.00
604.24	37695.00
605.00	37866.00
605.76	37920.00
606.51	38146.00
607.27	38380.00
608.02	38634.00
608.78	38777.00
609.53	39014.00
610.29	39146.00
611.04	39470.00
611.80	39686.00
612.55	39943.00
613.31	40273.00
614.06	40386.00
614.82	40751.00
615.57	40879.00
616.33	41095.00
617.08	41307.00
617.84	41352.00
618.59	41416.00
619.35	41457.00
620.10	41400.00
620.85	41434.00
621.61	41573.00
622.36	41529.00
623.12	41585.00
623.87	41702.00
624.62	41765.00
625.38	41891.00
626.13	42107.00
626.89	42279.00
627.64	42414.00
628.39	42565.00
629.15	42575.00
629.90	42695.00
630.65	42776.00
631.41	42723.00
632.16	42727.00
632.91	42811.00
633.67	42776.00
634.42	42855.00
635.17	43006.00
635.92	43243.00
636.68	43735.00
637.43	44219.00
638.18	44677.00
638.94	45266.00
639.69	45510.00
640.44	45947.00
641.19	46330.00
641.95	46667.00
642.70	47039.00
643.45	47278.00
644.20	47472.00
644.95	47675.00
645.71	47753.00
646.46	47856.00
647.21	48020.00
647.96	48120.00
648.71	48254.00
649.47	48417.00
650.22	48475.00
650.97	48496.00
651.72	48582.00
652.47	48820.00
653.22	48900.00
653.97	49108.00
654.73	49287.00
655.48	49336.00
656.23	49603.00
656.98	49770.00
657.73	50074.00
658.48	50179.00
659.23	50167.00
659.98	50301.00
660.73	50363.00
661.48	50439.00
662.23	50627.00
662.99	50395.00
663.74	50592.00
664.49	50785.00
665.24	51292.00
665.99	51644.00
666.74	51721.00
667.49	51838.00
668.24	51857.00
668.99	52093.00
669.74	52316.00
670.49	52391.00
671.24	52450.00
671.99	52582.00
672.74	52788.00
673.48	52862.00
674.23	52994.00
674.98	53003.00
675.73	53129.00
676.48	53239.00
677.23	53416.00
677.98	53501.00
678.73	53476.00
679.48	53641.00
680.23	53565.00
680.98	53626.00
681.73	53603.00
682.47	53636.00
683.22	53640.00
683.97	53738.00
684.72	53731.00
685.47	53857.00
686.22	53974.00
686.97	54188.00
687.71	54444.00
688.46	54561.00
689.21	54709.00
689.96	54618.00
690.71	54684.00
691.45	54771.00
692.20	54827.00
692.95	54897.00
693.70	54866.00
694.44	54999.00
695.19	55138.00
695.94	55150.00
696.69	55294.00
697.43	55243.00
698.18	55328.00
698.93	55341.00
699.68	55464.00
700.42	55423.00
701.17	55519.00
701.92	55479.00
702.66	55607.00
703.41	55761.00
704.16	55799.00
704.90	55737.00
705.65	55898.00
706.40	55928.00
707.14	55997.00
707.89	55936.00
708.64	56056.00
709.38	56025.00
710.13	56100.00
710.88	56148.00
711.62	56159.00
712.37	56213.00
713.11	56347.00
713.86	56399.00
714.61	56235.00
715.35	56187.00
716.10	56060.00
716.84	55832.00
717.59	55597.00
718.33	55355.00
719.08	55222.00
719.83	55172.00
720.57	55004.00
721.32	54880.00
722.06	54870.00
722.81	54872.00
723.55	54947.00
724.30	55013.00
725.04	55144.00
725.79	55102.00
726.53	55096.00
727.28	55033.00
728.02	55185.00
728.76	55195.00
729.51	55338.00
730.25	55260.00
731.00	55264.00
731.74	55274.00
732.49	55339.00
733.23	55190.00
733.97	55074.00
734.72	55046.00
735.46	54934.00
736.21	54765.00
736.95	54831.00
737.69	54917.00
738.44	55038.00
739.18	55215.00
739.92	55302.00
740.67	55326.00
741.41	55354.00
742.15	55482.00
742.90	55736.00
743.64	55706.00
744.38	55765.00
745.13	55812.00
745.87	55673.00
746.61	55725.00
747.36	55801.00
748.10	55772.00
748.84	55762.00
749.58	55579.00
750.33	55537.00
751.07	55450.00
751.81	55298.00
752.55	55124.00
753.30	55105.00
754.04	54919.00
754.78	54780.00
755.52	54591.00
756.27	54416.00
757.01	54407.00
757.75	54375.00
758.49	54451.00
759.23	54553.00
759.97	54455.00
760.72	54364.00
761.46	54429.00
762.20	54465.00
762.94	54434.00
763.68	54417.00
764.42	54228.00
765.16	54224.00
765.91	54162.00
766.65	54030.00
767.39	53969.00
768.13	53897.00
768.87	53917.00
769.61	53914.00
770.35	53900.00
771.09	53717.00
771.83	53638.00
772.57	53657.00
773.31	53629.00
774.05	53604.00
774.80	53671.00
775.54	53527.00
776.28	53347.00
777.02	53273.00
777.76	53198.00
778.50	52926.00
779.24	52749.00
779.98	52645.00
780.72	52526.00
781.46	52573.00
782.20	52440.00
782.93	52426.00
783.67	52345.00
784.41	52219.00
785.15	52096.00
785.89	52055.00
786.63	51828.00
787.37	51589.00
788.11	51338.00
788.85	51274.00
789.59	51268.00
790.33	51145.00
791.07	51172.00
791.81	51101.00
792.54	50942.00
793.28	50746.00
794.02	50495.00
794.76	50324.00
795.50	50007.00
796.24	49843.00
796.97	49671.00
797.71	49338.00
798.45	49189.00
799.19	49025.00
799.93	48962.00
800.67	48922.00
801.40	48919.00
802.14	48987.00
802.88	49039.00
803.62	49066.00
804.35	49154.00
805.09	48945.00
805.83	48782.00
806.57	48715.00
807.30	48731.00
808.04	48680.00
808.78	48601.00
809.52	48304.00
810.25	48036.00
810.99	47874.00
811.73	47762.00
812.46	47769.00
813.20	47725.00
813.94	47646.00
814.68	47582.00
815.41	47531.00
816.15	47531.00
816.88	47653.00
817.62	47716.00
818.36	47607.00
819.09	47314.00
819.83	47048.00
820.57	46968.00
821.30	46847.00
822.04	46636.00
822.77	46442.00
823.51	46318.00
824.25	46260.00
824.98	46136.00
825.72	46159.00
826.45	46085.00
827.19	45853.00
827.92	45640.00
828.66	45336.00
829.40	45189.00
830.13	45090.00
830.87	45154.00
831.60	45141.00
832.34	44924.00
833.07	44854.00
833.81	44826.00
834.54	44896.00
835.28	44890.00
836.01	44879.00
836.75	44687.00
837.48	44486.00
838.22	44170.00
838.95	44137.00
839.68	44113.00
840.42	44184.00
841.15	44216.00
841.89	44106.00
842.62	43840.00
843.36	43645.00
844.09	43590.00
844.82	43600.00
845.56	43627.00
846.29	43477.00
847.02	43368.00
847.76	43242.00
848.49	43251.00
849.23	43527.00
849.96	43822.00
850.69	43789.00
851.43	43535.00
852.16	43221.00
852.89	42950.00
853.63	42814.00
854.36	42640.00
855.09	42650.00
855.82	42534.00
856.56	42410.00
857.29	42189.00
858.02	42127.00
858.76	42084.00
859.49	42133.00
860.22	41997.00
860.95	41912.00
861.69	41709.00
862.42	41567.00
863.15	41442.00
863.88	41344.00
864.61	41392.00
865.35	41523.00
866.08	41344.00
866.81	41165.00
867.54	40869.00
868.27	40910.00
869.01	40833.00
869.74	40830.00
870.47	40747.00
871.20	40622.00
871.93	40429.00
872.66	40234.00
873.40	40036.00
874.13	39806.00
874.86	39673.00
875.59	39511.00
876.32	39497.00
877.05	39338.00
877.78	39272.00
878.51	39094.00
879.24	38863.00
879.97	38695.00
880.71	38657.00
881.44	38517.00
882.17	38357.00
882.90	38193.00
883.63	38103.00
884.36	38114.00
885.09	38076.00
885.82	38193.00
886.55	38273.00
887.28	38369.00
888.01	38280.00
888.74	38113.00
889.47	37801.00
890.20	37585.00
890.93	37337.00
891.66	37160.00
892.39	37121.00
893.12	37090.00
893.85	37062.00
894.57	37052.00
895.30	36991.00
896.03	36941.00
896.76	36873.00
897.49	36801.00
898.22	36555.00
898.95	36390.00
899.68	36241.00
900.41	35961.00
901.14	35779.00
901.86	35655.00
902.59	35715.00
903.32	35708.00
904.05	35678.00
904.78	35595.00
905.51	35404.00
906.24	35279.00
906.96	35165.00
907.69	35050.00
908.42	34914.00
909.15	34643.00
909.88	34513.00
910.60	34226.00
911.33	34207.00
912.06	34083.00
912.79	33909.00
913.52	33754.00
914.24	33637.00
914.97	33651.00
915.70	33445.00
916.42	33336.00
917.15	33111.00
917.88	32932.00
918.61	32726.00
919.33	32418.00
920.06	32165.00
920.79	31947.00
921.51	31791.00
922.24	31746.00
922.97	31564.00
923.69	31381.00
924.42	31303.00
925.15	31169.00
925.87	30967.00
926.60	30826.00
927.33	30488.00
928.05	30171.00
928.78	29885.00
929.51	29554.00
930.23	29300.00
930.96	28970.00
931.68	28640.00
932.41	28372.00
933.14	28029.00
933.86	27730.00
934.59	27391.00
935.31	27020.00
936.04	26561.00
936.76	26008.00
937.49	25585.00
938.21	25111.00
938.94	24625.00
939.66	24141.00
940.39	23838.00
941.11	23400.00
941.84	23073.00
942.56	22863.00
943.29	22589.00
944.01	22464.00
944.74	22298.00
945.46	22202.00
946.19	22129.00
946.91	22183.00
947.64	22246.00
948.36	22301.00
949.09	22330.00
949.81	22451.00
950.53	22513.00
951.26	22616.00
951.98	22667.00
952.71	22743.00
953.43	22843.00
954.15	22897.00
954.88	23029.00
955.60	23052.00
956.33	23092.00
957.05	23173.00
957.77	23181.00
958.50	23218.00
959.22	23334.00
959.94	23270.00
960.67	23144.00
961.39	23140.00
962.11	23210.00
962.84	23193.00
963.56	23227.00
964.28	23082.00
965.00	23011.00
965.73	22777.00
966.45	22651.00
967.17	22545.00
967.89	22449.00
968.62	22230.00
969.34	22086.00
970.06	21881.00
970.78	21799.00
971.51	21693.00
972.23	21581.00
972.95	21408.00
973.67	21203.00
974.40	21112.00
975.12	20936.00
975.84	20768.00
976.56	20643.00
977.28	20414.00
978.00	20327.00
978.73	20239.00
979.45	20146.00
980.17	20102.00
980.89	20085.00
981.61	19981.00
982.33	19931.00
983.05	19813.00
983.77	19823.00
984.50	19653.00
985.22	19620.00
985.94	19557.00
986.66	19483.00
987.38	19389.00
988.10	19344.00
988.82	19294.00
989.54	19218.00
990.26	19105.00
990.98	19020.00
991.70	18840.00
992.42	18709.00
993.14	18586.00
993.86	18415.00
994.58	18329.00
995.30	18160.00
996.02	18025.00
996.74	17936.00
997.46	17930.00
998.18	17784.00
998.90	17650.00
999.62	17580.00
1000.34	17482.00
1001.06	17432.00
1001.78	17290.00
1002.50	17217.00
1003.22	16986.00
1003.94	16832.00
1004.66	16667.00
1005.38	16519.00
1006.09	16353.00
1006.81	16225.00
1007.53	16033.00
1008.25	15909.00
1008.97	15818.00
1009.69	15697.00
1010.41	15591.00
1011.13	15445.00
1011.84	15295.00
1012.56	15183.00
1013.28	14991.00
1014.00	14857.00
1014.72	14711.00
1015.44	14563.00
1016.15	14304.00
1016.87	14129.00
1017.59	13952.00
1018.31	13868.00
1019.03	13730.00
1019.74	13680.00
1020.46	13580.00
1021.18	13472.00
1021.90	13399.00
1022.61	13218.00
1023.33	13099.00
1024.05	12984.00
1024.76	12795.00
1025.48	12622.00
1026.20	12373.00
1026.92	12267.00
1027.63	12085.00
1028.35	11910.00
1029.07	11803.00
1029.78	11661.00
1030.50	11513.00
1031.22	11347.00
1031.93	11244.00
1032.65	11152.00
1033.37	10996.00
1034.08	10925.00
1034.80	10834.00
1035.52	10771.00
1036.23	10701.00
1036.95	10579.00
1037.66	10511.00
1038.38	10390.00
1039.10	10242.00
1039.81	10066.00
1040.53	9909.00
1041.24	9743.00
1041.96	9579.00
1042.67	9492.00
1043.39	9391.00
1044.10	9279.00
1044.82	9194.00
1045.54	9092.00
1046.25	9010.00
1046.97	8865.00
1047.68	8743.00
1048.40	8563.00
1049.11	8404.00
1049.83	8310.00
1050.54	8219.00
1051.26	8113.00
1051.97	7978.00
1052.68	7911.00
1053.40	7795.00
1054.11	7686.00
1054.83	7586.00
1055.54	7453.00
1056.26	7343.00
1056.97	7278.00
1057.69	7185.00
1058.40	7095.00
1059.11	6961.00
1059.83	6840.00
1060.54	6703.00
1061.25	6606.00
1061.97	6460.00
1062.68	6327.00
1063.40	6181.00
1064.11	6089.00
1064.82	5950.00
1065.54	5819.00
1066.25	2570.00
1066.96	2568.00
1067.68	2566.00
1068.39	2560.00
1069.10	2614.00
1069.82	2619.00
1070.53	2613.00
1071.24	2621.00
1071.95	2612.00
1072.67	2620.00
1073.38	5680.00
1074.09	5583.00
1074.80	5470.00
1075.52	5358.00
1076.23	5282.00
1076.94	5152.00
1077.65	2589.00
1078.37	2583.00
1079.08	2565.00
1079.79	2604.00
