300.47	2621.00
301.26	2620.00
302.04	2620.00
302.82	2617.00
303.60	2617.00
304.38	2619.00
305.17	2620.00
305.95	2620.00
306.73	2620.00
307.51	2618.00
308.29	2621.00
309.08	2618.00
309.86	2620.00
310.64	2620.00
311.42	2623.00
312.20	2621.00
312.98	2619.00
313.76	2620.00
314.55	2620.00
315.33	2619.00
316.11	2619.00
316.89	2621.00
317.67	2618.00
318.45	2622.00
319.23	2620.00
320.01	2618.00
320.79	2625.00
321.57	2624.00
322.35	2621.00
323.13	2627.00
323.91	2618.00
324.69	2623.00
325.47	2625.00
326.25	2623.00
327.03	2626.00
327.81	2616.00
328.59	2623.00
329.37	2620.00
330.15	2625.00
330.93	2629.00
331.71	2626.00
332.49	2630.00
333.27	2627.00
334.05	2626.00
334.83	2628.00
335.61	2627.00
336.39	2629.00
337.17	2632.00
337.95	2628.00
338.73	2630.00
339.51	2634.00
340.29	2637.00
341.07	2631.00
341.84	2639.00
342.62	2640.00
343.40	2637.00
344.18	2639.00
344.96	2642.00
345.74	2644.00
346.52	2645.00
347.29	2650.00
348.07	2654.00
348.85	2653.00
349.63	2657.00
350.41	2657.00
351.18	2661.00
351.96	2665.00
352.74	2674.00
353.52	2674.00
354.30	2676.00
355.07	2675.00
355.85	2681.00
356.63	2687.00
357.41	2687.00
358.18	2699.00
358.96	2704.00
359.74	2709.00
360.52	2710.00
361.29	2718.00
362.07	2723.00
362.85	2732.00
363.62	2732.00
364.40	2735.00
365.18	2747.00
365.95	2745.00
366.73	2758.00
367.51	2769.00
368.28	2772.00
369.06	2779.00
369.84	2788.00
370.61	2798.00
371.39	2813.00
372.17	2814.00
372.94	2832.00
373.72	2832.00
374.49	2843.00
375.27	2857.00
376.05	2865.00
376.82	2875.00
377.60	2888.00
378.37	2893.00
379.15	2917.00
379.92	2919.00
380.70	2942.00
381.47	2952.00
382.25	2969.00
383.02	2980.00
383.80	2993.00
384.58	2999.00
385.35	3040.00
386.13	3048.00
386.90	3064.00
387.67	3094.00
388.45	3088.00
389.22	3109.00
390.00	3126.00
390.77	3148.00
391.55	3172.00
392.32	3203.00
393.10	3199.00
393.87	3232.00
394.65	3249.00
395.42	3270.00
396.19	3286.00
396.97	3312.00
397.74	3329.00
398.52	3349.00
399.29	3373.00
400.06	3405.00
400.84	3419.00
401.61	3443.00
402.38	3480.00
403.16	3492.00
403.93	3518.00
404.70	3541.00
405.48	3559.00
406.25	3610.00
407.02	3606.00
407.80	3635.00
408.57	3665.00
409.34	3699.00
410.12	3717.00
410.89	3732.00
411.66	3764.00
412.43	3784.00
413.21	3822.00
413.98	3854.00
414.75	3868.00
415.52	3888.00
416.30	3928.00
417.07	3956.00
417.84	3988.00
418.61	4023.00
419.39	4053.00
420.16	4070.00
420.93	4115.00
421.70	4134.00
422.47	4167.00
423.24	4198.00
424.02	4243.00
424.79	4267.00
425.56	4303.00
426.33	4336.00
427.10	4376.00
427.87	4389.00
428.64	4452.00
429.42	4488.00
430.19	4543.00
430.96	4580.00
431.73	4621.00
432.50	4638.00
433.27	4699.00
434.04	4737.00
434.81	4798.00
435.58	4862.00
436.35	4911.00
437.12	4922.00
437.89	4991.00
438.67	5030.00
439.44	5095.00
440.21	5145.00
440.98	5200.00
441.75	5284.00
442.52	5308.00
443.29	5384.00
444.06	5423.00
444.83	5503.00
445.60	5551.00
446.37	5615.00
447.13	5654.00
447.90	5730.00
448.67	5800.00
449.44	5879.00
450.21	5954.00
450.98	5987.00
451.75	6073.00
452.52	6151.00
453.29	6221.00
454.06	6276.00
454.83	6374.00
455.60	6450.00
456.37	6525.00
457.13	6587.00
457.90	6680.00
458.67	6764.00
459.44	6849.00
460.21	6927.00
460.98	7017.00
461.75	7090.00
462.51	7185.00
463.28	7258.00
464.05	7376.00
464.82	7479.00
465.59	7569.00
466.35	7629.00
467.12	7750.00
467.89	7829.00
468.66	7947.00
469.43	8033.00
470.19	8138.00
470.96	8228.00
471.73	8332.00
472.50	8478.00
473.26	8537.00
474.03	8652.00
474.80	8769.00
475.56	8904.00
476.33	9000.00
477.10	9092.00
477.87	9181.00
478.63	9281.00
479.40	9437.00
480.17	9588.00
480.93	9681.00
481.70	9779.00
482.47	9886.00
483.23	10019.00
484.00	10169.00
484.76	10285.00
485.53	10407.00
486.30	10564.00
487.06	10654.00
487.83	10792.00
488.60	10954.00
489.36	11077.00
490.13	11230.00
490.89	11285.00
491.66	11454.00
492.42	11556.00
493.19	11738.00
493.96	11891.00
494.72	11976.00
495.49	12121.00
496.25	12242.00
497.02	12390.00
497.78	12540.00
498.55	12651.00
499.31	12818.00
500.08	12964.00
500.84	13093.00
501.61	13223.00
502.37	13422.00
503.14	13489.00
503.90	13690.00
504.67	13815.00
505.43	14015.00
506.20	14152.00
506.96	14294.00
507.72	14503.00
508.49	14620.00
509.25	14788.00
510.02	15004.00
510.78	15177.00
511.54	15312.00
512.31	15473.00
513.07	15685.00
513.84	15750.00
514.60	15939.00
515.36	16137.00
516.13	16278.00
516.89	16354.00
517.65	16529.00
518.42	16680.00
519.18	16825.00
519.94	17058.00
520.71	17210.00
521.47	17379.00
522.23	17522.00
523.00	17704.00
523.76	17887.00
524.52	18061.00
525.28	18225.00
526.05	18401.00
526.81	18553.00
527.57	18740.00
528.33	18904.00
529.10	19073.00
529.86	19246.00
530.62	19478.00
531.38	19616.00
532.15	19766.00
532.91	19866.00
533.67	20091.00
534.43	20274.00
535.19	20543.00
535.96	20673.00
536.72	20843.00
537.48	20935.00
538.24	21148.00
539.00	21310.00
539.76	21531.00
540.53	21811.00
541.29	22001.00
542.05	22147.00
542.81	22366.00
543.57	22537.00
544.33	22836.00
545.09	22939.00
545.85	23084.00
546.61	23275.00
547.38	23445.00
548.14	23549.00
548.90	23789.00
549.66	23977.00
550.42	24207.00
551.18	24419.00
551.94	24532.00
552.70	24754.00
553.46	24943.00
554.22	25153.00
554.98	25317.00
555.74	25414.00
556.50	25620.00
557.26	25876.00
558.02	26188.00
558.78	26320.00
559.54	26551.00
560.30	26647.00
561.06	26837.00
561.82	27066.00
562.58	27308.00
563.34	27456.00
564.10	27621.00
564.86	27900.00
565.61	28042.00
566.37	28235.00
567.13	28476.00
567.89	28657.00
568.65	28835.00
569.41	29011.00
570.17	29197.00
570.93	29387.00
571.69	29554.00
572.44	29737.00
573.20	29949.00
573.96	30125.00
574.72	30232.00
575.48	30420.00
576.24	30655.00
576.99	30834.00
577.75	31097.00
578.51	31254.00
579.27	31504.00
580.03	31638.00
580.78	31919.00
581.54	32133.00
582.30	32393.00
583.06	32463.00
583.82	32593.00
584.57	32848.00
585.33	32969.00
586.09	33147.00
586.84	33282.00
587.60	33379.00
588.36	33572.00
589.12	33685.00
589.87	33963.00
590.63	34175.00
591.39	34320.00
592.14	34502.00
592.90	34708.00
593.66	34885.00
594.41	35102.00
595.17	35348.00
595.93	35452.00
596.68	35471.00
597.44	35654.00
598.20	35819.00
598.95	36252.00
599.71	36354.00
600.46	36577.00
601.22	36627.00
601.98	36826.00
602.73	37275.00
603.49	37469.00
604.24	37665.00
605.00	37792.00
605.76	38007.00
606.51	38112.00
607.27	38289.00
608.02	38618.00
608.78	38928.00
609.53	38997.00
610.29	39181.00
611.04	39419.00
611.80	39703.00
612.55	39891.00
613.31	40204.00
614.06	40354.00
614.82	40643.00
615.57	40875.00
616.33	41095.00
617.08	41237.00
617.84	41414.00
618.59	41435.00
619.35	41325.00
620.10	41406.00
620.85	41444.00
621.61	41409.00
622.36	41463.00
623.12	41542.00
623.87	41678.00
624.62	41798.00
625.38	41872.00
626.13	42009.00
626.89	42270.00
627.64	42504.00
628.39	42535.00
629.15	42560.00
629.90	42679.00
630.65	42785.00
631.41	42724.00
632.16	42777.00
632.91	42692.00
633.67	42747.00
634.42	42760.00
635.17	42990.00
635.92	43259.00
636.68	43767.00
637.43	44233.00
638.18	44728.00
638.94	45209.00
639.69	45444.00
640.44	45941.00
641.19	46306.00
641.95	46703.00
642.70	46992.00
643.45	47265.00
644.20	47440.00
644.95	47631.00
645.71	47728.00
646.46	47900.00
647.21	48069.00
647.96	48134.00
648.71	48234.00
649.47	48374.00
650.22	48421.00
650.97	48524.00
651.72	48688.00
652.47	48779.00
653.22	48893.00
653.97	49059.00
654.73	49261.00
655.48	49372.00
656.23	49621.00
656.98	49831.00
657.73	50168.00
658.48	50127.00
659.23	50213.00
659.98	50226.00
660.73	50369.00
661.48	50453.00
662.23	50614.00
662.99	50501.00
663.74	50571.00
664.49	50762.00
665.24	51225.00
665.99	51618.00
666.74	51806.00
667.49	51846.00
668.24	51976.00
668.99	52051.00
669.74	52216.00
670.49	52317.00
671.24	52450.00
671.99	52664.00
672.74	52722.00
673.48	52820.00
674.23	52972.00
674.98	53071.00
675.73	53141.00
676.48	53219.00
677.23	53340.00
677.98	53623.00
678.73	53535.00
679.48	53561.00
680.23	53659.00
680.98	53619.00
681.73	53572.00
682.47	53614.00
683.22	53641.00
683.97	53597.00
684.72	53787.00
685.47	53947.00
686.22	53989.00
686.97	54236.00
687.71	54379.00
688.46	54641.00
689.21	54672.00
689.96	54679.00
690.71	54717.00
691.45	54773.00
692.20	54800.00
692.95	54757.00
693.70	54917.00
694.44	54966.00
695.19	55102.00
695.94	55142.00
696.69	55250.00
697.43	55300.00
698.18	55201.00
698.93	55485.00
699.68	55341.00
700.42	55452.00
701.17	55395.00
701.92	55544.00
702.66	55643.00
703.41	55774.00
704.16	55764.00
704.90	55765.00
705.65	55858.00
706.40	55951.00
707.14	55943.00
707.89	55917.00
708.64	56093.00
709.38	56004.00
710.13	56046.00
710.88	56171.00
711.62	56209.00
712.37	56177.00
713.11	56268.00
713.86	56395.00
714.61	56341.00
715.35	56059.00
716.10	56009.00
716.84	55747.00
717.59	55611.00
718.33	55384.00
719.08	55268.00
719.83	55237.00
720.57	55005.00
721.32	54950.00
722.06	54860.00
722.81	54855.00
723.55	54933.00
724.30	55008.00
725.04	55176.00
725.79	55228.00
726.53	55148.00
727.28	55051.00
728.02	55144.00
728.76	55256.00
729.51	55240.00
730.25	55339.00
731.00	55309.00
731.74	55369.00
732.49	55408.00
733.23	55305.00
733.97	55126.00
734.72	55051.00
735.46	54941.00
736.21	54829.00
736.95	54927.00
737.69	54991.00
738.44	55037.00
739.18	55188.00
739.92	55226.00
740.67	55340.00
741.41	55434.00
742.15	55576.00
742.90	55763.00
743.64	55827.00
744.38	55764.00
745.13	55727.00
745.87	55729.00
746.61	55773.00
747.36	55748.00
748.10	55805.00
748.84	55722.00
749.58	55598.00
750.33	55468.00
751.07	55414.00
751.81	55308.00
752.55	55269.00
753.30	55208.00
754.04	55083.00
754.78	54760.00
755.52	54611.00
756.27	54391.00
757.01	54350.00
757.75	54431.00
758.49	54502.00
759.23	54578.00
759.97	54478.00
760.72	54442.00
761.46	54366.00
762.20	54485.00
762.94	54425.00
763.68	54450.00
764.42	54231.00
765.16	54233.00
765.91	54146.00
766.65	54142.00
767.39	53962.00
768.13	53943.00
768.87	53936.00
769.61	53967.00
770.35	53896.00
771.09	53842.00
771.83	53618.00
772.57	53595.00
773.31	53543.00
774.05	53697.00
774.80	53661.00
775.54	53528.00
776.28	53356.00
777.02	53259.00
777.76	53104.00
778.50	53085.00
779.24	52811.00
779.98	52683.00
780.72	52719.00
781.46	52541.00
782.20	52535.00
782.93	52481.00
783.67	52404.00
784.41	52308.00
785.15	52212.00
785.89	52002.00
786.63	51902.00
787.37	51617.00
788.11	51335.00
788.85	51313.00
789.59	51283.00
790.33	51218.00
791.07	51233.00
791.81	51125.00
792.54	50941.00
793.28	50834.00
794.02	50513.00
794.76	50320.00
795.50	50088.00
796.24	49854.00
796.97	49638.00
797.71	49372.00
798.45	49202.00
799.19	49092.00
799.93	49003.00
800.67	48944.00
801.40	49045.00
802.14	48985.00
802.88	49171.00
803.62	49124.00
804.35	49081.00
805.09	49023.00
805.83	48857.00
806.57	48791.00
807.30	48737.00
808.04	48705.00
808.78	48536.00
809.52	48330.00
810.25	48059.00
810.99	47927.00
811.73	47810.00
812.46	47735.00
813.20	47689.00
813.94	47701.00
814.68	47663.00
815.41	47555.00
816.15	47582.00
816.88	47736.00
817.62	47792.00
818.36	47648.00
819.09	47366.00
819.83	47047.00
820.57	47004.00
821.30	46929.00
822.04	46728.00
822.77	46555.00
823.51	46386.00
824.25	46252.00
824.98	46233.00
825.72	46118.00
826.45	46039.00
827.19	45894.00
827.92	45634.00
828.66	45374.00
829.40	45208.00
830.13	45100.00
830.87	45141.00
831.60	45148.00
832.34	44981.00
833.07	44882.00
833.81	44895.00
834.54	44939.00
835.28	45057.00
836.01	44876.00
836.75	44751.00
837.48	44478.00
838.22	44273.00
838.95	44153.00
839.68	44188.00
840.42	44256.00
841.15	44286.00
841.89	44111.00
842.62	43816.00
843.36	43597.00
844.09	43519.00
844.82	43666.00
845.56	43732.00
846.29	43452.00
847.02	43379.00
847.76	43265.00
848.49	43282.00
849.23	43596.00
849.96	43815.00
850.69	43822.00
851.43	43644.00
852.16	43371.00
852.89	43029.00
853.63	42822.00
854.36	42626.00
855.09	42676.00
855.82	42665.00
856.56	42473.00
857.29	42186.00
858.02	42077.00
858.76	42111.00
859.49	42166.00
860.22	42071.00
860.95	42008.00
861.69	41771.00
862.42	41627.00
863.15	41476.00
863.88	41323.00
864.61	41479.00
865.35	41505.00
866.08	41392.00
866.81	41210.00
867.54	41091.00
868.27	40891.00
869.01	40820.00
869.74	40762.00
870.47	40755.00
871.20	40633.00
871.93	40440.00
872.66	40275.00
873.40	40049.00
874.13	39925.00
874.86	39684.00
875.59	39465.00
876.32	39463.00
877.05	39424.00
877.78	39292.00
878.51	39081.00
879.24	38845.00
879.97	38746.00
880.71	38640.00
881.44	38567.00
882.17	38433.00
882.90	38382.00
883.63	38208.00
884.36	38156.00
885.09	38178.00
885.82	38229.00
886.55	38385.00
887.28	38397.00
888.01	38290.00
888.74	38110.00
889.47	37952.00
890.20	37600.00
890.93	37367.00
891.66	37218.00
892.39	37145.00
893.12	37092.00
893.85	37098.00
894.57	37079.00
895.30	36938.00
896.03	37001.00
896.76	36923.00
897.49	36786.00
898.22	36556.00
898.95	36412.00
899.68	36247.00
900.41	36052.00
901.14	35816.00
901.86	35767.00
902.59	35785.00
903.32	35761.00
904.05	35718.00
904.78	35603.00
905.51	35378.00
906.24	35314.00
906.96	35204.00
907.69	35120.00
908.42	34947.00
909.15	34669.00
909.88	34570.00
910.60	34291.00
911.33	34312.00
912.06	34170.00
912.79	33987.00
913.52	33819.00
914.24	33756.00
914.97	33644.00
915.70	33490.00
916.42	33426.00
917.15	33197.00
917.88	33000.00
918.61	32782.00
919.33	32549.00
920.06	32235.00
920.79	32007.00
921.51	31849.00
922.24	31753.00
922.97	31625.00
923.69	31504.00
924.42	31341.00
925.15	31215.00
925.87	31061.00
926.60	30843.00
927.33	30625.00
928.05	30311.00
928.78	29946.00
929.51	29633.00
930.23	29363.00
930.96	29025.00
931.68	28768.00
932.41	28404.00
933.14	28110.00
933.86	27762.00
934.59	27375.00
935.31	27060.00
936.04	26591.00
936.76	26123.00
937.49	25661.00
938.21	25151.00
938.94	24716.00
939.66	24246.00
940.39	23853.00
941.11	23509.00
941.84	23189.00
942.56	22833.00
943.29	22632.00
944.01	22410.00
944.74	22280.00
945.46	22241.00
946.19	22215.00
946.91	22292.00
947.64	22290.00
948.36	22397.00
949.09	22430.00
949.81	22552.00
950.53	22650.00
951.26	22712.00
951.98	22751.00
952.71	22725.00
953.43	22922.00
954.15	23059.00
954.88	23105.00
955.60	23192.00
956.33	23201.00
957.05	23191.00
957.77	23211.00
958.50	23306.00
959.22	23405.00
959.94	23340.00
960.67	23252.00
961.39	23190.00
962.11	23254.00
962.84	23290.00
963.56	23256.00
964.28	23159.00
965.00	23026.00
965.73	22834.00
966.45	22750.00
967.17	22621.00
967.89	22512.00
968.62	22315.00
969.34	22168.00
970.06	21885.00
970.78	21844.00
971.51	21778.00
972.23	21612.00
972.95	21452.00
973.67	21275.00
974.40	21160.00
975.12	20984.00
975.84	20746.00
976.56	20643.00
977.28	20449.00
978.00	20356.00
978.73	20301.00
979.45	20192.00
980.17	20169.00
980.89	20106.00
981.61	20052.00
982.33	19967.00
983.05	19874.00
983.77	19834.00
984.50	19753.00
985.22	19649.00
985.94	19602.00
986.66	19483.00
987.38	19420.00
988.10	19379.00
988.82	19341.00
989.54	19274.00
990.26	19178.00
990.98	19070.00
991.70	18885.00
992.42	18727.00
993.14	18626.00
993.86	18511.00
994.58	18341.00
995.30	18245.00
996.02	18075.00
996.74	18000.00
997.46	17957.00
998.18	17891.00
998.90	17711.00
999.62	17569.00
1000.34	17513.00
1001.06	17469.00
1001.78	17429.00
1002.50	17204.00
1003.22	17015.00
1003.94	16882.00
1004.66	16728.00
1005.38	16595.00
1006.09	16394.00
1006.81	16259.00
1007.53	16118.00
1008.25	15948.00
1008.97	15803.00
1009.69	15783.00
1010.41	15609.00
1011.13	15532.00
1011.84	15405.00
1012.56	15193.00
1013.28	15067.00
1014.00	14895.00
1014.72	14758.00
1015.44	14621.00
1016.15	14363.00
1016.87	14172.00
1017.59	14019.00
1018.31	13886.00
1019.03	13762.00
1019.74	13695.00
1020.46	13590.00
1021.18	13549.00
1021.90	13377.00
1022.61	13289.00
1023.33	13197.00
1024.05	13031.00
1024.76	12868.00
1025.48	12669.00
1026.20	12468.00
1026.92	12251.00
1027.63	12145.00
1028.35	11996.00
1029.07	11872.00
1029.78	11707.00
1030.50	11550.00
1031.22	11427.00
1031.93	11286.00
1032.65	11177.00
1033.37	11080.00
1034.08	10976.00
1034.80	10867.00
1035.52	10795.00
1036.23	10719.00
1036.95	10636.00
1037.66	10565.00
1038.38	10380.00
1039.10	10269.00
1039.81	10095.00
1040.53	9908.00
1041.24	9775.00
1041.96	9619.00
1042.67	9542.00
1043.39	9417.00
1044.10	9301.00
1044.82	9201.00
1045.54	9130.00
1046.25	8995.00
1046.97	8919.00
1047.68	8772.00
1048.40	8607.00
1049.11	8445.00
1049.83	8335.00
1050.54	8235.00
1051.26	8123.00
1051.97	8027.00
1052.68	7947.00
1053.40	7870.00
1054.11	7758.00
1054.83	7622.00
1055.54	7517.00
1056.26	7396.00
1056.97	7310.00
1057.69	7232.00
1058.40	7112.00
1059.11	7002.00
1059.83	6864.00
1060.54	6728.00
1061.25	6605.00
1061.97	6451.00
1062.68	6339.00
1063.40	6235.00
1064.11	6080.00
1064.82	5962.00
1065.54	5848.00
1066.25	2571.00
1066.96	2564.00
1067.68	2566.00
1068.39	2564.00
1069.10	2618.00
1069.82	2619.00
1070.53	2618.00
1071.24	2620.00
1071.95	2621.00
1072.67	2616.00
1073.38	5735.00
1074.09	5599.00
1074.80	5508.00
1075.52	5363.00
1076.23	5286.00
1076.94	5154.00
1077.65	2593.00
1078.37	2582.00
1079.08	2577.00
1079.79	2599.00
