300.47	2617.00
301.26	2621.00
302.04	2623.00
302.82	2620.00
303.60	2614.00
304.38	2624.00
305.17	2620.00
305.95	2625.00
306.73	2619.00
307.51	2620.00
308.29	2617.00
309.08	2620.00
309.86	2617.00
310.64	2620.00
311.42	2620.00
312.20	2620.00
312.98	2620.00
313.76	2622.00
314.55	2619.00
315.33	2623.00
316.11	2617.00
316.89	2622.00
317.67	2623.00
318.45	2623.00
319.23	2624.00
320.01	2617.00
320.79	2621.00
321.57	2621.00
322.35	2622.00
323.13	2621.00
323.91	2620.00
324.69	2617.00
325.47	2622.00
326.25	2623.00
327.03	2620.00
327.81	2618.00
328.59	2621.00
329.37	2624.00
330.15	2625.00
330.93	2625.00
331.71	2630.00
332.49	2625.00
333.27	2626.00
334.05	2624.00
334.83	2629.00
335.61	2627.00
336.39	2626.00
337.17	2627.00
337.95	2629.00
338.73	2627.00
339.51	2638.00
340.29	2632.00
341.07	2634.00
341.84	2634.00
342.62	2637.00
343.40	2642.00
344.18	2641.00
344.96	2641.00
345.74	2644.00
346.52	2645.00
347.29	2647.00
348.07	2655.00
348.85	2656.00
349.63	2656.00
350.41	2662.00
351.18	2664.00
351.96	2668.00
352.74	2669.00
353.52	2676.00
354.30	2678.00
355.07	2684.00
355.85	2678.00
356.63	2688.00
357.41	2696.00
358.18	2696.00
358.96	2699.00
359.74	2707.00
360.52	2711.00
361.29	2715.00
362.07	2723.00
362.85	2732.00
363.62	2735.00
364.40	2743.00
365.18	2740.00
365.95	2755.00
366.73	2757.00
367.51	2762.00
368.28	2776.00
369.06	2788.00
369.84	2784.00
370.61	2800.00
371.39	2809.00
372.17	2817.00
372.94	2829.00
373.72	2833.00
374.49	2845.00
375.27	2859.00
376.05	2869.00
376.82	2877.00
377.60	2889.00
378.37	2907.00
379.15	2917.00
379.92	2934.00
380.70	2950.00
381.47	2954.00
382.25	2970.00
383.02	2985.00
383.80	3003.00
384.58	3016.00
385.35	3034.00
386.13	3052.00
386.90	3057.00
387.67	3087.00
388.45	3096.00
389.22	3121.00
390.00	3130.00
390.77	3161.00
391.55	3166.00
392.32	3195.00
393.10	3208.00
393.87	3227.00
394.65	3261.00
395.42	3267.00
396.19	3292.00
396.97	3304.00
397.74	3339.00
398.52	3361.00
399.29	3382.00
400.06	3410.00
400.84	3434.00
401.61	3450.00
402.38	3471.00
403.16	3494.00
403.93	3527.00
404.70	3551.00
405.48	3569.00
406.25	3590.00
407.02	3614.00
407.80	3634.00
408.57	3663.00
409.34	3702.00
410.12	3714.00
410.89	3751.00
411.66	3765.00
412.43	3794.00
413.21	3815.00
413.98	3847.00
414.75	3877.00
415.52	3916.00
416.30	3939.00
417.07	3953.00
417.84	3984.00
418.61	4024.00
419.39	4045.00
420.16	4083.00
420.93	4095.00
421.70	4129.00
422.47	4182.00
423.24	4210.00
424.02	4255.00
424.79	4277.00
425.56	4301.00
426.33	4332.00
427.10	4388.00
427.87	4415.00
428.64	4468.00
429.42	4509.00
430.19	4543.00
430.96	4573.00
431.73	4601.00
432.50	4669.00
433.27	4705.00
434.04	4755.00
434.81	4810.00
435.58	4850.00
436.35	4885.00
437.12	4936.00
437.89	4995.00
438.67	5043.00
439.44	5085.00
440.21	5170.00
440.98	5215.00
441.75	5278.00
442.52	5323.00
443.29	5368.00
444.06	5427.00
444.83	5500.00
445.60	5565.00
446.37	5636.00
447.13	5662.00
447.90	5747.00
448.67	5826.00
449.44	5887.00
450.21	5953.00
450.98	6022.00
451.75	6053.00
452.52	6125.00
453.29	6212.00
454.06	6308.00
454.83	6379.00
455.60	6461.00
456.37	6543.00
457.13	6617.00
457.90	6694.00
458.67	6762.00
459.44	6863.00
460.21	6952.00
460.98	7009.00
461.75	7124.00
462.51	7191.00
463.28	7326.00
464.05	7397.00
464.82	7471.00
465.59	7579.00
466.35	7670.00
467.12	7763.00
467.89	7890.00
468.66	7962.00
469.43	8073.00
470.19	8149.00
470.96	8267.00
471.73	8346.00
472.50	8488.00
473.26	8549.00
474.03	8645.00
474.80	8818.00
475.56	8874.00
476.33	9011.00
477.10	9104.00
477.87	9224.00
478.63	9331.00
479.40	9452.00
480.17	9568.00
480.93	9692.00
481.70	9811.00
482.47	9909.00
483.23	10043.00
484.00	10176.00
484.76	10337.00
485.53	10469.00
486.30	10557.00
487.06	10675.00
487.83	10846.00
488.60	10953.00
489.36	11109.00
490.13	11212.00
490.89	11309.00
491.66	11471.00
492.42	11578.00
493.19	11788.00
493.96	11895.00
494.72	11974.00
495.49	12144.00
496.25	12287.00
497.02	12398.00
497.78	12595.00
498.55	12688.00
499.31	12803.00
500.08	12990.00
500.84	13117.00
501.61	13265.00
502.37	13395.00
503.14	13537.00
503.90	13668.00
504.67	13820.00
505.43	14012.00
506.20	14176.00
506.96	14354.00
507.72	14507.00
508.49	14662.00
509.25	14859.00
510.02	15000.00
510.78	15191.00
511.54	15348.00
512.31	15549.00
513.07	15674.00
513.84	15843.00
514.60	15982.00
515.36	16192.00
516.13	16331.00
516.89	16426.00
517.65	16546.00
518.42	16726.00
519.18	16887.00
519.94	17088.00
520.71	17265.00
521.47	17396.00
522.23	17515.00
523.00	17745.00
523.76	17944.00
524.52	18139.00
525.28	18288.00
526.05	18403.00
526.81	18627.00
527.57	18846.00
528.33	18977.00
529.10	19113.00
529.86	19316.00
530.62	19466.00
531.38	19704.00
532.15	19785.00
532.91	19980.00
533.67	20126.00
534.43	20327.00
535.19	20577.00
535.96	20678.00
536.72	20888.00
537.48	20963.00
538.24	21151.00
539.00	21350.00
539.76	21661.00
540.53	21828.00
541.29	22070.00
542.05	22199.00
542.81	22428.00
543.57	22605.00
544.33	22816.00
545.09	22964.00
545.85	23167.00
546.61	23311.00
547.38	23442.00
548.14	23596.00
548.90	23866.00
549.66	24048.00
550.42	24293.00
551.18	24435.00
551.94	24537.00
552.70	24805.00
553.46	25010.00
554.22	25145.00
554.98	25405.00
555.74	25548.00
556.50	25674.00
557.26	25945.00
558.02	26236.00
558.78	26391.00
559.54	26557.00
560.30	26699.00
561.06	26875.00
561.82	27103.00
562.58	27411.00
563.34	27607.00
564.10	27817.00
564.86	27913.00
565.61	28142.00
566.37	28328.00
567.13	28563.00
567.89	28715.00
568.65	28941.00
569.41	29068.00
570.17	29173.00
570.93	29457.00
571.69	29536.00
572.44	29818.00
573.20	29978.00
573.96	30159.00
574.72	30278.00
575.48	30497.00
576.24	30768.00
576.99	30949.00
577.75	31209.00
578.51	31342.00
579.27	31588.00
580.03	31739.00
580.78	31988.00
581.54	32233.00
582.30	32437.00
583.06	32607.00
583.82	32711.00
584.57	32820.00
585.33	33052.00
586.09	33218.00
586.84	33385.00
587.60	33555.00
588.36	33699.00
589.12	33793.00
589.87	33982.00
590.63	34290.00
591.39	34443.00
592.14	34598.00
592.90	34795.00
593.66	35021.00
594.41	35125.00
595.17	35375.00
595.93	35527.00
596.68	35621.00
597.44	35722.00
598.20	36013.00
598.95	36329.00
599.71	36525.00
600.46	36640.00
601.22	36798.00
601.98	36997.00
602.73	37207.00
603.49	37695.00
604.24	37781.00
605.00	37932.00
605.76	38069.00
606.51	38264.00
607.27	38424.00
608.02	38665.00
608.78	38989.00
609.53	39167.00
610.29	39304.00
611.04	39551.00
611.80	39835.00
612.55	40077.00
613.31	40345.00
614.06	40527.00
614.82	40770.00
615.57	40972.00
616.33	41174.00
617.08	41413.00
617.84	41532.00
618.59	41527.00
619.35	41482.00
620.10	41517.00
620.85	41542.00
621.61	41565.00
622.36	41660.00
623.12	41730.00
623.87	41757.00
624.62	41839.00
625.38	42014.00
626.13	42182.00
626.89	42496.00
627.64	42649.00
628.39	42674.00
629.15	42671.00
629.90	42848.00
630.65	42836.00
631.41	42901.00
632.16	42889.00
632.91	42835.00
633.67	42846.00
634.42	42855.00
635.17	43097.00
635.92	43373.00
636.68	43840.00
637.43	44350.00
638.18	44788.00
638.94	45398.00
639.69	45665.00
640.44	46091.00
641.19	46516.00
641.95	46841.00
642.70	47145.00
643.45	47377.00
644.20	47600.00
644.95	47761.00
645.71	47932.00
646.46	48089.00
647.21	48217.00
647.96	48280.00
648.71	48361.00
649.47	48421.00
650.22	48612.00
650.97	48630.00
651.72	48694.00
652.47	48892.00
653.22	49068.00
653.97	49155.00
654.73	49312.00
655.48	49497.00
656.23	49738.00
656.98	49992.00
657.73	50283.00
658.48	50339.00
659.23	50421.00
659.98	50350.00
660.73	50477.00
661.48	50590.00
662.23	50705.00
662.99	50711.00
663.74	50623.00
664.49	51000.00
665.24	51443.00
665.99	51767.00
666.74	51888.00
667.49	51848.00
668.24	51993.00
668.99	52184.00
669.74	52381.00
670.49	52486.00
671.24	52593.00
671.99	52756.00
672.74	52898.00
673.48	53040.00
674.23	53181.00
674.98	53192.00
675.73	53278.00
676.48	53418.00
677.23	53484.00
677.98	53620.00
678.73	53681.00
679.48	53657.00
680.23	53731.00
680.98	53860.00
681.73	53776.00
682.47	53715.00
683.22	53779.00
683.97	53840.00
684.72	53878.00
685.47	54095.00
686.22	54069.00
686.97	54322.00
687.71	54558.00
688.46	54816.00
689.21	54859.00
689.96	54857.00
690.71	54901.00
691.45	54986.00
692.20	54957.00
692.95	54946.00
693.70	54967.00
694.44	55010.00
695.19	55172.00
695.94	55367.00
696.69	55367.00
697.43	55484.00
698.18	55439.00
698.93	55496.00
699.68	55573.00
700.42	55566.00
701.17	55659.00
701.92	55658.00
702.66	55701.00
703.41	55794.00
704.16	55824.00
704.90	55949.00
705.65	55966.00
706.40	55971.00
707.14	56047.00
707.89	56075.00
708.64	56132.00
709.38	56100.00
710.13	56253.00
710.88	56340.00
711.62	56339.00
712.37	56415.00
713.11	56443.00
713.86	56402.00
714.61	56394.00
715.35	56286.00
716.10	56226.00
716.84	56015.00
717.59	55728.00
718.33	55454.00
719.08	55377.00
719.83	55245.00
720.57	55096.00
721.32	55048.00
722.06	54945.00
722.81	54959.00
723.55	55069.00
724.30	55121.00
725.04	55233.00
725.79	55202.00
726.53	55202.00
727.28	55245.00
728.02	55257.00
728.76	55378.00
729.51	55437.00
730.25	55421.00
731.00	55500.00
731.74	55386.00
732.49	55389.00
733.23	55293.00
733.97	55177.00
734.72	55047.00
735.46	54917.00
736.21	54986.00
736.95	54902.00
737.69	55045.00
738.44	55118.00
739.18	55285.00
739.92	55359.00
740.67	55526.00
741.41	55510.00
742.15	55730.00
742.90	55831.00
743.64	55963.00
744.38	55901.00
745.13	55919.00
745.87	55825.00
746.61	55872.00
747.36	55896.00
748.10	55918.00
748.84	55809.00
749.58	55737.00
750.33	55563.00
751.07	55523.00
751.81	55304.00
752.55	55341.00
753.30	55274.00
754.04	55136.00
754.78	54921.00
755.52	54810.00
756.27	54578.00
757.01	54463.00
757.75	54490.00
758.49	54658.00
759.23	54608.00
759.97	54442.00
760.72	54546.00
761.46	54608.00
762.20	54547.00
762.94	54600.00
763.68	54511.00
764.42	54414.00
765.16	54387.00
765.91	54267.00
766.65	54183.00
767.39	54137.00
768.13	54048.00
768.87	54074.00
769.61	54052.00
770.35	53915.00
771.09	53891.00
771.83	53708.00
772.57	53771.00
773.31	53612.00
774.05	53770.00
774.80	53801.00
775.54	53588.00
776.28	53500.00
777.02	53305.00
777.76	53298.00
778.50	53078.00
779.24	52814.00
779.98	52838.00
780.72	52731.00
781.46	52612.00
782.20	52648.00
782.93	52601.00
783.67	52567.00
784.41	52264.00
785.15	52211.00
785.89	52174.00
786.63	51941.00
787.37	51697.00
788.11	51603.00
788.85	51417.00
789.59	51309.00
790.33	51327.00
791.07	51348.00
791.81	51161.00
792.54	51055.00
793.28	50872.00
794.02	50613.00
794.76	50350.00
795.50	50238.00
796.24	49948.00
796.97	49653.00
797.71	49444.00
798.45	49333.00
799.19	49226.00
799.93	49159.00
800.67	48998.00
801.40	49081.00
802.14	49005.00
802.88	49144.00
803.62	49205.00
804.35	49125.00
805.09	49079.00
805.83	48921.00
806.57	48841.00
807.30	48766.00
808.04	48798.00
808.78	48693.00
809.52	48404.00
810.25	48205.00
810.99	48015.00
811.73	47976.00
812.46	47852.00
813.20	47854.00
813.94	47781.00
814.68	47658.00
815.41	47651.00
816.15	47571.00
816.88	47844.00
817.62	47797.00
818.36	47760.00
819.09	47334.00
819.83	47215.00
820.57	47082.00
821.30	47013.00
822.04	46845.00
822.77	46575.00
823.51	46440.00
824.25	46339.00
824.98	46287.00
825.72	46245.00
826.45	46237.00
827.19	45988.00
827.92	45839.00
828.66	45438.00
829.40	45337.00
830.13	45267.00
830.87	45215.00
831.60	45148.00
832.34	45053.00
833.07	44920.00
833.81	44914.00
834.54	45047.00
835.28	45043.00
836.01	45036.00
836.75	44832.00
837.48	44489.00
838.22	44401.00
838.95	44308.00
839.68	44286.00
840.42	44276.00
841.15	44252.00
841.89	44181.00
842.62	43806.00
843.36	43761.00
844.09	43674.00
844.82	43781.00
845.56	43762.00
846.29	43576.00
847.02	43494.00
847.76	43366.00
848.49	43411.00
849.23	43681.00
849.96	43858.00
850.69	43903.00
851.43	43640.00
852.16	43355.00
852.89	43093.00
853.63	42939.00
854.36	42797.00
855.09	42758.00
855.82	42660.00
856.56	42537.00
857.29	42305.00
858.02	42156.00
858.76	42117.00
859.49	42179.00
860.22	42061.00
860.95	42072.00
861.69	41885.00
862.42	41704.00
863.15	41489.00
863.88	41366.00
864.61	41549.00
865.35	41544.00
866.08	41489.00
866.81	41208.00
867.54	41057.00
868.27	40951.00
869.01	40882.00
869.74	40834.00
870.47	40889.00
871.20	40747.00
871.93	40461.00
872.66	40274.00
873.40	40154.00
874.13	39907.00
874.86	39707.00
875.59	39616.00
876.32	39599.00
877.05	39413.00
877.78	39299.00
878.51	39107.00
879.24	38988.00
879.97	38865.00
880.71	38653.00
881.44	38609.00
882.17	38522.00
882.90	38317.00
883.63	38148.00
884.36	38167.00
885.09	38128.00
885.82	38196.00
886.55	38411.00
887.28	38395.00
888.01	38294.00
888.74	38128.00
889.47	37944.00
890.20	37567.00
890.93	37366.00
891.66	37336.00
892.39	37132.00
893.12	37041.00
893.85	37063.00
894.57	37078.00
895.30	37036.00
896.03	37062.00
896.76	36932.00
897.49	36863.00
898.22	36629.00
898.95	36399.00
899.68	36323.00
900.41	36001.00
901.14	35887.00
901.86	35770.00
902.59	35799.00
903.32	35707.00
904.05	35721.00
904.78	35592.00
905.51	35531.00
906.24	35305.00
906.96	35290.00
907.69	35090.00
908.42	34927.00
909.15	34770.00
909.88	34551.00
910.60	34413.00
911.33	34299.00
912.06	34144.00
912.79	33988.00
913.52	33861.00
914.24	33756.00
914.97	33695.00
915.70	33592.00
916.42	33386.00
917.15	33159.00
917.88	32977.00
918.61	32811.00
919.33	32525.00
920.06	32237.00
920.79	32009.00
921.51	31873.00
922.24	31739.00
922.97	31663.00
923.69	31518.00
924.42	31372.00
925.15	31241.00
925.87	31081.00
926.60	30822.00
927.33	30594.00
928.05	30250.00
928.78	29983.00
929.51	29699.00
930.23	29348.00
930.96	28964.00
931.68	28780.00
932.41	28343.00
933.14	28106.00
933.86	27785.00
934.59	27382.00
935.31	27025.00
936.04	26510.00
936.76	26144.00
937.49	25638.00
938.21	25139.00
938.94	24747.00
939.66	24237.00
940.39	23845.00
941.11	23515.00
941.84	23109.00
942.56	22856.00
943.29	22618.00
944.01	22432.00
944.74	22287.00
945.46	22295.00
946.19	22263.00
946.91	22275.00
947.64	22315.00
948.36	22375.00
949.09	22452.00
949.81	22469.00
950.53	22639.00
951.26	22714.00
951.98	22730.00
952.71	22734.00
953.43	22950.00
954.15	23013.00
954.88	23060.00
955.60	23129.00
956.33	23174.00
957.05	23191.00
957.77	23254.00
958.50	23357.00
959.22	23332.00
959.94	23295.00
960.67	23238.00
961.39	23227.00
962.11	23245.00
962.84	23301.00
963.56	23204.00
964.28	23176.00
965.00	23007.00
965.73	22864.00
966.45	22781.00
967.17	22609.00
967.89	22466.00
968.62	22328.00
969.34	22093.00
970.06	22001.00
970.78	21872.00
971.51	21737.00
972.23	21655.00
972.95	21405.00
973.67	21297.00
974.40	21135.00
975.12	20961.00
975.84	20830.00
976.56	20697.00
977.28	20465.00
978.00	20399.00
978.73	20291.00
979.45	20200.00
980.17	20128.00
980.89	20114.00
981.61	20035.00
982.33	19976.00
983.05	19849.00
983.77	19821.00
984.50	19729.00
985.22	19649.00
985.94	19608.00
986.66	19522.00
987.38	19433.00
988.10	19388.00
988.82	19377.00
989.54	19264.00
990.26	19209.00
990.98	19090.00
991.70	18873.00
992.42	18764.00
993.14	18592.00
993.86	18462.00
994.58	18344.00
995.30	18203.00
996.02	18088.00
996.74	17986.00
997.46	17931.00
998.18	17883.00
998.90	17715.00
999.62	17640.00
1000.34	17491.00
1001.06	17412.00
1001.78	17394.00
1002.50	17230.00
1003.22	17050.00
1003.94	16821.00
1004.66	16716.00
1005.38	16576.00
1006.09	16365.00
1006.81	16260.00
1007.53	16073.00
1008.25	15957.00
1008.97	15807.00
1009.69	15727.00
1010.41	15609.00
1011.13	15499.00
1011.84	15307.00
1012.56	15174.00
1013.28	15051.00
1014.00	14918.00
1014.72	14753.00
1015.44	14546.00
1016.15	14359.00
1016.87	14149.00
1017.59	13946.00
1018.31	13837.00
1019.03	13756.00
1019.74	13662.00
1020.46	13567.00
1021.18	13491.00
1021.90	13350.00
1022.61	13289.00
1023.33	13145.00
1024.05	12988.00
1024.76	12821.00
1025.48	12605.00
1026.20	12398.00
1026.92	12279.00
1027.63	12106.00
1028.35	11910.00
1029.07	11835.00
1029.78	11696.00
1030.50	11522.00
1031.22	11397.00
1031.93	11235.00
1032.65	11144.00
1033.37	11034.00
1034.08	10943.00
1034.80	10891.00
1035.52	10763.00
1036.23	10678.00
1036.95	10600.00
1037.66	10518.00
1038.38	10396.00
1039.10	10232.00
1039.81	10076.00
1040.53	9912.00
1041.24	9776.00
1041.96	9635.00
1042.67	9478.00
1043.39	9375.00
1044.10	9317.00
1044.82	9201.00
1045.54	9069.00
1046.25	8998.00
1046.97	8874.00
1047.68	8747.00
1048.40	8603.00
1049.11	8441.00
1049.83	8312.00
1050.54	8208.00
1051.26	8120.00
1051.97	8011.00
1052.68	7883.00
1053.40	7833.00
1054.11	7711.00
1054.83	7603.00
1055.54	7481.00
1056.26	7418.00
1056.97	7311.00
1057.69	7187.00
1058.40	7100.00
1059.11	6976.00
1059.83	6870.00
1060.54	6726.00
1061.25	6580.00
1061.97	6450.00
1062.68	6311.00
1063.40	6212.00
1064.11	6093.00
1064.82	5943.00
1065.54	5867.00
1066.25	2568.00
1066.96	2565.00
1067.68	2565.00
1068.39	2564.00
1069.10	2614.00
1069.82	2617.00
1070.53	2621.00
1071.24	2617.00
1071.95	2616.00
1072.67	2616.00
1073.38	5695.00
1074.09	5593.00
1074.80	5487.00
1075.52	5364.00
1076.23	5301.00
1076.94	5154.00
1077.65	2592.00
1078.37	2580.00
1079.08	2583.00
1079.79	2612.00
