300.47	2618.00
301.26	2618.00
302.04	2617.00
302.82	2615.00
303.60	2614.00
304.38	2619.00
305.17	2624.00
305.95	2618.00
306.73	2622.00
307.51	2624.00
308.29	2618.00
309.08	2624.00
309.86	2621.00
310.64	2624.00
311.42	2618.00
312.20	2619.00
312.98	2623.00
313.76	2619.00
314.55	2618.00
315.33	2618.00
316.11	2615.00
316.89	2621.00
317.67	2620.00
318.45	2617.00
319.23	2619.00
320.01	2625.00
320.79	2626.00
321.57	2621.00
322.35	2621.00
323.13	2620.00
323.91	2623.00
324.69	2617.00
325.47	2622.00
326.25	2622.00
327.03	2622.00
327.81	2618.00
328.59	2625.00
329.37	2625.00
330.15	2624.00
330.93	2629.00
331.71	2623.00
332.49	2625.00
333.27	2627.00
334.05	2625.00
334.83	2629.00
335.61	2629.00
336.39	2629.00
337.17	2628.00
337.95	2627.00
338.73	2630.00
339.51	2630.00
340.29	2635.00
341.07	2632.00
341.84	2634.00
342.62	2639.00
343.40	2640.00
344.18	2644.00
344.96	2642.00
345.74	2642.00
346.52	2650.00
347.29	2652.00
348.07	2649.00
348.85	2651.00
349.63	2659.00
350.41	2658.00
351.18	2666.00
351.96	2667.00
352.74	2672.00
353.52	2671.00
354.30	2675.00
355.07	2678.00
355.85	2678.00
356.63	2685.00
357.41	2687.00
358.18	2699.00
358.96	2702.00
359.74	2708.00
360.52	2707.00
361.29	2716.00
362.07	2731.00
362.85	2723.00
363.62	2737.00
364.40	2735.00
365.18	2744.00
365.95	2744.00
366.73	2764.00
367.51	2769.00
368.28	2779.00
369.06	2786.00
369.84	2796.00
370.61	2802.00
371.39	2808.00
372.17	2816.00
372.94	2831.00
373.72	2831.00
374.49	2846.00
375.27	2856.00
376.05	2864.00
376.82	2875.00
377.60	2887.00
378.37	2904.00
379.15	2914.00
379.92	2932.00
380.70	2940.00
381.47	2956.00
382.25	2966.00
383.02	2984.00
383.80	2992.00
384.58	3017.00
385.35	3024.00
386.13	3037.00
386.90	3075.00
387.67	3084.00
388.45	3096.00
389.22	3109.00
390.00	3138.00
390.77	3156.00
391.55	3169.00
392.32	3202.00
393.10	3210.00
393.87	3226.00
394.65	3252.00
395.42	3283.00
396.19	3283.00
396.97	3309.00
397.74	3342.00
398.52	3353.00
399.29	3381.00
400.06	3396.00
400.84	3422.00
401.61	3447.00
402.38	3460.00
403.16	3479.00
403.93	3513.00
404.70	3544.00
405.48	3565.00
406.25	3593.00
407.02	3611.00
407.80	3640.00
408.57	3663.00
409.34	3688.00
410.12	3720.00
410.89	3733.00
411.66	3757.00
412.43	3789.00
413.21	3823.00
413.98	3862.00
414.75	3869.00
415.52	3896.00
416.30	3919.00
417.07	3942.00
417.84	3971.00
418.61	4013.00
419.39	4038.00
420.16	4073.00
420.93	4110.00
421.70	4140.00
422.47	4184.00
423.24	4195.00
424.02	4236.00
424.79	4262.00
425.56	4307.00
426.33	4358.00
427.10	4377.00
427.87	4406.00
428.64	4456.00
429.42	4503.00
430.19	4523.00
430.96	4584.00
431.73	4612.00
432.50	4659.00
433.27	4703.00
434.04	4764.00
434.81	4818.00
435.58	4838.00
436.35	4876.00
437.12	4930.00
437.89	4995.00
438.67	5063.00
439.44	5102.00
440.21	5142.00
440.98	5188.00
441.75	5256.00
442.52	5306.00
443.29	5365.00
444.06	5427.00
444.83	5474.00
445.60	5548.00
446.37	5610.00
447.13	5661.00
447.90	5733.00
448.67	5812.00
449.44	5863.00
450.21	5923.00
450.98	5998.00
451.75	6087.00
452.52	6149.00
453.29	6203.00
454.06	6281.00
454.83	6372.00
455.60	6441.00
456.37	6508.00
457.13	6593.00
457.90	6684.00
458.67	6756.00
459.44	6856.00
460.21	6925.00
460.98	6989.00
461.75	7104.00
462.51	7175.00
463.28	7291.00
464.05	7381.00
464.82	7486.00
465.59	7557.00
466.35	7661.00
467.12	7742.00
467.89	7822.00
468.66	7935.00
469.43	8032.00
470.19	8131.00
470.96	8249.00
471.73	8337.00
472.50	8447.00
473.26	8545.00
474.03	8646.00
474.80	8754.00
475.56	8873.00
476.33	8979.00
477.10	9065.00
477.87	9187.00
478.63	9306.00
479.40	9459.00
480.17	9555.00
480.93	9682.00
481.70	9745.00
482.47	9883.00
483.23	10020.00
484.00	10141.00
484.76	10334.00
485.53	10430.00
486.30	10525.00
487.06	10656.00
487.83	10784.00
488.60	10924.00
489.36	11076.00
490.13	11183.00
490.89	11312.00
491.66	11428.00
492.42	11577.00
493.19	11754.00
493.96	11851.00
494.72	11972.00
495.49	12105.00
496.25	12264.00
497.02	12383.00
497.78	12534.00
498.55	12676.00
499.31	12797.00
500.08	12957.00
500.84	13086.00
501.61	13267.00
502.37	13393.00
503.14	13559.00
503.90	13666.00
504.67	13834.00
505.43	13960.00
506.20	14144.00
506.96	14342.00
507.72	14484.00
508.49	14621.00
509.25	14807.00
510.02	14971.00
510.78	15165.00
511.54	15339.00
512.31	15546.00
513.07	15611.00
513.84	15807.00
514.60	15958.00
515.36	16121.00
516.13	16318.00
516.89	16440.00
517.65	16549.00
518.42	16715.00
519.18	16759.00
519.94	17053.00
520.71	17171.00
521.47	17364.00
522.23	17521.00
523.00	17662.00
523.76	17822.00
524.52	18087.00
525.28	18257.00
526.05	18353.00
526.81	18657.00
527.57	18759.00
528.33	18949.00
529.10	19083.00
529.86	19275.00
530.62	19469.00
531.38	19620.00
532.15	19814.00
532.91	19865.00
533.67	20050.00
534.43	20277.00
535.19	20481.00
535.96	20686.00
536.72	20834.00
537.48	20928.00
538.24	21049.00
539.00	21289.00
539.76	21569.00
540.53	21799.00
541.29	21948.00
542.05	22125.00
542.81	22332.00
543.57	22606.00
544.33	22745.00
545.09	22935.00
545.85	23060.00
546.61	23267.00
547.38	23414.00
548.14	23570.00
548.90	23763.00
549.66	23980.00
550.42	24141.00
551.18	24407.00
551.94	24542.00
552.70	24687.00
553.46	24955.00
554.22	25145.00
554.98	25340.00
555.74	25471.00
556.50	25571.00
557.26	25822.00
558.02	26029.00
558.78	26382.00
559.54	26452.00
560.30	26662.00
561.06	26896.00
561.82	27071.00
562.58	27276.00
563.34	27479.00
564.10	27671.00
564.86	27877.00
565.61	27985.00
566.37	28249.00
567.13	28476.00
567.89	28652.00
568.65	28858.00
569.41	29023.00
570.17	29267.00
570.93	29382.00
571.69	29552.00
572.44	29796.00
573.20	29905.00
573.96	30101.00
574.72	30260.00
575.48	30490.00
576.24	30661.00
576.99	30835.00
577.75	31139.00
578.51	31229.00
579.27	31503.00
580.03	31642.00
580.78	31891.00
581.54	32126.00
582.30	32305.00
583.06	32430.00
583.82	32615.00
584.57	32829.00
585.33	33049.00
586.09	33120.00
586.84	33293.00
587.60	33449.00
588.36	33487.00
589.12	33794.00
589.87	33961.00
590.63	34140.00
591.39	34403.00
592.14	34473.00
592.90	34662.00
593.66	34839.00
594.41	35074.00
595.17	35319.00
595.93	35390.00
596.68	35522.00
597.44	35649.00
598.20	35903.00
598.95	36211.00
599.71	36454.00
600.46	36613.00
601.22	36732.00
601.98	36915.00
602.73	37164.00
603.49	37463.00
604.24	37694.00
605.00	37805.00
605.76	37998.00
606.51	38123.00
607.27	38389.00
608.02	38607.00
608.78	38841.00
609.53	38975.00
610.29	39174.00
611.04	39419.00
611.80	39701.00
612.55	40008.00
613.31	40222.00
614.06	40400.00
614.82	40641.00
615.57	40879.00
616.33	41025.00
617.08	41202.00
617.84	41385.00
618.59	41490.00
619.35	41454.00
620.10	41463.00
620.85	41484.00
621.61	41498.00
622.36	41491.00
623.12	41530.00
623.87	41646.00
624.62	41801.00
625.38	41924.00
626.13	42062.00
626.89	42280.00
627.64	42481.00
628.39	42551.00
629.15	42611.00
629.90	42720.00
630.65	42757.00
631.41	42752.00
632.16	42799.00
632.91	42700.00
633.67	42730.00
634.42	42767.00
635.17	43010.00
635.92	43307.00
636.68	43750.00
637.43	44317.00
638.18	44826.00
638.94	45153.00
639.69	45538.00
640.44	45845.00
641.19	46441.00
641.95	46756.00
642.70	46992.00
643.45	47236.00
644.20	47366.00
644.95	47615.00
645.71	47751.00
646.46	47902.00
647.21	48005.00
647.96	48133.00
648.71	48209.00
649.47	48293.00
650.22	48364.00
650.97	48516.00
651.72	48686.00
652.47	48918.00
653.22	48912.00
653.97	49116.00
654.73	49223.00
655.48	49424.00
656.23	49554.00
656.98	49859.00
657.73	50075.00
658.48	50250.00
659.23	50193.00
659.98	50319.00
660.73	50286.00
661.48	50378.00
662.23	50459.00
662.99	50466.00
663.74	50509.00
664.49	50827.00
665.24	51283.00
665.99	51699.00
666.74	51753.00
667.49	51764.00
668.24	51956.00
668.99	52033.00
669.74	52265.00
670.49	52303.00
671.24	52360.00
671.99	52675.00
672.74	52696.00
673.48	52873.00
674.23	52918.00
674.98	53035.00
675.73	53131.00
676.48	53171.00
677.23	53312.00
677.98	53471.00
678.73	53536.00
679.48	53558.00
680.23	53637.00
680.98	53555.00
681.73	53576.00
682.47	53671.00
683.22	53591.00
683.97	53611.00
684.72	53684.00
685.47	53917.00
686.22	54073.00
686.97	54226.00
687.71	54350.00
688.46	54614.00
689.21	54680.00
689.96	54664.00
690.71	54688.00
691.45	54731.00
692.20	54839.00
692.95	54878.00
693.70	54858.00
694.44	54966.00
695.19	55092.00
695.94	55207.00
696.69	55286.00
697.43	55315.00
698.18	55270.00
698.93	55396.00
699.68	55439.00
700.42	55389.00
701.17	55545.00
701.92	55526.00
702.66	55590.00
703.41	55698.00
704.16	55838.00
704.90	55775.00
705.65	55811.00
706.40	55840.00
707.14	55851.00
707.89	56022.00
708.64	56024.00
709.38	55959.00
710.13	56031.00
710.88	56108.00
711.62	56224.00
712.37	56153.00
713.11	56140.00
713.86	56386.00
714.61	56315.00
715.35	56138.00
716.10	55931.00
716.84	55817.00
717.59	55572.00
718.33	55352.00
719.08	55176.00
719.83	55114.00
720.57	55038.00
721.32	54904.00
722.06	54862.00
722.81	54850.00
723.55	54889.00
724.30	55130.00
725.04	55192.00
725.79	55177.00
726.53	55153.00
727.28	55040.00
728.02	55160.00
728.76	55212.00
729.51	55301.00
730.25	55332.00
731.00	55344.00
731.74	55342.00
732.49	55331.00
733.23	55203.00
733.97	55097.00
734.72	55046.00
735.46	54802.00
736.21	54889.00
736.95	54816.00
737.69	54915.00
738.44	55070.00
739.18	55217.00
739.92	55254.00
740.67	55328.00
741.41	55381.00
742.15	55604.00
742.90	55657.00
743.64	55660.00
744.38	55776.00
745.13	55730.00
745.87	55786.00
746.61	55723.00
747.36	55723.00
748.10	55637.00
748.84	55661.00
749.58	55567.00
750.33	55499.00
751.07	55334.00
751.81	55218.00
752.55	55183.00
753.30	55097.00
754.04	55070.00
754.78	54764.00
755.52	54591.00
756.27	54417.00
757.01	54305.00
757.75	54379.00
758.49	54505.00
759.23	54521.00
759.97	54411.00
760.72	54369.00
761.46	54441.00
762.20	54491.00
762.94	54451.00
763.68	54333.00
764.42	54241.00
765.16	54169.00
765.91	54095.00
766.65	54043.00
767.39	53957.00
768.13	53843.00
768.87	53950.00
769.61	53900.00
770.35	53875.00
771.09	53696.00
771.83	53590.00
772.57	53593.00
773.31	53693.00
774.05	53603.00
774.80	53612.00
775.54	53454.00
776.28	53340.00
777.02	53222.00
777.76	53171.00
778.50	52963.00
779.24	52702.00
779.98	52622.00
780.72	52546.00
781.46	52466.00
782.20	52529.00
782.93	52501.00
783.67	52414.00
784.41	52227.00
785.15	52203.00
785.89	52036.00
786.63	51793.00
787.37	51568.00
788.11	51369.00
788.85	51276.00
789.59	51176.00
790.33	51211.00
791.07	51236.00
791.81	51059.00
792.54	50875.00
793.28	50707.00
794.02	50528.00
794.76	50268.00
795.50	50033.00
796.24	49864.00
796.97	49538.00
797.71	49377.00
798.45	49167.00
799.19	49082.00
799.93	49038.00
800.67	48847.00
801.40	48906.00
802.14	49014.00
802.88	49151.00
803.62	49130.00
804.35	49050.00
805.09	48942.00
805.83	48929.00
806.57	48743.00
807.30	48676.00
808.04	48684.00
808.78	48526.00
809.52	48171.00
810.25	47982.00
810.99	47768.00
811.73	47790.00
812.46	47685.00
813.20	47672.00
813.94	47669.00
814.68	47532.00
815.41	47538.00
816.15	47522.00
816.88	47647.00
817.62	47708.00
818.36	47544.00
819.09	47252.00
819.83	47064.00
820.57	46973.00
821.30	46806.00
822.04	46754.00
822.77	46487.00
823.51	46329.00
824.25	46182.00
824.98	46192.00
825.72	46122.00
826.45	46020.00
827.19	45850.00
827.92	45626.00
828.66	45246.00
829.40	45151.00
830.13	45099.00
830.87	45054.00
831.60	44989.00
832.34	44923.00
833.07	44828.00
833.81	44828.00
834.54	44937.00
835.28	44935.00
836.01	44946.00
836.75	44776.00
837.48	44434.00
838.22	44288.00
838.95	44198.00
839.68	44091.00
840.42	44269.00
841.15	44145.00
841.89	44049.00
842.62	43714.00
843.36	43697.00
844.09	43641.00
844.82	43690.00
845.56	43616.00
846.29	43477.00
847.02	43350.00
847.76	43243.00
848.49	43257.00
849.23	43486.00
849.96	43758.00
850.69	43820.00
851.43	43609.00
852.16	43276.00
852.89	42896.00
853.63	42791.00
854.36	42556.00
855.09	42644.00
855.82	42541.00
856.56	42393.00
857.29	42136.00
858.02	42115.00
858.76	42025.00
859.49	42085.00
860.22	42030.00
860.95	41862.00
861.69	41722.00
862.42	41597.00
863.15	41429.00
863.88	41323.00
864.61	41408.00
865.35	41405.00
866.08	41326.00
866.81	41217.00
867.54	40927.00
868.27	40851.00
869.01	40875.00
869.74	40800.00
870.47	40782.00
871.20	40616.00
871.93	40390.00
872.66	40200.00
873.40	39944.00
874.13	39885.00
874.86	39667.00
875.59	39543.00
876.32	39520.00
877.05	39280.00
877.78	39247.00
878.51	39031.00
879.24	38953.00
879.97	38759.00
880.71	38552.00
881.44	38466.00
882.17	38395.00
882.90	38262.00
883.63	38069.00
884.36	38078.00
885.09	38157.00
885.82	38236.00
886.55	38326.00
887.28	38288.00
888.01	38223.00
888.74	38104.00
889.47	37758.00
890.20	37555.00
890.93	37285.00
891.66	37221.00
892.39	37061.00
893.12	37046.00
893.85	37048.00
894.57	37058.00
895.30	36997.00
896.03	37018.00
896.76	36877.00
897.49	36851.00
898.22	36551.00
898.95	36342.00
899.68	36251.00
900.41	35925.00
901.14	35860.00
901.86	35677.00
902.59	35741.00
903.32	35690.00
904.05	35628.00
904.78	35502.00
905.51	35408.00
906.24	35265.00
906.96	35161.00
907.69	35101.00
908.42	34844.00
909.15	34649.00
909.88	34558.00
910.60	34257.00
911.33	34204.00
912.06	34091.00
912.79	33905.00
913.52	33797.00
914.24	33754.00
914.97	33720.00
915.70	33446.00
916.42	33290.00
917.15	33212.00
917.88	32934.00
918.61	32762.00
919.33	32429.00
920.06	32180.00
920.79	31936.00
921.51	31801.00
922.24	31721.00
922.97	31595.00
923.69	31475.00
924.42	31302.00
925.15	31145.00
925.87	31033.00
926.60	30780.00
927.33	30531.00
928.05	30174.00
928.78	29932.00
929.51	29613.00
930.23	29326.00
930.96	29025.00
931.68	28650.00
932.41	28354.00
933.14	28008.00
933.86	27790.00
934.59	27390.00
935.31	27039.00
936.04	26548.00
936.76	26104.00
937.49	25656.00
938.21	25119.00
938.94	24694.00
939.66	24213.00
940.39	23816.00
941.11	23539.00
941.84	23144.00
942.56	22827.00
943.29	22556.00
944.01	22368.00
944.74	22311.00
945.46	22283.00
946.19	22187.00
946.91	22259.00
947.64	22332.00
948.36	22396.00
949.09	22437.00
949.81	22496.00
950.53	22530.00
951.26	22630.00
951.98	22682.00
952.71	22765.00
953.43	22837.00
954.15	23017.00
954.88	23059.00
955.60	23111.00
956.33	23096.00
957.05	23155.00
957.77	23253.00
958.50	23299.00
959.22	23351.00
959.94	23299.00
960.67	23184.00
961.39	23198.00
962.11	23172.00
962.84	23356.00
963.56	23193.00
964.28	23128.00
965.00	23008.00
965.73	22852.00
966.45	22690.00
967.17	22575.00
967.89	22398.00
968.62	22187.00
969.34	22088.00
970.06	21913.00
970.78	21797.00
971.51	21703.00
972.23	21586.00
972.95	21389.00
973.67	21211.00
974.40	21090.00
975.12	20940.00
975.84	20751.00
976.56	20646.00
977.28	20501.00
978.00	20335.00
978.73	20289.00
979.45	20168.00
980.17	20140.00
980.89	20115.00
981.61	20017.00
982.33	19973.00
983.05	19848.00
983.77	19838.00
984.50	19746.00
985.22	19628.00
985.94	19535.00
986.66	19514.00
987.38	19409.00
988.10	19358.00
988.82	19373.00
989.54	19272.00
990.26	19097.00
990.98	19038.00
991.70	18869.00
992.42	18777.00
993.14	18535.00
993.86	18396.00
994.58	18313.00
995.30	18194.00
996.02	18089.00
996.74	17961.00
997.46	17894.00
998.18	17836.00
998.90	17680.00
999.62	17553.00
1000.34	17470.00
1001.06	17400.00
1001.78	17326.00
1002.50	17216.00
1003.22	17002.00
1003.94	16818.00
1004.66	16692.00
1005.38	16527.00
1006.09	16420.00
1006.81	16236.00
1007.53	16016.00
1008.25	15912.00
1008.97	15814.00
1009.69	15779.00
1010.41	15679.00
1011.13	15488.00
1011.84	15378.00
1012.56	15145.00
1013.28	15032.00
1014.00	14915.00
1014.72	14701.00
1015.44	14539.00
1016.15	14359.00
1016.87	14139.00
1017.59	14013.00
1018.31	13828.00
1019.03	13769.00
1019.74	13675.00
1020.46	13621.00
1021.18	13474.00
1021.90	13361.00
1022.61	13250.00
1023.33	13191.00
1024.05	12976.00
1024.76	12816.00
1025.48	12660.00
1026.20	12464.00
1026.92	12244.00
1027.63	12098.00
1028.35	11943.00
1029.07	11808.00
1029.78	11677.00
1030.50	11515.00
1031.22	11407.00
1031.93	11269.00
1032.65	11158.00
1033.37	11024.00
1034.08	10951.00
1034.80	10865.00
1035.52	10755.00
1036.23	10697.00
1036.95	10564.00
1037.66	10533.00
1038.38	10413.00
1039.10	10248.00
1039.81	10068.00
1040.53	9923.00
1041.24	9751.00
1041.96	9611.00
1042.67	9523.00
1043.39	9409.00
1044.10	9303.00
1044.82	9191.00
1045.54	9076.00
1046.25	9007.00
1046.97	8875.00
1047.68	8745.00
1048.40	8594.00
1049.11	8452.00
1049.83	8297.00
1050.54	8231.00
1051.26	8097.00
1051.97	8031.00
1052.68	7900.00
1053.40	7781.00
1054.11	7712.00
1054.83	7589.00
1055.54	7467.00
1056.26	7368.00
1056.97	7292.00
1057.69	7197.00
1058.40	7090.00
1059.11	7002.00
1059.83	6881.00
1060.54	6750.00
1061.25	6588.00
1061.97	6426.00
1062.68	6308.00
1063.40	6198.00
1064.11	6090.00
1064.82	5948.00
1065.54	5840.00
1066.25	2565.00
1066.96	2562.00
1067.68	2568.00
1068.39	2563.00
1069.10	2617.00
1069.82	2620.00
1070.53	2621.00
1071.24	2619.00
1071.95	2616.00
1072.67	2619.00
1073.38	5716.00
1074.09	5604.00
1074.80	5473.00
1075.52	5398.00
1076.23	5269.00
1076.94	5167.00
1077.65	2590.00
1078.37	2589.00
1079.08	2590.00
1079.79	2606.00
