300.47	2622.00
301.26	2614.00
302.04	2620.00
302.82	2619.00
303.60	2618.00
304.38	2615.00
305.17	2624.00
305.95	2619.00
306.73	2618.00
307.51	2617.00
308.29	2623.00
309.08	2620.00
309.86	2622.00
310.64	2618.00
311.42	2620.00
312.20	2623.00
312.98	2620.00
313.76	2618.00
314.55	2620.00
315.33	2622.00
316.11	2615.00
316.89	2620.00
317.67	2620.00
318.45	2616.00
319.23	2617.00
320.01	2621.00
320.79	2617.00
321.57	2624.00
322.35	2623.00
323.13	2621.00
323.91	2618.00
324.69	2620.00
325.47	2622.00
326.25	2622.00
327.03	2623.00
327.81	2622.00
328.59	2630.00
329.37	2625.00
330.15	2627.00
330.93	2625.00
331.71	2625.00
332.49	2628.00
333.27	2629.00
334.05	2625.00
334.83	2628.00
335.61	2627.00
336.39	2626.00
337.17	2632.00
337.95	2627.00
338.73	2627.00
339.51	2631.00
340.29	2633.00
341.07	2637.00
341.84	2634.00
342.62	2633.00
343.40	2643.00
344.18	2637.00
344.96	2645.00
345.74	2645.00
346.52	2647.00
347.29	2649.00
348.07	2655.00
348.85	2652.00
349.63	2657.00
350.41	2658.00
351.18	2658.00
351.96	2669.00
352.74	2669.00
353.52	2673.00
354.30	2675.00
355.07	2687.00
355.85	2682.00
356.63	2685.00
357.41	2689.00
358.18	2693.00
358.96	2699.00
359.74	2704.00
360.52	2709.00
361.29	2715.00
362.07	2719.00
362.85	2734.00
363.62	2732.00
364.40	2744.00
365.18	2746.00
365.95	2744.00
366.73	2756.00
367.51	2771.00
368.28	2772.00
369.06	2782.00
369.84	2784.00
370.61	2799.00
371.39	2810.00
372.17	2817.00
372.94	2822.00
373.72	2840.00
374.49	2844.00
375.27	2851.00
376.05	2860.00
376.82	2883.00
377.60	2892.00
378.37	2901.00
379.15	2925.00
379.92	2934.00
380.70	2945.00
381.47	2957.00
382.25	2971.00
383.02	2991.00
383.80	2996.00
384.58	3017.00
385.35	3028.00
386.13	3051.00
386.90	3069.00
387.67	3078.00
388.45	3106.00
389.22	3114.00
390.00	3142.00
390.77	3151.00
391.55	3174.00
392.32	3200.00
393.10	3211.00
393.87	3227.00
394.65	3246.00
395.42	3260.00
396.19	3290.00
396.97	3318.00
397.74	3336.00
398.52	3354.00
399.29	3390.00
400.06	3406.00
400.84	3425.00
401.61	3447.00
402.38	3477.00
403.16	3494.00
403.93	3521.00
404.70	3540.00
405.48	3566.00
406.25	3588.00
407.02	3620.00
407.80	3641.00
408.57	3660.00
409.34	3687.00
410.12	3716.00
410.89	3746.00
411.66	3760.00
412.43	3804.00
413.21	3824.00
413.98	3841.00
414.75	3872.00
415.52	3910.00
416.30	3933.00
417.07	3962.00
417.84	3993.00
418.61	4014.00
419.39	4042.00
420.16	4085.00
420.93	4110.00
421.70	4134.00
422.47	4174.00
423.24	4195.00
424.02	4247.00
424.79	4280.00
425.56	4310.00
426.33	4344.00
427.10	4378.00
427.87	4429.00
428.64	4457.00
429.42	4486.00
430.19	4538.00
430.96	4573.00
431.73	4637.00
432.50	4680.00
433.27	4716.00
434.04	4753.00
434.81	4803.00
435.58	4845.00
436.35	4885.00
437.12	4962.00
437.89	5014.00
438.67	5047.00
439.44	5113.00
440.21	5146.00
440.98	5211.00
441.75	5271.00
442.52	5321.00
443.29	5361.00
444.06	5442.00
444.83	5494.00
445.60	5565.00
446.37	5625.00
447.13	5660.00
447.90	5745.00
448.67	5809.00
449.44	5880.00
450.21	5940.00
450.98	6028.00
451.75	6059.00
452.52	6121.00
453.29	6234.00
454.06	6300.00
454.83	6392.00
455.60	6438.00
456.37	6520.00
457.13	6612.00
457.90	6712.00
458.67	6797.00
459.44	6871.00
460.21	6935.00
460.98	7002.00
461.75	7104.00
462.51	7203.00
463.28	7301.00
464.05	7382.00
464.82	7491.00
465.59	7571.00
466.35	7640.00
467.12	7732.00
467.89	7862.00
468.66	7980.00
469.43	8043.00
470.19	8155.00
470.96	8265.00
471.73	8362.00
472.50	8460.00
473.26	8556.00
474.03	8706.00
474.80	8781.00
475.56	8898.00
476.33	8992.00
477.10	9112.00
477.87	9232.00
478.63	9356.00
479.40	9456.00
480.17	9552.00
480.93	9674.00
481.70	9822.00
482.47	9881.00
483.23	10043.00
484.00	10175.00
484.76	10338.00
485.53	10437.00
486.30	10545.00
487.06	10679.00
487.83	10832.00
488.60	10956.00
489.36	11078.00
490.13	11163.00
490.89	11331.00
491.66	11461.00
492.42	11596.00
493.19	11756.00
493.96	11878.00
494.72	11998.00
495.49	12148.00
496.25	12246.00
497.02	12423.00
497.78	12595.00
498.55	12703.00
499.31	12811.00
500.08	12967.00
500.84	13151.00
501.61	13256.00
502.37	13438.00
503.14	13557.00
503.90	13718.00
504.67	13857.00
505.43	14010.00
506.20	14217.00
506.96	14392.00
507.72	14503.00
508.49	14631.00
509.25	14840.00
510.02	15028.00
510.78	15145.00
511.54	15352.00
512.31	15561.00
513.07	15697.00
513.84	15853.00
514.60	15944.00
515.36	16181.00
516.13	16335.00
516.89	16408.00
517.65	16571.00
518.42	16725.00
519.18	16893.00
519.94	17081.00
520.71	17242.00
521.47	17354.00
522.23	17546.00
523.00	17776.00
523.76	17955.00
524.52	18150.00
525.28	18273.00
526.05	18418.00
526.81	18583.00
527.57	18801.00
528.33	18975.00
529.10	19102.00
529.86	19325.00
530.62	19440.00
531.38	19679.00
532.15	19815.00
532.91	19943.00
533.67	20155.00
534.43	20283.00
535.19	20542.00
535.96	20673.00
536.72	20878.00
537.48	20984.00
538.24	21204.00
539.00	21340.00
539.76	21588.00
540.53	21870.00
541.29	22024.00
542.05	22196.00
542.81	22397.00
543.57	22595.00
544.33	22852.00
545.09	23055.00
545.85	23191.00
546.61	23306.00
547.38	23436.00
548.14	23655.00
548.90	23884.00
549.66	24034.00
550.42	24280.00
551.18	24425.00
551.94	24613.00
552.70	24727.00
553.46	24969.00
554.22	25145.00
554.98	25349.00
555.74	25545.00
556.50	25658.00
557.26	25914.00
558.02	26235.00
558.78	26414.00
559.54	26559.00
560.30	26707.00
561.06	26941.00
561.82	27108.00
562.58	27283.00
563.34	27600.00
564.10	27721.00
564.86	27937.00
565.61	28145.00
566.37	28337.00
567.13	28541.00
567.89	28743.00
568.65	28915.00
569.41	29039.00
570.17	29279.00
570.93	29402.00
571.69	29636.00
572.44	29750.00
573.20	29959.00
573.96	30152.00
574.72	30338.00
575.48	30523.00
576.24	30754.00
576.99	30973.00
577.75	31137.00
578.51	31351.00
579.27	31568.00
580.03	31796.00
580.78	31981.00
581.54	32297.00
582.30	32357.00
583.06	32553.00
583.82	32668.00
584.57	32870.00
585.33	33087.00
586.09	33266.00
586.84	33439.00
587.60	33551.00
588.36	33579.00
589.12	33861.00
589.87	34023.00
590.63	34218.00
591.39	34396.00
592.14	34578.00
592.90	34669.00
593.66	34933.00
594.41	35230.00
595.17	35385.00
595.93	35525.00
596.68	35618.00
597.44	35699.00
598.20	35983.00
598.95	36237.00
599.71	36491.00
600.46	36642.00
601.22	36752.00
601.98	36964.00
602.73	37207.00
603.49	37576.00
604.24	37780.00
605.00	37944.00
605.76	38005.00
606.51	38295.00
607.27	38456.00
608.02	38705.00
608.78	38915.00
609.53	39146.00
610.29	39252.00
611.04	39492.00
611.80	39711.00
612.55	40067.00
613.31	40277.00
614.06	40598.00
614.82	40740.00
615.57	40972.00
616.33	41134.00
617.08	41359.00
617.84	41451.00
618.59	41572.00
619.35	41557.00
620.10	41528.00
620.85	41557.00
621.61	41555.00
622.36	41682.00
623.12	41637.00
623.87	41738.00
624.62	41910.00
625.38	42010.00
626.13	42167.00
626.89	42322.00
627.64	42608.00
628.39	42589.00
629.15	42658.00
629.90	42792.00
630.65	42832.00
631.41	42964.00
632.16	42885.00
632.91	42850.00
633.67	42800.00
634.42	42963.00
635.17	43026.00
635.92	43421.00
636.68	43885.00
637.43	44368.00
638.18	44928.00
638.94	45284.00
639.69	45669.00
640.44	45989.00
641.19	46489.00
641.95	46847.00
642.70	47150.00
643.45	47357.00
644.20	47590.00
644.95	47810.00
645.71	47887.00
646.46	47959.00
647.21	48150.00
647.96	48258.00
648.71	48332.00
649.47	48518.00
650.22	48591.00
650.97	48649.00
651.72	48743.00
652.47	48916.00
653.22	49103.00
653.97	49240.00
654.73	49379.00
655.48	49543.00
656.23	49631.00
656.98	50059.00
657.73	50195.00
658.48	50336.00
659.23	50370.00
659.98	50499.00
660.73	50454.00
661.48	50667.00
662.23	50650.00
662.99	50684.00
663.74	50656.00
664.49	51049.00
665.24	51416.00
665.99	51806.00
666.74	51942.00
667.49	52001.00
668.24	52062.00
668.99	52173.00
669.74	52407.00
670.49	52463.00
671.24	52656.00
671.99	52731.00
672.74	52900.00
673.48	53028.00
674.23	53213.00
674.98	53264.00
675.73	53211.00
676.48	53368.00
677.23	53542.00
677.98	53609.00
678.73	53691.00
679.48	53714.00
680.23	53777.00
680.98	53875.00
681.73	53692.00
682.47	53724.00
683.22	53755.00
683.97	53819.00
684.72	53918.00
685.47	54018.00
686.22	54131.00
686.97	54425.00
687.71	54569.00
688.46	54786.00
689.21	54841.00
689.96	54771.00
690.71	54910.00
691.45	54915.00
692.20	54937.00
692.95	54907.00
693.70	55028.00
694.44	55048.00
695.19	55262.00
695.94	55341.00
696.69	55453.00
697.43	55422.00
698.18	55460.00
698.93	55508.00
699.68	55657.00
700.42	55575.00
701.17	55665.00
701.92	55594.00
702.66	55827.00
703.41	55997.00
704.16	55920.00
704.90	55999.00
705.65	56065.00
706.40	56066.00
707.14	56013.00
707.89	56128.00
708.64	56098.00
709.38	56174.00
710.13	56210.00
710.88	56381.00
711.62	56442.00
712.37	56356.00
713.11	56493.00
713.86	56454.00
714.61	56560.00
715.35	56353.00
716.10	56219.00
716.84	55984.00
717.59	55687.00
718.33	55620.00
719.08	55433.00
719.83	55289.00
720.57	55119.00
721.32	55080.00
722.06	55075.00
722.81	54978.00
723.55	55068.00
724.30	55215.00
725.04	55274.00
725.79	55297.00
726.53	55314.00
727.28	55231.00
728.02	55244.00
728.76	55370.00
729.51	55539.00
730.25	55529.00
731.00	55440.00
731.74	55534.00
732.49	55432.00
733.23	55365.00
733.97	55298.00
734.72	55105.00
735.46	55091.00
736.21	54960.00
736.95	55006.00
737.69	55073.00
738.44	55136.00
739.18	55271.00
739.92	55409.00
740.67	55477.00
741.41	55555.00
742.15	55704.00
742.90	55863.00
743.64	56015.00
744.38	55953.00
745.13	55959.00
745.87	55905.00
746.61	55907.00
747.36	55816.00
748.10	55946.00
748.84	55925.00
749.58	55734.00
750.33	55633.00
751.07	55627.00
751.81	55458.00
752.55	55341.00
753.30	55301.00
754.04	55168.00
754.78	55012.00
755.52	54783.00
756.27	54621.00
757.01	54475.00
757.75	54603.00
758.49	54636.00
759.23	54716.00
759.97	54577.00
760.72	54580.00
761.46	54537.00
762.20	54620.00
762.94	54589.00
763.68	54566.00
764.42	54464.00
765.16	54355.00
765.91	54351.00
766.65	54239.00
767.39	54186.00
768.13	53971.00
768.87	54081.00
769.61	54092.00
770.35	54086.00
771.09	53938.00
771.83	53721.00
772.57	53713.00
773.31	53816.00
774.05	53729.00
774.80	53781.00
775.54	53683.00
776.28	53465.00
777.02	53357.00
777.76	53364.00
778.50	53163.00
779.24	52873.00
779.98	52792.00
780.72	52804.00
781.46	52612.00
782.20	52664.00
782.93	52662.00
783.67	52551.00
784.41	52436.00
785.15	52296.00
785.89	52180.00
786.63	51943.00
787.37	51774.00
788.11	51655.00
788.85	51373.00
789.59	51381.00
790.33	51347.00
791.07	51342.00
791.81	51276.00
792.54	51070.00
793.28	50941.00
794.02	50718.00
794.76	50427.00
795.50	50233.00
796.24	49984.00
796.97	49812.00
797.71	49430.00
798.45	49261.00
799.19	49297.00
799.93	49195.00
800.67	49031.00
801.40	49088.00
802.14	49186.00
802.88	49188.00
803.62	49282.00
804.35	49138.00
805.09	49165.00
805.83	48943.00
806.57	48875.00
807.30	48862.00
808.04	48812.00
808.78	48735.00
809.52	48360.00
810.25	48146.00
810.99	47999.00
811.73	47854.00
812.46	47909.00
813.20	47798.00
813.94	47893.00
814.68	47657.00
815.41	47658.00
816.15	47595.00
816.88	47819.00
817.62	47864.00
818.36	47739.00
819.09	47469.00
819.83	47187.00
820.57	47124.00
821.30	46906.00
822.04	46759.00
822.77	46587.00
823.51	46496.00
824.25	46378.00
824.98	46342.00
825.72	46350.00
826.45	46226.00
827.19	45980.00
827.92	45733.00
828.66	45500.00
829.40	45272.00
830.13	45241.00
830.87	45211.00
831.60	45265.00
832.34	45071.00
833.07	44942.00
833.81	44907.00
834.54	45003.00
835.28	45096.00
836.01	45011.00
836.75	44895.00
837.48	44642.00
838.22	44419.00
838.95	44234.00
839.68	44277.00
840.42	44446.00
841.15	44342.00
841.89	44146.00
842.62	43931.00
843.36	43783.00
844.09	43732.00
844.82	43813.00
845.56	43815.00
846.29	43627.00
847.02	43449.00
847.76	43338.00
848.49	43431.00
849.23	43610.00
849.96	43868.00
850.69	43902.00
851.43	43690.00
852.16	43365.00
852.89	43191.00
853.63	42861.00
854.36	42779.00
855.09	42678.00
855.82	42654.00
856.56	42458.00
857.29	42395.00
858.02	42233.00
858.76	42274.00
859.49	42160.00
860.22	42114.00
860.95	42024.00
861.69	41816.00
862.42	41716.00
863.15	41550.00
863.88	41517.00
864.61	41562.00
865.35	41603.00
866.08	41467.00
866.81	41295.00
867.54	41082.00
868.27	40968.00
869.01	40922.00
869.74	40848.00
870.47	40965.00
871.20	40749.00
871.93	40493.00
872.66	40415.00
873.40	40167.00
874.13	39954.00
874.86	39848.00
875.59	39645.00
876.32	39593.00
877.05	39466.00
877.78	39279.00
878.51	39183.00
879.24	39039.00
879.97	38833.00
880.71	38728.00
881.44	38631.00
882.17	38575.00
882.90	38307.00
883.63	38242.00
884.36	38196.00
885.09	38203.00
885.82	38365.00
886.55	38381.00
887.28	38430.00
888.01	38412.00
888.74	38121.00
889.47	37919.00
890.20	37654.00
890.93	37426.00
891.66	37281.00
892.39	37236.00
893.12	37171.00
893.85	37161.00
894.57	37169.00
895.30	37165.00
896.03	37141.00
896.76	36984.00
897.49	36974.00
898.22	36628.00
898.95	36544.00
899.68	36232.00
900.41	36080.00
901.14	35869.00
901.86	35774.00
902.59	35841.00
903.32	35848.00
904.05	35773.00
904.78	35635.00
905.51	35483.00
906.24	35381.00
906.96	35356.00
907.69	35110.00
908.42	34991.00
909.15	34786.00
909.88	34579.00
910.60	34492.00
911.33	34355.00
912.06	34181.00
912.79	34040.00
913.52	33943.00
914.24	33827.00
914.97	33854.00
915.70	33567.00
916.42	33447.00
917.15	33212.00
917.88	33071.00
918.61	32882.00
919.33	32591.00
920.06	32270.00
920.79	32123.00
921.51	31892.00
922.24	31841.00
922.97	31662.00
923.69	31550.00
924.42	31460.00
925.15	31232.00
925.87	31048.00
926.60	30901.00
927.33	30611.00
928.05	30238.00
928.78	30026.00
929.51	29714.00
930.23	29402.00
930.96	29101.00
931.68	28785.00
932.41	28457.00
933.14	28146.00
933.86	27894.00
934.59	27510.00
935.31	27146.00
936.04	26645.00
936.76	26223.00
937.49	25661.00
938.21	25194.00
938.94	24713.00
939.66	24302.00
940.39	23902.00
941.11	23561.00
941.84	23192.00
942.56	22877.00
943.29	22668.00
944.01	22472.00
944.74	22422.00
945.46	22323.00
946.19	22272.00
946.91	22366.00
947.64	22362.00
948.36	22442.00
949.09	22506.00
949.81	22586.00
950.53	22663.00
951.26	22722.00
951.98	22785.00
952.71	22850.00
953.43	22941.00
954.15	23057.00
954.88	23079.00
955.60	23147.00
956.33	23198.00
957.05	23292.00
957.77	23358.00
958.50	23395.00
959.22	23390.00
959.94	23425.00
960.67	23252.00
961.39	23279.00
962.11	23324.00
962.84	23356.00
963.56	23277.00
964.28	23192.00
965.00	23078.00
965.73	22918.00
966.45	22752.00
967.17	22726.00
967.89	22525.00
968.62	22340.00
969.34	22182.00
970.06	21999.00
970.78	21930.00
971.51	21808.00
972.23	21666.00
972.95	21458.00
973.67	21313.00
974.40	21169.00
975.12	20981.00
975.84	20935.00
976.56	20725.00
977.28	20544.00
978.00	20427.00
978.73	20362.00
979.45	20295.00
980.17	20211.00
980.89	20163.00
981.61	20094.00
982.33	20005.00
983.05	19949.00
983.77	19883.00
984.50	19802.00
985.22	19688.00
985.94	19654.00
986.66	19579.00
987.38	19510.00
988.10	19417.00
988.82	19391.00
989.54	19337.00
990.26	19251.00
990.98	19119.00
991.70	18950.00
992.42	18823.00
993.14	18710.00
993.86	18575.00
994.58	18383.00
995.30	18256.00
996.02	18150.00
996.74	18092.00
997.46	18049.00
998.18	17942.00
998.90	17779.00
999.62	17666.00
1000.34	17551.00
1001.06	17560.00
1001.78	17401.00
1002.50	17271.00
1003.22	17068.00
1003.94	16927.00
1004.66	16810.00
1005.38	16639.00
1006.09	16509.00
1006.81	16365.00
1007.53	16152.00
1008.25	16010.00
1008.97	15905.00
1009.69	15776.00
1010.41	15688.00
1011.13	15566.00
1011.84	15371.00
1012.56	15199.00
1013.28	15084.00
1014.00	14945.00
1014.72	14814.00
1015.44	14594.00
1016.15	14429.00
1016.87	14230.00
1017.59	14038.00
1018.31	13860.00
1019.03	13844.00
1019.74	13726.00
1020.46	13653.00
1021.18	13523.00
1021.90	13419.00
1022.61	13311.00
1023.33	13219.00
1024.05	13055.00
1024.76	12864.00
1025.48	12706.00
1026.20	12487.00
1026.92	12299.00
1027.63	12191.00
1028.35	12007.00
1029.07	11859.00
1029.78	11720.00
1030.50	11581.00
1031.22	11434.00
1031.93	11295.00
1032.65	11192.00
1033.37	11079.00
1034.08	10969.00
1034.80	10885.00
1035.52	10835.00
1036.23	10736.00
1036.95	10634.00
1037.66	10573.00
1038.38	10437.00
1039.10	10274.00
1039.81	10114.00
1040.53	9924.00
1041.24	9791.00
1041.96	9641.00
1042.67	9546.00
1043.39	9421.00
1044.10	9317.00
1044.82	9223.00
1045.54	9144.00
1046.25	9032.00
1046.97	8904.00
1047.68	8791.00
1048.40	8625.00
1049.11	8480.00
1049.83	8349.00
1050.54	8237.00
1051.26	8139.00
1051.97	8057.00
1052.68	7942.00
1053.40	7845.00
1054.11	7754.00
1054.83	7599.00
1055.54	7528.00
1056.26	7419.00
1056.97	7303.00
1057.69	7230.00
1058.40	7116.00
1059.11	7005.00
1059.83	6904.00
1060.54	6734.00
1061.25	6588.00
1061.97	6468.00
1062.68	6353.00
1063.40	6220.00
1064.11	6114.00
1064.82	5989.00
1065.54	5880.00
1066.25	2569.00
1066.96	2568.00
1067.68	2565.00
1068.39	2567.00
1069.10	2617.00
1069.82	2618.00
1070.53	2620.00
1071.24	2621.00
1071.95	2617.00
1072.67	2612.00
1073.38	5724.00
1074.09	5628.00
1074.80	5498.00
1075.52	5410.00
1076.23	5298.00
1076.94	5201.00
1077.65	2588.00
1078.37	2587.00
1079.08	2590.00
1079.79	2611.00
