300.47	2619.00
301.26	2626.00
302.04	2623.00
302.82	2617.00
303.60	2618.00
304.38	2616.00
305.17	2621.00
305.95	2620.00
306.73	2621.00
307.51	2620.00
308.29	2615.00
309.08	2617.00
309.86	2623.00
310.64	2627.00
311.42	2617.00
312.20	2617.00
312.98	2622.00
313.76	2621.00
314.55	2616.00
315.33	2623.00
316.11	2617.00
316.89	2622.00
317.67	2622.00
318.45	2618.00
319.23	2616.00
320.01	2616.00
320.79	2619.00
321.57	2619.00
322.35	2618.00
323.13	2619.00
323.91	2620.00
324.69	2623.00
325.47	2619.00
326.25	2621.00
327.03	2623.00
327.81	2622.00
328.59	2620.00
329.37	2627.00
330.15	2625.00
330.93	2629.00
331.71	2621.00
332.49	2622.00
333.27	2623.00
334.05	2634.00
334.83	2631.00
335.61	2627.00
336.39	2630.00
337.17	2625.00
337.95	2632.00
338.73	2631.00
339.51	2636.00
340.29	2634.00
341.07	2635.00
341.84	2637.00
342.62	2639.00
343.40	2640.00
344.18	2648.00
344.96	2646.00
345.74	2646.00
346.52	2646.00
347.29	2651.00
348.07	2649.00
348.85	2654.00
349.63	2660.00
350.41	2661.00
351.18	2663.00
351.96	2666.00
352.74	2667.00
353.52	2675.00
354.30	2672.00
355.07	2673.00
355.85	2689.00
356.63	2689.00
357.41	2694.00
358.18	2699.00
358.96	2703.00
359.74	2703.00
360.52	2710.00
361.29	2722.00
362.07	2727.00
362.85	2722.00
363.62	2730.00
364.40	2740.00
365.18	2742.00
365.95	2753.00
366.73	2762.00
367.51	2773.00
368.28	2774.00
369.06	2774.00
369.84	2789.00
370.61	2803.00
371.39	2815.00
372.17	2806.00
372.94	2823.00
373.72	2831.00
374.49	2850.00
375.27	2862.00
376.05	2865.00
376.82	2875.00
377.60	2893.00
378.37	2904.00
379.15	2913.00
379.92	2932.00
380.70	2943.00
381.47	2955.00
382.25	2965.00
383.02	2982.00
383.80	2998.00
384.58	3023.00
385.35	3033.00
386.13	3036.00
386.90	3059.00
387.67	3092.00
388.45	3093.00
389.22	3119.00
390.00	3137.00
390.77	3149.00
391.55	3175.00
392.32	3195.00
393.10	3204.00
393.87	3238.00
394.65	3246.00
395.42	3280.00
396.19	3292.00
396.97	3310.00
397.74	3335.00
398.52	3350.00
399.29	3384.00
400.06	3394.00
400.84	3417.00
401.61	3455.00
402.38	3468.00
403.16	3484.00
403.93	3523.00
404.70	3537.00
405.48	3566.00
406.25	3595.00
407.02	3624.00
407.80	3647.00
408.57	3665.00
409.34	3685.00
410.12	3710.00
410.89	3743.00
411.66	3766.00
412.43	3803.00
413.21	3821.00
413.98	3850.00
414.75	3861.00
415.52	3905.00
416.30	3925.00
417.07	3964.00
417.84	3999.00
418.61	4010.00
419.39	4033.00
420.16	4071.00
420.93	4118.00
421.70	4148.00
422.47	4166.00
423.24	4203.00
424.02	4231.00
424.79	4288.00
425.56	4309.00
426.33	4346.00
427.10	4398.00
427.87	4412.00
428.64	4459.00
429.42	4493.00
430.19	4535.00
430.96	4565.00
431.73	4631.00
432.50	4662.00
433.27	4711.00
434.04	4737.00
434.81	4796.00
435.58	4846.00
436.35	4886.00
437.12	4940.00
437.89	4985.00
438.67	5043.00
439.44	5089.00
440.21	5128.00
440.98	5212.00
441.75	5244.00
442.52	5321.00
443.29	5368.00
444.06	5414.00
444.83	5484.00
445.60	5562.00
446.37	5606.00
447.13	5662.00
447.90	5735.00
448.67	5816.00
449.44	5884.00
450.21	5939.00
450.98	6026.00
451.75	6060.00
452.52	6120.00
453.29	6229.00
454.06	6285.00
454.83	6364.00
455.60	6434.00
456.37	6526.00
457.13	6600.00
457.90	6667.00
458.67	6786.00
459.44	6831.00
460.21	6929.00
460.98	6991.00
461.75	7089.00
462.51	7180.00
463.28	7316.00
464.05	7407.00
464.82	7467.00
465.59	7566.00
466.35	7634.00
467.12	7738.00
467.89	7862.00
468.66	7929.00
469.43	7992.00
470.19	8123.00
470.96	8229.00
471.73	8330.00
472.50	8423.00
473.26	8562.00
474.03	8663.00
474.80	8769.00
475.56	8887.00
476.33	8970.00
477.10	9091.00
477.87	9199.00
478.63	9303.00
479.40	9453.00
480.17	9546.00
480.93	9691.00
481.70	9814.00
482.47	9927.00
483.23	10003.00
484.00	10175.00
484.76	10309.00
485.53	10396.00
486.30	10537.00
487.06	10661.00
487.83	10777.00
488.60	10962.00
489.36	11038.00
490.13	11199.00
490.89	11306.00
491.66	11421.00
492.42	11580.00
493.19	11698.00
493.96	11863.00
494.72	11962.00
495.49	12091.00
496.25	12246.00
497.02	12388.00
497.78	12486.00
498.55	12707.00
499.31	12807.00
500.08	12906.00
500.84	13077.00
501.61	13226.00
502.37	13375.00
503.14	13519.00
503.90	13672.00
504.67	13802.00
505.43	14012.00
506.20	14103.00
506.96	14324.00
507.72	14498.00
508.49	14618.00
509.25	14813.00
510.02	15023.00
510.78	15157.00
511.54	15320.00
512.31	15463.00
513.07	15601.00
513.84	15799.00
514.60	15944.00
515.36	16081.00
516.13	16268.00
516.89	16376.00
517.65	16518.00
518.42	16678.00
519.18	16864.00
519.94	17045.00
520.71	17188.00
521.47	17378.00
522.23	17525.00
523.00	17731.00
523.76	17914.00
524.52	18075.00
525.28	18246.00
526.05	18371.00
526.81	18566.00
527.57	18783.00
528.33	18910.00
529.10	19111.00
529.86	19249.00
530.62	19463.00
531.38	19622.00
532.15	19776.00
532.91	19908.00
533.67	20064.00
534.43	20257.00
535.19	20465.00
535.96	20679.00
536.72	20762.00
537.48	20869.00
538.24	21065.00
539.00	21316.00
539.76	21559.00
540.53	21817.00
541.29	21973.00
542.05	22111.00
542.81	22312.00
543.57	22580.00
544.33	22767.00
545.09	22964.00
545.85	23130.00
546.61	23236.00
547.38	23392.00
548.14	23609.00
548.90	23776.00
549.66	23998.00
550.42	24216.00
551.18	24370.00
551.94	24549.00
552.70	24761.00
553.46	24912.00
554.22	25179.00
554.98	25321.00
555.74	25471.00
556.50	25609.00
557.26	25914.00
558.02	26111.00
558.78	26300.00
559.54	26442.00
560.30	26642.00
561.06	26844.00
561.82	27043.00
562.58	27296.00
563.34	27529.00
564.10	27665.00
564.86	27852.00
565.61	28017.00
566.37	28242.00
567.13	28492.00
567.89	28722.00
568.65	28834.00
569.41	28963.00
570.17	29233.00
570.93	29332.00
571.69	29530.00
572.44	29745.00
573.20	29901.00
573.96	30084.00
574.72	30271.00
575.48	30490.00
576.24	30651.00
576.99	30900.00
577.75	31063.00
578.51	31230.00
579.27	31514.00
580.03	31710.00
580.78	31874.00
581.54	32130.00
582.30	32358.00
583.06	32479.00
583.82	32603.00
584.57	32819.00
585.33	33011.00
586.09	33147.00
586.84	33261.00
587.60	33391.00
588.36	33514.00
589.12	33744.00
589.87	33967.00
590.63	34191.00
591.39	34354.00
592.14	34506.00
592.90	34714.00
593.66	34856.00
594.41	35092.00
595.17	35277.00
595.93	35361.00
596.68	35435.00
597.44	35663.00
598.20	35887.00
598.95	36168.00
599.71	36450.00
600.46	36580.00
601.22	36596.00
601.98	36896.00
602.73	37127.00
603.49	37547.00
604.24	37706.00
605.00	37825.00
605.76	37942.00
606.51	38145.00
607.27	38360.00
608.02	38597.00
608.78	38742.00
609.53	38941.00
610.29	39150.00
611.04	39445.00
611.80	39719.00
612.55	40044.00
613.31	40263.00
614.06	40472.00
614.82	40701.00
615.57	40859.00
616.33	41028.00
617.08	41321.00
617.84	41389.00
618.59	41405.00
619.35	41469.00
620.10	41410.00
620.85	41414.00
621.61	41523.00
622.36	41570.00
623.12	41508.00
623.87	41666.00
624.62	41760.00
625.38	41918.00
626.13	42088.00
626.89	42380.00
627.64	42488.00
628.39	42535.00
629.15	42550.00
629.90	42706.00
630.65	42745.00
631.41	42674.00
632.16	42658.00
632.91	42766.00
633.67	42777.00
634.42	42776.00
635.17	42927.00
635.92	43224.00
636.68	43781.00
637.43	44275.00
638.18	44776.00
638.94	45124.00
639.69	45494.00
640.44	45908.00
641.19	46276.00
641.95	46733.00
642.70	47060.00
643.45	47350.00
644.20	47394.00
644.95	47674.00
645.71	47783.00
646.46	47947.00
647.21	48057.00
647.96	48069.00
648.71	48175.00
649.47	48353.00
650.22	48402.00
650.97	48517.00
651.72	48616.00
652.47	48666.00
653.22	48891.00
653.97	49039.00
654.73	49282.00
655.48	49389.00
656.23	49614.00
656.98	49912.00
657.73	49976.00
658.48	50212.00
659.23	50165.00
659.98	50281.00
660.73	50315.00
661.48	50427.00
662.23	50505.00
662.99	50565.00
663.74	50493.00
664.49	50843.00
665.24	51192.00
665.99	51688.00
666.74	51724.00
667.49	51837.00
668.24	51878.00
668.99	52067.00
669.74	52213.00
670.49	52335.00
671.24	52511.00
671.99	52544.00
672.74	52751.00
673.48	52842.00
674.23	53107.00
674.98	53026.00
675.73	53001.00
676.48	53214.00
677.23	53288.00
677.98	53505.00
678.73	53500.00
679.48	53508.00
680.23	53599.00
680.98	53598.00
681.73	53555.00
682.47	53648.00
683.22	53557.00
683.97	53709.00
684.72	53727.00
685.47	53785.00
686.22	53977.00
686.97	54209.00
687.71	54410.00
688.46	54575.00
689.21	54724.00
689.96	54674.00
690.71	54759.00
691.45	54749.00
692.20	54723.00
692.95	54883.00
693.70	54790.00
694.44	54888.00
695.19	55036.00
695.94	55117.00
696.69	55219.00
697.43	55274.00
698.18	55207.00
698.93	55359.00
699.68	55304.00
700.42	55397.00
701.17	55481.00
701.92	55595.00
702.66	55573.00
703.41	55688.00
704.16	55707.00
704.90	55709.00
705.65	55770.00
706.40	55937.00
707.14	55907.00
707.89	55938.00
708.64	55922.00
709.38	55913.00
710.13	55987.00
710.88	56083.00
711.62	56241.00
712.37	56191.00
713.11	56290.00
713.86	56336.00
714.61	56292.00
715.35	56174.00
716.10	55959.00
716.84	55715.00
717.59	55500.00
718.33	55352.00
719.08	55233.00
719.83	55140.00
720.57	54984.00
721.32	54881.00
722.06	54927.00
722.81	54809.00
723.55	54862.00
724.30	55024.00
725.04	55123.00
725.79	55168.00
726.53	55013.00
727.28	55030.00
728.02	55007.00
728.76	55163.00
729.51	55299.00
730.25	55278.00
731.00	55247.00
731.74	55241.00
732.49	55295.00
733.23	55200.00
733.97	55142.00
734.72	54948.00
735.46	54865.00
736.21	54792.00
736.95	54853.00
737.69	54836.00
738.44	55001.00
739.18	55209.00
739.92	55306.00
740.67	55266.00
741.41	55349.00
742.15	55473.00
742.90	55665.00
743.64	55763.00
744.38	55707.00
745.13	55783.00
745.87	55703.00
746.61	55865.00
747.36	55708.00
748.10	55712.00
748.84	55729.00
749.58	55564.00
750.33	55467.00
751.07	55420.00
751.81	55286.00
752.55	55123.00
753.30	55111.00
754.04	54906.00
754.78	54777.00
755.52	54594.00
756.27	54384.00
757.01	54340.00
757.75	54377.00
758.49	54520.00
759.23	54465.00
759.97	54401.00
760.72	54393.00
761.46	54433.00
762.20	54404.00
762.94	54434.00
763.68	54378.00
764.42	54145.00
765.16	54147.00
765.91	54183.00
766.65	54142.00
767.39	53975.00
768.13	53859.00
768.87	53809.00
769.61	53878.00
770.35	53788.00
771.09	53671.00
771.83	53623.00
772.57	53491.00
773.31	53590.00
774.05	53641.00
774.80	53626.00
775.54	53389.00
776.28	53245.00
777.02	53151.00
777.76	53108.00
778.50	52853.00
779.24	52658.00
779.98	52604.00
780.72	52594.00
781.46	52478.00
782.20	52454.00
782.93	52500.00
783.67	52303.00
784.41	52265.00
785.15	52016.00
785.89	51908.00
786.63	51771.00
787.37	51590.00
788.11	51414.00
788.85	51288.00
789.59	51191.00
790.33	51185.00
791.07	51134.00
791.81	51057.00
792.54	50922.00
793.28	50709.00
794.02	50526.00
794.76	50289.00
795.50	50056.00
796.24	49880.00
796.97	49580.00
797.71	49338.00
798.45	49191.00
799.19	49106.00
799.93	48908.00
800.67	48901.00
801.40	48898.00
802.14	48977.00
802.88	49002.00
803.62	49040.00
804.35	49054.00
805.09	48938.00
805.83	48759.00
806.57	48759.00
807.30	48593.00
808.04	48721.00
808.78	48490.00
809.52	48314.00
810.25	48083.00
810.99	47820.00
811.73	47776.00
812.46	47709.00
813.20	47652.00
813.94	47656.00
814.68	47597.00
815.41	47477.00
816.15	47544.00
816.88	47726.00
817.62	47641.00
818.36	47647.00
819.09	47256.00
819.83	47073.00
820.57	46942.00
821.30	46773.00
822.04	46655.00
822.77	46523.00
823.51	46285.00
824.25	46267.00
824.98	46097.00
825.72	46180.00
826.45	46066.00
827.19	45845.00
827.92	45659.00
828.66	45266.00
829.40	45161.00
830.13	45130.00
830.87	45087.00
831.60	45079.00
832.34	44910.00
833.07	44797.00
833.81	44755.00
834.54	44833.00
835.28	44934.00
836.01	44912.00
836.75	44767.00
837.48	44475.00
838.22	44175.00
838.95	44171.00
839.68	44057.00
840.42	44174.00
841.15	44158.00
841.89	44050.00
842.62	43825.00
843.36	43621.00
844.09	43592.00
844.82	43728.00
845.56	43644.00
846.29	43561.00
847.02	43378.00
847.76	43194.00
848.49	43237.00
849.23	43440.00
849.96	43743.00
850.69	43735.00
851.43	43465.00
852.16	43252.00
852.89	42944.00
853.63	42724.00
854.36	42594.00
855.09	42601.00
855.82	42559.00
856.56	42348.00
857.29	42196.00
858.02	42047.00
858.76	42020.00
859.49	42014.00
860.22	41942.00
860.95	41831.00
861.69	41700.00
862.42	41551.00
863.15	41439.00
863.88	41289.00
864.61	41442.00
865.35	41460.00
866.08	41305.00
866.81	41149.00
867.54	40956.00
868.27	40838.00
869.01	40739.00
869.74	40761.00
870.47	40775.00
871.20	40638.00
871.93	40409.00
872.66	40171.00
873.40	40065.00
874.13	39849.00
874.86	39613.00
875.59	39449.00
876.32	39389.00
877.05	39278.00
877.78	39248.00
878.51	39040.00
879.24	38864.00
879.97	38665.00
880.71	38567.00
881.44	38379.00
882.17	38317.00
882.90	38258.00
883.63	38092.00
884.36	37995.00
885.09	38019.00
885.82	38211.00
886.55	38304.00
887.28	38285.00
888.01	38204.00
888.74	38065.00
889.47	37789.00
890.20	37589.00
890.93	37289.00
891.66	37093.00
892.39	37022.00
893.12	36997.00
893.85	37013.00
894.57	37071.00
895.30	36939.00
896.03	37037.00
896.76	36904.00
897.49	36759.00
898.22	36465.00
898.95	36319.00
899.68	36176.00
900.41	35882.00
901.14	35729.00
901.86	35677.00
902.59	35680.00
903.32	35702.00
904.05	35589.00
904.78	35529.00
905.51	35459.00
906.24	35315.00
906.96	35184.00
907.69	35055.00
908.42	34897.00
909.15	34655.00
909.88	34416.00
910.60	34273.00
911.33	34183.00
912.06	34047.00
912.79	33939.00
913.52	33827.00
914.24	33677.00
914.97	33661.00
915.70	33385.00
916.42	33333.00
917.15	33191.00
917.88	32872.00
918.61	32669.00
919.33	32488.00
920.06	32143.00
920.79	31984.00
921.51	31806.00
922.24	31694.00
922.97	31622.00
923.69	31473.00
924.42	31358.00
925.15	31153.00
925.87	30951.00
926.60	30767.00
927.33	30525.00
928.05	30201.00
928.78	29928.00
929.51	29580.00
930.23	29324.00
930.96	28993.00
931.68	28624.00
932.41	28282.00
933.14	28035.00
933.86	27712.00
934.59	27407.00
935.31	27004.00
936.04	26493.00
936.76	26058.00
937.49	25579.00
938.21	25127.00
938.94	24666.00
939.66	24165.00
940.39	23773.00
941.11	23452.00
941.84	23072.00
942.56	22738.00
943.29	22636.00
944.01	22442.00
944.74	22265.00
945.46	22260.00
946.19	22186.00
946.91	22220.00
947.64	22294.00
948.36	22358.00
949.09	22390.00
949.81	22487.00
950.53	22548.00
951.26	22623.00
951.98	22659.00
952.71	22782.00
953.43	22927.00
954.15	22977.00
954.88	23040.00
955.60	23064.00
956.33	23099.00
957.05	23145.00
957.77	23228.00
958.50	23246.00
959.22	23333.00
959.94	23255.00
960.67	23214.00
961.39	23186.00
962.11	23183.00
962.84	23275.00
963.56	23133.00
964.28	23180.00
965.00	22937.00
965.73	22717.00
966.45	22648.00
967.17	22550.00
967.89	22476.00
968.62	22200.00
969.34	22048.00
970.06	21893.00
970.78	21814.00
971.51	21669.00
972.23	21597.00
972.95	21394.00
973.67	21202.00
974.40	21049.00
975.12	20919.00
975.84	20789.00
976.56	20662.00
977.28	20409.00
978.00	20317.00
978.73	20253.00
979.45	20200.00
980.17	20153.00
980.89	20068.00
981.61	19966.00
982.33	19910.00
983.05	19848.00
983.77	19765.00
984.50	19693.00
985.22	19591.00
985.94	19585.00
986.66	19509.00
987.38	19401.00
988.10	19351.00
988.82	19316.00
989.54	19236.00
990.26	19158.00
990.98	19021.00
991.70	18867.00
992.42	18704.00
993.14	18581.00
993.86	18427.00
994.58	18330.00
995.30	18160.00
996.02	18064.00
996.74	17964.00
997.46	17914.00
998.18	17826.00
998.90	17681.00
999.62	17550.00
1000.34	17429.00
1001.06	17441.00
1001.78	17348.00
1002.50	17183.00
1003.22	16977.00
1003.94	16809.00
1004.66	16661.00
1005.38	16523.00
1006.09	16338.00
1006.81	16220.00
1007.53	15974.00
1008.25	15888.00
1008.97	15760.00
1009.69	15692.00
1010.41	15594.00
1011.13	15499.00
1011.84	15293.00
1012.56	15119.00
1013.28	15009.00
1014.00	14830.00
1014.72	14712.00
1015.44	14541.00
1016.15	14345.00
1016.87	14107.00
1017.59	13964.00
1018.31	13825.00
1019.03	13763.00
1019.74	13648.00
1020.46	13560.00
1021.18	13435.00
1021.90	13402.00
1022.61	13213.00
1023.33	13081.00
1024.05	12985.00
1024.76	12797.00
1025.48	12595.00
1026.20	12407.00
1026.92	12277.00
1027.63	12100.00
1028.35	11907.00
1029.07	11784.00
1029.78	11714.00
1030.50	11495.00
1031.22	11371.00
1031.93	11267.00
1032.65	11124.00
1033.37	11036.00
1034.08	10910.00
1034.80	10788.00
1035.52	10793.00
1036.23	10682.00
1036.95	10602.00
1037.66	10501.00
1038.38	10365.00
1039.10	10250.00
1039.81	10079.00
1040.53	9870.00
1041.24	9736.00
1041.96	9601.00
1042.67	9473.00
1043.39	9416.00
1044.10	9303.00
1044.82	9211.00
1045.54	9105.00
1046.25	8935.00
1046.97	8854.00
1047.68	8712.00
1048.40	8571.00
1049.11	8438.00
1049.83	8268.00
1050.54	8203.00
1051.26	8070.00
1051.97	8009.00
1052.68	7932.00
1053.40	7790.00
1054.11	7715.00
1054.83	7559.00
1055.54	7452.00
1056.26	7367.00
1056.97	7281.00
1057.69	7184.00
1058.40	7077.00
1059.11	7002.00
1059.83	6860.00
1060.54	6702.00
1061.25	6592.00
1061.97	6414.00
1062.68	6329.00
1063.40	6201.00
1064.11	6071.00
1064.82	5970.00
1065.54	5839.00
1066.25	2569.00
1066.96	2563.00
1067.68	2562.00
1068.39	2556.00
1069.10	2615.00
1069.82	2618.00
1070.53	2617.00
1071.24	2617.00
1071.95	2610.00
1072.67	2614.00
1073.38	5697.00
1074.09	5571.00
1074.80	5485.00
1075.52	5386.00
1076.23	5269.00
1076.94	5150.00
1077.65	2571.00
1078.37	2588.00
1079.08	2595.00
1079.79	2593.00
