Data from PL_2polymer_F8BT_MEHPPV_USB2H096331_0285.txt Node
Date: Tue Dec 15 16:19:44 CET 2020
User: spadmin
Spectrometer: USB2+H09633
Trigger mode: 0
Integration Time (sec): 1.000000E-2
Scans to average: 1
Electric dark correction enabled: true
Nonlinearity correction enabled: false
Boxcar width: 0
XAxis mode: Wavelengths
Number of Pixels in Spectrum: 2048
>>>>>Begin Spectral Data<<<<<
174.027	-30.51
174.405	-30.51
174.783	-30.51
175.162	-105.08
175.54	-66.66
175.918	-120.9
176.296	-82.48
176.674	-138.98
177.052	-73.44
177.43	-118.64
177.808	-105.08
178.186	-12.43
178.564	-12.43
178.942	-30.51
179.32	10.17
179.698	64.41
180.076	75.7
180.453	53.11
180.831	14.69
181.209	100.56
181.587	118.64
181.965	136.72
182.342	161.58
182.72	209.03
183.098	202.25
183.475	229.37
183.853	195.48
184.231	218.07
184.608	281.35
184.986	297.17
185.363	283.61
185.741	297.17
186.118	308.47
186.496	344.62
186.873	389.82
187.251	281.35
187.628	337.84
188.006	308.47
188.383	328.8
188.76	283.61
189.138	349.14
189.515	342.36
189.892	331.06
190.27	331.06
190.647	342.36
191.024	367.22
191.401	326.55
191.778	333.32
192.155	333.32
192.533	256.49
192.91	310.73
193.287	285.87
193.664	360.44
194.041	335.58
194.418	367.22
194.795	276.83
195.172	315.25
195.549	346.88
195.926	285.87
196.302	294.91
196.679	297.17
197.056	369.48
197.433	306.21
197.81	218.07
198.187	218.07
198.563	265.53
198.94	294.91
199.317	274.57
199.693	344.62
200.07	349.14
200.447	294.91
200.823	328.8
201.2	331.06
201.576	333.32
201.953	288.13
202.329	322.03
202.706	342.36
203.082	306.21
203.459	322.03
203.835	342.36
204.212	355.92
204.588	283.61
204.964	308.47
205.341	340.1
205.717	308.47
206.093	331.06
206.469	306.21
206.846	276.83
207.222	288.13
207.598	374
207.974	312.99
208.35	344.62
208.726	322.03
209.102	290.39
209.479	324.29
209.855	233.89
210.231	301.69
210.607	362.7
210.982	322.03
211.358	342.36
211.734	351.4
212.11	351.4
212.486	346.88
212.862	319.77
213.238	272.31
213.614	285.87
213.989	317.51
214.365	319.77
214.741	340.1
215.116	367.22
215.492	285.87
215.868	374
216.243	344.62
216.619	292.65
216.995	312.99
217.37	303.95
217.746	380.78
218.121	331.06
218.497	333.32
218.872	229.37
219.247	310.73
219.623	319.77
219.998	319.77
220.374	346.88
220.749	367.22
221.124	326.55
221.499	312.99
221.875	331.06
222.25	376.26
222.625	310.73
223	398.86
223.376	351.4
223.751	367.22
224.126	306.21
224.501	285.87
224.876	297.17
225.251	369.48
225.626	358.18
226.001	371.74
226.376	344.62
226.751	276.83
227.126	276.83
227.501	358.18
227.875	337.84
228.25	303.95
228.625	358.18
229	297.17
229.375	378.52
229.749	362.7
230.124	346.88
230.499	337.84
230.873	430.5
231.248	326.55
231.623	331.06
231.997	308.47
232.372	328.8
232.746	392.08
233.121	344.62
233.495	308.47
233.87	285.87
234.244	317.51
234.619	331.06
234.993	389.82
235.367	405.64
235.742	342.36
236.116	367.22
236.49	308.47
236.865	371.74
237.239	380.78
237.613	367.22
237.987	444.06
238.361	299.43
238.736	346.88
239.11	331.06
239.484	283.61
239.858	371.74
240.232	322.03
240.606	317.51
240.98	337.84
241.354	383.04
241.728	342.36
242.102	346.88
242.475	337.84
242.849	374
243.223	376.26
243.597	362.7
243.971	308.47
244.344	337.84
244.718	292.65
245.092	297.17
245.466	416.94
245.839	333.32
246.213	337.84
246.586	319.77
246.96	333.32
247.334	378.52
247.707	392.08
248.081	401.12
248.454	380.78
248.828	337.84
249.201	374
249.574	383.04
249.948	383.04
250.321	387.56
250.694	385.3
251.068	371.74
251.441	358.18
251.814	297.17
252.187	378.52
252.561	401.12
252.934	392.08
253.307	398.86
253.68	405.64
254.053	353.66
254.426	344.62
254.799	369.48
255.172	412.42
255.545	419.2
255.918	383.04
256.291	401.12
256.664	448.58
257.037	380.78
257.41	378.52
257.782	414.68
258.155	331.06
258.528	342.36
258.901	398.86
259.273	403.38
259.646	394.34
260.019	416.94
260.391	378.52
260.764	367.22
261.137	389.82
261.509	337.84
261.882	407.9
262.254	376.26
262.627	319.77
262.999	394.34
263.372	387.56
263.744	378.52
264.116	412.42
264.489	378.52
264.861	455.36
265.233	376.26
265.606	367.22
265.978	403.38
266.35	353.66
266.722	403.38
267.094	360.44
267.467	425.98
267.839	306.21
268.211	394.34
268.583	473.43
268.955	412.42
269.327	376.26
269.699	378.52
270.071	369.48
270.443	398.86
270.815	410.16
271.186	349.14
271.558	383.04
271.93	362.7
272.302	401.12
272.674	446.32
273.045	385.3
273.417	355.92
273.789	419.2
274.16	405.64
274.532	416.94
274.904	421.46
275.275	398.86
275.647	403.38
276.018	369.48
276.39	432.76
276.761	396.6
277.133	421.46
277.504	410.16
277.875	416.94
278.247	410.16
278.618	405.64
278.989	464.39
279.361	421.46
279.732	455.36
280.103	367.22
280.474	423.72
280.846	376.26
281.217	473.43
281.588	457.62
281.959	455.36
282.33	446.32
282.701	428.24
283.072	475.69
283.443	446.32
283.814	421.46
284.185	489.25
284.556	448.58
284.927	421.46
285.297	419.2
285.668	466.65
286.039	437.28
286.41	448.58
286.781	414.68
287.151	389.82
287.522	416.94
287.893	306.21
288.263	421.46
288.634	412.42
289.004	462.13
289.375	511.85
289.745	423.72
290.116	473.43
290.486	428.24
290.857	428.24
291.227	471.17
291.598	405.64
291.968	491.51
292.338	500.55
292.709	457.62
293.079	466.65
293.449	414.68
293.819	405.64
294.189	401.12
294.56	344.62
294.93	455.36
295.3	432.76
295.67	414.68
296.04	419.2
296.41	505.07
296.78	439.54
297.15	448.58
297.52	410.16
297.89	403.38
298.259	439.54
298.629	416.94
298.999	462.13
299.369	423.72
299.739	455.36
300.108	466.65
300.478	437.28
300.848	425.98
301.217	394.34
301.587	459.87
301.957	423.72
302.326	516.37
302.696	489.25
303.065	471.17
303.435	428.24
303.804	419.2
304.174	412.42
304.543	425.98
304.912	389.82
305.282	466.65
305.651	428.24
306.02	514.11
306.39	489.25
306.759	489.25
307.128	473.43
307.497	502.81
307.866	403.38
308.235	432.76
308.604	437.28
308.974	358.18
309.343	459.87
309.712	491.51
310.08	464.39
310.449	502.81
310.818	462.13
311.187	419.2
311.556	425.98
311.925	514.11
312.294	502.81
312.662	491.51
313.031	446.32
313.4	489.25
313.769	496.03
314.137	559.31
314.506	507.33
314.874	523.15
315.243	511.85
315.612	491.51
315.98	570.61
316.349	557.05
316.717	557.05
317.085	496.03
317.454	464.39
317.822	432.76
318.191	520.89
318.559	507.33
318.927	491.51
319.295	520.89
319.664	480.21
320.032	500.55
320.4	480.21
320.768	507.33
321.136	444.06
321.504	498.29
321.872	500.55
322.24	482.47
322.608	529.93
322.976	489.25
323.344	471.17
323.712	484.73
324.08	505.07
324.448	541.23
324.816	525.41
325.183	529.93
325.551	525.41
325.919	525.41
326.287	457.62
326.654	554.79
327.022	518.63
327.389	514.11
327.757	516.37
328.125	491.51
328.492	500.55
328.86	430.5
329.227	543.49
329.594	507.33
329.962	550.27
330.329	559.31
330.697	577.39
331.064	493.77
331.431	509.59
331.798	586.43
332.166	541.23
332.533	579.65
332.9	482.47
333.267	545.75
333.634	566.09
334.001	595.46
334.368	599.98
334.735	534.45
335.102	527.67
335.469	480.21
335.836	480.21
336.203	615.8
336.57	599.98
336.937	604.5
337.304	538.97
337.67	572.87
338.037	577.39
338.404	545.75
338.771	599.98
339.137	633.88
339.504	638.4
339.87	599.98
340.237	534.45
340.604	554.79
340.97	642.92
341.337	640.66
341.703	674.56
342.069	647.44
342.436	572.87
342.802	640.66
343.169	597.72
343.535	563.83
343.901	633.88
344.267	611.28
344.634	586.43
345	649.7
345.366	685.86
345.732	602.24
346.098	566.09
346.464	667.78
346.83	563.83
347.196	624.84
347.562	679.08
347.928	624.84
348.294	622.58
348.66	557.05
349.026	676.82
349.392	572.87
349.757	683.6
350.123	658.74
350.489	593.2
350.855	609.02
351.22	699.42
351.586	722.01
351.951	701.68
352.317	778.51
352.683	767.21
353.048	692.64
353.414	719.76
353.779	688.12
354.144	701.68
354.51	688.12
354.875	762.69
355.24	796.59
355.606	694.9
355.971	753.65
356.336	767.21
356.701	726.53
357.067	735.57
357.432	794.33
357.797	692.64
358.162	728.79
358.527	776.25
358.892	821.45
359.257	742.35
359.622	853.08
359.987	848.57
360.352	719.76
360.717	776.25
361.082	789.81
361.446	832.75
361.811	814.67
362.176	898.28
362.541	866.64
362.905	918.62
363.27	841.79
363.635	911.84
363.999	936.7
364.364	909.58
364.728	884.72
365.093	907.32
365.457	873.42
365.822	997.71
366.186	959.3
366.55	990.93
366.915	934.44
367.279	959.3
367.643	975.12
368.008	1042.91
368.372	1022.57
368.736	997.71
369.1	1049.69
369.464	1056.47
369.828	1135.56
370.192	1135.56
370.556	1133.3
370.92	1210.14
371.284	1221.44
371.648	1137.82
372.012	1137.82
372.376	1296.01
372.74	1375.11
373.104	1284.71
373.468	1463.24
373.831	1440.64
374.195	1458.72
374.559	1499.4
374.922	1499.4
375.286	1610.13
375.65	1630.47
376.013	1718.6
376.377	1716.34
376.74	1743.46
377.104	1763.8
377.467	1937.8
377.83	2014.64
378.194	2154.75
378.557	2285.82
378.92	2376.21
379.284	2493.72
379.647	2636.09
380.01	2798.8
380.373	2920.83
380.736	3115.17
381.1	3488.04
381.463	3666.57
381.826	3994.25
382.189	4084.64
382.552	4430.39
382.915	5099.3
383.278	5257.49
383.64	5700.42
384.003	6170.46
384.366	6706.04
384.729	7298.11
385.092	7835.95
385.454	8561.36
385.817	9365.86
386.18	10371.48
386.542	11155.64
386.905	12464.08
387.268	13603.03
387.63	15191.69
387.993	16091.1
388.355	17874.11
388.718	19661.63
389.08	21462.71
389.442	23505.6
389.805	25476.17
390.167	27286.29
390.529	30016.16
390.892	33803.63
391.254	35970.81
391.616	38018.21
391.978	42305.1
392.34	46621.37
392.702	47984.05
393.064	51767
393.426	53755.65
393.788	55717.18
394.15	57156.69
394.512	58975.85
394.874	60770.15
395.236	62718.12
395.598	64363.28
395.96	65075.13
396.321	65075.13
396.683	65075.13
397.045	65075.13
397.406	65075.13
397.768	65075.13
398.13	65075.13
398.491	65075.13
398.853	65075.13
399.214	65075.13
399.576	65075.13
399.937	65075.13
400.299	65075.13
400.66	65075.13
401.021	65075.13
401.383	65075.13
401.744	65075.13
402.105	65075.13
402.466	65075.13
402.827	65075.13
403.189	65075.13
403.55	65075.13
403.911	65075.13
404.272	65075.13
404.633	65075.13
404.994	65075.13
405.355	65075.13
405.716	65075.13
406.077	65075.13
406.437	65075.13
406.798	65075.13
407.159	65075.13
407.52	65075.13
407.88	65075.13
408.241	65075.13
408.602	65075.13
408.962	65075.13
409.323	65075.13
409.684	65075.13
410.044	65075.13
410.405	65075.13
410.765	65075.13
411.125	65075.13
411.486	65075.13
411.846	65075.13
412.206	65075.13
412.567	65075.13
412.927	65075.13
413.287	65075.13
413.647	65075.13
414.007	65075.13
414.368	65075.13
414.728	65075.13
415.088	65075.13
415.448	65075.13
415.808	65075.13
416.168	65075.13
416.528	65075.13
416.887	65075.13
417.247	65075.13
417.607	65075.13
417.967	65075.13
418.327	65075.13
418.686	65075.13
419.046	65075.13
419.406	65075.13
419.765	65075.13
420.125	65075.13
420.484	65075.13
420.844	65075.13
421.203	65075.13
421.563	64297.74
421.922	64234.47
422.282	62327.17
422.641	60980.32
423	59601.82
423.36	58580.38
423.719	56503.6
424.078	54548.85
424.437	52912.73
424.796	51579.43
425.155	49577.23
425.515	47249.61
425.874	45995.4
426.233	41498.34
426.592	39127.78
426.95	38822.71
427.309	36300.74
427.668	35453.31
428.027	32560.73
428.386	31916.67
428.745	28908.84
429.103	27001.55
429.462	25783.5
429.821	24339.47
430.179	23363.23
430.538	22466.08
430.897	21564.4
431.255	20524.88
431.614	19146.39
431.972	18549.79
432.33	17745.3
432.689	17227.8
433.047	16317.09
433.405	15338.58
433.764	14732.95
434.122	14346.52
434.48	13417.73
434.838	12943.16
435.197	12346.57
435.555	12082.17
435.913	11194.06
436.271	10846.04
436.629	10572.6
436.987	10016.69
437.345	9420.09
437.703	9304.84
438.061	8606.55
438.418	8086.79
438.776	7704.88
439.134	7842.73
439.492	7350.09
439.849	6871.01
440.207	6561.41
440.565	6339.95
440.922	6046.17
441.28	5756.91
441.637	5508.33
441.995	5384.04
442.352	5088
442.71	4871.06
443.067	4843.94
443.425	4389.72
443.782	4342.26
444.139	4188.59
444.496	4091.42
444.854	3958.09
445.211	3734.37
445.568	3718.55
445.925	3388.61
446.282	3384.09
446.639	3372.79
446.996	3273.36
447.353	3275.62
447.71	3212.34
448.067	3192.01
448.424	3047.38
448.781	2834.95
449.137	2753.6
449.494	2599.93
449.851	2477.9
450.208	2355.87
450.564	2360.39
450.921	2141.19
451.278	2145.71
451.634	2249.66
451.991	2109.55
452.347	2120.85
452.704	1901.64
453.06	1899.39
453.416	1829.33
453.773	1745.72
454.129	1775.09
454.485	1684.7
454.841	1585.27
455.198	1519.73
455.554	1569.45
455.91	1497.14
456.266	1549.11
456.622	1474.54
456.978	1433.86
457.334	1363.81
457.69	1277.93
458.046	1293.75
458.402	1241.78
458.758	1178.5
459.114	1201.1
459.469	1097.15
459.825	1081.33
460.181	1081.33
460.536	1060.99
460.892	1088.11
461.248	1022.57
461.603	1072.29
461.959	934.44
462.314	993.19
462.67	972.86
463.025	1020.31
463.38	911.84
463.736	934.44
464.091	914.1
464.446	907.32
464.802	900.54
465.157	785.29
465.512	862.12
465.867	853.08
466.222	821.45
466.577	871.16
466.932	828.23
467.287	889.24
467.642	803.37
467.997	769.47
468.352	692.64
468.707	672.3
469.062	731.05
469.417	703.94
469.771	701.68
470.126	773.99
470.481	724.27
470.835	717.5
471.19	667.78
471.544	674.56
471.899	609.02
472.253	706.2
472.608	627.1
472.962	737.83
473.317	649.7
473.671	651.96
474.025	701.68
474.38	633.88
474.734	629.36
475.088	647.44
475.442	663.26
475.796	618.06
476.15	651.96
476.504	658.74
476.858	638.4
477.212	593.2
477.566	584.17
477.92	624.84
478.274	642.92
478.628	545.75
478.982	581.91
479.336	561.57
479.689	581.91
480.043	647.44
480.397	534.45
480.75	581.91
481.104	595.46
481.457	534.45
481.811	631.62
482.164	590.94
482.518	615.8
482.871	559.31
483.225	534.45
483.578	550.27
483.931	489.25
484.284	588.69
484.638	559.31
484.991	595.46
485.344	620.32
485.697	538.97
486.05	541.23
486.403	593.2
486.756	609.02
487.109	570.61
487.462	491.51
487.815	534.45
488.168	548.01
488.52	586.43
488.873	523.15
489.226	523.15
489.579	534.45
489.931	568.35
490.284	496.03
490.637	538.97
490.989	536.71
491.342	466.65
491.694	552.53
492.047	507.33
492.399	543.49
492.751	493.77
493.104	482.47
493.456	527.67
493.808	437.28
494.16	475.69
494.513	441.8
494.865	532.19
495.217	563.83
495.569	448.58
495.921	575.13
496.273	559.31
496.625	480.21
496.977	444.06
497.329	520.89
497.68	523.15
498.032	563.83
498.384	500.55
498.736	477.95
499.087	507.33
499.439	568.35
499.791	563.83
500.142	493.77
500.494	552.53
500.845	520.89
501.197	496.03
501.548	511.85
501.9	505.07
502.251	548.01
502.602	511.85
502.954	489.25
503.305	491.51
503.656	532.19
504.007	484.73
504.358	514.11
504.709	500.55
505.061	439.54
505.412	493.77
505.763	527.67
506.113	561.57
506.464	538.97
506.815	505.07
507.166	511.85
507.517	572.87
507.868	491.51
508.218	502.81
508.569	516.37
508.92	557.05
509.27	482.47
509.621	541.23
509.971	586.43
510.322	498.29
510.672	491.51
511.023	507.33
511.373	523.15
511.723	491.51
512.074	491.51
512.424	566.09
512.774	486.99
513.124	597.72
513.475	518.63
513.825	577.39
514.175	586.43
514.525	597.72
514.875	534.45
515.225	586.43
515.575	602.24
515.924	579.65
516.274	559.31
516.624	541.23
516.974	550.27
517.324	529.93
517.673	532.19
518.023	575.13
518.373	570.61
518.722	590.94
519.072	633.88
519.421	683.6
519.771	613.54
520.12	642.92
520.469	654.22
520.819	672.3
521.168	622.58
521.517	651.96
521.867	710.72
522.216	606.76
522.565	633.88
522.914	631.62
523.263	642.92
523.612	640.66
523.961	733.31
524.31	631.62
524.659	609.02
525.008	661
525.357	638.4
525.705	647.44
526.054	561.57
526.403	627.1
526.752	717.5
527.1	638.4
527.449	579.65
527.797	550.27
528.146	633.88
528.495	647.44
528.843	710.72
529.191	656.48
529.54	701.68
529.888	688.12
530.236	672.3
530.585	647.44
530.933	740.09
531.281	615.8
531.629	726.53
531.977	690.38
532.325	762.69
532.673	656.48
533.021	744.61
533.369	661
533.717	703.94
534.065	681.34
534.413	665.52
534.761	688.12
535.108	676.82
535.456	629.36
535.804	724.27
536.151	690.38
536.499	624.84
536.847	613.54
537.194	663.26
537.542	672.3
537.889	715.24
538.236	624.84
538.584	595.46
538.931	701.68
539.278	636.14
539.626	688.12
539.973	595.46
540.32	649.7
540.667	595.46
541.014	656.48
541.361	633.88
541.708	679.08
542.055	620.32
542.402	746.87
542.749	697.16
543.096	593.2
543.443	622.58
543.789	654.22
544.136	656.48
544.483	624.84
544.83	685.86
545.176	633.88
545.523	640.66
545.869	627.1
546.216	676.82
546.562	722.01
546.909	656.48
547.255	595.46
547.601	618.06
547.948	645.18
548.294	629.36
548.64	645.18
548.986	674.56
549.332	559.31
549.678	618.06
550.025	688.12
550.371	692.64
550.717	624.84
551.062	717.5
551.408	679.08
551.754	613.54
552.1	584.17
552.446	638.4
552.792	665.52
553.137	645.18
553.483	663.26
553.828	627.1
554.174	636.14
554.52	715.24
554.865	656.48
555.211	685.86
555.556	602.24
555.901	638.4
556.247	645.18
556.592	633.88
556.937	640.66
557.282	602.24
557.628	724.27
557.973	627.1
558.318	588.69
558.663	624.84
559.008	649.7
559.353	685.86
559.698	609.02
560.043	699.42
560.388	651.96
560.732	663.26
561.077	638.4
561.422	690.38
561.766	656.48
562.111	649.7
562.456	672.3
562.8	647.44
563.145	611.28
563.489	672.3
563.834	602.24
564.178	654.22
564.523	726.53
564.867	679.08
565.211	688.12
565.555	661
565.9	708.46
566.244	658.74
566.588	647.44
566.932	658.74
567.276	708.46
567.62	764.95
567.964	683.6
568.308	681.34
568.652	683.6
568.996	708.46
569.339	735.57
569.683	633.88
570.027	796.59
570.371	674.56
570.714	688.12
571.058	642.92
571.401	715.24
571.745	651.96
572.088	740.09
572.432	722.01
572.775	627.1
573.118	712.98
573.462	679.08
573.805	654.22
574.148	690.38
574.491	719.76
574.835	722.01
575.178	697.16
575.521	735.57
575.864	688.12
576.207	690.38
576.55	683.6
576.892	755.91
577.235	674.56
577.578	688.12
577.921	731.05
578.264	717.5
578.606	631.62
578.949	633.88
579.292	672.3
579.634	645.18
579.977	701.68
580.319	661
580.662	699.42
581.004	701.68
581.346	683.6
581.689	638.4
582.031	740.09
582.373	685.86
582.715	708.46
583.057	665.52
583.4	688.12
583.742	645.18
584.084	674.56
584.426	613.54
584.768	627.1
585.109	674.56
585.451	590.94
585.793	688.12
586.135	667.78
586.477	588.69
586.818	647.44
587.16	681.34
587.502	631.62
587.843	629.36
588.185	667.78
588.526	584.17
588.868	663.26
589.209	663.26
589.55	629.36
589.892	575.13
590.233	529.93
590.574	627.1
590.915	629.36
591.257	611.28
591.598	581.91
591.939	581.91
592.28	570.61
592.621	586.43
592.962	568.35
593.303	523.15
593.643	606.76
593.984	543.49
594.325	651.96
594.666	609.02
595.006	541.23
595.347	581.91
595.688	541.23
596.028	568.35
596.369	520.89
596.709	575.13
597.05	493.77
597.39	595.46
597.73	581.91
598.071	541.23
598.411	559.31
598.751	502.81
599.091	536.71
599.431	541.23
599.772	500.55
600.112	525.41
600.452	484.73
600.792	453.1
601.132	548.01
601.471	455.36
601.811	568.35
602.151	520.89
602.491	568.35
602.831	498.29
603.17	502.81
603.51	491.51
603.849	518.63
604.189	518.63
604.528	509.59
604.868	482.47
605.207	482.47
605.547	450.84
605.886	489.25
606.225	468.91
606.565	475.69
606.904	468.91
607.243	498.29
607.582	511.85
607.921	500.55
608.26	502.81
608.599	498.29
608.938	428.24
609.277	505.07
609.616	432.76
609.955	435.02
610.293	480.21
610.632	496.03
610.971	486.99
611.309	414.68
611.648	441.8
611.987	500.55
612.325	398.86
612.664	529.93
613.002	430.5
613.34	464.39
613.679	484.73
614.017	516.37
614.355	419.2
614.694	457.62
615.032	464.39
615.37	471.17
615.708	412.42
616.046	414.68
616.384	477.95
616.722	475.69
617.06	421.46
617.398	493.77
617.736	425.98
618.073	446.32
618.411	459.87
618.749	439.54
619.086	448.58
619.424	457.62
619.762	502.81
620.099	441.8
620.437	477.95
620.774	394.34
621.112	430.5
621.449	328.8
621.786	444.06
622.123	374
622.461	389.82
622.798	455.36
623.135	389.82
623.472	380.78
623.809	450.84
624.146	448.58
624.483	405.64
624.82	416.94
625.157	367.22
625.494	468.91
625.83	380.78
626.167	432.76
626.504	480.21
626.841	428.24
627.177	473.43
627.514	378.52
627.85	407.9
628.187	459.87
628.523	392.08
628.86	464.39
629.196	444.06
629.532	437.28
629.869	385.3
630.205	509.59
630.541	471.17
630.877	529.93
631.213	486.99
631.549	453.1
631.885	335.58
632.221	425.98
632.557	423.72
632.893	358.18
633.229	439.54
633.564	385.3
633.9	423.72
634.236	392.08
634.572	412.42
634.907	412.42
635.243	385.3
635.578	383.04
635.914	405.64
636.249	462.13
636.585	466.65
636.92	387.56
637.255	412.42
637.59	419.2
637.926	437.28
638.261	405.64
638.596	351.4
638.931	376.26
639.266	340.1
639.601	430.5
639.936	403.38
640.271	351.4
640.606	450.84
640.94	405.64
641.275	385.3
641.61	378.52
641.945	421.46
642.279	374
642.614	326.55
642.948	412.42
643.283	346.88
643.617	430.5
643.952	362.7
644.286	367.22
644.62	414.68
644.955	419.2
645.289	410.16
645.623	387.56
645.957	364.96
646.291	380.78
646.625	362.7
646.959	353.66
647.293	389.82
647.627	376.26
647.961	392.08
648.295	344.62
648.629	369.48
648.962	398.86
649.296	362.7
649.63	349.14
649.963	358.18
650.297	450.84
650.63	353.66
650.964	328.8
651.297	380.78
651.631	355.92
651.964	407.9
652.297	342.36
652.631	335.58
652.964	385.3
653.297	355.92
653.63	428.24
653.963	251.97
654.296	315.25
654.629	319.77
654.962	364.96
655.295	351.4
655.628	342.36
655.961	387.56
656.293	299.43
656.626	367.22
656.959	355.92
657.291	362.7
657.624	340.1
657.956	403.38
658.289	310.73
658.621	369.48
658.954	315.25
659.286	276.83
659.618	310.73
659.95	342.36
660.283	335.58
660.615	310.73
660.947	371.74
661.279	346.88
661.611	374
661.943	349.14
662.275	346.88
662.607	340.1
662.939	303.95
663.27	378.52
663.602	401.12
663.934	299.43
664.266	319.77
664.597	294.91
664.929	303.95
665.26	306.21
665.592	376.26
665.923	355.92
666.255	324.29
666.586	344.62
666.917	362.7
667.248	360.44
667.58	331.06
667.911	308.47
668.242	312.99
668.573	349.14
668.904	335.58
669.235	290.39
669.566	333.32
669.897	315.25
670.228	369.48
670.558	369.48
670.889	322.03
671.22	376.26
671.551	292.65
671.881	326.55
672.212	306.21
672.542	326.55
672.873	276.83
673.203	360.44
673.533	344.62
673.864	337.84
674.194	353.66
674.524	297.17
674.855	306.21
675.185	294.91
675.515	351.4
675.845	267.79
676.175	349.14
676.505	362.7
676.835	344.62
677.165	297.17
677.494	346.88
677.824	364.96
678.154	344.62
678.484	324.29
678.813	265.53
679.143	281.35
679.472	231.63
679.802	380.78
680.131	261.01
680.461	265.53
680.79	281.35
681.119	299.43
681.449	312.99
681.778	322.03
682.107	362.7
682.436	283.61
682.765	281.35
683.094	344.62
683.423	360.44
683.752	301.69
684.081	288.13
684.41	294.91
684.739	258.75
685.067	256.49
685.396	344.62
685.725	249.71
686.053	303.95
686.382	383.04
686.711	358.18
687.039	274.57
687.367	285.87
687.696	315.25
688.024	328.8
688.352	303.95
688.681	331.06
689.009	349.14
689.337	281.35
689.665	317.51
689.993	279.09
690.321	288.13
690.649	256.49
690.977	270.05
691.305	297.17
691.633	285.87
691.961	258.75
692.288	335.58
692.616	288.13
692.944	294.91
693.271	276.83
693.599	285.87
693.926	324.29
694.254	276.83
694.581	333.32
694.908	270.05
695.236	292.65
695.563	274.57
695.89	272.31
696.217	335.58
696.544	292.65
696.871	331.06
697.198	315.25
697.525	312.99
697.852	220.33
698.179	245.19
698.506	247.45
698.833	315.25
699.16	349.14
699.486	274.57
699.813	294.91
700.139	340.1
700.466	290.39
700.793	306.21
701.119	256.49
701.445	315.25
701.772	294.91
702.098	324.29
702.424	401.12
702.75	299.43
703.077	308.47
703.403	265.53
703.729	242.93
704.055	312.99
704.381	324.29
704.707	335.58
705.033	326.55
705.358	303.95
705.684	283.61
706.01	310.73
706.336	279.09
706.661	290.39
706.987	312.99
707.312	340.1
707.638	285.87
707.963	281.35
708.289	299.43
708.614	337.84
708.939	276.83
709.265	333.32
709.59	276.83
709.915	328.8
710.24	288.13
710.565	315.25
710.89	306.21
711.215	281.35
711.54	310.73
711.865	279.09
712.19	242.93
712.515	254.23
712.839	206.77
713.164	202.25
713.489	346.88
713.813	236.15
714.138	312.99
714.462	294.91
714.787	272.31
715.111	249.71
715.435	292.65
715.76	245.19
716.084	322.03
716.408	290.39
716.732	328.8
717.056	254.23
717.381	299.43
717.705	349.14
718.028	233.89
718.352	261.01
718.676	326.55
719	249.71
719.324	315.25
719.648	227.11
719.971	283.61
720.295	283.61
720.618	340.1
720.942	281.35
721.265	285.87
721.589	272.31
721.912	303.95
722.236	294.91
722.559	274.57
722.882	267.79
723.205	272.31
723.528	306.21
723.851	303.95
724.174	274.57
724.497	213.55
724.82	285.87
725.143	319.77
725.466	279.09
725.789	240.67
726.112	301.69
726.434	265.53
726.757	310.73
727.08	288.13
727.402	322.03
727.725	328.8
728.047	288.13
728.37	324.29
728.692	326.55
729.014	308.47
729.336	274.57
729.659	233.89
729.981	285.87
730.303	270.05
730.625	242.93
730.947	306.21
731.269	283.61
731.591	319.77
731.913	261.01
732.235	331.06
732.556	292.65
732.878	270.05
733.2	249.71
733.521	312.99
733.843	261.01
734.164	312.99
734.486	247.45
734.807	258.75
735.129	242.93
735.45	346.88
735.771	364.96
736.092	265.53
736.414	231.63
736.735	292.65
737.056	258.75
737.377	236.15
737.698	299.43
738.019	190.96
738.34	310.73
738.66	331.06
738.981	245.19
739.302	292.65
739.623	288.13
739.943	317.51
740.264	245.19
740.584	220.33
740.905	245.19
741.225	299.43
741.546	249.71
741.866	297.17
742.186	299.43
742.507	261.01
742.827	261.01
743.147	211.29
743.467	322.03
743.787	294.91
744.107	267.79
744.427	267.79
744.747	245.19
745.067	288.13
745.386	242.93
745.706	245.19
746.026	306.21
746.346	245.19
746.665	245.19
746.985	265.53
747.304	281.35
747.624	267.79
747.943	294.91
748.262	349.14
748.582	227.11
748.901	233.89
749.22	294.91
749.539	315.25
749.858	283.61
750.177	285.87
750.496	274.57
750.815	290.39
751.134	206.77
751.453	265.53
751.772	251.97
752.09	285.87
752.409	240.67
752.728	222.59
753.046	328.8
753.365	270.05
753.683	328.8
754.002	254.23
754.32	236.15
754.639	265.53
754.957	319.77
755.275	245.19
755.593	238.41
755.911	270.05
756.23	233.89
756.548	308.47
756.866	283.61
757.183	242.93
757.501	297.17
757.819	333.32
758.137	220.33
758.455	328.8
758.772	263.27
759.09	290.39
759.408	303.95
759.725	308.47
760.043	249.71
760.36	229.37
760.677	238.41
760.995	270.05
761.312	276.83
761.629	299.43
761.946	256.49
762.264	297.17
762.581	261.01
762.898	340.1
763.215	294.91
763.532	333.32
763.848	337.84
764.165	279.09
764.482	256.49
764.799	340.1
765.115	267.79
765.432	326.55
765.749	245.19
766.065	306.21
766.382	242.93
766.698	256.49
767.014	276.83
767.331	251.97
767.647	245.19
767.963	294.91
768.279	242.93
768.595	276.83
768.911	279.09
769.227	267.79
769.543	218.07
769.859	292.65
770.175	288.13
770.491	276.83
770.807	233.89
771.122	242.93
771.438	231.63
771.754	249.71
772.069	290.39
772.385	265.53
772.7	218.07
773.016	242.93
773.331	294.91
773.646	299.43
773.961	315.25
774.277	195.48
774.592	294.91
774.907	319.77
775.222	310.73
775.537	263.27
775.852	324.29
776.167	283.61
776.482	306.21
776.796	301.69
777.111	238.41
777.426	227.11
777.74	322.03
778.055	263.27
778.369	340.1
778.684	263.27
778.998	279.09
779.313	340.1
779.627	281.35
779.941	281.35
780.255	285.87
780.57	297.17
780.884	229.37
781.198	303.95
781.512	236.15
781.826	308.47
782.14	245.19
782.453	224.85
782.767	258.75
783.081	310.73
783.395	242.93
783.708	251.97
784.022	324.29
784.335	249.71
784.649	236.15
784.962	249.71
785.276	297.17
785.589	283.61
785.902	240.67
786.216	285.87
786.529	344.62
786.842	324.29
787.155	281.35
787.468	342.36
787.781	256.49
788.094	279.09
788.407	267.79
788.72	265.53
789.032	240.67
789.345	294.91
789.658	245.19
789.97	224.85
790.283	324.29
790.595	261.01
790.908	231.63
791.22	251.97
791.532	224.85
791.845	306.21
792.157	190.96
792.469	251.97
792.781	220.33
793.093	220.33
793.405	285.87
793.717	297.17
794.029	292.65
794.341	263.27
794.653	333.32
794.965	344.62
795.276	288.13
795.588	220.33
795.9	270.05
796.211	333.32
796.523	261.01
796.834	301.69
797.146	276.83
797.457	294.91
797.768	281.35
798.08	261.01
798.391	294.91
798.702	328.8
799.013	297.17
799.324	276.83
799.635	267.79
799.946	283.61
800.257	263.27
800.568	251.97
800.878	285.87
801.189	276.83
801.5	245.19
801.81	254.23
802.121	294.91
802.431	272.31
802.742	265.53
803.052	285.87
803.363	331.06
803.673	272.31
803.983	242.93
804.293	274.57
804.603	267.79
804.913	220.33
805.224	247.45
805.533	229.37
805.843	242.93
806.153	258.75
806.463	340.1
806.773	297.17
807.083	281.35
807.392	238.41
807.702	272.31
808.011	294.91
808.321	272.31
808.63	233.89
808.94	312.99
809.249	331.06
809.558	256.49
809.868	215.81
810.177	270.05
810.486	272.31
810.795	294.91
811.104	254.23
811.413	292.65
811.722	326.55
812.031	270.05
812.339	222.59
812.648	254.23
812.957	240.67
813.266	283.61
813.574	218.07
813.883	258.75
814.191	258.75
814.5	276.83
814.808	256.49
815.116	276.83
815.424	297.17
815.733	265.53
816.041	303.95
816.349	322.03
816.657	215.81
816.965	301.69
817.273	308.47
817.581	283.61
817.889	236.15
818.196	213.55
818.504	258.75
818.812	211.29
819.12	283.61
819.427	331.06
819.735	256.49
820.042	247.45
820.349	251.97
820.657	285.87
820.964	256.49
821.271	285.87
821.579	303.95
821.886	251.97
822.193	258.75
822.5	272.31
822.807	245.19
823.114	285.87
823.421	238.41
823.727	204.51
824.034	272.31
824.341	294.91
824.648	283.61
824.954	263.27
825.261	344.62
825.567	251.97
825.874	315.25
826.18	222.59
826.486	342.36
826.793	274.57
827.099	270.05
827.405	276.83
827.711	299.43
828.017	319.77
828.323	272.31
828.629	292.65
828.935	303.95
829.241	331.06
829.547	317.51
829.852	340.1
830.158	249.71
830.464	301.69
830.769	258.75
831.075	256.49
831.38	261.01
831.686	355.92
831.991	281.35
832.296	292.65
832.601	245.19
832.907	256.49
833.212	256.49
833.517	188.7
833.822	224.85
834.127	236.15
834.432	276.83
834.737	261.01
835.041	285.87
835.346	256.49
835.651	254.23
835.956	274.57
836.26	256.49
836.565	322.03
836.869	272.31
837.174	272.31
837.478	317.51
837.782	276.83
838.087	258.75
838.391	229.37
838.695	184.18
838.999	285.87
839.303	202.25
839.607	299.43
839.911	331.06
840.215	224.85
840.519	249.71
840.822	258.75
841.126	213.55
841.43	222.59
841.733	288.13
842.037	256.49
842.34	312.99
842.644	326.55
842.947	290.39
843.251	265.53
843.554	283.61
843.857	274.57
844.16	279.09
844.463	331.06
844.766	279.09
845.069	238.41
845.372	292.65
845.675	270.05
845.978	245.19
846.281	288.13
846.583	301.69
846.886	290.39
847.189	303.95
847.491	299.43
847.794	265.53
848.096	233.89
848.399	290.39
848.701	190.96
849.003	265.53
849.305	315.25
849.608	283.61
849.91	263.27
850.212	263.27
850.514	297.17
850.816	231.63
851.118	276.83
851.419	303.95
851.721	270.05
852.023	220.33
852.325	288.13
852.626	301.69
852.928	224.85
853.229	270.05
853.531	283.61
853.832	270.05
854.133	267.79
854.435	274.57
854.736	281.35
855.037	265.53
855.338	299.43
855.639	240.67
855.94	204.51
856.241	254.23
856.542	322.03
856.843	245.19
857.144	247.45
857.444	272.31
857.745	238.41
858.046	299.43
858.346	267.79
858.647	299.43
858.947	251.97
859.247	227.11
859.548	355.92
859.848	267.79
860.148	218.07
860.448	242.93
860.749	294.91
861.049	301.69
861.349	276.83
861.648	229.37
861.948	303.95
862.248	285.87
862.548	331.06
862.848	301.69
863.147	353.66
863.447	317.51
863.746	297.17
864.046	233.89
864.345	265.53
864.645	263.27
864.944	236.15
865.243	297.17
865.542	288.13
865.842	240.67
866.141	297.17
866.44	290.39
866.739	254.23
867.038	294.91
867.337	261.01
867.635	288.13
867.934	254.23
868.233	290.39
868.531	283.61
868.83	238.41
869.129	256.49
869.427	276.83
869.725	301.69
870.024	312.99
870.322	211.29
870.62	254.23
870.918	283.61
871.217	322.03
871.515	308.47
871.813	279.09
872.111	193.22
872.409	337.84
872.706	224.85
873.004	272.31
873.302	285.87
873.6	261.01
873.897	272.31
874.195	256.49
874.492	240.67
874.79	270.05
875.087	249.71
875.384	245.19
875.682	281.35
875.979	263.27
876.276	236.15
876.573	263.27
876.87	263.27
877.167	263.27
