Data from PL_2polymer_F8BT_MEHPPV_USB2H096331_0136.txt Node
Date: Tue Dec 15 16:19:42 CET 2020
User: spadmin
Spectrometer: USB2+H09633
Trigger mode: 0
Integration Time (sec): 1.000000E-2
Scans to average: 1
Electric dark correction enabled: true
Nonlinearity correction enabled: false
Boxcar width: 0
XAxis mode: Wavelengths
Number of Pixels in Spectrum: 2048
>>>>>Begin Spectral Data<<<<<
174.027	-82.2
174.405	-82.2
174.783	-82.2
175.162	-118.36
175.54	-93.5
175.918	-64.12
176.296	-77.68
176.674	-95.76
177.052	-109.32
177.43	-21.19
177.808	-77.68
178.186	-138.7
178.564	-30.23
178.942	-7.63
179.32	33.05
179.698	-18.93
180.076	33.05
180.453	48.87
180.831	91.81
181.209	89.55
181.587	48.87
181.965	231.91
182.342	123.44
182.72	200.28
183.098	202.54
183.475	193.5
183.853	324.57
184.231	344.91
184.608	311.01
184.986	317.79
185.363	301.97
185.741	340.39
186.118	297.45
186.496	360.72
186.873	317.79
187.251	329.09
187.628	317.79
188.006	347.17
188.383	358.47
188.76	299.71
189.138	320.05
189.515	372.02
189.892	347.17
190.27	374.28
190.647	290.67
191.024	322.31
191.401	338.13
191.778	342.65
192.155	353.95
192.533	344.91
192.91	283.89
193.287	333.61
193.664	349.43
194.041	383.32
194.418	414.96
194.795	288.41
195.172	317.79
195.549	324.57
195.926	367.5
196.302	265.81
196.679	349.43
197.056	349.43
197.433	288.41
197.81	297.45
198.187	326.83
198.563	193.5
198.94	396.88
199.317	329.09
199.693	383.32
200.07	304.23
200.447	313.27
200.823	311.01
201.2	365.24
201.576	317.79
201.953	315.53
202.329	344.91
202.706	322.31
203.082	358.47
203.459	324.57
203.835	340.39
204.212	324.57
204.588	313.27
204.964	297.45
205.341	277.11
205.717	405.92
206.093	356.21
206.469	256.77
206.846	329.09
207.222	326.83
207.598	315.53
207.974	299.71
208.35	360.72
208.726	313.27
209.102	385.58
209.479	396.88
209.855	279.37
210.231	410.44
210.607	347.17
210.982	365.24
211.358	324.57
211.734	311.01
212.11	306.49
212.486	353.95
212.862	288.41
213.238	326.83
213.614	358.47
213.989	279.37
214.365	333.61
214.741	272.59
215.116	315.53
215.492	349.43
215.868	331.35
216.243	299.71
216.619	274.85
216.995	351.69
217.37	347.17
217.746	385.58
218.121	387.84
218.497	338.13
218.872	311.01
219.247	378.8
219.623	292.93
219.998	295.19
220.374	399.14
220.749	396.88
221.124	320.05
221.499	369.76
221.875	390.1
222.25	372.02
222.625	376.54
223	353.95
223.376	333.61
223.751	351.69
224.126	308.75
224.501	301.97
224.876	347.17
225.251	376.54
225.626	360.72
226.001	338.13
226.376	256.77
226.751	374.28
227.126	385.58
227.501	376.54
227.875	401.4
228.25	378.8
228.625	401.4
229	374.28
229.375	317.79
229.749	320.05
230.124	344.91
230.499	367.5
230.873	383.32
231.248	365.24
231.623	331.35
231.997	374.28
232.372	367.5
232.746	344.91
233.121	362.98
233.495	356.21
233.87	412.7
234.244	344.91
234.619	335.87
234.993	356.21
235.367	414.96
235.742	326.83
236.116	448.86
236.49	383.32
236.865	333.61
237.239	383.32
237.613	333.61
237.987	338.13
238.361	335.87
238.736	385.58
239.11	362.98
239.484	394.62
239.858	401.4
240.232	390.1
240.606	387.84
240.98	396.88
241.354	362.98
241.728	396.88
242.102	358.47
242.475	408.18
242.849	331.35
243.223	385.58
243.597	387.84
243.971	333.61
244.344	396.88
244.718	385.58
245.092	329.09
245.466	362.98
245.839	324.57
246.213	360.72
246.586	351.69
246.96	383.32
247.334	353.95
247.707	376.54
248.081	401.4
248.454	356.21
248.828	340.39
249.201	340.39
249.574	360.72
249.948	362.98
250.321	414.96
250.694	372.02
251.068	367.5
251.441	344.91
251.814	358.47
252.187	329.09
252.561	347.17
252.934	392.36
253.307	313.27
253.68	399.14
254.053	394.62
254.426	417.22
254.799	399.14
255.172	408.18
255.545	430.78
255.918	387.84
256.291	437.56
256.664	342.65
257.037	390.1
257.41	342.65
257.782	410.44
258.155	442.08
258.528	322.31
258.901	385.58
259.273	412.7
259.646	322.31
260.019	378.8
260.391	381.06
260.764	403.66
261.137	424
261.509	408.18
261.882	358.47
262.254	331.35
262.627	419.48
262.999	433.04
263.372	365.24
263.744	320.05
264.116	369.76
264.489	421.74
264.861	421.74
265.233	394.62
265.606	387.84
265.978	405.92
266.35	372.02
266.722	301.97
267.094	344.91
267.467	412.7
267.839	428.52
268.211	403.66
268.583	421.74
268.955	362.98
269.327	410.44
269.699	396.88
270.071	410.44
270.443	360.72
270.815	349.43
271.186	392.36
271.558	401.4
271.93	383.32
272.302	399.14
272.674	362.98
273.045	405.92
273.417	437.56
273.789	410.44
274.16	405.92
274.532	417.22
274.904	372.02
275.275	385.58
275.647	381.06
276.018	394.62
276.39	329.09
276.761	403.66
277.133	442.08
277.504	419.48
277.875	360.72
278.247	414.96
278.618	403.66
278.989	421.74
279.361	457.9
279.732	426.26
280.103	414.96
280.474	446.6
280.846	396.88
281.217	433.04
281.588	414.96
281.959	426.26
282.33	392.36
282.701	444.34
283.072	414.96
283.443	419.48
283.814	446.6
284.185	351.69
284.556	408.18
284.927	419.48
285.297	381.06
285.668	457.9
286.039	426.26
286.41	385.58
286.781	358.47
287.151	428.52
287.522	437.56
287.893	417.22
288.263	451.12
288.634	374.28
289.004	455.64
289.375	430.78
289.745	471.46
290.116	471.46
290.486	392.36
290.857	439.82
291.227	374.28
291.598	433.04
291.968	464.68
292.338	451.12
292.709	469.2
293.079	505.35
293.449	428.52
293.819	437.56
294.189	453.38
294.56	453.38
294.93	457.9
295.3	428.52
295.67	401.4
296.04	419.48
296.41	507.61
296.78	460.16
297.15	383.32
297.52	455.64
297.89	333.61
298.259	421.74
298.629	464.68
298.999	421.74
299.369	430.78
299.739	433.04
300.108	356.21
300.478	496.31
300.848	392.36
301.217	494.05
301.587	403.66
301.957	518.91
302.326	433.04
302.696	491.79
303.065	536.99
303.435	487.28
303.804	399.14
304.174	503.09
304.543	437.56
304.912	448.86
305.282	523.43
305.651	485.02
306.02	451.12
306.39	500.83
306.759	455.64
307.128	507.61
307.497	453.38
307.866	383.32
308.235	453.38
308.604	428.52
308.974	464.68
309.343	494.05
309.712	498.57
310.08	439.82
310.449	489.54
310.818	460.16
311.187	475.98
311.556	577.67
311.925	509.87
312.294	473.72
312.662	478.24
313.031	500.83
313.4	485.02
313.769	480.5
314.137	412.7
314.506	471.46
314.874	475.98
315.243	584.45
315.612	516.65
315.98	527.95
316.349	509.87
316.717	548.29
317.085	496.31
317.454	514.39
317.822	426.26
318.191	552.81
318.559	455.64
318.927	575.41
319.295	536.99
319.664	448.86
320.032	491.79
320.4	536.99
320.768	539.25
321.136	516.65
321.504	559.59
321.872	462.42
322.24	552.81
322.608	512.13
322.976	505.35
323.344	536.99
323.712	530.21
324.08	518.91
324.448	464.68
324.816	507.61
325.183	489.54
325.551	527.95
325.919	462.42
326.287	500.83
326.654	428.52
327.022	536.99
327.389	525.69
327.757	507.61
328.125	539.25
328.492	570.89
328.86	464.68
329.227	500.83
329.594	514.39
329.962	591.23
330.329	507.61
330.697	561.85
331.064	478.24
331.431	503.09
331.798	555.07
332.166	546.03
332.533	600.27
332.9	579.93
333.267	613.83
333.634	550.55
334.001	573.15
334.368	618.35
334.735	577.67
335.102	586.71
335.469	607.05
335.836	598.01
336.203	613.83
336.57	625.12
336.937	559.59
337.304	609.31
337.67	629.64
338.037	573.15
338.404	595.75
338.771	602.53
339.137	546.03
339.504	647.72
339.87	616.09
340.237	611.57
340.604	613.83
340.97	591.23
341.337	607.05
341.703	602.53
342.069	665.8
342.436	679.36
342.802	620.61
343.169	570.89
343.535	654.5
343.901	656.76
344.267	622.86
344.634	643.2
345	609.31
345.366	663.54
345.732	622.86
346.098	584.45
346.464	672.58
346.83	668.06
347.196	649.98
347.562	629.64
347.928	717.78
348.294	629.64
348.66	649.98
349.026	634.16
349.392	713.26
349.757	649.98
350.123	726.82
350.489	697.44
350.855	677.1
351.22	749.42
351.586	652.24
351.951	686.14
352.317	672.58
352.683	706.48
353.048	778.79
353.414	708.74
353.779	744.9
354.144	760.71
354.51	790.09
354.875	729.08
355.24	717.78
355.606	724.56
355.971	778.79
356.336	787.83
356.701	769.75
357.067	692.92
357.432	738.12
357.797	767.49
358.162	774.27
358.527	794.61
358.892	799.13
359.257	792.35
359.622	744.9
359.987	742.64
360.352	821.73
360.717	830.77
361.082	787.83
361.446	808.17
361.811	749.42
362.176	862.41
362.541	805.91
362.905	837.55
363.27	871.45
363.635	1007.04
363.999	882.75
364.364	943.76
364.728	936.98
365.093	952.8
365.457	970.88
365.822	907.6
366.186	930.2
366.55	964.1
366.915	927.94
367.279	912.12
367.643	984.44
368.008	1016.07
368.372	1007.04
368.736	1031.89
369.1	1063.53
369.464	1074.83
369.828	1086.13
370.192	1110.99
370.556	1212.68
370.92	1144.89
371.284	1228.5
371.648	1181.04
372.012	1255.62
372.376	1341.49
372.74	1307.59
373.104	1370.87
373.468	1416.06
373.831	1461.26
374.195	1447.7
374.559	1553.91
374.922	1567.47
375.286	1565.21
375.65	1646.57
376.013	1741.48
376.377	1721.14
376.74	1793.46
377.104	1779.9
377.467	1870.29
377.83	2112.09
378.194	2130.17
378.557	2338.07
378.92	2268.02
379.284	2421.69
379.647	2722.24
380.01	2873.65
380.373	2943.71
380.736	3079.3
381.1	3567.42
381.463	3651.03
381.826	3951.59
382.189	4254.41
382.552	4643.1
382.915	4900.72
383.278	5266.81
383.64	5589.97
384.003	6141.36
384.366	6627.23
384.729	7287.1
385.092	7906.29
385.454	8561.64
385.817	9639.58
386.18	10303.97
386.542	11381.9
386.905	12496
387.268	13797.66
387.63	15196.49
387.993	16197.6
388.355	17808.85
388.718	19779.42
389.08	21374.86
389.442	23413.23
389.805	25243.69
390.167	27101.26
390.529	30041.3
390.892	34170.01
391.254	35794.82
391.616	38310.01
391.978	42429.68
392.34	46418.27
392.702	48162.86
393.064	51498.36
393.426	53428.26
393.788	55532.16
394.15	57265.44
394.512	58951.27
394.874	60709.42
395.236	62596.38
395.598	64239.27
395.96	65082.19
396.321	65082.19
396.683	65082.19
397.045	65082.19
397.406	65082.19
397.768	65082.19
398.13	65082.19
398.491	65082.19
398.853	65082.19
399.214	65082.19
399.576	65082.19
399.937	65082.19
400.299	65082.19
400.66	65082.19
401.021	65082.19
401.383	65082.19
401.744	65082.19
402.105	65082.19
402.466	65082.19
402.827	65082.19
403.189	65082.19
403.55	65082.19
403.911	65082.19
404.272	65082.19
404.633	65082.19
404.994	65082.19
405.355	65082.19
405.716	65082.19
406.077	65082.19
406.437	65082.19
406.798	65082.19
407.159	65082.19
407.52	65082.19
407.88	65082.19
408.241	65082.19
408.602	65082.19
408.962	65082.19
409.323	65082.19
409.684	65082.19
410.044	65082.19
410.405	65082.19
410.765	65082.19
411.125	65082.19
411.486	65082.19
411.846	65082.19
412.206	65082.19
412.567	65082.19
412.927	65082.19
413.287	65082.19
413.647	65082.19
414.007	65082.19
414.368	65082.19
414.728	65082.19
415.088	65082.19
415.448	65082.19
415.808	65082.19
416.168	65082.19
416.528	65082.19
416.887	65082.19
417.247	65082.19
417.607	65082.19
417.967	65082.19
418.327	65082.19
418.686	65082.19
419.046	65082.19
419.406	65082.19
419.765	65082.19
420.125	65082.19
420.484	65082.19
420.844	65082.19
421.203	65082.19
421.563	64415.54
421.922	64006.51
422.282	62246.1
422.641	60867.61
423	59626.96
423.36	58381.8
423.719	56370.55
424.078	54404.5
424.437	52743.53
424.796	51066.74
425.155	49561.69
425.515	47588.86
425.874	45674.79
426.233	41405.97
426.592	39399.25
426.95	38689.66
427.309	36007.25
427.668	35557.54
428.027	32285.31
428.386	31539.57
428.745	28242.48
429.103	27223.3
429.462	25729.55
429.821	24023.38
430.179	23363.51
430.538	22400.82
430.897	21853.95
431.255	20620.08
431.614	19250.62
431.972	18376.07
432.33	17553.49
432.689	17388.53
433.047	16308.33
433.405	15221.35
433.764	14480.13
434.122	14324.2
434.48	13363.77
434.838	12889.21
435.197	12584.13
435.555	12055.33
435.913	11418.06
436.271	10651.98
436.629	10274.59
436.987	9840.7
437.345	9345.8
437.703	9174.05
438.061	8606.84
438.418	8046.4
438.776	7838.49
439.134	7556.02
439.492	7278.06
439.849	7045.29
440.207	6453.22
440.565	6310.85
440.922	6111.99
441.28	5700.7
441.637	5709.74
441.995	5293.93
442.352	5169.64
442.71	4780.95
443.067	4792.25
443.425	4575.3
443.782	4390
444.139	4270.23
444.496	4028.43
444.854	3867.98
445.211	3669.11
445.568	3669.11
445.925	3456.69
446.282	3395.67
446.639	3418.27
446.996	3205.85
447.353	3284.94
447.71	3203.59
448.067	3221.67
448.424	2995.68
448.781	2787.78
449.137	2679.31
449.494	2543.72
449.851	2505.3
450.208	2399.09
450.564	2324.52
450.921	2136.95
451.278	2277.06
451.634	2200.22
451.991	2166.33
452.347	2121.13
452.704	1987.8
453.06	1883.85
453.416	1904.19
453.773	1775.38
454.129	1910.97
454.485	1669.17
454.841	1748.26
455.198	1583.29
455.554	1501.94
455.91	1479.34
456.266	1560.69
456.622	1456.74
456.978	1474.82
457.334	1348.27
457.69	1221.72
458.046	1201.38
458.402	1219.46
458.758	1165.22
459.114	1113.25
459.469	1151.66
459.825	1115.51
460.181	1140.37
460.536	1083.87
460.892	964.1
461.248	1034.15
461.603	1047.71
461.959	1038.67
462.314	1040.93
462.67	948.28
463.025	977.66
463.38	991.22
463.736	921.16
464.091	860.15
464.446	848.85
464.802	939.24
465.157	891.78
465.512	862.41
465.867	853.37
466.222	821.73
466.577	830.77
466.932	842.07
467.287	711
467.642	801.39
467.997	778.79
468.352	756.19
468.707	796.87
469.062	769.75
469.417	744.9
469.771	794.61
470.126	692.92
470.481	681.62
470.835	695.18
471.19	683.88
471.544	713.26
471.899	688.4
472.253	697.44
472.608	756.19
472.962	659.02
473.317	713.26
473.671	670.32
474.025	647.72
474.38	683.88
474.734	670.32
475.088	620.61
475.442	634.16
475.796	674.84
476.15	724.56
476.504	602.53
476.858	638.68
477.212	647.72
477.566	613.83
477.92	607.05
478.274	659.02
478.628	575.41
478.982	557.33
479.336	564.11
479.689	616.09
480.043	643.2
480.397	672.58
480.75	593.49
481.104	620.61
481.457	607.05
481.811	602.53
482.164	604.79
482.518	609.31
482.871	604.79
483.225	622.86
483.578	604.79
483.931	561.85
484.284	543.77
484.638	498.57
484.991	548.29
485.344	613.83
485.697	566.37
486.05	557.33
486.403	494.05
486.756	559.59
487.109	568.63
487.462	634.16
487.815	543.77
488.168	552.81
488.52	509.87
488.873	555.07
489.226	607.05
489.579	561.85
489.931	487.28
490.284	548.29
490.637	536.99
490.989	541.51
491.342	546.03
491.694	541.51
492.047	516.65
492.399	480.5
492.751	546.03
493.104	546.03
493.456	505.35
493.808	500.83
494.16	539.25
494.513	575.41
494.865	541.51
495.217	457.9
495.569	561.85
495.921	527.95
496.273	487.28
496.625	550.55
496.977	525.69
497.329	555.07
497.68	521.17
498.032	561.85
498.384	514.39
498.736	530.21
499.087	561.85
499.439	541.51
499.791	543.77
500.142	509.87
500.494	559.59
500.845	496.31
501.197	536.99
501.548	552.81
501.9	534.73
502.251	491.79
502.602	412.7
502.954	496.31
503.305	482.76
503.656	546.03
504.007	498.57
504.358	532.47
504.709	478.24
505.061	561.85
505.412	561.85
505.763	516.65
506.113	546.03
506.464	555.07
506.815	523.43
507.166	530.21
507.517	564.11
507.868	514.39
508.218	494.05
508.569	471.46
508.92	543.77
509.27	485.02
509.621	609.31
509.971	588.97
510.322	516.65
510.672	541.51
511.023	595.75
511.373	575.41
511.723	573.15
512.074	546.03
512.424	638.68
512.774	582.19
513.124	622.86
513.475	629.64
513.825	579.93
514.175	584.45
514.525	627.38
514.875	683.88
515.225	631.9
515.575	659.02
515.924	618.35
516.274	525.69
516.624	640.94
516.974	708.74
517.324	602.53
517.673	670.32
518.023	686.14
518.373	604.79
518.722	618.35
519.072	643.2
519.421	681.62
519.771	740.38
520.12	672.58
520.469	708.74
520.819	699.7
521.168	753.93
521.517	713.26
521.867	747.16
522.216	656.76
522.565	701.96
522.914	701.96
523.263	706.48
523.612	695.18
523.961	758.45
524.31	706.48
524.659	758.45
525.008	790.09
525.357	681.62
525.705	690.66
526.054	690.66
526.403	720.04
526.752	677.1
527.1	726.82
527.449	699.7
527.797	805.91
528.146	783.31
528.495	760.71
528.843	713.26
529.191	796.87
529.54	783.31
529.888	713.26
530.236	731.34
530.585	769.75
530.933	726.82
531.281	762.97
531.629	783.31
531.977	803.65
532.325	776.53
532.673	781.05
533.021	744.9
533.369	731.34
533.717	742.64
534.065	749.42
534.413	783.31
534.761	726.82
535.108	753.93
535.456	706.48
535.804	817.21
536.151	753.93
536.499	699.7
536.847	744.9
537.194	715.52
537.542	701.96
537.889	774.27
538.236	742.64
538.584	772.01
538.931	751.68
539.278	792.35
539.626	699.7
539.973	833.03
540.32	665.8
540.667	803.65
541.014	738.12
541.361	776.53
541.708	724.56
542.055	711
542.402	760.71
542.749	720.04
543.096	790.09
543.443	708.74
543.789	688.4
544.136	738.12
544.483	688.4
544.83	778.79
545.176	769.75
545.523	790.09
545.869	740.38
546.216	765.23
546.562	711
546.909	742.64
547.255	769.75
547.601	720.04
547.948	706.48
548.294	704.22
548.64	753.93
548.986	692.92
549.332	769.75
549.678	738.12
550.025	713.26
550.371	692.92
550.717	690.66
551.062	772.01
551.408	726.82
551.754	738.12
552.1	767.49
552.446	787.83
552.792	812.69
553.137	747.16
553.483	744.9
553.828	851.11
554.174	792.35
554.52	715.52
554.865	679.36
555.211	762.97
555.556	769.75
555.901	792.35
556.247	740.38
556.592	783.31
556.937	762.97
557.282	857.89
557.628	790.09
557.973	803.65
558.318	738.12
558.663	848.85
559.008	781.05
559.353	826.25
559.698	747.16
560.043	740.38
560.388	740.38
560.732	787.83
561.077	853.37
561.422	812.69
561.766	862.41
562.111	821.73
562.456	812.69
562.8	900.82
563.145	821.73
563.489	844.33
563.834	844.33
564.178	823.99
564.523	817.21
564.867	851.11
565.211	903.08
565.555	778.79
565.9	869.19
566.244	930.2
566.588	801.39
566.932	851.11
567.276	896.3
567.62	936.98
567.964	869.19
568.308	851.11
568.652	927.94
568.996	873.71
569.339	882.75
569.683	898.56
570.027	909.86
570.371	873.71
570.714	957.32
571.058	866.93
571.401	866.93
571.745	964.1
572.088	907.6
572.432	894.04
572.775	817.21
573.118	857.89
573.462	894.04
573.805	909.86
574.148	950.54
574.491	823.99
574.835	833.03
575.178	921.16
575.521	864.67
575.864	885
576.207	851.11
576.55	887.26
576.892	907.6
577.235	887.26
577.578	952.8
577.921	873.71
578.264	898.56
578.606	948.28
578.949	817.21
579.292	860.15
579.634	851.11
579.977	871.45
580.319	848.85
580.662	923.42
581.004	864.67
581.346	914.38
581.689	875.97
582.031	932.46
582.373	880.49
582.715	869.19
583.057	864.67
583.4	900.82
583.742	873.71
584.084	864.67
584.426	826.25
584.768	875.97
585.109	787.83
585.451	873.71
585.793	839.81
586.135	819.47
586.477	796.87
586.818	835.29
587.16	839.81
587.502	819.47
587.843	819.47
588.185	783.31
588.526	844.33
588.868	819.47
589.209	855.63
589.55	760.71
589.892	762.97
590.233	857.89
590.574	765.23
590.915	781.05
591.257	823.99
591.598	796.87
591.939	810.43
592.28	742.64
592.621	753.93
592.962	722.3
593.303	785.57
593.643	749.42
593.984	704.22
594.325	772.01
594.666	704.22
595.006	706.48
595.347	713.26
595.688	756.19
596.028	708.74
596.369	665.8
596.709	661.28
597.05	668.06
597.39	686.14
597.73	805.91
598.071	663.54
598.411	715.52
598.751	665.8
599.091	609.31
599.431	649.98
599.772	620.61
600.112	645.46
600.452	582.19
600.792	584.45
601.132	713.26
601.471	636.42
601.811	663.54
602.151	620.61
602.491	579.93
602.831	568.63
603.17	604.79
603.51	609.31
603.849	512.13
604.189	602.53
604.528	559.59
604.868	577.67
605.207	543.77
605.547	532.47
605.886	557.33
606.225	561.85
606.565	575.41
606.904	518.91
607.243	539.25
607.582	634.16
607.921	570.89
608.26	604.79
608.599	598.01
608.938	564.11
609.277	503.09
609.616	613.83
609.955	566.37
610.293	539.25
610.632	622.86
610.971	561.85
611.309	588.97
611.648	496.31
611.987	527.95
612.325	552.81
612.664	631.9
613.002	604.79
613.34	600.27
613.679	505.35
614.017	588.97
614.355	552.81
614.694	652.24
615.032	616.09
615.37	509.87
615.708	548.29
616.046	557.33
616.384	550.55
616.722	625.12
617.06	579.93
617.398	555.07
617.736	566.37
618.073	521.17
618.411	525.69
618.749	534.73
619.086	500.83
619.424	559.59
619.762	532.47
620.099	557.33
620.437	536.99
620.774	541.51
621.112	536.99
621.449	514.39
621.786	482.76
622.123	546.03
622.461	552.81
622.798	631.9
623.135	548.29
623.472	521.17
623.809	496.31
624.146	503.09
624.483	507.61
624.82	527.95
625.157	498.57
625.494	509.87
625.83	512.13
626.167	543.77
626.504	523.43
626.841	516.65
627.177	530.21
627.514	557.33
627.85	564.11
628.187	512.13
628.523	527.95
628.86	496.31
629.196	503.09
629.532	577.67
629.869	543.77
630.205	462.42
630.541	550.55
630.877	577.67
631.213	530.21
631.549	498.57
631.885	496.31
632.221	478.24
632.557	482.76
632.893	536.99
633.229	514.39
633.564	512.13
633.9	525.69
634.236	521.17
634.572	539.25
634.907	579.93
635.243	433.04
635.578	532.47
635.914	410.44
636.249	451.12
636.585	453.38
636.92	455.64
637.255	462.42
637.59	507.61
637.926	460.16
638.261	421.74
638.596	444.34
638.931	412.7
639.266	360.72
639.601	539.25
639.936	430.78
640.271	417.22
640.606	482.76
640.94	444.34
641.275	444.34
641.61	464.68
641.945	455.64
642.279	512.13
642.614	505.35
642.948	480.5
643.283	448.86
643.617	435.3
643.952	396.88
644.286	435.3
644.62	475.98
644.955	503.09
645.289	480.5
645.623	387.84
645.957	507.61
646.291	392.36
646.625	444.34
646.959	491.79
647.293	471.46
647.627	376.54
647.961	518.91
648.295	412.7
648.629	514.39
648.962	442.08
649.296	401.4
649.63	428.52
649.963	487.28
650.297	367.5
650.63	439.82
650.964	356.21
651.297	433.04
651.631	421.74
651.964	396.88
652.297	362.98
652.631	453.38
652.964	383.32
653.297	403.66
653.63	390.1
653.963	390.1
654.296	412.7
654.629	410.44
654.962	378.8
655.295	405.92
655.628	392.36
655.961	399.14
656.293	340.39
656.626	349.43
656.959	408.18
657.291	392.36
657.624	340.39
657.956	401.4
658.289	410.44
658.621	362.98
658.954	385.58
659.286	417.22
659.618	444.34
659.95	356.21
660.283	362.98
660.615	353.95
660.947	396.88
661.279	347.17
661.611	360.72
661.943	376.54
662.275	378.8
662.607	349.43
662.939	442.08
663.27	378.8
663.602	455.64
663.934	376.54
664.266	392.36
664.597	362.98
664.929	394.62
665.26	335.87
665.592	372.02
665.923	317.79
666.255	331.35
666.586	365.24
666.917	338.13
667.248	326.83
667.58	372.02
667.911	417.22
668.242	311.01
668.573	347.17
668.904	351.69
669.235	347.17
669.566	383.32
669.897	372.02
670.228	383.32
670.558	313.27
670.889	324.57
671.22	353.95
671.551	272.59
671.881	311.01
672.212	372.02
672.542	419.48
672.873	381.06
673.203	322.31
673.533	333.61
673.864	360.72
674.194	329.09
674.524	249.99
674.855	308.75
675.185	342.65
675.515	326.83
675.845	365.24
676.175	306.49
676.505	306.49
676.835	360.72
677.165	301.97
677.494	383.32
677.824	263.55
678.154	340.39
678.484	335.87
678.813	338.13
679.143	358.47
679.472	297.45
679.802	381.06
680.131	311.01
680.461	399.14
680.79	360.72
681.119	286.15
681.449	385.58
681.778	308.75
682.107	333.61
682.436	349.43
682.765	304.23
683.094	295.19
683.423	320.05
683.752	333.61
684.081	306.49
684.41	220.62
684.739	353.95
685.067	329.09
685.396	338.13
685.725	306.49
686.053	311.01
686.382	331.35
686.711	311.01
687.039	290.67
687.367	281.63
687.696	360.72
688.024	365.24
688.352	295.19
688.681	333.61
689.009	329.09
689.337	317.79
689.665	329.09
689.993	412.7
690.321	347.17
690.649	396.88
690.977	317.79
691.305	317.79
691.633	394.62
691.961	315.53
692.288	306.49
692.616	286.15
692.944	295.19
693.271	320.05
693.599	308.75
693.926	292.93
694.254	292.93
694.581	356.21
694.908	317.79
695.236	263.55
695.563	320.05
695.89	356.21
696.217	333.61
696.544	308.75
696.871	297.45
697.198	367.5
697.525	356.21
697.852	265.81
698.179	367.5
698.506	301.97
698.833	308.75
699.16	249.99
699.486	277.11
699.813	322.31
700.139	329.09
700.466	340.39
700.793	342.65
701.119	297.45
701.445	306.49
701.772	292.93
702.098	256.77
702.424	279.37
702.75	317.79
703.077	351.69
703.403	378.8
703.729	308.75
704.055	295.19
704.381	329.09
704.707	372.02
705.033	265.81
705.358	311.01
705.684	301.97
706.01	349.43
706.336	268.07
706.661	295.19
706.987	279.37
707.312	333.61
707.638	283.89
707.963	306.49
708.289	414.96
708.614	311.01
708.939	333.61
709.265	376.54
709.59	256.77
709.915	238.69
710.24	288.41
710.565	281.63
710.89	279.37
711.215	326.83
711.54	268.07
711.865	338.13
712.19	356.21
712.515	338.13
712.839	283.89
713.164	283.89
713.489	290.67
713.813	240.95
714.138	299.71
714.462	304.23
714.787	301.97
715.111	301.97
715.435	274.85
715.76	304.23
716.084	322.31
716.408	338.13
716.732	313.27
717.056	292.93
717.381	286.15
717.705	315.53
718.028	259.03
718.352	356.21
718.676	304.23
719	286.15
719.324	238.69
719.648	254.51
719.971	292.93
720.295	261.29
720.618	329.09
720.942	288.41
721.265	252.25
721.589	338.13
721.912	322.31
722.236	238.69
722.559	299.71
722.882	349.43
723.205	270.33
723.528	295.19
723.851	286.15
724.174	317.79
724.497	279.37
724.82	286.15
725.143	308.75
725.466	268.07
725.789	290.67
726.112	351.69
726.434	281.63
726.757	283.89
727.08	331.35
727.402	254.51
727.725	288.41
728.047	322.31
728.37	313.27
728.692	254.51
729.014	272.59
729.336	229.65
729.659	311.01
729.981	288.41
730.303	263.55
730.625	301.97
730.947	263.55
731.269	344.91
731.591	301.97
731.913	292.93
732.235	304.23
732.556	254.51
732.878	279.37
733.2	295.19
733.521	283.89
733.843	331.35
734.164	290.67
734.486	281.63
734.807	286.15
735.129	322.31
735.45	288.41
735.771	308.75
736.092	283.89
736.414	335.87
736.735	288.41
737.056	263.55
737.377	344.91
737.698	259.03
738.019	297.45
738.34	270.33
738.66	290.67
738.981	306.49
739.302	311.01
739.623	286.15
739.943	252.25
740.264	218.36
740.584	188.98
740.905	265.81
741.225	252.25
741.546	247.73
741.866	277.11
742.186	211.58
742.507	202.54
742.827	292.93
743.147	204.8
743.467	277.11
743.787	320.05
744.107	279.37
744.427	344.91
744.747	288.41
745.067	387.84
745.386	358.47
745.706	272.59
746.026	331.35
746.346	288.41
746.665	254.51
746.985	277.11
747.304	272.59
747.624	283.89
747.943	315.53
748.262	292.93
748.582	349.43
748.901	301.97
749.22	263.55
749.539	290.67
749.858	283.89
750.177	234.17
750.496	301.97
750.815	193.5
751.134	290.67
751.453	245.47
751.772	353.95
752.09	240.95
752.409	254.51
752.728	306.49
753.046	311.01
753.365	274.85
753.683	297.45
754.002	331.35
754.32	265.81
754.639	236.43
754.957	216.1
755.275	254.51
755.593	308.75
755.911	268.07
756.23	301.97
756.548	301.97
756.866	288.41
757.183	315.53
757.501	277.11
757.819	281.63
758.137	295.19
758.455	306.49
758.772	218.36
759.09	256.77
759.408	234.17
759.725	286.15
760.043	288.41
760.36	283.89
760.677	313.27
760.995	331.35
761.312	320.05
761.629	281.63
761.946	320.05
762.264	338.13
762.581	274.85
762.898	270.33
763.215	218.36
763.532	281.63
763.848	279.37
764.165	349.43
764.482	216.1
764.799	277.11
765.115	306.49
765.432	333.61
765.749	342.65
766.065	281.63
766.382	259.03
766.698	281.63
767.014	281.63
767.331	207.06
767.647	274.85
767.963	240.95
768.279	286.15
768.595	320.05
768.911	249.99
769.227	216.1
769.543	351.69
769.859	279.37
770.175	243.21
770.491	295.19
770.807	247.73
771.122	272.59
771.438	240.95
771.754	245.47
772.069	315.53
772.385	270.33
772.7	306.49
773.016	256.77
773.331	249.99
773.646	234.17
773.961	277.11
774.277	335.87
774.592	290.67
774.907	236.43
775.222	295.19
775.537	331.35
775.852	268.07
776.167	326.83
776.482	268.07
776.796	270.33
777.111	295.19
777.426	238.69
777.74	344.91
778.055	270.33
778.369	299.71
778.684	286.15
778.998	304.23
779.313	216.1
779.627	297.45
779.941	279.37
780.255	320.05
780.57	320.05
780.884	274.85
781.198	277.11
781.512	331.35
781.826	320.05
782.14	288.41
782.453	290.67
782.767	265.81
783.081	222.88
783.395	252.25
783.708	313.27
784.022	231.91
784.335	238.69
784.649	313.27
784.962	270.33
785.276	245.47
785.589	317.79
785.902	311.01
786.216	261.29
786.529	243.21
786.842	259.03
787.155	247.73
787.468	225.14
787.781	247.73
788.094	295.19
788.407	243.21
788.72	306.49
789.032	283.89
789.345	297.45
789.658	301.97
789.97	320.05
790.283	329.09
790.595	220.62
790.908	279.37
791.22	211.58
791.532	292.93
791.845	304.23
792.157	274.85
792.469	313.27
792.781	340.39
793.093	313.27
793.405	240.95
793.717	268.07
794.029	288.41
794.341	306.49
794.653	297.45
794.965	286.15
795.276	272.59
795.588	338.13
795.9	376.54
796.211	320.05
796.523	261.29
796.834	304.23
797.146	198.02
797.457	268.07
797.768	261.29
798.08	272.59
798.391	211.58
798.702	268.07
799.013	288.41
799.324	322.31
799.635	311.01
799.946	301.97
800.257	306.49
800.568	286.15
800.878	322.31
801.189	263.55
801.5	265.81
801.81	308.75
802.121	320.05
802.431	286.15
802.742	229.65
803.052	297.45
803.363	320.05
803.673	315.53
803.983	225.14
804.293	256.77
804.603	288.41
804.913	261.29
805.224	306.49
805.533	259.03
805.843	272.59
806.153	256.77
806.463	249.99
806.773	281.63
807.083	261.29
807.392	315.53
807.702	231.91
808.011	277.11
808.321	324.57
808.63	254.51
808.94	331.35
809.249	326.83
809.558	193.5
809.868	238.69
810.177	283.89
810.486	369.76
810.795	274.85
811.104	247.73
811.413	236.43
811.722	281.63
812.031	311.01
812.339	281.63
812.648	286.15
812.957	229.65
813.266	281.63
813.574	281.63
813.883	317.79
814.191	283.89
814.5	265.81
814.808	324.57
815.116	265.81
815.424	322.31
815.733	295.19
816.041	281.63
816.349	247.73
816.657	281.63
816.965	247.73
817.273	261.29
817.581	342.65
817.889	333.61
818.196	308.75
818.504	308.75
818.812	274.85
819.12	236.43
819.427	263.55
819.735	188.98
820.042	220.62
820.349	252.25
820.657	281.63
820.964	299.71
821.271	329.09
821.579	265.81
821.886	231.91
822.193	308.75
822.5	283.89
822.807	231.91
823.114	272.59
823.421	279.37
823.727	292.93
824.034	288.41
824.341	261.29
824.648	283.89
824.954	277.11
825.261	283.89
825.567	227.4
825.874	247.73
826.18	317.79
826.486	295.19
826.793	281.63
827.099	263.55
827.405	297.45
827.711	245.47
828.017	243.21
828.323	225.14
828.629	204.8
828.935	308.75
829.241	315.53
829.547	304.23
829.852	299.71
830.158	225.14
830.464	272.59
830.769	292.93
831.075	272.59
831.38	243.21
831.686	306.49
831.991	315.53
832.296	297.45
832.601	317.79
832.907	277.11
833.212	234.17
833.517	301.97
833.822	252.25
834.127	231.91
834.432	295.19
834.737	283.89
835.041	329.09
835.346	268.07
835.651	238.69
835.956	256.77
836.26	304.23
836.565	222.88
836.869	283.89
837.174	281.63
837.478	238.69
837.782	265.81
838.087	279.37
838.391	342.65
838.695	288.41
838.999	261.29
839.303	243.21
839.607	249.99
839.911	238.69
840.215	240.95
840.519	261.29
840.822	240.95
841.126	274.85
841.43	286.15
841.733	335.87
842.037	333.61
842.34	218.36
842.644	274.85
842.947	274.85
843.251	313.27
843.554	356.21
843.857	329.09
844.16	279.37
844.463	274.85
844.766	234.17
845.069	324.57
845.372	360.72
845.675	259.03
845.978	331.35
846.281	265.81
846.583	259.03
846.886	222.88
847.189	308.75
847.491	265.81
847.794	295.19
848.096	297.45
848.399	288.41
848.701	272.59
849.003	261.29
849.305	270.33
849.608	297.45
849.91	252.25
850.212	247.73
850.514	292.93
850.816	313.27
851.118	317.79
851.419	191.24
851.721	229.65
852.023	265.81
852.325	236.43
852.626	231.91
852.928	315.53
853.229	252.25
853.531	315.53
853.832	317.79
854.133	277.11
854.435	243.21
854.736	240.95
855.037	263.55
855.338	317.79
855.639	265.81
855.94	315.53
856.241	306.49
856.542	265.81
856.843	256.77
857.144	306.49
857.444	240.95
857.745	277.11
858.046	297.45
858.346	270.33
858.647	272.59
858.947	243.21
859.247	270.33
859.548	268.07
859.848	315.53
860.148	263.55
860.448	304.23
860.749	245.47
861.049	249.99
861.349	265.81
861.648	317.79
861.948	288.41
862.248	252.25
862.548	304.23
862.848	229.65
863.147	209.32
863.447	256.77
863.746	231.91
864.046	283.89
864.345	286.15
864.645	301.97
864.944	268.07
865.243	288.41
865.542	308.75
865.842	256.77
866.141	281.63
866.44	299.71
866.739	234.17
867.038	277.11
867.337	272.59
867.635	252.25
867.934	263.55
868.233	261.29
868.531	268.07
868.83	218.36
869.129	288.41
869.427	286.15
869.725	322.31
870.024	259.03
870.322	288.41
870.62	326.83
870.918	274.85
871.217	292.93
871.515	247.73
871.813	335.87
872.111	333.61
872.409	290.67
872.706	279.37
873.004	301.97
873.302	279.37
873.6	297.45
873.897	344.91
874.195	277.11
874.492	297.45
874.79	283.89
875.087	331.35
875.384	281.63
875.682	256.77
875.979	288.41
876.276	333.61
876.573	256.77
876.87	256.77
877.167	256.77
