Data from PL_2polymer_F8BT_MEHPPV_USB2H096331_0121.txt Node
Date: Tue Dec 15 16:19:42 CET 2020
User: spadmin
Spectrometer: USB2+H09633
Trigger mode: 0
Integration Time (sec): 1.000000E-2
Scans to average: 1
Electric dark correction enabled: true
Nonlinearity correction enabled: false
Boxcar width: 0
XAxis mode: Wavelengths
Number of Pixels in Spectrum: 2048
>>>>>Begin Spectral Data<<<<<
174.027	-94.35
174.405	-94.35
174.783	-94.35
175.162	-175.7
175.54	-141.8
175.918	-94.35
176.296	-153.1
176.674	-125.99
177.052	-62.71
177.43	-24.29
177.808	-51.41
178.186	-58.19
178.564	-10.73
178.942	-1.69
179.32	2.82
179.698	-19.77
180.076	18.64
180.453	66.1
180.831	61.58
181.209	133.89
181.587	68.36
181.965	156.49
182.342	174.57
182.72	181.35
183.098	210.73
183.475	260.45
183.853	271.74
184.231	292.08
184.608	285.3
184.986	280.78
185.363	280.78
185.741	321.46
186.118	217.51
186.496	274
186.873	325.98
187.251	359.88
187.628	332.76
188.006	337.28
188.383	366.66
188.76	384.74
189.138	443.49
189.515	323.72
189.892	280.78
190.27	371.18
190.647	280.78
191.024	382.48
191.401	362.14
191.778	319.2
192.155	373.44
192.533	325.98
192.91	371.18
193.287	283.04
193.664	321.46
194.041	278.52
194.418	323.72
194.795	271.74
195.172	350.84
195.549	276.26
195.926	353.1
196.302	278.52
196.679	330.5
197.056	332.76
197.433	337.28
197.81	274
198.187	316.94
198.563	321.46
198.94	332.76
199.317	364.4
199.693	323.72
200.07	280.78
200.447	307.9
200.823	274
201.2	276.26
201.576	416.37
201.953	323.72
202.329	337.28
202.706	280.78
203.082	330.5
203.459	391.52
203.835	271.74
204.212	377.96
204.588	335.02
204.964	350.84
205.341	325.98
205.717	303.38
206.093	305.64
206.469	393.77
206.846	307.9
207.222	298.86
207.598	303.38
207.974	203.95
208.35	350.84
208.726	348.58
209.102	244.63
209.479	310.16
209.855	292.08
210.231	298.86
210.607	321.46
210.982	325.98
211.358	348.58
211.734	373.44
212.11	335.02
212.486	396.03
212.862	353.1
213.238	301.12
213.614	303.38
213.989	294.34
214.365	264.96
214.741	362.14
215.116	314.68
215.492	323.72
215.868	296.6
216.243	411.85
216.619	303.38
216.995	307.9
217.37	249.15
217.746	285.3
218.121	337.28
218.497	289.82
218.872	292.08
219.247	346.32
219.623	344.06
219.998	246.89
220.374	402.81
220.749	402.81
221.124	335.02
221.499	316.94
221.875	292.08
222.25	335.02
222.625	350.84
223	380.22
223.376	346.32
223.751	337.28
224.126	335.02
224.501	337.28
224.876	314.68
225.251	335.02
225.626	328.24
226.001	362.14
226.376	296.6
226.751	377.96
227.126	339.54
227.501	364.4
227.875	373.44
228.25	393.77
228.625	353.1
229	316.94
229.375	353.1
229.749	382.48
230.124	391.52
230.499	373.44
230.873	323.72
231.248	321.46
231.623	387
231.997	323.72
232.372	335.02
232.746	373.44
233.121	457.05
233.495	393.77
233.87	337.28
234.244	341.8
234.619	346.32
234.993	416.37
235.367	368.92
235.742	346.32
236.116	405.07
236.49	362.14
236.865	416.37
237.239	325.98
237.613	364.4
237.987	348.58
238.361	337.28
238.736	393.77
239.11	366.66
239.484	402.81
239.858	350.84
240.232	427.67
240.606	382.48
240.98	305.64
241.354	407.33
241.728	436.71
242.102	357.62
242.475	339.54
242.849	353.1
243.223	359.88
243.597	359.88
243.971	310.16
244.344	301.12
244.718	341.8
245.092	335.02
245.466	405.07
245.839	380.22
246.213	321.46
246.586	375.7
246.96	346.32
247.334	330.5
247.707	414.11
248.081	396.03
248.454	373.44
248.828	330.5
249.201	307.9
249.574	448.01
249.948	443.49
250.321	350.84
250.694	400.55
251.068	366.66
251.441	348.58
251.814	346.32
252.187	346.32
252.561	416.37
252.934	337.28
253.307	411.85
253.68	387
254.053	348.58
254.426	364.4
254.799	420.89
255.172	405.07
255.545	389.26
255.918	344.06
256.291	445.75
256.664	411.85
257.037	389.26
257.41	346.32
257.782	425.41
258.155	434.45
258.528	398.29
258.901	420.89
259.273	393.77
259.646	348.58
260.019	353.1
260.391	377.96
260.764	393.77
261.137	389.26
261.509	432.19
261.882	450.27
262.254	387
262.627	450.27
262.999	402.81
263.372	384.74
263.744	337.28
264.116	436.71
264.489	409.59
264.861	321.46
265.233	371.18
265.606	375.7
265.978	427.67
266.35	377.96
266.722	359.88
267.094	375.7
267.467	348.58
267.839	335.02
268.211	423.15
268.583	384.74
268.955	407.33
269.327	398.29
269.699	328.24
270.071	438.97
270.443	409.59
270.815	368.92
271.186	409.59
271.558	398.29
271.93	411.85
272.302	328.24
272.674	409.59
273.045	423.15
273.417	468.35
273.789	353.1
274.16	414.11
274.532	398.29
274.904	466.09
275.275	409.59
275.647	398.29
276.018	375.7
276.39	434.45
276.761	341.8
277.133	416.37
277.504	434.45
277.875	384.74
278.247	481.91
278.618	425.41
278.989	377.96
279.361	380.22
279.732	391.52
280.103	448.01
280.474	414.11
280.846	416.37
281.217	391.52
281.588	436.71
281.959	454.79
282.33	452.53
282.701	457.05
283.072	366.66
283.443	396.03
283.814	486.43
284.185	475.13
284.556	425.41
284.927	461.57
285.297	477.39
285.668	400.55
286.039	509.03
286.41	484.17
286.781	427.67
287.151	481.91
287.522	468.35
287.893	411.85
288.263	350.84
288.634	405.07
289.004	429.93
289.375	407.33
289.745	441.23
290.116	477.39
290.486	477.39
290.857	400.55
291.227	380.22
291.598	461.57
291.968	443.49
292.338	441.23
292.709	495.47
293.079	420.89
293.449	445.75
293.819	416.37
294.189	393.77
294.56	502.25
294.93	438.97
295.3	457.05
295.67	402.81
296.04	434.45
296.41	490.95
296.78	475.13
297.15	429.93
297.52	479.65
297.89	468.35
298.259	452.53
298.629	479.65
298.999	344.06
299.369	484.17
299.739	477.39
300.108	497.73
300.478	461.57
300.848	391.52
301.217	463.83
301.587	434.45
301.957	407.33
302.326	457.05
302.696	396.03
303.065	432.19
303.435	450.27
303.804	454.79
304.174	461.57
304.543	497.73
304.912	407.33
305.282	418.63
305.651	493.21
306.02	484.17
306.39	454.79
306.759	450.27
307.128	463.83
307.497	409.59
307.866	470.61
308.235	457.05
308.604	459.31
308.974	520.33
309.343	466.09
309.712	511.29
310.08	556.48
310.449	529.36
310.818	511.29
311.187	472.87
311.556	434.45
311.925	479.65
312.294	477.39
312.662	459.31
313.031	502.25
313.4	545.18
313.769	527.1
314.137	506.77
314.506	554.22
314.874	499.99
315.243	545.18
315.612	493.21
315.98	533.88
316.349	475.13
316.717	445.75
317.085	513.55
317.454	499.99
317.822	481.91
318.191	493.21
318.559	468.35
318.927	509.03
319.295	515.81
319.664	502.25
320.032	416.37
320.4	463.83
320.768	472.87
321.136	554.22
321.504	506.77
321.872	538.4
322.24	531.62
322.608	561
322.976	513.55
323.344	486.43
323.712	545.18
324.08	554.22
324.448	529.36
324.816	540.66
325.183	594.9
325.551	502.25
325.919	511.29
326.287	524.84
326.654	499.99
327.022	561
327.389	502.25
327.757	506.77
328.125	481.91
328.492	554.22
328.86	558.74
329.227	542.92
329.594	493.21
329.962	545.18
330.329	547.44
330.697	533.88
331.064	567.78
331.431	542.92
331.798	547.44
332.166	509.03
332.533	615.24
332.9	594.9
333.267	536.14
333.634	579.08
334.001	522.59
334.368	545.18
334.735	603.94
335.102	610.72
335.469	633.32
335.836	583.6
336.203	628.8
336.57	642.36
336.937	615.24
337.304	612.98
337.67	561
338.037	527.1
338.404	547.44
338.771	565.52
339.137	622.02
339.504	536.14
339.87	585.86
340.237	597.16
340.604	549.7
340.97	597.16
341.337	588.12
341.703	603.94
342.069	633.32
342.436	556.48
342.802	637.84
343.169	579.08
343.535	646.88
343.901	583.6
344.267	660.43
344.634	635.58
345	640.1
345.366	606.2
345.732	590.38
346.098	622.02
346.464	601.68
346.83	655.91
347.196	597.16
347.562	626.54
347.928	653.66
348.294	599.42
348.66	701.11
349.026	669.47
349.392	603.94
349.757	649.14
350.123	716.93
350.489	719.19
350.855	655.91
351.22	651.4
351.586	689.81
351.951	631.06
352.317	730.49
352.683	635.58
353.048	712.41
353.414	703.37
353.779	624.28
354.144	750.83
354.51	753.09
354.875	683.03
355.24	703.37
355.606	730.49
355.971	662.69
356.336	766.65
356.701	789.24
357.067	784.73
357.432	753.09
357.797	748.57
358.162	721.45
358.527	764.39
358.892	814.1
359.257	868.34
359.622	782.47
359.987	827.66
360.352	766.65
360.717	886.42
361.082	800.54
361.446	841.22
361.811	890.94
362.176	823.14
362.541	848
362.905	845.74
363.27	915.8
363.635	918.05
363.999	904.5
364.364	909.02
364.728	834.44
365.093	942.91
365.457	897.72
365.822	1019.75
366.186	927.09
366.55	1067.2
366.915	940.65
367.279	956.47
367.643	983.59
368.008	1037.83
368.372	983.59
368.736	1049.12
369.1	1110.14
369.464	1157.6
369.828	1148.56
370.192	1026.53
370.556	1173.42
370.92	1191.49
371.284	1146.3
371.648	1254.77
372.012	1250.25
372.376	1234.43
372.74	1338.38
373.104	1318.04
373.468	1408.44
373.831	1360.98
374.195	1471.71
374.559	1449.11
374.922	1460.41
375.286	1568.89
375.65	1519.17
376.013	1659.28
376.377	1722.55
376.74	1817.47
377.104	1819.73
377.467	1894.3
377.83	1989.21
378.194	2036.67
378.557	2160.96
378.92	2411.8
379.284	2549.65
379.647	2603.89
380.01	2798.23
380.373	2956.42
380.736	3141.73
381.1	3462.62
381.463	3704.42
381.826	3925.89
382.189	4138.31
382.552	4441.13
382.915	4906.65
383.278	5173.31
383.64	5467.09
384.003	6210.57
384.366	6773.27
384.729	7390.2
385.092	7826.35
385.454	8520.11
385.817	9451.16
386.18	10298.6
386.542	11482.75
386.905	12474.81
387.268	13799.07
387.63	14813.73
387.993	16219.35
388.355	17911.96
388.718	19496.1
389.08	21111.87
389.442	23312.95
389.805	25466.56
390.167	27095.9
390.529	30304.85
390.892	33771.43
391.254	35497.94
391.616	38379.22
391.978	42306.8
392.34	46390.31
392.702	48096.48
393.064	51380
393.426	53402.55
393.788	55461.25
394.15	57040.87
394.512	59015.96
394.874	60749.25
395.236	62733.38
395.598	64489.26
395.96	65079.08
396.321	65079.08
396.683	65079.08
397.045	65079.08
397.406	65079.08
397.768	65079.08
398.13	65079.08
398.491	65079.08
398.853	65079.08
399.214	65079.08
399.576	65079.08
399.937	65079.08
400.299	65079.08
400.66	65079.08
401.021	65079.08
401.383	65079.08
401.744	65079.08
402.105	65079.08
402.466	65079.08
402.827	65079.08
403.189	65079.08
403.55	65079.08
403.911	65079.08
404.272	65079.08
404.633	65079.08
404.994	65079.08
405.355	65079.08
405.716	65079.08
406.077	65079.08
406.437	65079.08
406.798	65079.08
407.159	65079.08
407.52	65079.08
407.88	65079.08
408.241	65079.08
408.602	65079.08
408.962	65079.08
409.323	65079.08
409.684	65079.08
410.044	65079.08
410.405	65079.08
410.765	65079.08
411.125	65079.08
411.486	65079.08
411.846	65079.08
412.206	65079.08
412.567	65079.08
412.927	65079.08
413.287	65079.08
413.647	65079.08
414.007	65079.08
414.368	65079.08
414.728	65079.08
415.088	65079.08
415.448	65079.08
415.808	65079.08
416.168	65079.08
416.528	65079.08
416.887	65079.08
417.247	65079.08
417.607	65079.08
417.967	65079.08
418.327	65079.08
418.686	65079.08
419.046	65079.08
419.406	65079.08
419.765	65079.08
420.125	65079.08
420.484	65079.08
420.844	65079.08
421.203	65079.08
421.563	64179.67
421.922	64044.08
422.282	62394.4
422.641	60624.96
423	59587.7
423.36	58681.51
423.719	56338.07
424.078	54591.22
424.437	52686.19
424.796	50837.65
425.155	49836.54
425.515	46704.42
425.874	45768.85
426.233	41640.15
426.592	39009.71
426.95	38625.54
427.309	36433.51
427.668	34844.85
428.027	32564.68
428.386	31672.05
428.745	28917.32
429.103	27174.99
429.462	25801.02
429.821	24097.11
430.179	23267.75
430.538	22216.93
430.897	21780.78
431.255	20467.82
431.614	18940.18
431.972	18266.75
432.33	17778.63
432.689	17554.91
433.047	16158.33
433.405	15475.86
433.764	14549.33
434.122	14124.49
434.48	13421.68
434.838	12797.97
435.197	12458.99
435.555	11796.86
435.913	11360.72
436.271	10847.74
436.629	10477.13
436.987	9618.39
437.345	9466.98
437.703	9211.62
438.061	8700.9
438.418	8090.75
438.776	7835.39
439.134	7521.27
439.492	7356.3
439.849	6816.2
440.207	6524.69
440.565	6341.64
440.922	6002.67
441.28	5693.07
441.637	5609.46
441.995	5225.29
442.352	5229.81
442.71	4949.59
443.067	4820.78
443.425	4377.85
443.782	4301.02
444.139	4339.43
444.496	4059.22
444.854	3946.22
445.211	3790.3
445.568	3670.52
445.925	3604.99
446.282	3449.06
446.639	3320.25
446.996	3182.4
447.353	3207.26
447.71	3114.61
448.067	3139.47
448.424	2956.42
448.781	2744
449.137	2766.59
449.494	2734.96
449.851	2522.53
450.208	2405.02
450.564	2296.55
450.921	2226.5
451.278	2072.83
451.634	2328.19
451.991	2158.7
452.347	2099.94
452.704	1946.28
453.06	2002.77
453.416	1824.25
453.773	1774.53
454.129	1792.61
454.485	1788.09
454.841	1661.54
455.198	1519.17
455.554	1494.31
455.91	1566.63
456.266	1541.77
456.622	1446.85
456.978	1455.89
457.334	1345.16
457.69	1311.26
458.046	1259.29
458.402	1164.38
458.758	1130.48
459.114	1162.12
459.469	1191.49
459.825	1107.88
460.181	1060.42
460.536	1121.44
460.892	1035.57
461.248	1031.05
461.603	1053.64
461.959	886.42
462.314	1031.05
462.67	979.07
463.025	924.83
463.38	985.85
463.736	927.09
464.091	994.89
464.446	879.64
464.802	854.78
465.157	927.09
465.512	875.12
465.867	798.28
466.222	875.12
466.577	777.95
466.932	775.69
467.287	798.28
467.642	782.47
467.997	861.56
468.352	766.65
468.707	800.54
469.062	755.35
469.417	725.97
469.771	764.39
470.126	653.66
470.481	777.95
470.835	730.49
471.19	764.39
471.544	705.63
471.899	696.59
472.253	696.59
472.608	646.88
472.962	701.11
473.317	626.54
473.671	710.15
474.025	725.97
474.38	710.15
474.734	581.34
475.088	683.03
475.442	662.69
475.796	744.05
476.15	612.98
476.504	610.72
476.858	660.43
477.212	651.4
477.566	669.47
477.92	705.63
478.274	633.32
478.628	606.2
478.982	635.58
479.336	558.74
479.689	581.34
480.043	570.04
480.397	599.42
480.75	631.06
481.104	599.42
481.457	563.26
481.811	542.92
482.164	626.54
482.518	633.32
482.871	619.76
483.225	588.12
483.578	567.78
483.931	545.18
484.284	592.64
484.638	556.48
484.991	527.1
485.344	536.14
485.697	529.36
486.05	603.94
486.403	599.42
486.756	533.88
487.109	606.2
487.462	612.98
487.815	597.16
488.168	610.72
488.52	612.98
488.873	538.4
489.226	565.52
489.579	579.08
489.931	545.18
490.284	554.22
490.637	646.88
490.989	538.4
491.342	606.2
491.694	556.48
492.047	649.14
492.399	576.82
492.751	531.62
493.104	626.54
493.456	563.26
493.808	490.95
494.16	561
494.513	518.07
494.865	515.81
495.217	547.44
495.569	506.77
495.921	570.04
496.273	590.38
496.625	619.76
496.977	551.96
497.329	572.3
497.68	594.9
498.032	549.7
498.384	531.62
498.736	633.32
499.087	581.34
499.439	551.96
499.791	606.2
500.142	556.48
500.494	556.48
500.845	619.76
501.197	649.14
501.548	563.26
501.9	570.04
502.251	644.62
502.602	592.64
502.954	608.46
503.305	583.6
503.656	612.98
504.007	617.5
504.358	694.33
504.709	551.96
505.061	651.4
505.412	655.91
505.763	624.28
506.113	712.41
506.464	660.43
506.815	705.63
507.166	606.2
507.517	660.43
507.868	710.15
508.218	786.98
508.569	750.83
508.92	784.73
509.27	798.28
509.621	705.63
509.971	757.61
510.322	714.67
510.672	719.19
511.023	820.88
511.373	811.84
511.723	762.13
512.074	791.5
512.424	753.09
512.774	796.02
513.124	825.4
513.475	814.1
513.825	857.04
514.175	850.26
514.525	866.08
514.875	897.72
515.225	872.86
515.575	904.5
515.924	811.84
516.274	852.52
516.624	965.51
516.974	960.99
517.324	967.77
517.673	927.09
518.023	1024.27
518.373	965.51
518.722	1022.01
519.072	1069.46
519.421	1080.76
519.771	1080.76
520.12	1094.32
520.469	1067.2
520.819	1089.8
521.168	1148.56
521.517	1094.32
521.867	1078.5
522.216	1148.56
522.565	1159.86
522.914	1209.57
523.263	1186.97
523.612	1220.87
523.961	1171.16
524.31	1166.64
524.659	1191.49
525.008	1232.17
525.357	1205.05
525.705	1218.61
526.054	1207.31
526.403	1295.45
526.752	1322.56
527.1	1232.17
527.449	1250.25
527.797	1320.3
528.146	1257.03
528.495	1218.61
528.843	1363.24
529.191	1399.4
529.54	1401.66
529.888	1313.52
530.236	1399.4
530.585	1351.94
530.933	1388.1
531.281	1440.08
531.629	1324.82
531.977	1360.98
532.325	1394.88
532.673	1412.96
533.021	1324.82
533.369	1322.56
533.717	1388.1
534.065	1358.72
534.413	1417.48
534.761	1397.14
535.108	1370.02
535.456	1464.93
535.804	1333.86
536.151	1440.08
536.499	1426.52
536.847	1419.74
537.194	1419.74
537.542	1381.32
537.889	1345.16
538.236	1394.88
538.584	1340.64
538.931	1408.44
539.278	1424.26
539.626	1544.03
539.973	1347.42
540.32	1370.02
540.667	1435.56
541.014	1476.23
541.361	1480.75
541.708	1358.72
542.055	1440.08
542.402	1437.82
542.749	1476.23
543.096	1471.71
543.443	1372.28
543.789	1419.74
544.136	1460.41
544.483	1440.08
544.83	1544.03
545.176	1487.53
545.523	1440.08
545.869	1417.48
546.216	1494.31
546.562	1476.23
546.909	1496.57
547.255	1406.18
547.601	1358.72
547.948	1401.66
548.294	1546.29
548.64	1467.19
548.986	1453.63
549.332	1458.15
549.678	1464.93
550.025	1455.89
550.371	1534.99
550.717	1505.61
551.062	1460.41
551.408	1519.17
551.754	1519.17
552.1	1437.82
552.446	1532.73
552.792	1523.69
553.137	1568.89
553.483	1496.57
553.828	1516.91
554.174	1546.29
554.52	1586.96
554.865	1688.66
555.211	1483.01
555.556	1632.16
555.901	1616.34
556.247	1571.15
556.592	1650.24
556.937	1647.98
557.282	1584.7
557.628	1553.07
557.973	1620.86
558.318	1663.8
558.663	1614.08
559.008	1641.2
559.353	1636.68
559.698	1681.88
560.043	1681.88
560.388	1688.66
560.732	1704.47
561.077	1718.03
561.422	1652.5
561.766	1659.28
562.111	1641.2
562.456	1742.89
562.8	1672.84
563.145	1770.01
563.489	1681.88
563.834	1785.83
564.178	1799.39
564.523	1831.03
564.867	1760.97
565.211	1747.41
565.555	1724.81
565.9	1801.65
566.244	1921.42
566.588	1824.25
566.932	1916.9
567.276	1815.21
567.62	1864.92
567.964	1887.52
568.308	1849.1
568.652	1876.22
568.996	1844.58
569.339	1986.95
569.683	1910.12
570.027	1910.12
570.371	1864.92
570.714	1864.92
571.058	1995.99
571.401	2016.33
571.745	1973.39
572.088	1869.44
572.432	1894.3
572.775	2115.76
573.118	1946.28
573.462	1957.58
573.805	2016.33
574.148	1910.12
574.491	1982.43
574.835	1950.8
575.178	1998.25
575.521	2041.19
575.864	1944.02
576.207	2009.55
576.55	1901.08
576.892	1955.32
577.235	2052.49
577.578	1975.65
577.921	2000.51
578.264	1984.69
578.606	2016.33
578.949	1923.68
579.292	1907.86
579.634	1815.21
579.977	1907.86
580.319	1948.54
580.662	1944.02
581.004	1812.95
581.346	1892.04
581.689	1812.95
582.031	1885.26
582.373	1982.43
582.715	1930.46
583.057	1803.91
583.4	1898.82
583.742	1831.03
584.084	1824.25
584.426	1867.18
584.768	1806.17
585.109	1808.43
585.451	1801.65
585.793	1763.23
586.135	1765.49
586.477	1828.77
586.818	1708.99
587.16	1708.99
587.502	1733.85
587.843	1636.68
588.185	1697.7
588.526	1727.07
588.868	1672.84
589.209	1555.33
589.55	1636.68
589.892	1652.5
590.233	1641.2
590.574	1534.99
590.915	1571.15
591.257	1571.15
591.598	1618.6
591.939	1464.93
592.28	1501.09
592.621	1571.15
592.962	1453.63
593.303	1478.49
593.643	1388.1
593.984	1426.52
594.325	1449.11
594.666	1437.82
595.006	1415.22
595.347	1464.93
595.688	1392.62
596.028	1374.54
596.369	1397.14
596.709	1422
597.05	1320.3
597.39	1297.71
597.73	1290.93
598.071	1356.46
598.411	1322.56
598.751	1295.45
599.091	1247.99
599.431	1238.95
599.772	1250.25
600.112	1266.07
600.452	1182.45
600.792	1200.53
601.132	1144.04
601.471	1125.96
601.811	1189.23
602.151	1139.52
602.491	1200.53
602.831	1073.98
603.17	1263.81
603.51	1153.08
603.849	1146.3
604.189	1121.44
604.528	1130.48
604.868	1137.26
605.207	1080.76
605.547	1087.54
605.886	1096.58
606.225	1083.02
606.565	1092.06
606.904	1121.44
607.243	1003.93
607.582	994.89
607.921	1067.2
608.26	1137.26
608.599	1103.36
608.938	1105.62
609.277	992.63
609.616	1119.18
609.955	1125.96
610.293	1017.49
610.632	1076.24
610.971	1062.68
611.309	931.61
611.648	1042.35
611.987	1096.58
612.325	1058.16
612.664	1037.83
613.002	976.81
613.34	1010.71
613.679	1015.23
614.017	1012.97
614.355	1003.93
614.694	1015.23
615.032	1042.35
615.37	1012.97
615.708	976.81
616.046	1017.49
616.384	992.63
616.722	990.37
617.06	1033.31
617.398	965.51
617.736	997.15
618.073	981.33
618.411	1017.49
618.749	1028.79
619.086	940.65
619.424	970.03
619.762	906.76
620.099	1006.19
620.437	958.73
620.774	922.57
621.112	1026.53
621.449	884.16
621.786	940.65
622.123	888.68
622.461	933.87
622.798	958.73
623.135	951.95
623.472	933.87
623.809	1024.27
624.146	868.34
624.483	911.28
624.82	951.95
625.157	938.39
625.494	870.6
625.83	947.43
626.167	963.25
626.504	936.13
626.841	922.57
627.177	906.76
627.514	933.87
627.85	976.81
628.187	940.65
628.523	877.38
628.86	888.68
629.196	811.84
629.532	960.99
629.869	976.81
630.205	868.34
630.541	859.3
630.877	805.06
631.213	895.46
631.549	918.05
631.885	841.22
632.221	886.42
632.557	877.38
632.893	890.94
633.229	854.78
633.564	827.66
633.9	895.46
634.236	843.48
634.572	798.28
634.907	768.91
635.243	850.26
635.578	820.88
635.914	859.3
636.249	838.96
636.585	773.43
636.92	766.65
637.255	841.22
637.59	750.83
637.926	811.84
638.261	741.79
638.596	802.8
638.931	789.24
639.266	762.13
639.601	807.32
639.936	746.31
640.271	719.19
640.606	737.27
640.94	757.61
641.275	786.98
641.61	617.5
641.945	755.35
642.279	777.95
642.614	771.17
642.948	716.93
643.283	678.51
643.617	777.95
643.952	676.25
644.286	696.59
644.62	653.66
644.955	592.64
645.289	737.27
645.623	692.07
645.957	766.65
646.291	673.99
646.625	739.53
646.959	692.07
647.293	676.25
647.627	612.98
647.961	658.17
648.295	653.66
648.629	601.68
648.962	626.54
649.296	599.42
649.63	662.69
649.963	622.02
650.297	637.84
650.63	676.25
650.964	628.8
651.297	599.42
651.631	583.6
651.964	669.47
652.297	542.92
652.631	646.88
652.964	597.16
653.297	651.4
653.63	597.16
653.963	538.4
654.296	651.4
654.629	610.72
654.962	597.16
655.295	493.21
655.628	583.6
655.961	583.6
656.293	588.12
656.626	558.74
656.959	486.43
657.291	533.88
657.624	624.28
657.956	646.88
658.289	527.1
658.621	570.04
658.954	515.81
659.286	549.7
659.618	513.55
659.95	549.7
660.283	545.18
660.615	558.74
660.947	574.56
661.279	542.92
661.611	536.14
661.943	615.24
662.275	502.25
662.607	576.82
662.939	520.33
663.27	472.87
663.602	504.51
663.934	558.74
664.266	488.69
664.597	484.17
664.929	529.36
665.26	518.07
665.592	504.51
665.923	475.13
666.255	481.91
666.586	529.36
666.917	515.81
667.248	490.95
667.58	472.87
667.911	547.44
668.242	450.27
668.573	420.89
668.904	463.83
669.235	461.57
669.566	497.73
669.897	448.01
670.228	506.77
670.558	556.48
670.889	450.27
671.22	416.37
671.551	416.37
671.881	402.81
672.212	452.53
672.542	527.1
672.873	479.65
673.203	420.89
673.533	405.07
673.864	463.83
674.194	484.17
674.524	481.91
674.855	461.57
675.185	414.11
675.515	490.95
675.845	405.07
676.175	438.97
676.505	420.89
676.835	402.81
677.165	434.45
677.494	436.71
677.824	396.03
678.154	371.18
678.484	490.95
678.813	493.21
679.143	414.11
679.472	520.33
679.802	452.53
680.131	400.55
680.461	362.14
680.79	357.62
681.119	436.71
681.449	445.75
681.778	371.18
682.107	337.28
682.436	427.67
682.765	380.22
683.094	368.92
683.423	450.27
683.752	423.15
684.081	393.77
684.41	373.44
684.739	359.88
685.067	411.85
685.396	506.77
685.725	452.53
686.053	355.36
686.382	353.1
686.711	457.05
687.039	348.58
687.367	314.68
687.696	405.07
688.024	328.24
688.352	335.02
688.681	364.4
689.009	418.63
689.337	375.7
689.665	387
689.993	368.92
690.321	389.26
690.649	470.61
690.977	382.48
691.305	357.62
691.633	384.74
691.961	384.74
692.288	294.34
692.616	461.57
692.944	364.4
693.271	389.26
693.599	377.96
693.926	373.44
694.254	391.52
694.581	375.7
694.908	357.62
695.236	414.11
695.563	283.04
695.89	375.7
696.217	362.14
696.544	344.06
696.871	382.48
697.198	382.48
697.525	445.75
697.852	314.68
698.179	364.4
698.506	420.89
698.833	341.8
699.16	348.58
699.486	325.98
699.813	411.85
700.139	341.8
700.466	371.18
700.793	432.19
701.119	346.32
701.445	298.86
701.772	373.44
702.098	319.2
702.424	357.62
702.75	350.84
703.077	389.26
703.403	371.18
703.729	380.22
704.055	423.15
704.381	339.54
704.707	346.32
705.033	380.22
705.358	307.9
705.684	344.06
706.01	335.02
706.336	298.86
706.661	330.5
706.987	305.64
707.312	425.41
707.638	366.66
707.963	359.88
708.289	409.59
708.614	330.5
708.939	271.74
709.265	321.46
709.59	357.62
709.915	355.36
710.24	296.6
710.565	335.02
710.89	332.76
711.215	375.7
711.54	344.06
711.865	344.06
712.19	307.9
712.515	328.24
712.839	255.93
713.164	316.94
713.489	339.54
713.813	285.3
714.138	339.54
714.462	339.54
714.787	357.62
715.111	405.07
715.435	364.4
715.76	271.74
716.084	382.48
716.408	350.84
716.732	337.28
717.056	242.37
717.381	316.94
717.705	344.06
718.028	350.84
718.352	353.1
718.676	298.86
719	330.5
719.324	278.52
719.648	344.06
719.971	321.46
720.295	357.62
720.618	283.04
720.942	298.86
721.265	321.46
721.589	303.38
721.912	339.54
722.236	335.02
722.559	330.5
722.882	280.78
723.205	280.78
723.528	362.14
723.851	258.19
724.174	350.84
724.497	335.02
724.82	296.6
725.143	323.72
725.466	303.38
725.789	366.66
726.112	280.78
726.434	298.86
726.757	380.22
727.08	328.24
727.402	323.72
727.725	346.32
728.047	255.93
728.37	335.02
728.692	262.7
729.014	287.56
729.336	325.98
729.659	283.04
729.981	292.08
730.303	337.28
730.625	278.52
730.947	310.16
731.269	292.08
731.591	301.12
731.913	303.38
732.235	305.64
732.556	330.5
732.878	274
733.2	255.93
733.521	276.26
733.843	319.2
734.164	307.9
734.486	301.12
734.807	283.04
735.129	285.3
735.45	321.46
735.771	301.12
736.092	316.94
736.414	267.22
736.735	287.56
737.056	289.82
737.377	276.26
737.698	258.19
738.019	332.76
738.34	289.82
738.66	373.44
738.981	373.44
739.302	325.98
739.623	285.3
739.943	298.86
740.264	303.38
740.584	319.2
740.905	371.18
741.225	264.96
741.546	262.7
741.866	249.15
742.186	294.34
742.507	332.76
742.827	330.5
743.147	274
743.467	321.46
743.787	301.12
744.107	294.34
744.427	276.26
744.747	249.15
745.067	303.38
745.386	310.16
745.706	271.74
746.026	258.19
746.346	276.26
746.665	285.3
746.985	301.12
747.304	267.22
747.624	267.22
747.943	296.6
748.262	280.78
748.582	274
748.901	203.95
749.22	312.42
749.539	310.16
749.858	316.94
750.177	212.99
750.496	224.29
750.815	305.64
751.134	280.78
751.453	258.19
751.772	323.72
752.09	271.74
752.409	287.56
752.728	307.9
753.046	235.59
753.365	271.74
753.683	262.7
754.002	267.22
754.32	314.68
754.639	330.5
754.957	325.98
755.275	305.64
755.593	274
755.911	323.72
756.23	283.04
756.548	296.6
756.866	255.93
757.183	348.58
757.501	269.48
757.819	255.93
758.137	258.19
758.455	274
758.772	276.26
759.09	310.16
759.408	264.96
759.725	244.63
760.043	328.24
760.36	330.5
760.677	312.42
760.995	262.7
761.312	321.46
761.629	240.11
761.946	332.76
762.264	328.24
762.581	312.42
762.898	267.22
763.215	231.07
763.532	212.99
763.848	267.22
764.165	339.54
764.482	289.82
764.799	285.3
765.115	260.45
765.432	287.56
765.749	314.68
766.065	301.12
766.382	316.94
766.698	264.96
767.014	312.42
767.331	307.9
767.647	301.12
767.963	255.93
768.279	303.38
768.595	292.08
768.911	278.52
769.227	278.52
769.543	310.16
769.859	280.78
770.175	366.66
770.491	303.38
770.807	251.41
771.122	283.04
771.438	246.89
771.754	289.82
772.069	242.37
772.385	249.15
772.7	228.81
773.016	314.68
773.331	287.56
773.646	274
773.961	255.93
774.277	301.12
774.592	280.78
774.907	314.68
775.222	237.85
775.537	276.26
775.852	224.29
776.167	323.72
776.482	325.98
776.796	242.37
777.111	296.6
777.426	325.98
777.74	312.42
778.055	296.6
778.369	244.63
778.684	319.2
778.998	305.64
779.313	289.82
779.627	255.93
779.941	296.6
780.255	357.62
780.57	312.42
780.884	296.6
781.198	314.68
781.512	292.08
781.826	228.81
782.14	242.37
782.453	228.81
782.767	325.98
783.081	271.74
783.395	325.98
783.708	319.2
784.022	249.15
784.335	312.42
784.649	325.98
784.962	260.45
785.276	316.94
785.589	328.24
785.902	312.42
786.216	255.93
786.529	305.64
786.842	264.96
787.155	253.67
787.468	305.64
787.781	280.78
788.094	310.16
788.407	301.12
788.72	264.96
789.032	323.72
789.345	325.98
789.658	303.38
789.97	244.63
790.283	298.86
790.595	235.59
790.908	267.22
791.22	283.04
791.532	285.3
791.845	240.11
792.157	319.2
792.469	285.3
792.781	325.98
793.093	249.15
793.405	287.56
793.717	307.9
794.029	253.67
794.341	283.04
794.653	335.02
794.965	255.93
795.276	292.08
795.588	271.74
795.9	325.98
796.211	316.94
796.523	276.26
796.834	285.3
797.146	321.46
797.457	264.96
797.768	323.72
798.08	287.56
798.391	274
798.702	294.34
799.013	222.03
799.324	271.74
799.635	280.78
799.946	264.96
800.257	353.1
800.568	271.74
800.878	316.94
801.189	316.94
801.5	258.19
801.81	267.22
802.121	335.02
802.431	253.67
802.742	262.7
803.052	292.08
803.363	294.34
803.673	262.7
803.983	321.46
804.293	280.78
804.603	292.08
804.913	298.86
805.224	249.15
805.533	278.52
805.843	215.25
806.153	312.42
806.463	280.78
806.773	292.08
807.083	235.59
807.392	226.55
807.702	303.38
808.011	264.96
808.321	319.2
808.63	298.86
808.94	314.68
809.249	298.86
809.558	303.38
809.868	287.56
810.177	274
810.486	283.04
810.795	301.12
811.104	323.72
811.413	244.63
811.722	240.11
812.031	235.59
812.339	258.19
812.648	260.45
812.957	301.12
813.266	244.63
813.574	330.5
813.883	224.29
814.191	321.46
814.5	271.74
814.808	285.3
815.116	292.08
815.424	271.74
815.733	274
816.041	255.93
816.349	201.69
816.657	206.21
816.965	298.86
817.273	253.67
817.581	208.47
817.889	233.33
818.196	312.42
818.504	294.34
818.812	249.15
819.12	307.9
819.427	246.89
819.735	260.45
820.042	325.98
820.349	233.33
820.657	260.45
820.964	319.2
821.271	237.85
821.579	235.59
821.886	307.9
822.193	298.86
822.5	310.16
822.807	260.45
823.114	255.93
823.421	283.04
823.727	280.78
824.034	271.74
824.341	240.11
824.648	319.2
824.954	255.93
825.261	298.86
825.567	283.04
825.874	285.3
826.18	255.93
826.486	298.86
826.793	285.3
827.099	296.6
827.405	274
827.711	251.41
828.017	262.7
828.323	260.45
828.629	278.52
828.935	262.7
829.241	269.48
829.547	255.93
829.852	325.98
830.158	210.73
830.464	224.29
830.769	287.56
831.075	244.63
831.38	276.26
831.686	210.73
831.991	262.7
832.296	305.64
832.601	325.98
832.907	228.81
833.212	339.54
833.517	251.41
833.822	289.82
834.127	287.56
834.432	264.96
834.737	212.99
835.041	296.6
835.346	274
835.651	242.37
835.956	271.74
836.26	359.88
836.565	276.26
836.869	222.03
837.174	312.42
837.478	316.94
837.782	262.7
838.087	296.6
838.391	255.93
838.695	276.26
838.999	319.2
839.303	274
839.607	314.68
839.911	249.15
840.215	264.96
840.519	249.15
840.822	283.04
841.126	224.29
841.43	253.67
841.733	274
842.037	231.07
842.34	319.2
842.644	294.34
842.947	224.29
843.251	287.56
843.554	276.26
843.857	269.48
844.16	253.67
844.463	226.55
844.766	271.74
845.069	328.24
845.372	283.04
845.675	280.78
845.978	231.07
846.281	287.56
846.583	280.78
846.886	185.87
847.189	283.04
847.491	222.03
847.794	339.54
848.096	260.45
848.399	316.94
848.701	233.33
849.003	330.5
849.305	271.74
849.608	373.44
849.91	287.56
850.212	348.58
850.514	255.93
850.816	212.99
851.118	258.19
851.419	296.6
851.721	219.77
852.023	249.15
852.325	316.94
852.626	292.08
852.928	224.29
853.229	314.68
853.531	278.52
853.832	226.55
854.133	278.52
854.435	274
854.736	271.74
855.037	296.6
855.338	292.08
855.639	271.74
855.94	312.42
856.241	255.93
856.542	249.15
856.843	235.59
857.144	323.72
857.444	283.04
857.745	226.55
858.046	294.34
858.346	337.28
858.647	298.86
858.947	303.38
859.247	228.81
859.548	314.68
859.848	278.52
860.148	269.48
860.448	255.93
860.749	235.59
861.049	222.03
861.349	296.6
861.648	249.15
861.948	264.96
862.248	298.86
862.548	264.96
862.848	228.81
863.147	283.04
863.447	328.24
863.746	231.07
864.046	321.46
864.345	341.8
864.645	289.82
864.944	296.6
865.243	339.54
865.542	251.41
865.842	262.7
866.141	244.63
866.44	267.22
866.739	260.45
867.038	251.41
867.337	269.48
867.635	276.26
867.934	332.76
868.233	237.85
868.531	269.48
868.83	253.67
869.129	264.96
869.427	303.38
869.725	267.22
870.024	305.64
870.322	255.93
870.62	339.54
870.918	210.73
871.217	255.93
871.515	323.72
871.813	267.22
872.111	215.25
872.409	298.86
872.706	226.55
873.004	228.81
873.302	231.07
873.6	296.6
873.897	314.68
874.195	287.56
874.492	253.67
874.79	305.64
875.087	271.74
875.384	305.64
875.682	269.48
875.979	262.7
876.276	228.81
876.573	357.62
876.87	357.62
877.167	357.62
