Data from PL_2polymer_F8BT_MEHPPV_USB2H096331_0583.txt Node
Date: Tue Dec 15 16:12:26 CET 2020
User: spadmin
Spectrometer: USB2+H09633
Trigger mode: 0
Integration Time (sec): 1.000000E-2
Scans to average: 1
Electric dark correction enabled: true
Nonlinearity correction enabled: false
Boxcar width: 0
XAxis mode: Wavelengths
Number of Pixels in Spectrum: 2048
>>>>>Begin Spectral Data<<<<<
174.027	-32.63
174.405	-32.63
174.783	-32.63
175.162	-138.84
175.54	-82.34
175.918	-134.32
176.296	-41.67
176.674	-147.88
177.052	-111.72
177.43	-116.24
177.808	-75.56
178.186	-64.26
178.564	-46.19
178.942	-25.85
179.32	48.73
179.698	-12.29
180.076	100.7
180.453	107.48
180.831	130.08
181.209	60.03
181.587	118.78
181.965	75.85
182.342	93.92
182.72	175.28
183.098	188.84
183.475	184.32
183.853	263.41
184.231	272.45
184.608	252.11
184.986	261.15
185.363	295.05
185.741	265.67
186.118	295.05
186.496	288.27
186.873	256.63
187.251	349.28
187.628	286.01
188.006	290.53
188.383	272.45
188.76	322.17
189.138	340.25
189.515	313.13
189.892	317.65
190.27	356.06
190.647	322.17
191.024	281.49
191.401	279.23
191.778	279.23
192.155	360.58
192.533	353.8
192.91	308.61
193.287	369.62
193.664	272.45
194.041	295.05
194.418	292.79
194.795	279.23
195.172	317.65
195.549	322.17
195.926	351.54
196.302	374.14
196.679	374.14
197.056	301.83
197.433	279.23
197.81	299.57
198.187	340.25
198.563	333.47
198.94	286.01
199.317	326.69
199.693	276.97
200.07	288.27
200.447	224.99
200.823	276.97
201.2	317.65
201.576	249.85
201.953	270.19
202.329	272.45
202.706	417.08
203.082	272.45
203.459	290.53
203.835	331.21
204.212	299.57
204.588	308.61
204.964	349.28
205.341	295.05
205.717	331.21
206.093	349.28
206.469	229.51
206.846	263.41
207.222	256.63
207.598	344.76
207.974	263.41
208.35	365.1
208.726	328.95
209.102	360.58
209.479	258.89
209.855	276.97
210.231	351.54
210.607	258.89
210.982	281.49
211.358	310.87
211.734	319.91
212.11	279.23
212.486	286.01
212.862	295.05
213.238	272.45
213.614	353.8
213.989	306.35
214.365	301.83
214.741	335.73
215.116	358.32
215.492	306.35
215.868	324.43
216.243	306.35
216.619	340.25
216.995	254.37
217.37	295.05
217.746	356.06
218.121	317.65
218.497	333.47
218.872	243.07
219.247	331.21
219.623	342.51
219.998	378.66
220.374	383.18
220.749	358.32
221.124	360.58
221.499	292.79
221.875	328.95
222.25	288.27
222.625	290.53
223	258.89
223.376	304.09
223.751	281.49
224.126	272.45
224.501	383.18
224.876	276.97
225.251	279.23
225.626	347.02
226.001	299.57
226.376	315.39
226.751	358.32
227.126	304.09
227.501	272.45
227.875	322.17
228.25	306.35
228.625	392.22
229	362.84
229.375	344.76
229.749	351.54
230.124	349.28
230.499	267.93
230.873	265.67
231.248	283.75
231.623	304.09
231.997	371.88
232.372	374.14
232.746	356.06
233.121	362.84
233.495	351.54
233.87	297.31
234.244	353.8
234.619	324.43
234.993	337.99
235.367	349.28
235.742	313.13
236.116	383.18
236.49	335.73
236.865	295.05
237.239	326.69
237.613	317.65
237.987	371.88
238.361	326.69
238.736	428.38
239.11	331.21
239.484	421.6
239.858	272.45
240.232	394.48
240.606	347.02
240.98	371.88
241.354	319.91
241.728	356.06
242.102	328.95
242.475	328.95
242.849	317.65
243.223	385.44
243.597	347.02
243.971	326.69
244.344	394.48
244.718	365.1
245.092	337.99
245.466	371.88
245.839	333.47
246.213	403.52
246.586	340.25
246.96	412.56
247.334	337.99
247.707	392.22
248.081	385.44
248.454	356.06
248.828	337.99
249.201	419.34
249.574	362.84
249.948	324.43
250.321	337.99
250.694	396.74
251.068	324.43
251.441	342.51
251.814	319.91
252.187	387.7
252.561	403.52
252.934	385.44
253.307	344.76
253.68	317.65
254.053	399
254.426	387.7
254.799	412.56
255.172	331.21
255.545	383.18
255.918	326.69
256.291	356.06
256.664	371.88
257.037	356.06
257.41	344.76
257.782	353.8
258.155	392.22
258.528	383.18
258.901	365.1
259.273	274.71
259.646	344.76
260.019	394.48
260.391	344.76
260.764	401.26
261.137	378.66
261.509	396.74
261.882	401.26
262.254	331.21
262.627	317.65
262.999	405.78
263.372	340.25
263.744	405.78
264.116	349.28
264.489	432.9
264.861	396.74
265.233	387.7
265.606	430.64
265.978	408.04
266.35	369.62
266.722	430.64
267.094	367.36
267.467	365.1
267.839	380.92
268.211	408.04
268.583	444.2
268.955	435.16
269.327	378.66
269.699	378.66
270.071	441.94
270.443	401.26
270.815	365.1
271.186	408.04
271.558	367.36
271.93	369.62
272.302	383.18
272.674	362.84
273.045	365.1
273.417	322.17
273.789	399
274.16	371.88
274.532	360.58
274.904	396.74
275.275	374.14
275.647	419.34
276.018	356.06
276.39	399
276.761	349.28
277.133	421.6
277.504	328.95
277.875	385.44
278.247	444.2
278.618	478.09
278.989	457.76
279.361	380.92
279.732	466.8
280.103	383.18
280.474	399
280.846	394.48
281.217	378.66
281.588	378.66
281.959	399
282.33	394.48
282.701	374.14
283.072	389.96
283.443	389.96
283.814	399
284.185	446.46
284.556	337.99
284.927	475.83
285.297	457.76
285.668	482.61
286.039	423.86
286.41	432.9
286.781	369.62
287.151	362.84
287.522	437.42
287.893	421.6
288.263	426.12
288.634	385.44
289.004	405.78
289.375	401.26
289.745	475.83
290.116	421.6
290.486	360.58
290.857	383.18
291.227	453.24
291.598	457.76
291.968	487.13
292.338	378.66
292.709	428.38
293.079	380.92
293.449	396.74
293.819	385.44
294.189	466.8
294.56	401.26
294.93	419.34
295.3	437.42
295.67	466.8
296.04	376.4
296.41	385.44
296.78	389.96
297.15	394.48
297.52	455.5
297.89	435.16
298.259	441.94
298.629	473.58
298.999	428.38
299.369	430.64
299.739	421.6
300.108	509.73
300.478	389.96
300.848	432.9
301.217	419.34
301.587	471.32
301.957	464.54
302.326	478.09
302.696	412.56
303.065	469.06
303.435	462.28
303.804	439.68
304.174	394.48
304.543	469.06
304.912	530.07
305.282	399
305.651	466.8
306.02	360.58
306.39	498.43
306.759	482.61
307.128	439.68
307.497	432.9
307.866	466.8
308.235	403.52
308.604	450.98
308.974	577.53
309.343	412.56
309.712	527.81
310.08	421.6
310.449	423.86
310.818	460.02
311.187	466.8
311.556	412.56
311.925	530.07
312.294	557.19
312.662	464.54
313.031	509.73
313.4	502.95
313.769	462.28
314.137	489.39
314.506	496.17
314.874	507.47
315.243	457.76
315.612	502.95
315.98	532.33
316.349	511.99
316.717	441.94
317.085	475.83
317.454	502.95
317.822	460.02
318.191	478.09
318.559	396.74
318.927	426.12
319.295	545.89
319.664	453.24
320.032	473.58
320.4	489.39
320.768	563.97
321.136	475.83
321.504	534.59
321.872	457.76
322.24	482.61
322.608	478.09
322.976	464.54
323.344	518.77
323.712	437.42
324.08	432.9
324.448	509.73
324.816	511.99
325.183	521.03
325.551	552.67
325.919	557.19
326.287	491.65
326.654	487.13
327.022	527.81
327.389	435.16
327.757	527.81
328.125	534.59
328.492	554.93
328.86	498.43
329.227	487.13
329.594	487.13
329.962	530.07
330.329	469.06
330.697	566.23
331.064	444.2
331.431	570.75
331.798	539.11
332.166	577.53
332.533	575.27
332.9	591.09
333.267	536.85
333.634	649.84
334.001	527.81
334.368	563.97
334.735	530.07
335.102	525.55
335.469	541.37
335.836	593.35
336.203	541.37
336.57	579.79
336.937	636.28
337.304	597.87
337.67	584.31
338.037	602.39
338.404	591.09
338.771	579.79
339.137	624.98
339.504	620.46
339.87	647.58
340.237	543.63
340.604	595.61
340.97	602.39
341.337	652.1
341.703	674.7
342.069	577.53
342.436	563.97
342.802	579.79
343.169	584.31
343.535	597.87
343.901	615.94
344.267	575.27
344.634	640.8
345	618.2
345.366	658.88
345.732	665.66
346.098	593.35
346.464	606.9
346.83	688.26
347.196	586.57
347.562	661.14
347.928	615.94
348.294	613.68
348.66	618.2
349.026	679.22
349.392	649.84
349.757	656.62
350.123	697.3
350.489	665.66
350.855	724.42
351.22	634.02
351.586	715.38
351.951	688.26
352.317	670.18
352.683	647.58
353.048	740.23
353.414	717.64
353.779	708.6
354.144	728.94
354.51	785.43
354.875	751.53
355.24	724.42
355.606	740.23
355.971	744.75
356.336	643.06
356.701	735.72
357.067	774.13
357.432	776.39
357.797	699.56
358.162	769.61
358.527	828.37
358.892	731.2
359.257	756.05
359.622	780.91
359.987	801.25
360.352	747.01
360.717	893.9
361.082	803.51
361.446	848.71
361.811	880.34
362.176	803.51
362.541	826.11
362.905	837.41
363.27	821.59
363.635	878.08
363.999	923.28
364.364	918.76
364.728	826.11
365.093	891.64
365.457	979.78
365.822	909.72
366.186	930.06
366.55	909.72
366.915	959.44
367.279	1070.17
367.643	1024.97
368.008	1013.67
368.372	979.78
368.736	1052.09
369.1	1000.11
369.464	1088.25
369.828	1070.17
370.192	1126.67
370.556	1192.2
370.92	1104.07
371.284	1124.41
371.648	1217.06
372.012	1246.44
372.376	1343.61
372.74	1302.93
373.104	1323.27
373.468	1418.18
373.831	1418.18
374.195	1418.18
374.559	1447.56
374.922	1481.46
375.286	1474.68
375.65	1711.96
376.013	1659.98
376.377	1734.56
376.74	1802.35
377.104	1745.86
377.467	1854.33
377.83	2105.17
378.194	2114.21
378.557	2141.33
378.92	2344.71
379.284	2545.84
379.647	2699.51
380.01	2810.24
380.373	2959.39
380.736	3079.16
381.1	3456.55
381.463	3653.15
381.826	3894.95
382.189	4220.37
382.552	4577.42
382.915	4925.44
383.278	5214.69
383.64	5738.97
384.003	6238.4
384.366	6735.56
384.729	7375.09
385.092	7937.79
385.454	8511.78
385.817	9413.45
386.18	10355.8
386.542	11503.79
386.905	12489.08
387.268	13713.9
387.63	15347.76
387.993	16116.1
388.355	17738.66
388.718	19824.48
389.08	21589.4
389.442	23616.47
389.805	25263.88
390.167	27385.86
390.529	30169.97
390.892	33943.88
391.254	36203.71
391.616	38321.17
391.978	43401.26
392.34	46626.03
392.702	48840.66
393.064	51859.79
393.426	54026.97
393.788	55699.24
394.15	57199.77
394.512	59364.68
394.874	61100.23
395.236	63023.34
395.598	64485.45
395.96	65057.19
396.321	65057.19
396.683	65057.19
397.045	65057.19
397.406	65057.19
397.768	65057.19
398.13	65057.19
398.491	65057.19
398.853	65057.19
399.214	65057.19
399.576	65057.19
399.937	65057.19
400.299	65057.19
400.66	65057.19
401.021	65057.19
401.383	65057.19
401.744	65057.19
402.105	65057.19
402.466	65057.19
402.827	65057.19
403.189	65057.19
403.55	65057.19
403.911	65057.19
404.272	65057.19
404.633	65057.19
404.994	65057.19
405.355	65057.19
405.716	65057.19
406.077	65057.19
406.437	65057.19
406.798	65057.19
407.159	65057.19
407.52	65057.19
407.88	65057.19
408.241	65057.19
408.602	65057.19
408.962	65057.19
409.323	65057.19
409.684	65057.19
410.044	65057.19
410.405	65057.19
410.765	65057.19
411.125	65057.19
411.486	65057.19
411.846	65057.19
412.206	65057.19
412.567	65057.19
412.927	65057.19
413.287	65057.19
413.647	65057.19
414.007	65057.19
414.368	65057.19
414.728	65057.19
415.088	65057.19
415.448	65057.19
415.808	65057.19
416.168	65057.19
416.528	65057.19
416.887	65057.19
417.247	65057.19
417.607	65057.19
417.967	65057.19
418.327	65057.19
418.686	65057.19
419.046	65057.19
419.406	65057.19
419.765	65057.19
420.125	65057.19
420.484	65057.19
420.844	65057.19
421.203	65057.19
421.563	64514.83
421.922	64449.29
422.282	62551.04
422.641	61226.78
423	60044.89
423.36	59068.64
423.719	56991.86
424.078	55109.43
424.437	53301.56
424.796	51520.82
425.155	50716.32
425.515	47685.89
425.874	46479.15
426.233	41814.86
426.592	40038.64
426.95	38910.98
427.309	36949.45
427.668	35326.9
428.027	33159.72
428.386	32111.16
428.745	29064.91
429.103	27385.86
429.462	26348.6
429.821	24382.55
430.179	23634.55
430.538	22710.28
430.897	22066.23
431.255	20800.72
431.614	19670.81
431.972	18766.88
432.33	17953.34
432.689	17603.07
433.047	16346.6
433.405	15564.7
433.764	14965.85
434.122	14534.22
434.48	13415.61
434.838	13162.51
435.197	12611.11
435.555	12211.12
435.913	11445.04
436.271	10925.28
436.629	10676.7
436.987	10159.2
437.345	9657.51
437.703	9318.54
438.061	8848.5
438.418	8416.87
438.776	7985.24
439.134	7858.69
439.492	7404.47
439.849	7006.74
440.207	6697.14
440.565	6355.91
440.922	6089.25
441.28	5700.56
441.637	5646.32
441.995	5293.79
442.352	5160.46
442.71	4952.55
443.067	4880.24
443.425	4457.65
443.782	4444.09
444.139	4258.79
444.496	4154.83
444.854	4048.62
445.211	3824.9
445.568	3953.71
445.925	3537.9
446.282	3438.47
446.639	3296.1
446.996	3253.16
447.353	3336.78
447.71	3101.75
448.067	3282.54
448.424	2839.61
448.781	2835.09
449.137	2853.17
449.494	2633.97
449.851	2471.26
450.208	2480.3
450.564	2326.63
450.921	2177.49
451.278	2163.93
451.634	2326.63
451.991	2134.55
452.347	2116.47
452.704	2019.3
453.06	2053.19
453.416	1874.67
453.773	1766.2
454.129	1881.45
454.485	1727.78
454.841	1650.95
455.198	1637.39
455.554	1623.83
455.91	1560.55
456.266	1524.39
456.622	1501.8
456.978	1413.66
457.334	1278.07
457.69	1323.27
458.046	1241.92
458.402	1235.14
458.758	1269.03
459.114	1187.68
459.469	1128.93
459.825	1072.43
460.181	1119.89
460.536	979.78
460.892	1038.53
461.248	1065.65
461.603	1047.57
461.959	1058.87
462.314	1015.93
462.67	914.24
463.025	961.7
463.38	921.02
463.736	914.24
464.091	882.6
464.446	930.06
464.802	973
465.157	850.97
465.512	837.41
465.867	794.47
466.222	869.04
466.577	821.59
466.932	767.35
467.287	794.47
467.642	823.85
467.997	789.95
468.352	762.83
468.707	785.43
469.062	697.3
469.417	728.94
469.771	717.64
470.126	724.42
470.481	672.44
470.835	731.2
471.19	715.38
471.544	584.31
471.899	609.16
472.253	624.98
472.608	634.02
472.962	692.78
473.317	710.86
473.671	663.4
474.025	697.3
474.38	595.61
474.734	647.58
475.088	699.56
475.442	679.22
475.796	665.66
476.15	665.66
476.504	545.89
476.858	613.68
477.212	620.46
477.566	577.53
477.92	665.66
478.274	570.75
478.628	593.35
478.982	656.62
479.336	548.15
479.689	631.76
480.043	611.42
480.397	518.77
480.75	661.14
481.104	557.19
481.457	550.41
481.811	591.09
482.164	557.19
482.518	597.87
482.871	532.33
483.225	582.05
483.578	543.63
483.931	561.71
484.284	593.35
484.638	579.79
484.991	507.47
485.344	573.01
485.697	649.84
486.05	534.59
486.403	559.45
486.756	511.99
487.109	582.05
487.462	545.89
487.815	579.79
488.168	559.45
488.52	584.31
488.873	554.93
489.226	543.63
489.579	509.73
489.931	511.99
490.284	482.61
490.637	566.23
490.989	584.31
491.342	505.21
491.694	539.11
492.047	516.51
492.399	543.63
492.751	527.81
493.104	414.82
493.456	480.35
493.808	484.87
494.16	593.35
494.513	493.91
494.865	521.03
495.217	579.79
495.569	460.02
495.921	539.11
496.273	464.54
496.625	493.91
496.977	518.77
497.329	543.63
497.68	507.47
498.032	509.73
498.384	566.23
498.736	489.39
499.087	568.49
499.439	523.29
499.791	509.73
500.142	487.13
500.494	536.85
500.845	579.79
501.197	460.02
501.548	570.75
501.9	480.35
502.251	568.49
502.602	548.15
502.954	534.59
503.305	536.85
503.656	530.07
504.007	491.65
504.358	559.45
504.709	561.71
505.061	496.17
505.412	550.41
505.763	534.59
506.113	521.03
506.464	595.61
506.815	656.62
507.166	627.24
507.517	643.06
507.868	579.79
508.218	615.94
508.569	679.22
508.92	620.46
509.27	606.9
509.621	686
509.971	566.23
510.322	645.32
510.672	638.54
511.023	654.36
511.373	654.36
511.723	658.88
512.074	717.64
512.424	683.74
512.774	701.82
513.124	674.7
513.475	722.16
513.825	699.56
514.175	670.18
514.525	812.55
514.875	758.31
515.225	740.23
515.575	753.79
515.924	713.12
516.274	814.81
516.624	826.11
516.974	751.53
517.324	839.67
517.673	841.93
518.023	954.92
518.373	916.5
518.722	830.63
519.072	889.38
519.421	780.91
519.771	896.16
520.12	837.41
520.469	857.75
520.819	887.12
521.168	948.14
521.517	932.32
521.867	1011.41
522.216	914.24
522.565	925.54
522.914	893.9
523.263	916.5
523.612	1013.67
523.961	970.74
524.31	864.53
524.659	907.46
525.008	1000.11
525.357	975.26
525.705	1027.23
526.054	986.56
526.403	1004.63
526.752	1063.39
527.1	1029.49
527.449	1015.93
527.797	959.44
528.146	923.28
528.495	1063.39
528.843	993.34
529.191	1027.23
529.54	1058.87
529.888	1036.27
530.236	1079.21
530.585	1122.15
530.933	1065.65
531.281	1036.27
531.629	1045.31
531.977	975.26
532.325	1153.78
532.673	1006.89
533.021	1115.37
533.369	1063.39
533.717	1083.73
534.065	1156.04
534.413	1027.23
534.761	968.48
535.108	1054.35
535.456	1079.21
535.804	1149.26
536.151	1110.85
536.499	1135.7
536.847	1185.42
537.194	1101.81
537.542	1043.05
537.889	1015.93
538.236	1061.13
538.584	1133.44
538.931	1104.07
539.278	1165.08
539.626	1090.51
539.973	1126.67
540.32	1126.67
540.667	1178.64
541.014	1106.33
541.361	1020.45
541.708	1040.79
542.055	1119.89
542.402	1119.89
542.749	1070.17
543.096	1058.87
543.443	1158.3
543.789	1115.37
544.136	1104.07
544.483	1167.34
544.83	1079.21
545.176	1054.35
545.523	1101.81
545.869	1024.97
546.216	1045.31
546.562	1140.22
546.909	1029.49
547.255	1056.61
547.601	1140.22
547.948	1079.21
548.294	1065.65
548.64	1081.47
548.986	1076.95
549.332	1072.43
549.678	1081.47
550.025	1158.3
550.371	1065.65
550.717	1108.59
551.062	1196.72
551.408	1070.17
551.754	1158.3
552.1	1070.17
552.446	1144.74
552.792	1088.25
553.137	1119.89
553.483	1124.41
553.828	1085.99
554.174	1045.31
554.52	1158.3
554.865	1122.15
555.211	1106.33
555.556	1156.04
555.901	1198.98
556.247	1167.34
556.592	1214.8
556.937	1232.88
557.282	1131.18
557.628	1142.48
557.973	1156.04
558.318	1246.44
558.663	1282.59
559.008	1230.62
559.353	1298.41
559.698	1305.19
560.043	1226.1
560.388	1260
560.732	1131.18
561.077	1377.51
561.422	1280.33
561.766	1235.14
562.111	1217.06
562.456	1289.37
562.8	1388.81
563.145	1372.99
563.489	1330.05
563.834	1255.48
564.178	1332.31
564.523	1293.89
564.867	1287.11
565.211	1307.45
565.555	1411.4
565.9	1314.23
566.244	1327.79
566.588	1363.95
566.932	1379.77
567.276	1406.88
567.62	1479.2
567.964	1467.9
568.308	1325.53
568.652	1452.08
568.996	1506.32
569.339	1497.28
569.683	1506.32
570.027	1431.74
570.371	1492.76
570.714	1395.58
571.058	1603.49
571.401	1549.25
571.745	1490.5
572.088	1540.21
572.432	1461.12
572.775	1510.84
573.118	1549.25
573.462	1515.36
573.805	1456.6
574.148	1483.72
574.491	1533.43
574.835	1585.41
575.178	1517.62
575.521	1488.24
575.864	1565.07
576.207	1418.18
576.55	1531.17
576.892	1635.13
577.235	1551.51
577.578	1556.03
577.921	1646.43
578.264	1551.51
578.606	1510.84
578.949	1508.58
579.292	1601.23
579.634	1492.76
579.977	1567.33
580.319	1515.36
580.662	1594.45
581.004	1504.06
581.346	1479.2
581.689	1553.77
582.031	1553.77
582.373	1522.14
582.715	1540.21
583.057	1445.3
583.4	1418.18
583.742	1438.52
584.084	1445.3
584.426	1483.72
584.768	1456.6
585.109	1384.29
585.451	1318.75
585.793	1436.26
586.135	1429.48
586.477	1307.45
586.818	1375.25
587.16	1431.74
587.502	1284.85
587.843	1341.35
588.185	1330.05
588.526	1354.91
588.868	1289.37
589.209	1278.07
589.55	1314.23
589.892	1289.37
590.233	1341.35
590.574	1221.58
590.915	1219.32
591.257	1248.7
591.598	1262.25
591.939	1345.87
592.28	1126.67
592.621	1203.5
592.962	1176.38
593.303	1219.32
593.643	1140.22
593.984	1117.63
594.325	1198.98
594.666	1201.24
595.006	1165.08
595.347	1156.04
595.688	1180.9
596.028	1067.91
596.369	1085.99
596.709	1081.47
597.05	1142.48
597.39	1122.15
597.73	1022.71
598.071	1058.87
598.411	1006.89
598.751	1027.23
599.091	1124.41
599.431	1054.35
599.772	957.18
600.112	1002.37
600.452	1085.99
600.792	932.32
601.132	927.8
601.471	1027.23
601.811	993.34
602.151	1002.37
602.491	957.18
602.831	993.34
603.17	954.92
603.51	982.04
603.849	932.32
604.189	982.04
604.528	918.76
604.868	855.49
605.207	814.81
605.547	896.16
605.886	846.45
606.225	882.6
606.565	907.46
606.904	830.63
607.243	898.42
607.582	889.38
607.921	832.89
608.26	862.27
608.599	841.93
608.938	866.79
609.277	844.19
609.616	914.24
609.955	855.49
610.293	776.39
610.632	785.43
610.971	862.27
611.309	783.17
611.648	837.41
611.987	796.73
612.325	780.91
612.664	902.94
613.002	798.99
613.34	803.51
613.679	828.37
614.017	853.23
614.355	837.41
614.694	792.21
615.032	708.6
615.37	756.05
615.708	810.29
616.046	771.87
616.384	715.38
616.722	769.61
617.06	783.17
617.398	817.07
617.736	765.09
618.073	733.46
618.411	787.69
618.749	785.43
619.086	796.73
619.424	792.21
619.762	805.77
620.099	864.53
620.437	774.13
620.774	740.23
621.112	821.59
621.449	789.95
621.786	699.56
622.123	783.17
622.461	742.49
622.798	728.94
623.135	749.27
623.472	701.82
623.809	715.38
624.146	728.94
624.483	654.36
624.82	740.23
625.157	710.86
625.494	747.01
625.83	706.34
626.167	808.03
626.504	785.43
626.841	753.79
627.177	760.57
627.514	740.23
627.85	762.83
628.187	740.23
628.523	747.01
628.86	708.6
629.196	704.08
629.532	785.43
629.869	728.94
630.205	787.69
630.541	733.46
630.877	701.82
631.213	749.27
631.549	613.68
631.885	753.79
632.221	724.42
632.557	679.22
632.893	735.72
633.229	728.94
633.564	602.39
633.9	695.04
634.236	701.82
634.572	706.34
634.907	692.78
635.243	665.66
635.578	670.18
635.914	681.48
636.249	631.76
636.585	604.65
636.92	749.27
637.255	631.76
637.59	695.04
637.926	695.04
638.261	643.06
638.596	573.01
638.931	647.58
639.266	654.36
639.601	692.78
639.936	647.58
640.271	645.32
640.606	627.24
640.94	600.13
641.275	647.58
641.61	640.8
641.945	579.79
642.279	624.98
642.614	667.92
642.948	622.72
643.283	643.06
643.617	649.84
643.952	597.87
644.286	570.75
644.62	597.87
644.955	654.36
645.289	593.35
645.623	545.89
645.957	615.94
646.291	527.81
646.625	609.16
646.959	541.37
647.293	534.59
647.627	563.97
647.961	575.27
648.295	548.15
648.629	543.63
648.962	516.51
649.296	566.23
649.63	573.01
649.963	563.97
650.297	532.33
650.63	593.35
650.964	523.29
651.297	532.33
651.631	530.07
651.964	536.85
652.297	516.51
652.631	507.47
652.964	489.39
653.297	505.21
653.63	487.13
653.963	471.32
654.296	491.65
654.629	453.24
654.962	469.06
655.295	539.11
655.628	480.35
655.961	448.72
656.293	484.87
656.626	448.72
656.959	487.13
657.291	491.65
657.624	444.2
657.956	473.58
658.289	516.51
658.621	446.46
658.954	464.54
659.286	482.61
659.618	464.54
659.95	514.25
660.283	389.96
660.615	487.13
660.947	446.46
661.279	437.42
661.611	441.94
661.943	457.76
662.275	376.4
662.607	428.38
662.939	455.5
663.27	446.46
663.602	380.92
663.934	374.14
664.266	410.3
664.597	421.6
664.929	460.02
665.26	475.83
665.592	380.92
665.923	448.72
666.255	432.9
666.586	460.02
666.917	428.38
667.248	342.51
667.58	417.08
667.911	428.38
668.242	475.83
668.573	432.9
668.904	421.6
669.235	371.88
669.566	385.44
669.897	380.92
670.228	408.04
670.558	396.74
670.889	408.04
671.22	469.06
671.551	435.16
671.881	385.44
672.212	448.72
672.542	437.42
672.873	351.54
673.203	378.66
673.533	412.56
673.864	374.14
674.194	360.58
674.524	371.88
674.855	471.32
675.185	410.3
675.515	399
675.845	358.32
676.175	401.26
676.505	380.92
676.835	410.3
677.165	421.6
677.494	335.73
677.824	344.76
678.154	274.71
678.484	353.8
678.813	387.7
679.143	331.21
679.472	353.8
679.802	426.12
680.131	367.36
680.461	437.42
680.79	385.44
681.119	385.44
681.449	347.02
681.778	385.44
682.107	358.32
682.436	328.95
682.765	342.51
683.094	290.53
683.423	380.92
683.752	326.69
684.081	399
684.41	376.4
684.739	344.76
685.067	340.25
685.396	317.65
685.725	385.44
686.053	392.22
686.382	313.13
686.711	344.76
687.039	351.54
687.367	389.96
687.696	328.95
688.024	376.4
688.352	380.92
688.681	299.57
689.009	353.8
689.337	335.73
689.665	315.39
689.993	353.8
690.321	349.28
690.649	337.99
690.977	358.32
691.305	308.61
691.633	335.73
691.961	326.69
692.288	310.87
692.616	313.13
692.944	403.52
693.271	344.76
693.599	304.09
693.926	276.97
694.254	319.91
694.581	358.32
694.908	358.32
695.236	319.91
695.563	263.41
695.89	360.58
696.217	344.76
696.544	322.17
696.871	281.49
697.198	344.76
697.525	322.17
697.852	317.65
698.179	333.47
698.506	385.44
698.833	295.05
699.16	286.01
699.486	387.7
699.813	349.28
700.139	344.76
700.466	306.35
700.793	358.32
701.119	313.13
701.445	310.87
701.772	290.53
702.098	319.91
702.424	367.36
702.75	349.28
703.077	308.61
703.403	306.35
703.729	304.09
704.055	324.43
704.381	301.83
704.707	365.1
705.033	396.74
705.358	380.92
705.684	358.32
706.01	290.53
706.336	274.71
706.661	324.43
706.987	347.02
707.312	283.75
707.638	324.43
707.963	367.36
708.289	319.91
708.614	299.57
708.939	286.01
709.265	333.47
709.59	236.29
709.915	276.97
710.24	290.53
710.565	295.05
710.89	295.05
711.215	340.25
711.54	272.45
711.865	347.02
712.19	295.05
712.515	274.71
712.839	288.27
713.164	265.67
713.489	292.79
713.813	353.8
714.138	306.35
714.462	315.39
714.787	288.27
715.111	310.87
715.435	313.13
715.76	326.69
716.084	295.05
716.408	317.65
716.732	299.57
717.056	290.53
717.381	304.09
717.705	231.77
718.028	319.91
718.352	308.61
718.676	326.69
719	308.61
719.324	252.11
719.648	240.81
719.971	351.54
720.295	290.53
720.618	340.25
720.942	288.27
721.265	261.15
721.589	220.47
721.912	270.19
722.236	322.17
722.559	283.75
722.882	263.41
723.205	279.23
723.528	310.87
723.851	301.83
724.174	286.01
724.497	322.17
724.82	295.05
725.143	286.01
725.466	290.53
725.789	249.85
726.112	247.59
726.434	283.75
726.757	243.07
727.08	283.75
727.402	290.53
727.725	333.47
728.047	342.51
728.37	299.57
728.692	367.36
729.014	292.79
729.336	274.71
729.659	231.77
729.981	306.35
730.303	261.15
730.625	299.57
730.947	258.89
731.269	236.29
731.591	267.93
731.913	286.01
732.235	267.93
732.556	267.93
732.878	270.19
733.2	265.67
733.521	240.81
733.843	283.75
734.164	333.47
734.486	274.71
734.807	234.03
735.129	292.79
735.45	267.93
735.771	283.75
736.092	288.27
736.414	281.49
736.735	279.23
737.056	283.75
737.377	288.27
737.698	227.25
738.019	286.01
738.34	315.39
738.66	322.17
738.981	283.75
739.302	270.19
739.623	281.49
739.943	295.05
740.264	322.17
740.584	313.13
740.905	218.21
741.225	270.19
741.546	283.75
741.866	265.67
742.186	272.45
742.507	315.39
742.827	267.93
743.147	274.71
743.467	265.67
743.787	240.81
744.107	243.07
744.427	258.89
744.747	236.29
745.067	258.89
745.386	243.07
745.706	272.45
746.026	292.79
746.346	245.33
746.665	292.79
746.985	249.85
747.304	222.73
747.624	247.59
747.943	308.61
748.262	256.63
748.582	267.93
748.901	263.41
749.22	227.25
749.539	258.89
749.858	306.35
750.177	286.01
750.496	290.53
750.815	286.01
751.134	245.33
751.453	281.49
751.772	286.01
752.09	243.07
752.409	297.31
752.728	222.73
753.046	261.15
753.365	252.11
753.683	243.07
754.002	206.92
754.32	243.07
754.639	240.81
754.957	258.89
755.275	295.05
755.593	324.43
755.911	297.31
756.23	243.07
756.548	265.67
756.866	224.99
757.183	351.54
757.501	240.81
757.819	236.29
758.137	204.66
758.455	283.75
758.772	231.77
759.09	234.03
759.408	295.05
759.725	231.77
760.043	286.01
760.36	310.87
760.677	274.71
760.995	218.21
761.312	304.09
761.629	290.53
761.946	324.43
762.264	267.93
762.581	279.23
762.898	297.31
763.215	249.85
763.532	252.11
763.848	265.67
764.165	281.49
764.482	295.05
764.799	258.89
765.115	274.71
765.432	274.71
765.749	301.83
766.065	236.29
766.382	270.19
766.698	249.85
767.014	229.51
767.331	222.73
767.647	263.41
767.963	283.75
768.279	263.41
768.595	279.23
768.911	227.25
769.227	200.14
769.543	238.55
769.859	324.43
770.175	306.35
770.491	240.81
770.807	204.66
771.122	272.45
771.438	306.35
771.754	301.83
772.069	258.89
772.385	276.97
772.7	301.83
773.016	315.39
773.331	342.51
773.646	229.51
773.961	243.07
774.277	261.15
774.592	249.85
774.907	283.75
775.222	276.97
775.537	315.39
775.852	220.47
776.167	218.21
776.482	335.73
776.796	234.03
777.111	252.11
777.426	252.11
777.74	256.63
778.055	276.97
778.369	313.13
778.684	288.27
778.998	326.69
779.313	240.81
779.627	308.61
779.941	263.41
780.255	290.53
780.57	272.45
780.884	322.17
781.198	254.37
781.512	229.51
781.826	319.91
782.14	252.11
782.453	315.39
782.767	340.25
783.081	252.11
783.395	220.47
783.708	290.53
784.022	265.67
784.335	286.01
784.649	256.63
784.962	261.15
785.276	209.18
785.589	306.35
785.902	304.09
786.216	299.57
786.529	258.89
786.842	308.61
787.155	243.07
787.468	229.51
787.781	306.35
788.094	263.41
788.407	231.77
788.72	231.77
789.032	263.41
789.345	304.09
789.658	229.51
789.97	238.55
790.283	254.37
790.595	222.73
790.908	279.23
791.22	270.19
791.532	276.97
791.845	283.75
792.157	267.93
792.469	202.4
792.781	258.89
793.093	245.33
793.405	261.15
793.717	254.37
794.029	254.37
794.341	258.89
794.653	254.37
794.965	288.27
795.276	290.53
795.588	270.19
795.9	306.35
796.211	209.18
796.523	265.67
796.834	276.97
797.146	276.97
797.457	265.67
797.768	254.37
798.08	261.15
798.391	270.19
798.702	279.23
799.013	204.66
799.324	279.23
799.635	236.29
799.946	182.06
800.257	249.85
800.568	240.81
800.878	299.57
801.189	267.93
801.5	263.41
801.81	292.79
802.121	272.45
802.431	249.85
802.742	256.63
803.052	211.44
803.363	261.15
803.673	254.37
803.983	283.75
804.293	299.57
804.603	245.33
804.913	200.14
805.224	191.1
805.533	204.66
805.843	292.79
806.153	292.79
806.463	276.97
806.773	254.37
807.083	238.55
807.392	258.89
807.702	245.33
808.011	290.53
808.321	313.13
808.63	206.92
808.94	243.07
809.249	222.73
809.558	191.1
809.868	249.85
810.177	290.53
810.486	243.07
810.795	202.4
811.104	243.07
811.413	258.89
811.722	177.54
812.031	206.92
812.339	299.57
812.648	227.25
812.957	204.66
813.266	290.53
813.574	286.01
813.883	290.53
814.191	243.07
814.5	247.59
814.808	313.13
815.116	279.23
815.424	319.91
815.733	218.21
816.041	247.59
816.349	234.03
816.657	215.95
816.965	295.05
817.273	243.07
817.581	249.85
817.889	283.75
818.196	224.99
818.504	206.92
818.812	308.61
819.12	261.15
819.427	236.29
819.735	209.18
820.042	238.55
820.349	227.25
820.657	252.11
820.964	231.77
821.271	340.25
821.579	342.51
821.886	301.83
822.193	245.33
822.5	358.32
822.807	276.97
823.114	279.23
823.421	222.73
823.727	265.67
824.034	254.37
824.341	236.29
824.648	197.88
824.954	274.71
825.261	265.67
825.567	272.45
825.874	295.05
826.18	288.27
826.486	286.01
826.793	211.44
827.099	261.15
827.405	261.15
827.711	304.09
828.017	319.91
828.323	220.47
828.629	254.37
828.935	299.57
829.241	177.54
829.547	331.21
829.852	283.75
830.158	238.55
830.464	261.15
830.769	288.27
831.075	274.71
831.38	263.41
831.686	249.85
831.991	236.29
832.296	238.55
832.601	231.77
832.907	326.69
833.212	279.23
833.517	290.53
833.822	229.51
834.127	211.44
834.432	270.19
834.737	258.89
835.041	319.91
835.346	234.03
835.651	252.11
835.956	211.44
836.26	263.41
836.565	245.33
836.869	252.11
837.174	267.93
837.478	279.23
837.782	281.49
838.087	261.15
838.391	240.81
838.695	245.33
838.999	218.21
839.303	261.15
839.607	256.63
839.911	229.51
840.215	202.4
840.519	272.45
840.822	276.97
841.126	243.07
841.43	249.85
841.733	234.03
842.037	218.21
842.34	274.71
842.644	197.88
842.947	238.55
843.251	211.44
843.554	276.97
843.857	292.79
844.16	270.19
844.463	245.33
844.766	335.73
845.069	288.27
845.372	313.13
845.675	261.15
845.978	276.97
846.281	236.29
846.583	274.71
846.886	215.95
847.189	249.85
847.491	265.67
847.794	295.05
848.096	220.47
848.399	256.63
848.701	240.81
849.003	197.88
849.305	281.49
849.608	276.97
849.91	306.35
850.212	247.59
850.514	281.49
850.816	243.07
851.118	227.25
851.419	204.66
851.721	229.51
852.023	238.55
852.325	213.69
852.626	252.11
852.928	267.93
853.229	240.81
853.531	288.27
853.832	344.76
854.133	274.71
854.435	245.33
854.736	240.81
855.037	292.79
855.338	292.79
855.639	231.77
855.94	218.21
856.241	243.07
856.542	290.53
856.843	265.67
857.144	240.81
857.444	353.8
857.745	353.8
858.046	256.63
858.346	234.03
858.647	179.8
858.947	267.93
859.247	317.65
859.548	258.89
859.848	202.4
860.148	191.1
860.448	254.37
860.749	252.11
861.049	304.09
861.349	276.97
861.648	211.44
861.948	254.37
862.248	224.99
862.548	243.07
862.848	238.55
863.147	182.06
863.447	247.59
863.746	279.23
864.046	245.33
864.345	265.67
864.645	283.75
864.944	243.07
865.243	245.33
865.542	297.31
865.842	182.06
866.141	184.32
866.44	227.25
866.739	270.19
867.038	247.59
867.337	229.51
867.635	308.61
867.934	243.07
868.233	272.45
868.531	286.01
868.83	227.25
869.129	272.45
869.427	290.53
869.725	195.62
870.024	254.37
870.322	267.93
870.62	202.4
870.918	215.95
871.217	281.49
871.515	297.31
871.813	315.39
872.111	258.89
872.409	288.27
872.706	220.47
873.004	256.63
873.302	304.09
873.6	258.89
873.897	247.59
874.195	186.58
874.492	254.37
874.79	229.51
875.087	270.19
875.384	252.11
875.682	279.23
875.979	283.75
876.276	286.01
876.573	324.43
876.87	324.43
877.167	324.43
