Data from PL_2polymer_F8BT_MEHPPV_USB2H096331_0610.txt Node
Date: Tue Dec 15 16:12:26 CET 2020
User: spadmin
Spectrometer: USB2+H09633
Trigger mode: 0
Integration Time (sec): 1.000000E-2
Scans to average: 1
Electric dark correction enabled: true
Nonlinearity correction enabled: false
Boxcar width: 0
XAxis mode: Wavelengths
Number of Pixels in Spectrum: 2048
>>>>>Begin Spectral Data<<<<<
174.027	-28.39
174.405	-28.39
174.783	-28.39
175.162	-152.68
175.54	-154.94
175.918	-127.82
176.296	-80.37
176.674	-109.74
177.052	-96.18
177.43	-46.47
177.808	-89.4
178.186	-96.18
178.564	-17.09
178.942	-26.13
179.32	-3.53
179.698	12.29
180.076	-17.09
180.453	75.56
180.831	80.08
181.209	127.54
181.587	136.58
181.965	150.14
182.342	134.32
182.72	170.48
183.098	211.15
183.475	265.39
183.853	310.59
184.231	260.87
184.608	285.73
184.986	272.17
185.363	299.29
185.741	321.88
186.118	290.25
186.496	389.68
186.873	342.22
187.251	324.14
187.628	328.66
188.006	344.48
188.383	294.77
188.76	319.62
189.138	342.22
189.515	344.48
189.892	342.22
190.27	355.78
190.647	326.4
191.024	324.14
191.401	394.2
191.778	324.14
192.155	380.64
192.533	339.96
192.91	400.98
193.287	310.59
193.664	407.76
194.041	362.56
194.418	364.82
194.795	276.69
195.172	236.01
195.549	315.1
195.926	281.21
196.302	371.6
196.679	303.81
197.056	339.96
197.433	330.92
197.81	342.22
198.187	326.4
198.563	310.59
198.94	324.14
199.317	364.82
199.693	364.82
200.07	251.83
200.447	312.84
200.823	330.92
201.2	364.82
201.576	351.26
201.953	319.62
202.329	297.03
202.706	281.21
203.082	403.24
203.459	315.1
203.835	319.62
204.212	285.73
204.588	342.22
204.964	349
205.341	342.22
205.717	283.47
206.093	333.18
206.469	281.21
206.846	306.07
207.222	299.29
207.598	306.07
207.974	382.9
208.35	278.95
208.726	373.86
209.102	328.66
209.479	324.14
209.855	315.1
210.231	315.1
210.607	285.73
210.982	272.17
211.358	215.67
211.734	321.88
212.11	278.95
212.486	272.17
212.862	326.4
213.238	358.04
213.614	303.81
213.989	367.08
214.365	376.12
214.741	349
215.116	258.61
215.492	287.99
215.868	335.44
216.243	337.7
216.619	367.08
216.995	364.82
217.37	321.88
217.746	326.4
218.121	308.33
218.497	328.66
218.872	321.88
219.247	326.4
219.623	403.24
219.998	339.96
220.374	369.34
220.749	385.16
221.124	297.03
221.499	315.1
221.875	376.12
222.25	310.59
222.625	376.12
223	276.69
223.376	400.98
223.751	344.48
224.126	310.59
224.501	342.22
224.876	308.33
225.251	272.17
225.626	391.94
226.001	319.62
226.376	303.81
226.751	297.03
227.126	376.12
227.501	394.2
227.875	349
228.25	321.88
228.625	380.64
229	391.94
229.375	373.86
229.749	416.8
230.124	389.68
230.499	371.6
230.873	371.6
231.248	349
231.623	371.6
231.997	380.64
232.372	367.08
232.746	351.26
233.121	373.86
233.495	333.18
233.87	358.04
234.244	385.16
234.619	412.28
234.993	412.28
235.367	400.98
235.742	391.94
236.116	312.84
236.49	437.14
236.865	312.84
237.239	391.94
237.613	362.56
237.987	324.14
238.361	344.48
238.736	349
239.11	353.52
239.484	364.82
239.858	355.78
240.232	391.94
240.606	382.9
240.98	285.73
241.354	394.2
241.728	421.32
242.102	351.26
242.475	419.06
242.849	349
243.223	391.94
243.597	380.64
243.971	330.92
244.344	371.6
244.718	391.94
245.092	376.12
245.466	303.81
245.839	405.5
246.213	335.44
246.586	389.68
246.96	389.68
247.334	326.4
247.707	351.26
248.081	353.52
248.454	369.34
248.828	430.36
249.201	387.42
249.574	416.8
249.948	339.96
250.321	353.52
250.694	364.82
251.068	376.12
251.441	378.38
251.814	351.26
252.187	333.18
252.561	385.16
252.934	459.73
253.307	396.46
253.68	400.98
254.053	443.91
254.426	337.7
254.799	416.8
255.172	416.8
255.545	428.1
255.918	434.88
256.291	358.04
256.664	360.3
257.037	396.46
257.41	351.26
257.782	371.6
258.155	287.99
258.528	398.72
258.901	412.28
259.273	434.88
259.646	446.17
260.019	385.16
260.391	405.5
260.764	425.84
261.137	441.66
261.509	416.8
261.882	344.48
262.254	364.82
262.627	353.52
262.999	416.8
263.372	398.72
263.744	389.68
264.116	419.06
264.489	344.48
264.861	396.46
265.233	391.94
265.606	434.88
265.978	360.3
266.35	396.46
266.722	452.95
267.094	339.96
267.467	385.16
267.839	468.77
268.211	335.44
268.583	398.72
268.955	330.92
269.327	412.28
269.699	369.34
270.071	507.19
270.443	391.94
270.815	421.32
271.186	362.56
271.558	448.43
271.93	398.72
272.302	459.73
272.674	371.6
273.045	373.86
273.417	394.2
273.789	432.62
274.16	337.7
274.532	452.95
274.904	382.9
275.275	360.3
275.647	371.6
276.018	387.42
276.39	380.64
276.761	380.64
277.133	405.5
277.504	407.76
277.875	373.86
278.247	400.98
278.618	434.88
278.989	405.5
279.361	385.16
279.732	455.21
280.103	452.95
280.474	468.77
280.846	423.58
281.217	464.25
281.588	405.5
281.959	330.92
282.33	319.62
282.701	385.16
283.072	471.03
283.443	355.78
283.814	443.91
284.185	448.43
284.556	364.82
284.927	371.6
285.297	380.64
285.668	441.66
286.039	443.91
286.41	387.42
286.781	482.33
287.151	398.72
287.522	376.12
287.893	480.07
288.263	421.32
288.634	403.24
289.004	459.73
289.375	428.1
289.745	353.52
290.116	403.24
290.486	419.06
290.857	398.72
291.227	432.62
291.598	455.21
291.968	434.88
292.338	493.63
292.709	455.21
293.079	459.73
293.449	437.14
293.819	364.82
294.189	400.98
294.56	475.55
294.93	441.66
295.3	432.62
295.67	385.16
296.04	387.42
296.41	437.14
296.78	430.36
297.15	428.1
297.52	387.42
297.89	489.11
298.259	466.51
298.629	412.28
298.999	464.25
299.369	450.69
299.739	423.58
300.108	450.69
300.478	482.33
300.848	423.58
301.217	423.58
301.587	480.07
301.957	466.51
302.326	511.71
302.696	475.55
303.065	443.91
303.435	428.1
303.804	471.03
304.174	394.2
304.543	425.84
304.912	464.25
305.282	480.07
305.651	437.14
306.02	425.84
306.39	459.73
306.759	498.15
307.128	448.43
307.497	511.71
307.866	498.15
308.235	428.1
308.604	477.81
308.974	407.76
309.343	500.41
309.712	416.8
310.08	430.36
310.449	446.17
310.818	448.43
311.187	450.69
311.556	495.89
311.925	529.79
312.294	461.99
312.662	477.81
313.031	513.97
313.4	509.45
313.769	457.47
314.137	520.75
314.506	461.99
314.874	511.71
315.243	498.15
315.612	432.62
315.98	538.83
316.349	545.61
316.717	477.81
317.085	516.23
317.454	525.27
317.822	450.69
318.191	500.41
318.559	457.47
318.927	629.22
319.295	525.27
319.664	529.79
320.032	486.85
320.4	459.73
320.768	554.65
321.136	484.59
321.504	466.51
321.872	529.79
322.24	486.85
322.608	538.83
322.976	443.91
323.344	520.75
323.712	574.98
324.08	495.89
324.448	550.13
324.816	464.25
325.183	570.47
325.551	523.01
325.919	516.23
326.287	482.33
326.654	536.57
327.022	529.79
327.389	403.24
327.757	525.27
328.125	599.84
328.492	475.55
328.86	502.67
329.227	500.41
329.594	595.32
329.962	534.31
330.329	550.13
330.697	534.31
331.064	527.53
331.431	541.09
331.798	513.97
332.166	516.23
332.533	593.06
332.9	570.47
333.267	523.01
333.634	590.8
334.001	574.98
334.368	523.01
334.735	545.61
335.102	586.28
335.469	532.05
335.836	586.28
336.203	593.06
336.57	518.49
336.937	656.34
337.304	518.49
337.67	590.8
338.037	640.52
338.404	624.7
338.771	633.74
339.137	649.56
339.504	599.84
339.87	543.35
340.237	543.35
340.604	615.66
340.97	554.65
341.337	597.58
341.703	584.02
342.069	606.62
342.436	622.44
342.802	565.95
343.169	631.48
343.535	538.83
343.901	579.5
344.267	624.7
344.634	563.69
345	667.64
345.366	626.96
345.732	669.9
346.098	624.7
346.464	672.16
346.83	656.34
347.196	672.16
347.562	697.02
347.928	692.5
348.294	742.21
348.66	649.56
349.026	636
349.392	683.46
349.757	658.6
350.123	697.02
350.489	624.7
350.855	706.05
351.22	728.65
351.586	608.88
351.951	699.28
352.317	712.83
352.683	706.05
353.048	669.9
353.414	678.94
353.779	728.65
354.144	706.05
354.51	791.93
354.875	730.91
355.24	733.17
355.606	683.46
355.971	710.57
356.336	712.83
356.701	810.01
357.067	773.85
357.432	823.57
357.797	719.61
358.162	697.02
358.527	746.73
358.892	726.39
359.257	837.12
359.622	778.37
359.987	871.02
360.352	884.58
360.717	789.67
361.082	758.03
361.446	821.31
361.811	866.5
362.176	832.61
362.541	904.92
362.905	886.84
363.27	832.61
363.635	956.9
363.999	902.66
364.364	945.6
364.728	886.84
365.093	918.48
365.457	968.19
365.822	920.74
366.186	945.6
366.55	891.36
366.915	984.01
367.279	929.78
367.643	981.75
368.008	995.31
368.372	1042.77
368.736	1026.95
369.1	1031.47
369.464	1126.38
369.828	1022.43
370.192	1121.86
370.556	1275.53
370.92	1223.56
371.284	1176.1
371.648	1275.53
372.012	1232.59
372.376	1241.63
372.74	1343.33
373.104	1413.38
373.468	1548.97
373.831	1413.38
374.195	1503.77
374.559	1465.36
374.922	1524.11
375.286	1467.62
375.65	1689.08
376.013	1698.12
376.377	1729.76
376.74	1885.68
377.104	1894.72
377.467	1953.48
377.83	2014.5
378.194	2220.14
378.557	2299.23
378.92	2367.03
379.284	2484.54
379.647	2712.78
380.01	2911.65
380.373	3040.46
380.736	3185.09
381.1	3605.41
381.463	3639.31
381.826	3991.84
382.189	4285.62
382.552	4468.67
382.915	5006.51
383.278	5175.99
383.64	5939.82
384.003	6152.24
384.366	6658.44
384.729	7471.98
385.092	8106.99
385.454	8649.35
385.817	9551.02
386.18	10506.93
386.542	11544.19
386.905	12832.29
387.268	14050.34
387.63	15478.55
387.993	16235.59
388.355	18023.11
388.718	19763.18
389.08	21607.2
389.442	23622.97
389.805	25898.61
390.167	27360.72
390.529	30551.6
390.892	34361.67
391.254	36411.33
391.616	38899.4
391.978	42813.42
392.34	46777.16
392.702	48745.47
393.064	52047.08
393.426	53997.31
393.788	56103.47
394.15	57391.57
394.512	59518.07
394.874	61038.93
395.236	63122.49
395.598	64869.34
395.96	65070.46
396.321	65070.46
396.683	65070.46
397.045	65070.46
397.406	65070.46
397.768	65070.46
398.13	65070.46
398.491	65070.46
398.853	65070.46
399.214	65070.46
399.576	65070.46
399.937	65070.46
400.299	65070.46
400.66	65070.46
401.021	65070.46
401.383	65070.46
401.744	65070.46
402.105	65070.46
402.466	65070.46
402.827	65070.46
403.189	65070.46
403.55	65070.46
403.911	65070.46
404.272	65070.46
404.633	65070.46
404.994	65070.46
405.355	65070.46
405.716	65070.46
406.077	65070.46
406.437	65070.46
406.798	65070.46
407.159	65070.46
407.52	65070.46
407.88	65070.46
408.241	65070.46
408.602	65070.46
408.962	65070.46
409.323	65070.46
409.684	65070.46
410.044	65070.46
410.405	65070.46
410.765	65070.46
411.125	65070.46
411.486	65070.46
411.846	65070.46
412.206	65070.46
412.567	65070.46
412.927	65070.46
413.287	65070.46
413.647	65070.46
414.007	65070.46
414.368	65070.46
414.728	65070.46
415.088	65070.46
415.448	65070.46
415.808	65070.46
416.168	65070.46
416.528	65070.46
416.887	65070.46
417.247	65070.46
417.607	65070.46
417.967	65070.46
418.327	65070.46
418.686	65070.46
419.046	65070.46
419.406	65070.46
419.765	65070.46
420.125	65070.46
420.484	65070.46
420.844	65070.46
421.203	65070.46
421.563	64833.18
421.922	64507.77
422.282	62754.14
422.641	61251.36
423	59974.55
423.36	58957.63
423.719	56794.98
424.078	55224.4
424.437	53310.32
424.796	51816.58
425.155	50438.08
425.515	47961.31
425.874	46725.18
426.233	42474.45
426.592	40402.19
426.95	39547.97
427.309	36748.05
427.668	35963.88
428.027	33475.81
428.386	32232.91
428.745	29548.23
429.103	27437.56
429.462	26682.77
429.821	24716.72
430.179	23661.38
430.538	22682.88
430.897	22215.09
431.255	20447.91
431.614	19460.36
431.972	18827.61
432.33	18409.54
432.689	17815.21
433.047	16350.84
433.405	15521.48
433.764	14985.91
434.122	14674.05
434.48	13704.58
434.838	13241.32
435.197	12425.52
435.555	12296.71
435.913	11510.29
436.271	11295.61
436.629	10710.31
436.987	10224.45
437.345	9713.73
437.703	9453.85
438.061	8825.62
438.418	8403.03
438.776	7994
439.134	7865.19
439.492	7291.19
439.849	6868.6
440.207	6778.21
440.565	6414.38
440.922	6183.88
441.28	5951.11
441.637	5862.98
441.995	5298.02
442.352	5237.01
442.71	5038.14
443.067	4787.3
443.425	4719.51
443.782	4468.67
444.139	4226.87
444.496	4116.13
444.854	3985.06
445.211	3808.8
445.568	3718.41
445.925	3585.08
446.282	3476.6
446.639	3392.99
446.996	3218.98
447.353	3386.21
447.71	3295.82
448.067	3280
448.424	2938.76
448.781	2830.29
449.137	2717.3
449.494	2685.66
449.851	2583.97
450.208	2532
450.564	2335.39
450.921	2260.82
451.278	2190.76
451.634	2351.21
451.991	2084.55
452.347	2152.34
452.704	2012.24
453.06	2012.24
453.416	1820.15
453.773	1813.37
454.129	1761.39
454.485	1677.78
454.841	1709.42
455.198	1546.71
455.554	1619.03
455.91	1567.05
456.266	1490.22
456.622	1499.25
456.978	1402.08
457.334	1352.37
457.69	1280.05
458.046	1275.53
458.402	1221.3
458.758	1139.94
459.114	1191.92
459.469	1144.46
459.825	1128.64
460.181	1137.68
460.536	1101.52
460.892	1058.59
461.248	1045.03
461.603	1011.13
461.959	1011.13
462.314	1099.26
462.67	984.01
463.025	993.05
463.38	923
463.736	909.44
464.091	943.34
464.446	956.9
464.802	918.48
465.157	936.56
465.512	877.8
465.867	850.68
466.222	871.02
466.577	819.05
466.932	857.46
467.287	814.53
467.642	830.35
467.997	832.61
468.352	796.45
468.707	810.01
469.062	837.12
469.417	789.67
469.771	758.03
470.126	726.39
470.481	737.69
470.835	739.95
471.19	710.57
471.544	694.76
471.899	708.31
472.253	692.5
472.608	658.6
472.962	656.34
473.317	717.35
473.671	692.5
474.025	658.6
474.38	663.12
474.734	681.2
475.088	636
475.442	636
475.796	665.38
476.15	633.74
476.504	697.02
476.858	579.5
477.212	640.52
477.566	617.92
477.92	529.79
478.274	606.62
478.628	645.04
478.982	608.88
479.336	543.35
479.689	581.76
480.043	552.39
480.397	642.78
480.75	611.14
481.104	595.32
481.457	547.87
481.811	554.65
482.164	611.14
482.518	577.24
482.871	633.74
483.225	536.57
483.578	584.02
483.931	543.35
484.284	545.61
484.638	597.58
484.991	568.21
485.344	597.58
485.697	593.06
486.05	602.1
486.403	588.54
486.756	520.75
487.109	509.45
487.462	556.91
487.815	532.05
488.168	534.31
488.52	536.57
488.873	541.09
489.226	527.53
489.579	536.57
489.931	525.27
490.284	452.95
490.637	518.49
490.989	534.31
491.342	516.23
491.694	543.35
492.047	552.39
492.399	550.13
492.751	513.97
493.104	471.03
493.456	471.03
493.808	525.27
494.16	457.47
494.513	543.35
494.865	491.37
495.217	538.83
495.569	536.57
495.921	484.59
496.273	511.71
496.625	516.23
496.977	428.1
497.329	516.23
497.68	525.27
498.032	471.03
498.384	455.21
498.736	455.21
499.087	507.19
499.439	482.33
499.791	489.11
500.142	480.07
500.494	464.25
500.845	559.17
501.197	452.95
501.548	511.71
501.9	455.21
502.251	443.91
502.602	437.14
502.954	443.91
503.305	484.59
503.656	513.97
504.007	450.69
504.358	457.47
504.709	452.95
505.061	484.59
505.412	509.45
505.763	414.54
506.113	466.51
506.464	484.59
506.815	461.99
507.166	389.68
507.517	410.02
507.868	475.55
508.218	489.11
508.569	523.01
508.92	452.95
509.27	552.39
509.621	439.4
509.971	414.54
510.322	437.14
510.672	504.93
511.023	450.69
511.373	457.47
511.723	466.51
512.074	457.47
512.424	477.81
512.774	441.66
513.124	414.54
513.475	489.11
513.825	446.17
514.175	489.11
514.525	468.77
514.875	500.41
515.225	525.27
515.575	421.32
515.924	523.01
516.274	423.58
516.624	452.95
516.974	572.73
517.324	493.63
517.673	529.79
518.023	480.07
518.373	461.99
518.722	504.93
519.072	457.47
519.421	529.79
519.771	502.67
520.12	480.07
520.469	532.05
520.819	473.29
521.168	480.07
521.517	545.61
521.867	554.65
522.216	498.15
522.565	502.67
522.914	498.15
523.263	534.31
523.612	464.25
523.961	500.41
524.31	464.25
524.659	529.79
525.008	511.71
525.357	504.93
525.705	455.21
526.054	513.97
526.403	489.11
526.752	480.07
527.1	484.59
527.449	529.79
527.797	407.76
528.146	471.03
528.495	502.67
528.843	473.29
529.191	495.89
529.54	493.63
529.888	464.25
530.236	511.71
530.585	491.37
530.933	525.27
531.281	500.41
531.629	482.33
531.977	565.95
532.325	471.03
532.673	471.03
533.021	477.81
533.369	541.09
533.717	495.89
534.065	471.03
534.413	450.69
534.761	538.83
535.108	509.45
535.456	520.75
535.804	613.4
536.151	500.41
536.499	480.07
536.847	434.88
537.194	495.89
537.542	428.1
537.889	468.77
538.236	473.29
538.584	491.37
538.931	448.43
539.278	364.82
539.626	441.66
539.973	466.51
540.32	385.16
540.667	391.94
541.014	461.99
541.361	475.55
541.708	432.62
542.055	380.64
542.402	459.73
542.749	464.25
543.096	493.63
543.443	450.69
543.789	416.8
544.136	423.58
544.483	468.77
544.83	448.43
545.176	441.66
545.523	477.81
545.869	403.24
546.216	434.88
546.562	434.88
546.909	450.69
547.255	461.99
547.601	471.03
547.948	473.29
548.294	430.36
548.64	430.36
548.986	450.69
549.332	416.8
549.678	434.88
550.025	434.88
550.371	412.28
550.717	477.81
551.062	450.69
551.408	466.51
551.754	371.6
552.1	437.14
552.446	448.43
552.792	541.09
553.137	349
553.483	423.58
553.828	443.91
554.174	423.58
554.52	425.84
554.865	385.16
555.211	419.06
555.556	412.28
555.901	385.16
556.247	398.72
556.592	430.36
556.937	414.54
557.282	434.88
557.628	367.08
557.973	407.76
558.318	430.36
558.663	466.51
559.008	400.98
559.353	380.64
559.698	428.1
560.043	376.12
560.388	419.06
560.732	511.71
561.077	434.88
561.422	398.72
561.766	387.42
562.111	362.56
562.456	448.43
562.8	491.37
563.145	367.08
563.489	398.72
563.834	455.21
564.178	389.68
564.523	389.68
564.867	421.32
565.211	410.02
565.555	459.73
565.9	410.02
566.244	380.64
566.588	371.6
566.932	437.14
567.276	337.7
567.62	364.82
567.964	457.47
568.308	432.62
568.652	434.88
568.996	421.32
569.339	394.2
569.683	432.62
570.027	391.94
570.371	464.25
570.714	362.56
571.058	423.58
571.401	414.54
571.745	396.46
572.088	344.48
572.432	333.18
572.775	394.2
573.118	441.66
573.462	461.99
573.805	419.06
574.148	410.02
574.491	428.1
574.835	398.72
575.178	414.54
575.521	432.62
575.864	353.52
576.207	416.8
576.55	459.73
576.892	387.42
577.235	362.56
577.578	423.58
577.921	407.76
578.264	362.56
578.606	342.22
578.949	452.95
579.292	407.76
579.634	391.94
579.977	416.8
580.319	502.67
580.662	443.91
581.004	423.58
581.346	376.12
581.689	391.94
582.031	407.76
582.373	389.68
582.715	432.62
583.057	391.94
583.4	407.76
583.742	419.06
584.084	378.38
584.426	437.14
584.768	391.94
585.109	410.02
585.451	355.78
585.793	450.69
586.135	410.02
586.477	385.16
586.818	349
587.16	371.6
587.502	391.94
587.843	416.8
588.185	376.12
588.526	396.46
588.868	301.55
589.209	369.34
589.55	349
589.892	346.74
590.233	290.25
590.574	358.04
590.915	315.1
591.257	373.86
591.598	344.48
591.939	394.2
592.28	351.26
592.621	330.92
592.962	380.64
593.303	367.08
593.643	367.08
593.984	344.48
594.325	337.7
594.666	324.14
595.006	371.6
595.347	342.22
595.688	378.38
596.028	317.36
596.369	396.46
596.709	371.6
597.05	355.78
597.39	315.1
597.73	344.48
598.071	412.28
598.411	382.9
598.751	394.2
599.091	394.2
599.431	405.5
599.772	407.76
600.112	308.33
600.452	419.06
600.792	367.08
601.132	416.8
601.471	382.9
601.811	428.1
602.151	349
602.491	310.59
602.831	317.36
603.17	321.88
603.51	398.72
603.849	351.26
604.189	360.3
604.528	389.68
604.868	312.84
605.207	378.38
605.547	339.96
605.886	335.44
606.225	380.64
606.565	335.44
606.904	290.25
607.243	391.94
607.582	317.36
607.921	294.77
608.26	344.48
608.599	391.94
608.938	337.7
609.277	414.54
609.616	317.36
609.955	364.82
610.293	299.29
610.632	324.14
610.971	337.7
611.309	358.04
611.648	339.96
611.987	317.36
612.325	337.7
612.664	371.6
613.002	328.66
613.34	292.51
613.679	319.62
614.017	346.74
614.355	358.04
614.694	249.57
615.032	317.36
615.37	353.52
615.708	371.6
616.046	367.08
616.384	315.1
616.722	292.51
617.06	362.56
617.398	328.66
617.736	337.7
618.073	321.88
618.411	369.34
618.749	315.1
619.086	281.21
619.424	337.7
619.762	346.74
620.099	258.61
620.437	319.62
620.774	294.77
621.112	328.66
621.449	290.25
621.786	308.33
622.123	287.99
622.461	382.9
622.798	303.81
623.135	238.27
623.472	326.4
623.809	292.51
624.146	326.4
624.483	342.22
624.82	326.4
625.157	283.47
625.494	265.39
625.83	333.18
626.167	349
626.504	281.21
626.841	324.14
627.177	326.4
627.514	294.77
627.85	263.13
628.187	272.17
628.523	355.78
628.86	342.22
629.196	344.48
629.532	335.44
629.869	274.43
630.205	373.86
630.541	272.17
630.877	403.24
631.213	380.64
631.549	317.36
631.885	337.7
632.221	344.48
632.557	272.17
632.893	292.51
633.229	254.09
633.564	335.44
633.9	317.36
634.236	308.33
634.572	333.18
634.907	294.77
635.243	349
635.578	258.61
635.914	315.1
636.249	326.4
636.585	328.66
636.92	360.3
637.255	236.01
637.59	335.44
637.926	308.33
638.261	335.44
638.596	319.62
638.931	319.62
639.266	301.55
639.601	269.91
639.936	337.7
640.271	292.51
640.606	312.84
640.94	249.57
641.275	299.29
641.61	321.88
641.945	333.18
642.279	297.03
642.614	287.99
642.948	321.88
643.283	358.04
643.617	344.48
643.952	276.69
644.286	317.36
644.62	249.57
644.955	299.29
645.289	292.51
645.623	292.51
645.957	281.21
646.291	355.78
646.625	297.03
646.959	306.07
647.293	321.88
647.627	260.87
647.961	358.04
648.295	297.03
648.629	342.22
648.962	269.91
649.296	333.18
649.63	294.77
649.963	342.22
650.297	317.36
650.63	362.56
650.964	319.62
651.297	278.95
651.631	285.73
651.964	344.48
652.297	333.18
652.631	349
652.964	297.03
653.297	276.69
653.63	285.73
653.963	224.71
654.296	220.19
654.629	335.44
654.962	247.31
655.295	242.79
655.628	315.1
655.961	333.18
656.293	292.51
656.626	333.18
656.959	326.4
657.291	269.91
657.624	319.62
657.956	238.27
658.289	281.21
658.621	339.96
658.954	299.29
659.286	287.99
659.618	321.88
659.95	312.84
660.283	278.95
660.615	220.19
660.947	306.07
661.279	321.88
661.611	333.18
661.943	398.72
662.275	269.91
662.607	349
662.939	310.59
663.27	306.07
663.602	310.59
663.934	213.41
664.266	283.47
664.597	321.88
664.929	306.07
665.26	317.36
665.592	292.51
665.923	283.47
666.255	287.99
666.586	326.4
666.917	380.64
667.248	337.7
667.58	272.17
667.911	303.81
668.242	222.45
668.573	276.69
668.904	267.65
669.235	251.83
669.566	353.52
669.897	299.29
670.228	283.47
670.558	272.17
670.889	256.35
671.22	269.91
671.551	330.92
671.881	285.73
672.212	272.17
672.542	315.1
672.873	274.43
673.203	283.47
673.533	251.83
673.864	247.31
674.194	321.88
674.524	236.01
674.855	333.18
675.185	303.81
675.515	290.25
675.845	247.31
676.175	301.55
676.505	333.18
676.835	272.17
677.165	211.15
677.494	276.69
677.824	321.88
678.154	269.91
678.484	236.01
678.813	319.62
679.143	265.39
679.472	283.47
679.802	303.81
680.131	276.69
680.461	226.97
680.79	208.89
681.119	199.85
681.449	312.84
681.778	310.59
682.107	254.09
682.436	265.39
682.765	263.13
683.094	229.23
683.423	220.19
683.752	306.07
684.081	290.25
684.41	258.61
684.739	269.91
685.067	199.85
685.396	287.99
685.725	321.88
686.053	333.18
686.382	274.43
686.711	263.13
687.039	308.33
687.367	299.29
687.696	211.15
688.024	256.35
688.352	297.03
688.681	283.47
689.009	229.23
689.337	269.91
689.665	274.43
689.993	193.07
690.321	224.71
690.649	281.21
690.977	283.47
691.305	278.95
691.633	290.25
691.961	292.51
692.288	263.13
692.616	267.65
692.944	236.01
693.271	226.97
693.599	324.14
693.926	290.25
694.254	247.31
694.581	290.25
694.908	272.17
695.236	260.87
695.563	281.21
695.89	285.73
696.217	267.65
696.544	303.81
696.871	315.1
697.198	274.43
697.525	278.95
697.852	256.35
698.179	328.66
698.506	242.79
698.833	349
699.16	247.31
699.486	330.92
699.813	213.41
700.139	276.69
700.466	240.53
700.793	285.73
701.119	294.77
701.445	251.83
701.772	290.25
702.098	256.35
702.424	249.57
702.75	251.83
703.077	281.21
703.403	269.91
703.729	256.35
704.055	195.33
704.381	349
704.707	299.29
705.033	274.43
705.358	263.13
705.684	299.29
706.01	294.77
706.336	267.65
706.661	251.83
706.987	281.21
707.312	283.47
707.638	355.78
707.963	303.81
708.289	285.73
708.614	233.75
708.939	269.91
709.265	242.79
709.59	269.91
709.915	294.77
710.24	287.99
710.565	308.33
710.89	281.21
711.215	217.93
711.54	265.39
711.865	312.84
712.19	263.13
712.515	267.65
712.839	342.22
713.164	299.29
713.489	258.61
713.813	213.41
714.138	224.71
714.462	319.62
714.787	287.99
715.111	303.81
715.435	224.71
715.76	272.17
716.084	231.49
716.408	303.81
716.732	317.36
717.056	267.65
717.381	256.35
717.705	263.13
718.028	265.39
718.352	269.91
718.676	263.13
719	306.07
719.324	328.66
719.648	283.47
719.971	247.31
720.295	238.27
720.618	319.62
720.942	297.03
721.265	272.17
721.589	247.31
721.912	269.91
722.236	245.05
722.559	229.23
722.882	236.01
723.205	226.97
723.528	283.47
723.851	269.91
724.174	267.65
724.497	287.99
724.82	301.55
725.143	276.69
725.466	229.23
725.789	303.81
726.112	294.77
726.434	245.05
726.757	269.91
727.08	362.56
727.402	274.43
727.725	299.29
728.047	254.09
728.37	254.09
728.692	308.33
729.014	351.26
729.336	249.57
729.659	272.17
729.981	238.27
730.303	179.52
730.625	258.61
730.947	317.36
731.269	258.61
731.591	285.73
731.913	220.19
732.235	269.91
732.556	283.47
732.878	217.93
733.2	274.43
733.521	281.21
733.843	249.57
734.164	238.27
734.486	245.05
734.807	238.27
735.129	310.59
735.45	297.03
735.771	276.69
736.092	258.61
736.414	315.1
736.735	292.51
737.056	283.47
737.377	211.15
737.698	222.45
738.019	297.03
738.34	260.87
738.66	292.51
738.981	290.25
739.302	247.31
739.623	278.95
739.943	326.4
740.264	226.97
740.584	254.09
740.905	256.35
741.225	258.61
741.546	238.27
741.866	260.87
742.186	287.99
742.507	312.84
742.827	387.42
743.147	229.23
743.467	260.87
743.787	278.95
744.107	303.81
744.427	231.49
744.747	297.03
745.067	358.04
745.386	306.07
745.706	258.61
746.026	199.85
746.346	335.44
746.665	256.35
746.985	233.75
747.304	301.55
747.624	333.18
747.943	297.03
748.262	276.69
748.582	256.35
748.901	249.57
749.22	267.65
749.539	272.17
749.858	276.69
750.177	256.35
750.496	263.13
750.815	317.36
751.134	319.62
751.453	303.81
751.772	290.25
752.09	297.03
752.409	278.95
752.728	195.33
753.046	285.73
753.365	272.17
753.683	294.77
754.002	269.91
754.32	292.51
754.639	274.43
754.957	276.69
755.275	310.59
755.593	254.09
755.911	312.84
756.23	251.83
756.548	299.29
756.866	245.05
757.183	292.51
757.501	283.47
757.819	211.15
758.137	308.33
758.455	236.01
758.772	247.31
759.09	245.05
759.408	297.03
759.725	303.81
760.043	251.83
760.36	206.63
760.677	299.29
760.995	260.87
761.312	278.95
761.629	236.01
761.946	245.05
762.264	260.87
762.581	245.05
762.898	220.19
763.215	287.99
763.532	292.51
763.848	233.75
764.165	330.92
764.482	260.87
764.799	240.53
765.115	258.61
765.432	263.13
765.749	276.69
766.065	306.07
766.382	263.13
766.698	242.79
767.014	256.35
767.331	260.87
767.647	254.09
767.963	263.13
768.279	265.39
768.595	306.07
768.911	240.53
769.227	274.43
769.543	299.29
769.859	240.53
770.175	312.84
770.491	220.19
770.807	222.45
771.122	208.89
771.438	308.33
771.754	256.35
772.069	287.99
772.385	315.1
772.7	236.01
773.016	272.17
773.331	287.99
773.646	287.99
773.961	272.17
774.277	267.65
774.592	283.47
774.907	283.47
775.222	265.39
775.537	281.21
775.852	251.83
776.167	245.05
776.482	335.44
776.796	326.4
777.111	245.05
777.426	308.33
777.74	315.1
778.055	222.45
778.369	267.65
778.684	278.95
778.998	247.31
779.313	206.63
779.627	247.31
779.941	274.43
780.255	224.71
780.57	283.47
780.884	242.79
781.198	260.87
781.512	256.35
781.826	294.77
782.14	236.01
782.453	251.83
782.767	236.01
783.081	303.81
783.395	337.7
783.708	204.37
784.022	272.17
784.335	267.65
784.649	254.09
784.962	281.21
785.276	315.1
785.589	290.25
785.902	263.13
786.216	240.53
786.529	278.95
786.842	222.45
787.155	297.03
787.468	267.65
787.781	224.71
788.094	278.95
788.407	294.77
788.72	267.65
789.032	263.13
789.345	292.51
789.658	247.31
789.97	272.17
790.283	317.36
790.595	267.65
790.908	290.25
791.22	303.81
791.532	224.71
791.845	269.91
792.157	326.4
792.469	297.03
792.781	278.95
793.093	220.19
793.405	294.77
793.717	321.88
794.029	240.53
794.341	254.09
794.653	335.44
794.965	281.21
795.276	233.75
795.588	265.39
795.9	299.29
796.211	238.27
796.523	283.47
796.834	260.87
797.146	306.07
797.457	297.03
797.768	299.29
798.08	278.95
798.391	317.36
798.702	299.29
799.013	242.79
799.324	294.77
799.635	360.3
799.946	254.09
800.257	321.88
800.568	308.33
800.878	267.65
801.189	206.63
801.5	256.35
801.81	247.31
802.121	276.69
802.431	287.99
802.742	335.44
803.052	272.17
803.363	233.75
803.673	258.61
803.983	265.39
804.293	265.39
804.603	301.55
804.913	202.11
805.224	226.97
805.533	349
805.843	254.09
806.153	297.03
806.463	267.65
806.773	258.61
807.083	229.23
807.392	254.09
807.702	256.35
808.011	258.61
808.321	231.49
808.63	217.93
808.94	294.77
809.249	263.13
809.558	254.09
809.868	281.21
810.177	330.92
810.486	321.88
810.795	274.43
811.104	213.41
811.413	299.29
811.722	251.83
812.031	299.29
812.339	254.09
812.648	217.93
812.957	297.03
813.266	276.69
813.574	236.01
813.883	245.05
814.191	229.23
814.5	276.69
814.808	285.73
815.116	303.81
815.424	290.25
815.733	292.51
816.041	263.13
816.349	306.07
816.657	310.59
816.965	242.79
817.273	188.55
817.581	292.51
817.889	287.99
818.196	274.43
818.504	292.51
818.812	285.73
819.12	245.05
819.427	265.39
819.735	297.03
820.042	249.57
820.349	317.36
820.657	236.01
820.964	263.13
821.271	177.26
821.579	272.17
821.886	265.39
822.193	283.47
822.5	310.59
822.807	256.35
823.114	297.03
823.421	242.79
823.727	297.03
824.034	278.95
824.341	265.39
824.648	297.03
824.954	258.61
825.261	358.04
825.567	247.31
825.874	297.03
826.18	312.84
826.486	260.87
826.793	263.13
827.099	281.21
827.405	287.99
827.711	272.17
828.017	306.07
828.323	272.17
828.629	276.69
828.935	217.93
829.241	324.14
829.547	308.33
829.852	303.81
830.158	222.45
830.464	236.01
830.769	292.51
831.075	287.99
831.38	251.83
831.686	265.39
831.991	287.99
832.296	301.55
832.601	245.05
832.907	294.77
833.212	276.69
833.517	287.99
833.822	297.03
834.127	233.75
834.432	238.27
834.737	274.43
835.041	263.13
835.346	274.43
835.651	256.35
835.956	211.15
836.26	324.14
836.565	299.29
836.869	306.07
837.174	226.97
837.478	297.03
837.782	301.55
838.087	321.88
838.391	220.19
838.695	276.69
838.999	285.73
839.303	281.21
839.607	206.63
839.911	333.18
840.215	276.69
840.519	231.49
840.822	294.77
841.126	260.87
841.43	299.29
841.733	335.44
842.037	240.53
842.34	258.61
842.644	294.77
842.947	233.75
843.251	306.07
843.554	247.31
843.857	276.69
844.16	287.99
844.463	301.55
844.766	233.75
845.069	310.59
845.372	263.13
845.675	249.57
845.978	254.09
846.281	247.31
846.583	269.91
846.886	321.88
847.189	310.59
847.491	267.65
847.794	337.7
848.096	245.05
848.399	292.51
848.701	315.1
849.003	276.69
849.305	290.25
849.608	326.4
849.91	351.26
850.212	299.29
850.514	217.93
850.816	245.05
851.118	260.87
851.419	224.71
851.721	292.51
852.023	283.47
852.325	317.36
852.626	287.99
852.928	283.47
853.229	303.81
853.531	184.03
853.832	272.17
854.133	247.31
854.435	333.18
854.736	292.51
855.037	299.29
855.338	278.95
855.639	263.13
855.94	292.51
856.241	263.13
856.542	294.77
856.843	290.25
857.144	292.51
857.444	290.25
857.745	287.99
858.046	249.57
858.346	297.03
858.647	346.74
858.947	317.36
859.247	276.69
859.548	220.19
859.848	247.31
860.148	220.19
860.448	213.41
860.749	267.65
861.049	260.87
861.349	263.13
861.648	290.25
861.948	287.99
862.248	150.14
862.548	274.43
862.848	254.09
863.147	319.62
863.447	249.57
863.746	287.99
864.046	281.21
864.345	312.84
864.645	276.69
864.944	297.03
865.243	283.47
865.542	290.25
865.842	254.09
866.141	215.67
866.44	263.13
866.739	319.62
867.038	231.49
867.337	222.45
867.635	317.36
867.934	202.11
868.233	287.99
868.531	267.65
868.83	301.55
869.129	310.59
869.427	326.4
869.725	206.63
870.024	263.13
870.322	263.13
870.62	272.17
870.918	285.73
871.217	195.33
871.515	245.05
871.813	258.61
872.111	226.97
872.409	308.33
872.706	292.51
873.004	335.44
873.302	285.73
873.6	233.75
873.897	254.09
874.195	242.79
874.492	199.85
874.79	251.83
875.087	276.69
875.384	301.55
875.682	315.1
875.979	299.29
876.276	317.36
876.573	303.81
876.87	303.81
877.167	303.81
