Data from PL_2polymer_F8BT_MEHPPV_USB2H096331_0850.txt Node
Date: Tue Dec 15 16:12:28 CET 2020
User: spadmin
Spectrometer: USB2+H09633
Trigger mode: 0
Integration Time (sec): 1.000000E-2
Scans to average: 1
Electric dark correction enabled: true
Nonlinearity correction enabled: false
Boxcar width: 0
XAxis mode: Wavelengths
Number of Pixels in Spectrum: 2048
>>>>>Begin Spectral Data<<<<<
174.027	-39.26
174.405	-39.26
174.783	-39.26
175.162	-192.93
175.54	-129.66
175.918	-79.94
176.296	-161.3
176.674	-152.26
177.052	-93.5
177.43	-84.46
177.808	-27.97
178.186	-39.26
178.564	1.41
178.942	-5.37
179.32	24.01
179.698	-3.11
180.076	51.13
180.453	39.83
180.831	78.25
181.209	48.87
181.587	125.7
181.965	198.02
182.342	107.62
182.72	121.18
183.098	238.69
183.475	220.62
183.853	202.54
184.231	245.47
184.608	297.45
184.986	286.15
185.363	256.77
185.741	311.01
186.118	283.89
186.496	292.93
186.873	329.09
187.251	335.87
187.628	304.23
188.006	292.93
188.383	351.69
188.76	333.61
189.138	256.77
189.515	351.69
189.892	351.69
190.27	304.23
190.647	283.89
191.024	304.23
191.401	315.53
191.778	320.05
192.155	308.75
192.533	279.37
192.91	340.39
193.287	340.39
193.664	326.83
194.041	324.57
194.418	360.72
194.795	331.35
195.172	290.67
195.549	290.67
195.926	329.09
196.302	306.49
196.679	326.83
197.056	288.41
197.433	277.11
197.81	306.49
198.187	281.63
198.563	322.31
198.94	290.67
199.317	349.43
199.693	256.77
200.07	301.97
200.447	313.27
200.823	326.83
201.2	252.25
201.576	279.37
201.953	286.15
202.329	290.67
202.706	306.49
203.082	306.49
203.459	304.23
203.835	315.53
204.212	270.33
204.588	290.67
204.964	299.71
205.341	315.53
205.717	288.41
206.093	301.97
206.469	333.61
206.846	349.43
207.222	360.72
207.598	324.57
207.974	295.19
208.35	290.67
208.726	315.53
209.102	372.02
209.479	322.31
209.855	322.31
210.231	292.93
210.607	281.63
210.982	301.97
211.358	338.13
211.734	272.59
212.11	301.97
212.486	277.11
212.862	338.13
213.238	333.61
213.614	288.41
213.989	362.98
214.365	301.97
214.741	304.23
215.116	342.65
215.492	326.83
215.868	360.72
216.243	229.65
216.619	263.55
216.995	320.05
217.37	360.72
217.746	351.69
218.121	396.88
218.497	342.65
218.872	270.33
219.247	315.53
219.623	252.25
219.998	297.45
220.374	365.24
220.749	419.48
221.124	317.79
221.499	313.27
221.875	297.45
222.25	360.72
222.625	338.13
223	308.75
223.376	281.63
223.751	301.97
224.126	236.43
224.501	356.21
224.876	311.01
225.251	306.49
225.626	306.49
226.001	342.65
226.376	281.63
226.751	329.09
227.126	340.39
227.501	279.37
227.875	356.21
228.25	331.35
228.625	338.13
229	353.95
229.375	281.63
229.749	297.45
230.124	390.1
230.499	265.81
230.873	365.24
231.248	306.49
231.623	270.33
231.997	378.8
232.372	351.69
232.746	338.13
233.121	347.17
233.495	365.24
233.87	335.87
234.244	396.88
234.619	347.17
234.993	367.5
235.367	324.57
235.742	286.15
236.116	311.01
236.49	353.95
236.865	367.5
237.239	338.13
237.613	362.98
237.987	390.1
238.361	358.47
238.736	367.5
239.11	329.09
239.484	347.17
239.858	353.95
240.232	340.39
240.606	283.89
240.98	342.65
241.354	301.97
241.728	351.69
242.102	290.67
242.475	383.32
242.849	342.65
243.223	347.17
243.597	290.67
243.971	349.43
244.344	394.62
244.718	367.5
245.092	392.36
245.466	358.47
245.839	367.5
246.213	333.61
246.586	306.49
246.96	344.91
247.334	353.95
247.707	322.31
248.081	372.02
248.454	333.61
248.828	405.92
249.201	344.91
249.574	349.43
249.948	396.88
250.321	428.52
250.694	274.85
251.068	308.75
251.441	353.95
251.814	369.76
252.187	374.28
252.561	374.28
252.934	442.08
253.307	288.41
253.68	367.5
254.053	405.92
254.426	376.54
254.799	396.88
255.172	394.62
255.545	367.5
255.918	367.5
256.291	367.5
256.664	333.61
257.037	353.95
257.41	421.74
257.782	392.36
258.155	342.65
258.528	414.96
258.901	385.58
259.273	331.35
259.646	315.53
260.019	358.47
260.391	360.72
260.764	372.02
261.137	405.92
261.509	356.21
261.882	320.05
262.254	338.13
262.627	311.01
262.999	369.76
263.372	381.06
263.744	326.83
264.116	295.19
264.489	419.48
264.861	333.61
265.233	326.83
265.606	311.01
265.978	374.28
266.35	392.36
266.722	342.65
267.094	342.65
267.467	394.62
267.839	329.09
268.211	349.43
268.583	374.28
268.955	322.31
269.327	362.98
269.699	401.4
270.071	338.13
270.443	430.78
270.815	360.72
271.186	414.96
271.558	396.88
271.93	326.83
272.302	410.44
272.674	417.22
273.045	349.43
273.417	387.84
273.789	419.48
274.16	362.98
274.532	387.84
274.904	383.32
275.275	442.08
275.647	419.48
276.018	369.76
276.39	360.72
276.761	381.06
277.133	387.84
277.504	412.7
277.875	392.36
278.247	344.91
278.618	347.17
278.989	387.84
279.361	394.62
279.732	417.22
280.103	383.32
280.474	385.58
280.846	387.84
281.217	412.7
281.588	446.6
281.959	385.58
282.33	410.44
282.701	408.18
283.072	392.36
283.443	399.14
283.814	394.62
284.185	460.16
284.556	414.96
284.927	390.1
285.297	462.42
285.668	358.47
286.039	430.78
286.41	460.16
286.781	376.54
287.151	421.74
287.522	347.17
287.893	369.76
288.263	326.83
288.634	347.17
289.004	396.88
289.375	405.92
289.745	428.52
290.116	356.21
290.486	358.47
290.857	396.88
291.227	433.04
291.598	390.1
291.968	394.62
292.338	509.87
292.709	453.38
293.079	444.34
293.449	408.18
293.819	466.94
294.189	424
294.56	442.08
294.93	414.96
295.3	469.2
295.67	448.86
296.04	419.48
296.41	369.76
296.78	344.91
297.15	433.04
297.52	473.72
297.89	466.94
298.259	424
298.629	442.08
298.999	365.24
299.369	437.56
299.739	475.98
300.108	435.3
300.478	421.74
300.848	448.86
301.217	417.22
301.587	358.47
301.957	424
302.326	435.3
302.696	457.9
303.065	392.36
303.435	439.82
303.804	442.08
304.174	466.94
304.543	444.34
304.912	489.54
305.282	437.56
305.651	417.22
306.02	433.04
306.39	480.5
306.759	410.44
307.128	426.26
307.497	399.14
307.866	453.38
308.235	491.79
308.604	491.79
308.974	412.7
309.343	448.86
309.712	514.39
310.08	446.6
310.449	500.83
310.818	491.79
311.187	457.9
311.556	414.96
311.925	392.36
312.294	453.38
312.662	451.12
313.031	417.22
313.4	453.38
313.769	469.2
314.137	417.22
314.506	426.26
314.874	503.09
315.243	518.91
315.612	505.35
315.98	462.42
316.349	505.35
316.717	500.83
317.085	527.95
317.454	469.2
317.822	478.24
318.191	539.25
318.559	512.13
318.927	439.82
319.295	462.42
319.664	430.78
320.032	464.68
320.4	507.61
320.768	509.87
321.136	444.34
321.504	521.17
321.872	507.61
322.24	433.04
322.608	482.76
322.976	451.12
323.344	464.68
323.712	444.34
324.08	435.3
324.448	518.91
324.816	494.05
325.183	503.09
325.551	516.65
325.919	457.9
326.287	473.72
326.654	453.38
327.022	498.57
327.389	561.85
327.757	475.98
328.125	464.68
328.492	512.13
328.86	530.21
329.227	559.59
329.594	498.57
329.962	480.5
330.329	478.24
330.697	457.9
331.064	471.46
331.431	577.67
331.798	546.03
332.166	507.61
332.533	595.75
332.9	532.47
333.267	616.09
333.634	593.49
334.001	518.91
334.368	534.73
334.735	568.63
335.102	514.39
335.469	521.17
335.836	500.83
336.203	586.71
336.57	584.45
336.937	609.31
337.304	541.51
337.67	600.27
338.037	659.02
338.404	579.93
338.771	586.71
339.137	598.01
339.504	652.24
339.87	598.01
340.237	566.37
340.604	548.29
340.97	577.67
341.337	561.85
341.703	582.19
342.069	629.64
342.436	631.9
342.802	564.11
343.169	561.85
343.535	600.27
343.901	595.75
344.267	645.46
344.634	561.85
345	564.11
345.366	602.53
345.732	659.02
346.098	557.33
346.464	514.39
346.83	640.94
347.196	584.45
347.562	686.14
347.928	636.42
348.294	634.16
348.66	652.24
349.026	652.24
349.392	656.76
349.757	697.44
350.123	692.92
350.489	677.1
350.855	683.88
351.22	627.38
351.586	677.1
351.951	704.22
352.317	688.4
352.683	701.96
353.048	747.16
353.414	701.96
353.779	731.34
354.144	731.34
354.51	767.49
354.875	668.06
355.24	649.98
355.606	647.72
355.971	708.74
356.336	720.04
356.701	726.82
357.067	753.93
357.432	790.09
357.797	762.97
358.162	699.7
358.527	722.3
358.892	833.03
359.257	765.23
359.622	711
359.987	808.17
360.352	817.21
360.717	835.29
361.082	776.53
361.446	742.64
361.811	885
362.176	828.51
362.541	796.87
362.905	853.37
363.27	896.3
363.635	912.12
363.999	875.97
364.364	896.3
364.728	916.64
365.093	932.46
365.457	979.92
365.822	839.81
366.186	932.46
366.55	936.98
366.915	975.4
367.279	1022.85
367.643	1040.93
368.008	970.88
368.372	918.9
368.736	1031.89
369.1	941.5
369.464	1153.92
369.828	1009.3
370.192	1043.19
370.556	1090.65
370.92	1117.77
371.284	1158.44
371.648	1101.95
372.012	1230.76
372.376	1233.02
372.74	1382.17
373.104	1359.57
373.468	1400.25
373.831	1400.25
374.195	1418.32
374.559	1506.46
374.922	1531.32
375.286	1526.8
375.65	1603.63
376.013	1671.42
376.377	1664.65
376.74	1874.81
377.104	1829.61
377.467	2019.44
377.83	1974.24
378.194	2046.56
378.557	2204.74
378.92	2353.89
379.284	2496.26
379.647	2634.11
380.01	2735.8
380.373	2977.61
380.736	3167.43
381.1	3395.67
381.463	3522.22
381.826	3892.84
382.189	4222.77
382.552	4478.13
382.915	4812.59
383.278	5162.86
383.64	5827.25
384.003	6421.58
384.366	6828.35
384.729	7400.09
385.092	7777.48
385.454	8423.79
385.817	9424.89
386.18	10364.98
386.542	11483.6
386.905	12491.48
387.268	13903.87
387.63	15108.36
387.993	16202.12
388.355	17998.68
388.718	19591.86
389.08	21340.96
389.442	23510.4
389.805	25480.97
390.167	27390.52
390.529	30156.55
390.892	33715.78
391.254	35819.68
391.616	38423
391.978	42547.19
392.34	46712.05
392.702	48052.13
393.064	51624.91
393.426	53364.98
393.788	55911.81
394.15	57220.25
394.512	59019.07
394.874	60650.67
395.236	62673.21
395.598	64503.67
395.96	65059.59
396.321	65059.59
396.683	65059.59
397.045	65059.59
397.406	65059.59
397.768	65059.59
398.13	65059.59
398.491	65059.59
398.853	65059.59
399.214	65059.59
399.576	65059.59
399.937	65059.59
400.299	65059.59
400.66	65059.59
401.021	65059.59
401.383	65059.59
401.744	65059.59
402.105	65059.59
402.466	65059.59
402.827	65059.59
403.189	65059.59
403.55	65059.59
403.911	65059.59
404.272	65059.59
404.633	65059.59
404.994	65059.59
405.355	65059.59
405.716	65059.59
406.077	65059.59
406.437	65059.59
406.798	65059.59
407.159	65059.59
407.52	65059.59
407.88	65059.59
408.241	65059.59
408.602	65059.59
408.962	65059.59
409.323	65059.59
409.684	65059.59
410.044	65059.59
410.405	65059.59
410.765	65059.59
411.125	65059.59
411.486	65059.59
411.846	65059.59
412.206	65059.59
412.567	65059.59
412.927	65059.59
413.287	65059.59
413.647	65059.59
414.007	65059.59
414.368	65059.59
414.728	65059.59
415.088	65059.59
415.448	65059.59
415.808	65059.59
416.168	65059.59
416.528	65059.59
416.887	65059.59
417.247	65059.59
417.607	65059.59
417.967	65059.59
418.327	65059.59
418.686	65059.59
419.046	65059.59
419.406	65059.59
419.765	65059.59
420.125	65059.59
420.484	65059.59
420.844	65059.59
421.203	65059.59
421.563	64442.66
421.922	64124.02
422.282	62571.52
422.641	61197.54
423	59823.57
423.36	58775.01
423.719	56935.51
424.078	54402.24
424.437	52960.47
424.796	51184.25
425.155	50169.58
425.515	47267.97
425.874	46325.62
426.233	42153.98
426.592	40018.44
426.95	38764.23
427.309	36481.81
427.668	35593.7
428.027	32750.83
428.386	31964.41
428.745	29304.6
429.103	27363.4
429.462	26023.33
429.821	24305.86
430.179	23266.34
430.538	22540.93
430.897	21673.16
431.255	20744.37
431.614	19580.56
431.972	18663.07
432.33	17612.25
432.689	17424.68
433.047	16534.31
433.405	15424.74
433.764	14891.42
434.122	14360.36
434.48	13908.39
434.838	13070
435.197	12486.96
435.555	12157.02
435.913	11397.72
436.271	10945.76
436.629	10590.96
436.987	9913.02
437.345	9307.38
437.703	9332.24
438.061	8810.22
438.418	8426.05
438.776	7931.15
439.134	7745.84
439.492	7327.77
439.849	7083.71
440.207	6681.46
440.565	6344.75
440.922	6145.88
441.28	5700.7
441.637	5750.41
441.995	5393.36
442.352	5106.36
442.71	4862.3
443.067	4767.39
443.425	4579.82
443.782	4319.94
444.139	4367.4
444.496	4060.06
444.854	3919.95
445.211	3770.8
445.568	3689.45
445.925	3452.17
446.282	3364.04
446.639	3307.54
446.996	3228.45
447.353	3404.71
447.71	3262.34
448.067	3232.97
448.424	2941.45
448.781	2744.84
449.137	2724.5
449.494	2597.95
449.851	2527.9
450.208	2444.29
450.564	2320
450.921	2292.88
451.278	2112.09
451.634	2256.72
451.991	2139.21
452.347	2161.81
452.704	1969.72
453.06	1951.64
453.416	1831.87
453.773	1755.04
454.129	1784.42
454.485	1714.36
454.841	1651.09
455.198	1599.11
455.554	1553.91
455.91	1562.95
456.266	1508.72
456.622	1449.96
456.978	1431.88
457.334	1294.03
457.69	1257.88
458.046	1336.97
458.402	1214.94
458.758	1162.96
459.114	1156.18
459.469	1110.99
459.825	1086.13
460.181	1070.31
460.536	1077.09
460.892	1040.93
461.248	1031.89
461.603	1027.37
461.959	925.68
462.314	939.24
462.67	943.76
463.025	889.52
463.38	936.98
463.736	907.6
464.091	896.3
464.446	835.29
464.802	837.55
465.157	894.04
465.512	955.06
465.867	833.03
466.222	810.43
466.577	889.52
466.932	846.59
467.287	724.56
467.642	778.79
467.997	830.77
468.352	767.49
468.707	819.47
469.062	756.19
469.417	821.73
469.771	790.09
470.126	724.56
470.481	697.44
470.835	636.42
471.19	634.16
471.544	634.16
471.899	699.7
472.253	609.31
472.608	634.16
472.962	627.38
473.317	747.16
473.671	681.62
474.025	665.8
474.38	695.18
474.734	699.7
475.088	674.84
475.442	631.9
475.796	708.74
476.15	706.48
476.504	647.72
476.858	665.8
477.212	640.94
477.566	659.02
477.92	611.57
478.274	654.5
478.628	595.75
478.982	602.53
479.336	593.49
479.689	598.01
480.043	546.03
480.397	561.85
480.75	584.45
481.104	518.91
481.457	500.83
481.811	570.89
482.164	550.55
482.518	543.77
482.871	523.43
483.225	575.41
483.578	564.11
483.931	609.31
484.284	536.99
484.638	616.09
484.991	530.21
485.344	505.35
485.697	631.9
486.05	525.69
486.403	552.81
486.756	489.54
487.109	564.11
487.462	579.93
487.815	509.87
488.168	525.69
488.52	514.39
488.873	573.15
489.226	552.81
489.579	523.43
489.931	494.05
490.284	475.98
490.637	446.6
490.989	559.59
491.342	460.16
491.694	514.39
492.047	489.54
492.399	471.46
492.751	514.39
493.104	453.38
493.456	507.61
493.808	525.69
494.16	505.35
494.513	503.09
494.865	518.91
495.217	521.17
495.569	498.57
495.921	419.48
496.273	516.65
496.625	505.35
496.977	503.09
497.329	561.85
497.68	559.59
498.032	516.65
498.384	525.69
498.736	521.17
499.087	541.51
499.439	494.05
499.791	543.77
500.142	543.77
500.494	548.29
500.845	575.41
501.197	505.35
501.548	568.63
501.9	527.95
502.251	586.71
502.602	536.99
502.954	475.98
503.305	516.65
503.656	561.85
504.007	541.51
504.358	539.25
504.709	527.95
505.061	530.21
505.412	584.45
505.763	491.79
506.113	550.55
506.464	548.29
506.815	534.73
507.166	579.93
507.517	618.35
507.868	600.27
508.218	546.03
508.569	541.51
508.92	552.81
509.27	631.9
509.621	636.42
509.971	681.62
510.322	652.24
510.672	622.86
511.023	638.68
511.373	634.16
511.723	613.83
512.074	631.9
512.424	636.42
512.774	672.58
513.124	688.4
513.475	695.18
513.825	679.36
514.175	640.94
514.525	643.2
514.875	692.92
515.225	665.8
515.575	668.06
515.924	717.78
516.274	706.48
516.624	706.48
516.974	640.94
517.324	772.01
517.673	753.93
518.023	749.42
518.373	760.71
518.722	690.66
519.072	810.43
519.421	758.45
519.771	851.11
520.12	819.47
520.469	776.53
520.819	742.64
521.168	781.05
521.517	873.71
521.867	830.77
522.216	860.15
522.565	774.27
522.914	869.19
523.263	855.63
523.612	887.26
523.961	835.29
524.31	814.95
524.659	787.83
525.008	907.6
525.357	875.97
525.705	894.04
526.054	878.23
526.403	885
526.752	851.11
527.1	875.97
527.449	887.26
527.797	907.6
528.146	900.82
528.495	909.86
528.843	823.99
529.191	889.52
529.54	839.81
529.888	898.56
530.236	903.08
530.585	803.65
530.933	934.72
531.281	948.28
531.629	927.94
531.977	939.24
532.325	979.92
532.673	848.85
533.021	968.62
533.369	932.46
533.717	887.26
534.065	943.76
534.413	921.16
534.761	936.98
535.108	885
535.456	925.68
535.804	918.9
536.151	889.52
536.499	894.04
536.847	957.32
537.194	927.94
537.542	923.42
537.889	903.08
538.236	916.64
538.584	918.9
538.931	898.56
539.278	952.8
539.626	905.34
539.973	941.5
540.32	891.78
540.667	977.66
541.014	909.86
541.361	957.32
541.708	871.45
542.055	885
542.402	896.3
542.749	898.56
543.096	995.74
543.443	907.6
543.789	927.94
544.136	912.12
544.483	907.6
544.83	853.37
545.176	982.18
545.523	968.62
545.869	1027.37
546.216	918.9
546.562	1013.82
546.909	952.8
547.255	973.14
547.601	984.44
547.948	891.78
548.294	848.85
548.64	885
548.986	903.08
549.332	887.26
549.678	979.92
550.025	936.98
550.371	907.6
550.717	955.06
551.062	968.62
551.408	966.36
551.754	984.44
552.1	943.76
552.446	916.64
552.792	930.2
553.137	909.86
553.483	934.72
553.828	998
554.174	1011.56
554.52	966.36
554.865	968.62
555.211	907.6
555.556	970.88
555.901	930.2
556.247	930.2
556.592	970.88
556.937	995.74
557.282	977.66
557.628	955.06
557.973	952.8
558.318	1047.71
558.663	986.7
559.008	1025.11
559.353	993.48
559.698	1079.35
560.043	1020.59
560.388	1038.67
560.732	998
561.077	1056.75
561.422	1113.25
561.766	1068.05
562.111	1113.25
562.456	1009.3
562.8	1056.75
563.145	1074.83
563.489	1018.33
563.834	1047.71
564.178	1065.79
564.523	1063.53
564.867	1194.6
565.211	1045.45
565.555	1122.29
565.9	1142.63
566.244	1126.81
566.588	1081.61
566.932	1110.99
567.276	1115.51
567.62	1151.66
567.964	1110.99
568.308	1149.4
568.652	1174.26
568.996	1219.46
569.339	1196.86
569.683	1251.1
570.027	1187.82
570.371	1083.87
570.714	1158.44
571.058	1228.5
571.401	1280.47
571.745	1156.18
572.088	1217.2
572.432	1212.68
572.775	1158.44
573.118	1287.25
573.462	1174.26
573.805	1194.6
574.148	1194.6
574.491	1201.38
574.835	1260.14
575.178	1144.89
575.521	1273.7
575.864	1239.8
576.207	1181.04
576.55	1262.4
576.892	1142.63
577.235	1255.62
577.578	1187.82
577.921	1253.36
578.264	1318.89
578.606	1187.82
578.949	1135.85
579.292	1196.86
579.634	1194.6
579.977	1140.37
580.319	1176.52
580.662	1176.52
581.004	1144.89
581.346	1187.82
581.689	1282.73
582.031	1156.18
582.373	1214.94
582.715	1108.73
583.057	1153.92
583.4	1185.56
583.742	1092.91
584.084	1135.85
584.426	1244.32
584.768	1178.78
585.109	1070.31
585.451	1081.61
585.793	1074.83
586.135	1086.13
586.477	1086.13
586.818	1101.95
587.16	1138.11
587.502	1063.53
587.843	1068.05
588.185	1097.43
588.526	1018.33
588.868	1095.17
589.209	977.66
589.55	1072.57
589.892	1034.15
590.233	1022.85
590.574	1016.07
590.915	1016.07
591.257	984.44
591.598	943.76
591.939	1007.04
592.28	988.96
592.621	955.06
592.962	914.38
593.303	973.14
593.643	1002.52
593.984	941.5
594.325	896.3
594.666	941.5
595.006	882.75
595.347	898.56
595.688	952.8
596.028	848.85
596.369	914.38
596.709	891.78
597.05	894.04
597.39	873.71
597.73	842.07
598.071	900.82
598.411	894.04
598.751	826.25
599.091	801.39
599.431	760.71
599.772	819.47
600.112	844.33
600.452	882.75
600.792	851.11
601.132	819.47
601.471	774.27
601.811	830.77
602.151	762.97
602.491	722.3
602.831	826.25
603.17	767.49
603.51	742.64
603.849	717.78
604.189	726.82
604.528	731.34
604.868	758.45
605.207	747.16
605.547	670.32
605.886	767.49
606.225	704.22
606.565	697.44
606.904	654.5
607.243	634.16
607.582	695.18
607.921	701.96
608.26	717.78
608.599	690.66
608.938	690.66
609.277	760.71
609.616	672.58
609.955	715.52
610.293	656.76
610.632	688.4
610.971	627.38
611.309	688.4
611.648	579.93
611.987	663.54
612.325	677.1
612.664	747.16
613.002	643.2
613.34	720.04
613.679	634.16
614.017	638.68
614.355	670.32
614.694	643.2
615.032	636.42
615.37	643.2
615.708	575.41
616.046	598.01
616.384	631.9
616.722	627.38
617.06	620.61
617.398	598.01
617.736	672.58
618.073	681.62
618.411	618.35
618.749	636.42
619.086	598.01
619.424	607.05
619.762	672.58
620.099	704.22
620.437	568.63
620.774	670.32
621.112	649.98
621.449	631.9
621.786	661.28
622.123	661.28
622.461	573.15
622.798	670.32
623.135	683.88
623.472	609.31
623.809	616.09
624.146	672.58
624.483	634.16
624.82	663.54
625.157	600.27
625.494	559.59
625.83	602.53
626.167	625.12
626.504	543.77
626.841	631.9
627.177	552.81
627.514	609.31
627.85	643.2
628.187	552.81
628.523	588.97
628.86	600.27
629.196	638.68
629.532	616.09
629.869	656.76
630.205	616.09
630.541	552.81
630.877	668.06
631.213	579.93
631.549	631.9
631.885	591.23
632.221	555.07
632.557	579.93
632.893	616.09
633.229	622.86
633.564	530.21
633.9	638.68
634.236	577.67
634.572	622.86
634.907	613.83
635.243	616.09
635.578	557.33
635.914	582.19
636.249	518.91
636.585	561.85
636.92	602.53
637.255	584.45
637.59	548.29
637.926	591.23
638.261	622.86
638.596	494.05
638.931	636.42
639.266	557.33
639.601	435.3
639.936	555.07
640.271	588.97
640.606	539.25
640.94	521.17
641.275	525.69
641.61	530.21
641.945	564.11
642.279	500.83
642.614	530.21
642.948	557.33
643.283	525.69
643.617	527.95
643.952	525.69
644.286	559.59
644.62	602.53
644.955	507.61
645.289	478.24
645.623	532.47
645.957	525.69
646.291	437.56
646.625	494.05
646.959	498.57
647.293	444.34
647.627	512.13
647.961	466.94
648.295	514.39
648.629	548.29
648.962	505.35
649.296	448.86
649.63	555.07
649.963	489.54
650.297	500.83
650.63	453.38
650.964	428.52
651.297	453.38
651.631	485.02
651.964	453.38
652.297	494.05
652.631	430.78
652.964	430.78
653.297	448.86
653.63	453.38
653.963	466.94
654.296	419.48
654.629	374.28
654.962	437.56
655.295	487.28
655.628	412.7
655.961	462.42
656.293	446.6
656.626	435.3
656.959	485.02
657.291	414.96
657.624	448.86
657.956	396.88
658.289	444.34
658.621	451.12
658.954	417.22
659.286	374.28
659.618	372.02
659.95	473.72
660.283	376.54
660.615	338.13
660.947	428.52
661.279	491.79
661.611	351.69
661.943	405.92
662.275	367.5
662.607	419.48
662.939	437.56
663.27	455.64
663.602	412.7
663.934	460.16
664.266	451.12
664.597	344.91
664.929	374.28
665.26	421.74
665.592	304.23
665.923	424
666.255	396.88
666.586	376.54
666.917	408.18
667.248	313.27
667.58	347.17
667.911	428.52
668.242	324.57
668.573	424
668.904	405.92
669.235	372.02
669.566	460.16
669.897	376.54
670.228	374.28
670.558	367.5
670.889	405.92
671.22	349.43
671.551	387.84
671.881	426.26
672.212	331.35
672.542	372.02
672.873	333.61
673.203	342.65
673.533	360.72
673.864	351.69
674.194	320.05
674.524	317.79
674.855	405.92
675.185	353.95
675.515	304.23
675.845	392.36
676.175	367.5
676.505	358.47
676.835	338.13
677.165	362.98
677.494	331.35
677.824	272.59
678.154	340.39
678.484	261.29
678.813	326.83
679.143	320.05
679.472	372.02
679.802	315.53
680.131	342.65
680.461	292.93
680.79	365.24
681.119	401.4
681.449	356.21
681.778	288.41
682.107	349.43
682.436	417.22
682.765	353.95
683.094	313.27
683.423	342.65
683.752	283.89
684.081	274.85
684.41	324.57
684.739	286.15
685.067	333.61
685.396	356.21
685.725	335.87
686.053	394.62
686.382	335.87
686.711	306.49
687.039	306.49
687.367	349.43
687.696	342.65
688.024	315.53
688.352	299.71
688.681	369.76
689.009	353.95
689.337	299.71
689.665	311.01
689.993	315.53
690.321	367.5
690.649	306.49
690.977	329.09
691.305	349.43
691.633	311.01
691.961	311.01
692.288	342.65
692.616	274.85
692.944	326.83
693.271	286.15
693.599	256.77
693.926	263.55
694.254	326.83
694.581	283.89
694.908	297.45
695.236	277.11
695.563	290.67
695.89	367.5
696.217	297.45
696.544	306.49
696.871	306.49
697.198	362.98
697.525	349.43
697.852	281.63
698.179	326.83
698.506	383.32
698.833	261.29
699.16	353.95
699.486	329.09
699.813	304.23
700.139	297.45
700.466	279.37
700.793	360.72
701.119	349.43
701.445	403.66
701.772	333.61
702.098	315.53
702.424	340.39
702.75	376.54
703.077	369.76
703.403	216.1
703.729	372.02
704.055	308.75
704.381	304.23
704.707	311.01
705.033	311.01
705.358	315.53
705.684	313.27
706.01	274.85
706.336	362.98
706.661	292.93
706.987	351.69
707.312	347.17
707.638	236.43
707.963	329.09
708.289	281.63
708.614	315.53
708.939	281.63
709.265	240.95
709.59	252.25
709.915	281.63
710.24	274.85
710.565	313.27
710.89	376.54
711.215	252.25
711.54	256.77
711.865	322.31
712.19	320.05
712.515	315.53
712.839	356.21
713.164	297.45
713.489	304.23
713.813	218.36
714.138	322.31
714.462	290.67
714.787	283.89
715.111	299.71
715.435	290.67
715.76	308.75
716.084	344.91
716.408	299.71
716.732	265.81
717.056	308.75
717.381	290.67
717.705	329.09
718.028	263.55
718.352	286.15
718.676	288.41
719	281.63
719.324	295.19
719.648	283.89
719.971	290.67
720.295	283.89
720.618	281.63
720.942	295.19
721.265	304.23
721.589	322.31
721.912	256.77
722.236	268.07
722.559	265.81
722.882	315.53
723.205	263.55
723.528	351.69
723.851	351.69
724.174	288.41
724.497	277.11
724.82	270.33
725.143	292.93
725.466	254.51
725.789	234.17
726.112	311.01
726.434	268.07
726.757	331.35
727.08	311.01
727.402	311.01
727.725	240.95
728.047	308.75
728.37	256.77
728.692	211.58
729.014	247.73
729.336	301.97
729.659	301.97
729.981	317.79
730.303	261.29
730.625	311.01
730.947	286.15
731.269	333.61
731.591	295.19
731.913	243.21
732.235	292.93
732.556	347.17
732.878	195.76
733.2	216.1
733.521	292.93
733.843	259.03
734.164	292.93
734.486	301.97
734.807	270.33
735.129	222.88
735.45	268.07
735.771	288.41
736.092	240.95
736.414	311.01
736.735	268.07
737.056	304.23
737.377	335.87
737.698	249.99
738.019	274.85
738.34	249.99
738.66	338.13
738.981	256.77
739.302	320.05
739.623	216.1
739.943	292.93
740.264	236.43
740.584	245.47
740.905	279.37
741.225	229.65
741.546	263.55
741.866	290.67
742.186	225.14
742.507	308.75
742.827	209.32
743.147	304.23
743.467	270.33
743.787	338.13
744.107	193.5
744.427	265.81
744.747	286.15
745.067	240.95
745.386	270.33
745.706	295.19
746.026	306.49
746.346	286.15
746.665	200.28
746.985	263.55
747.304	240.95
747.624	256.77
747.943	220.62
748.262	288.41
748.582	311.01
748.901	216.1
749.22	299.71
749.539	320.05
749.858	340.39
750.177	231.91
750.496	186.72
750.815	243.21
751.134	281.63
751.453	236.43
751.772	301.97
752.09	254.51
752.409	274.85
752.728	301.97
753.046	286.15
753.365	272.59
753.683	245.47
754.002	238.69
754.32	279.37
754.639	213.84
754.957	259.03
755.275	247.73
755.593	209.32
755.911	279.37
756.23	234.17
756.548	286.15
756.866	304.23
757.183	283.89
757.501	299.71
757.819	207.06
758.137	261.29
758.455	270.33
758.772	256.77
759.09	281.63
759.408	256.77
759.725	277.11
760.043	259.03
760.36	252.25
760.677	268.07
760.995	195.76
761.312	324.57
761.629	270.33
761.946	270.33
762.264	243.21
762.581	218.36
762.898	231.91
763.215	299.71
763.532	222.88
763.848	245.47
764.165	281.63
764.482	374.28
764.799	229.65
765.115	238.69
765.432	301.97
765.749	297.45
766.065	247.73
766.382	308.75
766.698	211.58
767.014	243.21
767.331	277.11
767.647	243.21
767.963	261.29
768.279	317.79
768.595	263.55
768.911	304.23
769.227	272.59
769.543	236.43
769.859	238.69
770.175	340.39
770.491	317.79
770.807	256.77
771.122	231.91
771.438	292.93
771.754	279.37
772.069	274.85
772.385	295.19
772.7	315.53
773.016	252.25
773.331	297.45
773.646	247.73
773.961	308.75
774.277	306.49
774.592	290.67
774.907	265.81
775.222	283.89
775.537	216.1
775.852	320.05
776.167	333.61
776.482	279.37
776.796	245.47
777.111	338.13
777.426	279.37
777.74	211.58
778.055	261.29
778.369	315.53
778.684	265.81
778.998	274.85
779.313	277.11
779.627	245.47
779.941	213.84
780.255	238.69
780.57	281.63
780.884	247.73
781.198	202.54
781.512	306.49
781.826	243.21
782.14	295.19
782.453	259.03
782.767	292.93
783.081	281.63
783.395	270.33
783.708	270.33
784.022	286.15
784.335	261.29
784.649	283.89
784.962	308.75
785.276	274.85
785.589	213.84
785.902	301.97
786.216	231.91
786.529	238.69
786.842	329.09
787.155	317.79
787.468	252.25
787.781	243.21
788.094	299.71
788.407	259.03
788.72	288.41
789.032	213.84
789.345	263.55
789.658	286.15
789.97	288.41
790.283	311.01
790.595	220.62
790.908	245.47
791.22	279.37
791.532	240.95
791.845	243.21
792.157	220.62
792.469	317.79
792.781	240.95
793.093	243.21
793.405	256.77
793.717	313.27
794.029	299.71
794.341	335.87
794.653	254.51
794.965	243.21
795.276	247.73
795.588	288.41
795.9	188.98
796.211	254.51
796.523	245.47
796.834	249.99
797.146	286.15
797.457	261.29
797.768	213.84
798.08	249.99
798.391	283.89
798.702	279.37
799.013	193.5
799.324	277.11
799.635	283.89
799.946	243.21
800.257	270.33
800.568	263.55
800.878	329.09
801.189	281.63
801.5	240.95
801.81	238.69
802.121	268.07
802.431	265.81
802.742	247.73
803.052	240.95
803.363	195.76
803.673	261.29
803.983	265.81
804.293	234.17
804.603	272.59
804.913	240.95
805.224	222.88
805.533	259.03
805.843	254.51
806.153	252.25
806.463	254.51
806.773	247.73
807.083	229.65
807.392	311.01
807.702	265.81
808.011	202.54
808.321	317.79
808.63	301.97
808.94	243.21
809.249	261.29
809.558	245.47
809.868	225.14
810.177	227.4
810.486	277.11
810.795	218.36
811.104	247.73
811.413	222.88
811.722	292.93
812.031	249.99
812.339	209.32
812.648	252.25
812.957	231.91
813.266	295.19
813.574	243.21
813.883	272.59
814.191	236.43
814.5	301.97
814.808	270.33
815.116	268.07
815.424	261.29
815.733	297.45
816.041	263.55
816.349	295.19
816.657	261.29
816.965	311.01
817.273	286.15
817.581	236.43
817.889	292.93
818.196	263.55
818.504	288.41
818.812	281.63
819.12	211.58
819.427	249.99
819.735	218.36
820.042	198.02
820.349	261.29
820.657	220.62
820.964	243.21
821.271	225.14
821.579	286.15
821.886	299.71
822.193	254.51
822.5	150.56
822.807	231.91
823.114	243.21
823.421	170.9
823.727	254.51
824.034	236.43
824.341	222.88
824.648	216.1
824.954	283.89
825.261	222.88
825.567	259.03
825.874	263.55
826.18	227.4
826.486	261.29
826.793	236.43
827.099	308.75
827.405	286.15
827.711	200.28
828.017	245.47
828.323	247.73
828.629	204.8
828.935	236.43
829.241	270.33
829.547	238.69
829.852	292.93
830.158	286.15
830.464	292.93
830.769	261.29
831.075	252.25
831.38	227.4
831.686	279.37
831.991	227.4
832.296	249.99
832.601	240.95
832.907	261.29
833.212	222.88
833.517	283.89
833.822	274.85
834.127	317.79
834.432	286.15
834.737	335.87
835.041	281.63
835.346	229.65
835.651	243.21
835.956	218.36
836.26	218.36
836.565	245.47
836.869	259.03
837.174	263.55
837.478	265.81
837.782	259.03
838.087	222.88
838.391	320.05
838.695	263.55
838.999	261.29
839.303	213.84
839.607	270.33
839.911	202.54
840.215	324.57
840.519	281.63
840.822	265.81
841.126	306.49
841.43	286.15
841.733	297.45
842.037	245.47
842.34	281.63
842.644	225.14
842.947	254.51
843.251	279.37
843.554	261.29
843.857	259.03
844.16	306.49
844.463	268.07
844.766	254.51
845.069	274.85
845.372	198.02
845.675	331.35
845.978	333.61
846.281	342.65
846.583	306.49
846.886	277.11
847.189	252.25
847.491	286.15
847.794	213.84
848.096	218.36
848.399	211.58
848.701	320.05
849.003	222.88
849.305	299.71
849.608	311.01
849.91	304.23
850.212	261.29
850.514	204.8
850.816	225.14
851.118	272.59
851.419	290.67
851.721	283.89
852.023	299.71
852.325	247.73
852.626	274.85
852.928	333.61
853.229	283.89
853.531	283.89
853.832	277.11
854.133	283.89
854.435	265.81
854.736	193.5
855.037	204.8
855.338	231.91
855.639	295.19
855.94	227.4
856.241	247.73
856.542	234.17
856.843	240.95
857.144	229.65
857.444	247.73
857.745	261.29
858.046	329.09
858.346	261.29
858.647	263.55
858.947	234.17
859.247	326.83
859.548	252.25
859.848	270.33
860.148	299.71
860.448	265.81
860.749	342.65
861.049	238.69
861.349	283.89
861.648	247.73
861.948	259.03
862.248	143.78
862.548	272.59
862.848	261.29
863.147	234.17
863.447	247.73
863.746	315.53
864.046	301.97
864.345	218.36
864.645	234.17
864.944	272.59
865.243	304.23
865.542	243.21
865.842	245.47
866.141	245.47
866.44	254.51
866.739	290.67
867.038	229.65
867.337	236.43
867.635	245.47
867.934	268.07
868.233	299.71
868.531	245.47
868.83	234.17
869.129	234.17
869.427	225.14
869.725	229.65
870.024	283.89
870.322	299.71
870.62	311.01
870.918	188.98
871.217	277.11
871.515	265.81
871.813	279.37
872.111	313.27
872.409	292.93
872.706	304.23
873.004	304.23
873.302	317.79
873.6	240.95
873.897	193.5
874.195	254.51
874.492	283.89
874.79	261.29
875.087	220.62
875.384	297.45
875.682	234.17
875.979	240.95
876.276	213.84
876.573	272.59
876.87	272.59
877.167	272.59
