Data from PL_2polymer_F8BT_MEHPPV_USB2H096331_0496.txt Node
Date: Tue Dec 15 16:08:23 CET 2020
User: spadmin
Spectrometer: USB2+H09633
Trigger mode: 0
Integration Time (sec): 1.000000E-2
Scans to average: 1
Electric dark correction enabled: true
Nonlinearity correction enabled: false
Boxcar width: 0
XAxis mode: Wavelengths
Number of Pixels in Spectrum: 2048
>>>>>Begin Spectral Data<<<<<
174.027	-120.34
174.405	-120.34
174.783	-120.34
175.162	-86.44
175.54	-93.22
175.918	-57.06
176.296	-95.48
176.674	-95.48
177.052	-106.78
177.43	-81.92
177.808	-100
178.186	-61.58
178.564	6.21
178.942	-18.64
179.32	-9.6
179.698	44.63
180.076	22.03
180.453	71.75
180.831	80.79
181.209	62.71
181.587	153.1
181.965	128.25
182.342	114.69
182.72	177.96
183.098	198.3
183.475	207.34
183.853	234.46
184.231	333.89
184.608	270.61
184.986	232.2
185.363	281.91
185.741	324.85
186.118	340.67
186.496	333.89
186.873	340.67
187.251	345.19
187.628	324.85
188.006	345.19
188.383	363.27
188.76	302.25
189.138	361.01
189.515	306.77
189.892	295.47
190.27	327.11
190.647	388.13
191.024	324.85
191.401	336.15
191.778	324.85
192.155	299.99
192.533	288.69
192.91	281.91
193.287	367.79
193.664	299.99
194.041	381.35
194.418	320.33
194.795	304.51
195.172	356.49
195.549	356.49
195.926	374.57
196.302	295.47
196.679	304.51
197.056	297.73
197.433	299.99
197.81	333.89
198.187	302.25
198.563	284.17
198.94	361.01
199.317	268.35
199.693	281.91
200.07	284.17
200.447	311.29
200.823	306.77
201.2	331.63
201.576	345.19
201.953	293.21
202.329	372.31
202.706	277.39
203.082	304.51
203.459	288.69
203.835	342.93
204.212	324.85
204.588	306.77
204.964	324.85
205.341	324.85
205.717	356.49
206.093	318.07
206.469	406.2
206.846	354.23
207.222	268.35
207.598	302.25
207.974	261.58
208.35	290.95
208.726	297.73
209.102	302.25
209.479	290.95
209.855	347.45
210.231	372.31
210.607	372.31
210.982	288.69
211.358	261.58
211.734	284.17
212.11	324.85
212.486	385.87
212.862	333.89
213.238	313.55
213.614	363.27
213.989	320.33
214.365	370.05
214.741	363.27
215.116	313.55
215.492	250.28
215.868	309.03
216.243	354.23
216.619	347.45
216.995	349.71
217.37	390.39
217.746	356.49
218.121	342.93
218.497	331.63
218.872	327.11
219.247	324.85
219.623	329.37
219.998	363.27
220.374	342.93
220.749	270.61
221.124	361.01
221.499	356.49
221.875	320.33
222.25	365.53
222.625	324.85
223	379.09
223.376	342.93
223.751	302.25
224.126	347.45
224.501	322.59
224.876	324.85
225.251	318.07
225.626	394.9
226.001	415.24
226.376	351.97
226.751	374.57
227.126	345.19
227.501	406.2
227.875	336.15
228.25	293.21
228.625	288.69
229	388.13
229.375	320.33
229.749	295.47
230.124	381.35
230.499	338.41
230.873	320.33
231.248	322.59
231.623	365.53
231.997	394.9
232.372	410.72
232.746	403.94
233.121	354.23
233.495	342.93
233.87	347.45
234.244	329.37
234.619	257.06
234.993	311.29
235.367	333.89
235.742	309.03
236.116	356.49
236.49	424.28
236.865	347.45
237.239	295.47
237.613	342.93
237.987	367.79
238.361	417.5
238.736	318.07
239.11	331.63
239.484	424.28
239.858	336.15
240.232	363.27
240.606	381.35
240.98	406.2
241.354	370.05
241.728	358.75
242.102	345.19
242.475	320.33
242.849	392.65
243.223	397.16
243.597	431.06
243.971	331.63
244.344	397.16
244.718	381.35
245.092	351.97
245.466	437.84
245.839	333.89
246.213	358.75
246.586	374.57
246.96	390.39
247.334	342.93
247.707	370.05
248.081	426.54
248.454	385.87
248.828	324.85
249.201	354.23
249.574	313.55
249.948	394.9
250.321	361.01
250.694	356.49
251.068	354.23
251.441	399.42
251.814	385.87
252.187	320.33
252.561	383.61
252.934	309.03
253.307	435.58
253.68	370.05
254.053	279.65
254.426	419.76
254.799	410.72
255.172	370.05
255.545	424.28
255.918	385.87
256.291	374.57
256.664	376.83
257.037	279.65
257.41	410.72
257.782	392.65
258.155	379.09
258.528	347.45
258.901	428.8
259.273	433.32
259.646	431.06
260.019	363.27
260.391	392.65
260.764	460.44
261.137	354.23
261.509	419.76
261.882	408.46
262.254	392.65
262.627	370.05
262.999	383.61
263.372	399.42
263.744	397.16
264.116	324.85
264.489	363.27
264.861	376.83
265.233	403.94
265.606	372.31
265.978	392.65
266.35	361.01
266.722	399.42
267.094	412.98
267.467	403.94
267.839	440.1
268.211	449.14
268.583	385.87
268.955	442.36
269.327	419.76
269.699	394.9
270.071	464.96
270.443	433.32
270.815	444.62
271.186	381.35
271.558	426.54
271.93	399.42
272.302	349.71
272.674	449.14
273.045	464.96
273.417	406.2
273.789	444.62
274.16	390.39
274.532	324.85
274.904	358.75
275.275	419.76
275.647	458.18
276.018	401.68
276.39	431.06
276.761	469.48
277.133	399.42
277.504	342.93
277.875	399.42
278.247	390.39
278.618	383.61
278.989	390.39
279.361	469.48
279.732	392.65
280.103	381.35
280.474	480.78
280.846	449.14
281.217	406.2
281.588	451.4
281.959	363.27
282.33	412.98
282.701	379.09
283.072	428.8
283.443	478.52
283.814	440.1
284.185	406.2
284.556	424.28
284.927	419.76
285.297	435.58
285.668	403.94
286.039	390.39
286.41	408.46
286.781	417.5
287.151	363.27
287.522	419.76
287.893	440.1
288.263	417.5
288.634	428.8
289.004	379.09
289.375	501.12
289.745	376.83
290.116	379.09
290.486	372.31
290.857	415.24
291.227	363.27
291.598	349.71
291.968	340.67
292.338	399.42
292.709	410.72
293.079	394.9
293.449	410.72
293.819	446.88
294.189	437.84
294.56	440.1
294.93	462.7
295.3	446.88
295.67	433.32
296.04	437.84
296.41	401.68
296.78	358.75
297.15	437.84
297.52	458.18
297.89	444.62
298.259	394.9
298.629	431.06
298.999	451.4
299.369	469.48
299.739	403.94
300.108	444.62
300.478	464.96
300.848	419.76
301.217	462.7
301.587	410.72
301.957	469.48
302.326	440.1
302.696	460.44
303.065	510.16
303.435	485.3
303.804	476.26
304.174	521.46
304.543	455.92
304.912	469.48
305.282	424.28
305.651	453.66
306.02	442.36
306.39	383.61
306.759	478.52
307.128	449.14
307.497	537.27
307.866	489.82
308.235	501.12
308.604	505.64
308.974	487.56
309.343	476.26
309.712	519.2
310.08	474
310.449	442.36
310.818	539.53
311.187	469.48
311.556	446.88
311.925	462.7
312.294	462.7
312.662	530.49
313.031	532.75
313.4	451.4
313.769	525.97
314.137	503.38
314.506	505.64
314.874	431.06
315.243	453.66
315.612	480.78
315.98	428.8
316.349	512.42
316.717	440.1
317.085	528.23
317.454	483.04
317.822	494.34
318.191	523.72
318.559	566.65
318.927	525.97
319.295	455.92
319.664	596.03
320.032	476.26
320.4	525.97
320.768	530.49
321.136	514.68
321.504	483.04
321.872	562.13
322.24	523.72
322.608	532.75
322.976	444.62
323.344	501.12
323.712	474
324.08	580.21
324.448	521.46
324.816	483.04
325.183	476.26
325.551	516.94
325.919	525.97
326.287	512.42
326.654	530.49
327.022	573.43
327.389	629.93
327.757	474
328.125	462.7
328.492	512.42
328.86	548.57
329.227	498.86
329.594	489.82
329.962	501.12
330.329	512.42
330.697	485.3
331.064	539.53
331.431	514.68
331.798	514.68
332.166	487.56
332.533	614.11
332.9	564.39
333.267	544.05
333.634	657.04
334.001	521.46
334.368	510.16
334.735	505.64
335.102	638.97
335.469	505.64
335.836	539.53
336.203	589.25
336.57	544.05
336.937	616.37
337.304	528.23
337.67	586.99
338.037	629.93
338.404	557.61
338.771	564.39
339.137	638.97
339.504	607.33
339.87	618.63
340.237	577.95
340.604	598.29
340.97	668.34
341.337	623.15
341.703	564.39
342.069	582.47
342.436	663.82
342.802	591.51
343.169	521.46
343.535	627.67
343.901	618.63
344.267	600.55
344.634	679.64
345	704.5
345.366	605.07
345.732	566.65
346.098	657.04
346.464	589.25
346.83	681.9
347.196	684.16
347.562	620.89
347.928	695.46
348.294	605.07
348.66	670.6
349.026	609.59
349.392	663.82
349.757	609.59
350.123	650.27
350.489	684.16
350.855	693.2
351.22	675.12
351.586	645.75
351.951	758.74
352.317	679.64
352.683	699.98
353.048	729.36
353.414	729.36
353.779	654.79
354.144	638.97
354.51	756.48
354.875	727.1
355.24	738.4
355.606	783.6
355.971	751.96
356.336	699.98
356.701	799.41
357.067	765.52
357.432	765.52
357.797	840.09
358.162	788.11
358.527	774.56
358.892	736.14
359.257	774.56
359.622	792.63
359.987	770.04
360.352	812.97
360.717	858.17
361.082	806.19
361.446	878.51
361.811	898.85
362.176	880.77
362.541	887.55
362.905	869.47
363.27	858.17
363.635	1005.06
363.999	966.64
364.364	962.12
364.728	950.82
365.093	892.07
365.457	928.22
365.822	980.2
366.186	982.46
366.55	991.5
366.915	966.64
367.279	1009.58
367.643	986.98
368.008	1113.53
368.372	1057.03
368.736	1102.23
369.1	1066.07
369.464	1095.45
369.828	1104.49
370.192	1124.83
370.556	1156.47
370.92	1120.31
371.284	1127.09
371.648	1158.73
372.012	1217.48
372.376	1292.06
372.74	1382.45
373.104	1432.17
373.468	1558.72
373.831	1427.65
374.195	1420.87
374.559	1633.29
374.922	1441.21
375.286	1479.62
375.65	1658.15
376.013	1662.67
376.377	1725.94
376.74	1866.05
377.104	1877.35
377.467	1963.23
377.83	1985.82
378.194	2180.17
378.557	2293.16
378.92	2424.23
379.284	2498.8
379.647	2806.14
380.01	2801.62
380.373	3151.89
380.736	3176.75
381.1	3545.1
381.463	3795.95
381.826	3915.72
382.189	4293.11
382.552	4507.79
382.915	4905.52
383.278	5239.98
383.64	5904.36
384.003	6304.35
384.366	6896.43
384.729	7454.61
385.092	7929.17
385.454	8704.29
385.817	9630.82
386.18	10405.94
386.542	11779.92
386.905	12710.97
387.268	14105.28
387.63	15316.55
387.993	16353.81
388.355	17965.06
388.718	20028.29
389.08	21569.49
389.442	24066.6
389.805	25763.73
390.167	27668.76
390.529	30990.71
390.892	34441.47
391.254	36064.02
391.616	38746.44
391.978	43232.2
392.34	47223.05
392.702	48931.48
393.064	52230.83
393.426	54413.82
393.788	56190.05
394.15	57762.89
394.512	59541.37
394.874	61193.31
395.236	63023.77
395.598	64820.33
395.96	65068.91
396.321	65068.91
396.683	65068.91
397.045	65068.91
397.406	65068.91
397.768	65068.91
398.13	65068.91
398.491	65068.91
398.853	65068.91
399.214	65068.91
399.576	65068.91
399.937	65068.91
400.299	65068.91
400.66	65068.91
401.021	65068.91
401.383	65068.91
401.744	65068.91
402.105	65068.91
402.466	65068.91
402.827	65068.91
403.189	65068.91
403.55	65068.91
403.911	65068.91
404.272	65068.91
404.633	65068.91
404.994	65068.91
405.355	65068.91
405.716	65068.91
406.077	65068.91
406.437	65068.91
406.798	65068.91
407.159	65068.91
407.52	65068.91
407.88	65068.91
408.241	65068.91
408.602	65068.91
408.962	65068.91
409.323	65068.91
409.684	65068.91
410.044	65068.91
410.405	65068.91
410.765	65068.91
411.125	65068.91
411.486	65068.91
411.846	65068.91
412.206	65068.91
412.567	65068.91
412.927	65068.91
413.287	65068.91
413.647	65068.91
414.007	65068.91
414.368	65068.91
414.728	65068.91
415.088	65068.91
415.448	65068.91
415.808	65068.91
416.168	65068.91
416.528	65068.91
416.887	65068.91
417.247	65068.91
417.607	65068.91
417.967	65068.91
418.327	65068.91
418.686	65068.91
419.046	65068.91
419.406	65068.91
419.765	65068.91
420.125	65068.91
420.484	65068.91
420.844	65068.91
421.203	65068.91
421.563	65053.09
421.922	64714.12
422.282	62718.69
422.641	61455.45
423	60273.56
423.36	59288.27
423.719	57100.76
424.078	55195.72
424.437	53297.47
424.796	51812.76
425.155	50737.08
425.515	47957.5
425.874	46879.56
426.233	42603.96
426.592	40088.78
426.95	39851.49
427.309	37148.74
427.668	36339.72
428.027	33383.87
428.386	32355.65
428.745	29338.78
429.103	27736.56
429.462	26746.75
429.821	24697.09
430.179	23836.1
430.538	23117.47
430.897	22123.15
431.255	20728.83
431.614	19594.4
431.972	18862.22
432.33	18511.94
432.689	18048.68
433.047	16778.65
433.405	15501.85
433.764	15049.89
434.122	14733.51
434.48	13895.11
434.838	12964.07
435.197	12701.93
435.555	12324.53
435.913	11791.22
436.271	11090.67
436.629	10724.58
436.987	10191.26
437.345	9807.09
437.703	9375.46
438.061	8876.04
438.418	8209.39
438.776	8053.46
439.134	7822.96
439.492	7459.13
439.849	7047.84
440.207	6686.26
440.565	6286.28
440.922	6116.79
441.28	5782.33
441.637	5594.77
441.995	5481.78
442.352	5260.31
442.71	5002.69
443.067	4876.14
443.425	4650.16
443.782	4406.1
444.139	4374.46
444.496	4121.36
444.854	4082.94
445.211	3829.84
445.568	3698.77
445.925	3583.52
446.282	3475.05
446.639	3477.31
446.996	3228.73
447.353	3389.18
447.71	3303.3
448.067	3129.3
448.424	3020.82
448.781	3016.3
449.137	2806.14
449.494	2708.97
449.851	2519.14
450.208	2385.81
450.564	2401.63
450.921	2268.3
451.278	2286.38
451.634	2252.48
451.991	2162.09
452.347	2062.66
452.704	2062.66
453.06	1997.12
453.416	1836.67
453.773	1832.16
454.129	1829.9
454.485	1710.12
454.841	1802.78
455.198	1642.33
455.554	1529.34
455.91	1603.91
456.266	1619.73
456.622	1624.25
456.978	1373.41
457.334	1362.11
457.69	1364.37
458.046	1271.72
458.402	1233.3
458.758	1097.71
459.114	1188.1
459.469	1208.44
459.825	1133.87
460.181	1070.59
460.536	1165.51
460.892	1079.63
461.248	1102.23
461.603	1007.32
461.959	1050.25
462.314	964.38
462.67	950.82
463.025	946.3
463.38	1005.06
463.736	910.15
464.091	898.85
464.446	923.7
464.802	887.55
465.157	889.81
465.512	849.13
465.867	896.59
466.222	883.03
466.577	862.69
466.932	817.49
467.287	903.37
467.642	887.55
467.997	806.19
468.352	797.15
468.707	790.37
469.062	779.08
469.417	765.52
469.771	754.22
470.126	792.63
470.481	688.68
470.835	699.98
471.19	747.44
471.544	661.56
471.899	702.24
472.253	623.15
472.608	718.06
472.962	618.63
473.317	711.28
473.671	650.27
474.025	675.12
474.38	638.97
474.734	659.3
475.088	718.06
475.442	666.08
475.796	675.12
476.15	638.97
476.504	598.29
476.858	634.45
477.212	654.79
477.566	596.03
477.92	659.3
478.274	589.25
478.628	575.69
478.982	584.73
479.336	654.79
479.689	550.83
480.043	577.95
480.397	629.93
480.75	521.46
481.104	611.85
481.457	614.11
481.811	625.41
482.164	666.08
482.518	586.99
482.871	654.79
483.225	623.15
483.578	580.21
483.931	521.46
484.284	566.65
484.638	591.51
484.991	577.95
485.344	537.27
485.697	544.05
486.05	577.95
486.403	535.01
486.756	636.71
487.109	464.96
487.462	485.3
487.815	553.09
488.168	557.61
488.52	494.34
488.873	550.83
489.226	510.16
489.579	564.39
489.931	550.83
490.284	525.97
490.637	528.23
490.989	584.73
491.342	523.72
491.694	507.9
492.047	519.2
492.399	480.78
492.751	519.2
493.104	458.18
493.456	480.78
493.808	412.98
494.16	460.44
494.513	485.3
494.865	467.22
495.217	446.88
495.569	507.9
495.921	480.78
496.273	528.23
496.625	541.79
496.977	566.65
497.329	525.97
497.68	467.22
498.032	503.38
498.384	419.76
498.736	410.72
499.087	458.18
499.439	451.4
499.791	462.7
500.142	489.82
500.494	453.66
500.845	501.12
501.197	544.05
501.548	451.4
501.9	455.92
502.251	474
502.602	525.97
502.954	474
503.305	510.16
503.656	469.48
504.007	492.08
504.358	458.18
504.709	451.4
505.061	426.54
505.412	442.36
505.763	354.23
506.113	455.92
506.464	550.83
506.815	367.79
507.166	428.8
507.517	431.06
507.868	401.68
508.218	478.52
508.569	458.18
508.92	419.76
509.27	467.22
509.621	399.42
509.971	469.48
510.322	433.32
510.672	519.2
511.023	469.48
511.373	469.48
511.723	437.84
512.074	478.52
512.424	507.9
512.774	501.12
513.124	487.56
513.475	505.64
513.825	464.96
514.175	446.88
514.525	444.62
514.875	487.56
515.225	480.78
515.575	530.49
515.924	535.01
516.274	471.74
516.624	501.12
516.974	476.26
517.324	498.86
517.673	442.36
518.023	474
518.373	528.23
518.722	467.22
519.072	478.52
519.421	440.1
519.771	503.38
520.12	460.44
520.469	539.53
520.819	476.26
521.168	440.1
521.517	474
521.867	516.94
522.216	523.72
522.565	553.09
522.914	442.36
523.263	451.4
523.612	467.22
523.961	525.97
524.31	492.08
524.659	440.1
525.008	433.32
525.357	467.22
525.705	480.78
526.054	485.3
526.403	496.6
526.752	453.66
527.1	535.01
527.449	478.52
527.797	440.1
528.146	455.92
528.495	455.92
528.843	455.92
529.191	361.01
529.54	485.3
529.888	458.18
530.236	489.82
530.585	453.66
530.933	501.12
531.281	532.75
531.629	437.84
531.977	469.48
532.325	444.62
532.673	521.46
533.021	399.42
533.369	449.14
533.717	503.38
534.065	442.36
534.413	464.96
534.761	510.16
535.108	435.58
535.456	537.27
535.804	451.4
536.151	446.88
536.499	444.62
536.847	435.58
537.194	478.52
537.542	464.96
537.889	467.22
538.236	442.36
538.584	415.24
538.931	403.94
539.278	397.16
539.626	492.08
539.973	478.52
540.32	471.74
540.667	408.46
541.014	419.76
541.361	498.86
541.708	426.54
542.055	388.13
542.402	449.14
542.749	433.32
543.096	392.65
543.443	433.32
543.789	422.02
544.136	451.4
544.483	449.14
544.83	401.68
545.176	415.24
545.523	433.32
545.869	354.23
546.216	440.1
546.562	374.57
546.909	403.94
547.255	401.68
547.601	361.01
547.948	356.49
548.294	453.66
548.64	376.83
548.986	374.57
549.332	399.42
549.678	383.61
550.025	333.89
550.371	367.79
550.717	446.88
551.062	331.63
551.408	422.02
551.754	338.41
552.1	415.24
552.446	381.35
552.792	449.14
553.137	363.27
553.483	399.42
553.828	379.09
554.174	385.87
554.52	374.57
554.865	333.89
555.211	381.35
555.556	406.2
555.901	440.1
556.247	415.24
556.592	433.32
556.937	440.1
557.282	426.54
557.628	392.65
557.973	309.03
558.318	329.37
558.663	331.63
559.008	349.71
559.353	347.45
559.698	455.92
560.043	401.68
560.388	394.9
560.732	397.16
561.077	437.84
561.422	385.87
561.766	388.13
562.111	349.71
562.456	422.02
562.8	358.75
563.145	379.09
563.489	356.49
563.834	385.87
564.178	365.53
564.523	415.24
564.867	417.5
565.211	385.87
565.555	406.2
565.9	394.9
566.244	370.05
566.588	451.4
566.932	399.42
567.276	399.42
567.62	431.06
567.964	347.45
568.308	390.39
568.652	390.39
568.996	365.53
569.339	437.84
569.683	419.76
570.027	329.37
570.371	426.54
570.714	374.57
571.058	374.57
571.401	383.61
571.745	372.31
572.088	370.05
572.432	417.5
572.775	433.32
573.118	376.83
573.462	363.27
573.805	365.53
574.148	390.39
574.491	376.83
574.835	363.27
575.178	390.39
575.521	367.79
575.864	428.8
576.207	383.61
576.55	345.19
576.892	342.93
577.235	392.65
577.578	311.29
577.921	342.93
578.264	322.59
578.606	318.07
578.949	275.13
579.292	408.46
579.634	340.67
579.977	412.98
580.319	406.2
580.662	376.83
581.004	342.93
581.346	365.53
581.689	403.94
582.031	399.42
582.373	403.94
582.715	342.93
583.057	399.42
583.4	342.93
583.742	361.01
584.084	340.67
584.426	356.49
584.768	336.15
585.109	322.59
585.451	322.59
585.793	322.59
586.135	397.16
586.477	302.25
586.818	338.41
587.16	313.55
587.502	347.45
587.843	342.93
588.185	363.27
588.526	333.89
588.868	374.57
589.209	363.27
589.55	354.23
589.892	374.57
590.233	315.81
590.574	329.37
590.915	333.89
591.257	347.45
591.598	259.32
591.939	363.27
592.28	320.33
592.621	345.19
592.962	361.01
593.303	299.99
593.643	365.53
593.984	403.94
594.325	370.05
594.666	358.75
595.006	295.47
595.347	329.37
595.688	324.85
596.028	345.19
596.369	272.87
596.709	363.27
597.05	408.46
597.39	401.68
597.73	295.47
598.071	279.65
598.411	347.45
598.751	320.33
599.091	284.17
599.431	327.11
599.772	288.69
600.112	311.29
600.452	322.59
600.792	259.32
601.132	320.33
601.471	358.75
601.811	318.07
602.151	286.43
602.491	315.81
602.831	401.68
603.17	361.01
603.51	388.13
603.849	370.05
604.189	349.71
604.528	297.73
604.868	394.9
605.207	347.45
605.547	383.61
605.886	302.25
606.225	315.81
606.565	349.71
606.904	336.15
607.243	338.41
607.582	347.45
607.921	324.85
608.26	358.75
608.599	270.61
608.938	390.39
609.277	333.89
609.616	356.49
609.955	342.93
610.293	304.51
610.632	322.59
610.971	284.17
611.309	347.45
611.648	311.29
611.987	354.23
612.325	333.89
612.664	270.61
613.002	351.97
613.34	304.51
613.679	324.85
614.017	293.21
614.355	318.07
614.694	354.23
615.032	333.89
615.37	320.33
615.708	336.15
616.046	347.45
616.384	286.43
616.722	306.77
617.06	295.47
617.398	295.47
617.736	315.81
618.073	288.69
618.411	272.87
618.749	315.81
619.086	333.89
619.424	379.09
619.762	324.85
620.099	347.45
620.437	399.42
620.774	311.29
621.112	309.03
621.449	297.73
621.786	295.47
622.123	349.71
622.461	349.71
622.798	248.02
623.135	315.81
623.472	297.73
623.809	270.61
624.146	320.33
624.483	363.27
624.82	277.39
625.157	336.15
625.494	333.89
625.83	351.97
626.167	218.64
626.504	284.17
626.841	388.13
627.177	329.37
627.514	333.89
627.85	268.35
628.187	290.95
628.523	297.73
628.86	288.69
629.196	331.63
629.532	342.93
629.869	320.33
630.205	311.29
630.541	363.27
630.877	345.19
631.213	311.29
631.549	275.13
631.885	286.43
632.221	290.95
632.557	354.23
632.893	354.23
633.229	372.31
633.564	279.65
633.9	263.83
634.236	333.89
634.572	329.37
634.907	290.95
635.243	315.81
635.578	311.29
635.914	295.47
636.249	336.15
636.585	225.42
636.92	238.98
637.255	272.87
637.59	351.97
637.926	306.77
638.261	281.91
638.596	266.09
638.931	254.8
639.266	331.63
639.601	288.69
639.936	248.02
640.271	286.43
640.606	318.07
640.94	315.81
641.275	324.85
641.61	281.91
641.945	347.45
642.279	293.21
642.614	322.59
642.948	299.99
643.283	320.33
643.617	288.69
643.952	370.05
644.286	257.06
644.62	281.91
644.955	234.46
645.289	318.07
645.623	347.45
645.957	248.02
646.291	241.24
646.625	336.15
646.959	304.51
647.293	288.69
647.627	299.99
647.961	293.21
648.295	340.67
648.629	272.87
648.962	327.11
649.296	275.13
649.63	220.9
649.963	315.81
650.297	257.06
650.63	338.41
650.964	311.29
651.297	356.49
651.631	286.43
651.964	299.99
652.297	266.09
652.631	322.59
652.964	295.47
653.297	266.09
653.63	309.03
653.963	270.61
654.296	313.55
654.629	331.63
654.962	259.32
655.295	293.21
655.628	270.61
655.961	320.33
656.293	302.25
656.626	304.51
656.959	266.09
657.291	327.11
657.624	295.47
657.956	284.17
658.289	270.61
658.621	232.2
658.954	318.07
659.286	295.47
659.618	243.5
659.95	263.83
660.283	309.03
660.615	254.8
660.947	295.47
661.279	216.38
661.611	261.58
661.943	272.87
662.275	345.19
662.607	365.53
662.939	266.09
663.27	216.38
663.602	245.76
663.934	304.51
664.266	236.72
664.597	261.58
664.929	342.93
665.26	379.09
665.592	286.43
665.923	333.89
666.255	234.46
666.586	299.99
666.917	275.13
667.248	304.51
667.58	363.27
667.911	232.2
668.242	257.06
668.573	327.11
668.904	318.07
669.235	234.46
669.566	284.17
669.897	349.71
670.228	309.03
670.558	336.15
670.889	302.25
671.22	254.8
671.551	284.17
671.881	295.47
672.212	266.09
672.542	327.11
672.873	272.87
673.203	284.17
673.533	277.39
673.864	254.8
674.194	261.58
674.524	297.73
674.855	302.25
675.185	293.21
675.515	309.03
675.845	302.25
676.175	252.54
676.505	254.8
676.835	286.43
677.165	309.03
677.494	295.47
677.824	288.69
678.154	272.87
678.484	266.09
678.813	281.91
679.143	297.73
679.472	277.39
679.802	243.5
680.131	281.91
680.461	329.37
680.79	187
681.119	261.58
681.449	257.06
681.778	252.54
682.107	304.51
682.436	347.45
682.765	284.17
683.094	272.87
683.423	266.09
683.752	277.39
684.081	266.09
684.41	277.39
684.739	286.43
685.067	268.35
685.396	266.09
685.725	361.01
686.053	270.61
686.382	252.54
686.711	293.21
687.039	304.51
687.367	290.95
687.696	241.24
688.024	290.95
688.352	241.24
688.681	315.81
689.009	257.06
689.337	270.61
689.665	252.54
689.993	302.25
690.321	290.95
690.649	297.73
690.977	331.63
691.305	336.15
691.633	275.13
691.961	266.09
692.288	234.46
692.616	297.73
692.944	290.95
693.271	263.83
693.599	313.55
693.926	270.61
694.254	263.83
694.581	259.32
694.908	252.54
695.236	290.95
695.563	304.51
695.89	286.43
696.217	281.91
696.544	272.87
696.871	315.81
697.198	281.91
697.525	261.58
697.852	275.13
698.179	318.07
698.506	315.81
698.833	351.97
699.16	329.37
699.486	259.32
699.813	295.47
700.139	250.28
700.466	275.13
700.793	225.42
701.119	284.17
701.445	299.99
701.772	227.68
702.098	295.47
702.424	259.32
702.75	304.51
703.077	263.83
703.403	304.51
703.729	232.2
704.055	272.87
704.381	211.86
704.707	279.65
705.033	245.76
705.358	327.11
705.684	229.94
706.01	257.06
706.336	331.63
706.661	311.29
706.987	243.5
707.312	211.86
707.638	358.75
707.963	272.87
708.289	299.99
708.614	259.32
708.939	205.08
709.265	223.16
709.59	279.65
709.915	309.03
710.24	268.35
710.565	315.81
710.89	275.13
711.215	277.39
711.54	270.61
711.865	302.25
712.19	286.43
712.515	275.13
712.839	248.02
713.164	320.33
713.489	286.43
713.813	266.09
714.138	318.07
714.462	309.03
714.787	290.95
715.111	347.45
715.435	223.16
715.76	263.83
716.084	207.34
716.408	284.17
716.732	277.39
717.056	293.21
717.381	295.47
717.705	313.55
718.028	250.28
718.352	263.83
718.676	254.8
719	279.65
719.324	214.12
719.648	288.69
719.971	302.25
720.295	286.43
720.618	220.9
720.942	268.35
721.265	324.85
721.589	275.13
721.912	248.02
722.236	220.9
722.559	320.33
722.882	257.06
723.205	286.43
723.528	270.61
723.851	288.69
724.174	293.21
724.497	263.83
724.82	270.61
725.143	290.95
725.466	293.21
725.789	288.69
726.112	304.51
726.434	261.58
726.757	261.58
727.08	279.65
727.402	311.29
727.725	220.9
728.047	254.8
728.37	277.39
728.692	309.03
729.014	259.32
729.336	257.06
729.659	311.29
729.981	254.8
730.303	295.47
730.625	266.09
730.947	270.61
731.269	263.83
731.591	306.77
731.913	259.32
732.235	309.03
732.556	349.71
732.878	318.07
733.2	268.35
733.521	327.11
733.843	277.39
734.164	284.17
734.486	286.43
734.807	318.07
735.129	329.37
735.45	284.17
735.771	229.94
736.092	229.94
736.414	297.73
736.735	277.39
737.056	315.81
737.377	340.67
737.698	311.29
738.019	286.43
738.34	297.73
738.66	333.89
738.981	306.77
739.302	268.35
739.623	288.69
739.943	270.61
740.264	229.94
740.584	284.17
740.905	232.2
741.225	295.47
741.546	277.39
741.866	297.73
742.186	302.25
742.507	272.87
742.827	270.61
743.147	261.58
743.467	322.59
743.787	284.17
744.107	257.06
744.427	257.06
744.747	331.63
745.067	290.95
745.386	234.46
745.706	293.21
746.026	268.35
746.346	340.67
746.665	297.73
746.985	309.03
747.304	279.65
747.624	290.95
747.943	293.21
748.262	250.28
748.582	254.8
748.901	275.13
749.22	248.02
749.539	266.09
749.858	277.39
750.177	266.09
750.496	225.42
750.815	211.86
751.134	290.95
751.453	295.47
751.772	252.54
752.09	238.98
752.409	288.69
752.728	315.81
753.046	238.98
753.365	270.61
753.683	236.72
754.002	302.25
754.32	261.58
754.639	250.28
754.957	243.5
755.275	290.95
755.593	236.72
755.911	281.91
756.23	327.11
756.548	268.35
756.866	272.87
757.183	227.68
757.501	277.39
757.819	284.17
758.137	270.61
758.455	295.47
758.772	288.69
759.09	311.29
759.408	286.43
759.725	261.58
760.043	286.43
760.36	295.47
760.677	295.47
760.995	315.81
761.312	309.03
761.629	327.11
761.946	320.33
762.264	250.28
762.581	229.94
762.898	333.89
763.215	351.97
763.532	236.72
763.848	229.94
764.165	290.95
764.482	304.51
764.799	238.98
765.115	347.45
765.432	347.45
765.749	254.8
766.065	238.98
766.382	270.61
766.698	324.85
767.014	263.83
767.331	277.39
767.647	257.06
767.963	279.65
768.279	257.06
768.595	311.29
768.911	245.76
769.227	225.42
769.543	263.83
769.859	245.76
770.175	313.55
770.491	275.13
770.807	238.98
771.122	279.65
771.438	243.5
771.754	252.54
772.069	263.83
772.385	229.94
772.7	277.39
773.016	234.46
773.331	293.21
773.646	254.8
773.961	315.81
774.277	270.61
774.592	311.29
774.907	304.51
775.222	225.42
775.537	288.69
775.852	270.61
776.167	286.43
776.482	275.13
776.796	297.73
777.111	284.17
777.426	281.91
777.74	270.61
778.055	263.83
778.369	288.69
778.684	272.87
778.998	257.06
779.313	229.94
779.627	270.61
779.941	351.97
780.255	293.21
780.57	266.09
780.884	345.19
781.198	333.89
781.512	275.13
781.826	270.61
782.14	293.21
782.453	259.32
782.767	279.65
783.081	286.43
783.395	309.03
783.708	304.51
784.022	295.47
784.335	281.91
784.649	279.65
784.962	175.7
785.276	245.76
785.589	248.02
785.902	315.81
786.216	277.39
786.529	286.43
786.842	302.25
787.155	272.87
787.468	320.33
787.781	238.98
788.094	223.16
788.407	313.55
788.72	259.32
789.032	297.73
789.345	241.24
789.658	238.98
789.97	252.54
790.283	277.39
790.595	211.86
790.908	268.35
791.22	257.06
791.532	266.09
791.845	229.94
792.157	322.59
792.469	320.33
792.781	295.47
793.093	272.87
793.405	263.83
793.717	288.69
794.029	331.63
794.341	257.06
794.653	293.21
794.965	293.21
795.276	272.87
795.588	279.65
795.9	347.45
796.211	293.21
796.523	270.61
796.834	279.65
797.146	309.03
797.457	245.76
797.768	290.95
798.08	288.69
798.391	270.61
798.702	252.54
799.013	241.24
799.324	313.55
799.635	238.98
799.946	306.77
800.257	309.03
800.568	227.68
800.878	315.81
801.189	290.95
801.5	243.5
801.81	290.95
802.121	252.54
802.431	306.77
802.742	297.73
803.052	286.43
803.363	277.39
803.673	279.65
803.983	261.58
804.293	263.83
804.603	277.39
804.913	248.02
805.224	227.68
805.533	358.75
805.843	313.55
806.153	232.2
806.463	254.8
806.773	211.86
807.083	286.43
807.392	229.94
807.702	220.9
808.011	275.13
808.321	243.5
808.63	272.87
808.94	223.16
809.249	214.12
809.558	315.81
809.868	266.09
810.177	275.13
810.486	275.13
810.795	257.06
811.104	263.83
811.413	306.77
811.722	261.58
812.031	345.19
812.339	257.06
812.648	248.02
812.957	196.04
813.266	297.73
813.574	293.21
813.883	234.46
814.191	309.03
814.5	345.19
814.808	275.13
815.116	263.83
815.424	293.21
815.733	313.55
816.041	211.86
816.349	295.47
816.657	261.58
816.965	275.13
817.273	284.17
817.581	311.29
817.889	200.56
818.196	252.54
818.504	243.5
818.812	252.54
819.12	306.77
819.427	241.24
819.735	259.32
820.042	234.46
820.349	333.89
820.657	295.47
820.964	281.91
821.271	216.38
821.579	272.87
821.886	234.46
822.193	214.12
822.5	268.35
822.807	279.65
823.114	304.51
823.421	263.83
823.727	266.09
824.034	259.32
824.341	270.61
824.648	254.8
824.954	263.83
825.261	254.8
825.567	266.09
825.874	293.21
826.18	254.8
826.486	284.17
826.793	311.29
827.099	248.02
827.405	193.78
827.711	306.77
828.017	241.24
828.323	275.13
828.629	214.12
828.935	275.13
829.241	254.8
829.547	243.5
829.852	275.13
830.158	257.06
830.464	248.02
830.769	302.25
831.075	299.99
831.38	277.39
831.686	263.83
831.991	234.46
832.296	216.38
832.601	270.61
832.907	318.07
833.212	263.83
833.517	327.11
833.822	275.13
834.127	214.12
834.432	243.5
834.737	214.12
835.041	315.81
835.346	248.02
835.651	254.8
835.956	370.05
836.26	356.49
836.565	236.72
836.869	248.02
837.174	263.83
837.478	270.61
837.782	243.5
838.087	205.08
838.391	270.61
838.695	229.94
838.999	266.09
839.303	261.58
839.607	268.35
839.911	243.5
840.215	302.25
840.519	207.34
840.822	234.46
841.126	288.69
841.43	263.83
841.733	297.73
842.037	236.72
842.34	252.54
842.644	252.54
842.947	288.69
843.251	281.91
843.554	290.95
843.857	290.95
844.16	205.08
844.463	318.07
844.766	236.72
845.069	252.54
845.372	211.86
845.675	290.95
845.978	311.29
846.281	268.35
846.583	243.5
846.886	243.5
847.189	281.91
847.491	295.47
847.794	277.39
848.096	252.54
848.399	322.59
848.701	288.69
849.003	245.76
849.305	243.5
849.608	234.46
849.91	266.09
850.212	259.32
850.514	324.85
850.816	340.67
851.118	248.02
851.419	284.17
851.721	281.91
852.023	347.45
852.325	288.69
852.626	250.28
852.928	207.34
853.229	266.09
853.531	261.58
853.832	281.91
854.133	311.29
854.435	173.44
854.736	263.83
855.037	288.69
855.338	236.72
855.639	295.47
855.94	288.69
856.241	250.28
856.542	275.13
856.843	302.25
857.144	232.2
857.444	218.64
857.745	261.58
858.046	234.46
858.346	268.35
858.647	277.39
858.947	281.91
859.247	236.72
859.548	293.21
859.848	254.8
860.148	302.25
860.448	259.32
860.749	227.68
861.049	288.69
861.349	281.91
861.648	266.09
861.948	297.73
862.248	284.17
862.548	315.81
862.848	295.47
863.147	266.09
863.447	225.42
863.746	220.9
864.046	299.99
864.345	293.21
864.645	290.95
864.944	225.42
865.243	304.51
865.542	322.59
865.842	277.39
866.141	261.58
866.44	216.38
866.739	238.98
867.038	336.15
867.337	257.06
867.635	299.99
867.934	286.43
868.233	254.8
868.531	234.46
868.83	232.2
869.129	266.09
869.427	284.17
869.725	200.56
870.024	254.8
870.322	327.11
870.62	313.55
870.918	329.37
871.217	295.47
871.515	196.04
871.813	266.09
872.111	304.51
872.409	259.32
872.706	333.89
873.004	279.65
873.302	198.3
873.6	261.58
873.897	216.38
874.195	286.43
874.492	243.5
874.79	254.8
875.087	259.32
875.384	293.21
875.682	270.61
875.979	320.33
876.276	281.91
876.573	304.51
876.87	304.51
877.167	304.51
