Data from PL_2polymer_F8BT_MEHPPV_USB2H096331_0293.txt Node
Date: Tue Dec 15 16:08:21 CET 2020
User: spadmin
Spectrometer: USB2+H09633
Trigger mode: 0
Integration Time (sec): 1.000000E-2
Scans to average: 1
Electric dark correction enabled: true
Nonlinearity correction enabled: false
Boxcar width: 0
XAxis mode: Wavelengths
Number of Pixels in Spectrum: 2048
>>>>>Begin Spectral Data<<<<<
174.027	-87.43
174.405	-87.43
174.783	-87.43
175.162	-119.06
175.54	-107.77
175.918	-103.25
176.296	-46.75
176.674	-191.38
177.052	-89.69
177.43	-80.65
177.808	9.75
178.186	-33.19
178.564	-119.06
178.942	-3.81
179.32	16.52
179.698	-28.67
180.076	23.3
180.453	41.38
180.831	97.88
181.209	97.88
181.587	147.59
181.965	158.89
182.342	113.7
182.72	152.11
183.098	213.13
183.475	289.96
183.853	235.73
184.231	251.55
184.608	217.65
184.986	278.66
185.363	269.63
185.741	269.63
186.118	269.63
186.496	321.6
186.873	289.96
187.251	355.5
187.628	332.9
188.006	280.92
188.383	283.18
188.76	360.02
189.138	301.26
189.515	339.68
189.892	364.54
190.27	332.9
190.647	344.2
191.024	357.76
191.401	299
191.778	326.12
192.155	326.12
192.533	285.44
192.91	364.54
193.287	326.12
193.664	253.81
194.041	283.18
194.418	346.46
194.795	353.24
195.172	294.48
195.549	360.02
195.926	326.12
196.302	366.8
196.679	332.9
197.056	312.56
197.433	387.14
197.81	321.6
198.187	323.86
198.563	344.2
198.94	283.18
199.317	350.98
199.693	296.74
200.07	258.33
200.447	292.22
200.823	305.78
201.2	328.38
201.576	319.34
201.953	289.96
202.329	271.89
202.706	260.59
203.082	330.64
203.459	337.42
203.835	299
204.212	328.38
204.588	299
204.964	249.29
205.341	396.18
205.717	332.9
206.093	330.64
206.469	249.29
206.846	310.3
207.222	330.64
207.598	294.48
207.974	319.34
208.35	285.44
208.726	373.58
209.102	344.2
209.479	285.44
209.855	348.72
210.231	321.6
210.607	276.41
210.982	314.82
211.358	303.52
211.734	323.86
212.11	339.68
212.486	303.52
212.862	380.36
213.238	303.52
213.614	366.8
213.989	308.04
214.365	308.04
214.741	292.22
215.116	330.64
215.492	330.64
215.868	337.42
216.243	346.46
216.619	341.94
216.995	271.89
217.37	330.64
217.746	335.16
218.121	346.46
218.497	285.44
218.872	317.08
219.247	371.32
219.623	362.28
219.998	421.03
220.374	344.2
220.749	326.12
221.124	303.52
221.499	323.86
221.875	364.54
222.25	346.46
222.625	310.3
223	346.46
223.376	289.96
223.751	308.04
224.126	285.44
224.501	269.63
224.876	317.08
225.251	344.2
225.626	346.46
226.001	366.8
226.376	350.98
226.751	328.38
227.126	364.54
227.501	314.82
227.875	373.58
228.25	405.22
228.625	276.41
229	357.76
229.375	321.6
229.749	402.96
230.124	355.5
230.499	411.99
230.873	330.64
231.248	344.2
231.623	416.51
231.997	382.62
232.372	339.68
232.746	328.38
233.121	364.54
233.495	314.82
233.87	378.1
234.244	332.9
234.619	387.14
234.993	369.06
235.367	299
235.742	312.56
236.116	305.78
236.49	400.7
236.865	380.36
237.239	378.1
237.613	364.54
237.987	346.46
238.361	289.96
238.736	294.48
239.11	416.51
239.484	326.12
239.858	398.44
240.232	380.36
240.606	332.9
240.98	373.58
241.354	384.88
241.728	328.38
242.102	335.16
242.475	409.73
242.849	335.16
243.223	364.54
243.597	375.84
243.971	373.58
244.344	387.14
244.718	348.72
245.092	369.06
245.466	348.72
245.839	364.54
246.213	312.56
246.586	362.28
246.96	335.16
247.334	378.1
247.707	393.92
248.081	323.86
248.454	348.72
248.828	339.68
249.201	382.62
249.574	294.48
249.948	387.14
250.321	357.76
250.694	357.76
251.068	418.77
251.441	418.77
251.814	371.32
252.187	321.6
252.561	348.72
252.934	384.88
253.307	416.51
253.68	389.4
254.053	366.8
254.426	357.76
254.799	371.32
255.172	339.68
255.545	400.7
255.918	357.76
256.291	378.1
256.664	380.36
257.037	341.94
257.41	339.68
257.782	430.07
258.155	371.32
258.528	305.78
258.901	400.7
259.273	387.14
259.646	389.4
260.019	409.73
260.391	371.32
260.764	353.24
261.137	391.66
261.509	466.23
261.882	389.4
262.254	314.82
262.627	398.44
262.999	391.66
263.372	434.59
263.744	362.28
264.116	360.02
264.489	405.22
264.861	389.4
265.233	330.64
265.606	416.51
265.978	341.94
266.35	328.38
266.722	348.72
267.094	411.99
267.467	371.32
267.839	400.7
268.211	353.24
268.583	319.34
268.955	339.68
269.327	484.31
269.699	310.3
270.071	389.4
270.443	387.14
270.815	292.22
271.186	341.94
271.558	378.1
271.93	432.33
272.302	339.68
272.674	380.36
273.045	391.66
273.417	445.89
273.789	355.5
274.16	373.58
274.532	445.89
274.904	382.62
275.275	427.81
275.647	396.18
276.018	396.18
276.39	436.85
276.761	466.23
277.133	421.03
277.504	396.18
277.875	369.06
278.247	384.88
278.618	350.98
278.989	427.81
279.361	502.39
279.732	416.51
280.103	441.37
280.474	382.62
280.846	479.79
281.217	461.71
281.588	393.92
281.959	423.29
282.33	362.28
282.701	314.82
283.072	423.29
283.443	360.02
283.814	405.22
284.185	414.25
284.556	486.57
284.927	371.32
285.297	423.29
285.668	497.87
286.039	477.53
286.41	423.29
286.781	364.54
287.151	479.79
287.522	396.18
287.893	441.37
288.263	411.99
288.634	439.11
289.004	452.67
289.375	348.72
289.745	400.7
290.116	470.75
290.486	432.33
290.857	409.73
291.227	387.14
291.598	405.22
291.968	470.75
292.338	434.59
292.709	373.58
293.079	421.03
293.449	457.19
293.819	457.19
294.189	443.63
294.56	398.44
294.93	434.59
295.3	391.66
295.67	430.07
296.04	461.71
296.41	461.71
296.78	402.96
297.15	423.29
297.52	441.37
297.89	452.67
298.259	378.1
298.629	373.58
298.999	463.97
299.369	473.01
299.739	479.79
300.108	400.7
300.478	411.99
300.848	475.27
301.217	484.31
301.587	425.55
301.957	445.89
302.326	441.37
302.696	425.55
303.065	448.15
303.435	463.97
303.804	518.21
304.174	466.23
304.543	515.95
304.912	482.05
305.282	457.19
305.651	482.05
306.02	425.55
306.39	531.77
306.759	470.75
307.128	491.09
307.497	436.85
307.866	473.01
308.235	470.75
308.604	486.57
308.974	513.69
309.343	461.71
309.712	463.97
310.08	500.13
310.449	506.91
310.818	515.95
311.187	515.95
311.556	495.61
311.925	500.13
312.294	430.07
312.662	441.37
313.031	477.53
313.4	513.69
313.769	414.25
314.137	497.87
314.506	475.27
314.874	443.63
315.243	488.83
315.612	491.09
315.98	509.17
316.349	540.8
316.717	504.65
317.085	491.09
317.454	529.51
317.822	486.57
318.191	411.99
318.559	504.65
318.927	500.13
319.295	477.53
319.664	470.75
320.032	477.53
320.4	547.58
320.768	495.61
321.136	477.53
321.504	475.27
321.872	491.09
322.24	486.57
322.608	547.58
322.976	504.65
323.344	518.21
323.712	454.93
324.08	565.66
324.448	538.55
324.816	452.67
325.183	391.66
325.551	432.33
325.919	536.29
326.287	502.39
326.654	488.83
327.022	495.61
327.389	524.99
327.757	497.87
328.125	502.39
328.492	570.18
328.86	524.99
329.227	552.1
329.594	563.4
329.962	561.14
330.329	549.84
330.697	543.06
331.064	531.77
331.431	520.47
331.798	588.26
332.166	549.84
332.533	637.98
332.9	513.69
333.267	543.06
333.634	524.99
334.001	524.99
334.368	443.63
334.735	558.88
335.102	628.94
335.469	626.68
335.836	552.1
336.203	572.44
336.57	524.99
336.937	601.82
337.304	622.16
337.67	543.06
338.037	581.48
338.404	576.96
338.771	606.34
339.137	563.4
339.504	549.84
339.87	590.52
340.237	586
340.604	597.3
340.97	549.84
341.337	586
341.703	619.9
342.069	628.94
342.436	626.68
342.802	597.3
343.169	588.26
343.535	604.08
343.901	588.26
344.267	628.94
344.634	644.76
345	633.46
345.366	644.76
345.732	601.82
346.098	642.5
346.464	590.52
346.83	687.69
347.196	576.96
347.562	656.06
347.928	617.64
348.294	658.32
348.66	685.43
349.026	653.8
349.392	586
349.757	696.73
350.123	660.58
350.489	626.68
350.855	626.68
351.22	739.67
351.586	676.39
351.951	735.15
352.317	712.55
352.683	662.84
353.048	631.2
353.414	721.59
353.779	692.21
354.144	694.47
354.51	732.89
354.875	726.11
355.24	685.43
355.606	696.73
355.971	746.45
356.336	703.51
356.701	753.23
357.067	760.01
357.432	746.45
357.797	689.95
358.162	721.59
358.527	680.91
358.892	746.45
359.257	757.75
359.622	773.57
359.987	830.06
360.352	848.14
360.717	764.53
361.082	827.8
361.446	857.18
361.811	879.78
362.176	859.44
362.541	852.66
362.905	934.01
363.27	845.88
363.635	893.34
363.999	906.9
364.364	988.25
364.728	956.61
365.093	934.01
365.457	1037.97
365.822	945.31
366.186	979.21
366.55	1024.41
366.915	915.94
367.279	1022.15
367.643	1094.46
368.008	1019.89
368.372	1058.31
368.736	1019.89
369.1	1074.12
369.464	1033.45
369.828	1108.02
370.192	1040.23
370.556	1114.8
370.92	1160
371.284	1160
371.648	1295.59
372.012	1236.83
372.376	1318.19
372.74	1252.65
373.104	1370.16
373.468	1399.54
373.831	1383.72
374.195	1503.49
374.559	1478.63
374.922	1578.07
375.286	1557.73
375.65	1607.44
376.013	1659.42
376.377	1743.03
376.74	1801.79
377.104	1876.36
377.467	1989.35
377.83	2041.33
378.194	2192.74
378.557	2298.95
378.92	2545.27
379.284	2538.49
379.647	2635.67
380.01	2850.35
380.373	2922.66
380.736	3080.85
381.1	3562.19
381.463	3654.85
381.826	4023.2
382.189	4224.32
382.552	4640.13
382.915	5017.52
383.278	5248.03
383.64	5939.53
384.003	6371.16
384.366	6875.1
384.729	7397.12
385.092	7975.64
385.454	8567.71
385.817	9530.4
386.18	10526.98
386.542	11661.42
386.905	12721.28
387.268	13862.49
387.63	15557.36
387.993	16576.54
388.355	18397.96
388.718	19973.06
389.08	21557.2
389.442	23633.98
389.805	25925.45
390.167	27663.26
390.529	30910.63
390.892	34137.66
391.254	36388.45
391.616	38894.6
391.978	42889.97
392.34	47493.24
392.702	48925.97
393.064	52055.83
393.426	54503.23
393.788	56186.8
394.15	57795.8
394.512	59585.58
394.874	61217.18
395.236	63117.69
395.598	64832.9
395.96	65058.88
396.321	65058.88
396.683	65058.88
397.045	65058.88
397.406	65058.88
397.768	65058.88
398.13	65058.88
398.491	65058.88
398.853	65058.88
399.214	65058.88
399.576	65058.88
399.937	65058.88
400.299	65058.88
400.66	65058.88
401.021	65058.88
401.383	65058.88
401.744	65058.88
402.105	65058.88
402.466	65058.88
402.827	65058.88
403.189	65058.88
403.55	65058.88
403.911	65058.88
404.272	65058.88
404.633	65058.88
404.994	65058.88
405.355	65058.88
405.716	65058.88
406.077	65058.88
406.437	65058.88
406.798	65058.88
407.159	65058.88
407.52	65058.88
407.88	65058.88
408.241	65058.88
408.602	65058.88
408.962	65058.88
409.323	65058.88
409.684	65058.88
410.044	65058.88
410.405	65058.88
410.765	65058.88
411.125	65058.88
411.486	65058.88
411.846	65058.88
412.206	65058.88
412.567	65058.88
412.927	65058.88
413.287	65058.88
413.647	65058.88
414.007	65058.88
414.368	65058.88
414.728	65058.88
415.088	65058.88
415.448	65058.88
415.808	65058.88
416.168	65058.88
416.528	65058.88
416.887	65058.88
417.247	65058.88
417.607	65058.88
417.967	65058.88
418.327	65058.88
418.686	65058.88
419.046	65058.88
419.406	65058.88
419.765	65058.88
420.125	65058.88
420.484	65058.88
420.844	65058.88
421.203	65058.88
421.563	64968.49
421.922	64706.35
422.282	63016
422.641	61321.13
423	60195.73
423.36	59237.57
423.719	57502.02
424.078	55398.12
424.437	53585.74
424.796	52021.94
425.155	50602.77
425.515	48184.75
425.874	46955.4
426.233	42675.29
426.592	40438.06
426.95	39599.66
427.309	37242.66
427.668	36327.43
428.027	33082.32
428.386	32784.02
428.745	29444
429.103	28004.49
429.462	26946.89
429.821	24702.88
430.179	23839.63
430.538	23046.43
430.897	21891.66
431.255	20858.91
431.614	19697.36
431.972	18872.53
432.33	17943.74
432.689	18002.49
433.047	16895.18
433.405	15744.92
433.764	14963.02
434.122	14420.67
434.48	13930.28
434.838	13238.78
435.197	12949.52
435.555	12271.57
435.913	11733.73
436.271	11100.98
436.629	10673.87
436.987	10343.94
437.345	9699.89
437.703	9449.05
438.061	8911.21
438.418	8273.93
438.776	7998.24
439.134	7914.62
439.492	7483
439.849	7110.12
440.207	6549.69
440.565	6646.86
440.922	6111.28
441.28	5824.28
441.637	5661.57
441.995	5437.85
442.352	5225.43
442.71	4834.48
443.067	4800.58
443.425	4585.9
443.782	4432.23
444.139	4389.29
444.496	4142.97
444.854	4068.4
445.211	3916.99
445.568	3783.66
445.925	3609.65
446.282	3483.1
446.639	3311.35
446.996	3327.17
447.353	3281.98
447.71	3227.74
448.067	3227.74
448.424	2909.1
448.781	2927.18
449.137	2703.46
449.494	2762.22
449.851	2646.96
450.208	2445.84
450.564	2475.22
450.921	2249.23
451.278	2154.32
451.634	2274.09
451.991	2183.7
452.347	2181.44
452.704	2138.5
453.06	1928.34
453.416	1912.52
453.773	1853.76
454.129	1781.45
454.485	1736.25
454.841	1634.56
455.198	1650.38
455.554	1485.41
455.91	1492.19
456.266	1573.55
456.622	1485.41
456.978	1476.37
457.334	1390.5
457.69	1282.03
458.046	1277.51
458.402	1284.29
458.758	1205.19
459.114	1164.52
459.469	1180.34
459.825	1067.34
460.181	1105.76
460.536	1141.92
460.892	1108.02
461.248	988.25
461.603	1004.07
461.959	981.47
462.314	965.65
462.67	931.76
463.025	936.27
463.38	886.56
463.736	929.5
464.091	861.7
464.446	909.16
464.802	861.7
465.157	895.6
465.512	816.5
465.867	861.7
466.222	821.02
466.577	830.06
466.932	814.24
467.287	789.39
467.642	782.61
467.997	877.52
468.352	748.71
468.707	685.43
469.062	760.01
469.417	757.75
469.771	692.21
470.126	746.45
470.481	705.77
470.835	687.69
471.19	764.53
471.544	717.07
471.899	680.91
472.253	619.9
472.608	633.46
472.962	653.8
473.317	730.63
473.671	608.6
474.025	644.76
474.38	671.87
474.734	703.51
475.088	599.56
475.442	651.54
475.796	626.68
476.15	714.81
476.504	658.32
476.858	669.62
477.212	599.56
477.566	669.62
477.92	608.6
478.274	613.12
478.628	547.58
478.982	536.29
479.336	597.3
479.689	631.2
480.043	567.92
480.397	540.8
480.75	576.96
481.104	567.92
481.457	601.82
481.811	590.52
482.164	581.48
482.518	637.98
482.871	524.99
483.225	527.25
483.578	586
483.931	529.51
484.284	613.12
484.638	563.4
484.991	513.69
485.344	531.77
485.697	656.06
486.05	491.09
486.403	527.25
486.756	576.96
487.109	529.51
487.462	509.17
487.815	534.03
488.168	524.99
488.52	545.32
488.873	527.25
489.226	549.84
489.579	534.03
489.931	579.22
490.284	536.29
490.637	457.19
490.989	495.61
491.342	520.47
491.694	470.75
492.047	515.95
492.399	491.09
492.751	475.27
493.104	459.45
493.456	457.19
493.808	545.32
494.16	468.49
494.513	454.93
494.865	477.53
495.217	466.23
495.569	504.65
495.921	423.29
496.273	482.05
496.625	518.21
496.977	441.37
497.329	543.06
497.68	484.31
498.032	441.37
498.384	450.41
498.736	461.71
499.087	484.31
499.439	459.45
499.791	450.41
500.142	497.87
500.494	400.7
500.845	482.05
501.197	393.92
501.548	506.91
501.9	482.05
502.251	491.09
502.602	450.41
502.954	421.03
503.305	488.83
503.656	457.19
504.007	477.53
504.358	497.87
504.709	493.35
505.061	475.27
505.412	479.79
505.763	391.66
506.113	439.11
506.464	493.35
506.815	477.53
507.166	506.91
507.517	445.89
507.868	473.01
508.218	497.87
508.569	470.75
508.92	448.15
509.27	470.75
509.621	457.19
509.971	468.49
510.322	468.49
510.672	493.35
511.023	522.73
511.373	400.7
511.723	486.57
512.074	445.89
512.424	477.53
512.774	470.75
513.124	477.53
513.475	461.71
513.825	518.21
514.175	470.75
514.525	411.99
514.875	504.65
515.225	445.89
515.575	493.35
515.924	515.95
516.274	457.19
516.624	477.53
516.974	452.67
517.324	459.45
517.673	518.21
518.023	506.91
518.373	513.69
518.722	531.77
519.072	434.59
519.421	511.43
519.771	543.06
520.12	579.22
520.469	504.65
520.819	470.75
521.168	504.65
521.517	468.49
521.867	518.21
522.216	509.17
522.565	497.87
522.914	583.74
523.263	511.43
523.612	506.91
523.961	484.31
524.31	448.15
524.659	518.21
525.008	479.79
525.357	493.35
525.705	504.65
526.054	493.35
526.403	484.31
526.752	466.23
527.1	509.17
527.449	574.7
527.797	513.69
528.146	509.17
528.495	482.05
528.843	545.32
529.191	482.05
529.54	466.23
529.888	491.09
530.236	527.25
530.585	527.25
530.933	522.73
531.281	461.71
531.629	457.19
531.977	506.91
532.325	543.06
532.673	491.09
533.021	454.93
533.369	423.29
533.717	470.75
534.065	513.69
534.413	434.59
534.761	558.88
535.108	534.03
535.456	470.75
535.804	486.57
536.151	473.01
536.499	466.23
536.847	518.21
537.194	405.22
537.542	473.01
537.889	522.73
538.236	466.23
538.584	466.23
538.931	454.93
539.278	425.55
539.626	452.67
539.973	468.49
540.32	529.51
540.667	360.02
541.014	432.33
541.361	466.23
541.708	540.8
542.055	459.45
542.402	430.07
542.749	506.91
543.096	436.85
543.443	454.93
543.789	473.01
544.136	423.29
544.483	450.41
544.83	567.92
545.176	461.71
545.523	477.53
545.869	382.62
546.216	423.29
546.562	409.73
546.909	454.93
547.255	491.09
547.601	497.87
547.948	436.85
548.294	445.89
548.64	482.05
548.986	430.07
549.332	382.62
549.678	441.37
550.025	475.27
550.371	439.11
550.717	461.71
551.062	380.36
551.408	461.71
551.754	486.57
552.1	382.62
552.446	475.27
552.792	500.13
553.137	439.11
553.483	423.29
553.828	459.45
554.174	371.32
554.52	466.23
554.865	432.33
555.211	402.96
555.556	430.07
555.901	454.93
556.247	398.44
556.592	479.79
556.937	411.99
557.282	355.5
557.628	402.96
557.973	450.41
558.318	439.11
558.663	473.01
559.008	430.07
559.353	414.25
559.698	360.02
560.043	491.09
560.388	475.27
560.732	414.25
561.077	459.45
561.422	391.66
561.766	443.63
562.111	402.96
562.456	509.17
562.8	463.97
563.145	339.68
563.489	416.51
563.834	382.62
564.178	421.03
564.523	457.19
564.867	491.09
565.211	461.71
565.555	448.15
565.9	457.19
566.244	407.48
566.588	416.51
566.932	400.7
567.276	436.85
567.62	436.85
567.964	380.36
568.308	504.65
568.652	387.14
568.996	396.18
569.339	414.25
569.683	445.89
570.027	436.85
570.371	470.75
570.714	450.41
571.058	495.61
571.401	378.1
571.745	439.11
572.088	339.68
572.432	459.45
572.775	373.58
573.118	441.37
573.462	423.29
573.805	484.31
574.148	445.89
574.491	486.57
574.835	411.99
575.178	488.83
575.521	477.53
575.864	457.19
576.207	411.99
576.55	384.88
576.892	436.85
577.235	450.41
577.578	482.05
577.921	450.41
578.264	497.87
578.606	454.93
578.949	513.69
579.292	443.63
579.634	448.15
579.977	430.07
580.319	477.53
580.662	430.07
581.004	488.83
581.346	432.33
581.689	459.45
582.031	473.01
582.373	411.99
582.715	409.73
583.057	400.7
583.4	461.71
583.742	434.59
584.084	396.18
584.426	389.4
584.768	432.33
585.109	432.33
585.451	427.81
585.793	423.29
586.135	355.5
586.477	430.07
586.818	452.67
587.16	488.83
587.502	432.33
587.843	443.63
588.185	473.01
588.526	425.55
588.868	439.11
589.209	411.99
589.55	448.15
589.892	382.62
590.233	375.84
590.574	454.93
590.915	459.45
591.257	418.77
591.598	371.32
591.939	378.1
592.28	355.5
592.621	398.44
592.962	432.33
593.303	366.8
593.643	350.98
593.984	378.1
594.325	414.25
594.666	378.1
595.006	369.06
595.347	382.62
595.688	396.18
596.028	409.73
596.369	366.8
596.709	375.84
597.05	350.98
597.39	344.2
597.73	353.24
598.071	380.36
598.411	355.5
598.751	378.1
599.091	371.32
599.431	405.22
599.772	454.93
600.112	341.94
600.452	355.5
600.792	362.28
601.132	423.29
601.471	348.72
601.811	400.7
602.151	407.48
602.491	332.9
602.831	373.58
603.17	378.1
603.51	441.37
603.849	387.14
604.189	314.82
604.528	441.37
604.868	323.86
605.207	353.24
605.547	443.63
605.886	398.44
606.225	339.68
606.565	355.5
606.904	387.14
607.243	425.55
607.582	350.98
607.921	332.9
608.26	346.46
608.599	398.44
608.938	335.16
609.277	421.03
609.616	335.16
609.955	332.9
610.293	391.66
610.632	405.22
610.971	344.2
611.309	330.64
611.648	330.64
611.987	308.04
612.325	328.38
612.664	369.06
613.002	371.32
613.34	360.02
613.679	339.68
614.017	360.02
614.355	305.78
614.694	346.46
615.032	364.54
615.37	332.9
615.708	294.48
616.046	373.58
616.384	369.06
616.722	346.46
617.06	310.3
617.398	319.34
617.736	341.94
618.073	411.99
618.411	326.12
618.749	323.86
619.086	360.02
619.424	339.68
619.762	387.14
620.099	332.9
620.437	362.28
620.774	355.5
621.112	360.02
621.449	321.6
621.786	353.24
622.123	326.12
622.461	364.54
622.798	323.86
623.135	353.24
623.472	289.96
623.809	353.24
624.146	364.54
624.483	323.86
624.82	312.56
625.157	339.68
625.494	366.8
625.83	341.94
626.167	362.28
626.504	341.94
626.841	350.98
627.177	294.48
627.514	292.22
627.85	353.24
628.187	353.24
628.523	312.56
628.86	308.04
629.196	271.89
629.532	364.54
629.869	335.16
630.205	326.12
630.541	285.44
630.877	314.82
631.213	319.34
631.549	335.16
631.885	384.88
632.221	398.44
632.557	321.6
632.893	308.04
633.229	337.42
633.564	425.55
633.9	312.56
634.236	326.12
634.572	233.47
634.907	350.98
635.243	317.08
635.578	308.04
635.914	287.7
636.249	382.62
636.585	330.64
636.92	283.18
637.255	346.46
637.59	335.16
637.926	346.46
638.261	280.92
638.596	283.18
638.931	362.28
639.266	314.82
639.601	296.74
639.936	366.8
640.271	337.42
640.606	335.16
640.94	339.68
641.275	382.62
641.61	364.54
641.945	330.64
642.279	339.68
642.614	337.42
642.948	303.52
643.283	339.68
643.617	301.26
643.952	305.78
644.286	312.56
644.62	312.56
644.955	303.52
645.289	373.58
645.623	317.08
645.957	350.98
646.291	326.12
646.625	355.5
646.959	296.74
647.293	265.11
647.627	335.16
647.961	312.56
648.295	258.33
648.629	326.12
648.962	321.6
649.296	312.56
649.63	353.24
649.963	332.9
650.297	312.56
650.63	289.96
650.964	323.86
651.297	323.86
651.631	328.38
651.964	337.42
652.297	326.12
652.631	332.9
652.964	355.5
653.297	337.42
653.63	296.74
653.963	292.22
654.296	323.86
654.629	280.92
654.962	314.82
655.295	296.74
655.628	267.37
655.961	210.87
656.293	305.78
656.626	305.78
656.959	308.04
657.291	303.52
657.624	310.3
657.956	267.37
658.289	247.03
658.621	323.86
658.954	353.24
659.286	371.32
659.618	269.63
659.95	222.17
660.283	271.89
660.615	253.81
660.947	249.29
661.279	271.89
661.611	276.41
661.943	314.82
662.275	285.44
662.607	303.52
662.939	314.82
663.27	260.59
663.602	242.51
663.934	274.15
664.266	217.65
664.597	289.96
664.929	260.59
665.26	305.78
665.592	251.55
665.923	247.03
666.255	310.3
666.586	233.47
666.917	319.34
667.248	296.74
667.58	314.82
667.911	283.18
668.242	242.51
668.573	274.15
668.904	375.84
669.235	292.22
669.566	278.66
669.897	332.9
670.228	323.86
670.558	305.78
670.889	267.37
671.22	280.92
671.551	323.86
671.881	244.77
672.212	285.44
672.542	326.12
672.873	269.63
673.203	310.3
673.533	332.9
673.864	321.6
674.194	201.83
674.524	287.7
674.855	326.12
675.185	267.37
675.515	247.03
675.845	296.74
676.175	269.63
676.505	244.77
676.835	278.66
677.165	310.3
677.494	330.64
677.824	353.24
678.154	262.85
678.484	321.6
678.813	283.18
679.143	240.25
679.472	294.48
679.802	308.04
680.131	219.91
680.461	305.78
680.79	253.81
681.119	289.96
681.449	285.44
681.778	289.96
682.107	235.73
682.436	283.18
682.765	294.48
683.094	265.11
683.423	228.95
683.752	217.65
684.081	240.25
684.41	314.82
684.739	292.22
685.067	262.85
685.396	283.18
685.725	260.59
686.053	321.6
686.382	364.54
686.711	233.47
687.039	256.07
687.367	299
687.696	285.44
688.024	283.18
688.352	256.07
688.681	344.2
689.009	285.44
689.337	228.95
689.665	240.25
689.993	267.37
690.321	233.47
690.649	274.15
690.977	283.18
691.305	265.11
691.633	305.78
691.961	278.66
692.288	296.74
692.616	317.08
692.944	256.07
693.271	321.6
693.599	308.04
693.926	292.22
694.254	294.48
694.581	292.22
694.908	283.18
695.236	226.69
695.563	346.46
695.89	296.74
696.217	285.44
696.544	267.37
696.871	267.37
697.198	314.82
697.525	242.51
697.852	323.86
698.179	276.41
698.506	256.07
698.833	274.15
699.16	299
699.486	328.38
699.813	219.91
700.139	231.21
700.466	226.69
700.793	233.47
701.119	253.81
701.445	222.17
701.772	253.81
702.098	219.91
702.424	260.59
702.75	213.13
703.077	348.72
703.403	217.65
703.729	256.07
704.055	283.18
704.381	217.65
704.707	215.39
705.033	265.11
705.358	330.64
705.684	253.81
706.01	285.44
706.336	303.52
706.661	287.7
706.987	247.03
707.312	292.22
707.638	280.92
707.963	276.41
708.289	317.08
708.614	305.78
708.939	285.44
709.265	265.11
709.59	271.89
709.915	292.22
710.24	240.25
710.565	289.96
710.89	283.18
711.215	260.59
711.54	301.26
711.865	321.6
712.19	244.77
712.515	247.03
712.839	258.33
713.164	344.2
713.489	215.39
713.813	280.92
714.138	308.04
714.462	294.48
714.787	244.77
715.111	247.03
715.435	213.13
715.76	235.73
716.084	285.44
716.408	299
716.732	330.64
717.056	269.63
717.381	285.44
717.705	294.48
718.028	247.03
718.352	242.51
718.676	276.41
719	228.95
719.324	278.66
719.648	247.03
719.971	179.23
720.295	201.83
720.618	310.3
720.942	256.07
721.265	244.77
721.589	233.47
721.912	224.43
722.236	289.96
722.559	301.26
722.882	237.99
723.205	292.22
723.528	237.99
723.851	224.43
724.174	339.68
724.497	296.74
724.82	244.77
725.143	215.39
725.466	233.47
725.789	319.34
726.112	296.74
726.434	219.91
726.757	321.6
727.08	213.13
727.402	335.16
727.725	235.73
728.047	299
728.37	335.16
728.692	267.37
729.014	224.43
729.336	292.22
729.659	328.38
729.981	224.43
730.303	233.47
730.625	228.95
730.947	262.85
731.269	280.92
731.591	305.78
731.913	249.29
732.235	233.47
732.556	283.18
732.878	188.27
733.2	265.11
733.521	274.15
733.843	235.73
734.164	260.59
734.486	233.47
734.807	292.22
735.129	294.48
735.45	303.52
735.771	222.17
736.092	247.03
736.414	213.13
736.735	271.89
737.056	276.41
737.377	314.82
737.698	179.23
738.019	267.37
738.34	289.96
738.66	258.33
738.981	228.95
739.302	310.3
739.623	267.37
739.943	240.25
740.264	247.03
740.584	287.7
740.905	274.15
741.225	296.74
741.546	274.15
741.866	213.13
742.186	247.03
742.507	267.37
742.827	251.55
743.147	280.92
743.467	199.57
743.787	299
744.107	253.81
744.427	321.6
744.747	269.63
745.067	242.51
745.386	310.3
745.706	256.07
746.026	213.13
746.346	251.55
746.665	314.82
746.985	278.66
747.304	237.99
747.624	195.05
747.943	294.48
748.262	260.59
748.582	337.42
748.901	253.81
749.22	237.99
749.539	247.03
749.858	305.78
750.177	289.96
750.496	294.48
750.815	303.52
751.134	265.11
751.453	269.63
751.772	285.44
752.09	332.9
752.409	242.51
752.728	289.96
753.046	265.11
753.365	289.96
753.683	305.78
754.002	305.78
754.32	204.09
754.639	240.25
754.957	265.11
755.275	262.85
755.593	294.48
755.911	271.89
756.23	267.37
756.548	258.33
756.866	296.74
757.183	271.89
757.501	210.87
757.819	256.07
758.137	176.97
758.455	321.6
758.772	251.55
759.09	237.99
759.408	285.44
759.725	283.18
760.043	265.11
760.36	217.65
760.677	253.81
760.995	237.99
761.312	267.37
761.629	271.89
761.946	299
762.264	258.33
762.581	265.11
762.898	305.78
763.215	208.61
763.532	235.73
763.848	253.81
764.165	251.55
764.482	265.11
764.799	289.96
765.115	244.77
765.432	271.89
765.749	251.55
766.065	217.65
766.382	247.03
766.698	265.11
767.014	237.99
767.331	287.7
767.647	244.77
767.963	228.95
768.279	278.66
768.595	265.11
768.911	308.04
769.227	251.55
769.543	267.37
769.859	265.11
770.175	310.3
770.491	276.41
770.807	344.2
771.122	215.39
771.438	276.41
771.754	299
772.069	195.05
772.385	176.97
772.7	344.2
773.016	373.58
773.331	249.29
773.646	256.07
773.961	233.47
774.277	294.48
774.592	303.52
774.907	267.37
775.222	271.89
775.537	233.47
775.852	231.21
776.167	265.11
776.482	231.21
776.796	292.22
777.111	317.08
777.426	294.48
777.74	278.66
778.055	260.59
778.369	321.6
778.684	301.26
778.998	256.07
779.313	247.03
779.627	256.07
779.941	292.22
780.255	244.77
780.57	253.81
780.884	314.82
781.198	210.87
781.512	296.74
781.826	278.66
782.14	283.18
782.453	226.69
782.767	294.48
783.081	235.73
783.395	231.21
783.708	276.41
784.022	289.96
784.335	222.17
784.649	204.09
784.962	274.15
785.276	213.13
785.589	224.43
785.902	276.41
786.216	256.07
786.529	258.33
786.842	283.18
787.155	192.79
787.468	235.73
787.781	285.44
788.094	260.59
788.407	219.91
788.72	244.77
789.032	256.07
789.345	256.07
789.658	213.13
789.97	251.55
790.283	292.22
790.595	308.04
790.908	224.43
791.22	305.78
791.532	296.74
791.845	260.59
792.157	344.2
792.469	283.18
792.781	215.39
793.093	251.55
793.405	276.41
793.717	258.33
794.029	317.08
794.341	235.73
794.653	319.34
794.965	285.44
795.276	247.03
795.588	213.13
795.9	283.18
796.211	222.17
796.523	251.55
796.834	210.87
797.146	285.44
797.457	253.81
797.768	251.55
798.08	258.33
798.391	326.12
798.702	165.67
799.013	228.95
799.324	219.91
799.635	260.59
799.946	228.95
800.257	228.95
800.568	256.07
800.878	276.41
801.189	260.59
801.5	285.44
801.81	199.57
802.121	217.65
802.431	296.74
802.742	303.52
803.052	278.66
803.363	242.51
803.673	289.96
803.983	287.7
804.293	276.41
804.603	283.18
804.913	265.11
805.224	235.73
805.533	249.29
805.843	228.95
806.153	289.96
806.463	251.55
806.773	260.59
807.083	317.08
807.392	285.44
807.702	339.68
808.011	253.81
808.321	251.55
808.63	299
808.94	285.44
809.249	228.95
809.558	226.69
809.868	271.89
810.177	378.1
810.486	253.81
810.795	271.89
811.104	219.91
811.413	267.37
811.722	247.03
812.031	215.39
812.339	271.89
812.648	274.15
812.957	271.89
813.266	283.18
813.574	260.59
813.883	283.18
814.191	341.94
814.5	287.7
814.808	242.51
815.116	219.91
815.424	233.47
815.733	260.59
816.041	249.29
816.349	231.21
816.657	267.37
816.965	289.96
817.273	269.63
817.581	244.77
817.889	190.53
818.196	299
818.504	253.81
818.812	253.81
819.12	235.73
819.427	242.51
819.735	328.38
820.042	305.78
820.349	299
820.657	294.48
820.964	283.18
821.271	267.37
821.579	292.22
821.886	233.47
822.193	280.92
822.5	267.37
822.807	294.48
823.114	294.48
823.421	242.51
823.727	244.77
824.034	317.08
824.341	280.92
824.648	310.3
824.954	237.99
825.261	323.86
825.567	192.79
825.874	242.51
826.18	280.92
826.486	258.33
826.793	305.78
827.099	305.78
827.405	294.48
827.711	274.15
828.017	197.31
828.323	206.35
828.629	294.48
828.935	251.55
829.241	219.91
829.547	242.51
829.852	249.29
830.158	312.56
830.464	240.25
830.769	299
831.075	265.11
831.38	292.22
831.686	303.52
831.991	242.51
832.296	256.07
832.601	228.95
832.907	249.29
833.212	215.39
833.517	305.78
833.822	208.61
834.127	251.55
834.432	276.41
834.737	283.18
835.041	244.77
835.346	283.18
835.651	317.08
835.956	217.65
836.26	285.44
836.565	276.41
836.869	299
837.174	210.87
837.478	330.64
837.782	276.41
838.087	287.7
838.391	276.41
838.695	240.25
838.999	215.39
839.303	192.79
839.607	292.22
839.911	249.29
840.215	310.3
840.519	237.99
840.822	278.66
841.126	294.48
841.43	210.87
841.733	228.95
842.037	280.92
842.34	280.92
842.644	276.41
842.947	244.77
843.251	267.37
843.554	269.63
843.857	256.07
844.16	292.22
844.463	219.91
844.766	265.11
845.069	287.7
845.372	267.37
845.675	204.09
845.978	287.7
846.281	314.82
846.583	321.6
846.886	265.11
847.189	271.89
847.491	217.65
847.794	274.15
848.096	308.04
848.399	269.63
848.701	276.41
849.003	278.66
849.305	285.44
849.608	265.11
849.91	285.44
850.212	310.3
850.514	253.81
850.816	292.22
851.118	235.73
851.419	188.27
851.721	213.13
852.023	262.85
852.325	237.99
852.626	251.55
852.928	222.17
853.229	213.13
853.531	206.35
853.832	278.66
854.133	269.63
854.435	296.74
854.736	219.91
855.037	219.91
855.338	292.22
855.639	242.51
855.94	256.07
856.241	231.21
856.542	283.18
856.843	301.26
857.144	240.25
857.444	256.07
857.745	247.03
858.046	280.92
858.346	276.41
858.647	289.96
858.947	310.3
859.247	278.66
859.548	267.37
859.848	258.33
860.148	314.82
860.448	240.25
860.749	280.92
861.049	247.03
861.349	276.41
861.648	249.29
861.948	305.78
862.248	269.63
862.548	312.56
862.848	280.92
863.147	267.37
863.447	256.07
863.746	228.95
864.046	280.92
864.345	276.41
864.645	233.47
864.944	267.37
865.243	204.09
865.542	278.66
865.842	226.69
866.141	260.59
866.44	319.34
866.739	265.11
867.038	231.21
867.337	244.77
867.635	222.17
867.934	305.78
868.233	321.6
868.531	195.05
868.83	258.33
869.129	292.22
869.427	249.29
869.725	247.03
870.024	285.44
870.322	285.44
870.62	256.07
870.918	174.71
871.217	258.33
871.515	321.6
871.813	285.44
872.111	262.85
872.409	251.55
872.706	237.99
873.004	299
873.302	294.48
873.6	292.22
873.897	305.78
874.195	269.63
874.492	303.52
874.79	231.21
875.087	303.52
875.384	289.96
875.682	260.59
875.979	299
876.276	271.89
876.573	312.56
876.87	312.56
877.167	312.56
