Data from PL_2polymer_F8BT_MEHPPV_USB2H096331_0744.txt Node
Date: Tue Dec 15 16:12:27 CET 2020
User: spadmin
Spectrometer: USB2+H09633
Trigger mode: 0
Integration Time (sec): 1.000000E-2
Scans to average: 1
Electric dark correction enabled: true
Nonlinearity correction enabled: false
Boxcar width: 0
XAxis mode: Wavelengths
Number of Pixels in Spectrum: 2048
>>>>>Begin Spectral Data<<<<<
174.027	-34.04
174.405	-34.04
174.783	-34.04
175.162	-115.39
175.54	-113.13
175.918	-90.53
176.296	-95.05
176.674	-169.63
177.052	-49.86
177.43	-65.68
177.808	-67.94
178.186	-40.82
178.564	-20.48
178.942	-36.3
179.32	11.16
179.698	-52.12
180.076	38.28
180.453	92.51
180.831	160.31
181.209	112.85
181.587	124.15
181.965	58.61
182.342	121.89
182.72	162.57
183.098	130.93
183.475	262
183.853	259.74
184.231	239.4
184.608	271.04
184.986	284.6
185.363	255.22
185.741	230.36
186.118	307.2
186.496	334.31
186.873	341.09
187.251	336.57
187.628	298.16
188.006	341.09
188.383	386.29
188.76	386.29
189.138	295.9
189.515	329.79
189.892	316.23
190.27	318.49
190.647	334.31
191.024	313.97
191.401	365.95
191.778	363.69
192.155	354.65
192.533	323.01
192.91	334.31
193.287	243.92
193.664	320.75
194.041	311.71
194.418	377.25
194.795	338.83
195.172	329.79
195.549	327.53
195.926	336.57
196.302	307.2
196.679	327.53
197.056	313.97
197.433	275.56
197.81	298.16
198.187	282.34
198.563	284.6
198.94	311.71
199.317	313.97
199.693	313.97
200.07	356.91
200.447	307.2
200.823	255.22
201.2	277.82
201.576	280.08
201.953	329.79
202.329	302.68
202.706	268.78
203.082	318.49
203.459	282.34
203.835	284.6
204.212	302.68
204.588	307.2
204.964	316.23
205.341	284.6
205.717	284.6
206.093	295.9
206.469	325.27
206.846	309.46
207.222	234.88
207.598	347.87
207.974	302.68
208.35	271.04
208.726	302.68
209.102	241.66
209.479	298.16
209.855	320.75
210.231	341.09
210.607	341.09
210.982	277.82
211.358	379.51
211.734	289.12
212.11	291.38
212.486	275.56
212.862	320.75
213.238	359.17
213.614	277.82
213.989	347.87
214.365	295.9
214.741	361.43
215.116	361.43
215.492	282.34
215.868	374.99
216.243	327.53
216.619	384.03
216.995	320.75
217.37	352.39
217.746	273.3
218.121	282.34
218.497	329.79
218.872	350.13
219.247	347.87
219.623	343.35
219.998	359.17
220.374	309.46
220.749	307.2
221.124	295.9
221.499	336.57
221.875	397.59
222.25	345.61
222.625	345.61
223	311.71
223.376	359.17
223.751	336.57
224.126	318.49
224.501	302.68
224.876	354.65
225.251	293.64
225.626	368.21
226.001	352.39
226.376	293.64
226.751	368.21
227.126	329.79
227.501	332.05
227.875	316.23
228.25	347.87
228.625	338.83
229	350.13
229.375	325.27
229.749	343.35
230.124	309.46
230.499	352.39
230.873	354.65
231.248	325.27
231.623	386.29
231.997	347.87
232.372	381.77
232.746	368.21
233.121	384.03
233.495	316.23
233.87	390.81
234.244	393.07
234.619	320.75
234.993	388.55
235.367	365.95
235.742	327.53
236.116	323.01
236.49	341.09
236.865	365.95
237.239	300.42
237.613	311.71
237.987	372.73
238.361	426.97
238.736	370.47
239.11	413.41
239.484	345.61
239.858	347.87
240.232	372.73
240.606	372.73
240.98	277.82
241.354	320.75
241.728	359.17
242.102	334.31
242.475	343.35
242.849	365.95
243.223	350.13
243.597	350.13
243.971	356.91
244.344	356.91
244.718	350.13
245.092	334.31
245.466	370.47
245.839	336.57
246.213	354.65
246.586	374.99
246.96	329.79
247.334	347.87
247.707	302.68
248.081	424.71
248.454	442.78
248.828	345.61
249.201	393.07
249.574	368.21
249.948	372.73
250.321	354.65
250.694	356.91
251.068	365.95
251.441	359.17
251.814	429.23
252.187	338.83
252.561	374.99
252.934	420.19
253.307	397.59
253.68	323.01
254.053	336.57
254.426	402.11
254.799	372.73
255.172	386.29
255.545	408.89
255.918	406.63
256.291	381.77
256.664	438.27
257.037	354.65
257.41	372.73
257.782	341.09
258.155	334.31
258.528	368.21
258.901	379.51
259.273	363.69
259.646	424.71
260.019	374.99
260.391	370.47
260.764	381.77
261.137	411.15
261.509	404.37
261.882	426.97
262.254	377.25
262.627	415.67
262.999	368.21
263.372	293.64
263.744	329.79
264.116	399.85
264.489	374.99
264.861	395.33
265.233	438.27
265.606	336.57
265.978	411.15
266.35	386.29
266.722	399.85
267.094	384.03
267.467	329.79
267.839	384.03
268.211	424.71
268.583	390.81
268.955	429.23
269.327	408.89
269.699	433.75
270.071	384.03
270.443	397.59
270.815	359.17
271.186	379.51
271.558	402.11
271.93	365.95
272.302	515.1
272.674	374.99
273.045	361.43
273.417	447.3
273.789	354.65
274.16	465.38
274.532	393.07
274.904	377.25
275.275	343.35
275.647	454.08
276.018	359.17
276.39	372.73
276.761	377.25
277.133	451.82
277.504	356.91
277.875	397.59
278.247	413.41
278.618	485.72
278.989	433.75
279.361	474.42
279.732	431.49
280.103	417.93
280.474	456.34
280.846	481.2
281.217	365.95
281.588	417.93
281.959	379.51
282.33	374.99
282.701	386.29
283.072	424.71
283.443	359.17
283.814	454.08
284.185	386.29
284.556	438.27
284.927	436.01
285.297	467.64
285.668	442.78
286.039	440.53
286.41	426.97
286.781	465.38
287.151	359.17
287.522	372.73
287.893	408.89
288.263	429.23
288.634	415.67
289.004	406.63
289.375	508.32
289.745	422.45
290.116	440.53
290.486	433.75
290.857	458.6
291.227	458.6
291.598	433.75
291.968	458.6
292.338	379.51
292.709	485.72
293.079	447.3
293.449	445.04
293.819	436.01
294.189	395.33
294.56	447.3
294.93	463.12
295.3	474.42
295.67	422.45
296.04	454.08
296.41	431.49
296.78	501.54
297.15	454.08
297.52	447.3
297.89	413.41
298.259	395.33
298.629	372.73
298.999	478.94
299.369	454.08
299.739	426.97
300.108	460.86
300.478	447.3
300.848	442.78
301.217	429.23
301.587	436.01
301.957	424.71
302.326	483.46
302.696	510.58
303.065	517.36
303.435	524.14
303.804	458.6
304.174	497.02
304.543	463.12
304.912	422.45
305.282	388.55
305.651	399.85
306.02	465.38
306.39	472.16
306.759	503.8
307.128	415.67
307.497	433.75
307.866	478.94
308.235	431.49
308.604	506.06
308.974	438.27
309.343	445.04
309.712	483.46
310.08	499.28
310.449	426.97
310.818	526.4
311.187	465.38
311.556	420.19
311.925	503.8
312.294	465.38
312.662	515.1
313.031	445.04
313.4	499.28
313.769	506.06
314.137	463.12
314.506	436.01
314.874	472.16
315.243	456.34
315.612	542.22
315.98	530.92
316.349	501.54
316.717	510.58
317.085	510.58
317.454	506.06
317.822	517.36
318.191	433.75
318.559	460.86
318.927	474.42
319.295	562.56
319.664	433.75
320.032	458.6
320.4	492.5
320.768	490.24
321.136	535.44
321.504	465.38
321.872	501.54
322.24	474.42
322.608	467.64
322.976	485.72
323.344	483.46
323.712	535.44
324.08	478.94
324.448	544.48
324.816	451.82
325.183	542.22
325.551	562.56
325.919	535.44
326.287	555.78
326.654	542.22
327.022	553.52
327.389	478.94
327.757	567.08
328.125	492.5
328.492	499.28
328.86	587.41
329.227	519.62
329.594	524.14
329.962	481.2
330.329	501.54
330.697	506.06
331.064	553.52
331.431	460.86
331.798	603.23
332.166	616.79
332.533	603.23
332.9	549
333.267	472.16
333.634	497.02
334.001	621.31
334.368	551.26
334.735	594.19
335.102	623.57
335.469	564.82
335.836	537.7
336.203	569.34
336.57	580.63
336.937	591.93
337.304	582.89
337.67	535.44
338.037	578.37
338.404	567.08
338.771	648.43
339.137	630.35
339.504	596.45
339.87	600.97
340.237	605.49
340.604	571.6
340.97	668.77
341.337	621.31
341.703	573.85
342.069	539.96
342.436	716.22
342.802	591.93
343.169	553.52
343.535	607.75
343.901	598.71
344.267	623.57
344.634	607.75
345	698.15
345.366	589.67
345.732	650.69
346.098	612.27
346.464	673.29
346.83	646.17
347.196	698.15
347.562	628.09
347.928	659.73
348.294	673.29
348.66	713.96
349.026	630.35
349.392	646.17
349.757	720.74
350.123	657.47
350.489	695.89
350.855	716.22
351.22	680.07
351.586	625.83
351.951	700.41
352.317	695.89
352.683	709.44
353.048	677.81
353.414	725.26
353.779	684.59
354.144	689.11
354.51	623.57
354.875	786.28
355.24	723
355.606	693.63
355.971	695.89
356.336	761.42
356.701	743.34
357.067	786.28
357.432	813.4
357.797	761.42
358.162	784.02
358.527	743.34
358.892	849.55
359.257	750.12
359.622	768.2
359.987	777.24
360.352	799.84
360.717	806.62
361.082	781.76
361.446	820.18
361.811	842.77
362.176	799.84
362.541	885.71
362.905	838.25
363.27	847.29
363.635	935.43
363.999	908.31
364.364	964.81
364.728	935.43
365.093	955.77
365.457	937.69
365.822	989.66
366.186	955.77
366.55	1089.1
366.915	969.32
367.279	973.84
367.643	917.35
368.008	998.7
368.372	989.66
368.736	1039.38
369.1	1080.06
369.464	1132.03
369.828	1048.42
370.192	1055.2
370.556	1134.29
370.92	1206.61
371.284	1132.03
371.648	1240.5
372.012	1217.91
372.376	1324.12
372.74	1310.56
373.104	1398.69
373.468	1489.09
373.831	1495.86
374.195	1498.12
374.559	1561.4
374.922	1538.8
375.286	1536.54
375.65	1586.26
376.013	1577.22
376.377	1647.27
376.74	1855.18
377.104	1898.11
377.467	1891.33
377.83	1909.41
378.194	2142.18
378.557	2203.19
378.92	2406.58
379.284	2646.12
379.647	2684.53
380.01	2835.94
380.373	3057.41
380.736	3109.38
381.1	3507.11
381.463	3635.92
381.826	3922.92
382.189	4142.12
382.552	4514.99
382.915	4808.77
383.278	5283.34
383.64	5773.72
384.003	6250.54
384.366	6890.07
384.729	7543.16
385.092	7794
385.454	8555.57
385.817	9448.2
386.18	10338.57
386.542	11454.92
386.905	12584.84
387.268	13983.67
387.63	15359.91
387.993	16322.59
388.355	17976.79
388.718	19784.65
389.08	21574.43
389.442	23348.4
389.805	25775.45
390.167	27106.49
390.529	30760.63
390.892	34028.34
391.254	35978.57
391.616	38482.46
391.978	42796.47
392.34	46870.94
392.702	48116.11
393.064	52084.36
393.426	54176.97
393.788	55663.93
394.15	57297.79
394.512	59087.57
394.874	61094.3
395.236	62712.33
395.598	64511.16
395.96	65069.33
396.321	65069.33
396.683	65069.33
397.045	65069.33
397.406	65069.33
397.768	65069.33
398.13	65069.33
398.491	65069.33
398.853	65069.33
399.214	65069.33
399.576	65069.33
399.937	65069.33
400.299	65069.33
400.66	65069.33
401.021	65069.33
401.383	65069.33
401.744	65069.33
402.105	65069.33
402.466	65069.33
402.827	65069.33
403.189	65069.33
403.55	65069.33
403.911	65069.33
404.272	65069.33
404.633	65069.33
404.994	65069.33
405.355	65069.33
405.716	65069.33
406.077	65069.33
406.437	65069.33
406.798	65069.33
407.159	65069.33
407.52	65069.33
407.88	65069.33
408.241	65069.33
408.602	65069.33
408.962	65069.33
409.323	65069.33
409.684	65069.33
410.044	65069.33
410.405	65069.33
410.765	65069.33
411.125	65069.33
411.486	65069.33
411.846	65069.33
412.206	65069.33
412.567	65069.33
412.927	65069.33
413.287	65069.33
413.647	65069.33
414.007	65069.33
414.368	65069.33
414.728	65069.33
415.088	65069.33
415.448	65069.33
415.808	65069.33
416.168	65069.33
416.528	65069.33
416.887	65069.33
417.247	65069.33
417.607	65069.33
417.967	65069.33
418.327	65069.33
418.686	65069.33
419.046	65069.33
419.406	65069.33
419.765	65069.33
420.125	65069.33
420.484	65069.33
420.844	65069.33
421.203	65069.33
421.563	64721.32
421.922	64174.44
422.282	62538.33
422.641	61338.36
423	60061.56
423.36	59132.77
423.719	56936.21
424.078	55083.16
424.437	53399.58
424.796	51569.12
425.155	50120.57
425.515	47277.71
425.874	46498.07
426.233	42398.74
426.592	39931.01
426.95	39221.43
427.309	36952.56
427.668	35962.75
428.027	33110.85
428.386	31978.68
428.745	29158.41
429.103	27533.6
429.462	26288.43
429.821	24367.58
430.179	23655.73
430.538	22720.17
430.897	22342.77
431.255	20584.63
431.614	19355.28
431.972	18903.32
432.33	18164.35
432.689	17644.59
433.047	16736.14
433.405	15669.5
433.764	14819.81
434.122	14582.53
434.48	13524.93
434.838	13174.65
435.197	12602.92
435.555	12272.98
435.913	11558.88
436.271	11152.11
436.629	10494.5
436.987	10051.57
437.345	9665.14
437.703	9412.04
438.061	8596.24
438.418	8187.21
438.776	7861.8
439.134	7780.45
439.492	7380.46
439.849	7032.44
440.207	6695.73
440.565	6431.33
440.922	6198.57
441.28	5882.19
441.637	5635.87
441.995	5366.95
442.352	5233.62
442.71	4933.06
443.067	4833.63
443.425	4587.31
443.782	4286.75
444.139	4239.3
444.496	3977.16
444.854	4101.45
445.211	3780.55
445.568	3803.15
445.925	3541.01
446.282	3461.91
446.639	3421.24
446.996	3317.29
447.353	3303.73
447.71	3254.01
448.067	3226.89
448.424	3003.17
448.781	2903.74
449.137	2815.6
449.494	2661.94
449.851	2612.22
450.208	2363.64
450.564	2282.28
450.921	2230.31
451.278	2250.65
451.634	2239.35
451.991	2157.99
452.347	2038.22
452.704	2135.4
453.06	1979.47
453.416	1886.81
453.773	1794.16
454.129	1735.41
454.485	1730.89
454.841	1651.79
455.198	1559.14
455.554	1579.48
455.91	1500.38
456.266	1536.54
456.622	1534.28
456.978	1342.2
457.334	1240.5
457.69	1260.84
458.046	1294.74
458.402	1278.92
458.758	1249.54
459.114	1308.3
459.469	1222.43
459.825	1104.91
460.181	1129.77
460.536	1064.24
460.892	1132.03
461.248	1061.98
461.603	939.95
461.959	1025.82
462.314	1014.52
462.67	973.84
463.025	1021.3
463.38	912.83
463.736	973.84
464.091	897.01
464.446	951.25
464.802	980.62
465.157	935.43
465.512	912.83
465.867	878.93
466.222	784.02
466.577	878.93
466.932	817.92
467.287	790.8
467.642	736.56
467.997	761.42
468.352	826.96
468.707	741.08
469.062	723
469.417	736.56
469.771	736.56
470.126	689.11
470.481	700.41
470.835	741.08
471.19	738.82
471.544	700.41
471.899	734.3
472.253	700.41
472.608	723
472.962	657.47
473.317	661.99
473.671	603.23
474.025	689.11
474.38	648.43
474.734	646.17
475.088	576.11
475.442	598.71
475.796	668.77
476.15	582.89
476.504	551.26
476.858	632.61
477.212	630.35
477.566	587.41
477.92	555.78
478.274	614.53
478.628	576.11
478.982	637.13
479.336	549
479.689	594.19
480.043	587.41
480.397	628.09
480.75	610.01
481.104	591.93
481.457	596.45
481.811	632.61
482.164	546.74
482.518	564.82
482.871	503.8
483.225	546.74
483.578	666.51
483.931	460.86
484.284	558.04
484.638	551.26
484.991	596.45
485.344	558.04
485.697	628.09
486.05	571.6
486.403	562.56
486.756	562.56
487.109	589.67
487.462	585.15
487.815	551.26
488.168	544.48
488.52	546.74
488.873	569.34
489.226	512.84
489.579	614.53
489.931	621.31
490.284	533.18
490.637	515.1
490.989	521.88
491.342	587.41
491.694	526.4
492.047	558.04
492.399	528.66
492.751	472.16
493.104	506.06
493.456	564.82
493.808	533.18
494.16	526.4
494.513	562.56
494.865	551.26
495.217	594.19
495.569	578.37
495.921	524.14
496.273	526.4
496.625	573.85
496.977	567.08
497.329	555.78
497.68	530.92
498.032	596.45
498.384	555.78
498.736	582.89
499.087	558.04
499.439	555.78
499.791	533.18
500.142	571.6
500.494	544.48
500.845	567.08
501.197	580.63
501.548	587.41
501.9	562.56
502.251	560.3
502.602	598.71
502.954	614.53
503.305	569.34
503.656	596.45
504.007	587.41
504.358	634.87
504.709	612.27
505.061	573.85
505.412	537.7
505.763	614.53
506.113	639.39
506.464	664.25
506.815	684.59
507.166	630.35
507.517	655.21
507.868	600.97
508.218	671.03
508.569	725.26
508.92	693.63
509.27	698.15
509.621	652.95
509.971	641.65
510.322	673.29
510.672	741.08
511.023	770.46
511.373	661.99
511.723	727.52
512.074	686.85
512.424	811.14
512.774	734.3
513.124	824.7
513.475	817.92
513.825	817.92
514.175	876.67
514.525	826.96
514.875	842.77
515.225	813.4
515.575	869.89
515.924	847.29
516.274	786.28
516.624	786.28
516.974	847.29
517.324	899.27
517.673	856.33
518.023	863.11
518.373	933.17
518.722	901.53
519.072	998.7
519.421	906.05
519.771	1014.52
520.12	985.14
520.469	915.09
520.819	969.32
521.168	978.36
521.517	1034.86
521.867	991.92
522.216	917.35
522.565	1055.2
522.914	962.55
523.263	1000.96
523.612	1028.08
523.961	1007.74
524.31	1025.82
524.659	1007.74
525.008	1025.82
525.357	937.69
525.705	1005.48
526.054	1025.82
526.403	1028.08
526.752	1093.62
527.1	1089.1
527.449	1077.8
527.797	1109.43
528.146	1066.5
528.495	1132.03
528.843	1075.54
529.191	1129.77
529.54	1181.75
529.888	1184.01
530.236	1177.23
530.585	1193.05
530.933	1089.1
531.281	1136.55
531.629	1213.39
531.977	1224.69
532.325	1163.67
532.673	1181.75
533.021	1165.93
533.369	1129.77
533.717	1156.89
534.065	1163.67
534.413	1138.81
534.761	1125.25
535.108	1150.11
535.456	1136.55
535.804	1073.28
536.151	1229.2
536.499	1190.79
536.847	1247.28
537.194	1163.67
537.542	1186.27
537.889	1190.79
538.236	1224.69
538.584	1204.35
538.931	1159.15
539.278	1120.73
539.626	1174.97
539.973	1240.5
540.32	1188.53
540.667	1159.15
541.014	1174.97
541.361	1195.31
541.708	1206.61
542.055	1193.05
542.402	1204.35
542.749	1147.85
543.096	1174.97
543.443	1281.18
543.789	1159.15
544.136	1193.05
544.483	1229.2
544.83	1172.71
545.176	1100.39
545.523	1104.91
545.869	1170.45
546.216	1245.02
546.562	1172.71
546.909	1163.67
547.255	1256.32
547.601	1109.43
547.948	1129.77
548.294	1152.37
548.64	1159.15
548.986	1190.79
549.332	1193.05
549.678	1165.93
550.025	1206.61
550.371	1287.96
550.717	1303.78
551.062	1285.7
551.408	1260.84
551.754	1285.7
552.1	1258.58
552.446	1193.05
552.792	1154.63
553.137	1231.46
553.483	1238.24
553.828	1174.97
554.174	1285.7
554.52	1292.48
554.865	1254.06
555.211	1269.88
555.556	1213.39
555.901	1215.65
556.247	1249.54
556.592	1312.82
556.937	1274.4
557.282	1294.74
557.628	1251.8
557.973	1292.48
558.318	1333.16
558.663	1222.43
559.008	1301.52
559.353	1346.72
559.698	1337.68
560.043	1339.94
560.388	1290.22
560.732	1303.78
561.077	1396.43
561.422	1362.53
561.766	1394.17
562.111	1360.27
562.456	1369.31
562.8	1348.98
563.145	1432.59
563.489	1419.03
563.834	1459.71
564.178	1486.83
564.523	1421.29
564.867	1398.69
565.211	1403.21
565.555	1532.02
565.9	1409.99
566.244	1464.23
566.588	1507.16
566.932	1527.5
567.276	1486.83
567.62	1602.08
567.964	1545.58
568.308	1498.12
568.652	1529.76
568.996	1599.82
569.339	1599.82
569.683	1588.52
570.027	1608.86
570.371	1550.1
570.714	1631.45
571.058	1658.57
571.401	1658.57
571.745	1658.57
572.088	1685.69
572.432	1620.16
572.775	1649.53
573.118	1577.22
573.462	1631.45
573.805	1617.9
574.148	1674.39
574.491	1706.03
574.835	1543.32
575.178	1706.03
575.521	1717.33
575.864	1825.8
576.207	1703.77
576.55	1676.65
576.892	1681.17
577.235	1608.86
577.578	1645.01
577.921	1708.29
578.264	1715.07
578.606	1642.75
578.949	1658.57
579.292	1660.83
579.634	1694.73
579.977	1762.52
580.319	1624.67
580.662	1624.67
581.004	1581.74
581.346	1590.78
581.689	1678.91
582.031	1590.78
582.373	1572.7
582.715	1572.7
583.057	1559.14
583.4	1724.11
583.742	1676.65
584.084	1550.1
584.426	1608.86
584.768	1579.48
585.109	1568.18
585.451	1561.4
585.793	1527.5
586.135	1622.41
586.477	1471.01
586.818	1522.98
587.16	1439.37
587.502	1471.01
587.843	1425.81
588.185	1464.23
588.526	1339.94
588.868	1441.63
589.209	1391.91
589.55	1414.51
589.892	1459.71
590.233	1344.46
590.574	1391.91
590.915	1351.24
591.257	1290.22
591.598	1380.61
591.939	1367.05
592.28	1319.6
592.621	1303.78
592.962	1260.84
593.303	1287.96
593.643	1256.32
593.984	1226.95
594.325	1321.86
594.666	1260.84
595.006	1256.32
595.347	1306.04
595.688	1186.27
596.028	1202.09
596.369	1188.53
596.709	1215.65
597.05	1145.59
597.39	1172.71
597.73	1208.87
598.071	1125.25
598.411	1147.85
598.751	1159.15
599.091	1111.69
599.431	1061.98
599.772	1043.9
600.112	1104.91
600.452	973.84
600.792	1039.38
601.132	976.1
601.471	1059.72
601.811	962.55
602.151	1003.22
602.491	1000.96
602.831	1071.02
603.17	980.62
603.51	939.95
603.849	948.99
604.189	935.43
604.528	1010
604.868	958.03
605.207	980.62
605.547	1032.6
605.886	1019.04
606.225	881.19
606.565	985.14
606.904	930.91
607.243	967.06
607.582	878.93
607.921	953.51
608.26	910.57
608.599	955.77
608.938	912.83
609.277	921.87
609.616	847.29
609.955	946.73
610.293	865.37
610.632	897.01
610.971	917.35
611.309	799.84
611.648	908.31
611.987	867.63
612.325	831.48
612.664	854.07
613.002	838.25
613.34	856.33
613.679	840.51
614.017	872.15
614.355	788.54
614.694	899.27
615.032	761.42
615.37	845.03
615.708	894.75
616.046	849.55
616.384	786.28
616.722	890.23
617.06	897.01
617.398	747.86
617.736	894.75
618.073	765.94
618.411	835.99
618.749	826.96
619.086	883.45
619.424	878.93
619.762	908.31
620.099	849.55
620.437	804.36
620.774	750.12
621.112	779.5
621.449	790.8
621.786	788.54
622.123	831.48
622.461	738.82
622.798	804.36
623.135	815.66
623.472	829.22
623.809	786.28
624.146	806.62
624.483	838.25
624.82	835.99
625.157	765.94
625.494	788.54
625.83	865.37
626.167	840.51
626.504	718.48
626.841	838.25
627.177	829.22
627.514	797.58
627.85	797.58
628.187	854.07
628.523	784.02
628.86	824.7
629.196	772.72
629.532	774.98
629.869	732.04
630.205	723
630.541	793.06
630.877	858.59
631.213	761.42
631.549	716.22
631.885	822.44
632.221	779.5
632.557	793.06
632.893	808.88
633.229	779.5
633.564	704.92
633.9	713.96
634.236	698.15
634.572	734.3
634.907	786.28
635.243	761.42
635.578	716.22
635.914	723
636.249	684.59
636.585	673.29
636.92	713.96
637.255	700.41
637.59	756.9
637.926	729.78
638.261	625.83
638.596	652.95
638.931	698.15
639.266	718.48
639.601	661.99
639.936	659.73
640.271	648.43
640.606	698.15
640.94	673.29
641.275	675.55
641.61	691.37
641.945	639.39
642.279	711.7
642.614	628.09
642.948	623.57
643.283	630.35
643.617	639.39
643.952	666.51
644.286	646.17
644.62	700.41
644.955	569.34
645.289	560.3
645.623	616.79
645.957	598.71
646.291	643.91
646.625	634.87
646.959	628.09
647.293	553.52
647.627	544.48
647.961	587.41
648.295	655.21
648.629	567.08
648.962	603.23
649.296	621.31
649.63	587.41
649.963	558.04
650.297	607.75
650.63	526.4
650.964	537.7
651.297	567.08
651.631	555.78
651.964	578.37
652.297	515.1
652.631	524.14
652.964	526.4
653.297	515.1
653.63	551.26
653.963	519.62
654.296	510.58
654.629	537.7
654.962	619.05
655.295	485.72
655.628	562.56
655.961	445.04
656.293	539.96
656.626	551.26
656.959	537.7
657.291	438.27
657.624	481.2
657.956	515.1
658.289	564.82
658.621	539.96
658.954	481.2
659.286	460.86
659.618	483.46
659.95	542.22
660.283	408.89
660.615	517.36
660.947	467.64
661.279	478.94
661.611	487.98
661.943	415.67
662.275	422.45
662.607	458.6
662.939	361.43
663.27	481.2
663.602	497.02
663.934	478.94
664.266	474.42
664.597	506.06
664.929	487.98
665.26	429.23
665.592	386.29
665.923	386.29
666.255	451.82
666.586	465.38
666.917	460.86
667.248	415.67
667.58	456.34
667.911	402.11
668.242	424.71
668.573	384.03
668.904	397.59
669.235	499.28
669.566	379.51
669.897	395.33
670.228	415.67
670.558	449.56
670.889	420.19
671.22	424.71
671.551	431.49
671.881	431.49
672.212	395.33
672.542	411.15
672.873	415.67
673.203	343.35
673.533	440.53
673.864	447.3
674.194	402.11
674.524	395.33
674.855	415.67
675.185	397.59
675.515	361.43
675.845	390.81
676.175	442.78
676.505	393.07
676.835	390.81
677.165	433.75
677.494	388.55
677.824	406.63
678.154	442.78
678.484	368.21
678.813	417.93
679.143	424.71
679.472	408.89
679.802	334.31
680.131	343.35
680.461	474.42
680.79	345.61
681.119	408.89
681.449	406.63
681.778	384.03
682.107	422.45
682.436	467.64
682.765	422.45
683.094	402.11
683.423	359.17
683.752	363.69
684.081	352.39
684.41	381.77
684.739	390.81
685.067	345.61
685.396	451.82
685.725	350.13
686.053	365.95
686.382	374.99
686.711	334.31
687.039	345.61
687.367	291.38
687.696	350.13
688.024	356.91
688.352	404.37
688.681	345.61
689.009	388.55
689.337	318.49
689.665	361.43
689.993	334.31
690.321	372.73
690.649	372.73
690.977	372.73
691.305	365.95
691.633	395.33
691.961	352.39
692.288	350.13
692.616	327.53
692.944	393.07
693.271	397.59
693.599	374.99
693.926	431.49
694.254	361.43
694.581	309.46
694.908	323.01
695.236	311.71
695.563	347.87
695.89	404.37
696.217	363.69
696.544	431.49
696.871	327.53
697.198	404.37
697.525	361.43
697.852	372.73
698.179	352.39
698.506	372.73
698.833	343.35
699.16	352.39
699.486	379.51
699.813	356.91
700.139	368.21
700.466	336.57
700.793	323.01
701.119	343.35
701.445	347.87
701.772	334.31
702.098	354.65
702.424	293.64
702.75	295.9
703.077	338.83
703.403	327.53
703.729	365.95
704.055	291.38
704.381	365.95
704.707	302.68
705.033	372.73
705.358	361.43
705.684	361.43
706.01	363.69
706.336	282.34
706.661	284.6
706.987	304.94
707.312	307.2
707.638	354.65
707.963	338.83
708.289	332.05
708.614	347.87
708.939	372.73
709.265	302.68
709.59	341.09
709.915	336.57
710.24	359.17
710.565	323.01
710.89	336.57
711.215	329.79
711.54	277.82
711.865	286.86
712.19	259.74
712.515	332.05
712.839	307.2
713.164	327.53
713.489	309.46
713.813	327.53
714.138	277.82
714.462	291.38
714.787	363.69
715.111	327.53
715.435	343.35
715.76	300.42
716.084	286.86
716.408	234.88
716.732	345.61
717.056	307.2
717.381	295.9
717.705	271.04
718.028	404.37
718.352	262
718.676	255.22
719	316.23
719.324	332.05
719.648	347.87
719.971	320.75
720.295	347.87
720.618	332.05
720.942	304.94
721.265	266.52
721.589	293.64
721.912	268.78
722.236	311.71
722.559	390.81
722.882	345.61
723.205	338.83
723.528	291.38
723.851	311.71
724.174	311.71
724.497	356.91
724.82	318.49
725.143	300.42
725.466	298.16
725.789	252.96
726.112	320.75
726.434	262
726.757	273.3
727.08	264.26
727.402	298.16
727.725	282.34
728.047	320.75
728.37	293.64
728.692	262
729.014	334.31
729.336	327.53
729.659	307.2
729.981	250.7
730.303	298.16
730.625	271.04
730.947	271.04
731.269	295.9
731.591	241.66
731.913	273.3
732.235	309.46
732.556	334.31
732.878	237.14
733.2	259.74
733.521	277.82
733.843	277.82
734.164	334.31
734.486	311.71
734.807	280.08
735.129	284.6
735.45	241.66
735.771	298.16
736.092	246.18
736.414	259.74
736.735	318.49
737.056	293.64
737.377	291.38
737.698	338.83
738.019	325.27
738.34	264.26
738.66	277.82
738.981	282.34
739.302	271.04
739.623	300.42
739.943	237.14
740.264	309.46
740.584	291.38
740.905	327.53
741.225	345.61
741.546	234.88
741.866	311.71
742.186	273.3
742.507	304.94
742.827	264.26
743.147	307.2
743.467	271.04
743.787	316.23
744.107	300.42
744.427	262
744.747	309.46
745.067	307.2
745.386	302.68
745.706	262
746.026	207.76
746.346	316.23
746.665	320.75
746.985	336.57
747.304	304.94
747.624	275.56
747.943	271.04
748.262	241.66
748.582	327.53
748.901	264.26
749.22	293.64
749.539	225.84
749.858	293.64
750.177	271.04
750.496	298.16
750.815	246.18
751.134	291.38
751.453	286.86
751.772	313.97
752.09	237.14
752.409	280.08
752.728	325.27
753.046	262
753.365	223.58
753.683	309.46
754.002	286.86
754.32	298.16
754.639	282.34
754.957	282.34
755.275	277.82
755.593	273.3
755.911	248.44
756.23	277.82
756.548	221.32
756.866	338.83
757.183	232.62
757.501	302.68
757.819	180.64
758.137	275.56
758.455	268.78
758.772	250.7
759.09	262
759.408	280.08
759.725	264.26
760.043	289.12
760.36	323.01
760.677	336.57
760.995	316.23
761.312	252.96
761.629	273.3
761.946	268.78
762.264	300.42
762.581	250.7
762.898	280.08
763.215	255.22
763.532	307.2
763.848	286.86
764.165	273.3
764.482	327.53
764.799	255.22
765.115	282.34
765.432	237.14
765.749	262
766.065	221.32
766.382	320.75
766.698	246.18
767.014	280.08
767.331	280.08
767.647	316.23
767.963	225.84
768.279	271.04
768.595	291.38
768.911	250.7
769.227	237.14
769.543	252.96
769.859	275.56
770.175	216.8
770.491	356.91
770.807	286.86
771.122	282.34
771.438	289.12
771.754	311.71
772.069	282.34
772.385	221.32
772.7	277.82
773.016	255.22
773.331	300.42
773.646	307.2
773.961	338.83
774.277	271.04
774.592	271.04
774.907	282.34
775.222	295.9
775.537	280.08
775.852	300.42
776.167	323.01
776.482	255.22
776.796	234.88
777.111	286.86
777.426	266.52
777.74	284.6
778.055	255.22
778.369	323.01
778.684	345.61
778.998	286.86
779.313	311.71
779.627	230.36
779.941	234.88
780.255	280.08
780.57	345.61
780.884	280.08
781.198	266.52
781.512	230.36
781.826	291.38
782.14	273.3
782.453	248.44
782.767	264.26
783.081	275.56
783.395	289.12
783.708	255.22
784.022	210.02
784.335	359.17
784.649	307.2
784.962	307.2
785.276	243.92
785.589	309.46
785.902	243.92
786.216	207.76
786.529	293.64
786.842	219.06
787.155	313.97
787.468	246.18
787.781	307.2
788.094	293.64
788.407	212.28
788.72	255.22
789.032	320.75
789.345	255.22
789.658	282.34
789.97	257.48
790.283	298.16
790.595	300.42
790.908	212.28
791.22	368.21
791.532	298.16
791.845	255.22
792.157	309.46
792.469	300.42
792.781	246.18
793.093	359.17
793.405	320.75
793.717	291.38
794.029	264.26
794.341	284.6
794.653	246.18
794.965	284.6
795.276	275.56
795.588	282.34
795.9	198.72
796.211	221.32
796.523	268.78
796.834	302.68
797.146	252.96
797.457	262
797.768	225.84
798.08	266.52
798.391	295.9
798.702	275.56
799.013	243.92
799.324	320.75
799.635	277.82
799.946	273.3
800.257	212.28
800.568	291.38
800.878	332.05
801.189	241.66
801.5	295.9
801.81	302.68
802.121	259.74
802.431	228.1
802.742	300.42
803.052	309.46
803.363	293.64
803.673	255.22
803.983	323.01
804.293	214.54
804.603	289.12
804.913	280.08
805.224	271.04
805.533	259.74
805.843	212.28
806.153	311.71
806.463	298.16
806.773	275.56
807.083	185.16
807.392	255.22
807.702	295.9
808.011	234.88
808.321	266.52
808.63	262
808.94	216.8
809.249	255.22
809.558	282.34
809.868	225.84
810.177	268.78
810.486	255.22
810.795	241.66
811.104	336.57
811.413	205.5
811.722	252.96
812.031	300.42
812.339	284.6
812.648	219.06
812.957	275.56
813.266	262
813.574	225.84
813.883	273.3
814.191	250.7
814.5	359.17
814.808	282.34
815.116	280.08
815.424	277.82
815.733	264.26
816.041	273.3
816.349	300.42
816.657	309.46
816.965	295.9
817.273	255.22
817.581	336.57
817.889	234.88
818.196	237.14
818.504	228.1
818.812	246.18
819.12	257.48
819.427	277.82
819.735	262
820.042	282.34
820.349	318.49
820.657	196.46
820.964	262
821.271	277.82
821.579	239.4
821.886	302.68
822.193	271.04
822.5	302.68
822.807	293.64
823.114	298.16
823.421	255.22
823.727	280.08
824.034	239.4
824.341	257.48
824.648	286.86
824.954	300.42
825.261	225.84
825.567	255.22
825.874	255.22
826.18	259.74
826.486	286.86
826.793	289.12
827.099	250.7
827.405	203.24
827.711	223.58
828.017	266.52
828.323	273.3
828.629	275.56
828.935	248.44
829.241	307.2
829.547	325.27
829.852	336.57
830.158	250.7
830.464	234.88
830.769	241.66
831.075	327.53
831.38	255.22
831.686	255.22
831.991	237.14
832.296	257.48
832.601	246.18
832.907	284.6
833.212	302.68
833.517	230.36
833.822	316.23
834.127	250.7
834.432	198.72
834.737	291.38
835.041	268.78
835.346	295.9
835.651	334.31
835.956	275.56
836.26	262
836.565	316.23
836.869	304.94
837.174	293.64
837.478	264.26
837.782	266.52
838.087	266.52
838.391	273.3
838.695	343.35
838.999	325.27
839.303	282.34
839.607	277.82
839.911	214.54
840.215	264.26
840.519	311.71
840.822	354.65
841.126	318.49
841.43	266.52
841.733	311.71
842.037	262
842.34	325.27
842.644	336.57
842.947	327.53
843.251	277.82
843.554	334.31
843.857	266.52
844.16	309.46
844.463	268.78
844.766	295.9
845.069	239.4
845.372	309.46
845.675	171.61
845.978	307.2
846.281	266.52
846.583	194.2
846.886	255.22
847.189	275.56
847.491	280.08
847.794	259.74
848.096	266.52
848.399	347.87
848.701	271.04
849.003	341.09
849.305	284.6
849.608	241.66
849.91	194.2
850.212	291.38
850.514	264.26
850.816	325.27
851.118	257.48
851.419	259.74
851.721	273.3
852.023	307.2
852.325	338.83
852.626	309.46
852.928	280.08
853.229	302.68
853.531	259.74
853.832	230.36
854.133	259.74
854.435	295.9
854.736	280.08
855.037	284.6
855.338	311.71
855.639	316.23
855.94	255.22
856.241	225.84
856.542	271.04
856.843	291.38
857.144	302.68
857.444	293.64
857.745	214.54
858.046	264.26
858.346	266.52
858.647	214.54
858.947	289.12
859.247	327.53
859.548	338.83
859.848	237.14
860.148	302.68
860.448	262
860.749	266.52
861.049	262
861.349	264.26
861.648	356.91
861.948	266.52
862.248	293.64
862.548	307.2
862.848	280.08
863.147	280.08
863.447	241.66
863.746	264.26
864.046	234.88
864.345	286.86
864.645	200.98
864.944	298.16
865.243	277.82
865.542	291.38
865.842	212.28
866.141	271.04
866.44	259.74
866.739	280.08
867.038	259.74
867.337	243.92
867.635	234.88
867.934	329.79
868.233	275.56
868.531	212.28
868.83	332.05
869.129	262
869.427	266.52
869.725	237.14
870.024	255.22
870.322	286.86
870.62	275.56
870.918	268.78
871.217	259.74
871.515	280.08
871.813	275.56
872.111	252.96
872.409	252.96
872.706	259.74
873.004	200.98
873.302	223.58
873.6	291.38
873.897	237.14
874.195	241.66
874.492	320.75
874.79	295.9
875.087	295.9
875.384	309.46
875.682	286.86
875.979	232.62
876.276	248.44
876.573	259.74
876.87	259.74
877.167	259.74
