Data from PL_2polymer_F8BT_MEHPPV_USB2H096331_0615.txt Node
Date: Tue Dec 15 16:12:26 CET 2020
User: spadmin
Spectrometer: USB2+H09633
Trigger mode: 0
Integration Time (sec): 1.000000E-2
Scans to average: 1
Electric dark correction enabled: true
Nonlinearity correction enabled: false
Boxcar width: 0
XAxis mode: Wavelengths
Number of Pixels in Spectrum: 2048
>>>>>Begin Spectral Data<<<<<
174.027	-19.35
174.405	-19.35
174.783	-19.35
175.162	-132.34
175.54	-112
175.918	-44.21
176.296	-71.33
176.674	-75.85
177.052	-41.95
177.43	-28.39
177.808	-93.92
178.186	-12.57
178.564	-21.61
178.942	16.81
179.32	0.99
179.698	34.89
180.076	-10.31
180.453	-12.57
180.831	48.45
181.209	28.11
181.587	102.68
181.965	136.58
182.342	222.45
182.72	118.5
183.098	240.53
183.475	220.19
183.853	202.11
184.231	222.45
184.608	292.51
184.986	242.79
185.363	315.1
185.741	287.99
186.118	310.59
186.496	306.07
186.873	263.13
187.251	351.26
187.628	290.25
188.006	283.47
188.383	287.99
188.76	339.96
189.138	360.3
189.515	315.1
189.892	333.18
190.27	319.62
190.647	254.09
191.024	333.18
191.401	303.81
191.778	306.07
192.155	326.4
192.533	269.91
192.91	353.52
193.287	349
193.664	353.52
194.041	328.66
194.418	362.56
194.795	339.96
195.172	324.14
195.549	258.61
195.926	294.77
196.302	285.73
196.679	274.43
197.056	317.36
197.433	355.78
197.81	245.05
198.187	317.36
198.563	249.57
198.94	324.14
199.317	339.96
199.693	333.18
200.07	346.74
200.447	290.25
200.823	285.73
201.2	276.69
201.576	342.22
201.953	337.7
202.329	299.29
202.706	274.43
203.082	328.66
203.459	247.31
203.835	312.84
204.212	306.07
204.588	285.73
204.964	287.99
205.341	303.81
205.717	346.74
206.093	306.07
206.469	335.44
206.846	265.39
207.222	260.87
207.598	256.35
207.974	269.91
208.35	328.66
208.726	269.91
209.102	276.69
209.479	335.44
209.855	274.43
210.231	328.66
210.607	337.7
210.982	321.88
211.358	294.77
211.734	308.33
212.11	371.6
212.486	346.74
212.862	330.92
213.238	326.4
213.614	301.55
213.989	287.99
214.365	245.05
214.741	299.29
215.116	297.03
215.492	297.03
215.868	310.59
216.243	324.14
216.619	391.94
216.995	416.8
217.37	285.73
217.746	303.81
218.121	312.84
218.497	339.96
218.872	254.09
219.247	337.7
219.623	306.07
219.998	358.04
220.374	287.99
220.749	346.74
221.124	303.81
221.499	308.33
221.875	299.29
222.25	364.82
222.625	265.39
223	328.66
223.376	315.1
223.751	310.59
224.126	400.98
224.501	238.27
224.876	283.47
225.251	362.56
225.626	407.76
226.001	358.04
226.376	319.62
226.751	403.24
227.126	385.16
227.501	364.82
227.875	312.84
228.25	339.96
228.625	376.12
229	297.03
229.375	315.1
229.749	355.78
230.124	369.34
230.499	339.96
230.873	324.14
231.248	297.03
231.623	324.14
231.997	328.66
232.372	335.44
232.746	387.42
233.121	385.16
233.495	333.18
233.87	382.9
234.244	285.73
234.619	337.7
234.993	315.1
235.367	337.7
235.742	346.74
236.116	387.42
236.49	335.44
236.865	389.68
237.239	278.95
237.613	321.88
237.987	360.3
238.361	337.7
238.736	328.66
239.11	391.94
239.484	371.6
239.858	414.54
240.232	349
240.606	362.56
240.98	346.74
241.354	362.56
241.728	351.26
242.102	339.96
242.475	317.36
242.849	367.08
243.223	342.22
243.597	441.66
243.971	376.12
244.344	342.22
244.718	362.56
245.092	371.6
245.466	344.48
245.839	378.38
246.213	324.14
246.586	355.78
246.96	351.26
247.334	303.81
247.707	337.7
248.081	382.9
248.454	324.14
248.828	312.84
249.201	394.2
249.574	410.02
249.948	358.04
250.321	303.81
250.694	349
251.068	349
251.441	272.17
251.814	430.36
252.187	394.2
252.561	373.86
252.934	373.86
253.307	382.9
253.68	324.14
254.053	324.14
254.426	353.52
254.799	371.6
255.172	353.52
255.545	326.4
255.918	349
256.291	360.3
256.664	382.9
257.037	385.16
257.41	362.56
257.782	394.2
258.155	378.38
258.528	333.18
258.901	380.64
259.273	328.66
259.646	405.5
260.019	389.68
260.391	299.29
260.764	389.68
261.137	342.22
261.509	335.44
261.882	337.7
262.254	346.74
262.627	382.9
262.999	355.78
263.372	398.72
263.744	400.98
264.116	344.48
264.489	349
264.861	446.17
265.233	373.86
265.606	391.94
265.978	310.59
266.35	319.62
266.722	441.66
267.094	335.44
267.467	430.36
267.839	378.38
268.211	389.68
268.583	312.84
268.955	355.78
269.327	355.78
269.699	391.94
270.071	364.82
270.443	407.76
270.815	434.88
271.186	437.14
271.558	358.04
271.93	364.82
272.302	396.46
272.674	335.44
273.045	376.12
273.417	410.02
273.789	461.99
274.16	421.32
274.532	425.84
274.904	358.04
275.275	337.7
275.647	360.3
276.018	396.46
276.39	403.24
276.761	414.54
277.133	398.72
277.504	337.7
277.875	315.1
278.247	425.84
278.618	452.95
278.989	419.06
279.361	419.06
279.732	432.62
280.103	362.56
280.474	403.24
280.846	475.55
281.217	389.68
281.588	459.73
281.959	410.02
282.33	416.8
282.701	355.78
283.072	466.51
283.443	452.95
283.814	405.5
284.185	410.02
284.556	482.33
284.927	394.2
285.297	443.91
285.668	410.02
286.039	443.91
286.41	405.5
286.781	425.84
287.151	398.72
287.522	446.17
287.893	425.84
288.263	466.51
288.634	405.5
289.004	428.1
289.375	437.14
289.745	387.42
290.116	428.1
290.486	403.24
290.857	439.4
291.227	398.72
291.598	396.46
291.968	452.95
292.338	405.5
292.709	466.51
293.079	425.84
293.449	468.77
293.819	367.08
294.189	452.95
294.56	407.76
294.93	407.76
295.3	441.66
295.67	351.26
296.04	484.59
296.41	441.66
296.78	344.48
297.15	344.48
297.52	407.76
297.89	450.69
298.259	457.47
298.629	407.76
298.999	432.62
299.369	452.95
299.739	428.1
300.108	455.21
300.478	410.02
300.848	437.14
301.217	428.1
301.587	468.77
301.957	394.2
302.326	432.62
302.696	486.85
303.065	455.21
303.435	502.67
303.804	432.62
304.174	464.25
304.543	346.74
304.912	464.25
305.282	457.47
305.651	452.95
306.02	486.85
306.39	459.73
306.759	430.36
307.128	502.67
307.497	455.21
307.866	523.01
308.235	534.31
308.604	459.73
308.974	448.43
309.343	428.1
309.712	437.14
310.08	437.14
310.449	516.23
310.818	482.33
311.187	520.75
311.556	457.47
311.925	475.55
312.294	432.62
312.662	516.23
313.031	450.69
313.4	495.89
313.769	550.13
314.137	493.63
314.506	484.59
314.874	452.95
315.243	532.05
315.612	480.07
315.98	414.54
316.349	448.43
316.717	421.32
317.085	495.89
317.454	419.06
317.822	486.85
318.191	500.41
318.559	434.88
318.927	428.1
319.295	495.89
319.664	439.4
320.032	509.45
320.4	475.55
320.768	468.77
321.136	480.07
321.504	520.75
321.872	500.41
322.24	545.61
322.608	455.21
322.976	588.54
323.344	574.98
323.712	410.02
324.08	500.41
324.448	534.31
324.816	475.55
325.183	552.39
325.551	441.66
325.919	534.31
326.287	461.99
326.654	473.29
327.022	511.71
327.389	477.81
327.757	556.91
328.125	464.25
328.492	527.53
328.86	525.27
329.227	412.28
329.594	473.29
329.962	466.51
330.329	541.09
330.697	511.71
331.064	513.97
331.431	489.11
331.798	556.91
332.166	495.89
332.533	588.54
332.9	541.09
333.267	570.47
333.634	498.15
334.001	584.02
334.368	534.31
334.735	529.79
335.102	511.71
335.469	604.36
335.836	568.21
336.203	534.31
336.57	547.87
336.937	500.41
337.304	620.18
337.67	523.01
338.037	617.92
338.404	602.1
338.771	617.92
339.137	545.61
339.504	568.21
339.87	532.05
340.237	532.05
340.604	554.65
340.97	586.28
341.337	620.18
341.703	604.36
342.069	593.06
342.436	577.24
342.802	617.92
343.169	617.92
343.535	642.78
343.901	663.12
344.267	604.36
344.634	556.91
345	663.12
345.366	595.32
345.732	593.06
346.098	683.46
346.464	579.5
346.83	663.12
347.196	633.74
347.562	572.73
347.928	645.04
348.294	606.62
348.66	669.9
349.026	626.96
349.392	574.98
349.757	602.1
350.123	674.42
350.489	624.7
350.855	737.69
351.22	717.35
351.586	663.12
351.951	678.94
352.317	681.2
352.683	791.93
353.048	647.3
353.414	620.18
353.779	633.74
354.144	703.8
354.51	726.39
354.875	735.43
355.24	712.83
355.606	717.35
355.971	769.33
356.336	717.35
356.701	665.38
357.067	715.09
357.432	778.37
357.797	762.55
358.162	796.45
358.527	805.49
358.892	780.63
359.257	764.81
359.622	758.03
359.987	819.05
360.352	846.16
360.717	798.71
361.082	780.63
361.446	798.71
361.811	828.09
362.176	861.98
362.541	832.61
362.905	871.02
363.27	871.02
363.635	877.8
363.999	988.53
364.364	941.08
364.728	941.08
365.093	968.19
365.457	904.92
365.822	911.7
366.186	918.48
366.55	954.64
366.915	929.78
367.279	1013.39
367.643	1042.77
368.008	997.57
368.372	977.23
368.736	1072.15
369.1	997.57
369.464	1058.59
369.828	1087.97
370.192	1167.06
370.556	1101.52
370.92	1142.2
371.284	1162.54
371.648	1176.1
372.012	1246.15
372.376	1289.09
372.74	1271.01
373.104	1336.55
373.468	1372.7
373.831	1469.88
374.195	1431.46
374.559	1533.15
374.922	1435.98
375.286	1558.01
375.65	1539.93
376.013	1673.26
376.377	1745.58
376.74	1750.1
377.104	1856.31
377.467	1901.5
377.83	1973.82
378.194	2116.19
378.557	2263.08
378.92	2344.43
379.284	2450.64
379.647	2593.01
380.01	2771.54
380.373	3054.02
380.736	3137.63
381.1	3557.96
381.463	3720.66
381.826	3851.73
382.189	4324.04
382.552	4520.64
382.915	5006.51
383.278	5212.15
383.64	5790.67
384.003	6199.7
384.366	6782.73
384.729	7422.26
385.092	7951.06
385.454	8563.48
385.817	9512.6
386.18	10310.32
386.542	11478.65
386.905	12475.24
387.268	13770.12
387.63	15379.12
387.993	16371.18
388.355	17738.38
388.718	19876.17
389.08	21598.16
389.442	23665.9
389.805	25159.65
390.167	27143.78
390.529	30104.15
390.892	33889.36
391.254	35857.67
391.616	38296.03
391.978	42490.27
392.34	46580.55
392.702	48499.15
393.064	51791.72
393.426	54010.87
393.788	55635.68
394.15	57265.02
394.512	59226.55
394.874	60953.06
395.236	62686.35
395.598	64487.43
395.96	65054.65
396.321	65054.65
396.683	65054.65
397.045	65054.65
397.406	65054.65
397.768	65054.65
398.13	65054.65
398.491	65054.65
398.853	65054.65
399.214	65054.65
399.576	65054.65
399.937	65054.65
400.299	65054.65
400.66	65054.65
401.021	65054.65
401.383	65054.65
401.744	65054.65
402.105	65054.65
402.466	65054.65
402.827	65054.65
403.189	65054.65
403.55	65054.65
403.911	65054.65
404.272	65054.65
404.633	65054.65
404.994	65054.65
405.355	65054.65
405.716	65054.65
406.077	65054.65
406.437	65054.65
406.798	65054.65
407.159	65054.65
407.52	65054.65
407.88	65054.65
408.241	65054.65
408.602	65054.65
408.962	65054.65
409.323	65054.65
409.684	65054.65
410.044	65054.65
410.405	65054.65
410.765	65054.65
411.125	65054.65
411.486	65054.65
411.846	65054.65
412.206	65054.65
412.567	65054.65
412.927	65054.65
413.287	65054.65
413.647	65054.65
414.007	65054.65
414.368	65054.65
414.728	65054.65
415.088	65054.65
415.448	65054.65
415.808	65054.65
416.168	65054.65
416.528	65054.65
416.887	65054.65
417.247	65054.65
417.607	65054.65
417.967	65054.65
418.327	65054.65
418.686	65054.65
419.046	65054.65
419.406	65054.65
419.765	65054.65
420.125	65054.65
420.484	65054.65
420.844	65054.65
421.203	65054.65
421.563	64568.78
421.922	64311.16
422.282	62510.08
422.641	61102.21
423	59786.99
423.36	58887.58
423.719	56921.53
424.078	54901.24
424.437	53131.8
424.796	51606.41
425.155	49712.68
425.515	47362.46
425.874	46069.83
426.233	42381.8
426.592	39749.1
426.95	39258.71
427.309	36691.55
427.668	35878.01
428.027	32804.65
428.386	32208.05
428.745	29136.95
429.103	27539.25
429.462	26056.8
429.821	24208.26
430.179	23234.28
430.538	22542.77
430.897	21819.62
431.255	20759.76
431.614	19356.41
431.972	18829.87
432.33	18140.62
432.689	17817.47
433.047	16405.08
433.405	15458.21
433.764	15015.28
434.122	14463.89
434.48	13557.69
434.838	12816.47
435.197	12296.71
435.555	12093.33
435.913	11469.61
436.271	11085.44
436.629	10534.05
436.987	10125.02
437.345	9666.27
437.703	9397.35
438.061	8778.16
438.418	8219.98
438.776	7973.66
439.134	7686.66
439.492	7607.57
439.849	6974.82
440.207	6730.76
440.565	6423.42
440.922	6061.85
441.28	5790.67
441.637	5562.42
441.995	5485.59
442.352	5074.3
442.71	4864.14
443.067	4766.97
443.425	4570.36
443.782	4339.86
444.139	4378.27
444.496	4170.37
444.854	4009.92
445.211	3817.84
445.568	3772.64
445.925	3544.4
446.282	3402.03
446.639	3352.31
446.996	3268.7
447.353	3309.38
447.71	3203.16
448.067	3072.09
448.424	3047.24
448.781	2850.63
449.137	2701.48
449.494	2674.36
449.851	2538.78
450.208	2394.15
450.564	2409.96
450.921	2251.78
451.278	2206.58
451.634	2287.93
451.991	2104.89
452.347	2093.59
452.704	1967.04
453.06	1960.26
453.416	1865.35
453.773	1729.76
454.129	1845.01
454.485	1677.78
454.841	1677.78
455.198	1652.92
455.554	1472.14
455.91	1564.79
456.266	1528.63
456.622	1411.12
456.978	1406.6
457.334	1390.78
457.69	1332.03
458.046	1214.52
458.402	1243.89
458.758	1110.56
459.114	1185.14
459.469	1158.02
459.825	1049.55
460.181	1151.24
460.536	1144.46
460.892	977.23
461.248	1042.77
461.603	1072.15
461.959	943.34
462.314	954.64
462.67	995.31
463.025	947.86
463.38	956.9
463.736	965.94
464.091	886.84
464.446	886.84
464.802	828.09
465.157	857.46
465.512	861.98
465.867	855.2
466.222	882.32
466.577	816.79
466.932	800.97
467.287	769.33
467.642	712.83
467.997	828.09
468.352	762.55
468.707	755.77
469.062	798.71
469.417	782.89
469.771	733.17
470.126	748.99
470.481	699.28
470.835	687.98
471.19	694.76
471.544	717.35
471.899	642.78
472.253	651.82
472.608	681.2
472.962	769.33
473.317	687.98
473.671	669.9
474.025	654.08
474.38	697.02
474.734	654.08
475.088	678.94
475.442	552.39
475.796	588.54
476.15	565.95
476.504	651.82
476.858	629.22
477.212	586.28
477.566	663.12
477.92	642.78
478.274	626.96
478.628	645.04
478.982	604.36
479.336	565.95
479.689	563.69
480.043	602.1
480.397	590.8
480.75	638.26
481.104	554.65
481.457	574.98
481.811	565.95
482.164	559.17
482.518	631.48
482.871	574.98
483.225	608.88
483.578	590.8
483.931	507.19
484.284	504.93
484.638	579.5
484.991	534.31
485.344	432.62
485.697	563.69
486.05	538.83
486.403	590.8
486.756	604.36
487.109	541.09
487.462	538.83
487.815	570.47
488.168	527.53
488.52	574.98
488.873	581.76
489.226	615.66
489.579	518.49
489.931	590.8
490.284	527.53
490.637	502.67
490.989	572.73
491.342	516.23
491.694	570.47
492.047	561.43
492.399	437.14
492.751	570.47
493.104	536.57
493.456	597.58
493.808	543.35
494.16	532.05
494.513	529.79
494.865	545.61
495.217	532.05
495.569	538.83
495.921	550.13
496.273	550.13
496.625	543.35
496.977	518.49
497.329	513.97
497.68	482.33
498.032	523.01
498.384	523.01
498.736	534.31
499.087	552.39
499.439	538.83
499.791	624.7
500.142	574.98
500.494	574.98
500.845	579.5
501.197	579.5
501.548	559.17
501.9	613.4
502.251	584.02
502.602	590.8
502.954	559.17
503.305	527.53
503.656	561.43
504.007	595.32
504.358	574.98
504.709	656.34
505.061	622.44
505.412	584.02
505.763	649.56
506.113	667.64
506.464	697.02
506.815	638.26
507.166	633.74
507.517	647.3
507.868	663.12
508.218	636
508.569	681.2
508.92	651.82
509.27	717.35
509.621	771.59
509.971	778.37
510.322	692.5
510.672	746.73
511.023	728.65
511.373	633.74
511.723	715.09
512.074	760.29
512.424	798.71
512.774	778.37
513.124	755.77
513.475	798.71
513.825	767.07
514.175	855.2
514.525	796.45
514.875	730.91
515.225	834.87
515.575	828.09
515.924	945.6
516.274	938.82
516.624	834.87
516.974	875.54
517.324	925.26
517.673	904.92
518.023	889.1
518.373	895.88
518.722	954.64
519.072	993.05
519.421	1040.51
519.771	927.52
520.12	943.34
520.469	1017.91
520.819	1047.29
521.168	1042.77
521.517	997.57
521.867	1004.35
522.216	1035.99
522.565	938.82
522.914	1110.56
523.263	1006.61
523.612	1033.73
523.961	1060.85
524.31	1045.03
524.659	1058.59
525.008	1128.64
525.357	1078.93
525.705	1078.93
526.054	1178.36
526.403	1033.73
526.752	1124.12
527.1	1151.24
527.449	1099.26
527.797	1135.42
528.146	1212.26
528.495	1112.82
528.843	1185.14
529.191	1171.58
529.54	1232.59
529.888	1228.08
530.236	1198.7
530.585	1225.82
530.933	1225.82
531.281	1205.48
531.629	1280.05
531.977	1167.06
532.325	1259.71
532.673	1223.56
533.021	1212.26
533.369	1309.43
533.717	1255.19
534.065	1284.57
534.413	1200.96
534.761	1225.82
535.108	1198.7
535.456	1173.84
535.804	1316.21
536.151	1273.27
536.499	1241.63
536.847	1261.97
537.194	1187.4
537.542	1264.23
537.889	1248.41
538.236	1266.49
538.584	1243.89
538.931	1282.31
539.278	1169.32
539.626	1191.92
539.973	1255.19
540.32	1284.57
540.667	1243.89
541.014	1300.39
541.361	1237.11
541.708	1221.3
542.055	1289.09
542.402	1164.8
542.749	1180.62
543.096	1282.31
543.443	1196.44
543.789	1219.04
544.136	1311.69
544.483	1194.18
544.83	1216.78
545.176	1239.37
545.523	1307.17
545.869	1341.07
546.216	1316.21
546.562	1311.69
546.909	1275.53
547.255	1277.79
547.601	1325.25
547.948	1291.35
548.294	1341.07
548.64	1223.56
548.986	1302.65
549.332	1304.91
549.678	1286.83
550.025	1257.45
550.371	1250.67
550.717	1309.43
551.062	1318.47
551.408	1322.99
551.754	1250.67
552.1	1341.07
552.446	1293.61
552.792	1300.39
553.137	1329.77
553.483	1361.4
553.828	1268.75
554.174	1241.63
554.52	1252.93
554.865	1264.23
555.211	1216.78
555.556	1334.29
555.901	1406.6
556.247	1313.95
556.592	1354.63
556.937	1341.07
557.282	1334.29
557.628	1390.78
557.973	1399.82
558.318	1313.95
558.663	1408.86
559.008	1438.24
559.353	1469.88
559.698	1429.2
560.043	1379.48
560.388	1449.54
560.732	1377.22
561.077	1424.68
561.422	1397.56
561.766	1451.8
562.111	1435.98
562.456	1503.77
562.8	1501.51
563.145	1431.46
563.489	1478.92
563.834	1553.49
564.178	1582.87
564.523	1517.33
564.867	1508.29
565.211	1476.66
565.555	1460.84
565.9	1594.17
566.244	1673.26
566.588	1680.04
566.932	1562.53
567.276	1481.18
567.62	1519.59
567.964	1616.77
568.308	1591.91
568.652	1607.73
568.996	1652.92
569.339	1682.3
569.683	1677.78
570.027	1691.34
570.371	1700.38
570.714	1609.99
571.058	1698.12
571.401	1713.94
571.745	1693.6
572.088	1693.6
572.432	1707.16
572.775	1752.36
573.118	1709.42
573.462	1652.92
573.805	1680.04
574.148	1691.34
574.491	1718.46
574.835	1607.73
575.178	1734.28
575.521	1698.12
575.864	1616.77
576.207	1804.33
576.55	1745.58
576.892	1752.36
577.235	1619.03
577.578	1729.76
577.921	1727.5
578.264	1677.78
578.606	1768.17
578.949	1700.38
579.292	1689.08
579.634	1686.82
579.977	1684.56
580.319	1691.34
580.662	1756.87
581.004	1666.48
581.346	1702.64
581.689	1777.21
582.031	1684.56
582.373	1677.78
582.715	1576.09
583.057	1693.6
583.4	1598.69
583.742	1666.48
584.084	1589.65
584.426	1628.06
584.768	1582.87
585.109	1623.54
585.451	1526.37
585.793	1548.97
586.135	1582.87
586.477	1603.21
586.818	1539.93
587.16	1539.93
587.502	1677.78
587.843	1555.75
588.185	1558.01
588.526	1512.81
588.868	1476.66
589.209	1472.14
589.55	1393.04
589.892	1420.16
590.233	1530.89
590.574	1431.46
590.915	1417.9
591.257	1370.44
591.598	1255.19
591.939	1261.97
592.28	1386.26
592.621	1298.13
592.962	1411.12
593.303	1302.65
593.643	1377.22
593.984	1320.73
594.325	1261.97
594.666	1316.21
595.006	1300.39
595.347	1261.97
595.688	1252.93
596.028	1232.59
596.369	1255.19
596.709	1124.12
597.05	1194.18
597.39	1216.78
597.73	1234.85
598.071	1128.64
598.411	1180.62
598.751	1167.06
599.091	1090.23
599.431	1205.48
599.772	1212.26
600.112	1063.11
600.452	1031.47
600.792	1205.48
601.132	1045.03
601.471	1002.09
601.811	1020.17
602.151	997.57
602.491	979.49
602.831	1017.91
603.17	1051.81
603.51	1142.2
603.849	1013.39
604.189	954.64
604.528	1004.35
604.868	1033.73
605.207	974.97
605.547	1006.61
605.886	956.9
606.225	918.48
606.565	1008.87
606.904	979.49
607.243	900.4
607.582	923
607.921	947.86
608.26	954.64
608.599	981.75
608.938	852.94
609.277	902.66
609.616	934.3
609.955	891.36
610.293	871.02
610.632	936.56
610.971	911.7
611.309	952.38
611.648	859.72
611.987	941.08
612.325	830.35
612.664	852.94
613.002	846.16
613.34	884.58
613.679	889.1
614.017	936.56
614.355	950.12
614.694	907.18
615.032	828.09
615.37	823.57
615.708	787.41
616.046	832.61
616.384	891.36
616.722	864.24
617.06	819.05
617.398	886.84
617.736	778.37
618.073	880.06
618.411	791.93
618.749	837.12
619.086	884.58
619.424	789.67
619.762	868.76
620.099	902.66
620.437	814.53
620.774	843.9
621.112	773.85
621.449	794.19
621.786	891.36
622.123	848.42
622.461	764.81
622.798	805.49
623.135	832.61
623.472	828.09
623.809	812.27
624.146	771.59
624.483	852.94
624.82	798.71
625.157	800.97
625.494	841.64
625.83	841.64
626.167	787.41
626.504	821.31
626.841	780.63
627.177	850.68
627.514	800.97
627.85	904.92
628.187	767.07
628.523	785.15
628.86	868.76
629.196	778.37
629.532	864.24
629.869	762.55
630.205	751.25
630.541	800.97
630.877	778.37
631.213	832.61
631.549	782.89
631.885	780.63
632.221	726.39
632.557	830.35
632.893	796.45
633.229	771.59
633.564	748.99
633.9	706.05
634.236	708.31
634.572	782.89
634.907	678.94
635.243	733.17
635.578	764.81
635.914	751.25
636.249	735.43
636.585	715.09
636.92	687.98
637.255	728.65
637.59	663.12
637.926	717.35
638.261	715.09
638.596	681.2
638.931	764.81
639.266	769.33
639.601	760.29
639.936	658.6
640.271	735.43
640.606	710.57
640.94	712.83
641.275	658.6
641.61	728.65
641.945	697.02
642.279	626.96
642.614	685.72
642.948	611.14
643.283	685.72
643.617	640.52
643.952	561.43
644.286	631.48
644.62	669.9
644.955	626.96
645.289	624.7
645.623	629.22
645.957	608.88
646.291	577.24
646.625	658.6
646.959	574.98
647.293	579.5
647.627	611.14
647.961	554.65
648.295	595.32
648.629	620.18
648.962	529.79
649.296	636
649.63	523.01
649.963	554.65
650.297	500.41
650.63	608.88
650.964	552.39
651.297	570.47
651.631	620.18
651.964	584.02
652.297	561.43
652.631	518.49
652.964	554.65
653.297	586.28
653.63	541.09
653.963	547.87
654.296	550.13
654.629	493.63
654.962	513.97
655.295	484.59
655.628	493.63
655.961	572.73
656.293	534.31
656.626	480.07
656.959	541.09
657.291	473.29
657.624	473.29
657.956	491.37
658.289	489.11
658.621	516.23
658.954	450.69
659.286	554.65
659.618	459.73
659.95	509.45
660.283	491.37
660.615	493.63
660.947	455.21
661.279	516.23
661.611	464.25
661.943	520.75
662.275	403.24
662.607	459.73
662.939	502.67
663.27	455.21
663.602	461.99
663.934	527.53
664.266	428.1
664.597	410.02
664.929	450.69
665.26	461.99
665.592	457.47
665.923	471.03
666.255	410.02
666.586	400.98
666.917	419.06
667.248	412.28
667.58	459.73
667.911	466.51
668.242	414.54
668.573	373.86
668.904	439.4
669.235	394.2
669.566	457.47
669.897	464.25
670.228	425.84
670.558	468.77
670.889	398.72
671.22	412.28
671.551	396.46
671.881	466.51
672.212	475.55
672.542	446.17
672.873	362.56
673.203	380.64
673.533	369.34
673.864	448.43
674.194	391.94
674.524	425.84
674.855	441.66
675.185	400.98
675.515	337.7
675.845	376.12
676.175	410.02
676.505	362.56
676.835	457.47
677.165	400.98
677.494	362.56
677.824	367.08
678.154	391.94
678.484	385.16
678.813	346.74
679.143	330.92
679.472	358.04
679.802	425.84
680.131	349
680.461	360.3
680.79	430.36
681.119	362.56
681.449	376.12
681.778	283.47
682.107	376.12
682.436	400.98
682.765	351.26
683.094	385.16
683.423	452.95
683.752	398.72
684.081	328.66
684.41	355.78
684.739	337.7
685.067	355.78
685.396	367.08
685.725	428.1
686.053	385.16
686.382	358.04
686.711	330.92
687.039	378.38
687.367	337.7
687.696	358.04
688.024	376.12
688.352	378.38
688.681	312.84
689.009	324.14
689.337	355.78
689.665	385.16
689.993	360.3
690.321	367.08
690.649	342.22
690.977	339.96
691.305	310.59
691.633	324.14
691.961	328.66
692.288	360.3
692.616	364.82
692.944	317.36
693.271	367.08
693.599	287.99
693.926	346.74
694.254	260.87
694.581	333.18
694.908	346.74
695.236	278.95
695.563	382.9
695.89	290.25
696.217	315.1
696.544	324.14
696.871	382.9
697.198	337.7
697.525	324.14
697.852	389.68
698.179	326.4
698.506	421.32
698.833	419.06
699.16	396.46
699.486	333.18
699.813	337.7
700.139	306.07
700.466	299.29
700.793	324.14
701.119	283.47
701.445	346.74
701.772	299.29
702.098	285.73
702.424	312.84
702.75	297.03
703.077	321.88
703.403	328.66
703.729	346.74
704.055	369.34
704.381	337.7
704.707	278.95
705.033	306.07
705.358	378.38
705.684	324.14
706.01	328.66
706.336	351.26
706.661	315.1
706.987	337.7
707.312	278.95
707.638	339.96
707.963	310.59
708.289	321.88
708.614	339.96
708.939	267.65
709.265	287.99
709.59	328.66
709.915	351.26
710.24	321.88
710.565	319.62
710.89	321.88
711.215	269.91
711.54	328.66
711.865	263.13
712.19	328.66
712.515	301.55
712.839	328.66
713.164	292.51
713.489	299.29
713.813	276.69
714.138	283.47
714.462	306.07
714.787	292.51
715.111	251.83
715.435	260.87
715.76	274.43
716.084	312.84
716.408	287.99
716.732	349
717.056	254.09
717.381	294.77
717.705	321.88
718.028	265.39
718.352	278.95
718.676	281.21
719	315.1
719.324	251.83
719.648	335.44
719.971	330.92
720.295	231.49
720.618	292.51
720.942	310.59
721.265	274.43
721.589	238.27
721.912	333.18
722.236	256.35
722.559	358.04
722.882	369.34
723.205	306.07
723.528	222.45
723.851	281.21
724.174	308.33
724.497	315.1
724.82	326.4
725.143	292.51
725.466	312.84
725.789	292.51
726.112	294.77
726.434	306.07
726.757	272.17
727.08	310.59
727.402	328.66
727.725	249.57
728.047	220.19
728.37	303.81
728.692	310.59
729.014	274.43
729.336	299.29
729.659	229.23
729.981	299.29
730.303	321.88
730.625	240.53
730.947	317.36
731.269	306.07
731.591	213.41
731.913	297.03
732.235	260.87
732.556	319.62
732.878	269.91
733.2	272.17
733.521	312.84
733.843	260.87
734.164	265.39
734.486	285.73
734.807	281.21
735.129	310.59
735.45	328.66
735.771	278.95
736.092	312.84
736.414	269.91
736.735	315.1
737.056	220.19
737.377	335.44
737.698	278.95
738.019	245.05
738.34	272.17
738.66	245.05
738.981	215.67
739.302	281.21
739.623	297.03
739.943	265.39
740.264	292.51
740.584	283.47
740.905	321.88
741.225	283.47
741.546	247.31
741.866	290.25
742.186	254.09
742.507	312.84
742.827	326.4
743.147	285.73
743.467	294.77
743.787	256.35
744.107	285.73
744.427	249.57
744.747	290.25
745.067	290.25
745.386	299.29
745.706	220.19
746.026	294.77
746.346	274.43
746.665	281.21
746.985	258.61
747.304	324.14
747.624	287.99
747.943	238.27
748.262	278.95
748.582	330.92
748.901	283.47
749.22	254.09
749.539	247.31
749.858	281.21
750.177	294.77
750.496	274.43
750.815	226.97
751.134	299.29
751.453	272.17
751.772	299.29
752.09	260.87
752.409	319.62
752.728	278.95
753.046	199.85
753.365	222.45
753.683	303.81
754.002	258.61
754.32	245.05
754.639	306.07
754.957	301.55
755.275	256.35
755.593	328.66
755.911	285.73
756.23	190.81
756.548	308.33
756.866	276.69
757.183	278.95
757.501	256.35
757.819	306.07
758.137	233.75
758.455	272.17
758.772	251.83
759.09	263.13
759.408	256.35
759.725	256.35
760.043	229.23
760.36	274.43
760.677	265.39
760.995	249.57
761.312	272.17
761.629	287.99
761.946	297.03
762.264	229.23
762.581	265.39
762.898	294.77
763.215	278.95
763.532	263.13
763.848	229.23
764.165	269.91
764.482	301.55
764.799	287.99
765.115	315.1
765.432	260.87
765.749	242.79
766.065	330.92
766.382	199.85
766.698	281.21
767.014	258.61
767.331	281.21
767.647	231.49
767.963	245.05
768.279	220.19
768.595	278.95
768.911	290.25
769.227	202.11
769.543	290.25
769.859	260.87
770.175	251.83
770.491	236.01
770.807	217.93
771.122	276.69
771.438	242.79
771.754	319.62
772.069	251.83
772.385	292.51
772.7	278.95
773.016	188.55
773.331	229.23
773.646	312.84
773.961	297.03
774.277	269.91
774.592	238.27
774.907	299.29
775.222	301.55
775.537	245.05
775.852	315.1
776.167	281.21
776.482	312.84
776.796	245.05
777.111	269.91
777.426	287.99
777.74	281.21
778.055	204.37
778.369	297.03
778.684	260.87
778.998	312.84
779.313	265.39
779.627	186.29
779.941	217.93
780.255	317.36
780.57	263.13
780.884	335.44
781.198	276.69
781.512	303.81
781.826	278.95
782.14	272.17
782.453	238.27
782.767	263.13
783.081	346.74
783.395	240.53
783.708	240.53
784.022	245.05
784.335	249.57
784.649	328.66
784.962	236.01
785.276	267.65
785.589	269.91
785.902	281.21
786.216	251.83
786.529	285.73
786.842	190.81
787.155	303.81
787.468	310.59
787.781	254.09
788.094	231.49
788.407	278.95
788.72	287.99
789.032	285.73
789.345	254.09
789.658	229.23
789.97	247.31
790.283	233.75
790.595	297.03
790.908	283.47
791.22	321.88
791.532	339.96
791.845	251.83
792.157	256.35
792.469	285.73
792.781	211.15
793.093	188.55
793.405	278.95
793.717	249.57
794.029	297.03
794.341	281.21
794.653	236.01
794.965	240.53
795.276	330.92
795.588	265.39
795.9	362.56
796.211	263.13
796.523	269.91
796.834	276.69
797.146	281.21
797.457	233.75
797.768	242.79
798.08	256.35
798.391	215.67
798.702	263.13
799.013	247.31
799.324	254.09
799.635	269.91
799.946	231.49
800.257	193.07
800.568	247.31
800.878	236.01
801.189	337.7
801.5	256.35
801.81	285.73
802.121	263.13
802.431	272.17
802.742	256.35
803.052	233.75
803.363	310.59
803.673	328.66
803.983	215.67
804.293	287.99
804.603	274.43
804.913	211.15
805.224	360.3
805.533	254.09
805.843	224.71
806.153	281.21
806.463	276.69
806.773	217.93
807.083	263.13
807.392	249.57
807.702	292.51
808.011	299.29
808.321	233.75
808.63	224.71
808.94	312.84
809.249	312.84
809.558	240.53
809.868	299.29
810.177	256.35
810.486	281.21
810.795	256.35
811.104	256.35
811.413	258.61
811.722	215.67
812.031	265.39
812.339	254.09
812.648	213.41
812.957	208.89
813.266	267.65
813.574	278.95
813.883	269.91
814.191	267.65
814.5	267.65
814.808	233.75
815.116	315.1
815.424	281.21
815.733	245.05
816.041	321.88
816.349	278.95
816.657	265.39
816.965	224.71
817.273	272.17
817.581	260.87
817.889	251.83
818.196	208.89
818.504	229.23
818.812	226.97
819.12	231.49
819.427	265.39
819.735	251.83
820.042	281.21
820.349	226.97
820.657	222.45
820.964	208.89
821.271	278.95
821.579	226.97
821.886	299.29
822.193	263.13
822.5	310.59
822.807	224.71
823.114	265.39
823.421	301.55
823.727	267.65
824.034	306.07
824.341	263.13
824.648	233.75
824.954	206.63
825.261	229.23
825.567	236.01
825.874	240.53
826.18	297.03
826.486	274.43
826.793	238.27
827.099	222.45
827.405	226.97
827.711	236.01
828.017	260.87
828.323	281.21
828.629	240.53
828.935	238.27
829.241	220.19
829.547	240.53
829.852	290.25
830.158	317.36
830.464	267.65
830.769	211.15
831.075	240.53
831.38	256.35
831.686	245.05
831.991	276.69
832.296	278.95
832.601	211.15
832.907	278.95
833.212	294.77
833.517	226.97
833.822	251.83
834.127	287.99
834.432	272.17
834.737	276.69
835.041	274.43
835.346	195.33
835.651	240.53
835.956	204.37
836.26	199.85
836.565	278.95
836.869	274.43
837.174	283.47
837.478	287.99
837.782	170.48
838.087	272.17
838.391	208.89
838.695	276.69
838.999	258.61
839.303	290.25
839.607	233.75
839.911	254.09
840.215	233.75
840.519	224.71
840.822	256.35
841.126	312.84
841.43	287.99
841.733	263.13
842.037	222.45
842.34	245.05
842.644	294.77
842.947	274.43
843.251	287.99
843.554	256.35
843.857	233.75
844.16	199.85
844.463	217.93
844.766	294.77
845.069	301.55
845.372	226.97
845.675	190.81
845.978	297.03
846.281	299.29
846.583	265.39
846.886	258.61
847.189	260.87
847.491	229.23
847.794	236.01
848.096	251.83
848.399	297.03
848.701	202.11
849.003	263.13
849.305	276.69
849.608	265.39
849.91	202.11
850.212	265.39
850.514	283.47
850.816	281.21
851.118	206.63
851.419	306.07
851.721	287.99
852.023	263.13
852.325	281.21
852.626	285.73
852.928	281.21
853.229	256.35
853.531	283.47
853.832	236.01
854.133	242.79
854.435	267.65
854.736	317.36
855.037	324.14
855.338	297.03
855.639	274.43
855.94	233.75
856.241	213.41
856.542	308.33
856.843	251.83
857.144	269.91
857.444	254.09
857.745	278.95
858.046	202.11
858.346	308.33
858.647	245.05
858.947	290.25
859.247	247.31
859.548	247.31
859.848	276.69
860.148	247.31
860.448	299.29
860.749	269.91
861.049	287.99
861.349	310.59
861.648	229.23
861.948	220.19
862.248	190.81
862.548	256.35
862.848	276.69
863.147	267.65
863.447	206.63
863.746	292.51
864.046	224.71
864.345	202.11
864.645	195.33
864.944	208.89
865.243	272.17
865.542	224.71
865.842	247.31
866.141	233.75
866.44	240.53
866.739	297.03
867.038	231.49
867.337	324.14
867.635	224.71
867.934	274.43
868.233	294.77
868.531	278.95
868.83	287.99
869.129	292.51
869.427	215.67
869.725	217.93
870.024	247.31
870.322	226.97
870.62	294.77
870.918	272.17
871.217	258.61
871.515	249.57
871.813	267.65
872.111	233.75
872.409	290.25
872.706	217.93
873.004	229.23
873.302	177.26
873.6	312.84
873.897	260.87
874.195	215.67
874.492	272.17
874.79	226.97
875.087	274.43
875.384	260.87
875.682	208.89
875.979	231.49
876.276	240.53
876.573	265.39
876.87	265.39
877.167	265.39
