Data from PL_2polymer_F8BT_MEHPPV_USB2H096331_0002.txt Node
Date: Tue Dec 15 16:08:18 CET 2020
User: spadmin
Spectrometer: USB2+H09633
Trigger mode: 0
Integration Time (sec): 1.000000E-2
Scans to average: 1
Electric dark correction enabled: true
Nonlinearity correction enabled: false
Boxcar width: 0
XAxis mode: Wavelengths
Number of Pixels in Spectrum: 2048
>>>>>Begin Spectral Data<<<<<
174.027	-41.1
174.405	-41.1
174.783	-41.1
175.162	-126.97
175.54	-81.78
175.918	-61.44
176.296	-97.6
176.674	-97.6
177.052	-106.64
177.43	-70.48
177.808	-32.06
178.186	-34.32
178.564	-13.98
178.942	-25.28
179.32	33.47
179.698	10.88
180.076	6.36
180.453	78.67
180.831	80.93
181.209	56.07
181.587	130.65
181.965	80.93
182.342	123.87
182.72	189.4
183.098	214.26
183.475	191.66
183.853	288.83
184.231	257.2
184.608	270.76
184.986	358.89
185.363	263.98
185.741	311.43
186.118	257.2
186.496	381.49
186.873	236.86
187.251	365.67
187.628	352.11
188.006	426.68
188.383	295.61
188.76	295.61
189.138	311.43
189.515	320.47
189.892	311.43
190.27	379.23
190.647	329.51
191.024	356.63
191.401	401.83
191.778	381.49
192.155	358.89
192.533	392.79
192.91	406.35
193.287	327.25
193.664	343.07
194.041	340.81
194.418	311.43
194.795	349.85
195.172	349.85
195.549	293.35
195.926	340.81
196.302	304.65
196.679	293.35
197.056	295.61
197.433	365.67
197.81	293.35
198.187	345.33
198.563	363.41
198.94	291.09
199.317	322.73
199.693	297.87
200.07	313.69
200.447	295.61
200.823	291.09
201.2	322.73
201.576	306.91
201.953	282.05
202.329	379.23
202.706	374.71
203.082	388.27
203.459	291.09
203.835	313.69
204.212	340.81
204.588	365.67
204.964	345.33
205.341	324.99
205.717	318.21
206.093	304.65
206.469	273.02
206.846	286.57
207.222	318.21
207.598	266.24
207.974	309.17
208.35	306.91
208.726	340.81
209.102	304.65
209.479	254.94
209.855	261.72
210.231	297.87
210.607	288.83
210.982	318.21
211.358	383.75
211.734	254.94
212.11	313.69
212.486	340.81
212.862	324.99
213.238	282.05
213.614	340.81
213.989	266.24
214.365	338.55
214.741	329.51
215.116	390.53
215.492	358.89
215.868	352.11
216.243	354.37
216.619	331.77
216.995	374.71
217.37	372.45
217.746	352.11
218.121	286.57
218.497	300.13
218.872	374.71
219.247	329.51
219.623	340.81
219.998	356.63
220.374	300.13
220.749	352.11
221.124	293.35
221.499	404.09
221.875	358.89
222.25	356.63
222.625	306.91
223	431.2
223.376	318.21
223.751	358.89
224.126	311.43
224.501	347.59
224.876	349.85
225.251	318.21
225.626	365.67
226.001	388.27
226.376	318.21
226.751	284.31
227.126	315.95
227.501	343.07
227.875	365.67
228.25	327.25
228.625	345.33
229	336.29
229.375	386.01
229.749	338.55
230.124	349.85
230.499	349.85
230.873	273.02
231.248	311.43
231.623	343.07
231.997	367.93
232.372	343.07
232.746	365.67
233.121	381.49
233.495	331.77
233.87	340.81
234.244	381.49
234.619	390.53
234.993	379.23
235.367	404.09
235.742	347.59
236.116	320.47
236.49	388.27
236.865	363.41
237.239	334.03
237.613	406.35
237.987	367.93
238.361	374.71
238.736	410.86
239.11	327.25
239.484	363.41
239.858	410.86
240.232	424.42
240.606	327.25
240.98	392.79
241.354	440.24
241.728	372.45
242.102	399.57
242.475	417.64
242.849	329.51
243.223	417.64
243.597	435.72
243.971	386.01
244.344	381.49
244.718	322.73
245.092	329.51
245.466	451.54
245.839	431.2
246.213	372.45
246.586	399.57
246.96	404.09
247.334	354.37
247.707	381.49
248.081	311.43
248.454	372.45
248.828	331.77
249.201	415.38
249.574	363.41
249.948	336.29
250.321	406.35
250.694	367.93
251.068	388.27
251.441	374.71
251.814	345.33
252.187	478.66
252.561	318.21
252.934	361.15
253.307	365.67
253.68	397.31
254.053	347.59
254.426	428.94
254.799	419.9
255.172	376.97
255.545	460.58
255.918	404.09
256.291	318.21
256.664	433.46
257.037	349.85
257.41	352.11
257.782	347.59
258.155	406.35
258.528	372.45
258.901	361.15
259.273	415.38
259.646	358.89
260.019	397.31
260.391	408.61
260.764	467.36
261.137	437.98
261.509	345.33
261.882	367.93
262.254	354.37
262.627	379.23
262.999	440.24
263.372	408.61
263.744	401.83
264.116	410.86
264.489	406.35
264.861	376.97
265.233	408.61
265.606	379.23
265.978	392.79
266.35	383.75
266.722	408.61
267.094	386.01
267.467	358.89
267.839	413.12
268.211	343.07
268.583	392.79
268.955	417.64
269.327	392.79
269.699	383.75
270.071	410.86
270.443	415.38
270.815	465.1
271.186	408.61
271.558	381.49
271.93	419.9
272.302	365.67
272.674	435.72
273.045	379.23
273.417	397.31
273.789	388.27
274.16	410.86
274.532	449.28
274.904	386.01
275.275	392.79
275.647	390.53
276.018	386.01
276.39	408.61
276.761	381.49
277.133	462.84
277.504	354.37
277.875	361.15
278.247	433.46
278.618	469.62
278.989	433.46
279.361	442.5
279.732	379.23
280.103	517.08
280.474	458.32
280.846	447.02
281.217	426.68
281.588	483.18
281.959	424.42
282.33	419.9
282.701	444.76
283.072	401.83
283.443	424.42
283.814	474.14
284.185	422.16
284.556	395.05
284.927	431.2
285.297	458.32
285.668	372.45
286.039	417.64
286.41	474.14
286.781	517.08
287.151	419.9
287.522	404.09
287.893	478.66
288.263	431.2
288.634	428.94
289.004	460.58
289.375	426.68
289.745	440.24
290.116	399.57
290.486	408.61
290.857	456.06
291.227	426.68
291.598	444.76
291.968	433.46
292.338	480.92
292.709	422.16
293.079	424.42
293.449	424.42
293.819	462.84
294.189	433.46
294.56	437.98
294.93	503.52
295.3	417.64
295.67	458.32
296.04	508.04
296.41	512.56
296.78	376.97
297.15	408.61
297.52	460.58
297.89	392.79
298.259	483.18
298.629	474.14
298.999	428.94
299.369	413.12
299.739	388.27
300.108	408.61
300.478	458.32
300.848	404.09
301.217	404.09
301.587	489.96
301.957	476.4
302.326	460.58
302.696	474.14
303.065	437.98
303.435	376.97
303.804	485.44
304.174	456.06
304.543	489.96
304.912	431.2
305.282	442.5
305.651	437.98
306.02	431.2
306.39	519.34
306.759	487.7
307.128	499
307.497	541.93
307.866	494.48
308.235	510.3
308.604	437.98
308.974	442.5
309.343	453.8
309.712	485.44
310.08	467.36
310.449	503.52
310.818	550.97
311.187	458.32
311.556	523.86
311.925	444.76
312.294	528.38
312.662	471.88
313.031	480.92
313.4	505.78
313.769	474.14
314.137	474.14
314.506	505.78
314.874	460.58
315.243	469.62
315.612	512.56
315.98	496.74
316.349	428.94
316.717	532.9
317.085	609.73
317.454	489.96
317.822	544.19
318.191	444.76
318.559	569.05
318.927	471.88
319.295	532.9
319.664	532.9
320.032	508.04
320.4	494.48
320.768	523.86
321.136	528.38
321.504	478.66
321.872	474.14
322.24	485.44
322.608	508.04
322.976	453.8
323.344	555.49
323.712	494.48
324.08	523.86
324.448	564.53
324.816	514.82
325.183	451.54
325.551	553.23
325.919	537.42
326.287	489.96
326.654	521.6
327.022	476.4
327.389	535.16
327.757	541.93
328.125	528.38
328.492	478.66
328.86	553.23
329.227	607.47
329.594	539.68
329.962	503.52
330.329	537.42
330.697	564.53
331.064	589.39
331.431	523.86
331.798	641.37
332.166	573.57
332.533	560.01
332.9	564.53
333.267	557.75
333.634	569.05
334.001	555.49
334.368	571.31
334.735	607.47
335.102	634.59
335.469	569.05
335.836	571.31
336.203	630.07
336.57	521.6
336.937	605.21
337.304	587.13
337.67	571.31
338.037	684.3
338.404	589.39
338.771	654.93
339.137	643.63
339.504	607.47
339.87	650.41
340.237	589.39
340.604	652.67
340.97	571.31
341.337	593.91
341.703	654.93
342.069	598.43
342.436	616.51
342.802	614.25
343.169	643.63
343.535	623.29
343.901	630.07
344.267	593.91
344.634	634.59
345	616.51
345.366	621.03
345.732	659.45
346.098	625.55
346.464	700.12
346.83	636.85
347.196	621.03
347.562	668.49
347.928	632.33
348.294	668.49
348.66	645.89
349.026	654.93
349.392	718.2
349.757	652.67
350.123	763.4
350.489	616.51
350.855	684.3
351.22	745.32
351.586	697.86
351.951	657.19
352.317	729.5
352.683	702.38
353.048	743.06
353.414	790.52
353.779	745.32
354.144	686.56
354.51	736.28
354.875	804.07
355.24	799.56
355.606	776.96
355.971	700.12
356.336	731.76
356.701	788.26
357.067	695.6
357.432	781.48
357.797	711.42
358.162	837.97
358.527	779.22
358.892	851.53
359.257	724.98
359.622	851.53
359.987	774.7
360.352	865.09
360.717	801.82
361.082	819.89
361.446	772.44
361.811	813.11
362.176	772.44
362.541	865.09
362.905	898.99
363.27	831.19
363.635	921.59
363.999	937.4
364.364	962.26
364.728	939.66
365.093	1007.46
365.457	905.77
365.822	996.16
366.186	1007.46
366.55	987.12
366.915	1077.51
367.279	973.56
367.643	982.6
368.008	1082.03
368.372	1068.47
368.736	1091.07
369.1	1113.67
369.464	1045.88
369.828	1120.45
370.192	1084.29
370.556	1172.43
370.92	1197.28
371.284	1253.78
371.648	1271.86
372.012	1289.94
372.376	1301.24
372.74	1323.84
373.104	1414.23
373.468	1561.12
373.831	1459.42
374.195	1547.56
374.559	1466.2
374.922	1567.9
375.286	1518.18
375.65	1583.72
376.013	1755.46
376.377	1741.9
376.74	1757.72
377.104	1915.91
377.467	1872.97
377.83	2089.92
378.194	2094.44
378.557	2252.62
378.92	2428.89
379.284	2535.1
379.647	2639.05
380.01	2788.2
380.373	3048.08
380.736	3061.64
381.1	3640.16
381.463	3671.8
381.826	4044.67
382.189	4311.33
382.552	4593.81
382.915	4833.35
383.278	5357.63
383.64	6010.72
384.003	6207.32
384.366	6905.61
384.729	7572.26
385.092	7744.01
385.454	8821.94
385.817	9664.86
386.18	10374.44
386.542	11567.63
386.905	12589.08
387.268	13829.72
387.63	15436.46
387.993	16521.18
388.355	18082.72
388.718	19788.89
389.08	21804.65
389.442	23587.66
389.805	25815.85
390.167	27445.18
390.529	30581.82
390.892	34357.99
391.254	36296.93
391.616	38814.37
391.978	42825.57
392.34	47462.74
392.702	48897.73
393.064	52081.82
393.426	54122.45
393.788	56086.24
394.15	57629.7
394.512	59629.65
394.874	61075.94
395.236	62967.41
395.598	64820.47
395.96	65071.31
396.321	65071.31
396.683	65071.31
397.045	65071.31
397.406	65071.31
397.768	65071.31
398.13	65071.31
398.491	65071.31
398.853	65071.31
399.214	65071.31
399.576	65071.31
399.937	65071.31
400.299	65071.31
400.66	65071.31
401.021	65071.31
401.383	65071.31
401.744	65071.31
402.105	65071.31
402.466	65071.31
402.827	65071.31
403.189	65071.31
403.55	65071.31
403.911	65071.31
404.272	65071.31
404.633	65071.31
404.994	65071.31
405.355	65071.31
405.716	65071.31
406.077	65071.31
406.437	65071.31
406.798	65071.31
407.159	65071.31
407.52	65071.31
407.88	65071.31
408.241	65071.31
408.602	65071.31
408.962	65071.31
409.323	65071.31
409.684	65071.31
410.044	65071.31
410.405	65071.31
410.765	65071.31
411.125	65071.31
411.486	65071.31
411.846	65071.31
412.206	65071.31
412.567	65071.31
412.927	65071.31
413.287	65071.31
413.647	65071.31
414.007	65071.31
414.368	65071.31
414.728	65071.31
415.088	65071.31
415.448	65071.31
415.808	65071.31
416.168	65071.31
416.528	65071.31
416.887	65071.31
417.247	65071.31
417.607	65071.31
417.967	65071.31
418.327	65071.31
418.686	65071.31
419.046	65071.31
419.406	65071.31
419.765	65071.31
420.125	65071.31
420.484	65071.31
420.844	65071.31
421.203	65071.31
421.563	64987.7
421.922	64626.13
422.282	62852.16
422.641	61717.73
423	60332.45
423.36	59209.32
423.719	57166.43
424.078	55306.6
424.437	53385.74
424.796	52043.41
425.155	50741.74
425.515	47835.61
425.874	46863.88
426.233	42694.5
426.592	40292.3
426.95	39808.7
427.309	37133.06
427.668	36235.91
428.027	33137.69
428.386	32430.36
428.745	29357
429.103	27605.63
429.462	26240.69
429.821	24821.52
430.179	23840.76
430.538	22873.55
430.897	22159.45
431.255	21210.32
431.614	19931.26
431.972	18973.09
432.33	18046.56
432.689	18075.94
433.047	16830.77
433.405	15714.42
433.764	15244.37
434.122	14756.25
434.48	13707.69
434.838	13273.8
435.197	12792.46
435.555	12229.76
435.913	11680.63
436.271	11106.63
436.629	10681.78
436.987	10132.64
437.345	9556.39
437.703	9368.82
438.061	9000.47
438.418	8324.78
438.776	7929.31
439.134	7784.68
439.492	7310.12
439.849	6846.85
440.207	6833.29
440.565	6451.38
440.922	6112.41
441.28	5872.87
441.637	5592.65
441.995	5316.95
442.352	5020.91
442.71	4921.48
443.067	4835.61
443.425	4763.29
443.782	4487.59
444.139	4363.3
444.496	4094.38
444.854	4010.77
445.211	3906.82
445.568	3820.94
445.925	3552.03
446.282	3396.1
446.639	3429.99
446.996	3251.47
447.353	3298.92
447.71	3222.09
448.067	3145.26
448.424	3023.23
448.781	2849.22
449.137	2785.94
449.494	2666.17
449.851	2591.6
450.208	2485.39
450.564	2363.36
450.921	2282
451.278	2282
451.634	2318.16
451.991	2232.29
452.347	2162.23
452.704	2067.32
453.06	1970.15
453.416	1911.39
453.773	1802.92
454.129	1832.3
454.485	1646.99
454.841	1689.93
455.198	1601.79
455.554	1608.57
455.91	1597.27
456.266	1563.38
456.622	1538.52
456.978	1393.89
457.334	1317.06
457.69	1364.51
458.046	1195.03
458.402	1271.86
458.758	1183.73
459.114	1158.87
459.469	1140.79
459.825	1158.87
460.181	1111.41
460.536	1115.93
460.892	1045.88
461.248	1086.55
461.603	1129.49
461.959	987.12
462.314	1091.07
462.67	1005.2
463.025	1007.46
463.38	1009.72
463.736	955.48
464.091	966.78
464.446	908.03
464.802	948.7
465.157	912.55
465.512	824.41
465.867	858.31
466.222	835.71
466.577	810.85
466.932	876.39
467.287	824.41
467.642	743.06
467.997	806.33
468.352	797.3
468.707	849.27
469.062	851.53
469.417	774.7
469.771	743.06
470.126	770.18
470.481	686.56
470.835	756.62
471.19	661.71
471.544	659.45
471.899	661.71
472.253	670.75
472.608	713.68
472.962	670.75
473.317	630.07
473.671	627.81
474.025	630.07
474.38	693.34
474.734	675.26
475.088	666.23
475.442	697.86
475.796	654.93
476.15	621.03
476.504	550.97
476.858	650.41
477.212	663.97
477.566	578.09
477.92	584.87
478.274	566.79
478.628	623.29
478.982	611.99
479.336	632.33
479.689	663.97
480.043	645.89
480.397	641.37
480.75	627.81
481.104	584.87
481.457	593.91
481.811	584.87
482.164	639.11
482.518	535.16
482.871	544.19
483.225	566.79
483.578	557.75
483.931	539.68
484.284	591.65
484.638	614.25
484.991	616.51
485.344	614.25
485.697	573.57
486.05	562.27
486.403	573.57
486.756	562.27
487.109	541.93
487.462	471.88
487.815	546.45
488.168	519.34
488.52	569.05
488.873	562.27
489.226	541.93
489.579	544.19
489.931	462.84
490.284	596.17
490.637	503.52
490.989	510.3
491.342	535.16
491.694	485.44
492.047	532.9
492.399	596.17
492.751	557.75
493.104	456.06
493.456	523.86
493.808	508.04
494.16	397.31
494.513	485.44
494.865	489.96
495.217	526.12
495.569	521.6
495.921	483.18
496.273	560.01
496.625	526.12
496.977	487.7
497.329	437.98
497.68	496.74
498.032	462.84
498.384	514.82
498.736	510.3
499.087	460.58
499.439	480.92
499.791	413.12
500.142	437.98
500.494	456.06
500.845	530.64
501.197	456.06
501.548	449.28
501.9	499
502.251	526.12
502.602	442.5
502.954	526.12
503.305	494.48
503.656	483.18
504.007	499
504.358	483.18
504.709	440.24
505.061	492.22
505.412	467.36
505.763	494.48
506.113	444.76
506.464	422.16
506.815	480.92
507.166	480.92
507.517	460.58
507.868	480.92
508.218	521.6
508.569	501.26
508.92	548.71
509.27	440.24
509.621	390.53
509.971	426.68
510.322	460.58
510.672	469.62
511.023	410.86
511.373	447.02
511.723	444.76
512.074	505.78
512.424	471.88
512.774	548.71
513.124	501.26
513.475	469.62
513.825	469.62
514.175	372.45
514.525	499
514.875	523.86
515.225	526.12
515.575	483.18
515.924	444.76
516.274	503.52
516.624	485.44
516.974	489.96
517.324	487.7
517.673	523.86
518.023	562.27
518.373	447.02
518.722	478.66
519.072	521.6
519.421	447.02
519.771	449.28
520.12	532.9
520.469	510.3
520.819	424.42
521.168	478.66
521.517	476.4
521.867	424.42
522.216	499
522.565	440.24
522.914	474.14
523.263	532.9
523.612	528.38
523.961	539.68
524.31	627.81
524.659	426.68
525.008	526.12
525.357	489.96
525.705	539.68
526.054	539.68
526.403	523.86
526.752	431.2
527.1	499
527.449	528.38
527.797	469.62
528.146	480.92
528.495	494.48
528.843	569.05
529.191	609.73
529.54	503.52
529.888	514.82
530.236	517.08
530.585	510.3
530.933	562.27
531.281	544.19
531.629	471.88
531.977	496.74
532.325	539.68
532.673	478.66
533.021	467.36
533.369	544.19
533.717	508.04
534.065	476.4
534.413	447.02
534.761	519.34
535.108	541.93
535.456	526.12
535.804	471.88
536.151	489.96
536.499	476.4
536.847	469.62
537.194	487.7
537.542	496.74
537.889	462.84
538.236	471.88
538.584	424.42
538.931	510.3
539.278	485.44
539.626	437.98
539.973	460.58
540.32	399.57
540.667	442.5
541.014	501.26
541.361	480.92
541.708	431.2
542.055	487.7
542.402	399.57
542.749	419.9
543.096	467.36
543.443	471.88
543.789	451.54
544.136	399.57
544.483	449.28
544.83	440.24
545.176	419.9
545.523	487.7
545.869	505.78
546.216	381.49
546.562	428.94
546.909	397.31
547.255	437.98
547.601	494.48
547.948	399.57
548.294	505.78
548.64	478.66
548.986	413.12
549.332	489.96
549.678	485.44
550.025	401.83
550.371	476.4
550.717	440.24
551.062	440.24
551.408	489.96
551.754	419.9
552.1	474.14
552.446	415.38
552.792	440.24
553.137	460.58
553.483	508.04
553.828	451.54
554.174	406.35
554.52	395.05
554.865	406.35
555.211	372.45
555.556	440.24
555.901	390.53
556.247	428.94
556.592	361.15
556.937	410.86
557.282	428.94
557.628	435.72
557.973	435.72
558.318	440.24
558.663	383.75
559.008	372.45
559.353	401.83
559.698	424.42
560.043	417.64
560.388	374.71
560.732	415.38
561.077	381.49
561.422	331.77
561.766	404.09
562.111	388.27
562.456	451.54
562.8	376.97
563.145	397.31
563.489	447.02
563.834	408.61
564.178	406.35
564.523	424.42
564.867	453.8
565.211	442.5
565.555	415.38
565.9	329.51
566.244	451.54
566.588	390.53
566.932	379.23
567.276	447.02
567.62	372.45
567.964	431.2
568.308	376.97
568.652	386.01
568.996	410.86
569.339	417.64
569.683	426.68
570.027	388.27
570.371	417.64
570.714	428.94
571.058	404.09
571.401	408.61
571.745	444.76
572.088	442.5
572.432	379.23
572.775	469.62
573.118	401.83
573.462	433.46
573.805	401.83
574.148	413.12
574.491	417.64
574.835	367.93
575.178	444.76
575.521	444.76
575.864	365.67
576.207	404.09
576.55	383.75
576.892	358.89
577.235	424.42
577.578	386.01
577.921	374.71
578.264	408.61
578.606	404.09
578.949	499
579.292	397.31
579.634	397.31
579.977	374.71
580.319	395.05
580.662	386.01
581.004	404.09
581.346	395.05
581.689	372.45
582.031	386.01
582.373	358.89
582.715	499
583.057	363.41
583.4	401.83
583.742	447.02
584.084	401.83
584.426	381.49
584.768	386.01
585.109	401.83
585.451	399.57
585.793	390.53
586.135	419.9
586.477	370.19
586.818	390.53
587.16	354.37
587.502	404.09
587.843	331.77
588.185	343.07
588.526	379.23
588.868	370.19
589.209	383.75
589.55	331.77
589.892	374.71
590.233	419.9
590.574	376.97
590.915	358.89
591.257	399.57
591.598	399.57
591.939	379.23
592.28	331.77
592.621	365.67
592.962	374.71
593.303	309.17
593.643	381.49
593.984	381.49
594.325	386.01
594.666	397.31
595.006	381.49
595.347	406.35
595.688	376.97
596.028	306.91
596.369	358.89
596.709	386.01
597.05	358.89
597.39	324.99
597.73	422.16
598.071	379.23
598.411	320.47
598.751	358.89
599.091	338.55
599.431	232.34
599.772	315.95
600.112	426.68
600.452	370.19
600.792	327.25
601.132	354.37
601.471	354.37
601.811	338.55
602.151	424.42
602.491	417.64
602.831	311.43
603.17	329.51
603.51	426.68
603.849	413.12
604.189	363.41
604.528	227.82
604.868	345.33
605.207	381.49
605.547	383.75
605.886	399.57
606.225	279.79
606.565	322.73
606.904	397.31
607.243	343.07
607.582	363.41
607.921	286.57
608.26	390.53
608.599	410.86
608.938	406.35
609.277	354.37
609.616	358.89
609.955	304.65
610.293	320.47
610.632	306.91
610.971	367.93
611.309	327.25
611.648	327.25
611.987	349.85
612.325	374.71
612.664	343.07
613.002	322.73
613.34	370.19
613.679	309.17
614.017	352.11
614.355	282.05
614.694	343.07
615.032	273.02
615.37	365.67
615.708	358.89
616.046	293.35
616.384	327.25
616.722	291.09
617.06	257.2
617.398	279.79
617.736	297.87
618.073	331.77
618.411	304.65
618.749	329.51
619.086	313.69
619.424	331.77
619.762	354.37
620.099	284.31
620.437	345.33
620.774	340.81
621.112	315.95
621.449	334.03
621.786	336.29
622.123	363.41
622.461	388.27
622.798	243.64
623.135	363.41
623.472	302.39
623.809	331.77
624.146	386.01
624.483	295.61
624.82	329.51
625.157	313.69
625.494	322.73
625.83	282.05
626.167	338.55
626.504	295.61
626.841	367.93
627.177	295.61
627.514	331.77
627.85	270.76
628.187	309.17
628.523	352.11
628.86	322.73
629.196	322.73
629.532	293.35
629.869	336.29
630.205	331.77
630.541	313.69
630.877	320.47
631.213	293.35
631.549	277.54
631.885	291.09
632.221	313.69
632.557	300.13
632.893	286.57
633.229	293.35
633.564	329.51
633.9	318.21
634.236	279.79
634.572	390.53
634.907	291.09
635.243	338.55
635.578	324.99
635.914	313.69
636.249	327.25
636.585	327.25
636.92	268.5
637.255	266.24
637.59	388.27
637.926	311.43
638.261	354.37
638.596	352.11
638.931	338.55
639.266	365.67
639.601	297.87
639.936	311.43
640.271	230.08
640.606	311.43
640.94	347.59
641.275	311.43
641.61	320.47
641.945	252.68
642.279	293.35
642.614	295.61
642.948	250.42
643.283	225.56
643.617	322.73
643.952	266.24
644.286	286.57
644.62	318.21
644.955	277.54
645.289	293.35
645.623	347.59
645.957	347.59
646.291	336.29
646.625	354.37
646.959	349.85
647.293	320.47
647.627	288.83
647.961	383.75
648.295	288.83
648.629	334.03
648.962	327.25
649.296	334.03
649.63	354.37
649.963	300.13
650.297	311.43
650.63	386.01
650.964	338.55
651.297	295.61
651.631	363.41
651.964	320.47
652.297	300.13
652.631	354.37
652.964	313.69
653.297	327.25
653.63	297.87
653.963	302.39
654.296	334.03
654.629	288.83
654.962	302.39
655.295	361.15
655.628	306.91
655.961	338.55
656.293	293.35
656.626	306.91
656.959	331.77
657.291	284.31
657.624	259.46
657.956	273.02
658.289	365.67
658.621	315.95
658.954	252.68
659.286	313.69
659.618	273.02
659.95	309.17
660.283	354.37
660.615	349.85
660.947	297.87
661.279	343.07
661.611	336.29
661.943	302.39
662.275	277.54
662.607	331.77
662.939	347.59
663.27	334.03
663.602	365.67
663.934	250.42
664.266	277.54
664.597	243.64
664.929	320.47
665.26	254.94
665.592	196.18
665.923	293.35
666.255	295.61
666.586	315.95
666.917	291.09
667.248	345.33
667.58	345.33
667.911	322.73
668.242	347.59
668.573	320.47
668.904	318.21
669.235	291.09
669.566	322.73
669.897	336.29
670.228	320.47
670.558	277.54
670.889	322.73
671.22	221.04
671.551	295.61
671.881	257.2
672.212	318.21
672.542	273.02
672.873	304.65
673.203	252.68
673.533	340.81
673.864	311.43
674.194	297.87
674.524	288.83
674.855	223.3
675.185	345.33
675.515	304.65
675.845	309.17
676.175	322.73
676.505	331.77
676.835	279.79
677.165	309.17
677.494	266.24
677.824	338.55
678.154	248.16
678.484	300.13
678.813	277.54
679.143	293.35
679.472	275.28
679.802	254.94
680.131	302.39
680.461	302.39
680.79	329.51
681.119	257.2
681.449	270.76
681.778	275.28
682.107	263.98
682.436	324.99
682.765	313.69
683.094	295.61
683.423	259.46
683.752	266.24
684.081	286.57
684.41	273.02
684.739	291.09
685.067	252.68
685.396	286.57
685.725	334.03
686.053	284.31
686.382	329.51
686.711	304.65
687.039	306.91
687.367	318.21
687.696	196.18
688.024	291.09
688.352	293.35
688.681	263.98
689.009	297.87
689.337	284.31
689.665	309.17
689.993	291.09
690.321	286.57
690.649	340.81
690.977	277.54
691.305	302.39
691.633	273.02
691.961	239.12
692.288	324.99
692.616	300.13
692.944	259.46
693.271	263.98
693.599	331.77
693.926	302.39
694.254	279.79
694.581	300.13
694.908	257.2
695.236	284.31
695.563	221.04
695.89	282.05
696.217	230.08
696.544	320.47
696.871	286.57
697.198	270.76
697.525	266.24
697.852	352.11
698.179	336.29
698.506	318.21
698.833	230.08
699.16	324.99
699.486	270.76
699.813	245.9
700.139	372.45
700.466	243.64
700.793	257.2
701.119	331.77
701.445	230.08
701.772	236.86
702.098	212
702.424	268.5
702.75	270.76
703.077	347.59
703.403	340.81
703.729	209.74
704.055	241.38
704.381	322.73
704.707	286.57
705.033	184.88
705.358	230.08
705.684	275.28
706.01	334.03
706.336	306.91
706.661	239.12
706.987	295.61
707.312	243.64
707.638	261.72
707.963	282.05
708.289	297.87
708.614	243.64
708.939	309.17
709.265	259.46
709.59	252.68
709.915	277.54
710.24	291.09
710.565	232.34
710.89	248.16
711.215	318.21
711.54	313.69
711.865	266.24
712.19	230.08
712.515	320.47
712.839	243.64
713.164	347.59
713.489	297.87
713.813	207.48
714.138	232.34
714.462	257.2
714.787	302.39
715.111	334.03
715.435	291.09
715.76	343.07
716.084	304.65
716.408	288.83
716.732	266.24
717.056	259.46
717.381	327.25
717.705	282.05
718.028	248.16
718.352	286.57
718.676	257.2
719	236.86
719.324	257.2
719.648	236.86
719.971	297.87
720.295	245.9
720.618	275.28
720.942	236.86
721.265	331.77
721.589	352.11
721.912	273.02
722.236	254.94
722.559	270.76
722.882	282.05
723.205	311.43
723.528	252.68
723.851	232.34
724.174	270.76
724.497	182.62
724.82	234.6
725.143	205.22
725.466	282.05
725.789	300.13
726.112	300.13
726.434	252.68
726.757	288.83
727.08	261.72
727.402	300.13
727.725	315.95
728.047	286.57
728.37	284.31
728.692	218.78
729.014	230.08
729.336	245.9
729.659	254.94
729.981	234.6
730.303	282.05
730.625	218.78
730.947	209.74
731.269	315.95
731.591	250.42
731.913	284.31
732.235	241.38
732.556	324.99
732.878	288.83
733.2	320.47
733.521	268.5
733.843	279.79
734.164	279.79
734.486	268.5
734.807	286.57
735.129	291.09
735.45	295.61
735.771	291.09
736.092	288.83
736.414	291.09
736.735	282.05
737.056	293.35
737.377	270.76
737.698	297.87
738.019	254.94
738.34	297.87
738.66	261.72
738.981	282.05
739.302	340.81
739.623	302.39
739.943	207.48
740.264	239.12
740.584	302.39
740.905	232.34
741.225	227.82
741.546	300.13
741.866	245.9
742.186	306.91
742.507	180.36
742.827	277.54
743.147	320.47
743.467	254.94
743.787	293.35
744.107	309.17
744.427	275.28
744.747	275.28
745.067	282.05
745.386	225.56
745.706	282.05
746.026	318.21
746.346	284.31
746.665	313.69
746.985	282.05
747.304	245.9
747.624	334.03
747.943	320.47
748.262	293.35
748.582	282.05
748.901	309.17
749.22	311.43
749.539	259.46
749.858	356.63
750.177	304.65
750.496	261.72
750.815	227.82
751.134	275.28
751.453	300.13
751.772	234.6
752.09	291.09
752.409	320.47
752.728	315.95
753.046	306.91
753.365	254.94
753.683	293.35
754.002	302.39
754.32	324.99
754.639	234.6
754.957	209.74
755.275	295.61
755.593	302.39
755.911	297.87
756.23	293.35
756.548	261.72
756.866	268.5
757.183	282.05
757.501	254.94
757.819	257.2
758.137	198.44
758.455	313.69
758.772	266.24
759.09	239.12
759.408	295.61
759.725	284.31
760.043	212
760.36	277.54
760.677	295.61
760.995	250.42
761.312	279.79
761.629	277.54
761.946	291.09
762.264	309.17
762.581	302.39
762.898	236.86
763.215	329.51
763.532	318.21
763.848	293.35
764.165	295.61
764.482	234.6
764.799	282.05
765.115	306.91
765.432	250.42
765.749	313.69
766.065	259.46
766.382	300.13
766.698	250.42
767.014	268.5
767.331	282.05
767.647	282.05
767.963	297.87
768.279	284.31
768.595	243.64
768.911	282.05
769.227	239.12
769.543	254.94
769.859	288.83
770.175	236.86
770.491	273.02
770.807	311.43
771.122	254.94
771.438	291.09
771.754	268.5
772.069	230.08
772.385	291.09
772.7	293.35
773.016	252.68
773.331	200.7
773.646	336.29
773.961	361.15
774.277	241.38
774.592	284.31
774.907	295.61
775.222	311.43
775.537	295.61
775.852	270.76
776.167	340.81
776.482	277.54
776.796	309.17
777.111	288.83
777.426	295.61
777.74	232.34
778.055	345.33
778.369	225.56
778.684	178.1
778.998	241.38
779.313	302.39
779.627	293.35
779.941	277.54
780.255	257.2
780.57	291.09
780.884	209.74
781.198	250.42
781.512	311.43
781.826	311.43
782.14	205.22
782.453	266.24
782.767	261.72
783.081	302.39
783.395	331.77
783.708	293.35
784.022	277.54
784.335	295.61
784.649	365.67
784.962	270.76
785.276	257.2
785.589	263.98
785.902	318.21
786.216	288.83
786.529	279.79
786.842	329.51
787.155	266.24
787.468	282.05
787.781	230.08
788.094	313.69
788.407	254.94
788.72	252.68
789.032	266.24
789.345	230.08
789.658	212
789.97	257.2
790.283	336.29
790.595	254.94
790.908	227.82
791.22	245.9
791.532	324.99
791.845	331.77
792.157	227.82
792.469	257.2
792.781	261.72
793.093	218.78
793.405	282.05
793.717	286.57
794.029	263.98
794.341	311.43
794.653	261.72
794.965	315.95
795.276	304.65
795.588	270.76
795.9	254.94
796.211	345.33
796.523	277.54
796.834	306.91
797.146	288.83
797.457	311.43
797.768	284.31
798.08	243.64
798.391	270.76
798.702	257.2
799.013	236.86
799.324	268.5
799.635	295.61
799.946	263.98
800.257	268.5
800.568	320.47
800.878	318.21
801.189	241.38
801.5	250.42
801.81	311.43
802.121	270.76
802.431	277.54
802.742	306.91
803.052	236.86
803.363	234.6
803.673	268.5
803.983	187.14
804.293	261.72
804.603	336.29
804.913	327.25
805.224	288.83
805.533	259.46
805.843	236.86
806.153	266.24
806.463	209.74
806.773	261.72
807.083	279.79
807.392	259.46
807.702	300.13
808.011	320.47
808.321	282.05
808.63	270.76
808.94	297.87
809.249	218.78
809.558	302.39
809.868	257.2
810.177	209.74
810.486	291.09
810.795	304.65
811.104	297.87
811.413	241.38
811.722	291.09
812.031	295.61
812.339	311.43
812.648	252.68
812.957	173.58
813.266	295.61
813.574	295.61
813.883	282.05
814.191	297.87
814.5	230.08
814.808	288.83
815.116	306.91
815.424	345.33
815.733	245.9
816.041	311.43
816.349	257.2
816.657	324.99
816.965	270.76
817.273	263.98
817.581	313.69
817.889	284.31
818.196	162.28
818.504	295.61
818.812	268.5
819.12	293.35
819.427	293.35
819.735	248.16
820.042	313.69
820.349	268.5
820.657	250.42
820.964	257.2
821.271	257.2
821.579	223.3
821.886	392.79
822.193	279.79
822.5	331.77
822.807	304.65
823.114	214.26
823.421	345.33
823.727	239.12
824.034	306.91
824.341	182.62
824.648	212
824.954	266.24
825.261	284.31
825.567	227.82
825.874	225.56
826.18	266.24
826.486	315.95
826.793	313.69
827.099	306.91
827.405	313.69
827.711	286.57
828.017	306.91
828.323	266.24
828.629	261.72
828.935	297.87
829.241	261.72
829.547	277.54
829.852	257.2
830.158	367.93
830.464	295.61
830.769	273.02
831.075	286.57
831.38	248.16
831.686	320.47
831.991	315.95
832.296	291.09
832.601	266.24
832.907	334.03
833.212	275.28
833.517	268.5
833.822	273.02
834.127	212
834.432	295.61
834.737	254.94
835.041	261.72
835.346	261.72
835.651	300.13
835.956	270.76
836.26	270.76
836.565	254.94
836.869	273.02
837.174	273.02
837.478	270.76
837.782	277.54
838.087	288.83
838.391	268.5
838.695	282.05
838.999	227.82
839.303	273.02
839.607	331.77
839.911	324.99
840.215	306.91
840.519	259.46
840.822	250.42
841.126	286.57
841.43	236.86
841.733	315.95
842.037	313.69
842.34	286.57
842.644	259.46
842.947	300.13
843.251	286.57
843.554	311.43
843.857	250.42
844.16	284.31
844.463	263.98
844.766	273.02
845.069	263.98
845.372	254.94
845.675	241.38
845.978	273.02
846.281	273.02
846.583	322.73
846.886	248.16
847.189	223.3
847.491	338.55
847.794	250.42
848.096	189.4
848.399	263.98
848.701	273.02
849.003	324.99
849.305	315.95
849.608	245.9
849.91	286.57
850.212	279.79
850.514	286.57
850.816	270.76
851.118	261.72
851.419	293.35
851.721	252.68
852.023	295.61
852.325	309.17
852.626	302.39
852.928	322.73
853.229	284.31
853.531	304.65
853.832	250.42
854.133	306.91
854.435	266.24
854.736	225.56
855.037	345.33
855.338	243.64
855.639	270.76
855.94	236.86
856.241	266.24
856.542	230.08
856.843	257.2
857.144	263.98
857.444	263.98
857.745	304.65
858.046	331.77
858.346	243.64
858.647	268.5
858.947	209.74
859.247	309.17
859.548	300.13
859.848	300.13
860.148	239.12
860.448	252.68
860.749	205.22
861.049	313.69
861.349	236.86
861.648	196.18
861.948	259.46
862.248	254.94
862.548	248.16
862.848	288.83
863.147	239.12
863.447	318.21
863.746	273.02
864.046	291.09
864.345	286.57
864.645	263.98
864.944	257.2
865.243	291.09
865.542	214.26
865.842	288.83
866.141	282.05
866.44	284.31
866.739	266.24
867.038	236.86
867.337	239.12
867.635	284.31
867.934	284.31
868.233	284.31
868.531	254.94
868.83	259.46
869.129	266.24
869.427	306.91
869.725	259.46
870.024	291.09
870.322	268.5
870.62	322.73
870.918	250.42
871.217	270.76
871.515	268.5
871.813	207.48
872.111	279.79
872.409	263.98
872.706	225.56
873.004	331.77
873.302	252.68
873.6	288.83
873.897	322.73
874.195	282.05
874.492	356.63
874.79	270.76
875.087	318.21
875.384	277.54
875.682	309.17
875.979	309.17
876.276	291.09
876.573	318.21
876.87	318.21
877.167	318.21
