Data from PL_2polymer_F8BT_MEHPPV_USB2H096331_0527.txt Node
Date: Tue Dec 15 16:12:25 CET 2020
User: spadmin
Spectrometer: USB2+H09633
Trigger mode: 0
Integration Time (sec): 1.000000E-2
Scans to average: 1
Electric dark correction enabled: true
Nonlinearity correction enabled: false
Boxcar width: 0
XAxis mode: Wavelengths
Number of Pixels in Spectrum: 2048
>>>>>Begin Spectral Data<<<<<
174.027	4.8
174.405	4.8
174.783	4.8
175.162	-101.41
175.54	-124.01
175.918	-110.45
176.296	-51.69
176.674	-83.33
177.052	-99.15
177.43	-130.79
177.808	-69.77
178.186	-85.59
178.564	16.1
178.942	-38.13
179.32	31.92
179.698	34.18
180.076	29.66
180.453	63.56
180.831	113.27
181.209	63.56
181.587	88.42
181.965	117.79
182.342	131.35
182.72	160.73
183.098	160.73
183.475	260.16
183.853	251.12
184.231	246.6
184.608	248.86
184.986	248.86
185.363	275.98
185.741	300.84
186.118	348.3
186.496	262.42
186.873	287.28
187.251	346.04
187.628	355.08
188.006	312.14
188.383	296.32
188.76	395.75
189.138	298.58
189.515	327.96
189.892	273.72
190.27	305.36
190.647	375.41
191.024	296.32
191.401	309.88
191.778	318.92
192.155	323.44
192.533	273.72
192.91	325.7
193.287	312.14
193.664	373.15
194.041	305.36
194.418	314.4
194.795	287.28
195.172	348.3
195.549	296.32
195.926	341.52
196.302	318.92
196.679	312.14
197.056	244.34
197.433	278.24
197.81	251.12
198.187	275.98
198.563	318.92
198.94	294.06
199.317	271.46
199.693	314.4
200.07	275.98
200.447	364.11
200.823	280.5
201.2	339.26
201.576	368.63
201.953	235.3
202.329	305.36
202.706	316.66
203.082	431.91
203.459	289.54
203.835	325.7
204.212	377.67
204.588	346.04
204.964	287.28
205.341	361.85
205.717	303.1
206.093	352.82
206.469	368.63
206.846	316.66
207.222	309.88
207.598	285.02
207.974	271.46
208.35	289.54
208.726	273.72
209.102	294.06
209.479	325.7
209.855	230.78
210.231	300.84
210.607	339.26
210.982	341.52
211.358	289.54
211.734	275.98
212.11	287.28
212.486	312.14
212.862	201.41
213.238	323.44
213.614	296.32
213.989	296.32
214.365	341.52
214.741	334.74
215.116	298.58
215.492	337
215.868	303.1
216.243	361.85
216.619	327.96
216.995	330.22
217.37	321.18
217.746	321.18
218.121	355.08
218.497	275.98
218.872	305.36
219.247	298.58
219.623	359.6
219.998	357.34
220.374	248.86
220.749	316.66
221.124	402.53
221.499	300.84
221.875	355.08
222.25	361.85
222.625	321.18
223	303.1
223.376	327.96
223.751	280.5
224.126	282.76
224.501	359.6
224.876	384.45
225.251	348.3
225.626	298.58
226.001	327.96
226.376	350.56
226.751	346.04
227.126	332.48
227.501	404.79
227.875	327.96
228.25	285.02
228.625	305.36
229	339.26
229.375	359.6
229.749	375.41
230.124	361.85
230.499	300.84
230.873	375.41
231.248	375.41
231.623	334.74
231.997	334.74
232.372	323.44
232.746	364.11
233.121	323.44
233.495	339.26
233.87	330.22
234.244	400.27
234.619	343.78
234.993	377.67
235.367	402.53
235.742	339.26
236.116	361.85
236.49	325.7
236.865	395.75
237.239	312.14
237.613	334.74
237.987	411.57
238.361	357.34
238.736	443.21
239.11	343.78
239.484	373.15
239.858	346.04
240.232	332.48
240.606	427.39
240.98	370.89
241.354	327.96
241.728	375.41
242.102	379.93
242.475	361.85
242.849	377.67
243.223	343.78
243.597	330.22
243.971	339.26
244.344	398.01
244.718	325.7
245.092	373.15
245.466	350.56
245.839	384.45
246.213	368.63
246.586	413.83
246.96	384.45
247.334	325.7
247.707	391.23
248.081	375.41
248.454	361.85
248.828	359.6
249.201	334.74
249.574	323.44
249.948	366.37
250.321	375.41
250.694	375.41
251.068	316.66
251.441	357.34
251.814	375.41
252.187	357.34
252.561	361.85
252.934	373.15
253.307	325.7
253.68	366.37
254.053	291.8
254.426	375.41
254.799	398.01
255.172	416.09
255.545	373.15
255.918	429.65
256.291	384.45
256.664	409.31
257.037	337
257.41	346.04
257.782	386.71
258.155	309.88
258.528	316.66
258.901	352.82
259.273	409.31
259.646	429.65
260.019	352.82
260.391	407.05
260.764	309.88
261.137	411.57
261.509	429.65
261.882	377.67
262.254	429.65
262.627	332.48
262.999	386.71
263.372	400.27
263.744	436.43
264.116	357.34
264.489	343.78
264.861	339.26
265.233	341.52
265.606	459.03
265.978	346.04
266.35	373.15
266.722	404.79
267.094	357.34
267.467	391.23
267.839	339.26
268.211	346.04
268.583	316.66
268.955	443.21
269.327	438.69
269.699	404.79
270.071	287.28
270.443	416.09
270.815	388.97
271.186	309.88
271.558	459.03
271.93	407.05
272.302	339.26
272.674	357.34
273.045	325.7
273.417	370.89
273.789	391.23
274.16	386.71
274.532	370.89
274.904	398.01
275.275	393.49
275.647	404.79
276.018	366.37
276.39	468.07
276.761	431.91
277.133	452.25
277.504	449.99
277.875	375.41
278.247	398.01
278.618	373.15
278.989	422.87
279.361	391.23
279.732	411.57
280.103	483.89
280.474	364.11
280.846	402.53
281.217	440.95
281.588	407.05
281.959	391.23
282.33	463.55
282.701	377.67
283.072	465.81
283.443	409.31
283.814	427.39
284.185	420.61
284.556	377.67
284.927	402.53
285.297	395.75
285.668	413.83
286.039	395.75
286.41	443.21
286.781	402.53
287.151	443.21
287.522	391.23
287.893	445.47
288.263	402.53
288.634	413.83
289.004	366.37
289.375	504.22
289.745	486.15
290.116	407.05
290.486	443.21
290.857	402.53
291.227	416.09
291.598	411.57
291.968	377.67
292.338	359.6
292.709	445.47
293.079	461.29
293.449	429.65
293.819	440.95
294.189	440.95
294.56	447.73
294.93	434.17
295.3	479.37
295.67	483.89
296.04	361.85
296.41	479.37
296.78	456.77
297.15	409.31
297.52	434.17
297.89	420.61
298.259	434.17
298.629	461.29
298.999	434.17
299.369	520.04
299.739	488.41
300.108	404.79
300.478	436.43
300.848	434.17
301.217	495.18
301.587	388.97
301.957	416.09
302.326	434.17
302.696	411.57
303.065	402.53
303.435	416.09
303.804	490.67
304.174	490.67
304.543	490.67
304.912	506.48
305.282	499.7
305.651	445.47
306.02	508.74
306.39	456.77
306.759	468.07
307.128	508.74
307.497	486.15
307.866	511
308.235	413.83
308.604	495.18
308.974	486.15
309.343	474.85
309.712	472.59
310.08	420.61
310.449	411.57
310.818	486.15
311.187	486.15
311.556	490.67
311.925	368.63
312.294	481.63
312.662	499.7
313.031	517.78
313.4	488.41
313.769	486.15
314.137	501.96
314.506	501.96
314.874	504.22
315.243	506.48
315.612	594.62
315.98	499.7
316.349	459.03
316.717	470.33
317.085	486.15
317.454	436.43
317.822	472.59
318.191	431.91
318.559	490.67
318.927	477.11
319.295	540.38
319.664	479.37
320.032	481.63
320.4	531.34
320.768	434.17
321.136	486.15
321.504	470.33
321.872	526.82
322.24	490.67
322.608	468.07
322.976	443.21
323.344	477.11
323.712	533.6
324.08	465.81
324.448	501.96
324.816	533.6
325.183	513.26
325.551	420.61
325.919	472.59
326.287	535.86
326.654	587.84
327.022	535.86
327.389	562.98
327.757	506.48
328.125	486.15
328.492	513.26
328.86	429.65
329.227	524.56
329.594	547.16
329.962	526.82
330.329	558.46
330.697	488.41
331.064	556.2
331.431	540.38
331.798	533.6
332.166	666.93
332.533	614.96
332.9	551.68
333.267	542.64
333.634	513.26
334.001	542.64
334.368	547.16
334.735	565.24
335.102	594.62
335.469	547.16
335.836	558.46
336.203	515.52
336.57	569.76
336.937	556.2
337.304	513.26
337.67	572.02
338.037	572.02
338.404	630.77
338.771	694.05
339.137	630.77
339.504	556.2
339.87	572.02
340.237	585.58
340.604	617.22
340.97	644.33
341.337	610.44
341.703	617.22
342.069	594.62
342.436	581.06
342.802	574.28
343.169	569.76
343.535	605.92
343.901	538.12
344.267	687.27
344.634	633.03
345	592.36
345.366	694.05
345.732	651.11
346.098	669.19
346.464	655.63
346.83	660.15
347.196	617.22
347.562	639.81
347.928	639.81
348.294	628.51
348.66	691.79
349.026	671.45
349.392	725.69
349.757	626.25
350.123	612.7
350.489	623.99
350.855	666.93
351.22	623.99
351.586	669.19
351.951	743.77
352.317	646.59
352.683	694.05
353.048	716.65
353.414	648.85
353.779	696.31
354.144	707.61
354.51	705.35
354.875	718.91
355.24	727.95
355.606	775.4
355.971	782.18
356.336	736.99
356.701	746.03
357.067	757.32
357.432	730.21
357.797	761.84
358.162	743.77
358.527	718.91
358.892	798
359.257	809.3
359.622	718.91
359.987	777.66
360.352	782.18
360.717	804.78
361.082	750.55
361.446	840.94
361.811	861.28
362.176	838.68
362.541	877.1
362.905	892.91
363.27	906.47
363.635	976.53
363.999	904.21
364.364	976.53
364.728	978.79
365.093	910.99
365.457	920.03
365.822	892.91
366.186	1008.17
366.55	985.57
366.915	940.37
367.279	1005.91
367.643	1014.95
368.008	1125.68
368.372	1042.06
368.736	987.83
369.1	1062.4
369.464	1085
369.828	1103.08
370.192	1100.82
370.556	1146.02
370.92	1159.57
371.284	1204.77
371.648	1263.53
372.012	1310.98
372.376	1263.53
372.74	1259.01
373.104	1430.75
373.468	1372
373.831	1451.09
374.195	1446.57
374.559	1539.23
374.922	1484.99
375.286	1659
375.65	1631.88
376.013	1679.33
376.377	1701.93
376.74	1690.63
377.104	1851.08
377.467	1950.51
377.83	2097.4
378.194	2165.2
378.557	2135.82
378.92	2316.61
379.284	2427.34
379.647	2626.2
380.01	2834.11
380.373	3071.39
380.736	3222.8
381.1	3518.83
381.463	3579.85
381.826	3898.49
382.189	4316.55
382.552	4585.47
382.915	4992.24
383.278	5360.59
383.64	5948.15
384.003	6456.61
384.366	6992.19
384.729	7525.51
385.092	7873.52
385.454	8574.07
385.817	9539.01
386.18	10429.39
386.542	11466.65
386.905	12686.95
387.268	13889.18
387.63	15369.37
387.993	16528.66
388.355	18273.25
388.718	19719.54
389.08	21613.27
389.442	23647.12
389.805	25760.06
390.167	27631.19
390.529	30745.24
390.892	34455.87
391.254	36333.79
391.616	38708.87
391.978	42991.24
392.34	47300.73
392.702	48832.9
393.064	52148.06
393.426	54355.92
393.788	56238.35
394.15	57718.54
394.512	59472.17
394.874	61241.61
395.236	62950.04
395.598	64755.64
395.96	65060.72
396.321	65060.72
396.683	65060.72
397.045	65060.72
397.406	65060.72
397.768	65060.72
398.13	65060.72
398.491	65060.72
398.853	65060.72
399.214	65060.72
399.576	65060.72
399.937	65060.72
400.299	65060.72
400.66	65060.72
401.021	65060.72
401.383	65060.72
401.744	65060.72
402.105	65060.72
402.466	65060.72
402.827	65060.72
403.189	65060.72
403.55	65060.72
403.911	65060.72
404.272	65060.72
404.633	65060.72
404.994	65060.72
405.355	65060.72
405.716	65060.72
406.077	65060.72
406.437	65060.72
406.798	65060.72
407.159	65060.72
407.52	65060.72
407.88	65060.72
408.241	65060.72
408.602	65060.72
408.962	65060.72
409.323	65060.72
409.684	65060.72
410.044	65060.72
410.405	65060.72
410.765	65060.72
411.125	65060.72
411.486	65060.72
411.846	65060.72
412.206	65060.72
412.567	65060.72
412.927	65060.72
413.287	65060.72
413.647	65060.72
414.007	65060.72
414.368	65060.72
414.728	65060.72
415.088	65060.72
415.448	65060.72
415.808	65060.72
416.168	65060.72
416.528	65060.72
416.887	65060.72
417.247	65060.72
417.607	65060.72
417.967	65060.72
418.327	65060.72
418.686	65060.72
419.046	65060.72
419.406	65060.72
419.765	65060.72
420.125	65060.72
420.484	65060.72
420.844	65060.72
421.203	65060.72
421.563	64827.96
421.922	64534.18
422.282	62789.59
422.641	61383.98
423	60023.56
423.36	59200.99
423.719	57085.79
424.078	55083.58
424.437	53540.12
424.796	51630.56
425.155	50742.45
425.515	47956.08
425.874	46573.07
426.233	42747.18
426.592	40455.72
426.95	40103.18
427.309	36943.94
427.668	36021.93
428.027	33224.27
428.386	32150.85
428.745	29280.87
429.103	27619.9
429.462	26354.39
429.821	24555.57
430.179	23836.94
430.538	22707.03
430.897	22569.18
431.255	20878.83
431.614	19660.78
431.972	18944.42
432.33	17938.79
432.689	17900.38
433.047	16668.77
433.405	15613.43
433.764	15086.89
434.122	14863.17
434.48	13954.72
434.838	13066.61
435.197	12741.19
435.555	12320.86
435.913	11561.56
436.271	11145.75
436.629	10865.53
436.987	10183.07
437.345	9606.81
437.703	9346.93
438.061	8700.62
438.418	8307.41
438.776	7981.99
439.134	7900.64
439.492	7579.74
439.849	7136.82
440.207	6754.91
440.565	6617.06
440.922	6022.72
441.28	5887.13
441.637	5715.39
441.995	5405.79
442.352	5166.25
442.71	4947.05
443.067	4931.23
443.425	4522.2
443.782	4434.06
444.139	4431.8
444.496	4140.29
444.854	4115.43
445.211	3765.16
445.568	3826.17
445.925	3645.38
446.282	3491.72
446.639	3245.39
446.996	3229.58
447.353	3245.39
447.71	3175.34
448.067	3148.22
448.424	2990.03
448.781	2949.36
449.137	2804.73
449.494	2619.42
449.851	2635.24
450.208	2470.27
450.564	2436.38
450.921	2291.75
451.278	2255.59
451.634	2251.07
451.991	2171.98
452.347	2054.47
452.704	1986.67
453.06	1889.5
453.416	1957.29
453.773	1839.78
454.129	1769.73
454.485	1679.33
454.841	1570.86
455.198	1616.06
455.554	1611.54
455.91	1607.02
456.266	1609.28
456.622	1489.51
456.978	1381.04
457.334	1367.48
457.69	1274.83
458.046	1333.58
458.402	1238.67
458.758	1207.03
459.114	1130.2
459.469	1164.09
459.825	1080.48
460.181	1107.6
460.536	1148.27
460.892	1094.04
461.248	1030.76
461.603	1010.43
461.959	1026.24
462.314	962.97
462.67	985.57
463.025	915.51
463.38	933.59
463.736	886.13
464.091	877.1
464.446	874.84
464.802	899.69
465.157	825.12
465.512	877.1
465.867	854.5
466.222	852.24
466.577	843.2
466.932	827.38
467.287	784.44
467.642	755.06
467.997	761.84
468.352	732.47
468.707	707.61
469.062	714.39
469.417	723.43
469.771	703.09
470.126	770.88
470.481	666.93
470.835	718.91
471.19	619.48
471.544	696.31
471.899	703.09
472.253	662.41
472.608	673.71
472.962	694.05
473.317	657.89
473.671	644.33
474.025	662.41
474.38	675.97
474.734	734.73
475.088	678.23
475.442	673.71
475.796	691.79
476.15	628.51
476.504	696.31
476.858	583.32
477.212	585.58
477.566	678.23
477.92	617.22
478.274	547.16
478.628	680.49
478.982	583.32
479.336	639.81
479.689	653.37
480.043	590.1
480.397	587.84
480.75	610.44
481.104	644.33
481.457	590.1
481.811	617.22
482.164	596.88
482.518	603.66
482.871	578.8
483.225	619.48
483.578	583.32
483.931	520.04
484.284	558.46
484.638	574.28
484.991	538.12
485.344	664.67
485.697	558.46
486.05	549.42
486.403	533.6
486.756	454.51
487.109	529.08
487.462	556.2
487.815	547.16
488.168	488.41
488.52	542.64
488.873	486.15
489.226	506.48
489.579	531.34
489.931	544.9
490.284	465.81
490.637	524.56
490.989	526.82
491.342	440.95
491.694	495.18
492.047	549.42
492.399	504.22
492.751	486.15
493.104	497.44
493.456	492.92
493.808	479.37
494.16	529.08
494.513	479.37
494.865	470.33
495.217	524.56
495.569	515.52
495.921	463.55
496.273	459.03
496.625	472.59
496.977	486.15
497.329	477.11
497.68	479.37
498.032	472.59
498.384	499.7
498.736	470.33
499.087	486.15
499.439	468.07
499.791	398.01
500.142	497.44
500.494	531.34
500.845	454.51
501.197	477.11
501.548	465.81
501.9	420.61
502.251	463.55
502.602	513.26
502.954	465.81
503.305	508.74
503.656	472.59
504.007	459.03
504.358	454.51
504.709	400.27
505.061	413.83
505.412	384.45
505.763	483.89
506.113	470.33
506.464	413.83
506.815	436.43
507.166	483.89
507.517	477.11
507.868	499.7
508.218	436.43
508.569	449.99
508.92	456.77
509.27	429.65
509.621	434.17
509.971	499.7
510.322	429.65
510.672	472.59
511.023	501.96
511.373	504.22
511.723	445.47
512.074	461.29
512.424	468.07
512.774	438.69
513.124	379.93
513.475	377.67
513.825	416.09
514.175	486.15
514.525	483.89
514.875	456.77
515.225	470.33
515.575	440.95
515.924	495.18
516.274	429.65
516.624	454.51
516.974	508.74
517.324	456.77
517.673	506.48
518.023	495.18
518.373	477.11
518.722	463.55
519.072	445.47
519.421	429.65
519.771	511
520.12	499.7
520.469	411.57
520.819	472.59
521.168	495.18
521.517	524.56
521.867	434.17
522.216	492.92
522.565	431.91
522.914	504.22
523.263	456.77
523.612	477.11
523.961	463.55
524.31	465.81
524.659	477.11
525.008	513.26
525.357	470.33
525.705	481.63
526.054	511
526.403	447.73
526.752	499.7
527.1	449.99
527.449	483.89
527.797	429.65
528.146	562.98
528.495	479.37
528.843	436.43
529.191	513.26
529.54	488.41
529.888	443.21
530.236	481.63
530.585	477.11
530.933	508.74
531.281	452.25
531.629	468.07
531.977	497.44
532.325	465.81
532.673	472.59
533.021	483.89
533.369	470.33
533.717	465.81
534.065	461.29
534.413	504.22
534.761	427.39
535.108	474.85
535.456	443.21
535.804	452.25
536.151	379.93
536.499	461.29
536.847	479.37
537.194	438.69
537.542	438.69
537.889	468.07
538.236	490.67
538.584	420.61
538.931	456.77
539.278	422.87
539.626	395.75
539.973	386.71
540.32	440.95
540.667	404.79
541.014	384.45
541.361	418.35
541.708	454.51
542.055	472.59
542.402	386.71
542.749	379.93
543.096	402.53
543.443	386.71
543.789	436.43
544.136	416.09
544.483	404.79
544.83	379.93
545.176	407.05
545.523	472.59
545.869	388.97
546.216	431.91
546.562	404.79
546.909	425.13
547.255	416.09
547.601	445.47
547.948	398.01
548.294	316.66
548.64	341.52
548.986	416.09
549.332	422.87
549.678	285.02
550.025	352.82
550.371	375.41
550.717	402.53
551.062	366.37
551.408	400.27
551.754	449.99
552.1	368.63
552.446	388.97
552.792	382.19
553.137	327.96
553.483	346.04
553.828	474.85
554.174	447.73
554.52	373.15
554.865	420.61
555.211	411.57
555.556	402.53
555.901	366.37
556.247	429.65
556.592	366.37
556.937	416.09
557.282	366.37
557.628	384.45
557.973	404.79
558.318	404.79
558.663	391.23
559.008	409.31
559.353	348.3
559.698	400.27
560.043	425.13
560.388	368.63
560.732	361.85
561.077	361.85
561.422	359.6
561.766	456.77
562.111	409.31
562.456	373.15
562.8	330.22
563.145	391.23
563.489	411.57
563.834	393.49
564.178	330.22
564.523	330.22
564.867	332.48
565.211	463.55
565.555	402.53
565.9	443.21
566.244	334.74
566.588	393.49
566.932	346.04
567.276	434.17
567.62	393.49
567.964	343.78
568.308	398.01
568.652	348.3
568.996	373.15
569.339	357.34
569.683	321.18
570.027	348.3
570.371	386.71
570.714	359.6
571.058	357.34
571.401	300.84
571.745	384.45
572.088	427.39
572.432	404.79
572.775	370.89
573.118	366.37
573.462	337
573.805	339.26
574.148	355.08
574.491	373.15
574.835	377.67
575.178	445.47
575.521	368.63
575.864	348.3
576.207	398.01
576.55	300.84
576.892	318.92
577.235	321.18
577.578	330.22
577.921	361.85
578.264	416.09
578.606	418.35
578.949	409.31
579.292	391.23
579.634	296.32
579.977	266.94
580.319	370.89
580.662	398.01
581.004	379.93
581.346	359.6
581.689	357.34
582.031	325.7
582.373	332.48
582.715	413.83
583.057	379.93
583.4	346.04
583.742	312.14
584.084	309.88
584.426	307.62
584.768	393.49
585.109	352.82
585.451	282.76
585.793	370.89
586.135	316.66
586.477	370.89
586.818	316.66
587.16	370.89
587.502	337
587.843	370.89
588.185	370.89
588.526	291.8
588.868	337
589.209	352.82
589.55	316.66
589.892	321.18
590.233	287.28
590.574	339.26
590.915	366.37
591.257	298.58
591.598	350.56
591.939	318.92
592.28	280.5
592.621	289.54
592.962	314.4
593.303	298.58
593.643	325.7
593.984	257.9
594.325	309.88
594.666	339.26
595.006	296.32
595.347	343.78
595.688	391.23
596.028	339.26
596.369	379.93
596.709	318.92
597.05	366.37
597.39	303.1
597.73	339.26
598.071	327.96
598.411	355.08
598.751	352.82
599.091	309.88
599.431	312.14
599.772	266.94
600.112	303.1
600.452	402.53
600.792	309.88
601.132	282.76
601.471	350.56
601.811	285.02
602.151	255.64
602.491	325.7
602.831	260.16
603.17	253.38
603.51	400.27
603.849	361.85
604.189	266.94
604.528	309.88
604.868	251.12
605.207	391.23
605.547	257.9
605.886	266.94
606.225	312.14
606.565	314.4
606.904	330.22
607.243	318.92
607.582	357.34
607.921	296.32
608.26	323.44
608.599	343.78
608.938	264.68
609.277	325.7
609.616	287.28
609.955	305.36
610.293	316.66
610.632	312.14
610.971	337
611.309	287.28
611.648	312.14
611.987	289.54
612.325	294.06
612.664	303.1
613.002	321.18
613.34	269.2
613.679	323.44
614.017	275.98
614.355	330.22
614.694	332.48
615.032	312.14
615.37	307.62
615.708	262.42
616.046	260.16
616.384	305.36
616.722	291.8
617.06	262.42
617.398	337
617.736	307.62
618.073	339.26
618.411	300.84
618.749	361.85
619.086	323.44
619.424	318.92
619.762	289.54
620.099	294.06
620.437	275.98
620.774	318.92
621.112	273.72
621.449	298.58
621.786	287.28
622.123	325.7
622.461	305.36
622.798	296.32
623.135	339.26
623.472	307.62
623.809	248.86
624.146	262.42
624.483	350.56
624.82	312.14
625.157	321.18
625.494	298.58
625.83	332.48
626.167	309.88
626.504	314.4
626.841	316.66
627.177	321.18
627.514	280.5
627.85	287.28
628.187	285.02
628.523	355.08
628.86	323.44
629.196	305.36
629.532	260.16
629.869	287.28
630.205	253.38
630.541	312.14
630.877	235.3
631.213	318.92
631.549	337
631.885	289.54
632.221	294.06
632.557	287.28
632.893	309.88
633.229	355.08
633.564	300.84
633.9	296.32
634.236	334.74
634.572	318.92
634.907	289.54
635.243	314.4
635.578	280.5
635.914	291.8
636.249	248.86
636.585	332.48
636.92	300.84
637.255	285.02
637.59	235.3
637.926	339.26
638.261	321.18
638.596	273.72
638.931	330.22
639.266	309.88
639.601	370.89
639.936	298.58
640.271	303.1
640.606	355.08
640.94	348.3
641.275	307.62
641.61	271.46
641.945	280.5
642.279	309.88
642.614	305.36
642.948	289.54
643.283	318.92
643.617	253.38
643.952	262.42
644.286	264.68
644.62	262.42
644.955	255.64
645.289	316.66
645.623	298.58
645.957	318.92
646.291	330.22
646.625	280.5
646.959	334.74
647.293	275.98
647.627	271.46
647.961	273.72
648.295	330.22
648.629	210.45
648.962	248.86
649.296	300.84
649.63	246.6
649.963	271.46
650.297	316.66
650.63	199.15
650.964	244.34
651.297	332.48
651.631	343.78
651.964	253.38
652.297	337
652.631	217.23
652.964	262.42
653.297	266.94
653.63	291.8
653.963	239.82
654.296	298.58
654.629	242.08
654.962	309.88
655.295	352.82
655.628	228.53
655.961	287.28
656.293	291.8
656.626	332.48
656.959	251.12
657.291	266.94
657.624	269.2
657.956	298.58
658.289	291.8
658.621	246.6
658.954	341.52
659.286	228.53
659.618	285.02
659.95	278.24
660.283	287.28
660.615	314.4
660.947	307.62
661.279	242.08
661.611	278.24
661.943	303.1
662.275	255.64
662.607	309.88
662.939	255.64
663.27	280.5
663.602	298.58
663.934	230.78
664.266	271.46
664.597	262.42
664.929	219.49
665.26	278.24
665.592	300.84
665.923	314.4
666.255	312.14
666.586	285.02
666.917	343.78
667.248	305.36
667.58	237.56
667.911	242.08
668.242	300.84
668.573	314.4
668.904	348.3
669.235	327.96
669.566	266.94
669.897	269.2
670.228	237.56
670.558	309.88
670.889	269.2
671.22	271.46
671.551	219.49
671.881	257.9
672.212	221.75
672.542	287.28
672.873	235.3
673.203	285.02
673.533	305.36
673.864	296.32
674.194	318.92
674.524	275.98
674.855	260.16
675.185	264.68
675.515	273.72
675.845	289.54
676.175	248.86
676.505	289.54
676.835	296.32
677.165	312.14
677.494	246.6
677.824	239.82
678.154	282.76
678.484	185.59
678.813	262.42
679.143	321.18
679.472	323.44
679.802	257.9
680.131	242.08
680.461	273.72
680.79	303.1
681.119	262.42
681.449	291.8
681.778	257.9
682.107	271.46
682.436	262.42
682.765	262.42
683.094	280.5
683.423	251.12
683.752	217.23
684.081	242.08
684.41	285.02
684.739	224.01
685.067	226.27
685.396	287.28
685.725	303.1
686.053	287.28
686.382	253.38
686.711	269.2
687.039	242.08
687.367	230.78
687.696	235.3
688.024	273.72
688.352	233.04
688.681	212.71
689.009	287.28
689.337	303.1
689.665	332.48
689.993	251.12
690.321	237.56
690.649	282.76
690.977	269.2
691.305	285.02
691.633	235.3
691.961	246.6
692.288	282.76
692.616	242.08
692.944	255.64
693.271	278.24
693.599	242.08
693.926	280.5
694.254	266.94
694.581	303.1
694.908	298.58
695.236	219.49
695.563	289.54
695.89	233.04
696.217	251.12
696.544	305.36
696.871	248.86
697.198	244.34
697.525	300.84
697.852	239.82
698.179	194.63
698.506	242.08
698.833	248.86
699.16	242.08
699.486	253.38
699.813	271.46
700.139	266.94
700.466	273.72
700.793	228.53
701.119	287.28
701.445	285.02
701.772	278.24
702.098	269.2
702.424	291.8
702.75	287.28
703.077	285.02
703.403	282.76
703.729	339.26
704.055	253.38
704.381	269.2
704.707	235.3
705.033	280.5
705.358	242.08
705.684	244.34
706.01	212.71
706.336	280.5
706.661	305.36
706.987	280.5
707.312	212.71
707.638	298.58
707.963	300.84
708.289	291.8
708.614	287.28
708.939	194.63
709.265	226.27
709.59	309.88
709.915	237.56
710.24	248.86
710.565	269.2
710.89	221.75
711.215	303.1
711.54	300.84
711.865	282.76
712.19	260.16
712.515	230.78
712.839	273.72
713.164	237.56
713.489	255.64
713.813	196.89
714.138	280.5
714.462	318.92
714.787	323.44
715.111	298.58
715.435	289.54
715.76	262.42
716.084	248.86
716.408	239.82
716.732	244.34
717.056	178.81
717.381	280.5
717.705	212.71
718.028	246.6
718.352	280.5
718.676	219.49
719	298.58
719.324	253.38
719.648	289.54
719.971	253.38
720.295	269.2
720.618	289.54
720.942	271.46
721.265	282.76
721.589	219.49
721.912	262.42
722.236	212.71
722.559	271.46
722.882	280.5
723.205	318.92
723.528	280.5
723.851	262.42
724.174	325.7
724.497	305.36
724.82	266.94
725.143	273.72
725.466	289.54
725.789	208.19
726.112	228.53
726.434	309.88
726.757	294.06
727.08	233.04
727.402	214.97
727.725	210.45
728.047	273.72
728.37	255.64
728.692	224.01
729.014	248.86
729.336	246.6
729.659	305.36
729.981	253.38
730.303	287.28
730.625	262.42
730.947	309.88
731.269	262.42
731.591	262.42
731.913	251.12
732.235	287.28
732.556	201.41
732.878	158.47
733.2	266.94
733.521	212.71
733.843	266.94
734.164	278.24
734.486	269.2
734.807	178.81
735.129	269.2
735.45	298.58
735.771	264.68
736.092	269.2
736.414	230.78
736.735	224.01
737.056	262.42
737.377	280.5
737.698	275.98
738.019	208.19
738.34	239.82
738.66	235.3
738.981	291.8
739.302	318.92
739.623	321.18
739.943	287.28
740.264	298.58
740.584	244.34
740.905	264.68
741.225	266.94
741.546	190.11
741.866	280.5
742.186	262.42
742.507	316.66
742.827	230.78
743.147	165.25
743.467	248.86
743.787	230.78
744.107	244.34
744.427	309.88
744.747	321.18
745.067	379.93
745.386	262.42
745.706	257.9
746.026	298.58
746.346	230.78
746.665	269.2
746.985	298.58
747.304	210.45
747.624	332.48
747.943	233.04
748.262	289.54
748.582	257.9
748.901	187.85
749.22	248.86
749.539	226.27
749.858	244.34
750.177	266.94
750.496	251.12
750.815	219.49
751.134	296.32
751.453	323.44
751.772	334.74
752.09	237.56
752.409	271.46
752.728	239.82
753.046	294.06
753.365	251.12
753.683	278.24
754.002	185.59
754.32	294.06
754.639	194.63
754.957	210.45
755.275	221.75
755.593	285.02
755.911	269.2
756.23	217.23
756.548	208.19
756.866	221.75
757.183	273.72
757.501	273.72
757.819	244.34
758.137	273.72
758.455	201.41
758.772	208.19
759.09	321.18
759.408	253.38
759.725	266.94
760.043	300.84
760.36	285.02
760.677	289.54
760.995	266.94
761.312	298.58
761.629	271.46
761.946	212.71
762.264	228.53
762.581	266.94
762.898	228.53
763.215	316.66
763.532	287.28
763.848	162.99
764.165	260.16
764.482	275.98
764.799	260.16
765.115	298.58
765.432	273.72
765.749	262.42
766.065	237.56
766.382	296.32
766.698	235.3
767.014	235.3
767.331	246.6
767.647	298.58
767.963	255.64
768.279	208.19
768.595	262.42
768.911	282.76
769.227	300.84
769.543	246.6
769.859	275.98
770.175	246.6
770.491	273.72
770.807	244.34
771.122	273.72
771.438	233.04
771.754	316.66
772.069	298.58
772.385	271.46
772.7	246.6
773.016	262.42
773.331	303.1
773.646	285.02
773.961	235.3
774.277	273.72
774.592	226.27
774.907	230.78
775.222	246.6
775.537	285.02
775.852	244.34
776.167	282.76
776.482	264.68
776.796	230.78
777.111	237.56
777.426	190.11
777.74	244.34
778.055	273.72
778.369	228.53
778.684	307.62
778.998	316.66
779.313	251.12
779.627	233.04
779.941	257.9
780.255	214.97
780.57	221.75
780.884	251.12
781.198	217.23
781.512	244.34
781.826	271.46
782.14	262.42
782.453	237.56
782.767	264.68
783.081	233.04
783.395	264.68
783.708	255.64
784.022	233.04
784.335	323.44
784.649	257.9
784.962	298.58
785.276	282.76
785.589	244.34
785.902	275.98
786.216	210.45
786.529	242.08
786.842	203.67
787.155	332.48
787.468	273.72
787.781	321.18
788.094	237.56
788.407	330.22
788.72	273.72
789.032	307.62
789.345	300.84
789.658	248.86
789.97	275.98
790.283	212.71
790.595	296.32
790.908	278.24
791.22	285.02
791.532	280.5
791.845	271.46
792.157	294.06
792.469	230.78
792.781	224.01
793.093	228.53
793.405	296.32
793.717	185.59
794.029	242.08
794.341	242.08
794.653	246.6
794.965	219.49
795.276	246.6
795.588	253.38
795.9	278.24
796.211	300.84
796.523	327.96
796.834	321.18
797.146	242.08
797.457	287.28
797.768	237.56
798.08	266.94
798.391	237.56
798.702	269.2
799.013	230.78
799.324	291.8
799.635	244.34
799.946	239.82
800.257	282.76
800.568	266.94
800.878	269.2
801.189	262.42
801.5	305.36
801.81	294.06
802.121	251.12
802.431	242.08
802.742	260.16
803.052	298.58
803.363	287.28
803.673	210.45
803.983	237.56
804.293	307.62
804.603	291.8
804.913	325.7
805.224	300.84
805.533	244.34
805.843	266.94
806.153	212.71
806.463	242.08
806.773	289.54
807.083	253.38
807.392	278.24
807.702	235.3
808.011	275.98
808.321	224.01
808.63	285.02
808.94	287.28
809.249	257.9
809.558	282.76
809.868	305.36
810.177	230.78
810.486	255.64
810.795	303.1
811.104	242.08
811.413	228.53
811.722	253.38
812.031	255.64
812.339	287.28
812.648	226.27
812.957	255.64
813.266	257.9
813.574	257.9
813.883	226.27
814.191	285.02
814.5	255.64
814.808	294.06
815.116	233.04
815.424	275.98
815.733	251.12
816.041	224.01
816.349	303.1
816.657	273.72
816.965	212.71
817.273	275.98
817.581	273.72
817.889	273.72
818.196	183.33
818.504	262.42
818.812	253.38
819.12	287.28
819.427	242.08
819.735	172.03
820.042	266.94
820.349	289.54
820.657	248.86
820.964	314.4
821.271	271.46
821.579	257.9
821.886	269.2
822.193	169.77
822.5	221.75
822.807	208.19
823.114	251.12
823.421	278.24
823.727	298.58
824.034	314.4
824.341	246.6
824.648	296.32
824.954	219.49
825.261	273.72
825.567	318.92
825.874	266.94
826.18	321.18
826.486	264.68
826.793	212.71
827.099	278.24
827.405	260.16
827.711	291.8
828.017	251.12
828.323	253.38
828.629	305.36
828.935	275.98
829.241	260.16
829.547	273.72
829.852	294.06
830.158	262.42
830.464	282.76
830.769	226.27
831.075	257.9
831.38	214.97
831.686	266.94
831.991	237.56
832.296	350.56
832.601	257.9
832.907	287.28
833.212	318.92
833.517	221.75
833.822	321.18
834.127	221.75
834.432	264.68
834.737	242.08
835.041	271.46
835.346	212.71
835.651	298.58
835.956	266.94
836.26	271.46
836.565	244.34
836.869	309.88
837.174	253.38
837.478	260.16
837.782	264.68
838.087	248.86
838.391	275.98
838.695	212.71
838.999	260.16
839.303	217.23
839.607	219.49
839.911	242.08
840.215	282.76
840.519	264.68
840.822	221.75
841.126	224.01
841.43	217.23
841.733	271.46
842.037	305.36
842.34	237.56
842.644	266.94
842.947	187.85
843.251	205.93
843.554	296.32
843.857	262.42
844.16	242.08
844.463	203.67
844.766	253.38
845.069	217.23
845.372	239.82
845.675	271.46
845.978	269.2
846.281	300.84
846.583	280.5
846.886	257.9
847.189	248.86
847.491	253.38
847.794	255.64
848.096	296.32
848.399	264.68
848.701	325.7
849.003	264.68
849.305	244.34
849.608	262.42
849.91	287.28
850.212	174.29
850.514	196.89
850.816	230.78
851.118	255.64
851.419	269.2
851.721	262.42
852.023	282.76
852.325	318.92
852.626	228.53
852.928	294.06
853.229	287.28
853.531	246.6
853.832	199.15
854.133	226.27
854.435	287.28
854.736	205.93
855.037	230.78
855.338	264.68
855.639	273.72
855.94	230.78
856.241	275.98
856.542	287.28
856.843	212.71
857.144	300.84
857.444	266.94
857.745	237.56
858.046	260.16
858.346	280.5
858.647	212.71
858.947	183.33
859.247	255.64
859.548	260.16
859.848	233.04
860.148	355.08
860.448	235.3
860.749	269.2
861.049	260.16
861.349	212.71
861.648	280.5
861.948	246.6
862.248	239.82
862.548	275.98
862.848	251.12
863.147	203.67
863.447	300.84
863.746	221.75
864.046	253.38
864.345	233.04
864.645	242.08
864.944	226.27
865.243	248.86
865.542	214.97
865.842	312.14
866.141	257.9
866.44	307.62
866.739	307.62
867.038	269.2
867.337	210.45
867.635	253.38
867.934	262.42
868.233	298.58
868.531	269.2
868.83	255.64
869.129	253.38
869.427	181.07
869.725	242.08
870.024	255.64
870.322	291.8
870.62	273.72
870.918	321.18
871.217	280.5
871.515	307.62
871.813	253.38
872.111	226.27
872.409	269.2
872.706	271.46
873.004	219.49
873.302	312.14
873.6	257.9
873.897	214.97
874.195	217.23
874.492	235.3
874.79	264.68
875.087	273.72
875.384	300.84
875.682	266.94
875.979	285.02
876.276	305.36
876.573	298.58
876.87	298.58
877.167	298.58
