Data from PL_2polymer_F8BT_MEHPPV_USB2H096331_0419.txt Node
Date: Tue Dec 15 16:08:22 CET 2020
User: spadmin
Spectrometer: USB2+H09633
Trigger mode: 0
Integration Time (sec): 1.000000E-2
Scans to average: 1
Electric dark correction enabled: true
Nonlinearity correction enabled: false
Boxcar width: 0
XAxis mode: Wavelengths
Number of Pixels in Spectrum: 2048
>>>>>Begin Spectral Data<<<<<
174.027	25.28
174.405	25.28
174.783	25.28
175.162	-117.09
175.54	-89.97
175.918	-141.95
176.296	-105.79
176.674	-121.61
177.052	-89.97
177.43	-76.41
177.808	-13.14
178.186	-69.63
178.564	-44.77
178.942	25.28
179.32	52.4
179.698	-10.88
180.076	50.14
180.453	41.1
180.831	84.04
181.209	104.38
181.587	50.14
181.965	124.71
182.342	136.01
182.72	147.31
183.098	140.53
183.475	217.37
183.853	233.19
184.231	298.72
184.608	314.54
184.986	273.86
185.363	310.02
185.741	323.58
186.118	300.98
186.496	343.92
186.873	314.54
187.251	262.56
187.628	373.3
188.006	253.52
188.383	323.58
188.76	339.4
189.138	305.5
189.515	339.4
189.892	341.66
190.27	328.1
190.647	323.58
191.024	380.07
191.401	310.02
191.778	325.84
192.155	328.1
192.533	350.7
192.91	289.68
193.287	355.22
193.664	285.16
194.041	282.9
194.418	310.02
194.795	319.06
195.172	291.94
195.549	339.4
195.926	350.7
196.302	330.36
196.679	307.76
197.056	312.28
197.433	289.68
197.81	350.7
198.187	269.34
198.563	325.84
198.94	296.46
199.317	332.62
199.693	314.54
200.07	364.26
200.447	319.06
200.823	267.08
201.2	319.06
201.576	251.26
201.953	348.44
202.329	375.56
202.706	305.5
203.082	368.78
203.459	291.94
203.835	260.3
204.212	264.82
204.588	314.54
204.964	303.24
205.341	253.52
205.717	337.14
206.093	371.04
206.469	285.16
206.846	287.42
207.222	260.3
207.598	278.38
207.974	357.48
208.35	337.14
208.726	332.62
209.102	282.9
209.479	262.56
209.855	305.5
210.231	296.46
210.607	357.48
210.982	339.4
211.358	332.62
211.734	300.98
212.11	373.3
212.486	355.22
212.862	278.38
213.238	380.07
213.614	337.14
213.989	316.8
214.365	312.28
214.741	267.08
215.116	321.32
215.492	343.92
215.868	377.81
216.243	413.97
216.619	343.92
216.995	341.66
217.37	319.06
217.746	316.8
218.121	339.4
218.497	389.11
218.872	395.89
219.247	352.96
219.623	362
219.998	350.7
220.374	273.86
220.749	375.56
221.124	373.3
221.499	339.4
221.875	355.22
222.25	278.38
222.625	296.46
223	303.24
223.376	423.01
223.751	402.67
224.126	296.46
224.501	337.14
224.876	332.62
225.251	303.24
225.626	339.4
226.001	389.11
226.376	373.3
226.751	330.36
227.126	264.82
227.501	339.4
227.875	271.6
228.25	300.98
228.625	339.4
229	377.81
229.375	303.24
229.749	330.36
230.124	346.18
230.499	382.33
230.873	434.31
231.248	377.81
231.623	316.8
231.997	411.71
232.372	375.56
232.746	328.1
233.121	305.5
233.495	373.3
233.87	289.68
234.244	382.33
234.619	348.44
234.993	359.74
235.367	348.44
235.742	391.37
236.116	321.32
236.49	312.28
236.865	325.84
237.239	400.41
237.613	371.04
237.987	319.06
238.361	348.44
238.736	481.77
239.11	343.92
239.484	384.59
239.858	355.22
240.232	375.56
240.606	402.67
240.98	346.18
241.354	425.27
241.728	316.8
242.102	362
242.475	348.44
242.849	382.33
243.223	384.59
243.597	377.81
243.971	373.3
244.344	375.56
244.718	364.26
245.092	411.71
245.466	389.11
245.839	391.37
246.213	357.48
246.586	352.96
246.96	447.87
247.334	416.23
247.707	391.37
248.081	380.07
248.454	325.84
248.828	375.56
249.201	377.81
249.574	377.81
249.948	337.14
250.321	413.97
250.694	348.44
251.068	416.23
251.441	373.3
251.814	377.81
252.187	368.78
252.561	334.88
252.934	319.06
253.307	364.26
253.68	382.33
254.053	391.37
254.426	391.37
254.799	366.52
255.172	438.83
255.545	364.26
255.918	364.26
256.291	355.22
256.664	357.48
257.037	441.09
257.41	330.36
257.782	339.4
258.155	337.14
258.528	393.63
258.901	384.59
259.273	371.04
259.646	380.07
260.019	416.23
260.391	364.26
260.764	400.41
261.137	416.23
261.509	368.78
261.882	337.14
262.254	380.07
262.627	375.56
262.999	517.92
263.372	359.74
263.744	409.45
264.116	377.81
264.489	371.04
264.861	330.36
265.233	463.69
265.606	490.81
265.978	341.66
266.35	325.84
266.722	368.78
267.094	404.93
267.467	357.48
267.839	404.93
268.211	373.3
268.583	380.07
268.955	411.71
269.327	402.67
269.699	380.07
270.071	382.33
270.443	352.96
270.815	416.23
271.186	362
271.558	411.71
271.93	413.97
272.302	423.01
272.674	409.45
273.045	339.4
273.417	373.3
273.789	434.31
274.16	432.05
274.532	402.67
274.904	402.67
275.275	441.09
275.647	339.4
276.018	398.15
276.39	441.09
276.761	438.83
277.133	350.7
277.504	463.69
277.875	452.39
278.247	425.27
278.618	425.27
278.989	398.15
279.361	382.33
279.732	404.93
280.103	420.75
280.474	420.75
280.846	407.19
281.217	443.35
281.588	436.57
281.959	425.27
282.33	389.11
282.701	454.65
283.072	377.81
283.443	375.56
283.814	418.49
284.185	382.33
284.556	402.67
284.927	386.85
285.297	404.93
285.668	413.97
286.039	423.01
286.41	391.37
286.781	413.97
287.151	468.21
287.522	416.23
287.893	398.15
288.263	393.63
288.634	411.71
289.004	432.05
289.375	420.75
289.745	423.01
290.116	386.85
290.486	423.01
290.857	452.39
291.227	436.57
291.598	447.87
291.968	465.95
292.338	404.93
292.709	409.45
293.079	402.67
293.449	393.63
293.819	454.65
294.189	348.44
294.56	395.89
294.93	400.41
295.3	393.63
295.67	420.75
296.04	474.99
296.41	423.01
296.78	404.93
297.15	416.23
297.52	425.27
297.89	479.51
298.259	454.65
298.629	484.03
298.999	445.61
299.369	395.89
299.739	454.65
300.108	400.41
300.478	416.23
300.848	418.49
301.217	441.09
301.587	443.35
301.957	438.83
302.326	447.87
302.696	502.11
303.065	515.66
303.435	502.11
303.804	463.69
304.174	472.73
304.543	529.22
304.912	484.03
305.282	402.67
305.651	477.25
306.02	499.85
306.39	434.31
306.759	472.73
307.128	522.44
307.497	477.25
307.866	474.99
308.235	454.65
308.604	434.31
308.974	497.59
309.343	542.78
309.712	463.69
310.08	459.17
310.449	493.07
310.818	481.77
311.187	463.69
311.556	556.34
311.925	472.73
312.294	447.87
312.662	515.66
313.031	524.7
313.4	490.81
313.769	549.56
314.137	443.35
314.506	488.55
314.874	511.14
315.243	484.03
315.612	558.6
315.98	413.97
316.349	490.81
316.717	563.12
317.085	558.6
317.454	502.11
317.822	506.63
318.191	511.14
318.559	526.96
318.927	488.55
319.295	490.81
319.664	524.7
320.032	454.65
320.4	520.18
320.768	479.51
321.136	450.13
321.504	529.22
321.872	540.52
322.24	538.26
322.608	515.66
322.976	454.65
323.344	517.92
323.712	549.56
324.08	554.08
324.448	502.11
324.816	558.6
325.183	499.85
325.551	488.55
325.919	454.65
326.287	486.29
326.654	506.63
327.022	502.11
327.389	441.09
327.757	538.26
328.125	560.86
328.492	574.42
328.86	533.74
329.227	497.59
329.594	585.72
329.962	443.35
330.329	495.33
330.697	508.88
331.064	520.18
331.431	499.85
331.798	463.69
332.166	606.06
332.533	612.84
332.9	599.28
333.267	651.25
333.634	497.59
334.001	526.96
334.368	538.26
334.735	506.63
335.102	533.74
335.469	565.38
335.836	590.24
336.203	547.3
336.57	576.68
336.937	637.7
337.304	556.34
337.67	581.2
338.037	673.85
338.404	633.18
338.771	520.18
339.137	569.9
339.504	615.1
339.87	574.42
340.237	592.5
340.604	565.38
340.97	540.52
341.337	578.94
341.703	667.07
342.069	662.55
342.436	621.88
342.802	694.19
343.169	610.58
343.535	603.8
343.901	630.92
344.267	648.99
344.634	612.84
345	551.82
345.366	662.55
345.732	619.62
346.098	685.15
346.464	678.37
346.83	635.44
347.196	619.62
347.562	651.25
347.928	626.4
348.294	606.06
348.66	606.06
349.026	597.02
349.392	664.81
349.757	646.73
350.123	678.37
350.489	646.73
350.855	707.75
351.22	685.15
351.586	680.63
351.951	716.79
352.317	664.81
352.683	678.37
353.048	687.41
353.414	648.99
353.779	768.77
354.144	712.27
354.51	719.05
354.875	696.45
355.24	782.32
355.606	698.71
355.971	730.35
356.336	746.17
356.701	743.91
357.067	757.47
357.432	750.69
357.797	764.25
358.162	834.3
358.527	743.91
358.892	816.22
359.257	804.92
359.622	816.22
359.987	780.06
360.352	823
360.717	861.42
361.082	802.66
361.446	836.56
361.811	820.74
362.176	743.91
362.541	940.51
362.905	902.09
363.27	847.86
363.635	983.45
363.999	884.02
364.364	940.51
364.728	974.41
365.093	917.91
365.457	897.58
365.822	940.51
366.186	942.77
366.55	974.41
366.915	1033.16
367.279	972.15
367.643	999.27
368.008	1015.09
368.372	1024.13
368.736	1019.61
369.1	1051.24
369.464	1116.78
369.828	1130.34
370.192	1087.4
370.556	1139.38
370.92	1128.08
371.284	1161.98
371.648	1245.59
372.012	1426.37
372.376	1268.19
372.74	1383.44
373.104	1387.96
373.468	1469.31
373.831	1439.93
374.195	1534.85
374.559	1543.89
374.922	1568.74
375.286	1550.67
375.65	1647.84
376.013	1745.01
376.377	1720.15
376.74	1830.88
377.104	1891.9
377.467	1946.14
377.83	2061.39
378.194	2192.46
378.557	2273.81
378.92	2447.82
379.284	2560.81
379.647	2764.19
380.01	2897.52
380.373	2987.92
380.736	3087.35
381.1	3550.61
381.463	3819.53
381.826	3943.82
382.189	4287.32
382.552	4445.5
382.915	4890.69
383.278	5277.12
383.64	6063.54
384.003	6275.96
384.366	6859
384.729	7573.11
385.092	8002.47
385.454	8655.56
385.817	9679.27
386.18	10513.14
386.542	11523.28
386.905	12754.89
387.268	13979.72
387.63	15674.59
387.993	16535.58
388.355	18008.99
388.718	19787.47
389.08	21500.42
389.442	23932
389.805	25712.74
390.167	27247.16
390.529	30883.23
390.892	34496.69
391.254	36381.39
391.616	38580.2
391.978	43233.19
392.34	47122.35
392.702	48498.58
393.064	52254.42
393.426	54308.6
393.788	56118.72
394.15	57890.43
394.512	59583.04
394.874	61345.7
395.236	63054.13
395.598	64819.06
395.96	65063.12
396.321	65063.12
396.683	65063.12
397.045	65063.12
397.406	65063.12
397.768	65063.12
398.13	65063.12
398.491	65063.12
398.853	65063.12
399.214	65063.12
399.576	65063.12
399.937	65063.12
400.299	65063.12
400.66	65063.12
401.021	65063.12
401.383	65063.12
401.744	65063.12
402.105	65063.12
402.466	65063.12
402.827	65063.12
403.189	65063.12
403.55	65063.12
403.911	65063.12
404.272	65063.12
404.633	65063.12
404.994	65063.12
405.355	65063.12
405.716	65063.12
406.077	65063.12
406.437	65063.12
406.798	65063.12
407.159	65063.12
407.52	65063.12
407.88	65063.12
408.241	65063.12
408.602	65063.12
408.962	65063.12
409.323	65063.12
409.684	65063.12
410.044	65063.12
410.405	65063.12
410.765	65063.12
411.125	65063.12
411.486	65063.12
411.846	65063.12
412.206	65063.12
412.567	65063.12
412.927	65063.12
413.287	65063.12
413.647	65063.12
414.007	65063.12
414.368	65063.12
414.728	65063.12
415.088	65063.12
415.448	65063.12
415.808	65063.12
416.168	65063.12
416.528	65063.12
416.887	65063.12
417.247	65063.12
417.607	65063.12
417.967	65063.12
418.327	65063.12
418.686	65063.12
419.046	65063.12
419.406	65063.12
419.765	65063.12
420.125	65063.12
420.484	65063.12
420.844	65063.12
421.203	65063.12
421.563	65063.12
421.922	64681.21
422.282	62907.24
422.641	61422.54
423	59883.59
423.36	59334.46
423.719	57248.64
424.078	55393.32
424.437	53637.43
424.796	52279.28
425.155	50665.76
425.515	47691.83
425.874	46871.51
426.233	42363.15
426.592	40677.32
426.95	39588.08
427.309	37213
427.668	36632.23
428.027	33129.5
428.386	32908.03
428.745	29495.69
429.103	27568.06
429.462	26605.37
429.821	24670.96
430.179	23685.68
430.538	22915.08
430.897	22404.35
431.255	21034.9
431.614	19794.25
431.972	18813.49
432.33	17886.96
432.689	17703.91
433.047	16741.23
433.405	15783.06
433.764	14876.87
434.122	14800.03
434.48	13746.95
434.838	13184.26
435.197	12673.54
435.555	12223.83
435.913	11498.43
436.271	11017.08
436.629	10660.03
436.987	10212.58
437.345	9695.08
437.703	9392.27
438.061	9107.53
438.418	8345.97
438.776	7799.09
439.134	7975.36
439.492	7545.99
439.849	6870.3
440.207	6660.14
440.565	6605.9
440.922	6151.67
441.28	5898.57
441.637	5729.09
441.995	5564.12
442.352	5256.78
442.71	4845.49
443.067	4861.31
443.425	4596.91
443.782	4443.24
444.139	4323.47
444.496	4153.99
444.854	4072.63
445.211	3774.34
445.568	3812.75
445.925	3568.69
446.282	3509.94
446.639	3424.06
446.996	3207.12
447.353	3360.79
447.71	3286.21
448.067	3202.6
448.424	2972.1
448.781	2865.89
449.137	2868.14
449.494	2737.07
449.851	2522.39
450.208	2549.51
450.564	2427.48
450.921	2366.46
451.278	2257.99
451.634	2323.53
451.991	2291.89
452.347	2106.58
452.704	1993.59
453.06	1853.48
453.416	1846.7
453.773	1907.72
454.129	1896.42
454.485	1686.26
454.841	1674.96
455.198	1582.3
455.554	1559.7
455.91	1541.63
456.266	1546.15
456.622	1406.04
456.978	1464.79
457.334	1345.02
457.69	1356.32
458.046	1241.07
458.402	1308.86
458.758	1198.13
459.114	1168.75
459.469	1134.86
459.825	1069.32
460.181	1080.62
460.536	1128.08
460.892	1082.88
461.248	1080.62
461.603	972.15
461.959	1001.53
462.314	985.71
462.67	935.99
463.025	945.03
463.38	974.41
463.736	949.55
464.091	972.15
464.446	890.8
464.802	872.72
465.157	902.09
465.512	843.34
465.867	926.95
466.222	902.09
466.577	865.94
466.932	771.02
467.287	768.77
467.642	784.58
467.997	906.61
468.352	786.84
468.707	746.17
469.062	707.75
469.417	703.23
469.771	660.29
470.126	752.95
470.481	694.19
470.835	734.87
471.19	617.36
471.544	700.97
471.899	691.93
472.253	712.27
472.608	728.09
472.962	707.75
473.317	682.89
473.671	687.41
474.025	642.21
474.38	615.1
474.734	572.16
475.088	563.12
475.442	646.73
475.796	651.25
476.15	606.06
476.504	628.66
476.858	637.7
477.212	653.51
477.566	597.02
477.92	581.2
478.274	621.88
478.628	572.16
478.982	646.73
479.336	637.7
479.689	578.94
480.043	563.12
480.397	547.3
480.75	547.3
481.104	540.52
481.457	624.14
481.811	563.12
482.164	549.56
482.518	628.66
482.871	551.82
483.225	585.72
483.578	551.82
483.931	619.62
484.284	556.34
484.638	556.34
484.991	574.42
485.344	594.76
485.697	578.94
486.05	558.6
486.403	474.99
486.756	556.34
487.109	547.3
487.462	597.02
487.815	578.94
488.168	601.54
488.52	547.3
488.873	533.74
489.226	504.37
489.579	524.7
489.931	590.24
490.284	560.86
490.637	554.08
490.989	565.38
491.342	563.12
491.694	549.56
492.047	506.63
492.399	538.26
492.751	563.12
493.104	490.81
493.456	517.92
493.808	558.6
494.16	481.77
494.513	445.61
494.865	452.39
495.217	479.51
495.569	513.4
495.921	477.25
496.273	409.45
496.625	488.55
496.977	504.37
497.329	497.59
497.68	438.83
498.032	474.99
498.384	463.69
498.736	497.59
499.087	486.29
499.439	504.37
499.791	486.29
500.142	490.81
500.494	481.77
500.845	499.85
501.197	456.91
501.548	504.37
501.9	497.59
502.251	416.23
502.602	520.18
502.954	477.25
503.305	432.05
503.656	513.4
504.007	423.01
504.358	497.59
504.709	423.01
505.061	463.69
505.412	418.49
505.763	447.87
506.113	368.78
506.464	486.29
506.815	497.59
507.166	423.01
507.517	434.31
507.868	479.51
508.218	517.92
508.569	490.81
508.92	456.91
509.27	454.65
509.621	517.92
509.971	413.97
510.322	463.69
510.672	407.19
511.023	450.13
511.373	454.65
511.723	418.49
512.074	481.77
512.424	506.63
512.774	502.11
513.124	438.83
513.475	416.23
513.825	468.21
514.175	420.75
514.525	488.55
514.875	409.45
515.225	456.91
515.575	445.61
515.924	443.35
516.274	472.73
516.624	499.85
516.974	445.61
517.324	432.05
517.673	488.55
518.023	468.21
518.373	517.92
518.722	465.95
519.072	463.69
519.421	558.6
519.771	445.61
520.12	452.39
520.469	506.63
520.819	450.13
521.168	522.44
521.517	463.69
521.867	497.59
522.216	526.96
522.565	538.26
522.914	508.88
523.263	420.75
523.612	398.15
523.961	479.51
524.31	456.91
524.659	465.95
525.008	517.92
525.357	479.51
525.705	533.74
526.054	474.99
526.403	495.33
526.752	452.39
527.1	502.11
527.449	441.09
527.797	513.4
528.146	499.85
528.495	427.53
528.843	490.81
529.191	551.82
529.54	484.03
529.888	425.27
530.236	420.75
530.585	452.39
530.933	545.04
531.281	536
531.629	441.09
531.977	495.33
532.325	450.13
532.673	441.09
533.021	481.77
533.369	452.39
533.717	400.41
534.065	465.95
534.413	481.77
534.761	443.35
535.108	441.09
535.456	386.85
535.804	404.93
536.151	407.19
536.499	416.23
536.847	438.83
537.194	409.45
537.542	450.13
537.889	461.43
538.236	481.77
538.584	436.57
538.931	423.01
539.278	456.91
539.626	375.56
539.973	411.71
540.32	436.57
540.667	493.07
541.014	409.45
541.361	368.78
541.708	420.75
542.055	441.09
542.402	337.14
542.749	398.15
543.096	441.09
543.443	427.53
543.789	420.75
544.136	359.74
544.483	465.95
544.83	404.93
545.176	468.21
545.523	474.99
545.869	395.89
546.216	368.78
546.562	400.41
546.909	418.49
547.255	425.27
547.601	447.87
547.948	350.7
548.294	425.27
548.64	380.07
548.986	391.37
549.332	427.53
549.678	359.74
550.025	373.3
550.371	389.11
550.717	429.79
551.062	420.75
551.408	355.22
551.754	375.56
552.1	339.4
552.446	425.27
552.792	343.92
553.137	411.71
553.483	371.04
553.828	386.85
554.174	398.15
554.52	377.81
554.865	404.93
555.211	368.78
555.556	328.1
555.901	357.48
556.247	373.3
556.592	352.96
556.937	402.67
557.282	436.57
557.628	371.04
557.973	438.83
558.318	425.27
558.663	366.52
559.008	368.78
559.353	400.41
559.698	382.33
560.043	411.71
560.388	407.19
560.732	400.41
561.077	409.45
561.422	441.09
561.766	287.42
562.111	407.19
562.456	371.04
562.8	371.04
563.145	393.63
563.489	355.22
563.834	352.96
564.178	371.04
564.523	366.52
564.867	330.36
565.211	432.05
565.555	389.11
565.9	375.56
566.244	393.63
566.588	325.84
566.932	375.56
567.276	339.4
567.62	395.89
567.964	420.75
568.308	352.96
568.652	436.57
568.996	400.41
569.339	348.44
569.683	366.52
570.027	362
570.371	371.04
570.714	375.56
571.058	355.22
571.401	371.04
571.745	393.63
572.088	386.85
572.432	319.06
572.775	436.57
573.118	323.58
573.462	321.32
573.805	366.52
574.148	325.84
574.491	389.11
574.835	300.98
575.178	312.28
575.521	447.87
575.864	409.45
576.207	350.7
576.55	287.42
576.892	488.55
577.235	377.81
577.578	362
577.921	366.52
578.264	330.36
578.606	362
578.949	271.6
579.292	355.22
579.634	330.36
579.977	380.07
580.319	346.18
580.662	325.84
581.004	364.26
581.346	420.75
581.689	407.19
582.031	307.76
582.373	323.58
582.715	357.48
583.057	330.36
583.4	423.01
583.742	364.26
584.084	362
584.426	310.02
584.768	321.32
585.109	341.66
585.451	386.85
585.793	393.63
586.135	343.92
586.477	332.62
586.818	310.02
587.16	391.37
587.502	364.26
587.843	332.62
588.185	341.66
588.526	425.27
588.868	319.06
589.209	395.89
589.55	364.26
589.892	339.4
590.233	357.48
590.574	323.58
590.915	382.33
591.257	328.1
591.598	316.8
591.939	362
592.28	334.88
592.621	341.66
592.962	357.48
593.303	341.66
593.643	368.78
593.984	300.98
594.325	350.7
594.666	291.94
595.006	373.3
595.347	357.48
595.688	384.59
596.028	337.14
596.369	294.2
596.709	260.3
597.05	339.4
597.39	382.33
597.73	371.04
598.071	362
598.411	393.63
598.751	393.63
599.091	364.26
599.431	287.42
599.772	325.84
600.112	325.84
600.452	348.44
600.792	375.56
601.132	362
601.471	305.5
601.811	330.36
602.151	305.5
602.491	346.18
602.831	404.93
603.17	352.96
603.51	350.7
603.849	294.2
604.189	380.07
604.528	305.5
604.868	249
605.207	280.64
605.547	262.56
605.886	366.52
606.225	280.64
606.565	323.58
606.904	298.72
607.243	285.16
607.582	314.54
607.921	325.84
608.26	362
608.599	312.28
608.938	321.32
609.277	316.8
609.616	362
609.955	280.64
610.293	291.94
610.632	339.4
610.971	296.46
611.309	280.64
611.648	337.14
611.987	298.72
612.325	337.14
612.664	332.62
613.002	300.98
613.34	330.36
613.679	291.94
614.017	364.26
614.355	269.34
614.694	348.44
615.032	382.33
615.37	276.12
615.708	307.76
616.046	282.9
616.384	339.4
616.722	343.92
617.06	307.76
617.398	298.72
617.736	334.88
618.073	314.54
618.411	343.92
618.749	314.54
619.086	303.24
619.424	348.44
619.762	316.8
620.099	375.56
620.437	337.14
620.774	377.81
621.112	242.23
621.449	341.66
621.786	323.58
622.123	366.52
622.461	296.46
622.798	291.94
623.135	310.02
623.472	278.38
623.809	352.96
624.146	312.28
624.483	271.6
624.82	291.94
625.157	373.3
625.494	307.76
625.83	346.18
626.167	328.1
626.504	316.8
626.841	325.84
627.177	298.72
627.514	278.38
627.85	321.32
628.187	296.46
628.523	348.44
628.86	294.2
629.196	226.41
629.532	330.36
629.869	319.06
630.205	276.12
630.541	316.8
630.877	289.68
631.213	289.68
631.549	337.14
631.885	298.72
632.221	352.96
632.557	267.08
632.893	258.04
633.229	269.34
633.564	316.8
633.9	357.48
634.236	298.72
634.572	264.82
634.907	321.32
635.243	343.92
635.578	276.12
635.914	287.42
636.249	319.06
636.585	264.82
636.92	321.32
637.255	334.88
637.59	319.06
637.926	362
638.261	303.24
638.596	357.48
638.931	332.62
639.266	330.36
639.601	242.23
639.936	337.14
640.271	310.02
640.606	325.84
640.94	282.9
641.275	228.67
641.61	341.66
641.945	280.64
642.279	395.89
642.614	285.16
642.948	328.1
643.283	289.68
643.617	348.44
643.952	287.42
644.286	316.8
644.62	325.84
644.955	291.94
645.289	210.59
645.623	251.26
645.957	323.58
646.291	291.94
646.625	235.45
646.959	319.06
647.293	296.46
647.627	294.2
647.961	346.18
648.295	260.3
648.629	282.9
648.962	316.8
649.296	260.3
649.63	260.3
649.963	334.88
650.297	359.74
650.63	362
650.964	260.3
651.297	282.9
651.631	269.34
651.964	269.34
652.297	314.54
652.631	228.67
652.964	296.46
653.297	307.76
653.63	332.62
653.963	330.36
654.296	282.9
654.629	264.82
654.962	357.48
655.295	323.58
655.628	323.58
655.961	316.8
656.293	289.68
656.626	334.88
656.959	310.02
657.291	282.9
657.624	278.38
657.956	305.5
658.289	269.34
658.621	273.86
658.954	215.11
659.286	298.72
659.618	249
659.95	260.3
660.283	226.41
660.615	249
660.947	258.04
661.279	298.72
661.611	276.12
661.943	362
662.275	282.9
662.607	264.82
662.939	269.34
663.27	233.19
663.602	260.3
663.934	307.76
664.266	294.2
664.597	319.06
664.929	357.48
665.26	253.52
665.592	287.42
665.923	282.9
666.255	271.6
666.586	267.08
666.917	303.24
667.248	239.97
667.58	280.64
667.911	337.14
668.242	246.74
668.573	287.42
668.904	249
669.235	253.52
669.566	294.2
669.897	276.12
670.228	332.62
670.558	258.04
670.889	264.82
671.22	325.84
671.551	291.94
671.881	280.64
672.212	230.93
672.542	300.98
672.873	226.41
673.203	280.64
673.533	239.97
673.864	253.52
674.194	255.78
674.524	298.72
674.855	314.54
675.185	219.63
675.515	289.68
675.845	316.8
676.175	239.97
676.505	235.45
676.835	264.82
677.165	219.63
677.494	285.16
677.824	300.98
678.154	285.16
678.484	289.68
678.813	249
679.143	203.81
679.472	185.73
679.802	300.98
680.131	267.08
680.461	264.82
680.79	269.34
681.119	273.86
681.449	271.6
681.778	289.68
682.107	226.41
682.436	321.32
682.765	262.56
683.094	264.82
683.423	262.56
683.752	325.84
684.081	325.84
684.41	230.93
684.739	303.24
685.067	300.98
685.396	319.06
685.725	359.74
686.053	348.44
686.382	332.62
686.711	262.56
687.039	255.78
687.367	251.26
687.696	264.82
688.024	219.63
688.352	285.16
688.681	206.07
689.009	307.76
689.337	262.56
689.665	271.6
689.993	296.46
690.321	217.37
690.649	310.02
690.977	280.64
691.305	246.74
691.633	296.46
691.961	276.12
692.288	305.5
692.616	264.82
692.944	269.34
693.271	226.41
693.599	264.82
693.926	312.28
694.254	289.68
694.581	276.12
694.908	267.08
695.236	312.28
695.563	319.06
695.89	242.23
696.217	262.56
696.544	228.67
696.871	314.54
697.198	285.16
697.525	280.64
697.852	255.78
698.179	269.34
698.506	312.28
698.833	278.38
699.16	271.6
699.486	276.12
699.813	285.16
700.139	285.16
700.466	278.38
700.793	228.67
701.119	307.76
701.445	300.98
701.772	294.2
702.098	264.82
702.424	235.45
702.75	244.49
703.077	291.94
703.403	287.42
703.729	316.8
704.055	253.52
704.381	291.94
704.707	298.72
705.033	260.3
705.358	246.74
705.684	314.54
706.01	280.64
706.336	280.64
706.661	296.46
706.987	242.23
707.312	264.82
707.638	244.49
707.963	264.82
708.289	332.62
708.614	260.3
708.939	364.26
709.265	289.68
709.59	267.08
709.915	287.42
710.24	305.5
710.565	296.46
710.89	255.78
711.215	310.02
711.54	262.56
711.865	371.04
712.19	273.86
712.515	294.2
712.839	244.49
713.164	282.9
713.489	253.52
713.813	244.49
714.138	271.6
714.462	244.49
714.787	260.3
715.111	323.58
715.435	296.46
715.76	253.52
716.084	312.28
716.408	271.6
716.732	239.97
717.056	312.28
717.381	289.68
717.705	307.76
718.028	282.9
718.352	269.34
718.676	296.46
719	294.2
719.324	285.16
719.648	269.34
719.971	303.24
720.295	228.67
720.618	273.86
720.942	276.12
721.265	233.19
721.589	255.78
721.912	230.93
722.236	253.52
722.559	291.94
722.882	242.23
723.205	255.78
723.528	276.12
723.851	278.38
724.174	233.19
724.497	305.5
724.82	269.34
725.143	310.02
725.466	280.64
725.789	249
726.112	255.78
726.434	258.04
726.757	289.68
727.08	221.89
727.402	255.78
727.725	246.74
728.047	258.04
728.37	276.12
728.692	323.58
729.014	325.84
729.336	323.58
729.659	291.94
729.981	276.12
730.303	276.12
730.625	255.78
730.947	233.19
731.269	242.23
731.591	253.52
731.913	278.38
732.235	282.9
732.556	251.26
732.878	264.82
733.2	253.52
733.521	278.38
733.843	296.46
734.164	262.56
734.486	276.12
734.807	253.52
735.129	294.2
735.45	291.94
735.771	273.86
736.092	294.2
736.414	285.16
736.735	328.1
737.056	271.6
737.377	262.56
737.698	230.93
738.019	296.46
738.34	269.34
738.66	289.68
738.981	278.38
739.302	287.42
739.623	244.49
739.943	296.46
740.264	285.16
740.584	287.42
740.905	246.74
741.225	224.15
741.546	269.34
741.866	260.3
742.186	244.49
742.507	260.3
742.827	239.97
743.147	251.26
743.467	251.26
743.787	246.74
744.107	251.26
744.427	285.16
744.747	224.15
745.067	258.04
745.386	258.04
745.706	289.68
746.026	255.78
746.346	269.34
746.665	253.52
746.985	244.49
747.304	260.3
747.624	343.92
747.943	287.42
748.262	244.49
748.582	282.9
748.901	233.19
749.22	278.38
749.539	289.68
749.858	208.33
750.177	280.64
750.496	258.04
750.815	249
751.134	289.68
751.453	224.15
751.772	280.64
752.09	212.85
752.409	237.71
752.728	294.2
753.046	260.3
753.365	300.98
753.683	294.2
754.002	310.02
754.32	264.82
754.639	242.23
754.957	246.74
755.275	253.52
755.593	296.46
755.911	235.45
756.23	249
756.548	258.04
756.866	215.11
757.183	300.98
757.501	258.04
757.819	230.93
758.137	212.85
758.455	219.63
758.772	219.63
759.09	255.78
759.408	251.26
759.725	251.26
760.043	307.76
760.36	278.38
760.677	224.15
760.995	273.86
761.312	237.71
761.629	253.52
761.946	291.94
762.264	298.72
762.581	244.49
762.898	334.88
763.215	291.94
763.532	291.94
763.848	280.64
764.165	289.68
764.482	285.16
764.799	267.08
765.115	294.2
765.432	298.72
765.749	258.04
766.065	228.67
766.382	276.12
766.698	269.34
767.014	278.38
767.331	233.19
767.647	273.86
767.963	296.46
768.279	212.85
768.595	339.4
768.911	273.86
769.227	249
769.543	269.34
769.859	194.77
770.175	278.38
770.491	291.94
770.807	242.23
771.122	215.11
771.438	230.93
771.754	239.97
772.069	206.07
772.385	264.82
772.7	285.16
773.016	255.78
773.331	260.3
773.646	280.64
773.961	221.89
774.277	314.54
774.592	285.16
774.907	314.54
775.222	305.5
775.537	242.23
775.852	246.74
776.167	249
776.482	271.6
776.796	298.72
777.111	341.66
777.426	255.78
777.74	307.76
778.055	233.19
778.369	237.71
778.684	183.47
778.998	337.14
779.313	262.56
779.627	246.74
779.941	294.2
780.255	273.86
780.57	330.36
780.884	341.66
781.198	276.12
781.512	262.56
781.826	219.63
782.14	303.24
782.453	267.08
782.767	291.94
783.081	251.26
783.395	212.85
783.708	235.45
784.022	269.34
784.335	291.94
784.649	294.2
784.962	253.52
785.276	267.08
785.589	244.49
785.902	230.93
786.216	271.6
786.529	285.16
786.842	251.26
787.155	239.97
787.468	330.36
787.781	314.54
788.094	244.49
788.407	305.5
788.72	221.89
789.032	242.23
789.345	239.97
789.658	294.2
789.97	262.56
790.283	278.38
790.595	235.45
790.908	316.8
791.22	280.64
791.532	194.77
791.845	246.74
792.157	230.93
792.469	282.9
792.781	273.86
793.093	206.07
793.405	174.43
793.717	212.85
794.029	192.51
794.341	294.2
794.653	294.2
794.965	332.62
795.276	280.64
795.588	251.26
795.9	332.62
796.211	244.49
796.523	258.04
796.834	221.89
797.146	230.93
797.457	237.71
797.768	337.14
798.08	294.2
798.391	255.78
798.702	285.16
799.013	325.84
799.324	242.23
799.635	296.46
799.946	249
800.257	296.46
800.568	294.2
800.878	312.28
801.189	251.26
801.5	253.52
801.81	278.38
802.121	260.3
802.431	262.56
802.742	300.98
803.052	249
803.363	262.56
803.673	300.98
803.983	199.29
804.293	258.04
804.603	267.08
804.913	235.45
805.224	282.9
805.533	305.5
805.843	224.15
806.153	285.16
806.463	269.34
806.773	269.34
807.083	260.3
807.392	258.04
807.702	282.9
808.011	325.84
808.321	341.66
808.63	203.81
808.94	341.66
809.249	300.98
809.558	273.86
809.868	260.3
810.177	230.93
810.486	246.74
810.795	269.34
811.104	249
811.413	368.78
811.722	269.34
812.031	246.74
812.339	280.64
812.648	291.94
812.957	282.9
813.266	287.42
813.574	226.41
813.883	215.11
814.191	258.04
814.5	255.78
814.808	237.71
815.116	303.24
815.424	260.3
815.733	255.78
816.041	244.49
816.349	300.98
816.657	264.82
816.965	282.9
817.273	246.74
817.581	271.6
817.889	337.14
818.196	269.34
818.504	233.19
818.812	226.41
819.12	228.67
819.427	280.64
819.735	276.12
820.042	224.15
820.349	230.93
820.657	291.94
820.964	244.49
821.271	285.16
821.579	276.12
821.886	138.27
822.193	291.94
822.5	264.82
822.807	300.98
823.114	233.19
823.421	258.04
823.727	249
824.034	260.3
824.341	280.64
824.648	276.12
824.954	264.82
825.261	219.63
825.567	251.26
825.874	325.84
826.18	337.14
826.486	289.68
826.793	262.56
827.099	219.63
827.405	312.28
827.711	280.64
828.017	278.38
828.323	255.78
828.629	255.78
828.935	276.12
829.241	269.34
829.547	199.29
829.852	253.52
830.158	233.19
830.464	219.63
830.769	285.16
831.075	296.46
831.38	249
831.686	269.34
831.991	208.33
832.296	330.36
832.601	289.68
832.907	228.67
833.212	233.19
833.517	249
833.822	219.63
834.127	253.52
834.432	208.33
834.737	280.64
835.041	206.07
835.346	262.56
835.651	285.16
835.956	260.3
836.26	219.63
836.565	280.64
836.869	334.88
837.174	280.64
837.478	271.6
837.782	280.64
838.087	244.49
838.391	289.68
838.695	244.49
838.999	276.12
839.303	221.89
839.607	296.46
839.911	255.78
840.215	237.71
840.519	237.71
840.822	264.82
841.126	239.97
841.43	294.2
841.733	276.12
842.037	276.12
842.34	237.71
842.644	249
842.947	300.98
843.251	289.68
843.554	237.71
843.857	233.19
844.16	233.19
844.463	291.94
844.766	237.71
845.069	242.23
845.372	325.84
845.675	260.3
845.978	249
846.281	323.58
846.583	244.49
846.886	260.3
847.189	303.24
847.491	230.93
847.794	244.49
848.096	226.41
848.399	303.24
848.701	221.89
849.003	285.16
849.305	244.49
849.608	221.89
849.91	285.16
850.212	264.82
850.514	273.86
850.816	294.2
851.118	291.94
851.419	228.67
851.721	287.42
852.023	228.67
852.325	230.93
852.626	246.74
852.928	269.34
853.229	264.82
853.531	201.55
853.832	217.37
854.133	296.46
854.435	350.7
854.736	278.38
855.037	253.52
855.338	325.84
855.639	260.3
855.94	258.04
856.241	287.42
856.542	224.15
856.843	219.63
857.144	233.19
857.444	282.9
857.745	246.74
858.046	217.37
858.346	242.23
858.647	239.97
858.947	228.67
859.247	237.71
859.548	239.97
859.848	228.67
860.148	276.12
860.448	258.04
860.749	221.89
861.049	310.02
861.349	280.64
861.648	262.56
861.948	300.98
862.248	300.98
862.548	300.98
862.848	310.02
863.147	285.16
863.447	237.71
863.746	260.3
864.046	273.86
864.345	260.3
864.645	264.82
864.944	291.94
865.243	282.9
865.542	197.03
865.842	300.98
866.141	285.16
866.44	262.56
866.739	181.21
867.038	226.41
867.337	242.23
867.635	294.2
867.934	251.26
868.233	300.98
868.531	258.04
868.83	174.43
869.129	269.34
869.427	262.56
869.725	273.86
870.024	192.51
870.322	267.08
870.62	273.86
870.918	285.16
871.217	357.48
871.515	348.44
871.813	244.49
872.111	289.68
872.409	282.9
872.706	262.56
873.004	352.96
873.302	307.76
873.6	242.23
873.897	210.59
874.195	298.72
874.492	233.19
874.79	273.86
875.087	264.82
875.384	221.89
875.682	230.93
875.979	280.64
876.276	305.5
876.573	255.78
876.87	255.78
877.167	255.78
