Data from PL_2polymer_F8BT_MEHPPV_USB2H096331_0373.txt Node
Date: Tue Dec 15 16:08:22 CET 2020
User: spadmin
Spectrometer: USB2+H09633
Trigger mode: 0
Integration Time (sec): 1.000000E-2
Scans to average: 1
Electric dark correction enabled: true
Nonlinearity correction enabled: false
Boxcar width: 0
XAxis mode: Wavelengths
Number of Pixels in Spectrum: 2048
>>>>>Begin Spectral Data<<<<<
174.027	-107.48
174.405	-107.48
174.783	-107.48
175.162	-161.72
175.54	-154.94
175.918	-132.34
176.296	-109.74
176.674	-134.6
177.052	-93.92
177.43	-89.4
177.808	-82.62
178.186	-17.09
178.564	-14.83
178.942	-32.91
179.32	32.63
179.698	-19.35
180.076	111.72
180.453	95.9
180.831	116.24
181.209	50.7
181.587	62
181.965	125.28
182.342	98.16
182.72	186.29
183.098	213.41
183.475	204.37
183.853	220.19
184.231	222.45
184.608	265.39
184.986	260.87
185.363	267.65
185.741	254.09
186.118	278.95
186.496	358.04
186.873	326.4
187.251	310.59
187.628	360.3
188.006	306.07
188.383	251.83
188.76	292.51
189.138	315.1
189.515	358.04
189.892	337.7
190.27	337.7
190.647	324.14
191.024	297.03
191.401	315.1
191.778	299.29
192.155	369.34
192.533	391.94
192.91	326.4
193.287	333.18
193.664	274.43
194.041	317.36
194.418	285.73
194.795	242.79
195.172	342.22
195.549	349
195.926	308.33
196.302	301.55
196.679	265.39
197.056	321.88
197.433	274.43
197.81	283.47
198.187	267.65
198.563	285.73
198.94	272.17
199.317	281.21
199.693	292.51
200.07	308.33
200.447	306.07
200.823	283.47
201.2	351.26
201.576	326.4
201.953	310.59
202.329	301.55
202.706	308.33
203.082	303.81
203.459	308.33
203.835	272.17
204.212	299.29
204.588	260.87
204.964	326.4
205.341	292.51
205.717	292.51
206.093	344.48
206.469	319.62
206.846	292.51
207.222	308.33
207.598	306.07
207.974	306.07
208.35	321.88
208.726	290.25
209.102	285.73
209.479	267.65
209.855	321.88
210.231	321.88
210.607	315.1
210.982	281.21
211.358	231.49
211.734	364.82
212.11	317.36
212.486	324.14
212.862	358.04
213.238	321.88
213.614	299.29
213.989	303.81
214.365	269.91
214.741	301.55
215.116	312.84
215.492	276.69
215.868	272.17
216.243	317.36
216.619	349
216.995	339.96
217.37	260.87
217.746	294.77
218.121	303.81
218.497	326.4
218.872	360.3
219.247	292.51
219.623	339.96
219.998	319.62
220.374	349
220.749	349
221.124	281.21
221.499	349
221.875	317.36
222.25	382.9
222.625	416.8
223	351.26
223.376	278.95
223.751	292.51
224.126	344.48
224.501	367.08
224.876	349
225.251	301.55
225.626	324.14
226.001	283.47
226.376	317.36
226.751	335.44
227.126	272.17
227.501	342.22
227.875	328.66
228.25	333.18
228.625	353.52
229	342.22
229.375	376.12
229.749	333.18
230.124	382.9
230.499	324.14
230.873	344.48
231.248	335.44
231.623	371.6
231.997	371.6
232.372	290.25
232.746	321.88
233.121	265.39
233.495	369.34
233.87	376.12
234.244	306.07
234.619	317.36
234.993	294.77
235.367	321.88
235.742	276.69
236.116	373.86
236.49	373.86
236.865	360.3
237.239	335.44
237.613	297.03
237.987	317.36
238.361	403.24
238.736	330.92
239.11	272.17
239.484	358.04
239.858	349
240.232	416.8
240.606	285.73
240.98	419.06
241.354	303.81
241.728	315.1
242.102	330.92
242.475	315.1
242.849	362.56
243.223	353.52
243.597	342.22
243.971	349
244.344	387.42
244.718	396.46
245.092	360.3
245.466	358.04
245.839	281.21
246.213	306.07
246.586	321.88
246.96	367.08
247.334	339.96
247.707	425.84
248.081	324.14
248.454	425.84
248.828	369.34
249.201	324.14
249.574	324.14
249.948	308.33
250.321	373.86
250.694	333.18
251.068	308.33
251.441	276.69
251.814	319.62
252.187	287.99
252.561	326.4
252.934	398.72
253.307	315.1
253.68	385.16
254.053	312.84
254.426	326.4
254.799	367.08
255.172	378.38
255.545	389.68
255.918	371.6
256.291	369.34
256.664	342.22
257.037	421.32
257.41	335.44
257.782	349
258.155	394.2
258.528	364.82
258.901	410.02
259.273	369.34
259.646	423.58
260.019	385.16
260.391	373.86
260.764	319.62
261.137	362.56
261.509	414.54
261.882	360.3
262.254	335.44
262.627	391.94
262.999	371.6
263.372	385.16
263.744	324.14
264.116	423.58
264.489	394.2
264.861	349
265.233	394.2
265.606	317.36
265.978	400.98
266.35	425.84
266.722	362.56
267.094	351.26
267.467	400.98
267.839	425.84
268.211	321.88
268.583	364.82
268.955	428.1
269.327	396.46
269.699	380.64
270.071	391.94
270.443	437.14
270.815	367.08
271.186	376.12
271.558	382.9
271.93	342.22
272.302	355.78
272.674	351.26
273.045	421.32
273.417	290.25
273.789	267.65
274.16	344.48
274.532	391.94
274.904	355.78
275.275	416.8
275.647	493.63
276.018	428.1
276.39	394.2
276.761	407.76
277.133	394.2
277.504	367.08
277.875	389.68
278.247	493.63
278.618	369.34
278.989	378.38
279.361	416.8
279.732	405.5
280.103	423.58
280.474	342.22
280.846	441.66
281.217	425.84
281.588	428.1
281.959	434.88
282.33	410.02
282.701	482.33
283.072	441.66
283.443	385.16
283.814	396.46
284.185	400.98
284.556	396.46
284.927	376.12
285.297	403.24
285.668	387.42
286.039	360.3
286.41	421.32
286.781	403.24
287.151	362.56
287.522	471.03
287.893	391.94
288.263	385.16
288.634	403.24
289.004	380.64
289.375	416.8
289.745	459.73
290.116	439.4
290.486	403.24
290.857	428.1
291.227	459.73
291.598	416.8
291.968	443.91
292.338	407.76
292.709	452.95
293.079	466.51
293.449	439.4
293.819	407.76
294.189	425.84
294.56	410.02
294.93	434.88
295.3	432.62
295.67	452.95
296.04	403.24
296.41	398.72
296.78	380.64
297.15	405.5
297.52	371.6
297.89	430.36
298.259	394.2
298.629	378.38
298.999	446.17
299.369	443.91
299.739	416.8
300.108	493.63
300.478	405.5
300.848	529.79
301.217	430.36
301.587	416.8
301.957	407.76
302.326	518.49
302.696	419.06
303.065	459.73
303.435	446.17
303.804	419.06
304.174	382.9
304.543	439.4
304.912	396.46
305.282	493.63
305.651	464.25
306.02	484.59
306.39	459.73
306.759	434.88
307.128	430.36
307.497	378.38
307.866	461.99
308.235	441.66
308.604	457.47
308.974	391.94
309.343	568.21
309.712	475.55
310.08	464.25
310.449	489.11
310.818	477.81
311.187	475.55
311.556	466.51
311.925	538.83
312.294	437.14
312.662	498.15
313.031	421.32
313.4	459.73
313.769	446.17
314.137	511.71
314.506	516.23
314.874	419.06
315.243	430.36
315.612	574.98
315.98	513.97
316.349	502.67
316.717	457.47
317.085	468.77
317.454	459.73
317.822	448.43
318.191	502.67
318.559	516.23
318.927	428.1
319.295	527.53
319.664	577.24
320.032	550.13
320.4	482.33
320.768	543.35
321.136	475.55
321.504	516.23
321.872	516.23
322.24	475.55
322.608	439.4
322.976	484.59
323.344	525.27
323.712	525.27
324.08	448.43
324.448	473.29
324.816	468.77
325.183	534.31
325.551	516.23
325.919	464.25
326.287	495.89
326.654	516.23
327.022	552.39
327.389	590.8
327.757	523.01
328.125	502.67
328.492	455.21
328.86	574.98
329.227	507.19
329.594	516.23
329.962	493.63
330.329	480.07
330.697	559.17
331.064	482.33
331.431	459.73
331.798	437.14
332.166	527.53
332.533	656.34
332.9	563.69
333.267	550.13
333.634	584.02
334.001	572.73
334.368	570.47
334.735	572.73
335.102	579.5
335.469	441.66
335.836	579.5
336.203	622.44
336.57	556.91
336.937	581.76
337.304	500.41
337.67	493.63
338.037	597.58
338.404	550.13
338.771	570.47
339.137	604.36
339.504	613.4
339.87	561.43
340.237	593.06
340.604	622.44
340.97	541.09
341.337	550.13
341.703	588.54
342.069	604.36
342.436	586.28
342.802	599.84
343.169	611.14
343.535	593.06
343.901	588.54
344.267	624.7
344.634	624.7
345	608.88
345.366	622.44
345.732	617.92
346.098	651.82
346.464	712.83
346.83	593.06
347.196	536.57
347.562	545.61
347.928	602.1
348.294	645.04
348.66	708.31
349.026	586.28
349.392	631.48
349.757	559.17
350.123	663.12
350.489	624.7
350.855	615.66
351.22	615.66
351.586	678.94
351.951	678.94
352.317	694.76
352.683	624.7
353.048	715.09
353.414	710.57
353.779	676.68
354.144	697.02
354.51	719.61
354.875	708.31
355.24	626.96
355.606	739.95
355.971	746.73
356.336	721.87
356.701	724.13
357.067	780.63
357.432	875.54
357.797	735.43
358.162	755.77
358.527	810.01
358.892	739.95
359.257	755.77
359.622	753.51
359.987	769.33
360.352	812.27
360.717	760.29
361.082	816.79
361.446	805.49
361.811	807.75
362.176	852.94
362.541	805.49
362.905	841.64
363.27	916.22
363.635	938.82
363.999	868.76
364.364	893.62
364.728	932.04
365.093	995.31
365.457	943.34
365.822	923
366.186	1022.43
366.55	1015.65
366.915	916.22
367.279	1006.61
367.643	943.34
368.008	972.71
368.372	990.79
368.736	1004.35
369.1	1011.13
369.464	1069.89
369.828	1058.59
370.192	1162.54
370.556	1162.54
370.92	1112.82
371.284	1225.82
371.648	1162.54
372.012	1332.03
372.376	1187.4
372.74	1295.87
373.104	1372.7
373.468	1433.72
373.831	1454.06
374.195	1515.07
374.559	1438.24
374.922	1463.1
375.286	1582.87
375.65	1600.95
376.013	1693.6
376.377	1686.82
376.74	1754.61
377.104	1822.41
377.467	1921.84
377.83	2037.09
378.194	2141.05
378.557	2263.08
378.92	2394.15
379.284	2509.4
379.647	2563.63
380.01	2857.41
380.373	2990.74
380.736	3180.57
381.1	3519.54
381.463	3734.22
381.826	3815.58
382.189	4242.69
382.552	4536.46
382.915	4911.59
383.278	5151.14
383.64	5876.54
384.003	6201.96
384.366	6929.62
384.729	7408.7
385.092	8075.35
385.454	8534.1
385.817	9273.06
386.18	10421.05
386.542	11318.21
386.905	12434.56
387.268	13614.19
387.63	14949.75
387.993	16337.28
388.355	17774.53
388.718	19731.54
389.08	21376.7
389.442	23616.19
389.805	25589.02
390.167	27383.32
390.529	30721.08
390.892	33945.86
391.254	35713.04
391.616	38424.84
391.978	42849.58
392.34	47122.91
392.702	48716.09
393.064	51913.75
393.426	54031.21
393.788	55811.95
394.15	57509.08
394.512	59255.93
394.874	61179.04
395.236	62679.57
395.598	64525.85
395.96	65052.39
396.321	65052.39
396.683	65052.39
397.045	65052.39
397.406	65052.39
397.768	65052.39
398.13	65052.39
398.491	65052.39
398.853	65052.39
399.214	65052.39
399.576	65052.39
399.937	65052.39
400.299	65052.39
400.66	65052.39
401.021	65052.39
401.383	65052.39
401.744	65052.39
402.105	65052.39
402.466	65052.39
402.827	65052.39
403.189	65052.39
403.55	65052.39
403.911	65052.39
404.272	65052.39
404.633	65052.39
404.994	65052.39
405.355	65052.39
405.716	65052.39
406.077	65052.39
406.437	65052.39
406.798	65052.39
407.159	65052.39
407.52	65052.39
407.88	65052.39
408.241	65052.39
408.602	65052.39
408.962	65052.39
409.323	65052.39
409.684	65052.39
410.044	65052.39
410.405	65052.39
410.765	65052.39
411.125	65052.39
411.486	65052.39
411.846	65052.39
412.206	65052.39
412.567	65052.39
412.927	65052.39
413.287	65052.39
413.647	65052.39
414.007	65052.39
414.368	65052.39
414.728	65052.39
415.088	65052.39
415.448	65052.39
415.808	65052.39
416.168	65052.39
416.528	65052.39
416.887	65052.39
417.247	65052.39
417.607	65052.39
417.967	65052.39
418.327	65052.39
418.686	65052.39
419.046	65052.39
419.406	65052.39
419.765	65052.39
420.125	65052.39
420.484	65052.39
420.844	65052.39
421.203	65052.39
421.563	64717.93
421.922	64308.9
422.282	62616.29
422.641	61167.74
423	59960.99
423.36	59066.1
423.719	57176.89
424.078	54871.86
424.437	53253.83
424.796	51635.79
425.155	50092.33
425.515	47427.99
425.874	46517.28
426.233	42252.99
426.592	39898.24
426.95	39150.24
427.309	36806.8
427.668	35672.37
428.027	32732.33
428.386	32178.67
428.745	29112.09
429.103	27941.5
429.462	26233.07
429.821	24398.09
430.179	23595.85
430.538	22411.7
430.897	21858.04
431.255	20741.69
431.614	19379.01
431.972	18569.99
432.33	17968.88
432.689	17625.38
433.047	16321.46
433.405	15896.62
433.764	14723.77
434.122	14658.23
434.48	13718.14
434.838	13159.96
435.197	12378.06
435.555	12224.4
435.913	11548.71
436.271	10904.66
436.629	10495.63
436.987	9984.91
437.345	9426.73
437.703	9189.45
438.061	8757.82
438.418	8201.9
438.776	8012.08
439.134	8030.16
439.492	7329.61
439.849	7137.52
440.207	6771.43
440.565	6425.68
440.922	6134.16
441.28	5709.31
441.637	5526.27
441.995	5329.66
442.352	5126.28
442.71	4848.32
443.067	4879.96
443.425	4484.49
443.782	4369.24
444.139	4285.62
444.496	4057.38
444.854	3982.8
445.211	3863.03
445.568	3702.59
445.925	3478.86
446.282	3467.56
446.639	3304.86
446.996	3334.23
447.353	3289.04
447.71	3275.48
448.067	3185.09
448.424	2938.76
448.781	2843.85
449.137	2789.62
449.494	2615.61
449.851	2726.34
450.208	2570.41
450.564	2389.63
450.921	2204.32
451.278	2226.92
451.634	2193.02
451.991	2111.67
452.347	2260.82
452.704	2066.47
453.06	1942.18
453.416	1854.05
453.773	1806.59
454.129	1790.77
454.485	1682.3
454.841	1817.89
455.198	1630.32
455.554	1544.45
455.91	1558.01
456.266	1616.77
456.622	1494.73
456.978	1445.02
457.334	1347.85
457.69	1406.6
458.046	1250.67
458.402	1232.59
458.758	1176.1
459.114	1155.76
459.469	1182.88
459.825	1133.16
460.181	1078.93
460.536	1083.45
460.892	1051.81
461.248	1017.91
461.603	1006.61
461.959	932.04
462.314	993.05
462.67	999.83
463.025	934.3
463.38	936.56
463.736	911.7
464.091	902.66
464.446	805.49
464.802	866.5
465.157	925.26
465.512	841.64
465.867	843.9
466.222	800.97
466.577	791.93
466.932	843.9
467.287	805.49
467.642	776.11
467.997	825.83
468.352	796.45
468.707	773.85
469.062	744.47
469.417	742.21
469.771	733.17
470.126	706.05
470.481	769.33
470.835	697.02
471.19	748.99
471.544	678.94
471.899	654.08
472.253	678.94
472.608	631.48
472.962	719.61
473.317	683.46
473.671	667.64
474.025	622.44
474.38	608.88
474.734	658.6
475.088	672.16
475.442	654.08
475.796	651.82
476.15	624.7
476.504	604.36
476.858	645.04
477.212	665.38
477.566	706.05
477.92	674.42
478.274	552.39
478.628	529.79
478.982	606.62
479.336	602.1
479.689	604.36
480.043	608.88
480.397	615.66
480.75	559.17
481.104	586.28
481.457	511.71
481.811	536.57
482.164	599.84
482.518	527.53
482.871	547.87
483.225	599.84
483.578	570.47
483.931	547.87
484.284	493.63
484.638	486.85
484.991	574.98
485.344	520.75
485.697	504.93
486.05	532.05
486.403	543.35
486.756	556.91
487.109	586.28
487.462	541.09
487.815	525.27
488.168	498.15
488.52	595.32
488.873	493.63
489.226	559.17
489.579	538.83
489.931	464.25
490.284	577.24
490.637	509.45
490.989	527.53
491.342	498.15
491.694	547.87
492.047	532.05
492.399	529.79
492.751	538.83
493.104	532.05
493.456	452.95
493.808	511.71
494.16	536.57
494.513	491.37
494.865	486.85
495.217	498.15
495.569	480.07
495.921	563.69
496.273	489.11
496.625	536.57
496.977	504.93
497.329	464.25
497.68	500.41
498.032	396.46
498.384	480.07
498.736	523.01
499.087	550.13
499.439	532.05
499.791	491.37
500.142	452.95
500.494	511.71
500.845	511.71
501.197	529.79
501.548	529.79
501.9	527.53
502.251	466.51
502.602	523.01
502.954	536.57
503.305	432.62
503.656	547.87
504.007	520.75
504.358	493.63
504.709	572.73
505.061	495.89
505.412	565.95
505.763	550.13
506.113	536.57
506.464	509.45
506.815	636
507.166	593.06
507.517	529.79
507.868	624.7
508.218	511.71
508.569	584.02
508.92	561.43
509.27	561.43
509.621	559.17
509.971	570.47
510.322	602.1
510.672	595.32
511.023	647.3
511.373	631.48
511.723	577.24
512.074	602.1
512.424	617.92
512.774	579.5
513.124	633.74
513.475	590.8
513.825	617.92
514.175	636
514.525	660.86
514.875	629.22
515.225	672.16
515.575	683.46
515.924	703.8
516.274	769.33
516.624	780.63
516.974	584.02
517.324	685.72
517.673	687.98
518.023	651.82
518.373	789.67
518.722	699.28
519.072	712.83
519.421	767.07
519.771	715.09
520.12	669.9
520.469	753.51
520.819	712.83
521.168	780.63
521.517	730.91
521.867	769.33
522.216	796.45
522.565	857.46
522.914	773.85
523.263	791.93
523.612	819.05
523.961	805.49
524.31	794.19
524.659	737.69
525.008	934.3
525.357	923
525.705	816.79
526.054	821.31
526.403	852.94
526.752	785.15
527.1	934.3
527.449	843.9
527.797	800.97
528.146	837.12
528.495	839.38
528.843	834.87
529.191	864.24
529.54	816.79
529.888	956.9
530.236	875.54
530.585	850.68
530.933	830.35
531.281	889.1
531.629	868.76
531.977	864.24
532.325	893.62
532.673	889.1
533.021	941.08
533.369	902.66
533.717	859.72
534.065	909.44
534.413	850.68
534.761	877.8
535.108	898.14
535.456	927.52
535.804	859.72
536.151	816.79
536.499	886.84
536.847	839.38
537.194	907.18
537.542	861.98
537.889	900.4
538.236	907.18
538.584	911.7
538.931	916.22
539.278	866.5
539.626	954.64
539.973	857.46
540.32	925.26
540.667	873.28
541.014	864.24
541.361	920.74
541.708	959.16
542.055	841.64
542.402	965.94
542.749	932.04
543.096	819.05
543.443	882.32
543.789	950.12
544.136	868.76
544.483	762.55
544.83	837.12
545.176	947.86
545.523	916.22
545.869	889.1
546.216	904.92
546.562	880.06
546.909	934.3
547.255	907.18
547.601	898.14
547.948	923
548.294	839.38
548.64	889.1
548.986	893.62
549.332	936.56
549.678	972.71
550.025	859.72
550.371	889.1
550.717	909.44
551.062	941.08
551.408	861.98
551.754	945.6
552.1	938.82
552.446	895.88
552.792	920.74
553.137	902.66
553.483	941.08
553.828	981.75
554.174	859.72
554.52	952.38
554.865	954.64
555.211	945.6
555.556	938.82
555.901	988.53
556.247	936.56
556.592	923
556.937	884.58
557.282	956.9
557.628	1040.51
557.973	1090.23
558.318	943.34
558.663	965.94
559.008	1067.63
559.353	1049.55
559.698	950.12
560.043	1013.39
560.388	1008.87
560.732	1067.63
561.077	1031.47
561.422	1049.55
561.766	1081.19
562.111	1004.35
562.456	1076.67
562.8	1130.9
563.145	1119.6
563.489	1158.02
563.834	1087.97
564.178	1160.28
564.523	1158.02
564.867	1171.58
565.211	1097.01
565.555	1221.3
565.9	1169.32
566.244	1180.62
566.588	1083.45
566.932	1126.38
567.276	1225.82
567.62	1182.88
567.964	1239.37
568.308	1232.59
568.652	1268.75
568.996	1268.75
569.339	1189.66
569.683	1271.01
570.027	1295.87
570.371	1277.79
570.714	1293.61
571.058	1246.15
571.401	1261.97
571.745	1347.85
572.088	1311.69
572.432	1311.69
572.775	1322.99
573.118	1313.95
573.462	1230.33
573.805	1322.99
574.148	1282.31
574.491	1239.37
574.835	1293.61
575.178	1413.38
575.521	1352.37
575.864	1341.07
576.207	1359.15
576.55	1241.63
576.892	1322.99
577.235	1338.81
577.578	1354.63
577.921	1332.03
578.264	1433.72
578.606	1449.54
578.949	1313.95
579.292	1338.81
579.634	1350.11
579.977	1347.85
580.319	1332.03
580.662	1352.37
581.004	1259.71
581.346	1311.69
581.689	1316.21
582.031	1295.87
582.373	1390.78
582.715	1300.39
583.057	1264.23
583.4	1273.27
583.742	1261.97
584.084	1332.03
584.426	1332.03
584.768	1252.93
585.109	1320.73
585.451	1191.92
585.793	1198.7
586.135	1221.3
586.477	1300.39
586.818	1273.27
587.16	1298.13
587.502	1106.04
587.843	1153.5
588.185	1214.52
588.526	1117.34
588.868	1162.54
589.209	1194.18
589.55	1198.7
589.892	1137.68
590.233	1151.24
590.574	1115.08
590.915	1124.12
591.257	1223.56
591.598	1119.6
591.939	1142.2
592.28	1162.54
592.621	1069.89
592.962	1008.87
593.303	1029.21
593.643	990.79
593.984	986.27
594.325	1049.55
594.666	986.27
595.006	988.53
595.347	979.49
595.688	965.94
596.028	970.45
596.369	938.82
596.709	1008.87
597.05	1031.47
597.39	934.3
597.73	963.68
598.071	918.48
598.411	850.68
598.751	911.7
599.091	868.76
599.431	907.18
599.772	882.32
600.112	904.92
600.452	857.46
600.792	927.52
601.132	866.5
601.471	859.72
601.811	837.12
602.151	703.8
602.491	787.41
602.831	920.74
603.17	803.23
603.51	812.27
603.849	857.46
604.189	807.75
604.528	810.01
604.868	760.29
605.207	767.07
605.547	755.77
605.886	739.95
606.225	771.59
606.565	769.33
606.904	785.15
607.243	810.01
607.582	758.03
607.921	744.47
608.26	816.79
608.599	748.99
608.938	746.73
609.277	687.98
609.616	753.51
609.955	728.65
610.293	753.51
610.632	733.17
610.971	672.16
611.309	769.33
611.648	710.57
611.987	701.54
612.325	626.96
612.664	785.15
613.002	699.28
613.34	832.61
613.679	620.18
614.017	685.72
614.355	739.95
614.694	703.8
615.032	719.61
615.37	690.24
615.708	703.8
616.046	642.78
616.384	721.87
616.722	719.61
617.06	717.35
617.398	746.73
617.736	708.31
618.073	703.8
618.411	751.25
618.749	810.01
619.086	669.9
619.424	737.69
619.762	778.37
620.099	708.31
620.437	715.09
620.774	660.86
621.112	669.9
621.449	751.25
621.786	654.08
622.123	687.98
622.461	683.46
622.798	728.65
623.135	706.05
623.472	676.68
623.809	703.8
624.146	687.98
624.483	633.74
624.82	708.31
625.157	742.21
625.494	665.38
625.83	642.78
626.167	615.66
626.504	617.92
626.841	656.34
627.177	665.38
627.514	642.78
627.85	690.24
628.187	669.9
628.523	724.13
628.86	683.46
629.196	538.83
629.532	620.18
629.869	717.35
630.205	733.17
630.541	699.28
630.877	638.26
631.213	651.82
631.549	633.74
631.885	636
632.221	629.22
632.557	606.62
632.893	620.18
633.229	626.96
633.564	599.84
633.9	649.56
634.236	674.42
634.572	654.08
634.907	645.04
635.243	638.26
635.578	608.88
635.914	579.5
636.249	638.26
636.585	687.98
636.92	687.98
637.255	633.74
637.59	570.47
637.926	617.92
638.261	579.5
638.596	527.53
638.931	615.66
639.266	645.04
639.601	611.14
639.936	622.44
640.271	565.95
640.606	669.9
640.94	611.14
641.275	642.78
641.61	626.96
641.945	568.21
642.279	495.89
642.614	563.69
642.948	572.73
643.283	561.43
643.617	584.02
643.952	615.66
644.286	543.35
644.62	541.09
644.955	574.98
645.289	543.35
645.623	584.02
645.957	511.71
646.291	541.09
646.625	482.33
646.959	511.71
647.293	477.81
647.627	593.06
647.961	491.37
648.295	484.59
648.629	518.49
648.962	486.85
649.296	484.59
649.63	448.43
649.963	419.06
650.297	489.11
650.63	516.23
650.964	568.21
651.297	480.07
651.631	513.97
651.964	471.03
652.297	410.02
652.631	491.37
652.964	468.77
653.297	507.19
653.63	473.29
653.963	434.88
654.296	448.43
654.629	461.99
654.962	428.1
655.295	452.95
655.628	457.47
655.961	493.63
656.293	430.36
656.626	471.03
656.959	407.76
657.291	511.71
657.624	507.19
657.956	502.67
658.289	434.88
658.621	455.21
658.954	421.32
659.286	493.63
659.618	486.85
659.95	493.63
660.283	473.29
660.615	477.81
660.947	493.63
661.279	369.34
661.611	446.17
661.943	466.51
662.275	403.24
662.607	353.52
662.939	419.06
663.27	434.88
663.602	448.43
663.934	403.24
664.266	428.1
664.597	439.4
664.929	473.29
665.26	430.36
665.592	430.36
665.923	369.34
666.255	403.24
666.586	434.88
666.917	414.54
667.248	450.69
667.58	416.8
667.911	373.86
668.242	394.2
668.573	391.94
668.904	425.84
669.235	407.76
669.566	394.2
669.897	337.7
670.228	391.94
670.558	389.68
670.889	394.2
671.22	367.08
671.551	328.66
671.881	378.38
672.212	373.86
672.542	389.68
672.873	491.37
673.203	391.94
673.533	373.86
673.864	416.8
674.194	337.7
674.524	324.14
674.855	394.2
675.185	342.22
675.515	398.72
675.845	389.68
676.175	412.28
676.505	342.22
676.835	364.82
677.165	416.8
677.494	337.7
677.824	358.04
678.154	441.66
678.484	349
678.813	360.3
679.143	376.12
679.472	373.86
679.802	335.44
680.131	400.98
680.461	328.66
680.79	412.28
681.119	389.68
681.449	301.55
681.778	308.33
682.107	346.74
682.436	380.64
682.765	342.22
683.094	324.14
683.423	387.42
683.752	297.03
684.081	285.73
684.41	339.96
684.739	369.34
685.067	346.74
685.396	403.24
685.725	353.52
686.053	326.4
686.382	326.4
686.711	389.68
687.039	330.92
687.367	335.44
687.696	299.29
688.024	337.7
688.352	297.03
688.681	367.08
689.009	378.38
689.337	346.74
689.665	391.94
689.993	364.82
690.321	312.84
690.649	290.25
690.977	294.77
691.305	339.96
691.633	423.58
691.961	337.7
692.288	294.77
692.616	351.26
692.944	310.59
693.271	308.33
693.599	353.52
693.926	330.92
694.254	346.74
694.581	349
694.908	274.43
695.236	317.36
695.563	324.14
695.89	310.59
696.217	371.6
696.544	355.78
696.871	301.55
697.198	380.64
697.525	312.84
697.852	301.55
698.179	315.1
698.506	299.29
698.833	337.7
699.16	269.91
699.486	324.14
699.813	287.99
700.139	319.62
700.466	412.28
700.793	281.21
701.119	303.81
701.445	367.08
701.772	301.55
702.098	278.95
702.424	335.44
702.75	265.39
703.077	290.25
703.403	315.1
703.729	333.18
704.055	380.64
704.381	269.91
704.707	346.74
705.033	290.25
705.358	385.16
705.684	319.62
706.01	238.27
706.336	367.08
706.661	281.21
706.987	260.87
707.312	249.57
707.638	326.4
707.963	276.69
708.289	321.88
708.614	249.57
708.939	312.84
709.265	276.69
709.59	335.44
709.915	308.33
710.24	328.66
710.565	371.6
710.89	283.47
711.215	310.59
711.54	303.81
711.865	337.7
712.19	310.59
712.515	238.27
712.839	283.47
713.164	335.44
713.489	344.48
713.813	308.33
714.138	287.99
714.462	319.62
714.787	326.4
715.111	330.92
715.435	312.84
715.76	260.87
716.084	287.99
716.408	301.55
716.732	308.33
717.056	233.75
717.381	324.14
717.705	317.36
718.028	283.47
718.352	267.65
718.676	335.44
719	315.1
719.324	299.29
719.648	308.33
719.971	312.84
720.295	297.03
720.618	267.65
720.942	263.13
721.265	306.07
721.589	303.81
721.912	312.84
722.236	292.51
722.559	299.29
722.882	267.65
723.205	263.13
723.528	290.25
723.851	245.05
724.174	276.69
724.497	276.69
724.82	294.77
725.143	231.49
725.466	231.49
725.789	251.83
726.112	294.77
726.434	301.55
726.757	290.25
727.08	306.07
727.402	319.62
727.725	301.55
728.047	303.81
728.37	335.44
728.692	278.95
729.014	324.14
729.336	310.59
729.659	245.05
729.981	238.27
730.303	274.43
730.625	290.25
730.947	346.74
731.269	292.51
731.591	339.96
731.913	312.84
732.235	276.69
732.556	242.79
732.878	256.35
733.2	324.14
733.521	206.63
733.843	272.17
734.164	222.45
734.486	303.81
734.807	260.87
735.129	242.79
735.45	292.51
735.771	312.84
736.092	272.17
736.414	276.69
736.735	297.03
737.056	245.05
737.377	245.05
737.698	224.71
738.019	317.36
738.34	263.13
738.66	285.73
738.981	267.65
739.302	317.36
739.623	269.91
739.943	274.43
740.264	297.03
740.584	238.27
740.905	317.36
741.225	226.97
741.546	272.17
741.866	312.84
742.186	267.65
742.507	229.23
742.827	245.05
743.147	254.09
743.467	245.05
743.787	281.21
744.107	226.97
744.427	231.49
744.747	222.45
745.067	319.62
745.386	303.81
745.706	287.99
746.026	204.37
746.346	339.96
746.665	254.09
746.985	337.7
747.304	281.21
747.624	276.69
747.943	292.51
748.262	285.73
748.582	260.87
748.901	290.25
749.22	321.88
749.539	303.81
749.858	258.61
750.177	269.91
750.496	236.01
750.815	299.29
751.134	240.53
751.453	231.49
751.772	312.84
752.09	238.27
752.409	278.95
752.728	281.21
753.046	263.13
753.365	254.09
753.683	317.36
754.002	276.69
754.32	226.97
754.639	215.67
754.957	172.74
755.275	272.17
755.593	247.31
755.911	294.77
756.23	263.13
756.548	321.88
756.866	312.84
757.183	256.35
757.501	245.05
757.819	281.21
758.137	269.91
758.455	317.36
758.772	276.69
759.09	217.93
759.408	263.13
759.725	249.57
760.043	240.53
760.36	233.75
760.677	249.57
760.995	287.99
761.312	306.07
761.629	328.66
761.946	233.75
762.264	335.44
762.581	308.33
762.898	263.13
763.215	274.43
763.532	290.25
763.848	256.35
764.165	260.87
764.482	240.53
764.799	251.83
765.115	267.65
765.432	260.87
765.749	238.27
766.065	265.39
766.382	245.05
766.698	220.19
767.014	224.71
767.331	301.55
767.647	222.45
767.963	256.35
768.279	256.35
768.595	310.59
768.911	215.67
769.227	353.52
769.543	204.37
769.859	251.83
770.175	233.75
770.491	294.77
770.807	179.52
771.122	265.39
771.438	281.21
771.754	297.03
772.069	328.66
772.385	242.79
772.7	249.57
773.016	287.99
773.331	306.07
773.646	213.41
773.961	326.4
774.277	247.31
774.592	193.07
774.907	179.52
775.222	260.87
775.537	276.69
775.852	319.62
776.167	351.26
776.482	276.69
776.796	267.65
777.111	254.09
777.426	290.25
777.74	224.71
778.055	217.93
778.369	272.17
778.684	236.01
778.998	224.71
779.313	274.43
779.627	206.63
779.941	256.35
780.255	222.45
780.57	195.33
780.884	276.69
781.198	236.01
781.512	224.71
781.826	265.39
782.14	206.63
782.453	215.67
782.767	231.49
783.081	229.23
783.395	306.07
783.708	236.01
784.022	278.95
784.335	256.35
784.649	269.91
784.962	260.87
785.276	226.97
785.589	263.13
785.902	240.53
786.216	217.93
786.529	242.79
786.842	186.29
787.155	263.13
787.468	317.36
787.781	265.39
788.094	238.27
788.407	283.47
788.72	236.01
789.032	267.65
789.345	251.83
789.658	283.47
789.97	265.39
790.283	211.15
790.595	269.91
790.908	263.13
791.22	281.21
791.532	245.05
791.845	247.31
792.157	256.35
792.469	260.87
792.781	294.77
793.093	292.51
793.405	292.51
793.717	263.13
794.029	238.27
794.341	256.35
794.653	197.59
794.965	236.01
795.276	276.69
795.588	308.33
795.9	263.13
796.211	242.79
796.523	260.87
796.834	222.45
797.146	224.71
797.457	213.41
797.768	283.47
798.08	263.13
798.391	249.57
798.702	290.25
799.013	308.33
799.324	263.13
799.635	242.79
799.946	240.53
800.257	202.11
800.568	260.87
800.878	285.73
801.189	217.93
801.5	324.14
801.81	267.65
802.121	251.83
802.431	303.81
802.742	272.17
803.052	258.61
803.363	217.93
803.673	226.97
803.983	278.95
804.293	226.97
804.603	247.31
804.913	254.09
805.224	251.83
805.533	249.57
805.843	303.81
806.153	321.88
806.463	254.09
806.773	222.45
807.083	229.23
807.392	254.09
807.702	254.09
808.011	233.75
808.321	217.93
808.63	267.65
808.94	220.19
809.249	245.05
809.558	254.09
809.868	301.55
810.177	177.26
810.486	265.39
810.795	263.13
811.104	297.03
811.413	274.43
811.722	285.73
812.031	297.03
812.339	285.73
812.648	269.91
812.957	254.09
813.266	249.57
813.574	269.91
813.883	276.69
814.191	247.31
814.5	236.01
814.808	269.91
815.116	278.95
815.424	226.97
815.733	238.27
816.041	258.61
816.349	215.67
816.657	229.23
816.965	193.07
817.273	247.31
817.581	199.85
817.889	281.21
818.196	242.79
818.504	299.29
818.812	233.75
819.12	308.33
819.427	265.39
819.735	226.97
820.042	249.57
820.349	294.77
820.657	258.61
820.964	260.87
821.271	306.07
821.579	238.27
821.886	226.97
822.193	263.13
822.5	265.39
822.807	274.43
823.114	283.47
823.421	213.41
823.727	260.87
824.034	308.33
824.341	256.35
824.648	319.62
824.954	310.59
825.261	290.25
825.567	308.33
825.874	276.69
826.18	254.09
826.486	242.79
826.793	258.61
827.099	240.53
827.405	358.04
827.711	170.48
828.017	222.45
828.323	281.21
828.629	181.77
828.935	303.81
829.241	254.09
829.547	238.27
829.852	301.55
830.158	208.89
830.464	276.69
830.769	229.23
831.075	290.25
831.38	231.49
831.686	319.62
831.991	247.31
832.296	231.49
832.601	330.92
832.907	204.37
833.212	224.71
833.517	258.61
833.822	285.73
834.127	242.79
834.432	283.47
834.737	254.09
835.041	217.93
835.346	292.51
835.651	258.61
835.956	290.25
836.26	247.31
836.565	249.57
836.869	245.05
837.174	249.57
837.478	256.35
837.782	254.09
838.087	238.27
838.391	236.01
838.695	254.09
838.999	145.62
839.303	240.53
839.607	233.75
839.911	254.09
840.215	301.55
840.519	236.01
840.822	263.13
841.126	208.89
841.43	292.51
841.733	197.59
842.037	233.75
842.34	206.63
842.644	312.84
842.947	256.35
843.251	222.45
843.554	310.59
843.857	258.61
844.16	254.09
844.463	245.05
844.766	287.99
845.069	215.67
845.372	236.01
845.675	283.47
845.978	326.4
846.281	315.1
846.583	263.13
846.886	258.61
847.189	272.17
847.491	272.17
847.794	240.53
848.096	285.73
848.399	258.61
848.701	220.19
849.003	199.85
849.305	247.31
849.608	285.73
849.91	254.09
850.212	231.49
850.514	269.91
850.816	251.83
851.118	238.27
851.419	290.25
851.721	260.87
852.023	165.96
852.325	272.17
852.626	306.07
852.928	222.45
853.229	231.49
853.531	231.49
853.832	213.41
854.133	233.75
854.435	238.27
854.736	254.09
855.037	265.39
855.338	251.83
855.639	177.26
855.94	294.77
856.241	240.53
856.542	287.99
856.843	272.17
857.144	247.31
857.444	184.03
857.745	263.13
858.046	294.77
858.346	360.3
858.647	299.29
858.947	260.87
859.247	281.21
859.548	308.33
859.848	292.51
860.148	258.61
860.448	254.09
860.749	238.27
861.049	265.39
861.349	297.03
861.648	281.21
861.948	283.47
862.248	272.17
862.548	242.79
862.848	265.39
863.147	251.83
863.447	208.89
863.746	236.01
864.046	251.83
864.345	265.39
864.645	285.73
864.944	265.39
865.243	226.97
865.542	242.79
865.842	193.07
866.141	242.79
866.44	217.93
866.739	285.73
867.038	247.31
867.337	249.57
867.635	247.31
867.934	204.37
868.233	256.35
868.531	260.87
868.83	204.37
869.129	287.99
869.427	272.17
869.725	272.17
870.024	265.39
870.322	206.63
870.62	240.53
870.918	292.51
871.217	306.07
871.515	299.29
871.813	283.47
872.111	267.65
872.409	274.43
872.706	319.62
873.004	303.81
873.302	260.87
873.6	206.63
873.897	267.65
874.195	265.39
874.492	260.87
874.79	290.25
875.087	294.77
875.384	260.87
875.682	254.09
875.979	303.81
876.276	272.17
876.573	247.31
876.87	247.31
877.167	247.31
