Data from PL_2polymer_F8BT_MEHPPV_USB2H096331_0358.txt Node
Date: Tue Dec 15 16:40:43 CET 2020
User: spadmin
Spectrometer: USB2+H09633
Trigger mode: 0
Integration Time (sec): 1.000000E-2
Scans to average: 1
Electric dark correction enabled: true
Nonlinearity correction enabled: false
Boxcar width: 0
XAxis mode: Wavelengths
Number of Pixels in Spectrum: 2048
>>>>>Begin Spectral Data<<<<<
174.027	-64.55
174.405	-64.55
174.783	-64.55
175.162	-130.08
175.54	-152.68
175.918	-75.85
176.296	-69.07
176.674	-66.81
177.052	-91.66
177.43	-66.81
177.808	-60.03
178.186	-44.21
178.564	-26.13
178.942	34.89
179.32	-21.61
179.698	21.33
180.076	28.11
180.453	-10.31
180.831	73.3
181.209	89.12
181.587	98.16
181.965	111.72
182.342	152.4
182.72	136.58
183.098	190.81
183.475	197.59
183.853	229.23
184.231	301.55
184.608	238.27
184.986	297.03
185.363	236.01
185.741	321.88
186.118	299.29
186.496	319.62
186.873	231.49
187.251	324.14
187.628	360.3
188.006	339.96
188.383	287.99
188.76	258.61
189.138	256.35
189.515	371.6
189.892	351.26
190.27	285.73
190.647	256.35
191.024	267.65
191.401	265.39
191.778	310.59
192.155	371.6
192.533	256.35
192.91	330.92
193.287	256.35
193.664	346.74
194.041	308.33
194.418	301.55
194.795	319.62
195.172	263.13
195.549	292.51
195.926	281.21
196.302	238.27
196.679	206.63
197.056	265.39
197.433	328.66
197.81	287.99
198.187	276.69
198.563	321.88
198.94	346.74
199.317	265.39
199.693	290.25
200.07	303.81
200.447	290.25
200.823	260.87
201.2	238.27
201.576	292.51
201.953	315.1
202.329	328.66
202.706	269.91
203.082	247.31
203.459	249.57
203.835	303.81
204.212	297.03
204.588	333.18
204.964	245.05
205.341	297.03
205.717	315.1
206.093	335.44
206.469	260.87
206.846	299.29
207.222	299.29
207.598	353.52
207.974	299.29
208.35	217.93
208.726	283.47
209.102	272.17
209.479	292.51
209.855	364.82
210.231	272.17
210.607	297.03
210.982	326.4
211.358	339.96
211.734	317.36
212.11	337.7
212.486	344.48
212.862	333.18
213.238	292.51
213.614	349
213.989	294.77
214.365	333.18
214.741	299.29
215.116	326.4
215.492	260.87
215.868	290.25
216.243	324.14
216.619	315.1
216.995	335.44
217.37	290.25
217.746	312.84
218.121	315.1
218.497	274.43
218.872	242.79
219.247	274.43
219.623	333.18
219.998	321.88
220.374	387.42
220.749	299.29
221.124	326.4
221.499	265.39
221.875	310.59
222.25	319.62
222.625	267.65
223	222.45
223.376	317.36
223.751	263.13
224.126	292.51
224.501	274.43
224.876	358.04
225.251	265.39
225.626	355.78
226.001	335.44
226.376	380.64
226.751	387.42
227.126	330.92
227.501	242.79
227.875	281.21
228.25	319.62
228.625	342.22
229	330.92
229.375	362.56
229.749	265.39
230.124	360.3
230.499	319.62
230.873	310.59
231.248	269.91
231.623	337.7
231.997	328.66
232.372	342.22
232.746	287.99
233.121	312.84
233.495	346.74
233.87	317.36
234.244	344.48
234.619	297.03
234.993	339.96
235.367	319.62
235.742	281.21
236.116	344.48
236.49	301.55
236.865	342.22
237.239	324.14
237.613	315.1
237.987	330.92
238.361	281.21
238.736	373.86
239.11	299.29
239.484	346.74
239.858	335.44
240.232	321.88
240.606	342.22
240.98	315.1
241.354	303.81
241.728	310.59
242.102	335.44
242.475	339.96
242.849	373.86
243.223	333.18
243.597	349
243.971	335.44
244.344	364.82
244.718	367.08
245.092	335.44
245.466	335.44
245.839	355.78
246.213	321.88
246.586	360.3
246.96	276.69
247.334	349
247.707	301.55
248.081	297.03
248.454	310.59
248.828	378.38
249.201	342.22
249.574	294.77
249.948	351.26
250.321	369.34
250.694	319.62
251.068	337.7
251.441	396.46
251.814	269.91
252.187	355.78
252.561	353.52
252.934	310.59
253.307	344.48
253.68	330.92
254.053	319.62
254.426	367.08
254.799	321.88
255.172	312.84
255.545	389.68
255.918	294.77
256.291	346.74
256.664	351.26
257.037	324.14
257.41	294.77
257.782	274.43
258.155	337.7
258.528	294.77
258.901	333.18
259.273	355.78
259.646	319.62
260.019	362.56
260.391	394.2
260.764	328.66
261.137	351.26
261.509	337.7
261.882	324.14
262.254	321.88
262.627	335.44
262.999	326.4
263.372	330.92
263.744	337.7
264.116	324.14
264.489	301.55
264.861	342.22
265.233	358.04
265.606	389.68
265.978	364.82
266.35	371.6
266.722	315.1
267.094	299.29
267.467	312.84
267.839	376.12
268.211	324.14
268.583	306.07
268.955	321.88
269.327	376.12
269.699	362.56
270.071	407.76
270.443	333.18
270.815	382.9
271.186	410.02
271.558	337.7
271.93	373.86
272.302	364.82
272.674	353.52
273.045	376.12
273.417	342.22
273.789	308.33
274.16	287.99
274.532	378.38
274.904	371.6
275.275	405.5
275.647	337.7
276.018	428.1
276.39	344.48
276.761	387.42
277.133	349
277.504	407.76
277.875	319.62
278.247	416.8
278.618	414.54
278.989	360.3
279.361	412.28
279.732	367.08
280.103	396.46
280.474	287.99
280.846	290.25
281.217	405.5
281.588	382.9
281.959	459.73
282.33	333.18
282.701	326.4
283.072	428.1
283.443	328.66
283.814	367.08
284.185	364.82
284.556	330.92
284.927	459.73
285.297	414.54
285.668	380.64
286.039	439.4
286.41	373.86
286.781	333.18
287.151	360.3
287.522	403.24
287.893	452.95
288.263	373.86
288.634	407.76
289.004	398.72
289.375	344.48
289.745	407.76
290.116	382.9
290.486	394.2
290.857	398.72
291.227	396.46
291.598	450.69
291.968	407.76
292.338	371.6
292.709	380.64
293.079	414.54
293.449	369.34
293.819	360.3
294.189	425.84
294.56	360.3
294.93	337.7
295.3	394.2
295.67	391.94
296.04	380.64
296.41	330.92
296.78	369.34
297.15	292.51
297.52	421.32
297.89	403.24
298.259	376.12
298.629	471.03
298.999	391.94
299.369	385.16
299.739	416.8
300.108	421.32
300.478	344.48
300.848	464.25
301.217	346.74
301.587	425.84
301.957	351.26
302.326	382.9
302.696	439.4
303.065	367.08
303.435	434.88
303.804	378.38
304.174	403.24
304.543	369.34
304.912	425.84
305.282	387.42
305.651	387.42
306.02	385.16
306.39	405.5
306.759	367.08
307.128	339.96
307.497	437.14
307.866	441.66
308.235	380.64
308.604	425.84
308.974	382.9
309.343	414.54
309.712	412.28
310.08	421.32
310.449	482.33
310.818	398.72
311.187	468.77
311.556	405.5
311.925	378.38
312.294	473.29
312.662	412.28
313.031	443.91
313.4	419.06
313.769	423.58
314.137	482.33
314.506	369.34
314.874	373.86
315.243	403.24
315.612	378.38
315.98	437.14
316.349	491.37
316.717	432.62
317.085	459.73
317.454	439.4
317.822	437.14
318.191	434.88
318.559	405.5
318.927	412.28
319.295	421.32
319.664	369.34
320.032	504.93
320.4	362.56
320.768	382.9
321.136	443.91
321.504	443.91
321.872	434.88
322.24	434.88
322.608	459.73
322.976	389.68
323.344	441.66
323.712	423.58
324.08	419.06
324.448	380.64
324.816	414.54
325.183	471.03
325.551	423.58
325.919	407.76
326.287	416.8
326.654	455.21
327.022	502.67
327.389	520.75
327.757	373.86
328.125	482.33
328.492	455.21
328.86	432.62
329.227	475.55
329.594	441.66
329.962	425.84
330.329	480.07
330.697	414.54
331.064	446.17
331.431	468.77
331.798	423.58
332.166	423.58
332.533	507.19
332.9	405.5
333.267	443.91
333.634	455.21
334.001	457.47
334.368	513.97
334.735	457.47
335.102	457.47
335.469	455.21
335.836	446.17
336.203	471.03
336.57	461.99
336.937	439.4
337.304	466.51
337.67	446.17
338.037	527.53
338.404	457.47
338.771	491.37
339.137	471.03
339.504	459.73
339.87	552.39
340.237	523.01
340.604	443.91
340.97	509.45
341.337	446.17
341.703	507.19
342.069	471.03
342.436	495.89
342.802	398.72
343.169	536.57
343.535	520.75
343.901	525.27
344.267	486.85
344.634	509.45
345	513.97
345.366	532.05
345.732	511.71
346.098	509.45
346.464	457.47
346.83	464.25
347.196	430.36
347.562	500.41
347.928	559.17
348.294	484.59
348.66	509.45
349.026	588.54
349.392	532.05
349.757	502.67
350.123	561.43
350.489	550.13
350.855	556.91
351.22	593.06
351.586	518.49
351.951	532.05
352.317	568.21
352.683	498.15
353.048	493.63
353.414	504.93
353.779	554.65
354.144	579.5
354.51	620.18
354.875	595.32
355.24	633.74
355.606	538.83
355.971	593.06
356.336	593.06
356.701	608.88
357.067	581.76
357.432	572.73
357.797	556.91
358.162	599.84
358.527	584.02
358.892	593.06
359.257	563.69
359.622	631.48
359.987	620.18
360.352	692.5
360.717	683.46
361.082	640.52
361.446	613.4
361.811	597.58
362.176	656.34
362.541	654.08
362.905	767.07
363.27	663.12
363.635	683.46
363.999	676.68
364.364	739.95
364.728	708.31
365.093	699.28
365.457	737.69
365.822	791.93
366.186	703.8
366.55	730.91
366.915	730.91
367.279	678.94
367.643	726.39
368.008	758.03
368.372	794.19
368.736	866.5
369.1	866.5
369.464	719.61
369.828	753.51
370.192	834.87
370.556	812.27
370.92	877.8
371.284	852.94
371.648	850.68
372.012	895.88
372.376	986.27
372.74	977.23
373.104	1101.52
373.468	1067.63
373.831	902.66
374.195	1060.85
374.559	1085.71
374.922	1142.2
375.286	1040.51
375.65	1121.86
376.013	1212.26
376.377	1200.96
376.74	1293.61
377.104	1304.91
377.467	1343.33
377.83	1431.46
378.194	1553.49
378.557	1607.73
378.92	1533.15
379.284	1652.92
379.647	1768.17
380.01	1860.83
380.373	1937.66
380.736	2120.71
381.1	2287.93
381.463	2491.32
381.826	2647.25
382.189	2776.06
382.552	2977.18
382.915	3230.28
383.278	3304.86
383.64	3786.2
384.003	4136.47
384.366	4425.73
384.729	4776
385.092	5011.03
385.454	5494.63
385.817	6073.15
386.18	6760.13
386.542	7329.61
386.905	8134.11
387.268	8656.13
387.63	9546.5
387.993	10371.34
388.355	11401.82
388.718	12396.14
389.08	13636.79
389.442	14773.48
389.805	16075.14
390.167	17144.04
390.529	19141.73
390.892	21408.34
391.254	22820.73
391.616	24203.74
391.978	27159.6
392.34	30149.35
392.702	31353.84
393.064	34476.92
393.426	36829.4
393.788	38668.9
394.15	40869.97
394.512	43968.19
394.874	46725.18
395.236	49348.84
395.598	52320.52
395.96	54537.41
396.321	56630.01
396.683	58629.96
397.045	60765.49
397.406	62910.07
397.768	64277.26
398.13	65086.28
398.491	65086.28
398.853	65086.28
399.214	65086.28
399.576	65086.28
399.937	65086.28
400.299	65086.28
400.66	65086.28
401.021	65086.28
401.383	65086.28
401.744	65086.28
402.105	65086.28
402.466	65086.28
402.827	65086.28
403.189	65086.28
403.55	65086.28
403.911	65086.28
404.272	65086.28
404.633	65086.28
404.994	65086.28
405.355	65086.28
405.716	65086.28
406.077	65086.28
406.437	65086.28
406.798	65086.28
407.159	65086.28
407.52	65086.28
407.88	65086.28
408.241	65086.28
408.602	65086.28
408.962	65086.28
409.323	65086.28
409.684	65086.28
410.044	65086.28
410.405	65086.28
410.765	65086.28
411.125	65086.28
411.486	65086.28
411.846	65086.28
412.206	65086.28
412.567	65086.28
412.927	65086.28
413.287	65086.28
413.647	65086.28
414.007	65086.28
414.368	65086.28
414.728	65086.28
415.088	65086.28
415.448	65086.28
415.808	65086.28
416.168	65086.28
416.528	65086.28
416.887	65086.28
417.247	65086.28
417.607	65086.28
417.967	65086.28
418.327	64532.63
418.686	63624.17
419.046	62539.46
419.406	61545.13
419.765	60977.92
420.125	59235.59
420.484	57961.05
420.844	57366.71
421.203	55407.44
421.563	53527.26
421.922	53287.72
422.282	50853.89
422.641	48831.34
423	46603.15
423.36	44770.43
423.719	42187.45
424.078	39213.52
424.437	37172.89
424.796	35428.31
425.155	34219.3
425.515	31982.07
425.874	31191.13
426.233	27995.73
426.592	26624.02
426.95	26083.92
427.309	24061.37
427.668	23704.32
428.027	21372.18
428.386	21306.64
428.745	18784.68
429.103	18221.98
429.462	17182.46
429.821	15905.66
430.179	15614.14
430.538	14653.71
430.897	14375.75
431.255	13634.53
431.614	12576.93
431.972	12353.21
432.33	11722.71
432.689	11801.81
433.047	10904.66
433.405	10375.86
433.764	9923.89
434.122	9584.92
434.48	8922.79
434.838	8674.21
435.197	8244.84
435.555	8170.27
435.913	7521.69
436.271	7189.5
436.629	7067.47
436.987	6701.38
437.345	6403.08
437.703	6260.71
438.061	5978.23
438.418	5530.79
438.776	5196.33
439.134	5047.18
439.492	4972.61
439.849	4814.42
440.207	4373.76
440.565	4441.55
440.922	4104.84
441.28	3844.96
441.637	3768.12
441.995	3612.19
442.352	3609.93
442.71	3189.61
443.067	3207.68
443.425	2993
443.782	3060.8
444.139	2983.96
444.496	2882.27
444.854	2706
445.211	2611.09
445.568	2491.32
445.925	2468.72
446.282	2443.86
446.639	2344.43
446.996	2220.14
447.353	2235.96
447.71	2159.12
448.067	2150.08
448.424	2050.65
448.781	1917.32
449.137	1851.79
449.494	1815.63
449.851	1797.55
450.208	1752.36
450.564	1695.86
450.921	1596.43
451.278	1553.49
451.634	1600.95
451.991	1526.37
452.347	1524.11
452.704	1442.76
453.06	1408.86
453.416	1402.08
453.773	1359.15
454.129	1178.36
454.485	1178.36
454.841	1216.78
455.198	1210
455.554	1126.38
455.91	1072.15
456.266	1130.9
456.622	1135.42
456.978	999.83
457.334	961.42
457.69	920.74
458.046	1026.95
458.402	938.82
458.758	873.28
459.114	913.96
459.469	891.36
459.825	814.53
460.181	800.97
460.536	830.35
460.892	794.19
461.248	758.03
461.603	776.11
461.959	697.02
462.314	789.67
462.67	703.8
463.025	739.95
463.38	703.8
463.736	769.33
464.091	681.2
464.446	647.3
464.802	730.91
465.157	667.64
465.512	692.5
465.867	687.98
466.222	647.3
466.577	660.86
466.932	676.68
467.287	640.52
467.642	645.04
467.997	676.68
468.352	654.08
468.707	624.7
469.062	613.4
469.417	606.62
469.771	532.05
470.126	620.18
470.481	602.1
470.835	660.86
471.19	527.53
471.544	491.37
471.899	513.97
472.253	480.07
472.608	547.87
472.962	520.75
473.317	502.67
473.671	507.19
474.025	523.01
474.38	498.15
474.734	498.15
475.088	556.91
475.442	529.79
475.796	516.23
476.15	511.71
476.504	536.57
476.858	507.19
477.212	538.83
477.566	457.47
477.92	509.45
478.274	563.69
478.628	489.11
478.982	477.81
479.336	471.03
479.689	504.93
480.043	489.11
480.397	500.41
480.75	491.37
481.104	416.8
481.457	475.55
481.811	482.33
482.164	518.49
482.518	500.41
482.871	471.03
483.225	500.41
483.578	482.33
483.931	563.69
484.284	502.67
484.638	509.45
484.991	489.11
485.344	416.8
485.697	450.69
486.05	459.73
486.403	446.17
486.756	475.55
487.109	498.15
487.462	504.93
487.815	473.29
488.168	473.29
488.52	423.58
488.873	425.84
489.226	475.55
489.579	455.21
489.931	398.72
490.284	480.07
490.637	547.87
490.989	457.47
491.342	468.77
491.694	482.33
492.047	457.47
492.399	396.46
492.751	389.68
493.104	450.69
493.456	480.07
493.808	500.41
494.16	419.06
494.513	471.03
494.865	459.73
495.217	511.71
495.569	457.47
495.921	396.46
496.273	450.69
496.625	378.38
496.977	328.66
497.329	452.95
497.68	412.28
498.032	448.43
498.384	432.62
498.736	430.36
499.087	421.32
499.439	443.91
499.791	432.62
500.142	432.62
500.494	428.1
500.845	410.02
501.197	423.58
501.548	464.25
501.9	421.32
502.251	362.56
502.602	468.77
502.954	437.14
503.305	448.43
503.656	398.72
504.007	389.68
504.358	376.12
504.709	387.42
505.061	405.5
505.412	428.1
505.763	468.77
506.113	434.88
506.464	437.14
506.815	452.95
507.166	441.66
507.517	367.08
507.868	430.36
508.218	432.62
508.569	382.9
508.92	362.56
509.27	403.24
509.621	378.38
509.971	412.28
510.322	389.68
510.672	358.04
511.023	419.06
511.373	468.77
511.723	461.99
512.074	416.8
512.424	389.68
512.774	455.21
513.124	441.66
513.475	394.2
513.825	461.99
514.175	391.94
514.525	387.42
514.875	452.95
515.225	466.51
515.575	443.91
515.924	419.06
516.274	389.68
516.624	398.72
516.974	434.88
517.324	464.25
517.673	419.06
518.023	504.93
518.373	396.46
518.722	378.38
519.072	400.98
519.421	443.91
519.771	421.32
520.12	421.32
520.469	389.68
520.819	400.98
521.168	475.55
521.517	434.88
521.867	484.59
522.216	382.9
522.565	432.62
522.914	371.6
523.263	441.66
523.612	400.98
523.961	439.4
524.31	459.73
524.659	412.28
525.008	425.84
525.357	423.58
525.705	457.47
526.054	477.81
526.403	419.06
526.752	452.95
527.1	394.2
527.449	484.59
527.797	403.24
528.146	480.07
528.495	480.07
528.843	448.43
529.191	441.66
529.54	389.68
529.888	396.46
530.236	389.68
530.585	450.69
530.933	450.69
531.281	421.32
531.629	371.6
531.977	475.55
532.325	423.58
532.673	482.33
533.021	459.73
533.369	423.58
533.717	412.28
534.065	432.62
534.413	419.06
534.761	416.8
535.108	452.95
535.456	373.86
535.804	437.14
536.151	371.6
536.499	405.5
536.847	455.21
537.194	428.1
537.542	455.21
537.889	358.04
538.236	466.51
538.584	419.06
538.931	380.64
539.278	452.95
539.626	473.29
539.973	430.36
540.32	432.62
540.667	405.5
541.014	439.4
541.361	437.14
541.708	369.34
542.055	353.52
542.402	391.94
542.749	387.42
543.096	421.32
543.443	405.5
543.789	443.91
544.136	333.18
544.483	342.22
544.83	396.46
545.176	428.1
545.523	335.44
545.869	367.08
546.216	364.82
546.562	398.72
546.909	405.5
547.255	410.02
547.601	416.8
547.948	403.24
548.294	400.98
548.64	387.42
548.986	398.72
549.332	378.38
549.678	358.04
550.025	353.52
550.371	437.14
550.717	400.98
551.062	376.12
551.408	339.96
551.754	382.9
552.1	428.1
552.446	459.73
552.792	443.91
553.137	471.03
553.483	432.62
553.828	355.78
554.174	410.02
554.52	380.64
554.865	410.02
555.211	382.9
555.556	353.52
555.901	455.21
556.247	410.02
556.592	396.46
556.937	373.86
557.282	441.66
557.628	405.5
557.973	355.78
558.318	380.64
558.663	441.66
559.008	378.38
559.353	369.34
559.698	376.12
560.043	405.5
560.388	391.94
560.732	396.46
561.077	391.94
561.422	378.38
561.766	387.42
562.111	398.72
562.456	405.5
562.8	360.3
563.145	398.72
563.489	421.32
563.834	382.9
564.178	380.64
564.523	369.34
564.867	407.76
565.211	410.02
565.555	378.38
565.9	396.46
566.244	459.73
566.588	419.06
566.932	362.56
567.276	330.92
567.62	378.38
567.964	389.68
568.308	394.2
568.652	403.24
568.996	421.32
569.339	439.4
569.683	385.16
570.027	419.06
570.371	367.08
570.714	387.42
571.058	351.26
571.401	394.2
571.745	355.78
572.088	353.52
572.432	378.38
572.775	480.07
573.118	385.16
573.462	416.8
573.805	405.5
574.148	486.85
574.491	452.95
574.835	405.5
575.178	400.98
575.521	353.52
575.864	382.9
576.207	287.99
576.55	328.66
576.892	394.2
577.235	351.26
577.578	362.56
577.921	367.08
578.264	387.42
578.606	389.68
578.949	360.3
579.292	468.77
579.634	421.32
579.977	407.76
580.319	389.68
580.662	398.72
581.004	407.76
581.346	319.62
581.689	405.5
582.031	403.24
582.373	448.43
582.715	376.12
583.057	403.24
583.4	358.04
583.742	430.36
584.084	373.86
584.426	373.86
584.768	466.51
585.109	389.68
585.451	349
585.793	412.28
586.135	407.76
586.477	400.98
586.818	349
587.16	421.32
587.502	355.78
587.843	335.44
588.185	437.14
588.526	353.52
588.868	373.86
589.209	355.78
589.55	371.6
589.892	297.03
590.233	328.66
590.574	373.86
590.915	394.2
591.257	434.88
591.598	387.42
591.939	385.16
592.28	385.16
592.621	358.04
592.962	387.42
593.303	294.77
593.643	382.9
593.984	373.86
594.325	360.3
594.666	285.73
595.006	385.16
595.347	355.78
595.688	403.24
596.028	373.86
596.369	328.66
596.709	324.14
597.05	308.33
597.39	423.58
597.73	349
598.071	251.83
598.411	290.25
598.751	319.62
599.091	326.4
599.431	301.55
599.772	382.9
600.112	430.36
600.452	389.68
600.792	403.24
601.132	337.7
601.471	328.66
601.811	371.6
602.151	367.08
602.491	315.1
602.831	306.07
603.17	333.18
603.51	358.04
603.849	328.66
604.189	301.55
604.528	376.12
604.868	330.92
605.207	360.3
605.547	380.64
605.886	369.34
606.225	337.7
606.565	328.66
606.904	369.34
607.243	321.88
607.582	308.33
607.921	358.04
608.26	335.44
608.599	256.35
608.938	378.38
609.277	367.08
609.616	321.88
609.955	351.26
610.293	283.47
610.632	335.44
610.971	351.26
611.309	339.96
611.648	351.26
611.987	380.64
612.325	312.84
612.664	326.4
613.002	287.99
613.34	274.43
613.679	344.48
614.017	342.22
614.355	287.99
614.694	294.77
615.032	346.74
615.37	312.84
615.708	364.82
616.046	371.6
616.384	299.29
616.722	344.48
617.06	335.44
617.398	360.3
617.736	403.24
618.073	306.07
618.411	371.6
618.749	373.86
619.086	321.88
619.424	349
619.762	303.81
620.099	303.81
620.437	299.29
620.774	321.88
621.112	326.4
621.449	294.77
621.786	360.3
622.123	272.17
622.461	333.18
622.798	324.14
623.135	337.7
623.472	236.01
623.809	285.73
624.146	333.18
624.483	319.62
624.82	353.52
625.157	326.4
625.494	346.74
625.83	330.92
626.167	328.66
626.504	335.44
626.841	346.74
627.177	287.99
627.514	358.04
627.85	367.08
628.187	308.33
628.523	297.03
628.86	321.88
629.196	326.4
629.532	256.35
629.869	364.82
630.205	360.3
630.541	360.3
630.877	290.25
631.213	294.77
631.549	376.12
631.885	276.69
632.221	328.66
632.557	360.3
632.893	276.69
633.229	301.55
633.564	328.66
633.9	294.77
634.236	269.91
634.572	369.34
634.907	360.3
635.243	290.25
635.578	278.95
635.914	272.17
636.249	306.07
636.585	349
636.92	317.36
637.255	349
637.59	319.62
637.926	301.55
638.261	306.07
638.596	344.48
638.931	339.96
639.266	312.84
639.601	290.25
639.936	297.03
640.271	292.51
640.606	353.52
640.94	351.26
641.275	321.88
641.61	376.12
641.945	281.21
642.279	285.73
642.614	351.26
642.948	278.95
643.283	297.03
643.617	294.77
643.952	292.51
644.286	330.92
644.62	312.84
644.955	367.08
645.289	387.42
645.623	339.96
645.957	233.75
646.291	287.99
646.625	317.36
646.959	312.84
647.293	337.7
647.627	272.17
647.961	310.59
648.295	319.62
648.629	330.92
648.962	346.74
649.296	358.04
649.63	335.44
649.963	333.18
650.297	285.73
650.63	287.99
650.964	269.91
651.297	254.09
651.631	328.66
651.964	351.26
652.297	278.95
652.631	339.96
652.964	269.91
653.297	344.48
653.63	344.48
653.963	396.46
654.296	344.48
654.629	258.61
654.962	342.22
655.295	272.17
655.628	324.14
655.961	355.78
656.293	346.74
656.626	229.23
656.959	276.69
657.291	328.66
657.624	276.69
657.956	328.66
658.289	274.43
658.621	337.7
658.954	335.44
659.286	303.81
659.618	267.65
659.95	276.69
660.283	278.95
660.615	321.88
660.947	349
661.279	358.04
661.611	306.07
661.943	342.22
662.275	256.35
662.607	321.88
662.939	276.69
663.27	267.65
663.602	242.79
663.934	312.84
664.266	265.39
664.597	358.04
664.929	287.99
665.26	373.86
665.592	251.83
665.923	290.25
666.255	337.7
666.586	269.91
666.917	317.36
667.248	339.96
667.58	306.07
667.911	312.84
668.242	297.03
668.573	267.65
668.904	267.65
669.235	306.07
669.566	301.55
669.897	337.7
670.228	321.88
670.558	283.47
670.889	310.59
671.22	294.77
671.551	337.7
671.881	339.96
672.212	306.07
672.542	292.51
672.873	242.79
673.203	376.12
673.533	333.18
673.864	297.03
674.194	335.44
674.524	301.55
674.855	274.43
675.185	301.55
675.515	283.47
675.845	308.33
676.175	349
676.505	276.69
676.835	269.91
677.165	297.03
677.494	344.48
677.824	310.59
678.154	276.69
678.484	265.39
678.813	315.1
679.143	267.65
679.472	245.05
679.802	312.84
680.131	303.81
680.461	299.29
680.79	317.36
681.119	272.17
681.449	308.33
681.778	353.52
682.107	367.08
682.436	297.03
682.765	330.92
683.094	328.66
683.423	326.4
683.752	265.39
684.081	238.27
684.41	312.84
684.739	269.91
685.067	294.77
685.396	215.67
685.725	297.03
686.053	265.39
686.382	226.97
686.711	276.69
687.039	290.25
687.367	263.13
687.696	306.07
688.024	260.87
688.352	321.88
688.681	292.51
689.009	224.71
689.337	238.27
689.665	324.14
689.993	292.51
690.321	319.62
690.649	247.31
690.977	256.35
691.305	342.22
691.633	292.51
691.961	321.88
692.288	358.04
692.616	256.35
692.944	260.87
693.271	328.66
693.599	287.99
693.926	362.56
694.254	269.91
694.581	292.51
694.908	269.91
695.236	324.14
695.563	358.04
695.89	310.59
696.217	292.51
696.544	310.59
696.871	367.08
697.198	324.14
697.525	269.91
697.852	272.17
698.179	249.57
698.506	283.47
698.833	267.65
699.16	335.44
699.486	249.57
699.813	287.99
700.139	254.09
700.466	312.84
700.793	294.77
701.119	267.65
701.445	269.91
701.772	285.73
702.098	249.57
702.424	312.84
702.75	254.09
703.077	215.67
703.403	281.21
703.729	245.05
704.055	312.84
704.381	278.95
704.707	299.29
705.033	297.03
705.358	299.29
705.684	292.51
706.01	324.14
706.336	240.53
706.661	242.79
706.987	251.83
707.312	306.07
707.638	301.55
707.963	254.09
708.289	281.21
708.614	344.48
708.939	303.81
709.265	254.09
709.59	299.29
709.915	301.55
710.24	342.22
710.565	342.22
710.89	251.83
711.215	274.43
711.54	297.03
711.865	292.51
712.19	254.09
712.515	272.17
712.839	342.22
713.164	281.21
713.489	222.45
713.813	294.77
714.138	317.36
714.462	276.69
714.787	308.33
715.111	290.25
715.435	287.99
715.76	324.14
716.084	326.4
716.408	245.05
716.732	319.62
717.056	281.21
717.381	265.39
717.705	249.57
718.028	315.1
718.352	265.39
718.676	310.59
719	290.25
719.324	236.01
719.648	256.35
719.971	319.62
720.295	258.61
720.618	276.69
720.942	242.79
721.265	285.73
721.589	272.17
721.912	269.91
722.236	274.43
722.559	245.05
722.882	238.27
723.205	251.83
723.528	319.62
723.851	272.17
724.174	287.99
724.497	287.99
724.82	278.95
725.143	303.81
725.466	355.78
725.789	394.2
726.112	265.39
726.434	263.13
726.757	220.19
727.08	308.33
727.402	301.55
727.725	342.22
728.047	242.79
728.37	213.41
728.692	276.69
729.014	263.13
729.336	294.77
729.659	263.13
729.981	287.99
730.303	249.57
730.625	281.21
730.947	276.69
731.269	335.44
731.591	278.95
731.913	247.31
732.235	263.13
732.556	265.39
732.878	308.33
733.2	256.35
733.521	306.07
733.843	287.99
734.164	312.84
734.486	292.51
734.807	326.4
735.129	245.05
735.45	258.61
735.771	267.65
736.092	238.27
736.414	220.19
736.735	240.53
737.056	258.61
737.377	299.29
737.698	278.95
738.019	276.69
738.34	287.99
738.66	254.09
738.981	251.83
739.302	319.62
739.623	285.73
739.943	256.35
740.264	321.88
740.584	265.39
740.905	254.09
741.225	319.62
741.546	276.69
741.866	229.23
742.186	242.79
742.507	254.09
742.827	294.77
743.147	258.61
743.467	297.03
743.787	245.05
744.107	272.17
744.427	202.11
744.747	319.62
745.067	328.66
745.386	236.01
745.706	211.15
746.026	242.79
746.346	276.69
746.665	297.03
746.985	328.66
747.304	256.35
747.624	260.87
747.943	317.36
748.262	278.95
748.582	276.69
748.901	251.83
749.22	242.79
749.539	217.93
749.858	292.51
750.177	233.75
750.496	247.31
750.815	290.25
751.134	247.31
751.453	245.05
751.772	312.84
752.09	256.35
752.409	330.92
752.728	274.43
753.046	285.73
753.365	274.43
753.683	240.53
754.002	294.77
754.32	315.1
754.639	269.91
754.957	292.51
755.275	272.17
755.593	308.33
755.911	301.55
756.23	265.39
756.548	333.18
756.866	213.41
757.183	278.95
757.501	326.4
757.819	242.79
758.137	245.05
758.455	297.03
758.772	281.21
759.09	301.55
759.408	206.63
759.725	220.19
760.043	385.16
760.36	335.44
760.677	254.09
760.995	294.77
761.312	315.1
761.629	222.45
761.946	247.31
762.264	247.31
762.581	285.73
762.898	249.57
763.215	276.69
763.532	303.81
763.848	254.09
764.165	301.55
764.482	269.91
764.799	344.48
765.115	229.23
765.432	281.21
765.749	335.44
766.065	312.84
766.382	287.99
766.698	274.43
767.014	301.55
767.331	312.84
767.647	251.83
767.963	285.73
768.279	285.73
768.595	242.79
768.911	344.48
769.227	297.03
769.543	306.07
769.859	294.77
770.175	326.4
770.491	310.59
770.807	249.57
771.122	285.73
771.438	265.39
771.754	272.17
772.069	242.79
772.385	324.14
772.7	281.21
773.016	238.27
773.331	290.25
773.646	330.92
773.961	317.36
774.277	333.18
774.592	263.13
774.907	292.51
775.222	265.39
775.537	204.37
775.852	254.09
776.167	294.77
776.482	276.69
776.796	265.39
777.111	328.66
777.426	251.83
777.74	303.81
778.055	260.87
778.369	287.99
778.684	326.4
778.998	315.1
779.313	290.25
779.627	269.91
779.941	299.29
780.255	269.91
780.57	278.95
780.884	245.05
781.198	285.73
781.512	278.95
781.826	231.49
782.14	258.61
782.453	265.39
782.767	231.49
783.081	319.62
783.395	308.33
783.708	247.31
784.022	276.69
784.335	287.99
784.649	251.83
784.962	269.91
785.276	310.59
785.589	233.75
785.902	226.97
786.216	276.69
786.529	274.43
786.842	240.53
787.155	285.73
787.468	283.47
787.781	278.95
788.094	226.97
788.407	337.7
788.72	263.13
789.032	258.61
789.345	328.66
789.658	281.21
789.97	278.95
790.283	287.99
790.595	303.81
790.908	236.01
791.22	251.83
791.532	242.79
791.845	303.81
792.157	274.43
792.469	344.48
792.781	222.45
793.093	258.61
793.405	317.36
793.717	385.16
794.029	299.29
794.341	310.59
794.653	267.65
794.965	310.59
795.276	260.87
795.588	269.91
795.9	326.4
796.211	260.87
796.523	251.83
796.834	299.29
797.146	283.47
797.457	247.31
797.768	294.77
798.08	260.87
798.391	254.09
798.702	319.62
799.013	283.47
799.324	303.81
799.635	308.33
799.946	351.26
800.257	324.14
800.568	260.87
800.878	317.36
801.189	269.91
801.5	251.83
801.81	287.99
802.121	299.29
802.431	256.35
802.742	326.4
803.052	281.21
803.363	245.05
803.673	269.91
803.983	324.14
804.293	247.31
804.603	283.47
804.913	344.48
805.224	254.09
805.533	249.57
805.843	306.07
806.153	254.09
806.463	278.95
806.773	254.09
807.083	287.99
807.392	265.39
807.702	301.55
808.011	267.65
808.321	274.43
808.63	285.73
808.94	330.92
809.249	269.91
809.558	238.27
809.868	344.48
810.177	281.21
810.486	364.82
810.795	308.33
811.104	265.39
811.413	260.87
811.722	233.75
812.031	258.61
812.339	297.03
812.648	303.81
812.957	330.92
813.266	281.21
813.574	306.07
813.883	303.81
814.191	251.83
814.5	263.13
814.808	287.99
815.116	281.21
815.424	247.31
815.733	265.39
816.041	267.65
816.349	294.77
816.657	281.21
816.965	310.59
817.273	312.84
817.581	260.87
817.889	285.73
818.196	231.49
818.504	287.99
818.812	269.91
819.12	217.93
819.427	242.79
819.735	208.89
820.042	283.47
820.349	283.47
820.657	256.35
820.964	326.4
821.271	360.3
821.579	324.14
821.886	301.55
822.193	249.57
822.5	236.01
822.807	287.99
823.114	263.13
823.421	278.95
823.727	301.55
824.034	306.07
824.341	339.96
824.648	281.21
824.954	247.31
825.261	238.27
825.567	301.55
825.874	317.36
826.18	265.39
826.486	238.27
826.793	238.27
827.099	297.03
827.405	303.81
827.711	220.19
828.017	231.49
828.323	258.61
828.629	272.17
828.935	238.27
829.241	276.69
829.547	312.84
829.852	308.33
830.158	321.88
830.464	321.88
830.769	276.69
831.075	360.3
831.38	330.92
831.686	258.61
831.991	319.62
832.296	308.33
832.601	278.95
832.907	303.81
833.212	351.26
833.517	306.07
833.822	317.36
834.127	342.22
834.432	321.88
834.737	317.36
835.041	342.22
835.346	190.81
835.651	294.77
835.956	258.61
836.26	263.13
836.565	245.05
836.869	297.03
837.174	260.87
837.478	249.57
837.782	274.43
838.087	301.55
838.391	328.66
838.695	290.25
838.999	310.59
839.303	269.91
839.607	324.14
839.911	278.95
840.215	287.99
840.519	287.99
840.822	285.73
841.126	229.23
841.43	324.14
841.733	292.51
842.037	328.66
842.34	233.75
842.644	265.39
842.947	333.18
843.251	274.43
843.554	278.95
843.857	303.81
844.16	224.71
844.463	301.55
844.766	260.87
845.069	349
845.372	285.73
845.675	283.47
845.978	299.29
846.281	287.99
846.583	254.09
846.886	285.73
847.189	274.43
847.491	303.81
847.794	306.07
848.096	312.84
848.399	263.13
848.701	290.25
849.003	283.47
849.305	306.07
849.608	301.55
849.91	233.75
850.212	310.59
850.514	254.09
850.816	297.03
851.118	319.62
851.419	260.87
851.721	276.69
852.023	285.73
852.325	269.91
852.626	324.14
852.928	263.13
853.229	349
853.531	258.61
853.832	260.87
854.133	328.66
854.435	260.87
854.736	258.61
855.037	272.17
855.338	337.7
855.639	213.41
855.94	283.47
856.241	330.92
856.542	220.19
856.843	353.52
857.144	274.43
857.444	315.1
857.745	306.07
858.046	204.37
858.346	251.83
858.647	285.73
858.947	231.49
859.247	369.34
859.548	242.79
859.848	328.66
860.148	358.04
860.448	249.57
860.749	247.31
861.049	260.87
861.349	258.61
861.648	292.51
861.948	283.47
862.248	260.87
862.548	328.66
862.848	283.47
863.147	333.18
863.447	337.7
863.746	301.55
864.046	315.1
864.345	306.07
864.645	269.91
864.944	299.29
865.243	337.7
865.542	299.29
865.842	272.17
866.141	272.17
866.44	301.55
866.739	285.73
867.038	306.07
867.337	229.23
867.635	258.61
867.934	315.1
868.233	285.73
868.531	321.88
868.83	287.99
869.129	274.43
869.427	294.77
869.725	269.91
870.024	319.62
870.322	217.93
870.62	213.41
870.918	285.73
871.217	265.39
871.515	263.13
871.813	326.4
872.111	258.61
872.409	269.91
872.706	269.91
873.004	337.7
873.302	342.22
873.6	333.18
873.897	265.39
874.195	303.81
874.492	231.49
874.79	254.09
875.087	224.71
875.384	283.47
875.682	247.31
875.979	335.44
876.276	299.29
876.573	292.51
876.87	292.51
877.167	292.51
