Data from PL_2polymer_F8BT_MEHPPV_USB2H096331_0031.txt Node
Date: Tue Dec 15 16:40:39 CET 2020
User: spadmin
Spectrometer: USB2+H09633
Trigger mode: 0
Integration Time (sec): 1.000000E-2
Scans to average: 1
Electric dark correction enabled: true
Nonlinearity correction enabled: false
Boxcar width: 0
XAxis mode: Wavelengths
Number of Pixels in Spectrum: 2048
>>>>>Begin Spectral Data<<<<<
174.027	-76.41
174.405	-76.41
174.783	-76.41
175.162	-92.23
175.54	-141.95
175.918	-92.23
176.296	-121.61
176.674	-78.67
177.052	-126.13
177.43	-74.15
177.808	-71.89
178.186	-94.49
178.564	36.58
178.942	-17.65
179.32	72.74
179.698	0.42
180.076	16.24
180.453	81.78
180.831	63.7
181.209	52.4
181.587	151.83
181.965	108.9
182.342	174.43
182.72	158.61
183.098	183.47
183.475	244.49
183.853	260.3
184.231	217.37
184.608	208.33
184.986	244.49
185.363	289.68
185.741	307.76
186.118	269.34
186.496	305.5
186.873	312.28
187.251	348.44
187.628	312.28
188.006	271.6
188.383	242.23
188.76	319.06
189.138	332.62
189.515	366.52
189.892	289.68
190.27	291.94
190.647	307.76
191.024	267.08
191.401	251.26
191.778	271.6
192.155	289.68
192.533	323.58
192.91	375.56
193.287	298.72
193.664	294.2
194.041	289.68
194.418	291.94
194.795	300.98
195.172	307.76
195.549	273.86
195.926	237.71
196.302	276.12
196.679	278.38
197.056	332.62
197.433	242.23
197.81	260.3
198.187	332.62
198.563	348.44
198.94	262.56
199.317	307.76
199.693	307.76
200.07	296.46
200.447	255.78
200.823	312.28
201.2	285.16
201.576	330.36
201.953	300.98
202.329	273.86
202.706	294.2
203.082	328.1
203.459	300.98
203.835	280.64
204.212	328.1
204.588	262.56
204.964	215.11
205.341	237.71
205.717	298.72
206.093	303.24
206.469	294.2
206.846	285.16
207.222	289.68
207.598	346.18
207.974	294.2
208.35	251.26
208.726	300.98
209.102	366.52
209.479	289.68
209.855	303.24
210.231	303.24
210.607	312.28
210.982	319.06
211.358	310.02
211.734	221.89
212.11	303.24
212.486	282.9
212.862	249
213.238	323.58
213.614	339.4
213.989	332.62
214.365	287.42
214.741	314.54
215.116	305.5
215.492	355.22
215.868	249
216.243	332.62
216.619	312.28
216.995	294.2
217.37	296.46
217.746	285.16
218.121	339.4
218.497	276.12
218.872	334.88
219.247	300.98
219.623	285.16
219.998	278.38
220.374	285.16
220.749	278.38
221.124	305.5
221.499	312.28
221.875	319.06
222.25	352.96
222.625	332.62
223	298.72
223.376	330.36
223.751	287.42
224.126	330.36
224.501	300.98
224.876	298.72
225.251	312.28
225.626	289.68
226.001	303.24
226.376	273.86
226.751	289.68
227.126	307.76
227.501	341.66
227.875	287.42
228.25	314.54
228.625	305.5
229	271.6
229.375	355.22
229.749	300.98
230.124	359.74
230.499	382.33
230.873	312.28
231.248	291.94
231.623	310.02
231.997	310.02
232.372	330.36
232.746	305.5
233.121	282.9
233.495	339.4
233.87	312.28
234.244	382.33
234.619	334.88
234.993	249
235.367	303.24
235.742	323.58
236.116	312.28
236.49	298.72
236.865	359.74
237.239	321.32
237.613	332.62
237.987	366.52
238.361	332.62
238.736	328.1
239.11	316.8
239.484	359.74
239.858	407.19
240.232	312.28
240.606	366.52
240.98	282.9
241.354	386.85
241.728	339.4
242.102	298.72
242.475	364.26
242.849	371.04
243.223	316.8
243.597	323.58
243.971	289.68
244.344	332.62
244.718	343.92
245.092	267.08
245.466	325.84
245.839	359.74
246.213	310.02
246.586	359.74
246.96	382.33
247.334	332.62
247.707	287.42
248.081	314.54
248.454	339.4
248.828	305.5
249.201	316.8
249.574	373.3
249.948	296.46
250.321	325.84
250.694	357.48
251.068	384.59
251.441	319.06
251.814	339.4
252.187	357.48
252.561	411.71
252.934	323.58
253.307	341.66
253.68	337.14
254.053	395.89
254.426	303.24
254.799	278.38
255.172	253.52
255.545	352.96
255.918	310.02
256.291	375.56
256.664	339.4
257.037	352.96
257.41	402.67
257.782	273.86
258.155	273.86
258.528	407.19
258.901	296.46
259.273	319.06
259.646	314.54
260.019	413.97
260.391	307.76
260.764	298.72
261.137	321.32
261.509	307.76
261.882	352.96
262.254	373.3
262.627	359.74
262.999	343.92
263.372	334.88
263.744	368.78
264.116	359.74
264.489	300.98
264.861	391.37
265.233	305.5
265.606	330.36
265.978	373.3
266.35	357.48
266.722	312.28
267.094	348.44
267.467	276.12
267.839	373.3
268.211	407.19
268.583	366.52
268.955	352.96
269.327	339.4
269.699	296.46
270.071	348.44
270.443	312.28
270.815	380.07
271.186	334.88
271.558	334.88
271.93	432.05
272.302	350.7
272.674	314.54
273.045	362
273.417	375.56
273.789	314.54
274.16	391.37
274.532	339.4
274.904	319.06
275.275	310.02
275.647	391.37
276.018	371.04
276.39	346.18
276.761	434.31
277.133	395.89
277.504	416.23
277.875	375.56
278.247	461.43
278.618	357.48
278.989	373.3
279.361	343.92
279.732	355.22
280.103	330.36
280.474	384.59
280.846	407.19
281.217	391.37
281.588	366.52
281.959	377.81
282.33	330.36
282.701	411.71
283.072	332.62
283.443	359.74
283.814	368.78
284.185	386.85
284.556	352.96
284.927	323.58
285.297	362
285.668	380.07
286.039	393.63
286.41	350.7
286.781	357.48
287.151	325.84
287.522	375.56
287.893	359.74
288.263	375.56
288.634	402.67
289.004	362
289.375	319.06
289.745	409.45
290.116	398.15
290.486	377.81
290.857	332.62
291.227	386.85
291.598	373.3
291.968	319.06
292.338	341.66
292.709	402.67
293.079	418.49
293.449	368.78
293.819	429.79
294.189	371.04
294.56	395.89
294.93	368.78
295.3	366.52
295.67	368.78
296.04	352.96
296.41	432.05
296.78	368.78
297.15	389.11
297.52	377.81
297.89	418.49
298.259	427.53
298.629	402.67
298.999	400.41
299.369	375.56
299.739	404.93
300.108	407.19
300.478	450.13
300.848	398.15
301.217	316.8
301.587	380.07
301.957	330.36
302.326	375.56
302.696	450.13
303.065	404.93
303.435	366.52
303.804	465.95
304.174	382.33
304.543	371.04
304.912	429.79
305.282	364.26
305.651	413.97
306.02	364.26
306.39	391.37
306.759	391.37
307.128	450.13
307.497	366.52
307.866	425.27
308.235	434.31
308.604	416.23
308.974	463.69
309.343	418.49
309.712	452.39
310.08	409.45
310.449	371.04
310.818	404.93
311.187	461.43
311.556	402.67
311.925	334.88
312.294	404.93
312.662	400.41
313.031	438.83
313.4	362
313.769	468.21
314.137	445.61
314.506	452.39
314.874	359.74
315.243	461.43
315.612	402.67
315.98	386.85
316.349	477.25
316.717	472.73
317.085	402.67
317.454	413.97
317.822	352.96
318.191	472.73
318.559	427.53
318.927	391.37
319.295	456.91
319.664	411.71
320.032	402.67
320.4	502.11
320.768	375.56
321.136	420.75
321.504	456.91
321.872	384.59
322.24	441.09
322.608	407.19
322.976	423.01
323.344	454.65
323.712	404.93
324.08	508.88
324.448	445.61
324.816	384.59
325.183	389.11
325.551	484.03
325.919	434.31
326.287	393.63
326.654	425.27
327.022	434.31
327.389	447.87
327.757	407.19
328.125	375.56
328.492	452.39
328.86	447.87
329.227	436.57
329.594	493.07
329.962	499.85
330.329	436.57
330.697	434.31
331.064	427.53
331.431	429.79
331.798	420.75
332.166	459.17
332.533	508.88
332.9	547.3
333.267	479.51
333.634	434.31
334.001	463.69
334.368	474.99
334.735	499.85
335.102	484.03
335.469	470.47
335.836	445.61
336.203	418.49
336.57	436.57
336.937	493.07
337.304	463.69
337.67	441.09
338.037	488.55
338.404	479.51
338.771	542.78
339.137	468.21
339.504	441.09
339.87	504.37
340.237	526.96
340.604	459.17
340.97	488.55
341.337	497.59
341.703	499.85
342.069	520.18
342.436	468.21
342.802	477.25
343.169	515.66
343.535	513.4
343.901	594.76
344.267	465.95
344.634	470.47
345	540.52
345.366	438.83
345.732	441.09
346.098	549.56
346.464	490.81
346.83	520.18
347.196	563.12
347.562	526.96
347.928	513.4
348.294	506.63
348.66	533.74
349.026	511.14
349.392	599.28
349.757	497.59
350.123	538.26
350.489	545.04
350.855	526.96
351.22	529.22
351.586	551.82
351.951	603.8
352.317	576.68
352.683	540.52
353.048	569.9
353.414	513.4
353.779	567.64
354.144	511.14
354.51	603.8
354.875	601.54
355.24	533.74
355.606	520.18
355.971	551.82
356.336	547.3
356.701	599.28
357.067	624.14
357.432	547.3
357.797	633.18
358.162	646.73
358.527	513.4
358.892	621.88
359.257	578.94
359.622	612.84
359.987	608.32
360.352	700.97
360.717	619.62
361.082	637.7
361.446	606.06
361.811	615.1
362.176	606.06
362.541	691.93
362.905	653.51
363.27	707.75
363.635	784.58
363.999	691.93
364.364	671.59
364.728	653.51
365.093	737.13
365.457	780.06
365.822	723.57
366.186	730.35
366.55	752.95
366.915	734.87
367.279	777.8
367.643	750.69
368.008	798.14
368.372	739.39
368.736	786.84
369.1	743.91
369.464	850.12
369.828	789.1
370.192	854.64
370.556	795.88
370.92	879.5
371.284	888.54
371.648	843.34
372.012	924.69
372.376	945.03
372.74	1048.98
373.104	1044.46
373.468	1028.65
373.831	1119.04
374.195	1146.16
374.559	1164.23
374.922	1123.56
375.286	1139.38
375.65	1193.61
376.013	1218.47
376.377	1180.05
376.74	1229.77
377.104	1279.49
377.467	1387.96
377.83	1347.28
378.194	1505.47
378.557	1543.89
378.92	1534.85
379.284	1776.65
379.647	1830.88
380.01	1882.86
380.373	1964.21
380.736	2072.69
381.1	2343.86
381.463	2432
381.826	2676.06
382.189	2741.59
382.552	2942.72
382.915	3347.23
383.278	3453.44
383.64	3805.97
384.003	4081.67
384.366	4508.78
384.729	4789
385.092	5198.03
385.454	5383.33
385.817	5918.91
386.18	6637.54
386.542	7132.44
386.905	7941.46
387.268	8725.62
387.63	9561.75
387.993	10402.41
388.355	11437.41
388.718	12526.65
389.08	13480.3
389.442	14831.67
389.805	15911.87
390.167	17195.45
390.529	19285.79
390.892	21493.64
391.254	22897
391.616	24406.56
391.978	27617.78
392.34	30444.82
392.702	31362.31
393.064	34469.57
393.426	36399.47
393.788	38785.84
394.15	40620.82
394.512	43807.18
394.874	46541.57
395.236	49452.23
395.598	52451.02
395.96	54624.98
396.321	56814.75
396.683	58647.47
397.045	60816.9
397.406	62916.28
397.768	64299.3
398.13	65087.98
398.491	65087.98
398.853	65087.98
399.214	65087.98
399.576	65087.98
399.937	65087.98
400.299	65087.98
400.66	65087.98
401.021	65087.98
401.383	65087.98
401.744	65087.98
402.105	65087.98
402.466	65087.98
402.827	65087.98
403.189	65087.98
403.55	65087.98
403.911	65087.98
404.272	65087.98
404.633	65087.98
404.994	65087.98
405.355	65087.98
405.716	65087.98
406.077	65087.98
406.437	65087.98
406.798	65087.98
407.159	65087.98
407.52	65087.98
407.88	65087.98
408.241	65087.98
408.602	65087.98
408.962	65087.98
409.323	65087.98
409.684	65087.98
410.044	65087.98
410.405	65087.98
410.765	65087.98
411.125	65087.98
411.486	65087.98
411.846	65087.98
412.206	65087.98
412.567	65087.98
412.927	65087.98
413.287	65087.98
413.647	65087.98
414.007	65087.98
414.368	65087.98
414.728	65087.98
415.088	65087.98
415.448	65087.98
415.808	65087.98
416.168	65087.98
416.528	65087.98
416.887	65087.98
417.247	65087.98
417.607	65087.98
417.967	65087.98
418.327	64486.86
418.686	63603.27
419.046	62407.82
419.406	61788.63
419.765	61024.81
420.125	59189.83
420.484	57809.07
420.844	57214.74
421.203	55330.04
421.563	53644.21
421.922	53083.77
422.282	50464.63
422.641	48344.92
423	46342.71
423.36	44435.41
423.719	41904.41
424.078	38864.94
424.437	36876.29
424.796	35730.56
425.155	34243.59
425.515	32006.36
425.874	31152.15
426.233	28142.06
426.592	26555.66
426.95	25696.92
427.309	24341.03
427.668	23640.48
428.027	21606.64
428.386	21080.1
428.745	19283.53
429.103	17959.27
429.462	17251.95
429.821	16137.85
430.179	15473.46
430.538	14917.55
430.897	14332.25
431.255	13643
431.614	12682.58
431.972	12228.35
432.33	11663.39
432.689	11536.84
433.047	10743.64
433.405	10264.56
433.764	9665.71
434.122	9573.05
434.48	8985.5
434.838	8761.78
435.197	8223.94
435.555	7968.58
435.913	7557.29
436.271	7200.23
436.629	7082.72
436.987	6603.64
437.345	6492.91
437.703	6174.27
438.061	5909.87
438.418	5417.23
438.776	5236.44
439.134	5213.85
439.492	4926.85
439.849	4621.77
440.207	4535.9
440.565	4337.03
440.922	4092.97
441.28	3855.69
441.637	3796.93
441.995	3518.98
442.352	3462.48
442.71	3378.87
443.067	3259.1
443.425	2999.21
443.782	3042.15
444.139	2935.94
444.496	2750.63
444.854	2716.74
445.211	2567.59
445.568	2567.59
445.925	2470.42
446.282	2325.79
446.639	2377.76
446.996	2228.61
447.353	2251.21
447.71	2219.57
448.067	2169.86
448.424	2095.28
448.781	1925.8
449.137	1919.02
449.494	1801.51
449.851	1720.15
450.208	1677.22
450.564	1634.28
450.921	1645.58
451.278	1546.15
451.634	1537.11
451.991	1514.51
452.347	1525.81
452.704	1467.05
453.06	1378.92
453.416	1322.42
453.773	1277.23
454.129	1168.75
454.485	1195.87
454.841	1204.91
455.198	1202.65
455.554	1177.79
455.91	1114.52
456.266	1143.9
456.622	1132.6
456.978	1019.61
457.334	1001.53
457.69	997.01
458.046	981.19
458.402	958.59
458.758	965.37
459.114	850.12
459.469	832.04
459.825	818.48
460.181	816.22
460.536	811.7
460.892	789.1
461.248	838.82
461.603	750.69
461.959	705.49
462.314	755.21
462.67	755.21
463.025	707.75
463.38	691.93
463.736	777.8
464.091	737.13
464.446	685.15
464.802	651.25
465.157	630.92
465.512	685.15
465.867	732.61
466.222	560.86
466.577	644.47
466.932	635.44
467.287	721.31
467.642	556.34
467.997	655.77
468.352	653.51
468.707	606.06
469.062	628.66
469.417	646.73
469.771	592.5
470.126	633.18
470.481	599.28
470.835	560.86
471.19	549.56
471.544	565.38
471.899	569.9
472.253	536
472.608	538.26
472.962	560.86
473.317	644.47
473.671	549.56
474.025	526.96
474.38	560.86
474.734	572.16
475.088	517.92
475.442	490.81
475.796	547.3
476.15	420.75
476.504	506.63
476.858	470.47
477.212	504.37
477.566	599.28
477.92	520.18
478.274	470.47
478.628	468.21
478.982	517.92
479.336	533.74
479.689	484.03
480.043	434.31
480.397	608.32
480.75	470.47
481.104	477.25
481.457	506.63
481.811	468.21
482.164	511.14
482.518	479.51
482.871	391.37
483.225	445.61
483.578	472.73
483.931	504.37
484.284	488.55
484.638	459.17
484.991	517.92
485.344	477.25
485.697	474.99
486.05	504.37
486.403	456.91
486.756	454.65
487.109	450.13
487.462	398.15
487.815	382.33
488.168	463.69
488.52	506.63
488.873	454.65
489.226	420.75
489.579	484.03
489.931	423.01
490.284	454.65
490.637	386.85
490.989	382.33
491.342	456.91
491.694	436.57
492.047	402.67
492.399	450.13
492.751	479.51
493.104	474.99
493.456	438.83
493.808	416.23
494.16	425.27
494.513	416.23
494.865	411.71
495.217	438.83
495.569	429.79
495.921	472.73
496.273	438.83
496.625	371.04
496.977	427.53
497.329	465.95
497.68	386.85
498.032	352.96
498.384	443.35
498.736	352.96
499.087	371.04
499.439	468.21
499.791	425.27
500.142	411.71
500.494	452.39
500.845	429.79
501.197	416.23
501.548	441.09
501.9	484.03
502.251	511.14
502.602	395.89
502.954	423.01
503.305	434.31
503.656	380.07
504.007	409.45
504.358	404.93
504.709	380.07
505.061	416.23
505.412	420.75
505.763	409.45
506.113	413.97
506.464	402.67
506.815	402.67
507.166	427.53
507.517	434.31
507.868	490.81
508.218	380.07
508.569	468.21
508.92	389.11
509.27	423.01
509.621	463.69
509.971	398.15
510.322	400.41
510.672	352.96
511.023	395.89
511.373	445.61
511.723	382.33
512.074	407.19
512.424	346.18
512.774	398.15
513.124	404.93
513.475	454.65
513.825	456.91
514.175	413.97
514.525	454.65
514.875	391.37
515.225	459.17
515.575	413.97
515.924	418.49
516.274	418.49
516.624	436.57
516.974	411.71
517.324	384.59
517.673	409.45
518.023	418.49
518.373	334.88
518.722	380.07
519.072	429.79
519.421	434.31
519.771	391.37
520.12	450.13
520.469	456.91
520.819	420.75
521.168	463.69
521.517	427.53
521.867	416.23
522.216	474.99
522.565	398.15
522.914	418.49
523.263	438.83
523.612	409.45
523.961	411.71
524.31	411.71
524.659	404.93
525.008	402.67
525.357	418.49
525.705	427.53
526.054	461.43
526.403	377.81
526.752	427.53
527.1	377.81
527.449	529.22
527.797	477.25
528.146	438.83
528.495	434.31
528.843	423.01
529.191	389.11
529.54	427.53
529.888	425.27
530.236	332.62
530.585	400.41
530.933	359.74
531.281	411.71
531.629	445.61
531.977	461.43
532.325	411.71
532.673	454.65
533.021	423.01
533.369	380.07
533.717	429.79
534.065	402.67
534.413	468.21
534.761	334.88
535.108	398.15
535.456	434.31
535.804	362
536.151	373.3
536.499	443.35
536.847	377.81
537.194	423.01
537.542	402.67
537.889	400.41
538.236	443.35
538.584	402.67
538.931	447.87
539.278	463.69
539.626	416.23
539.973	438.83
540.32	389.11
540.667	375.56
541.014	398.15
541.361	373.3
541.708	389.11
542.055	409.45
542.402	404.93
542.749	407.19
543.096	400.41
543.443	377.81
543.789	402.67
544.136	357.48
544.483	330.36
544.83	384.59
545.176	400.41
545.523	373.3
545.869	371.04
546.216	404.93
546.562	407.19
546.909	377.81
547.255	393.63
547.601	305.5
547.948	328.1
548.294	314.54
548.64	357.48
548.986	362
549.332	350.7
549.678	314.54
550.025	407.19
550.371	321.32
550.717	371.04
551.062	348.44
551.408	364.26
551.754	427.53
552.1	368.78
552.446	391.37
552.792	384.59
553.137	391.37
553.483	393.63
553.828	375.56
554.174	427.53
554.52	461.43
554.865	382.33
555.211	332.62
555.556	355.22
555.901	382.33
556.247	321.32
556.592	384.59
556.937	386.85
557.282	384.59
557.628	339.4
557.973	282.9
558.318	371.04
558.663	355.22
559.008	341.66
559.353	375.56
559.698	368.78
560.043	371.04
560.388	393.63
560.732	366.52
561.077	384.59
561.422	420.75
561.766	393.63
562.111	307.76
562.456	341.66
562.8	359.74
563.145	314.54
563.489	368.78
563.834	380.07
564.178	380.07
564.523	427.53
564.867	384.59
565.211	319.06
565.555	375.56
565.9	371.04
566.244	364.26
566.588	375.56
566.932	321.32
567.276	362
567.62	423.01
567.964	400.41
568.308	380.07
568.652	402.67
568.996	328.1
569.339	393.63
569.683	389.11
570.027	352.96
570.371	395.89
570.714	332.62
571.058	362
571.401	384.59
571.745	407.19
572.088	400.41
572.432	389.11
572.775	375.56
573.118	337.14
573.462	346.18
573.805	303.24
574.148	307.76
574.491	319.06
574.835	364.26
575.178	384.59
575.521	316.8
575.864	330.36
576.207	427.53
576.55	393.63
576.892	400.41
577.235	382.33
577.578	362
577.921	339.4
578.264	242.23
578.606	323.58
578.949	294.2
579.292	352.96
579.634	418.49
579.977	368.78
580.319	413.97
580.662	366.52
581.004	343.92
581.346	343.92
581.689	364.26
582.031	350.7
582.373	332.62
582.715	343.92
583.057	325.84
583.4	355.22
583.742	359.74
584.084	366.52
584.426	364.26
584.768	346.18
585.109	346.18
585.451	368.78
585.793	323.58
586.135	282.9
586.477	310.02
586.818	305.5
587.16	334.88
587.502	411.71
587.843	398.15
588.185	355.22
588.526	386.85
588.868	334.88
589.209	251.26
589.55	264.82
589.892	384.59
590.233	325.84
590.574	334.88
590.915	375.56
591.257	341.66
591.598	312.28
591.939	310.02
592.28	362
592.621	319.06
592.962	330.36
593.303	373.3
593.643	371.04
593.984	371.04
594.325	339.4
594.666	332.62
595.006	334.88
595.347	425.27
595.688	332.62
596.028	314.54
596.369	348.44
596.709	364.26
597.05	307.76
597.39	343.92
597.73	294.2
598.071	380.07
598.411	330.36
598.751	348.44
599.091	316.8
599.431	307.76
599.772	282.9
600.112	343.92
600.452	328.1
600.792	303.24
601.132	303.24
601.471	307.76
601.811	330.36
602.151	359.74
602.491	312.28
602.831	300.98
603.17	362
603.51	366.52
603.849	413.97
604.189	305.5
604.528	319.06
604.868	339.4
605.207	357.48
605.547	364.26
605.886	325.84
606.225	330.36
606.565	339.4
606.904	253.52
607.243	269.34
607.582	323.58
607.921	332.62
608.26	289.68
608.599	321.32
608.938	339.4
609.277	289.68
609.616	298.72
609.955	321.32
610.293	276.12
610.632	312.28
610.971	303.24
611.309	305.5
611.648	298.72
611.987	296.46
612.325	264.82
612.664	325.84
613.002	260.3
613.34	262.56
613.679	364.26
614.017	289.68
614.355	346.18
614.694	334.88
615.032	343.92
615.37	307.76
615.708	291.94
616.046	285.16
616.384	319.06
616.722	348.44
617.06	289.68
617.398	253.52
617.736	237.71
618.073	244.49
618.411	328.1
618.749	264.82
619.086	300.98
619.424	303.24
619.762	339.4
620.099	330.36
620.437	343.92
620.774	271.6
621.112	271.6
621.449	271.6
621.786	357.48
622.123	298.72
622.461	303.24
622.798	341.66
623.135	296.46
623.472	280.64
623.809	273.86
624.146	273.86
624.483	291.94
624.82	330.36
625.157	321.32
625.494	337.14
625.83	300.98
626.167	305.5
626.504	300.98
626.841	314.54
627.177	359.74
627.514	303.24
627.85	323.58
628.187	276.12
628.523	316.8
628.86	291.94
629.196	316.8
629.532	280.64
629.869	339.4
630.205	325.84
630.541	267.08
630.877	253.52
631.213	242.23
631.549	303.24
631.885	267.08
632.221	316.8
632.557	280.64
632.893	291.94
633.229	310.02
633.564	278.38
633.9	337.14
634.236	362
634.572	230.93
634.907	255.78
635.243	289.68
635.578	255.78
635.914	395.89
636.249	348.44
636.585	287.42
636.92	242.23
637.255	350.7
637.59	332.62
637.926	271.6
638.261	305.5
638.596	357.48
638.931	339.4
639.266	337.14
639.601	321.32
639.936	348.44
640.271	332.62
640.606	343.92
640.94	314.54
641.275	343.92
641.61	235.45
641.945	314.54
642.279	294.2
642.614	352.96
642.948	337.14
643.283	307.76
643.617	321.32
643.952	362
644.286	350.7
644.62	339.4
644.955	339.4
645.289	300.98
645.623	271.6
645.957	312.28
646.291	271.6
646.625	271.6
646.959	260.3
647.293	291.94
647.627	246.74
647.961	294.2
648.295	296.46
648.629	289.68
648.962	310.02
649.296	350.7
649.63	285.16
649.963	280.64
650.297	267.08
650.63	366.52
650.964	296.46
651.297	355.22
651.631	316.8
651.964	325.84
652.297	298.72
652.631	352.96
652.964	348.44
653.297	316.8
653.63	310.02
653.963	287.42
654.296	350.7
654.629	197.03
654.962	280.64
655.295	296.46
655.628	371.04
655.961	337.14
656.293	280.64
656.626	276.12
656.959	217.37
657.291	239.97
657.624	355.22
657.956	271.6
658.289	276.12
658.621	364.26
658.954	273.86
659.286	314.54
659.618	316.8
659.95	273.86
660.283	285.16
660.615	260.3
660.947	300.98
661.279	343.92
661.611	267.08
661.943	319.06
662.275	307.76
662.607	298.72
662.939	285.16
663.27	208.33
663.602	273.86
663.934	230.93
664.266	235.45
664.597	242.23
664.929	237.71
665.26	291.94
665.592	289.68
665.923	262.56
666.255	285.16
666.586	330.36
666.917	323.58
667.248	310.02
667.58	312.28
667.911	287.42
668.242	346.18
668.573	271.6
668.904	343.92
669.235	291.94
669.566	319.06
669.897	319.06
670.228	271.6
670.558	282.9
670.889	249
671.22	253.52
671.551	289.68
671.881	312.28
672.212	298.72
672.542	280.64
672.873	314.54
673.203	341.66
673.533	280.64
673.864	305.5
674.194	343.92
674.524	244.49
674.855	312.28
675.185	294.2
675.515	305.5
675.845	289.68
676.175	285.16
676.505	346.18
676.835	285.16
677.165	323.58
677.494	294.2
677.824	296.46
678.154	262.56
678.484	334.88
678.813	312.28
679.143	267.08
679.472	314.54
679.802	305.5
680.131	298.72
680.461	341.66
680.79	357.48
681.119	289.68
681.449	235.45
681.778	296.46
682.107	239.97
682.436	303.24
682.765	273.86
683.094	303.24
683.423	276.12
683.752	215.11
684.081	233.19
684.41	330.36
684.739	294.2
685.067	219.63
685.396	291.94
685.725	280.64
686.053	343.92
686.382	314.54
686.711	312.28
687.039	296.46
687.367	262.56
687.696	253.52
688.024	278.38
688.352	307.76
688.681	276.12
689.009	298.72
689.337	364.26
689.665	273.86
689.993	341.66
690.321	269.34
690.649	362
690.977	273.86
691.305	249
691.633	276.12
691.961	260.3
692.288	239.97
692.616	276.12
692.944	352.96
693.271	251.26
693.599	348.44
693.926	251.26
694.254	343.92
694.581	325.84
694.908	310.02
695.236	255.78
695.563	300.98
695.89	298.72
696.217	230.93
696.544	303.24
696.871	330.36
697.198	235.45
697.525	323.58
697.852	328.1
698.179	239.97
698.506	289.68
698.833	303.24
699.16	305.5
699.486	249
699.813	319.06
700.139	298.72
700.466	246.74
700.793	294.2
701.119	282.9
701.445	348.44
701.772	249
702.098	278.38
702.424	276.12
702.75	258.04
703.077	289.68
703.403	368.78
703.729	307.76
704.055	341.66
704.381	334.88
704.707	319.06
705.033	312.28
705.358	255.78
705.684	280.64
706.01	282.9
706.336	285.16
706.661	346.18
706.987	321.32
707.312	228.67
707.638	300.98
707.963	325.84
708.289	332.62
708.614	278.38
708.939	224.15
709.265	273.86
709.59	364.26
709.915	298.72
710.24	287.42
710.565	276.12
710.89	294.2
711.215	325.84
711.54	258.04
711.865	262.56
712.19	278.38
712.515	244.49
712.839	267.08
713.164	289.68
713.489	316.8
713.813	287.42
714.138	282.9
714.462	325.84
714.787	310.02
715.111	271.6
715.435	255.78
715.76	276.12
716.084	341.66
716.408	246.74
716.732	307.76
717.056	276.12
717.381	330.36
717.705	271.6
718.028	330.36
718.352	255.78
718.676	269.34
719	262.56
719.324	271.6
719.648	289.68
719.971	271.6
720.295	312.28
720.618	228.67
720.942	239.97
721.265	267.08
721.589	262.56
721.912	267.08
722.236	203.81
722.559	233.19
722.882	242.23
723.205	267.08
723.528	235.45
723.851	251.26
724.174	271.6
724.497	282.9
724.82	242.23
725.143	289.68
725.466	307.76
725.789	285.16
726.112	194.77
726.434	323.58
726.757	330.36
727.08	278.38
727.402	251.26
727.725	316.8
728.047	310.02
728.37	269.34
728.692	271.6
729.014	380.07
729.336	319.06
729.659	316.8
729.981	262.56
730.303	291.94
730.625	298.72
730.947	359.74
731.269	278.38
731.591	314.54
731.913	260.3
732.235	321.32
732.556	255.78
732.878	280.64
733.2	278.38
733.521	273.86
733.843	260.3
734.164	269.34
734.486	273.86
734.807	296.46
735.129	298.72
735.45	269.34
735.771	300.98
736.092	352.96
736.414	264.82
736.735	346.18
737.056	330.36
737.377	298.72
737.698	305.5
738.019	253.52
738.34	253.52
738.66	276.12
738.981	289.68
739.302	260.3
739.623	294.2
739.943	206.07
740.264	305.5
740.584	253.52
740.905	239.97
741.225	276.12
741.546	242.23
741.866	249
742.186	260.3
742.507	296.46
742.827	310.02
743.147	239.97
743.467	291.94
743.787	255.78
744.107	285.16
744.427	294.2
744.747	316.8
745.067	237.71
745.386	307.76
745.706	289.68
746.026	296.46
746.346	346.18
746.665	332.62
746.985	230.93
747.304	244.49
747.624	294.2
747.943	298.72
748.262	282.9
748.582	352.96
748.901	267.08
749.22	413.97
749.539	273.86
749.858	276.12
750.177	289.68
750.496	224.15
750.815	258.04
751.134	273.86
751.453	273.86
751.772	343.92
752.09	273.86
752.409	303.24
752.728	260.3
753.046	244.49
753.365	294.2
753.683	239.97
754.002	303.24
754.32	348.44
754.639	244.49
754.957	255.78
755.275	239.97
755.593	269.34
755.911	300.98
756.23	271.6
756.548	310.02
756.866	258.04
757.183	282.9
757.501	276.12
757.819	244.49
758.137	262.56
758.455	249
758.772	233.19
759.09	343.92
759.408	285.16
759.725	328.1
760.043	260.3
760.36	273.86
760.677	282.9
760.995	255.78
761.312	230.93
761.629	258.04
761.946	235.45
762.264	278.38
762.581	258.04
762.898	298.72
763.215	282.9
763.532	278.38
763.848	260.3
764.165	224.15
764.482	294.2
764.799	253.52
765.115	316.8
765.432	289.68
765.749	312.28
766.065	300.98
766.382	285.16
766.698	319.06
767.014	233.19
767.331	294.2
767.647	237.71
767.963	246.74
768.279	267.08
768.595	258.04
768.911	244.49
769.227	273.86
769.543	285.16
769.859	328.1
770.175	287.42
770.491	294.2
770.807	255.78
771.122	280.64
771.438	291.94
771.754	269.34
772.069	258.04
772.385	239.97
772.7	348.44
773.016	251.26
773.331	305.5
773.646	280.64
773.961	294.2
774.277	271.6
774.592	273.86
774.907	321.32
775.222	300.98
775.537	273.86
775.852	215.11
776.167	269.34
776.482	276.12
776.796	323.58
777.111	339.4
777.426	267.08
777.74	287.42
778.055	337.14
778.369	303.24
778.684	280.64
778.998	255.78
779.313	285.16
779.627	285.16
779.941	323.58
780.255	269.34
780.57	330.36
780.884	244.49
781.198	325.84
781.512	300.98
781.826	280.64
782.14	260.3
782.453	321.32
782.767	244.49
783.081	278.38
783.395	264.82
783.708	325.84
784.022	212.85
784.335	316.8
784.649	287.42
784.962	278.38
785.276	296.46
785.589	341.66
785.902	303.24
786.216	210.59
786.529	357.48
786.842	239.97
787.155	314.54
787.468	278.38
787.781	303.24
788.094	273.86
788.407	255.78
788.72	262.56
789.032	334.88
789.345	271.6
789.658	330.36
789.97	323.58
790.283	287.42
790.595	258.04
790.908	341.66
791.22	359.74
791.532	328.1
791.845	289.68
792.157	319.06
792.469	280.64
792.781	255.78
793.093	285.16
793.405	273.86
793.717	296.46
794.029	255.78
794.341	280.64
794.653	276.12
794.965	298.72
795.276	260.3
795.588	305.5
795.9	325.84
796.211	278.38
796.523	323.58
796.834	262.56
797.146	278.38
797.457	278.38
797.768	269.34
798.08	319.06
798.391	328.1
798.702	337.14
799.013	249
799.324	217.37
799.635	269.34
799.946	294.2
800.257	310.02
800.568	291.94
800.878	230.93
801.189	244.49
801.5	316.8
801.81	294.2
802.121	278.38
802.431	273.86
802.742	249
803.052	310.02
803.363	287.42
803.673	282.9
803.983	305.5
804.293	316.8
804.603	323.58
804.913	310.02
805.224	319.06
805.533	287.42
805.843	237.71
806.153	273.86
806.463	287.42
806.773	273.86
807.083	273.86
807.392	334.88
807.702	300.98
808.011	319.06
808.321	282.9
808.63	289.68
808.94	348.44
809.249	316.8
809.558	237.71
809.868	343.92
810.177	312.28
810.486	289.68
810.795	276.12
811.104	251.26
811.413	323.58
811.722	228.67
812.031	253.52
812.339	280.64
812.648	339.4
812.957	264.82
813.266	285.16
813.574	289.68
813.883	230.93
814.191	276.12
814.5	289.68
814.808	307.76
815.116	289.68
815.424	325.84
815.733	262.56
816.041	258.04
816.349	291.94
816.657	348.44
816.965	307.76
817.273	280.64
817.581	294.2
817.889	289.68
818.196	289.68
818.504	237.71
818.812	253.52
819.12	337.14
819.427	199.29
819.735	269.34
820.042	300.98
820.349	260.3
820.657	237.71
820.964	316.8
821.271	334.88
821.579	249
821.886	262.56
822.193	330.36
822.5	253.52
822.807	278.38
823.114	294.2
823.421	230.93
823.727	271.6
824.034	287.42
824.341	296.46
824.648	323.58
824.954	276.12
825.261	287.42
825.567	217.37
825.874	287.42
826.18	305.5
826.486	328.1
826.793	276.12
827.099	305.5
827.405	312.28
827.711	294.2
828.017	278.38
828.323	296.46
828.629	280.64
828.935	330.36
829.241	289.68
829.547	244.49
829.852	303.24
830.158	262.56
830.464	298.72
830.769	289.68
831.075	310.02
831.38	291.94
831.686	260.3
831.991	251.26
832.296	357.48
832.601	300.98
832.907	325.84
833.212	280.64
833.517	269.34
833.822	278.38
834.127	296.46
834.432	282.9
834.737	258.04
835.041	260.3
835.346	298.72
835.651	337.14
835.956	334.88
836.26	305.5
836.565	262.56
836.869	294.2
837.174	249
837.478	269.34
837.782	316.8
838.087	262.56
838.391	294.2
838.695	260.3
838.999	291.94
839.303	310.02
839.607	289.68
839.911	224.15
840.215	230.93
840.519	235.45
840.822	224.15
841.126	305.5
841.43	264.82
841.733	280.64
842.037	321.32
842.34	273.86
842.644	276.12
842.947	332.62
843.251	314.54
843.554	291.94
843.857	314.54
844.16	258.04
844.463	282.9
844.766	267.08
845.069	235.45
845.372	289.68
845.675	300.98
845.978	235.45
846.281	273.86
846.583	291.94
846.886	328.1
847.189	271.6
847.491	262.56
847.794	271.6
848.096	350.7
848.399	242.23
848.701	282.9
849.003	307.76
849.305	294.2
849.608	300.98
849.91	328.1
850.212	328.1
850.514	262.56
850.816	228.67
851.118	276.12
851.419	244.49
851.721	260.3
852.023	276.12
852.325	246.74
852.626	226.41
852.928	260.3
853.229	300.98
853.531	269.34
853.832	312.28
854.133	276.12
854.435	300.98
854.736	305.5
855.037	235.45
855.338	312.28
855.639	296.46
855.94	273.86
856.241	264.82
856.542	258.04
856.843	264.82
857.144	314.54
857.444	237.71
857.745	264.82
858.046	258.04
858.346	237.71
858.647	271.6
858.947	267.08
859.247	328.1
859.548	280.64
859.848	287.42
860.148	233.19
860.448	305.5
860.749	258.04
861.049	237.71
861.349	246.74
861.648	253.52
861.948	285.16
862.248	289.68
862.548	298.72
862.848	339.4
863.147	233.19
863.447	321.32
863.746	289.68
864.046	291.94
864.345	312.28
864.645	328.1
864.944	226.41
865.243	267.08
865.542	276.12
865.842	312.28
866.141	312.28
866.44	233.19
866.739	291.94
867.038	312.28
867.337	246.74
867.635	239.97
867.934	246.74
868.233	219.63
868.531	291.94
868.83	285.16
869.129	276.12
869.427	251.26
869.725	312.28
870.024	278.38
870.322	289.68
870.62	323.58
870.918	319.06
871.217	300.98
871.515	289.68
871.813	273.86
872.111	282.9
872.409	314.54
872.706	291.94
873.004	307.76
873.302	269.34
873.6	298.72
873.897	271.6
874.195	303.24
874.492	310.02
874.79	278.38
875.087	310.02
875.384	323.58
875.682	273.86
875.979	235.45
876.276	298.72
876.573	368.78
876.87	368.78
877.167	368.78
