Data from PL_2polymer_F8BT_MEHPPV_USB2H096331_0191.txt Node
Date: Tue Dec 15 16:40:41 CET 2020
User: spadmin
Spectrometer: USB2+H09633
Trigger mode: 0
Integration Time (sec): 1.000000E-2
Scans to average: 1
Electric dark correction enabled: true
Nonlinearity correction enabled: false
Boxcar width: 0
XAxis mode: Wavelengths
Number of Pixels in Spectrum: 2048
>>>>>Begin Spectral Data<<<<<
174.027	-68.22
174.405	-68.22
174.783	-68.22
175.162	-102.12
175.54	-99.86
175.918	-65.96
176.296	-104.38
176.674	-126.97
177.052	-111.16
177.43	-99.86
177.808	-68.22
178.186	-50.14
178.564	-52.4
178.942	22.17
179.32	8.62
179.698	49.29
180.076	31.21
180.453	105.79
180.831	92.23
181.209	44.77
181.587	80.93
181.965	178.1
182.342	144.21
182.72	236.86
183.098	250.42
183.475	162.28
183.853	189.4
184.231	284.31
184.608	297.87
184.986	202.96
185.363	291.09
185.741	230.08
186.118	277.54
186.496	338.55
186.873	304.65
187.251	324.99
187.628	324.99
188.006	347.59
188.383	331.77
188.76	318.21
189.138	365.67
189.515	372.45
189.892	286.57
190.27	291.09
190.647	313.69
191.024	309.17
191.401	352.11
191.778	295.61
192.155	252.68
192.533	349.85
192.91	338.55
193.287	338.55
193.664	295.61
194.041	331.77
194.418	338.55
194.795	261.72
195.172	363.41
195.549	268.5
195.926	273.02
196.302	311.43
196.679	327.25
197.056	300.13
197.433	284.31
197.81	306.91
198.187	245.9
198.563	311.43
198.94	354.37
199.317	302.39
199.693	322.73
200.07	322.73
200.447	275.28
200.823	329.51
201.2	293.35
201.576	288.83
201.953	254.94
202.329	309.17
202.706	302.39
203.082	313.69
203.459	284.31
203.835	266.24
204.212	329.51
204.588	230.08
204.964	293.35
205.341	343.07
205.717	293.35
206.093	331.77
206.469	313.69
206.846	304.65
207.222	297.87
207.598	300.13
207.974	293.35
208.35	302.39
208.726	293.35
209.102	345.33
209.479	259.46
209.855	347.59
210.231	284.31
210.607	304.65
210.982	236.86
211.358	311.43
211.734	367.93
212.11	318.21
212.486	286.57
212.862	291.09
213.238	318.21
213.614	313.69
213.989	313.69
214.365	291.09
214.741	327.25
215.116	282.05
215.492	266.24
215.868	257.2
216.243	309.17
216.619	370.19
216.995	406.35
217.37	273.02
217.746	297.87
218.121	304.65
218.497	293.35
218.872	336.29
219.247	338.55
219.623	340.81
219.998	293.35
220.374	282.05
220.749	340.81
221.124	322.73
221.499	286.57
221.875	309.17
222.25	257.2
222.625	356.63
223	295.61
223.376	311.43
223.751	322.73
224.126	358.89
224.501	297.87
224.876	338.55
225.251	320.47
225.626	338.55
226.001	331.77
226.376	338.55
226.751	324.99
227.126	288.83
227.501	279.79
227.875	279.79
228.25	300.13
228.625	327.25
229	338.55
229.375	340.81
229.749	315.95
230.124	354.37
230.499	279.79
230.873	358.89
231.248	318.21
231.623	311.43
231.997	315.95
232.372	349.85
232.746	320.47
233.121	331.77
233.495	338.55
233.87	293.35
234.244	297.87
234.619	324.99
234.993	327.25
235.367	297.87
235.742	279.79
236.116	311.43
236.49	329.51
236.865	343.07
237.239	313.69
237.613	374.71
237.987	286.57
238.361	356.63
238.736	282.05
239.11	275.28
239.484	243.64
239.858	358.89
240.232	315.95
240.606	327.25
240.98	313.69
241.354	302.39
241.728	356.63
242.102	352.11
242.475	286.57
242.849	313.69
243.223	374.71
243.597	295.61
243.971	340.81
244.344	340.81
244.718	329.51
245.092	320.47
245.466	282.05
245.839	352.11
246.213	343.07
246.586	363.41
246.96	374.71
247.334	338.55
247.707	352.11
248.081	315.95
248.454	338.55
248.828	352.11
249.201	363.41
249.574	338.55
249.948	315.95
250.321	343.07
250.694	379.23
251.068	318.21
251.441	365.67
251.814	334.03
252.187	349.85
252.561	361.15
252.934	435.72
253.307	399.57
253.68	390.53
254.053	372.45
254.426	370.19
254.799	390.53
255.172	293.35
255.545	381.49
255.918	300.13
256.291	404.09
256.664	379.23
257.037	358.89
257.41	331.77
257.782	327.25
258.155	367.93
258.528	383.75
258.901	365.67
259.273	367.93
259.646	386.01
260.019	374.71
260.391	320.47
260.764	343.07
261.137	306.91
261.509	306.91
261.882	338.55
262.254	329.51
262.627	367.93
262.999	318.21
263.372	374.71
263.744	318.21
264.116	390.53
264.489	227.82
264.861	406.35
265.233	315.95
265.606	352.11
265.978	320.47
266.35	320.47
266.722	395.05
267.094	358.89
267.467	311.43
267.839	356.63
268.211	379.23
268.583	395.05
268.955	388.27
269.327	365.67
269.699	358.89
270.071	343.07
270.443	363.41
270.815	338.55
271.186	297.87
271.558	349.85
271.93	379.23
272.302	320.47
272.674	352.11
273.045	334.03
273.417	313.69
273.789	349.85
274.16	322.73
274.532	327.25
274.904	356.63
275.275	322.73
275.647	379.23
276.018	395.05
276.39	379.23
276.761	343.07
277.133	331.77
277.504	401.83
277.875	428.94
278.247	354.37
278.618	313.69
278.989	401.83
279.361	428.94
279.732	309.17
280.103	374.71
280.474	367.93
280.846	379.23
281.217	352.11
281.588	370.19
281.959	334.03
282.33	349.85
282.701	365.67
283.072	392.79
283.443	329.51
283.814	365.67
284.185	376.97
284.556	386.01
284.927	397.31
285.297	435.72
285.668	372.45
286.039	347.59
286.41	374.71
286.781	383.75
287.151	381.49
287.522	413.12
287.893	392.79
288.263	347.59
288.634	386.01
289.004	406.35
289.375	315.95
289.745	392.79
290.116	367.93
290.486	381.49
290.857	460.58
291.227	367.93
291.598	352.11
291.968	379.23
292.338	322.73
292.709	474.14
293.079	381.49
293.449	437.98
293.819	370.19
294.189	419.9
294.56	449.28
294.93	347.59
295.3	370.19
295.67	349.85
296.04	331.77
296.41	352.11
296.78	406.35
297.15	428.94
297.52	376.97
297.89	379.23
298.259	365.67
298.629	367.93
298.999	324.99
299.369	431.2
299.739	363.41
300.108	367.93
300.478	435.72
300.848	365.67
301.217	528.38
301.587	426.68
301.957	424.42
302.326	413.12
302.696	460.58
303.065	415.38
303.435	401.83
303.804	399.57
304.174	347.59
304.543	399.57
304.912	383.75
305.282	469.62
305.651	320.47
306.02	388.27
306.39	424.42
306.759	372.45
307.128	397.31
307.497	444.76
307.866	392.79
308.235	379.23
308.604	401.83
308.974	419.9
309.343	419.9
309.712	404.09
310.08	365.67
310.449	431.2
310.818	408.61
311.187	435.72
311.556	386.01
311.925	329.51
312.294	401.83
312.662	401.83
313.031	386.01
313.4	399.57
313.769	395.05
314.137	311.43
314.506	383.75
314.874	413.12
315.243	442.5
315.612	404.09
315.98	419.9
316.349	379.23
316.717	462.84
317.085	422.16
317.454	426.68
317.822	415.38
318.191	381.49
318.559	386.01
318.927	417.64
319.295	456.06
319.664	428.94
320.032	444.76
320.4	383.75
320.768	456.06
321.136	376.97
321.504	435.72
321.872	449.28
322.24	408.61
322.608	492.22
322.976	356.63
323.344	435.72
323.712	437.98
324.08	381.49
324.448	444.76
324.816	422.16
325.183	388.27
325.551	417.64
325.919	458.32
326.287	469.62
326.654	483.18
327.022	487.7
327.389	458.32
327.757	424.42
328.125	431.2
328.492	474.14
328.86	440.24
329.227	485.44
329.594	471.88
329.962	494.48
330.329	451.54
330.697	442.5
331.064	444.76
331.431	437.98
331.798	424.42
332.166	406.35
332.533	526.12
332.9	444.76
333.267	496.74
333.634	471.88
334.001	489.96
334.368	483.18
334.735	460.58
335.102	478.66
335.469	530.64
335.836	519.34
336.203	512.56
336.57	494.48
336.937	541.93
337.304	415.38
337.67	422.16
338.037	521.6
338.404	458.32
338.771	505.78
339.137	505.78
339.504	492.22
339.87	474.14
340.237	535.16
340.604	447.02
340.97	485.44
341.337	478.66
341.703	433.46
342.069	499
342.436	539.68
342.802	456.06
343.169	530.64
343.535	499
343.901	435.72
344.267	465.1
344.634	476.4
345	474.14
345.366	462.84
345.732	530.64
346.098	483.18
346.464	496.74
346.83	535.16
347.196	494.48
347.562	503.52
347.928	480.92
348.294	528.38
348.66	571.31
349.026	539.68
349.392	519.34
349.757	573.57
350.123	564.53
350.489	564.53
350.855	548.71
351.22	541.93
351.586	584.87
351.951	562.27
352.317	499
352.683	544.19
353.048	587.13
353.414	560.01
353.779	537.42
354.144	611.99
354.51	578.09
354.875	553.23
355.24	553.23
355.606	550.97
355.971	566.79
356.336	562.27
356.701	591.65
357.067	582.61
357.432	553.23
357.797	550.97
358.162	564.53
358.527	571.31
358.892	695.6
359.257	582.61
359.622	666.23
359.987	614.25
360.352	582.61
360.717	652.67
361.082	616.51
361.446	571.31
361.811	654.93
362.176	630.07
362.541	670.75
362.905	688.82
363.27	666.23
363.635	668.49
363.999	684.3
364.364	711.42
364.728	752.1
365.093	734.02
365.457	734.02
365.822	790.52
366.186	736.28
366.55	700.12
366.915	756.62
367.279	718.2
367.643	736.28
368.008	788.26
368.372	810.85
368.736	774.7
369.1	837.97
369.464	871.87
369.828	765.66
370.192	824.41
370.556	851.53
370.92	790.52
371.284	847.01
371.648	905.77
372.012	935.14
372.376	964.52
372.74	960
373.104	957.74
373.468	1045.88
373.831	1131.75
374.195	1072.99
374.559	1097.85
374.922	1118.19
375.286	1111.41
375.65	1190.51
376.013	1226.66
376.377	1260.56
376.74	1219.88
377.104	1242.48
377.467	1371.29
377.83	1491.06
378.194	1493.32
378.557	1592.75
378.92	1626.65
379.284	1750.94
379.647	1782.58
380.01	1848.12
380.373	1949.81
380.736	2105.74
381.1	2379.17
381.463	2385.95
381.826	2510.24
382.189	2835.66
382.552	2948.65
382.915	3400.62
383.278	3362.2
383.64	3766.71
384.003	3981.39
384.366	4370.08
384.729	4756.51
385.092	5368.93
385.454	5585.87
385.817	5961
386.18	6541.78
386.542	7262.66
386.905	8046.82
387.268	8616.3
387.63	9752.99
387.993	10349.59
388.355	11409.45
388.718	12661.39
389.08	13576.62
389.442	14837.6
389.805	16234.18
390.167	17368.61
390.529	19465.73
390.892	21266.81
391.254	22857.73
391.616	24446.39
391.978	27196.6
392.34	30215.73
392.702	31284.63
393.064	34306.02
393.426	36891.26
393.788	38875.39
394.15	40841.44
394.512	43711.42
394.874	46554.28
395.236	49765.5
395.598	52267.13
395.96	54800.4
396.321	56671.53
396.683	58712.16
397.045	60773.12
397.406	62766.29
397.768	64402.4
398.13	65091.65
398.491	65091.65
398.853	65091.65
399.214	65091.65
399.576	65091.65
399.937	65091.65
400.299	65091.65
400.66	65091.65
401.021	65091.65
401.383	65091.65
401.744	65091.65
402.105	65091.65
402.466	65091.65
402.827	65091.65
403.189	65091.65
403.55	65091.65
403.911	65091.65
404.272	65091.65
404.633	65091.65
404.994	65091.65
405.355	65091.65
405.716	65091.65
406.077	65091.65
406.437	65091.65
406.798	65091.65
407.159	65091.65
407.52	65091.65
407.88	65091.65
408.241	65091.65
408.602	65091.65
408.962	65091.65
409.323	65091.65
409.684	65091.65
410.044	65091.65
410.405	65091.65
410.765	65091.65
411.125	65091.65
411.486	65091.65
411.846	65091.65
412.206	65091.65
412.567	65091.65
412.927	65091.65
413.287	65091.65
413.647	65091.65
414.007	65091.65
414.368	65091.65
414.728	65091.65
415.088	65091.65
415.448	65091.65
415.808	65091.65
416.168	65091.65
416.528	65091.65
416.887	65091.65
417.247	65091.65
417.607	65091.65
417.967	65091.65
418.327	64513.13
418.686	63672.48
419.046	62614.88
419.406	61478.19
419.765	61130.17
420.125	59292.93
420.484	57873.76
420.844	57234.23
421.203	55349.53
421.563	53577.83
421.922	53394.78
422.282	50818.58
422.641	48405.08
423	46493.27
423.36	45295.56
423.719	41862.88
424.078	39648.25
424.437	37166.96
424.796	35386.22
425.155	34470.99
425.515	31919.64
425.874	30907.24
426.233	27818.05
426.592	26202.28
426.95	25822.63
427.309	24084.82
427.668	23617.03
428.027	21849.85
428.386	21149.3
428.745	19246.53
429.103	17831.88
429.462	17133.59
429.821	16107.63
430.179	15339.29
430.538	14692.98
430.897	14455.69
431.255	13547.24
431.614	12914.49
431.972	12202.65
432.33	11911.13
432.689	11484.02
433.047	10799.29
433.405	10218.52
433.764	9667.12
434.122	9540.57
434.48	9099.9
434.838	8582.4
435.197	8234.39
435.555	7899.93
435.913	7504.46
436.271	7262.66
436.629	7045.72
436.987	6697.71
437.345	6184.72
437.703	6284.16
438.061	5859.31
438.418	5497.74
438.776	5368.93
439.134	5264.97
439.492	5075.15
439.849	4700.02
440.207	4401.72
440.565	4257.09
440.922	4094.38
441.28	4001.73
441.637	3705.69
441.995	3601.74
442.352	3470.67
442.71	3326.04
443.067	3235.65
443.425	3088.76
443.782	3007.41
444.139	2822.1
444.496	2921.53
444.854	2740.75
445.211	2614.2
445.568	2618.72
445.925	2370.14
446.282	2460.53
446.639	2315.9
446.996	2252.62
447.353	2272.96
447.71	2282
448.067	2234.55
448.424	1958.85
448.781	1997.26
449.137	1938.51
449.494	1834.56
449.851	1843.6
450.208	1732.86
450.564	1576.94
450.921	1576.94
451.278	1604.05
451.634	1633.43
451.991	1518.18
452.347	1482.02
452.704	1396.15
453.06	1430.05
453.416	1262.82
453.773	1217.62
454.129	1228.92
454.485	1195.03
454.841	1138.53
455.198	1109.15
455.554	1088.81
455.91	1165.65
456.266	1213.1
456.622	1097.85
456.978	1052.66
457.334	1005.2
457.69	1057.18
458.046	883.17
458.402	892.21
458.758	894.47
459.114	903.51
459.469	858.31
459.825	835.71
460.181	826.67
460.536	847.01
460.892	813.11
461.248	799.56
461.603	804.07
461.959	738.54
462.314	815.37
462.67	817.63
463.025	718.2
463.38	788.26
463.736	724.98
464.091	700.12
464.446	636.85
464.802	639.11
465.157	643.63
465.512	654.93
465.867	573.57
466.222	659.45
466.577	627.81
466.932	596.17
467.287	578.09
467.642	722.72
467.997	643.63
468.352	602.95
468.707	657.19
469.062	602.95
469.417	596.17
469.771	636.85
470.126	614.25
470.481	616.51
470.835	496.74
471.19	575.83
471.544	566.79
471.899	614.25
472.253	555.49
472.608	544.19
472.962	469.62
473.317	596.17
473.671	560.01
474.025	469.62
474.38	535.16
474.734	546.45
475.088	478.66
475.442	449.28
475.796	555.49
476.15	460.58
476.504	539.68
476.858	494.48
477.212	582.61
477.566	514.82
477.92	451.54
478.274	571.31
478.628	460.58
478.982	587.13
479.336	467.36
479.689	431.2
480.043	474.14
480.397	505.78
480.75	503.52
481.104	444.76
481.457	485.44
481.811	489.96
482.164	496.74
482.518	532.9
482.871	433.46
483.225	575.83
483.578	510.3
483.931	471.88
484.284	467.36
484.638	447.02
484.991	508.04
485.344	444.76
485.697	424.42
486.05	424.42
486.403	494.48
486.756	528.38
487.109	532.9
487.462	505.78
487.815	483.18
488.168	440.24
488.52	471.88
488.873	424.42
489.226	433.46
489.579	413.12
489.931	521.6
490.284	467.36
490.637	519.34
490.989	480.92
491.342	422.16
491.694	415.38
492.047	440.24
492.399	437.98
492.751	471.88
493.104	462.84
493.456	419.9
493.808	494.48
494.16	465.1
494.513	469.62
494.865	431.2
495.217	415.38
495.569	449.28
495.921	413.12
496.273	399.57
496.625	422.16
496.977	435.72
497.329	435.72
497.68	485.44
498.032	428.94
498.384	413.12
498.736	456.06
499.087	456.06
499.439	401.83
499.791	397.31
500.142	397.31
500.494	381.49
500.845	374.71
501.197	433.46
501.548	433.46
501.9	444.76
502.251	404.09
502.602	419.9
502.954	347.59
503.305	361.15
503.656	422.16
504.007	399.57
504.358	433.46
504.709	395.05
505.061	406.35
505.412	372.45
505.763	428.94
506.113	413.12
506.464	397.31
506.815	437.98
507.166	410.86
507.517	435.72
507.868	474.14
508.218	471.88
508.569	480.92
508.92	433.46
509.27	415.38
509.621	354.37
509.971	437.98
510.322	415.38
510.672	428.94
511.023	415.38
511.373	462.84
511.723	435.72
512.074	451.54
512.424	451.54
512.774	401.83
513.124	444.76
513.475	392.79
513.825	413.12
514.175	453.8
514.525	367.93
514.875	437.98
515.225	374.71
515.575	406.35
515.924	476.4
516.274	453.8
516.624	474.14
516.974	376.97
517.324	462.84
517.673	399.57
518.023	397.31
518.373	397.31
518.722	424.42
519.072	422.16
519.421	462.84
519.771	381.49
520.12	465.1
520.469	440.24
520.819	435.72
521.168	440.24
521.517	424.42
521.867	460.58
522.216	410.86
522.565	440.24
522.914	496.74
523.263	469.62
523.612	453.8
523.961	374.71
524.31	417.64
524.659	467.36
525.008	413.12
525.357	471.88
525.705	424.42
526.054	379.23
526.403	397.31
526.752	449.28
527.1	399.57
527.449	431.2
527.797	419.9
528.146	435.72
528.495	447.02
528.843	424.42
529.191	381.49
529.54	442.5
529.888	471.88
530.236	492.22
530.585	426.68
530.933	424.42
531.281	370.19
531.629	433.46
531.977	444.76
532.325	419.9
532.673	447.02
533.021	462.84
533.369	442.5
533.717	433.46
534.065	442.5
534.413	424.42
534.761	388.27
535.108	440.24
535.456	361.15
535.804	419.9
536.151	467.36
536.499	419.9
536.847	381.49
537.194	442.5
537.542	428.94
537.889	424.42
538.236	447.02
538.584	415.38
538.931	453.8
539.278	352.11
539.626	386.01
539.973	352.11
540.32	428.94
540.667	492.22
541.014	388.27
541.361	426.68
541.708	376.97
542.055	370.19
542.402	449.28
542.749	456.06
543.096	395.05
543.443	379.23
543.789	390.53
544.136	293.35
544.483	401.83
544.83	376.97
545.176	433.46
545.523	392.79
545.869	417.64
546.216	419.9
546.562	356.63
546.909	410.86
547.255	383.75
547.601	392.79
547.948	365.67
548.294	410.86
548.64	374.71
548.986	401.83
549.332	419.9
549.678	347.59
550.025	440.24
550.371	372.45
550.717	406.35
551.062	401.83
551.408	352.11
551.754	408.61
552.1	397.31
552.446	422.16
552.792	410.86
553.137	358.89
553.483	352.11
553.828	413.12
554.174	367.93
554.52	395.05
554.865	417.64
555.211	408.61
555.556	388.27
555.901	318.21
556.247	311.43
556.592	381.49
556.937	358.89
557.282	320.47
557.628	408.61
557.973	370.19
558.318	347.59
558.663	347.59
559.008	352.11
559.353	397.31
559.698	386.01
560.043	390.53
560.388	349.85
560.732	435.72
561.077	345.33
561.422	401.83
561.766	343.07
562.111	365.67
562.456	356.63
562.8	354.37
563.145	376.97
563.489	329.51
563.834	352.11
564.178	395.05
564.523	291.09
564.867	347.59
565.211	413.12
565.555	408.61
565.9	365.67
566.244	388.27
566.588	338.55
566.932	363.41
567.276	361.15
567.62	444.76
567.964	358.89
568.308	413.12
568.652	343.07
568.996	437.98
569.339	381.49
569.683	462.84
570.027	386.01
570.371	365.67
570.714	370.19
571.058	408.61
571.401	331.77
571.745	413.12
572.088	422.16
572.432	440.24
572.775	365.67
573.118	406.35
573.462	447.02
573.805	417.64
574.148	408.61
574.491	401.83
574.835	354.37
575.178	347.59
575.521	367.93
575.864	408.61
576.207	376.97
576.55	354.37
576.892	343.07
577.235	381.49
577.578	361.15
577.921	390.53
578.264	340.81
578.606	386.01
578.949	376.97
579.292	383.75
579.634	365.67
579.977	313.69
580.319	424.42
580.662	338.55
581.004	347.59
581.346	386.01
581.689	392.79
582.031	447.02
582.373	408.61
582.715	390.53
583.057	345.33
583.4	327.25
583.742	372.45
584.084	343.07
584.426	376.97
584.768	370.19
585.109	358.89
585.451	379.23
585.793	311.43
586.135	381.49
586.477	374.71
586.818	318.21
587.16	327.25
587.502	345.33
587.843	295.61
588.185	356.63
588.526	318.21
588.868	361.15
589.209	334.03
589.55	334.03
589.892	365.67
590.233	408.61
590.574	322.73
590.915	347.59
591.257	376.97
591.598	354.37
591.939	343.07
592.28	363.41
592.621	365.67
592.962	379.23
593.303	370.19
593.643	322.73
593.984	370.19
594.325	311.43
594.666	345.33
595.006	365.67
595.347	370.19
595.688	370.19
596.028	363.41
596.369	300.13
596.709	322.73
597.05	388.27
597.39	381.49
597.73	340.81
598.071	352.11
598.411	311.43
598.751	356.63
599.091	381.49
599.431	354.37
599.772	354.37
600.112	370.19
600.452	354.37
600.792	352.11
601.132	361.15
601.471	404.09
601.811	349.85
602.151	352.11
602.491	277.54
602.831	356.63
603.17	288.83
603.51	390.53
603.849	322.73
604.189	347.59
604.528	291.09
604.868	374.71
605.207	392.79
605.547	311.43
605.886	300.13
606.225	277.54
606.565	374.71
606.904	311.43
607.243	343.07
607.582	286.57
607.921	245.9
608.26	336.29
608.599	331.77
608.938	343.07
609.277	277.54
609.616	347.59
609.955	365.67
610.293	331.77
610.632	327.25
610.971	343.07
611.309	345.33
611.648	313.69
611.987	354.37
612.325	306.91
612.664	245.9
613.002	340.81
613.34	386.01
613.679	329.51
614.017	311.43
614.355	309.17
614.694	356.63
615.032	338.55
615.37	347.59
615.708	297.87
616.046	273.02
616.384	288.83
616.722	322.73
617.06	336.29
617.398	334.03
617.736	372.45
618.073	320.47
618.411	311.43
618.749	324.99
619.086	252.68
619.424	315.95
619.762	354.37
620.099	284.31
620.437	277.54
620.774	318.21
621.112	293.35
621.449	306.91
621.786	311.43
622.123	311.43
622.461	304.65
622.798	313.69
623.135	340.81
623.472	243.64
623.809	288.83
624.146	340.81
624.483	236.86
624.82	223.3
625.157	370.19
625.494	293.35
625.83	311.43
626.167	322.73
626.504	343.07
626.841	311.43
627.177	365.67
627.514	343.07
627.85	275.28
628.187	315.95
628.523	340.81
628.86	300.13
629.196	257.2
629.532	309.17
629.869	352.11
630.205	372.45
630.541	327.25
630.877	295.61
631.213	284.31
631.549	345.33
631.885	347.59
632.221	354.37
632.557	318.21
632.893	327.25
633.229	336.29
633.564	388.27
633.9	320.47
634.236	354.37
634.572	370.19
634.907	338.55
635.243	302.39
635.578	406.35
635.914	324.99
636.249	288.83
636.585	295.61
636.92	318.21
637.255	352.11
637.59	340.81
637.926	302.39
638.261	354.37
638.596	306.91
638.931	313.69
639.266	352.11
639.601	338.55
639.936	311.43
640.271	340.81
640.606	306.91
640.94	293.35
641.275	277.54
641.61	349.85
641.945	257.2
642.279	374.71
642.614	273.02
642.948	315.95
643.283	306.91
643.617	282.05
643.952	243.64
644.286	306.91
644.62	331.77
644.955	302.39
645.289	338.55
645.623	293.35
645.957	324.99
646.291	293.35
646.625	309.17
646.959	347.59
647.293	277.54
647.627	302.39
647.961	309.17
648.295	313.69
648.629	361.15
648.962	358.89
649.296	386.01
649.63	329.51
649.963	372.45
650.297	318.21
650.63	338.55
650.964	279.79
651.297	252.68
651.631	386.01
651.964	347.59
652.297	354.37
652.631	282.05
652.964	331.77
653.297	318.21
653.63	343.07
653.963	322.73
654.296	347.59
654.629	313.69
654.962	259.46
655.295	311.43
655.628	352.11
655.961	356.63
656.293	286.57
656.626	291.09
656.959	236.86
657.291	284.31
657.624	291.09
657.956	275.28
658.289	304.65
658.621	345.33
658.954	329.51
659.286	279.79
659.618	279.79
659.95	334.03
660.283	268.5
660.615	311.43
660.947	313.69
661.279	302.39
661.611	356.63
661.943	275.28
662.275	322.73
662.607	304.65
662.939	334.03
663.27	349.85
663.602	286.57
663.934	349.85
664.266	374.71
664.597	322.73
664.929	345.33
665.26	275.28
665.592	331.77
665.923	259.46
666.255	277.54
666.586	279.79
666.917	322.73
667.248	322.73
667.58	286.57
667.911	358.89
668.242	284.31
668.573	354.37
668.904	334.03
669.235	234.6
669.566	327.25
669.897	322.73
670.228	313.69
670.558	261.72
670.889	245.9
671.22	313.69
671.551	336.29
671.881	320.47
672.212	340.81
672.542	318.21
672.873	304.65
673.203	297.87
673.533	361.15
673.864	270.76
674.194	322.73
674.524	297.87
674.855	270.76
675.185	279.79
675.515	268.5
675.845	324.99
676.175	261.72
676.505	334.03
676.835	309.17
677.165	282.05
677.494	315.95
677.824	245.9
678.154	304.65
678.484	340.81
678.813	297.87
679.143	311.43
679.472	349.85
679.802	293.35
680.131	230.08
680.461	300.13
680.79	311.43
681.119	329.51
681.449	324.99
681.778	295.61
682.107	324.99
682.436	263.98
682.765	268.5
683.094	304.65
683.423	230.08
683.752	302.39
684.081	327.25
684.41	352.11
684.739	209.74
685.067	363.41
685.396	300.13
685.725	250.42
686.053	302.39
686.382	293.35
686.711	291.09
687.039	295.61
687.367	320.47
687.696	263.98
688.024	327.25
688.352	336.29
688.681	277.54
689.009	340.81
689.337	311.43
689.665	273.02
689.993	361.15
690.321	315.95
690.649	266.24
690.977	324.99
691.305	315.95
691.633	302.39
691.961	302.39
692.288	261.72
692.616	354.37
692.944	273.02
693.271	300.13
693.599	334.03
693.926	313.69
694.254	270.76
694.581	340.81
694.908	268.5
695.236	327.25
695.563	318.21
695.89	311.43
696.217	263.98
696.544	300.13
696.871	329.51
697.198	324.99
697.525	284.31
697.852	268.5
698.179	248.16
698.506	347.59
698.833	291.09
699.16	297.87
699.486	365.67
699.813	300.13
700.139	374.71
700.466	282.05
700.793	304.65
701.119	302.39
701.445	361.15
701.772	261.72
702.098	302.39
702.424	275.28
702.75	284.31
703.077	234.6
703.403	318.21
703.729	345.33
704.055	327.25
704.381	291.09
704.707	311.43
705.033	279.79
705.358	268.5
705.684	279.79
706.01	279.79
706.336	275.28
706.661	295.61
706.987	315.95
707.312	245.9
707.638	320.47
707.963	320.47
708.289	277.54
708.614	300.13
708.939	291.09
709.265	379.23
709.59	288.83
709.915	306.91
710.24	248.16
710.565	200.7
710.89	270.76
711.215	288.83
711.54	277.54
711.865	300.13
712.19	311.43
712.515	300.13
712.839	347.59
713.164	284.31
713.489	288.83
713.813	309.17
714.138	293.35
714.462	259.46
714.787	302.39
715.111	239.12
715.435	293.35
715.76	279.79
716.084	334.03
716.408	306.91
716.732	291.09
717.056	241.38
717.381	315.95
717.705	261.72
718.028	268.5
718.352	273.02
718.676	365.67
719	306.91
719.324	291.09
719.648	257.2
719.971	241.38
720.295	259.46
720.618	318.21
720.942	338.55
721.265	225.56
721.589	268.5
721.912	270.76
722.236	257.2
722.559	313.69
722.882	306.91
723.205	306.91
723.528	268.5
723.851	250.42
724.174	284.31
724.497	318.21
724.82	291.09
725.143	302.39
725.466	297.87
725.789	293.35
726.112	345.33
726.434	329.51
726.757	286.57
727.08	241.38
727.402	282.05
727.725	270.76
728.047	257.2
728.37	239.12
728.692	259.46
729.014	311.43
729.336	336.29
729.659	327.25
729.981	293.35
730.303	252.68
730.625	284.31
730.947	334.03
731.269	306.91
731.591	302.39
731.913	275.28
732.235	268.5
732.556	257.2
732.878	277.54
733.2	311.43
733.521	257.2
733.843	259.46
734.164	379.23
734.486	295.61
734.807	329.51
735.129	286.57
735.45	268.5
735.771	343.07
736.092	293.35
736.414	277.54
736.735	347.59
737.056	293.35
737.377	270.76
737.698	239.12
738.019	243.64
738.34	236.86
738.66	327.25
738.981	311.43
739.302	295.61
739.623	340.81
739.943	343.07
740.264	263.98
740.584	270.76
740.905	318.21
741.225	306.91
741.546	273.02
741.866	254.94
742.186	273.02
742.507	297.87
742.827	334.03
743.147	322.73
743.467	221.04
743.787	241.38
744.107	273.02
744.427	286.57
744.747	277.54
745.067	252.68
745.386	286.57
745.706	282.05
746.026	191.66
746.346	318.21
746.665	286.57
746.985	313.69
747.304	320.47
747.624	293.35
747.943	286.57
748.262	345.33
748.582	236.86
748.901	300.13
749.22	313.69
749.539	275.28
749.858	286.57
750.177	273.02
750.496	315.95
750.815	300.13
751.134	315.95
751.453	254.94
751.772	358.89
752.09	277.54
752.409	293.35
752.728	322.73
753.046	304.65
753.365	277.54
753.683	320.47
754.002	324.99
754.32	286.57
754.639	318.21
754.957	286.57
755.275	250.42
755.593	329.51
755.911	275.28
756.23	327.25
756.548	297.87
756.866	279.79
757.183	209.74
757.501	236.86
757.819	279.79
758.137	297.87
758.455	275.28
758.772	300.13
759.09	263.98
759.408	225.56
759.725	277.54
760.043	252.68
760.36	275.28
760.677	297.87
760.995	288.83
761.312	223.3
761.629	295.61
761.946	286.57
762.264	356.63
762.581	291.09
762.898	302.39
763.215	315.95
763.532	322.73
763.848	324.99
764.165	252.68
764.482	309.17
764.799	320.47
765.115	343.07
765.432	354.37
765.749	320.47
766.065	297.87
766.382	318.21
766.698	266.24
767.014	318.21
767.331	345.33
767.647	277.54
767.963	279.79
768.279	365.67
768.595	297.87
768.911	266.24
769.227	263.98
769.543	284.31
769.859	318.21
770.175	327.25
770.491	304.65
770.807	266.24
771.122	279.79
771.438	297.87
771.754	282.05
772.069	329.51
772.385	311.43
772.7	295.61
773.016	300.13
773.331	356.63
773.646	254.94
773.961	304.65
774.277	279.79
774.592	340.81
774.907	245.9
775.222	284.31
775.537	306.91
775.852	279.79
776.167	313.69
776.482	263.98
776.796	322.73
777.111	273.02
777.426	293.35
777.74	288.83
778.055	279.79
778.369	338.55
778.684	293.35
778.998	286.57
779.313	261.72
779.627	284.31
779.941	334.03
780.255	234.6
780.57	295.61
780.884	356.63
781.198	275.28
781.512	306.91
781.826	284.31
782.14	243.64
782.453	302.39
782.767	288.83
783.081	266.24
783.395	275.28
783.708	275.28
784.022	331.77
784.335	297.87
784.649	302.39
784.962	261.72
785.276	331.77
785.589	291.09
785.902	252.68
786.216	293.35
786.529	293.35
786.842	343.07
787.155	273.02
787.468	334.03
787.781	282.05
788.094	257.2
788.407	343.07
788.72	266.24
789.032	340.81
789.345	284.31
789.658	356.63
789.97	324.99
790.283	297.87
790.595	245.9
790.908	336.29
791.22	270.76
791.532	277.54
791.845	284.31
792.157	372.45
792.469	284.31
792.781	252.68
793.093	313.69
793.405	282.05
793.717	284.31
794.029	261.72
794.341	273.02
794.653	329.51
794.965	311.43
795.276	270.76
795.588	327.25
795.9	241.38
796.211	277.54
796.523	291.09
796.834	309.17
797.146	352.11
797.457	259.46
797.768	261.72
798.08	230.08
798.391	266.24
798.702	324.99
799.013	207.48
799.324	225.56
799.635	270.76
799.946	318.21
800.257	273.02
800.568	277.54
800.878	293.35
801.189	273.02
801.5	243.64
801.81	306.91
802.121	300.13
802.431	302.39
802.742	275.28
803.052	268.5
803.363	227.82
803.673	306.91
803.983	302.39
804.293	313.69
804.603	277.54
804.913	311.43
805.224	286.57
805.533	288.83
805.843	345.33
806.153	275.28
806.463	259.46
806.773	230.08
807.083	241.38
807.392	327.25
807.702	300.13
808.011	263.98
808.321	300.13
808.63	334.03
808.94	297.87
809.249	311.43
809.558	297.87
809.868	245.9
810.177	315.95
810.486	284.31
810.795	250.42
811.104	261.72
811.413	261.72
811.722	331.77
812.031	288.83
812.339	282.05
812.648	315.95
812.957	291.09
813.266	259.46
813.574	309.17
813.883	345.33
814.191	221.04
814.5	295.61
814.808	286.57
815.116	252.68
815.424	329.51
815.733	300.13
816.041	284.31
816.349	291.09
816.657	273.02
816.965	309.17
817.273	288.83
817.581	282.05
817.889	338.55
818.196	254.94
818.504	286.57
818.812	277.54
819.12	347.59
819.427	315.95
819.735	311.43
820.042	230.08
820.349	232.34
820.657	284.31
820.964	295.61
821.271	318.21
821.579	327.25
821.886	243.64
822.193	315.95
822.5	288.83
822.807	311.43
823.114	363.41
823.421	245.9
823.727	268.5
824.034	275.28
824.341	243.64
824.648	230.08
824.954	268.5
825.261	261.72
825.567	243.64
825.874	270.76
826.18	288.83
826.486	279.79
826.793	311.43
827.099	320.47
827.405	261.72
827.711	284.31
828.017	266.24
828.323	306.91
828.629	288.83
828.935	306.91
829.241	295.61
829.547	254.94
829.852	309.17
830.158	270.76
830.464	277.54
830.769	315.95
831.075	295.61
831.38	338.55
831.686	297.87
831.991	311.43
832.296	304.65
832.601	212
832.907	273.02
833.212	261.72
833.517	275.28
833.822	250.42
834.127	300.13
834.432	297.87
834.737	295.61
835.041	329.51
835.346	293.35
835.651	282.05
835.956	291.09
836.26	239.12
836.565	261.72
836.869	311.43
837.174	230.08
837.478	279.79
837.782	284.31
838.087	236.86
838.391	236.86
838.695	311.43
838.999	297.87
839.303	243.64
839.607	245.9
839.911	302.39
840.215	356.63
840.519	297.87
840.822	266.24
841.126	286.57
841.43	313.69
841.733	320.47
842.037	295.61
842.34	239.12
842.644	275.28
842.947	263.98
843.251	245.9
843.554	252.68
843.857	302.39
844.16	302.39
844.463	345.33
844.766	291.09
845.069	304.65
845.372	250.42
845.675	306.91
845.978	352.11
846.281	241.38
846.583	279.79
846.886	243.64
847.189	286.57
847.491	311.43
847.794	356.63
848.096	207.48
848.399	306.91
848.701	275.28
849.003	250.42
849.305	311.43
849.608	358.89
849.91	293.35
850.212	243.64
850.514	291.09
850.816	227.82
851.118	254.94
851.419	322.73
851.721	234.6
852.023	349.85
852.325	322.73
852.626	340.81
852.928	221.04
853.229	286.57
853.531	270.76
853.832	291.09
854.133	304.65
854.435	282.05
854.736	340.81
855.037	279.79
855.338	286.57
855.639	252.68
855.94	284.31
856.241	286.57
856.542	266.24
856.843	270.76
857.144	279.79
857.444	291.09
857.745	277.54
858.046	291.09
858.346	243.64
858.647	297.87
858.947	313.69
859.247	218.78
859.548	288.83
859.848	250.42
860.148	320.47
860.448	232.34
860.749	300.13
861.049	232.34
861.349	234.6
861.648	293.35
861.948	300.13
862.248	279.79
862.548	329.51
862.848	300.13
863.147	248.16
863.447	268.5
863.746	279.79
864.046	266.24
864.345	313.69
864.645	248.16
864.944	288.83
865.243	309.17
865.542	284.31
865.842	338.55
866.141	252.68
866.44	288.83
866.739	318.21
867.038	311.43
867.337	295.61
867.635	338.55
867.934	304.65
868.233	277.54
868.531	302.39
868.83	318.21
869.129	329.51
869.427	273.02
869.725	284.31
870.024	239.12
870.322	275.28
870.62	234.6
870.918	311.43
871.217	257.2
871.515	288.83
871.813	302.39
872.111	300.13
872.409	306.91
872.706	386.01
873.004	309.17
873.302	275.28
873.6	291.09
873.897	261.72
874.195	275.28
874.492	286.57
874.79	212
875.087	313.69
875.384	376.97
875.682	266.24
875.979	270.76
876.276	234.6
876.573	318.21
876.87	318.21
877.167	318.21
