Data from PL_2polymer_F8BT_MEHPPV_USB2H096331_0499.txt Node
Date: Tue Dec 15 16:40:44 CET 2020
User: spadmin
Spectrometer: USB2+H09633
Trigger mode: 0
Integration Time (sec): 1.000000E-2
Scans to average: 1
Electric dark correction enabled: true
Nonlinearity correction enabled: false
Boxcar width: 0
XAxis mode: Wavelengths
Number of Pixels in Spectrum: 2048
>>>>>Begin Spectral Data<<<<<
174.027	-45.06
174.405	-45.06
174.783	-45.06
175.162	-63.13
175.54	-67.65
175.918	-108.33
176.296	-54.09
176.674	-137.71
177.052	-36.02
177.43	-2.12
177.808	-24.72
178.186	-60.87
178.564	-124.15
178.942	-6.64
179.32	6.92
179.698	-2.12
180.076	43.08
180.453	25
180.831	72.46
181.209	58.9
181.587	99.57
181.965	142.51
182.342	131.21
182.72	165.11
183.098	203.53
183.475	217.08
183.853	273.58
184.231	250.98
184.608	260.02
184.986	271.32
185.363	323.3
185.741	312
186.118	321.04
186.496	325.56
186.873	330.08
187.251	327.82
187.628	318.78
188.006	278.1
188.383	318.78
188.76	269.06
189.138	330.08
189.515	341.38
189.892	309.74
190.27	298.44
190.647	293.92
191.024	420.47
191.401	363.97
191.778	373.01
192.155	368.49
192.533	316.52
192.91	278.1
193.287	289.4
193.664	327.82
194.041	309.74
194.418	411.43
194.795	241.94
195.172	316.52
195.549	350.41
195.926	334.6
196.302	314.26
196.679	312
197.056	302.96
197.433	341.38
197.81	386.57
198.187	336.86
198.563	373.01
198.94	343.64
199.317	271.32
199.693	257.76
200.07	287.14
200.447	205.79
200.823	293.92
201.2	284.88
201.576	298.44
201.953	309.74
202.329	255.5
202.706	321.04
203.082	291.66
203.459	291.66
203.835	260.02
204.212	260.02
204.588	327.82
204.964	327.82
205.341	302.96
205.717	314.26
206.093	314.26
206.469	354.93
206.846	291.66
207.222	327.82
207.598	352.67
207.974	318.78
208.35	384.31
208.726	284.88
209.102	336.86
209.479	323.3
209.855	352.67
210.231	291.66
210.607	205.79
210.982	289.4
211.358	345.89
211.734	289.4
212.11	278.1
212.486	282.62
212.862	323.3
213.238	302.96
213.614	327.82
213.989	260.02
214.365	302.96
214.741	352.67
215.116	318.78
215.492	250.98
215.868	341.38
216.243	350.41
216.619	262.28
216.995	316.52
217.37	244.2
217.746	255.5
218.121	325.56
218.497	307.48
218.872	309.74
219.247	318.78
219.623	312
219.998	350.41
220.374	350.41
220.749	307.48
221.124	341.38
221.499	309.74
221.875	341.38
222.25	323.3
222.625	217.08
223	336.86
223.376	352.67
223.751	314.26
224.126	289.4
224.501	336.86
224.876	373.01
225.251	309.74
225.626	325.56
226.001	321.04
226.376	359.45
226.751	377.53
227.126	357.19
227.501	330.08
227.875	289.4
228.25	262.28
228.625	323.3
229	321.04
229.375	345.89
229.749	318.78
230.124	298.44
230.499	336.86
230.873	382.05
231.248	379.79
231.623	309.74
231.997	323.3
232.372	318.78
232.746	348.15
233.121	357.19
233.495	339.12
233.87	293.92
234.244	350.41
234.619	332.34
234.993	291.66
235.367	318.78
235.742	382.05
236.116	382.05
236.49	391.09
236.865	386.57
237.239	391.09
237.613	325.56
237.987	302.96
238.361	359.45
238.736	361.71
239.11	354.93
239.484	327.82
239.858	330.08
240.232	327.82
240.606	391.09
240.98	323.3
241.354	325.56
241.728	357.19
242.102	321.04
242.475	330.08
242.849	393.35
243.223	330.08
243.597	341.38
243.971	384.31
244.344	350.41
244.718	354.93
245.092	339.12
245.466	339.12
245.839	266.8
246.213	386.57
246.586	361.71
246.96	275.84
247.334	354.93
247.707	388.83
248.081	409.17
248.454	312
248.828	359.45
249.201	318.78
249.574	300.7
249.948	388.83
250.321	424.99
250.694	325.56
251.068	302.96
251.441	391.09
251.814	336.86
252.187	375.27
252.561	354.93
252.934	352.67
253.307	361.71
253.68	334.6
254.053	300.7
254.426	357.19
254.799	332.34
255.172	393.35
255.545	343.64
255.918	377.53
256.291	348.15
256.664	350.41
257.037	418.21
257.41	327.82
257.782	327.82
258.155	413.69
258.528	323.3
258.901	305.22
259.273	370.75
259.646	341.38
260.019	321.04
260.391	406.91
260.764	382.05
261.137	352.67
261.509	359.45
261.882	359.45
262.254	438.55
262.627	402.39
262.999	395.61
263.372	357.19
263.744	318.78
264.116	409.17
264.489	323.3
264.861	438.55
265.233	296.18
265.606	341.38
265.978	316.52
266.35	366.23
266.722	375.27
267.094	323.3
267.467	343.64
267.839	352.67
268.211	384.31
268.583	357.19
268.955	275.84
269.327	359.45
269.699	420.47
270.071	413.69
270.443	384.31
270.815	348.15
271.186	427.25
271.558	388.83
271.93	352.67
272.302	415.95
272.674	393.35
273.045	406.91
273.417	406.91
273.789	357.19
274.16	375.27
274.532	298.44
274.904	395.61
275.275	395.61
275.647	400.13
276.018	368.49
276.39	352.67
276.761	363.97
277.133	375.27
277.504	343.64
277.875	429.51
278.247	391.09
278.618	400.13
278.989	391.09
279.361	373.01
279.732	384.31
280.103	350.41
280.474	354.93
280.846	366.23
281.217	350.41
281.588	309.74
281.959	418.21
282.33	373.01
282.701	415.95
283.072	449.85
283.443	436.29
283.814	384.31
284.185	400.13
284.556	415.95
284.927	427.25
285.297	415.95
285.668	406.91
286.039	343.64
286.41	293.92
286.781	361.71
287.151	452.11
287.522	354.93
287.893	388.83
288.263	400.13
288.634	368.49
289.004	377.53
289.375	330.08
289.745	388.83
290.116	368.49
290.486	348.15
290.857	422.73
291.227	379.79
291.598	388.83
291.968	411.43
292.338	429.51
292.709	359.45
293.079	386.57
293.449	397.87
293.819	352.67
294.189	447.59
294.56	386.57
294.93	413.69
295.3	375.27
295.67	409.17
296.04	409.17
296.41	406.91
296.78	395.61
297.15	388.83
297.52	391.09
297.89	386.57
298.259	361.71
298.629	377.53
298.999	350.41
299.369	384.31
299.739	452.11
300.108	415.95
300.478	429.51
300.848	382.05
301.217	343.64
301.587	400.13
301.957	424.99
302.326	373.01
302.696	406.91
303.065	386.57
303.435	334.6
303.804	402.39
304.174	465.67
304.543	440.81
304.912	418.21
305.282	382.05
305.651	404.65
306.02	438.55
306.39	440.81
306.759	436.29
307.128	402.39
307.497	388.83
307.866	357.19
308.235	424.99
308.604	418.21
308.974	413.69
309.343	379.79
309.712	377.53
310.08	513.12
310.449	461.15
310.818	424.99
311.187	447.59
311.556	463.41
311.925	359.45
312.294	445.33
312.662	483.74
313.031	501.82
313.4	397.87
313.769	438.55
314.137	379.79
314.506	445.33
314.874	472.45
315.243	438.55
315.612	465.67
315.98	431.77
316.349	429.51
316.717	492.78
317.085	420.47
317.454	461.15
317.822	375.27
318.191	368.49
318.559	436.29
318.927	402.39
319.295	472.45
319.664	440.81
320.032	452.11
320.4	363.97
320.768	476.96
321.136	440.81
321.504	463.41
321.872	483.74
322.24	397.87
322.608	436.29
322.976	454.37
323.344	472.45
323.712	418.21
324.08	382.05
324.448	474.71
324.816	481.48
325.183	490.52
325.551	452.11
325.919	452.11
326.287	395.61
326.654	436.29
327.022	458.89
327.389	470.19
327.757	440.81
328.125	499.56
328.492	436.29
328.86	497.3
329.227	420.47
329.594	465.67
329.962	486
330.329	472.45
330.697	535.72
331.064	476.96
331.431	470.19
331.798	535.72
332.166	427.25
332.533	515.38
332.9	422.73
333.267	461.15
333.634	495.04
334.001	515.38
334.368	438.55
334.735	479.22
335.102	486
335.469	556.06
335.836	488.26
336.203	456.63
336.57	479.22
336.937	476.96
337.304	499.56
337.67	490.52
338.037	434.03
338.404	463.41
338.771	449.85
339.137	567.36
339.504	472.45
339.87	558.32
340.237	537.98
340.604	499.56
340.97	524.42
341.337	488.26
341.703	472.45
342.069	476.96
342.436	531.2
342.802	497.3
343.169	515.38
343.535	558.32
343.901	578.66
344.267	495.04
344.634	495.04
345	517.64
345.366	578.66
345.732	497.3
346.098	569.62
346.464	535.72
346.83	533.46
347.196	547.02
347.562	524.42
347.928	540.24
348.294	526.68
348.66	449.85
349.026	528.94
349.392	483.74
349.757	506.34
350.123	574.14
350.489	495.04
350.855	549.28
351.22	558.32
351.586	592.22
351.951	558.32
352.317	542.5
352.683	571.88
353.048	515.38
353.414	549.28
353.779	585.44
354.144	549.28
354.51	648.71
354.875	558.32
355.24	580.92
355.606	533.46
355.971	626.11
356.336	596.74
356.701	594.48
357.067	603.52
357.432	594.48
357.797	603.52
358.162	567.36
358.527	700.69
358.892	655.49
359.257	601.26
359.622	653.23
359.987	660.01
360.352	639.67
360.717	610.29
361.082	565.1
361.446	599
361.811	644.19
362.176	637.41
362.541	653.23
362.905	714.25
363.27	725.55
363.635	696.17
363.999	745.88
364.364	671.31
364.728	646.45
365.093	739.1
365.457	721.03
365.822	736.85
366.186	775.26
366.55	802.38
366.915	761.7
367.279	766.22
367.643	707.47
368.008	809.16
368.372	797.86
368.736	786.56
369.1	775.26
369.464	858.88
369.828	854.36
370.192	795.6
370.556	802.38
370.92	867.92
371.284	829.5
371.648	906.33
372.012	937.97
372.376	965.09
372.74	915.37
373.104	1019.32
373.468	1028.36
373.831	1023.84
374.195	1098.42
374.559	1008.02
374.922	1123.28
375.286	1114.24
375.65	1157.17
376.013	1139.09
376.377	1211.41
376.74	1279.2
377.104	1274.68
377.467	1408.01
377.83	1457.73
378.194	1428.35
378.557	1620.44
378.92	1602.36
379.284	1737.95
379.647	1803.48
380.01	1968.45
380.373	2043.03
380.736	2110.82
381.1	2298.39
381.463	2499.51
381.826	2723.23
382.189	2678.04
382.552	3037.35
382.915	3082.55
383.278	3358.25
383.64	3760.49
384.003	3959.36
384.366	4341.27
384.729	4960.46
385.092	5166.11
385.454	5414.69
385.817	6169.47
386.18	6772.84
386.542	7385.26
386.905	7970.55
387.268	8657.54
387.63	9586.33
387.993	10379.53
388.355	11052.96
388.718	12277.78
389.08	13353.46
389.442	14838.17
389.805	16060.74
390.167	17156.75
390.529	18867.44
390.892	21222.18
391.254	22263.96
391.616	23741.89
391.978	27210.73
392.34	29823.09
392.702	31269.38
393.064	34245.57
393.426	36455.68
393.788	38141.51
394.15	40448.8
394.512	42907.49
394.874	45937.92
395.236	49099.42
395.598	51883.52
395.96	54330.92
396.321	56425.78
396.683	58305.95
397.045	60258.44
397.406	62506.97
397.768	64061.73
398.13	65103.51
398.491	65103.51
398.853	65103.51
399.214	65103.51
399.576	65103.51
399.937	65103.51
400.299	65103.51
400.66	65103.51
401.021	65103.51
401.383	65103.51
401.744	65103.51
402.105	65103.51
402.466	65103.51
402.827	65103.51
403.189	65103.51
403.55	65103.51
403.911	65103.51
404.272	65103.51
404.633	65103.51
404.994	65103.51
405.355	65103.51
405.716	65103.51
406.077	65103.51
406.437	65103.51
406.798	65103.51
407.159	65103.51
407.52	65103.51
407.88	65103.51
408.241	65103.51
408.602	65103.51
408.962	65103.51
409.323	65103.51
409.684	65103.51
410.044	65103.51
410.405	65103.51
410.765	65103.51
411.125	65103.51
411.486	65103.51
411.846	65103.51
412.206	65103.51
412.567	65103.51
412.927	65103.51
413.287	65103.51
413.647	65103.51
414.007	65103.51
414.368	65103.51
414.728	65103.51
415.088	65103.51
415.448	65103.51
415.808	65103.51
416.168	65103.51
416.528	65103.51
416.887	65103.51
417.247	65103.51
417.607	65103.51
417.967	65103.51
418.327	64170.21
418.686	63528.41
419.046	62330.71
419.406	61453.89
419.765	60832.44
420.125	58778.26
420.484	57526.31
420.844	56728.59
421.203	54891.35
421.563	53081.23
421.922	52647.34
422.282	50552.48
422.641	48328.81
423	46141.3
423.36	44405.75
423.719	41282.67
424.078	38543.76
424.437	36376.59
424.796	34772.11
425.155	33832.02
425.515	31599.31
425.874	30867.13
426.233	27825.4
426.592	25886.47
426.95	25710.2
427.309	24178.04
427.668	23077.5
428.027	21226.7
428.386	20921.63
428.745	18758.97
429.103	17766.91
429.462	16869.75
429.821	15886.73
430.179	15660.75
430.538	14673.2
430.897	14377.16
431.255	13403.18
431.614	12641.62
431.972	12090.22
432.33	11726.39
432.689	11371.59
433.047	10901.55
433.405	10180.66
433.764	9509.5
434.122	9346.79
434.48	8955.84
434.838	8607.82
435.197	8121.96
435.555	7959.25
435.913	7507.29
436.271	7355.88
436.629	6958.15
436.987	6632.74
437.345	6196.59
437.703	6013.54
438.061	5774
438.418	5466.66
438.776	5179.67
439.134	5227.12
439.492	4885.89
439.849	4680.24
440.207	4452
440.565	4106.25
440.922	4056.53
441.28	3751.46
441.637	3706.26
441.995	3708.52
442.352	3430.56
442.71	3315.31
443.067	3297.23
443.425	3012.49
443.782	3073.51
444.139	3082.55
444.496	2813.63
444.854	2691.6
445.211	2513.07
445.568	2637.36
445.925	2481.43
446.282	2311.94
446.639	2298.39
446.996	2228.33
447.353	2257.71
447.71	2201.21
448.067	2158.28
448.424	2024.95
448.781	2020.43
449.137	1909.7
449.494	1830.6
449.851	1801.22
450.208	1699.53
450.564	1697.27
450.921	1525.52
451.278	1570.72
451.634	1561.68
451.991	1469.03
452.347	1507.45
452.704	1428.35
453.06	1396.71
453.416	1342.48
453.773	1227.23
454.129	1240.79
454.485	1193.33
454.841	1247.57
455.198	1200.11
455.554	1109.72
455.91	1139.09
456.266	1118.76
456.622	1075.82
456.978	1010.28
457.334	965.09
457.69	978.65
458.046	944.75
458.402	951.53
458.758	910.85
459.114	892.77
459.469	840.8
459.825	895.03
460.181	856.62
460.536	750.4
460.892	838.54
461.248	834.02
461.603	786.56
461.959	797.86
462.314	777.52
462.67	727.81
463.025	752.66
463.38	845.32
463.736	768.48
464.091	761.7
464.446	723.29
464.802	675.83
465.157	721.03
465.512	637.41
465.867	655.49
466.222	603.52
466.577	687.13
466.932	605.78
467.287	657.75
467.642	603.52
467.997	637.41
468.352	617.07
468.707	666.79
469.062	646.45
469.417	626.11
469.771	567.36
470.126	599
470.481	612.55
470.835	619.33
471.19	519.9
471.544	594.48
471.899	580.92
472.253	569.62
472.608	567.36
472.962	549.28
473.317	522.16
473.671	587.7
474.025	528.94
474.38	535.72
474.734	540.24
475.088	567.36
475.442	492.78
475.796	594.48
476.15	562.84
476.504	567.36
476.858	549.28
477.212	467.93
477.566	488.26
477.92	488.26
478.274	567.36
478.628	592.22
478.982	474.71
479.336	567.36
479.689	499.56
480.043	454.37
480.397	497.3
480.75	486
481.104	490.52
481.457	540.24
481.811	452.11
482.164	506.34
482.518	458.89
482.871	467.93
483.225	508.6
483.578	438.55
483.931	508.6
484.284	467.93
484.638	537.98
484.991	461.15
485.344	488.26
485.697	526.68
486.05	495.04
486.403	488.26
486.756	490.52
487.109	497.3
487.462	522.16
487.815	470.19
488.168	427.25
488.52	440.81
488.873	445.33
489.226	449.85
489.579	499.56
489.931	452.11
490.284	467.93
490.637	513.12
490.989	526.68
491.342	458.89
491.694	571.88
492.047	420.47
492.399	461.15
492.751	458.89
493.104	495.04
493.456	495.04
493.808	483.74
494.16	413.69
494.513	386.57
494.865	413.69
495.217	449.85
495.569	483.74
495.921	535.72
496.273	415.95
496.625	454.37
496.977	472.45
497.329	495.04
497.68	452.11
498.032	476.96
498.384	474.71
498.736	476.96
499.087	474.71
499.439	449.85
499.791	501.82
500.142	540.24
500.494	504.08
500.845	463.41
501.197	479.22
501.548	461.15
501.9	470.19
502.251	449.85
502.602	470.19
502.954	488.26
503.305	476.96
503.656	438.55
504.007	427.25
504.358	458.89
504.709	513.12
505.061	504.08
505.412	510.86
505.763	542.5
506.113	463.41
506.464	528.94
506.815	560.58
507.166	431.77
507.517	506.34
507.868	547.02
508.218	617.07
508.569	587.7
508.92	524.42
509.27	476.96
509.621	504.08
509.971	535.72
510.322	544.76
510.672	535.72
511.023	508.6
511.373	583.18
511.723	621.59
512.074	594.48
512.424	589.96
512.774	562.84
513.124	637.41
513.475	542.5
513.825	544.76
514.175	558.32
514.525	614.81
514.875	571.88
515.225	571.88
515.575	605.78
515.924	549.28
516.274	621.59
516.624	506.34
516.974	560.58
517.324	684.87
517.673	587.7
518.023	540.24
518.373	639.67
518.722	660.01
519.072	612.55
519.421	696.17
519.771	612.55
520.12	678.09
520.469	673.57
520.819	714.25
521.168	603.52
521.517	698.43
521.867	721.03
522.216	721.03
522.565	757.18
522.914	644.19
523.263	741.36
523.612	752.66
523.961	684.87
524.31	646.45
524.659	745.88
525.008	671.31
525.357	766.22
525.705	705.21
526.054	811.42
526.403	768.48
526.752	773
527.1	741.36
527.449	734.59
527.797	736.85
528.146	852.1
528.495	748.14
528.843	660.01
529.191	741.36
529.54	782.04
529.888	716.51
530.236	768.48
530.585	754.92
530.933	847.58
531.281	705.21
531.629	707.47
531.977	748.14
532.325	829.5
532.673	883.73
533.021	822.72
533.369	813.68
533.717	856.62
534.065	730.07
534.413	843.06
534.761	786.56
535.108	852.1
535.456	788.82
535.804	691.65
536.151	732.33
536.499	858.88
536.847	791.08
537.194	815.94
537.542	845.32
537.889	813.68
538.236	766.22
538.584	763.96
538.931	800.12
539.278	777.52
539.626	752.66
539.973	784.3
540.32	775.26
540.667	820.46
541.014	829.5
541.361	786.56
541.708	818.2
542.055	811.42
542.402	779.78
542.749	815.94
543.096	793.34
543.443	777.52
543.789	788.82
544.136	834.02
544.483	800.12
544.83	820.46
545.176	815.94
545.523	754.92
545.869	849.84
546.216	806.9
546.562	673.57
546.909	770.74
547.255	824.98
547.601	788.82
547.948	750.4
548.294	802.38
548.64	773
548.986	858.88
549.332	840.8
549.678	777.52
550.025	725.55
550.371	874.69
550.717	802.38
551.062	802.38
551.408	775.26
551.754	793.34
552.1	845.32
552.446	763.96
552.792	815.94
553.137	856.62
553.483	815.94
553.828	861.14
554.174	820.46
554.52	824.98
554.865	906.33
555.211	750.4
555.556	831.76
555.901	831.76
556.247	818.2
556.592	908.59
556.937	834.02
557.282	834.02
557.628	856.62
557.973	858.88
558.318	858.88
558.663	890.51
559.008	858.88
559.353	858.88
559.698	843.06
560.043	892.77
560.388	922.15
560.732	836.28
561.077	849.84
561.422	926.67
561.766	843.06
562.111	906.33
562.456	872.43
562.8	874.69
563.145	885.99
563.489	960.57
563.834	913.11
564.178	937.97
564.523	901.81
564.867	924.41
565.211	870.17
565.555	917.63
565.9	951.53
566.244	992.21
566.588	1001.24
566.932	901.81
567.276	980.91
567.62	969.61
567.964	915.37
568.308	1050.96
568.652	978.65
568.996	962.83
569.339	985.43
569.683	1010.28
570.027	1014.8
570.371	969.61
570.714	983.17
571.058	965.09
571.401	1001.24
571.745	976.39
572.088	983.17
572.432	976.39
572.775	994.47
573.118	958.31
573.462	933.45
573.805	942.49
574.148	1037.4
574.491	969.61
574.835	935.71
575.178	1035.14
575.521	1001.24
575.864	1064.52
576.207	992.21
576.55	1030.62
576.892	913.11
577.235	1005.76
577.578	1005.76
577.921	1019.32
578.264	953.79
578.606	933.45
578.949	998.99
579.292	1017.06
579.634	1001.24
579.977	942.49
580.319	1010.28
580.662	899.55
581.004	931.19
581.346	1041.92
581.689	989.95
582.031	1037.4
582.373	987.69
582.715	996.73
583.057	998.99
583.4	949.27
583.742	856.62
584.084	937.97
584.426	915.37
584.768	985.43
585.109	989.95
585.451	919.89
585.793	971.87
586.135	933.45
586.477	904.07
586.818	881.47
587.16	931.19
587.502	926.67
587.843	892.77
588.185	872.43
588.526	831.76
588.868	872.43
589.209	901.81
589.55	829.5
589.892	883.73
590.233	872.43
590.574	919.89
590.915	797.86
591.257	784.3
591.598	858.88
591.939	827.24
592.28	813.68
592.621	788.82
592.962	739.1
593.303	845.32
593.643	856.62
593.984	797.86
594.325	813.68
594.666	696.17
595.006	811.42
595.347	838.54
595.688	779.78
596.028	757.18
596.369	734.59
596.709	723.29
597.05	653.23
597.39	739.1
597.73	689.39
598.071	739.1
598.411	766.22
598.751	743.62
599.091	734.59
599.431	687.13
599.772	752.66
600.112	754.92
600.452	718.77
600.792	707.47
601.132	664.53
601.471	723.29
601.811	698.43
602.151	657.75
602.491	664.53
602.831	610.29
603.17	639.67
603.51	653.23
603.849	614.81
604.189	628.37
604.528	689.39
604.868	768.48
605.207	655.49
605.547	673.57
605.886	682.61
606.225	666.79
606.565	691.65
606.904	585.44
607.243	648.71
607.582	580.92
607.921	626.11
608.26	637.41
608.599	605.78
608.938	612.55
609.277	583.18
609.616	605.78
609.955	592.22
610.293	603.52
610.632	664.53
610.971	680.35
611.309	614.81
611.648	650.97
611.987	673.57
612.325	650.97
612.664	544.76
613.002	589.96
613.34	583.18
613.679	578.66
614.017	644.19
614.355	646.45
614.694	562.84
615.032	562.84
615.37	648.71
615.708	619.33
616.046	628.37
616.384	599
616.722	571.88
617.06	589.96
617.398	556.06
617.736	601.26
618.073	662.27
618.411	540.24
618.749	558.32
619.086	578.66
619.424	605.78
619.762	544.76
620.099	549.28
620.437	637.41
620.774	558.32
621.112	619.33
621.449	526.68
621.786	583.18
622.123	528.94
622.461	551.54
622.798	574.14
623.135	583.18
623.472	612.55
623.809	592.22
624.146	553.8
624.483	592.22
624.82	594.48
625.157	589.96
625.494	585.44
625.83	558.32
626.167	549.28
626.504	655.49
626.841	510.86
627.177	553.8
627.514	619.33
627.85	574.14
628.187	535.72
628.523	531.2
628.86	510.86
629.196	542.5
629.532	528.94
629.869	578.66
630.205	495.04
630.541	558.32
630.877	517.64
631.213	589.96
631.549	508.6
631.885	571.88
632.221	558.32
632.557	488.26
632.893	528.94
633.229	571.88
633.564	528.94
633.9	486
634.236	519.9
634.572	504.08
634.907	531.2
635.243	508.6
635.578	535.72
635.914	594.48
636.249	533.46
636.585	547.02
636.92	497.3
637.255	479.22
637.59	506.34
637.926	486
638.261	479.22
638.596	481.48
638.931	481.48
639.266	461.15
639.601	537.98
639.936	474.71
640.271	427.25
640.606	517.64
640.94	501.82
641.275	495.04
641.61	499.56
641.945	524.42
642.279	470.19
642.614	492.78
642.948	429.51
643.283	506.34
643.617	488.26
643.952	402.39
644.286	467.93
644.62	510.86
644.955	447.59
645.289	461.15
645.623	506.34
645.957	544.76
646.291	445.33
646.625	486
646.959	456.63
647.293	454.37
647.627	424.99
647.961	490.52
648.295	445.33
648.629	486
648.962	481.48
649.296	386.57
649.63	452.11
649.963	461.15
650.297	479.22
650.63	467.93
650.964	431.77
651.297	438.55
651.631	443.07
651.964	479.22
652.297	467.93
652.631	429.51
652.964	499.56
653.297	486
653.63	411.43
653.963	391.09
654.296	427.25
654.629	370.75
654.962	404.65
655.295	461.15
655.628	452.11
655.961	427.25
656.293	422.73
656.626	402.39
656.959	434.03
657.291	373.01
657.624	481.48
657.956	463.41
658.289	363.97
658.621	431.77
658.954	458.89
659.286	359.45
659.618	436.29
659.95	420.47
660.283	373.01
660.615	404.65
660.947	345.89
661.279	336.86
661.611	359.45
661.943	393.35
662.275	440.81
662.607	440.81
662.939	404.65
663.27	382.05
663.602	391.09
663.934	382.05
664.266	350.41
664.597	409.17
664.929	402.39
665.26	370.75
665.592	373.01
665.923	368.49
666.255	345.89
666.586	400.13
666.917	363.97
667.248	406.91
667.58	350.41
667.911	366.23
668.242	359.45
668.573	332.34
668.904	309.74
669.235	370.75
669.566	386.57
669.897	368.49
670.228	379.79
670.558	402.39
670.889	339.12
671.22	332.34
671.551	345.89
671.881	406.91
672.212	377.53
672.542	395.61
672.873	336.86
673.203	280.36
673.533	404.65
673.864	415.95
674.194	373.01
674.524	352.67
674.855	345.89
675.185	375.27
675.515	330.08
675.845	330.08
676.175	363.97
676.505	348.15
676.835	350.41
677.165	352.67
677.494	316.52
677.824	386.57
678.154	447.59
678.484	339.12
678.813	388.83
679.143	332.34
679.472	377.53
679.802	418.21
680.131	309.74
680.461	420.47
680.79	404.65
681.119	357.19
681.449	370.75
681.778	336.86
682.107	348.15
682.436	316.52
682.765	357.19
683.094	334.6
683.423	352.67
683.752	363.97
684.081	339.12
684.41	323.3
684.739	409.17
685.067	377.53
685.396	384.31
685.725	368.49
686.053	366.23
686.382	363.97
686.711	397.87
687.039	357.19
687.367	302.96
687.696	359.45
688.024	327.82
688.352	384.31
688.681	332.34
689.009	305.22
689.337	345.89
689.665	373.01
689.993	271.32
690.321	316.52
690.649	312
690.977	318.78
691.305	293.92
691.633	327.82
691.961	395.61
692.288	354.93
692.616	370.75
692.944	359.45
693.271	359.45
693.599	307.48
693.926	341.38
694.254	325.56
694.581	354.93
694.908	275.84
695.236	318.78
695.563	300.7
695.89	291.66
696.217	327.82
696.544	330.08
696.871	269.06
697.198	348.15
697.525	300.7
697.852	427.25
698.179	323.3
698.506	341.38
698.833	361.71
699.16	382.05
699.486	302.96
699.813	368.49
700.139	305.22
700.466	334.6
700.793	361.71
701.119	373.01
701.445	409.17
701.772	314.26
702.098	350.41
702.424	325.56
702.75	363.97
703.077	339.12
703.403	373.01
703.729	366.23
704.055	282.62
704.381	321.04
704.707	354.93
705.033	323.3
705.358	359.45
705.684	352.67
706.01	386.57
706.336	332.34
706.661	314.26
706.987	357.19
707.312	300.7
707.638	343.64
707.963	343.64
708.289	325.56
708.614	282.62
708.939	386.57
709.265	359.45
709.59	323.3
709.915	318.78
710.24	336.86
710.565	262.28
710.89	269.06
711.215	325.56
711.54	316.52
711.865	309.74
712.19	257.76
712.515	352.67
712.839	305.22
713.164	350.41
713.489	309.74
713.813	323.3
714.138	255.5
714.462	343.64
714.787	357.19
715.111	309.74
715.435	246.46
715.76	287.14
716.084	327.82
716.408	305.22
716.732	305.22
717.056	278.1
717.381	314.26
717.705	278.1
718.028	332.34
718.352	280.36
718.676	334.6
719	343.64
719.324	300.7
719.648	332.34
719.971	359.45
720.295	321.04
720.618	314.26
720.942	357.19
721.265	325.56
721.589	305.22
721.912	235.16
722.236	275.84
722.559	330.08
722.882	368.49
723.205	284.88
723.528	370.75
723.851	309.74
724.174	336.86
724.497	291.66
724.82	334.6
725.143	289.4
725.466	248.72
725.789	318.78
726.112	305.22
726.434	325.56
726.757	287.14
727.08	350.41
727.402	312
727.725	293.92
728.047	291.66
728.37	302.96
728.692	309.74
729.014	305.22
729.336	307.48
729.659	241.94
729.981	260.02
730.303	305.22
730.625	309.74
730.947	341.38
731.269	309.74
731.591	307.48
731.913	246.46
732.235	323.3
732.556	314.26
732.878	273.58
733.2	302.96
733.521	368.49
733.843	359.45
734.164	359.45
734.486	352.67
734.807	302.96
735.129	237.42
735.45	327.82
735.771	339.12
736.092	354.93
736.414	239.68
736.735	307.48
737.056	305.22
737.377	235.16
737.698	302.96
738.019	255.5
738.34	318.78
738.66	325.56
738.981	296.18
739.302	284.88
739.623	323.3
739.943	271.32
740.264	302.96
740.584	255.5
740.905	377.53
741.225	354.93
741.546	302.96
741.866	314.26
742.186	327.82
742.507	312
742.827	302.96
743.147	260.02
743.467	260.02
743.787	316.52
744.107	332.34
744.427	384.31
744.747	323.3
745.067	318.78
745.386	321.04
745.706	260.02
746.026	314.26
746.346	314.26
746.665	343.64
746.985	345.89
747.304	332.34
747.624	264.54
747.943	323.3
748.262	341.38
748.582	307.48
748.901	246.46
749.22	296.18
749.539	312
749.858	325.56
750.177	345.89
750.496	262.28
750.815	350.41
751.134	352.67
751.453	298.44
751.772	287.14
752.09	330.08
752.409	309.74
752.728	250.98
753.046	330.08
753.365	339.12
753.683	363.97
754.002	343.64
754.32	298.44
754.639	307.48
754.957	334.6
755.275	271.32
755.593	307.48
755.911	298.44
756.23	298.44
756.548	260.02
756.866	314.26
757.183	361.71
757.501	334.6
757.819	361.71
758.137	305.22
758.455	253.24
758.772	302.96
759.09	266.8
759.408	354.93
759.725	309.74
760.043	273.58
760.36	287.14
760.677	300.7
760.995	332.34
761.312	321.04
761.629	269.06
761.946	250.98
762.264	302.96
762.581	253.24
762.898	280.36
763.215	296.18
763.532	305.22
763.848	307.48
764.165	278.1
764.482	343.64
764.799	298.44
765.115	314.26
765.432	330.08
765.749	266.8
766.065	323.3
766.382	282.62
766.698	332.34
767.014	291.66
767.331	296.18
767.647	350.41
767.963	339.12
768.279	332.34
768.595	284.88
768.911	298.44
769.227	289.4
769.543	266.8
769.859	287.14
770.175	305.22
770.491	327.82
770.807	359.45
771.122	291.66
771.438	266.8
771.754	298.44
772.069	314.26
772.385	363.97
772.7	330.08
773.016	284.88
773.331	257.76
773.646	282.62
773.961	275.84
774.277	280.36
774.592	300.7
774.907	280.36
775.222	271.32
775.537	275.84
775.852	269.06
776.167	314.26
776.482	318.78
776.796	325.56
777.111	336.86
777.426	244.2
777.74	300.7
778.055	336.86
778.369	289.4
778.684	280.36
778.998	282.62
779.313	298.44
779.627	305.22
779.941	271.32
780.255	271.32
780.57	284.88
780.884	260.02
781.198	316.52
781.512	327.82
781.826	323.3
782.14	262.28
782.453	305.22
782.767	354.93
783.081	300.7
783.395	327.82
783.708	264.54
784.022	305.22
784.335	275.84
784.649	271.32
784.962	359.45
785.276	361.71
785.589	350.41
785.902	296.18
786.216	332.34
786.529	325.56
786.842	318.78
787.155	269.06
787.468	289.4
787.781	260.02
788.094	278.1
788.407	343.64
788.72	316.52
789.032	250.98
789.345	305.22
789.658	271.32
789.97	434.03
790.283	248.72
790.595	293.92
790.908	309.74
791.22	278.1
791.532	255.5
791.845	341.38
792.157	273.58
792.469	260.02
792.781	289.4
793.093	278.1
793.405	330.08
793.717	273.58
794.029	332.34
794.341	291.66
794.653	330.08
794.965	330.08
795.276	352.67
795.588	314.26
795.9	253.24
796.211	296.18
796.523	316.52
796.834	264.54
797.146	296.18
797.457	273.58
797.768	296.18
798.08	260.02
798.391	300.7
798.702	305.22
799.013	307.48
799.324	316.52
799.635	330.08
799.946	336.86
800.257	305.22
800.568	291.66
800.878	323.3
801.189	363.97
801.5	352.67
801.81	269.06
802.121	330.08
802.431	312
802.742	343.64
803.052	296.18
803.363	273.58
803.673	289.4
803.983	352.67
804.293	330.08
804.603	298.44
804.913	363.97
805.224	273.58
805.533	284.88
805.843	296.18
806.153	298.44
806.463	316.52
806.773	287.14
807.083	278.1
807.392	275.84
807.702	291.66
808.011	289.4
808.321	289.4
808.63	314.26
808.94	253.24
809.249	302.96
809.558	289.4
809.868	309.74
810.177	314.26
810.486	321.04
810.795	269.06
811.104	282.62
811.413	318.78
811.722	302.96
812.031	298.44
812.339	348.15
812.648	314.26
812.957	293.92
813.266	298.44
813.574	321.04
813.883	271.32
814.191	293.92
814.5	262.28
814.808	246.46
815.116	273.58
815.424	260.02
815.733	284.88
816.041	309.74
816.349	284.88
816.657	266.8
816.965	316.52
817.273	348.15
817.581	350.41
817.889	278.1
818.196	309.74
818.504	302.96
818.812	255.5
819.12	316.52
819.427	282.62
819.735	373.01
820.042	348.15
820.349	332.34
820.657	284.88
820.964	278.1
821.271	260.02
821.579	296.18
821.886	291.66
822.193	343.64
822.5	307.48
822.807	289.4
823.114	309.74
823.421	289.4
823.727	226.12
824.034	278.1
824.341	332.34
824.648	357.19
824.954	305.22
825.261	278.1
825.567	282.62
825.874	293.92
826.18	291.66
826.486	321.04
826.793	321.04
827.099	287.14
827.405	293.92
827.711	341.38
828.017	336.86
828.323	339.12
828.629	255.5
828.935	343.64
829.241	273.58
829.547	280.36
829.852	291.66
830.158	248.72
830.464	253.24
830.769	262.28
831.075	271.32
831.38	348.15
831.686	284.88
831.991	316.52
832.296	282.62
832.601	330.08
832.907	373.01
833.212	244.2
833.517	309.74
833.822	334.6
834.127	282.62
834.432	269.06
834.737	305.22
835.041	298.44
835.346	307.48
835.651	300.7
835.956	325.56
836.26	284.88
836.565	273.58
836.869	305.22
837.174	278.1
837.478	366.23
837.782	316.52
838.087	305.22
838.391	296.18
838.695	330.08
838.999	260.02
839.303	300.7
839.607	293.92
839.911	293.92
840.215	325.56
840.519	235.16
840.822	280.36
841.126	307.48
841.43	282.62
841.733	291.66
842.037	345.89
842.34	345.89
842.644	221.6
842.947	266.8
843.251	287.14
843.554	352.67
843.857	289.4
844.16	334.6
844.463	309.74
844.766	298.44
845.069	250.98
845.372	309.74
845.675	287.14
845.978	305.22
846.281	287.14
846.583	282.62
846.886	348.15
847.189	309.74
847.491	318.78
847.794	323.3
848.096	264.54
848.399	312
848.701	312
849.003	305.22
849.305	293.92
849.608	284.88
849.91	330.08
850.212	325.56
850.514	300.7
850.816	246.46
851.118	246.46
851.419	305.22
851.721	284.88
852.023	336.86
852.325	298.44
852.626	330.08
852.928	266.8
853.229	275.84
853.531	307.48
853.832	287.14
854.133	287.14
854.435	366.23
854.736	289.4
855.037	280.36
855.338	269.06
855.639	280.36
855.94	370.75
856.241	309.74
856.542	293.92
856.843	287.14
857.144	291.66
857.444	287.14
857.745	275.84
858.046	323.3
858.346	305.22
858.647	352.67
858.947	208.05
859.247	289.4
859.548	307.48
859.848	284.88
860.148	291.66
860.448	296.18
860.749	284.88
861.049	289.4
861.349	287.14
861.648	316.52
861.948	350.41
862.248	255.5
862.548	287.14
862.848	312
863.147	305.22
863.447	257.76
863.746	284.88
864.046	269.06
864.345	318.78
864.645	255.5
864.944	336.86
865.243	321.04
865.542	323.3
865.842	271.32
866.141	275.84
866.44	357.19
866.739	266.8
867.038	361.71
867.337	300.7
867.635	289.4
867.934	257.76
868.233	359.45
868.531	305.22
868.83	334.6
869.129	334.6
869.427	366.23
869.725	266.8
870.024	244.2
870.322	325.56
870.62	325.56
870.918	273.58
871.217	321.04
871.515	289.4
871.813	266.8
872.111	373.01
872.409	384.31
872.706	269.06
873.004	280.36
873.302	373.01
873.6	307.48
873.897	280.36
874.195	318.78
874.492	305.22
874.79	282.62
875.087	278.1
875.384	341.38
875.682	309.74
875.979	305.22
876.276	325.56
876.573	280.36
876.87	280.36
877.167	280.36
