Data from PL_2polymer_F8BT_MEHPPV_USB2H096331_0457.txt Node
Date: Tue Dec 15 16:40:44 CET 2020
User: spadmin
Spectrometer: USB2+H09633
Trigger mode: 0
Integration Time (sec): 1.000000E-2
Scans to average: 1
Electric dark correction enabled: true
Nonlinearity correction enabled: false
Boxcar width: 0
XAxis mode: Wavelengths
Number of Pixels in Spectrum: 2048
>>>>>Begin Spectral Data<<<<<
174.027	-53.25
174.405	-53.25
174.783	-53.25
175.162	-112
175.54	-69.07
175.918	-98.44
176.296	-191.1
176.674	-123.3
177.052	-102.96
177.43	-62.29
177.808	-75.85
178.186	-39.69
178.564	-28.39
178.942	71.04
179.32	-5.79
179.698	12.29
180.076	-10.31
180.453	34.89
180.831	138.84
181.209	161.44
181.587	132.06
181.965	89.12
182.342	107.2
182.72	154.66
183.098	260.87
183.475	138.84
183.853	226.97
184.231	290.25
184.608	231.49
184.986	258.61
185.363	274.43
185.741	287.99
186.118	346.74
186.496	306.07
186.873	251.83
187.251	285.73
187.628	278.95
188.006	321.88
188.383	285.73
188.76	328.66
189.138	353.52
189.515	267.65
189.892	290.25
190.27	369.34
190.647	326.4
191.024	292.51
191.401	321.88
191.778	367.08
192.155	335.44
192.533	294.77
192.91	351.26
193.287	342.22
193.664	312.84
194.041	308.33
194.418	267.65
194.795	301.55
195.172	333.18
195.549	301.55
195.926	278.95
196.302	367.08
196.679	274.43
197.056	299.29
197.433	315.1
197.81	276.69
198.187	306.07
198.563	285.73
198.94	294.77
199.317	321.88
199.693	294.77
200.07	324.14
200.447	373.86
200.823	319.62
201.2	278.95
201.576	287.99
201.953	301.55
202.329	274.43
202.706	308.33
203.082	265.39
203.459	287.99
203.835	290.25
204.212	276.69
204.588	256.35
204.964	267.65
205.341	351.26
205.717	278.95
206.093	299.29
206.469	213.41
206.846	294.77
207.222	303.81
207.598	324.14
207.974	342.22
208.35	294.77
208.726	299.29
209.102	258.61
209.479	303.81
209.855	319.62
210.231	287.99
210.607	319.62
210.982	267.65
211.358	324.14
211.734	328.66
212.11	278.95
212.486	292.51
212.862	324.14
213.238	321.88
213.614	308.33
213.989	328.66
214.365	294.77
214.741	317.36
215.116	285.73
215.492	294.77
215.868	254.09
216.243	342.22
216.619	285.73
216.995	281.21
217.37	312.84
217.746	317.36
218.121	337.7
218.497	292.51
218.872	299.29
219.247	360.3
219.623	310.59
219.998	339.96
220.374	312.84
220.749	292.51
221.124	276.69
221.499	324.14
221.875	301.55
222.25	360.3
222.625	360.3
223	346.74
223.376	301.55
223.751	283.47
224.126	335.44
224.501	290.25
224.876	299.29
225.251	297.03
225.626	321.88
226.001	285.73
226.376	301.55
226.751	238.27
227.126	315.1
227.501	335.44
227.875	269.91
228.25	281.21
228.625	333.18
229	274.43
229.375	285.73
229.749	303.81
230.124	285.73
230.499	269.91
230.873	303.81
231.248	312.84
231.623	328.66
231.997	321.88
232.372	324.14
232.746	333.18
233.121	240.53
233.495	351.26
233.87	333.18
234.244	351.26
234.619	328.66
234.993	333.18
235.367	310.59
235.742	321.88
236.116	294.77
236.49	351.26
236.865	306.07
237.239	317.36
237.613	287.99
237.987	337.7
238.361	335.44
238.736	308.33
239.11	319.62
239.484	349
239.858	371.6
240.232	308.33
240.606	281.21
240.98	335.44
241.354	312.84
241.728	342.22
242.102	344.48
242.475	303.81
242.849	283.47
243.223	306.07
243.597	373.86
243.971	308.33
244.344	283.47
244.718	317.36
245.092	294.77
245.466	321.88
245.839	274.43
246.213	315.1
246.586	353.52
246.96	328.66
247.334	301.55
247.707	358.04
248.081	306.07
248.454	326.4
248.828	360.3
249.201	367.08
249.574	278.95
249.948	328.66
250.321	321.88
250.694	353.52
251.068	317.36
251.441	367.08
251.814	367.08
252.187	342.22
252.561	308.33
252.934	355.78
253.307	382.9
253.68	351.26
254.053	339.96
254.426	337.7
254.799	301.55
255.172	358.04
255.545	299.29
255.918	333.18
256.291	355.78
256.664	306.07
257.037	335.44
257.41	364.82
257.782	398.72
258.155	321.88
258.528	344.48
258.901	382.9
259.273	321.88
259.646	312.84
260.019	317.36
260.391	299.29
260.764	349
261.137	306.07
261.509	263.13
261.882	281.21
262.254	378.38
262.627	344.48
262.999	326.4
263.372	337.7
263.744	367.08
264.116	333.18
264.489	373.86
264.861	326.4
265.233	342.22
265.606	306.07
265.978	303.81
266.35	335.44
266.722	389.68
267.094	301.55
267.467	324.14
267.839	362.56
268.211	317.36
268.583	297.03
268.955	355.78
269.327	299.29
269.699	337.7
270.071	358.04
270.443	389.68
270.815	335.44
271.186	364.82
271.558	362.56
271.93	283.47
272.302	310.59
272.674	292.51
273.045	385.16
273.417	355.78
273.789	333.18
274.16	385.16
274.532	398.72
274.904	342.22
275.275	337.7
275.647	376.12
276.018	317.36
276.39	337.7
276.761	299.29
277.133	339.96
277.504	367.08
277.875	376.12
278.247	396.46
278.618	328.66
278.989	344.48
279.361	385.16
279.732	349
280.103	337.7
280.474	378.38
280.846	369.34
281.217	391.94
281.588	376.12
281.959	387.42
282.33	373.86
282.701	355.78
283.072	394.2
283.443	391.94
283.814	371.6
284.185	335.44
284.556	423.58
284.927	403.24
285.297	339.96
285.668	346.74
286.039	344.48
286.41	391.94
286.781	423.58
287.151	380.64
287.522	382.9
287.893	425.84
288.263	396.46
288.634	321.88
289.004	333.18
289.375	423.58
289.745	319.62
290.116	446.17
290.486	400.98
290.857	416.8
291.227	432.62
291.598	355.78
291.968	385.16
292.338	407.76
292.709	376.12
293.079	378.38
293.449	412.28
293.819	389.68
294.189	437.14
294.56	389.68
294.93	389.68
295.3	364.82
295.67	378.38
296.04	364.82
296.41	387.42
296.78	351.26
297.15	414.54
297.52	378.38
297.89	389.68
298.259	364.82
298.629	335.44
298.999	380.64
299.369	369.34
299.739	419.06
300.108	351.26
300.478	321.88
300.848	448.43
301.217	391.94
301.587	432.62
301.957	416.8
302.326	400.98
302.696	376.12
303.065	342.22
303.435	466.51
303.804	371.6
304.174	452.95
304.543	457.47
304.912	396.46
305.282	412.28
305.651	394.2
306.02	394.2
306.39	405.5
306.759	373.86
307.128	457.47
307.497	412.28
307.866	403.24
308.235	385.16
308.604	441.66
308.974	430.36
309.343	504.93
309.712	432.62
310.08	394.2
310.449	457.47
310.818	382.9
311.187	450.69
311.556	391.94
311.925	382.9
312.294	414.54
312.662	491.37
313.031	414.54
313.4	443.91
313.769	432.62
314.137	378.38
314.506	428.1
314.874	376.12
315.243	353.52
315.612	439.4
315.98	425.84
316.349	317.36
316.717	400.98
317.085	412.28
317.454	439.4
317.822	443.91
318.191	441.66
318.559	405.5
318.927	423.58
319.295	437.14
319.664	473.29
320.032	428.1
320.4	446.17
320.768	434.88
321.136	461.99
321.504	452.95
321.872	448.43
322.24	446.17
322.608	403.24
322.976	385.16
323.344	387.42
323.712	371.6
324.08	430.36
324.448	378.38
324.816	450.69
325.183	410.02
325.551	486.85
325.919	480.07
326.287	466.51
326.654	394.2
327.022	400.98
327.389	439.4
327.757	471.03
328.125	410.02
328.492	425.84
328.86	378.38
329.227	414.54
329.594	461.99
329.962	480.07
330.329	344.48
330.697	419.06
331.064	437.14
331.431	425.84
331.798	450.69
332.166	450.69
332.533	484.59
332.9	450.69
333.267	498.15
333.634	507.19
334.001	468.77
334.368	457.47
334.735	504.93
335.102	471.03
335.469	527.53
335.836	482.33
336.203	423.58
336.57	477.81
336.937	432.62
337.304	459.73
337.67	504.93
338.037	434.88
338.404	430.36
338.771	543.35
339.137	464.25
339.504	468.77
339.87	455.21
340.237	518.49
340.604	525.27
340.97	561.43
341.337	604.36
341.703	455.21
342.069	507.19
342.436	459.73
342.802	520.75
343.169	486.85
343.535	588.54
343.901	430.36
344.267	493.63
344.634	443.91
345	513.97
345.366	430.36
345.732	520.75
346.098	504.93
346.464	473.29
346.83	500.41
347.196	523.01
347.562	459.73
347.928	489.11
348.294	513.97
348.66	554.65
349.026	615.66
349.392	550.13
349.757	545.61
350.123	493.63
350.489	556.91
350.855	595.32
351.22	473.29
351.586	491.37
351.951	520.75
352.317	520.75
352.683	536.57
353.048	595.32
353.414	495.89
353.779	545.61
354.144	504.93
354.51	588.54
354.875	604.36
355.24	574.98
355.606	538.83
355.971	547.87
356.336	550.13
356.701	602.1
357.067	593.06
357.432	579.5
357.797	593.06
358.162	624.7
358.527	651.82
358.892	642.78
359.257	579.5
359.622	629.22
359.987	629.22
360.352	597.58
360.717	647.3
361.082	590.8
361.446	599.84
361.811	697.02
362.176	663.12
362.541	676.68
362.905	654.08
363.27	685.72
363.635	751.25
363.999	728.65
364.364	672.16
364.728	746.73
365.093	703.8
365.457	636
365.822	728.65
366.186	699.28
366.55	758.03
366.915	762.55
367.279	767.07
367.643	703.8
368.008	717.35
368.372	751.25
368.736	769.33
369.1	778.37
369.464	778.37
369.828	767.07
370.192	814.53
370.556	895.88
370.92	850.68
371.284	843.9
371.648	895.88
372.012	961.42
372.376	952.38
372.74	923
373.104	990.79
373.468	1038.25
373.831	1031.47
374.195	1151.24
374.559	1081.19
374.922	1087.97
375.286	1097.01
375.65	1160.28
376.013	1148.98
376.377	1255.19
376.74	1289.09
377.104	1248.41
377.467	1402.08
377.83	1320.73
378.194	1544.45
378.557	1535.41
378.92	1693.6
379.284	1675.52
379.647	1865.35
380.01	1797.55
380.373	2077.77
380.736	2143.31
381.1	2457.42
381.463	2416.74
381.826	2667.59
382.189	2913.91
382.552	3194.13
382.915	3241.58
383.278	3413.33
383.64	3795.24
384.003	4100.32
384.366	4303.7
384.729	4737.59
385.092	5108.2
385.454	5625.7
385.817	5973.71
386.18	6674.26
386.542	7383.85
386.905	8012.08
387.268	8877.59
387.63	9792.82
387.993	10165.69
388.355	11388.26
388.718	12283.15
389.08	13288.77
389.442	14554.28
389.805	16084.18
390.167	17322.57
390.529	19329.29
390.892	21263.71
391.254	22698.7
391.616	24438.76
391.978	27527.95
392.34	30183.25
392.702	31161.75
393.064	34354.89
393.426	36323.2
393.788	38451.96
394.15	40431.56
394.512	43482.33
394.874	46571.52
395.236	49466.35
395.598	52162.33
395.96	54648.14
396.321	56469.56
396.683	58471.77
397.045	60591.49
397.406	62837.75
397.768	64354.1
398.13	65086.28
398.491	65086.28
398.853	65086.28
399.214	65086.28
399.576	65086.28
399.937	65086.28
400.299	65086.28
400.66	65086.28
401.021	65086.28
401.383	65086.28
401.744	65086.28
402.105	65086.28
402.466	65086.28
402.827	65086.28
403.189	65086.28
403.55	65086.28
403.911	65086.28
404.272	65086.28
404.633	65086.28
404.994	65086.28
405.355	65086.28
405.716	65086.28
406.077	65086.28
406.437	65086.28
406.798	65086.28
407.159	65086.28
407.52	65086.28
407.88	65086.28
408.241	65086.28
408.602	65086.28
408.962	65086.28
409.323	65086.28
409.684	65086.28
410.044	65086.28
410.405	65086.28
410.765	65086.28
411.125	65086.28
411.486	65086.28
411.846	65086.28
412.206	65086.28
412.567	65086.28
412.927	65086.28
413.287	65086.28
413.647	65086.28
414.007	65086.28
414.368	65086.28
414.728	65086.28
415.088	65086.28
415.448	65086.28
415.808	65086.28
416.168	65086.28
416.528	65086.28
416.887	65086.28
417.247	65086.28
417.607	65086.28
417.967	65086.28
418.327	64627.54
418.686	63545.08
419.046	62523.64
419.406	61468.3
419.765	61095.43
420.125	59199.43
420.484	57827.72
420.844	57000.62
421.203	55423.26
421.563	53558.9
421.922	53097.9
422.282	50650.5
422.641	48517.23
423	46311.64
423.36	44835.97
423.719	41830.4
424.078	38860.98
424.437	37134.48
424.796	35290.46
425.155	33959.42
425.515	31986.59
425.874	31164.01
426.233	28063.53
426.592	25918.95
426.95	25381.11
427.309	24226.34
427.668	23351.79
428.027	21896.46
428.386	20963.15
428.745	19175.63
429.103	17907.86
429.462	17132.74
429.821	16090.96
430.179	15340.7
430.538	14963.31
430.897	14398.35
431.255	13555.43
431.614	12800.65
431.972	12301.23
432.33	11618.76
432.689	11352.1
433.047	10662.86
433.405	10068.52
433.764	9892.25
434.122	9514.86
434.48	8873.07
434.838	8934.09
435.197	8192.86
435.555	8296.82
435.913	7532.99
436.271	7218.88
436.629	6916.06
436.987	6742.05
437.345	6357.88
437.703	6231.33
438.061	5856.2
438.418	5478.81
438.776	5399.72
439.134	5275.43
439.492	5029.11
439.849	4617.82
440.207	4441.55
440.565	4244.94
440.922	4023.48
441.28	3955.69
441.637	3806.54
441.995	3591.85
442.352	3447.23
442.71	3309.38
443.067	3250.62
443.425	2963.62
443.782	2986.22
444.139	2954.58
444.496	2663.07
444.854	2733.12
445.211	2588.49
445.568	2498.1
445.925	2461.94
446.282	2319.57
446.639	2315.05
446.996	2310.53
447.353	2310.53
447.71	2170.42
448.067	2163.64
448.424	1994.16
448.781	1973.82
449.137	1919.58
449.494	1747.84
449.851	1813.37
450.208	1646.14
450.564	1675.52
450.921	1600.95
451.278	1600.95
451.634	1691.34
451.991	1490.22
452.347	1458.58
452.704	1350.11
453.06	1424.68
453.416	1286.83
453.773	1219.04
454.129	1246.15
454.485	1291.35
454.841	1200.96
455.198	1128.64
455.554	1067.63
455.91	1006.61
456.266	1108.3
456.622	1060.85
456.978	990.79
457.334	1054.07
457.69	893.62
458.046	923
458.402	909.44
458.758	927.52
459.114	857.46
459.469	866.5
459.825	816.79
460.181	823.57
460.536	789.67
460.892	785.15
461.248	798.71
461.603	744.47
461.959	800.97
462.314	816.79
462.67	764.81
463.025	730.91
463.38	746.73
463.736	690.24
464.091	721.87
464.446	735.43
464.802	703.8
465.157	699.28
465.512	735.43
465.867	672.16
466.222	620.18
466.577	651.82
466.932	617.92
467.287	665.38
467.642	593.06
467.997	622.44
468.352	611.14
468.707	599.84
469.062	554.65
469.417	654.08
469.771	523.01
470.126	579.5
470.481	543.35
470.835	543.35
471.19	593.06
471.544	563.69
471.899	595.32
472.253	599.84
472.608	541.09
472.962	595.32
473.317	502.67
473.671	511.71
474.025	538.83
474.38	509.45
474.734	565.95
475.088	586.28
475.442	541.09
475.796	559.17
476.15	457.47
476.504	516.23
476.858	581.76
477.212	518.49
477.566	525.27
477.92	482.33
478.274	584.02
478.628	532.05
478.982	568.21
479.336	570.47
479.689	565.95
480.043	452.95
480.397	493.63
480.75	473.29
481.104	484.59
481.457	455.21
481.811	502.67
482.164	448.43
482.518	520.75
482.871	534.31
483.225	443.91
483.578	412.28
483.931	468.77
484.284	498.15
484.638	471.03
484.991	464.25
485.344	518.49
485.697	507.19
486.05	527.53
486.403	446.17
486.756	486.85
487.109	400.98
487.462	437.14
487.815	459.73
488.168	489.11
488.52	471.03
488.873	423.58
489.226	486.85
489.579	457.47
489.931	434.88
490.284	477.81
490.637	527.53
490.989	376.12
491.342	434.88
491.694	473.29
492.047	403.24
492.399	421.32
492.751	380.64
493.104	518.49
493.456	382.9
493.808	450.69
494.16	378.38
494.513	385.16
494.865	484.59
495.217	432.62
495.569	452.95
495.921	443.91
496.273	423.58
496.625	398.72
496.977	421.32
497.329	477.81
497.68	457.47
498.032	421.32
498.384	432.62
498.736	364.82
499.087	414.54
499.439	495.89
499.791	439.4
500.142	376.12
500.494	410.02
500.845	391.94
501.197	432.62
501.548	378.38
501.9	380.64
502.251	396.46
502.602	403.24
502.954	389.68
503.305	394.2
503.656	441.66
504.007	414.54
504.358	410.02
504.709	382.9
505.061	480.07
505.412	421.32
505.763	378.38
506.113	396.46
506.464	412.28
506.815	441.66
507.166	419.06
507.517	441.66
507.868	419.06
508.218	412.28
508.569	421.32
508.92	441.66
509.27	407.76
509.621	428.1
509.971	457.47
510.322	349
510.672	389.68
511.023	403.24
511.373	382.9
511.723	387.42
512.074	452.95
512.424	448.43
512.774	416.8
513.124	407.76
513.475	423.58
513.825	432.62
514.175	389.68
514.525	432.62
514.875	450.69
515.225	461.99
515.575	412.28
515.924	405.5
516.274	475.55
516.624	360.3
516.974	441.66
517.324	432.62
517.673	439.4
518.023	446.17
518.373	407.76
518.722	473.29
519.072	471.03
519.421	358.04
519.771	419.06
520.12	391.94
520.469	482.33
520.819	500.41
521.168	457.47
521.517	461.99
521.867	437.14
522.216	432.62
522.565	473.29
522.914	455.21
523.263	457.47
523.612	414.54
523.961	394.2
524.31	425.84
524.659	405.5
525.008	358.04
525.357	448.43
525.705	419.06
526.054	416.8
526.403	457.47
526.752	421.32
527.1	446.17
527.449	482.33
527.797	434.88
528.146	423.58
528.495	482.33
528.843	471.03
529.191	405.5
529.54	439.4
529.888	382.9
530.236	428.1
530.585	477.81
530.933	484.59
531.281	394.2
531.629	407.76
531.977	407.76
532.325	389.68
532.673	425.84
533.021	455.21
533.369	371.6
533.717	423.58
534.065	423.58
534.413	362.56
534.761	412.28
535.108	405.5
535.456	437.14
535.804	371.6
536.151	389.68
536.499	364.82
536.847	346.74
537.194	394.2
537.542	437.14
537.889	382.9
538.236	468.77
538.584	380.64
538.931	364.82
539.278	346.74
539.626	380.64
539.973	405.5
540.32	396.46
540.667	369.34
541.014	378.38
541.361	412.28
541.708	391.94
542.055	328.66
542.402	360.3
542.749	385.16
543.096	416.8
543.443	423.58
543.789	452.95
544.136	346.74
544.483	423.58
544.83	407.76
545.176	441.66
545.523	330.92
545.869	400.98
546.216	394.2
546.562	405.5
546.909	333.18
547.255	355.78
547.601	385.16
547.948	464.25
548.294	367.08
548.64	371.6
548.986	410.02
549.332	360.3
549.678	387.42
550.025	410.02
550.371	326.4
550.717	378.38
551.062	391.94
551.408	335.44
551.754	391.94
552.1	306.07
552.446	373.86
552.792	342.22
553.137	412.28
553.483	412.28
553.828	371.6
554.174	369.34
554.52	403.24
554.865	432.62
555.211	344.48
555.556	367.08
555.901	351.26
556.247	360.3
556.592	303.81
556.937	351.26
557.282	407.76
557.628	326.4
557.973	355.78
558.318	308.33
558.663	321.88
559.008	389.68
559.353	380.64
559.698	349
560.043	344.48
560.388	344.48
560.732	373.86
561.077	344.48
561.422	337.7
561.766	312.84
562.111	315.1
562.456	389.68
562.8	335.44
563.145	333.18
563.489	362.56
563.834	376.12
564.178	382.9
564.523	321.88
564.867	443.91
565.211	412.28
565.555	364.82
565.9	394.2
566.244	387.42
566.588	387.42
566.932	358.04
567.276	369.34
567.62	346.74
567.964	285.73
568.308	281.21
568.652	312.84
568.996	407.76
569.339	335.44
569.683	364.82
570.027	335.44
570.371	364.82
570.714	360.3
571.058	360.3
571.401	382.9
571.745	364.82
572.088	369.34
572.432	328.66
572.775	364.82
573.118	303.81
573.462	376.12
573.805	349
574.148	380.64
574.491	351.26
574.835	428.1
575.178	367.08
575.521	351.26
575.864	290.25
576.207	403.24
576.55	283.47
576.892	344.48
577.235	355.78
577.578	310.59
577.921	355.78
578.264	351.26
578.606	353.52
578.949	353.52
579.292	378.38
579.634	353.52
579.977	346.74
580.319	385.16
580.662	335.44
581.004	360.3
581.346	342.22
581.689	294.77
582.031	294.77
582.373	297.03
582.715	349
583.057	351.26
583.4	410.02
583.742	378.38
584.084	351.26
584.426	308.33
584.768	249.57
585.109	346.74
585.451	294.77
585.793	349
586.135	364.82
586.477	333.18
586.818	339.96
587.16	355.78
587.502	312.84
587.843	410.02
588.185	394.2
588.526	299.29
588.868	319.62
589.209	276.69
589.55	349
589.892	308.33
590.233	387.42
590.574	317.36
590.915	349
591.257	328.66
591.598	371.6
591.939	287.99
592.28	285.73
592.621	317.36
592.962	380.64
593.303	414.54
593.643	349
593.984	287.99
594.325	330.92
594.666	335.44
595.006	301.55
595.347	367.08
595.688	326.4
596.028	297.03
596.369	312.84
596.709	308.33
597.05	267.65
597.39	349
597.73	292.51
598.071	315.1
598.411	414.54
598.751	274.43
599.091	321.88
599.431	281.21
599.772	251.83
600.112	344.48
600.452	373.86
600.792	344.48
601.132	303.81
601.471	337.7
601.811	303.81
602.151	328.66
602.491	360.3
602.831	337.7
603.17	362.56
603.51	349
603.849	326.4
604.189	287.99
604.528	319.62
604.868	355.78
605.207	351.26
605.547	369.34
605.886	337.7
606.225	324.14
606.565	337.7
606.904	337.7
607.243	324.14
607.582	333.18
607.921	292.51
608.26	362.56
608.599	292.51
608.938	283.47
609.277	308.33
609.616	272.17
609.955	324.14
610.293	317.36
610.632	292.51
610.971	299.29
611.309	263.13
611.648	306.07
611.987	292.51
612.325	290.25
612.664	306.07
613.002	344.48
613.34	303.81
613.679	351.26
614.017	330.92
614.355	333.18
614.694	260.87
615.032	396.46
615.37	333.18
615.708	335.44
616.046	315.1
616.384	256.35
616.722	317.36
617.06	342.22
617.398	321.88
617.736	267.65
618.073	324.14
618.411	346.74
618.749	321.88
619.086	312.84
619.424	317.36
619.762	376.12
620.099	364.82
620.437	312.84
620.774	344.48
621.112	326.4
621.449	349
621.786	319.62
622.123	319.62
622.461	276.69
622.798	308.33
623.135	324.14
623.472	299.29
623.809	319.62
624.146	272.17
624.483	344.48
624.82	301.55
625.157	362.56
625.494	333.18
625.83	294.77
626.167	337.7
626.504	333.18
626.841	308.33
627.177	301.55
627.514	315.1
627.85	355.78
628.187	301.55
628.523	308.33
628.86	308.33
629.196	278.95
629.532	283.47
629.869	328.66
630.205	315.1
630.541	283.47
630.877	290.25
631.213	274.43
631.549	301.55
631.885	308.33
632.221	367.08
632.557	353.52
632.893	260.87
633.229	274.43
633.564	276.69
633.9	283.47
634.236	342.22
634.572	324.14
634.907	328.66
635.243	319.62
635.578	373.86
635.914	335.44
636.249	251.83
636.585	315.1
636.92	353.52
637.255	342.22
637.59	269.91
637.926	238.27
638.261	351.26
638.596	263.13
638.931	263.13
639.266	324.14
639.601	283.47
639.936	312.84
640.271	342.22
640.606	272.17
640.94	285.73
641.275	324.14
641.61	319.62
641.945	299.29
642.279	285.73
642.614	256.35
642.948	297.03
643.283	285.73
643.617	339.96
643.952	292.51
644.286	330.92
644.62	351.26
644.955	312.84
645.289	258.61
645.623	258.61
645.957	269.91
646.291	315.1
646.625	272.17
646.959	283.47
647.293	333.18
647.627	297.03
647.961	319.62
648.295	328.66
648.629	353.52
648.962	303.81
649.296	285.73
649.63	254.09
649.963	278.95
650.297	215.67
650.63	310.59
650.964	251.83
651.297	294.77
651.631	328.66
651.964	337.7
652.297	321.88
652.631	267.65
652.964	249.57
653.297	344.48
653.63	339.96
653.963	312.84
654.296	319.62
654.629	222.45
654.962	276.69
655.295	319.62
655.628	337.7
655.961	317.36
656.293	360.3
656.626	369.34
656.959	303.81
657.291	301.55
657.624	276.69
657.956	278.95
658.289	333.18
658.621	328.66
658.954	335.44
659.286	349
659.618	272.17
659.95	263.13
660.283	301.55
660.615	245.05
660.947	283.47
661.279	272.17
661.611	287.99
661.943	317.36
662.275	240.53
662.607	260.87
662.939	260.87
663.27	267.65
663.602	263.13
663.934	281.21
664.266	260.87
664.597	337.7
664.929	333.18
665.26	344.48
665.592	330.92
665.923	315.1
666.255	265.39
666.586	326.4
666.917	344.48
667.248	382.9
667.58	312.84
667.911	400.98
668.242	283.47
668.573	217.93
668.904	269.91
669.235	278.95
669.566	308.33
669.897	269.91
670.228	251.83
670.558	274.43
670.889	310.59
671.22	265.39
671.551	301.55
671.881	217.93
672.212	351.26
672.542	306.07
672.873	260.87
673.203	256.35
673.533	358.04
673.864	342.22
674.194	229.23
674.524	308.33
674.855	297.03
675.185	287.99
675.515	217.93
675.845	319.62
676.175	303.81
676.505	287.99
676.835	287.99
677.165	333.18
677.494	301.55
677.824	367.08
678.154	263.13
678.484	297.03
678.813	260.87
679.143	324.14
679.472	317.36
679.802	315.1
680.131	335.44
680.461	369.34
680.79	287.99
681.119	242.79
681.449	256.35
681.778	233.75
682.107	301.55
682.436	306.07
682.765	245.05
683.094	333.18
683.423	292.51
683.752	328.66
684.081	281.21
684.41	278.95
684.739	224.71
685.067	283.47
685.396	301.55
685.725	297.03
686.053	339.96
686.382	258.61
686.711	317.36
687.039	308.33
687.367	297.03
687.696	274.43
688.024	308.33
688.352	276.69
688.681	278.95
689.009	308.33
689.337	324.14
689.665	258.61
689.993	267.65
690.321	245.05
690.649	258.61
690.977	276.69
691.305	215.67
691.633	256.35
691.961	233.75
692.288	290.25
692.616	274.43
692.944	272.17
693.271	303.81
693.599	349
693.926	267.65
694.254	269.91
694.581	353.52
694.908	274.43
695.236	317.36
695.563	299.29
695.89	263.13
696.217	283.47
696.544	339.96
696.871	292.51
697.198	274.43
697.525	301.55
697.852	278.95
698.179	260.87
698.506	265.39
698.833	278.95
699.16	330.92
699.486	254.09
699.813	326.4
700.139	301.55
700.466	276.69
700.793	269.91
701.119	213.41
701.445	231.49
701.772	324.14
702.098	265.39
702.424	236.01
702.75	278.95
703.077	281.21
703.403	242.79
703.729	281.21
704.055	256.35
704.381	310.59
704.707	330.92
705.033	283.47
705.358	229.23
705.684	224.71
706.01	260.87
706.336	294.77
706.661	251.83
706.987	324.14
707.312	328.66
707.638	364.82
707.963	299.29
708.289	272.17
708.614	287.99
708.939	317.36
709.265	285.73
709.59	265.39
709.915	251.83
710.24	290.25
710.565	272.17
710.89	263.13
711.215	292.51
711.54	317.36
711.865	274.43
712.19	236.01
712.515	324.14
712.839	184.03
713.164	233.75
713.489	247.31
713.813	233.75
714.138	326.4
714.462	242.79
714.787	272.17
715.111	301.55
715.435	328.66
715.76	310.59
716.084	251.83
716.408	294.77
716.732	292.51
717.056	297.03
717.381	312.84
717.705	328.66
718.028	267.65
718.352	337.7
718.676	294.77
719	274.43
719.324	335.44
719.648	333.18
719.971	312.84
720.295	319.62
720.618	260.87
720.942	238.27
721.265	258.61
721.589	326.4
721.912	306.07
722.236	292.51
722.559	272.17
722.882	321.88
723.205	283.47
723.528	263.13
723.851	306.07
724.174	283.47
724.497	292.51
724.82	301.55
725.143	260.87
725.466	269.91
725.789	224.71
726.112	303.81
726.434	269.91
726.757	301.55
727.08	297.03
727.402	274.43
727.725	226.97
728.047	301.55
728.37	233.75
728.692	306.07
729.014	342.22
729.336	276.69
729.659	335.44
729.981	337.7
730.303	197.59
730.625	319.62
730.947	263.13
731.269	294.77
731.591	208.89
731.913	254.09
732.235	274.43
732.556	274.43
732.878	297.03
733.2	312.84
733.521	303.81
733.843	308.33
734.164	247.31
734.486	315.1
734.807	251.83
735.129	265.39
735.45	263.13
735.771	312.84
736.092	312.84
736.414	222.45
736.735	335.44
737.056	240.53
737.377	229.23
737.698	247.31
738.019	267.65
738.34	308.33
738.66	292.51
738.981	351.26
739.302	263.13
739.623	274.43
739.943	274.43
740.264	258.61
740.584	281.21
740.905	265.39
741.225	310.59
741.546	324.14
741.866	330.92
742.186	297.03
742.507	299.29
742.827	224.71
743.147	269.91
743.467	278.95
743.787	281.21
744.107	251.83
744.427	245.05
744.747	283.47
745.067	281.21
745.386	299.29
745.706	301.55
746.026	326.4
746.346	263.13
746.665	358.04
746.985	297.03
747.304	346.74
747.624	260.87
747.943	245.05
748.262	303.81
748.582	333.18
748.901	254.09
749.22	310.59
749.539	254.09
749.858	292.51
750.177	315.1
750.496	297.03
750.815	238.27
751.134	312.84
751.453	281.21
751.772	256.35
752.09	299.29
752.409	297.03
752.728	292.51
753.046	294.77
753.365	281.21
753.683	260.87
754.002	351.26
754.32	292.51
754.639	281.21
754.957	328.66
755.275	242.79
755.593	287.99
755.911	269.91
756.23	319.62
756.548	285.73
756.866	328.66
757.183	276.69
757.501	256.35
757.819	308.33
758.137	326.4
758.455	297.03
758.772	333.18
759.09	303.81
759.408	281.21
759.725	240.53
760.043	258.61
760.36	333.18
760.677	321.88
760.995	247.31
761.312	326.4
761.629	342.22
761.946	326.4
762.264	317.36
762.581	236.01
762.898	315.1
763.215	283.47
763.532	303.81
763.848	278.95
764.165	226.97
764.482	267.65
764.799	251.83
765.115	283.47
765.432	299.29
765.749	195.33
766.065	317.36
766.382	310.59
766.698	299.29
767.014	290.25
767.331	278.95
767.647	328.66
767.963	344.48
768.279	251.83
768.595	247.31
768.911	247.31
769.227	333.18
769.543	224.71
769.859	265.39
770.175	312.84
770.491	319.62
770.807	312.84
771.122	349
771.438	290.25
771.754	292.51
772.069	371.6
772.385	301.55
772.7	360.3
773.016	269.91
773.331	245.05
773.646	297.03
773.961	315.1
774.277	258.61
774.592	260.87
774.907	269.91
775.222	303.81
775.537	303.81
775.852	287.99
776.167	202.11
776.482	233.75
776.796	294.77
777.111	269.91
777.426	276.69
777.74	321.88
778.055	285.73
778.369	260.87
778.684	303.81
778.998	240.53
779.313	249.57
779.627	328.66
779.941	333.18
780.255	312.84
780.57	265.39
780.884	226.97
781.198	274.43
781.512	215.67
781.826	315.1
782.14	283.47
782.453	269.91
782.767	330.92
783.081	263.13
783.395	335.44
783.708	240.53
784.022	247.31
784.335	274.43
784.649	260.87
784.962	312.84
785.276	321.88
785.589	245.05
785.902	303.81
786.216	294.77
786.529	299.29
786.842	247.31
787.155	242.79
787.468	263.13
787.781	330.92
788.094	236.01
788.407	303.81
788.72	267.65
789.032	256.35
789.345	301.55
789.658	278.95
789.97	269.91
790.283	217.93
790.595	297.03
790.908	287.99
791.22	278.95
791.532	226.97
791.845	278.95
792.157	315.1
792.469	297.03
792.781	238.27
793.093	256.35
793.405	326.4
793.717	267.65
794.029	385.16
794.341	278.95
794.653	238.27
794.965	292.51
795.276	315.1
795.588	274.43
795.9	265.39
796.211	278.95
796.523	283.47
796.834	278.95
797.146	267.65
797.457	301.55
797.768	260.87
798.08	267.65
798.391	254.09
798.702	297.03
799.013	278.95
799.324	317.36
799.635	226.97
799.946	240.53
800.257	297.03
800.568	303.81
800.878	297.03
801.189	310.59
801.5	292.51
801.81	285.73
802.121	301.55
802.431	342.22
802.742	306.07
803.052	321.88
803.363	278.95
803.673	290.25
803.983	308.33
804.293	326.4
804.603	263.13
804.913	263.13
805.224	285.73
805.533	333.18
805.843	258.61
806.153	258.61
806.463	330.92
806.773	308.33
807.083	265.39
807.392	263.13
807.702	299.29
808.011	299.29
808.321	251.83
808.63	292.51
808.94	269.91
809.249	285.73
809.558	337.7
809.868	233.75
810.177	292.51
810.486	242.79
810.795	319.62
811.104	303.81
811.413	256.35
811.722	231.49
812.031	344.48
812.339	272.17
812.648	276.69
812.957	283.47
813.266	238.27
813.574	324.14
813.883	285.73
814.191	306.07
814.5	251.83
814.808	236.01
815.116	292.51
815.424	292.51
815.733	337.7
816.041	276.69
816.349	278.95
816.657	272.17
816.965	254.09
817.273	299.29
817.581	251.83
817.889	292.51
818.196	301.55
818.504	303.81
818.812	247.31
819.12	245.05
819.427	276.69
819.735	312.84
820.042	263.13
820.349	278.95
820.657	315.1
820.964	310.59
821.271	269.91
821.579	294.77
821.886	306.07
822.193	294.77
822.5	274.43
822.807	303.81
823.114	274.43
823.421	267.65
823.727	272.17
824.034	285.73
824.341	339.96
824.648	308.33
824.954	301.55
825.261	315.1
825.567	247.31
825.874	315.1
826.18	258.61
826.486	297.03
826.793	240.53
827.099	306.07
827.405	254.09
827.711	294.77
828.017	267.65
828.323	308.33
828.629	229.23
828.935	215.67
829.241	328.66
829.547	324.14
829.852	283.47
830.158	267.65
830.464	369.34
830.769	342.22
831.075	308.33
831.38	265.39
831.686	269.91
831.991	330.92
832.296	276.69
832.601	254.09
832.907	260.87
833.212	265.39
833.517	274.43
833.822	290.25
834.127	278.95
834.432	256.35
834.737	251.83
835.041	306.07
835.346	251.83
835.651	287.99
835.956	256.35
836.26	306.07
836.565	278.95
836.869	251.83
837.174	301.55
837.478	303.81
837.782	260.87
838.087	265.39
838.391	249.57
838.695	333.18
838.999	303.81
839.303	231.49
839.607	315.1
839.911	312.84
840.215	272.17
840.519	321.88
840.822	242.79
841.126	324.14
841.43	287.99
841.733	283.47
842.037	242.79
842.34	283.47
842.644	333.18
842.947	283.47
843.251	294.77
843.554	306.07
843.857	287.99
844.16	245.05
844.463	274.43
844.766	211.15
845.069	308.33
845.372	278.95
845.675	285.73
845.978	396.46
846.281	269.91
846.583	353.52
846.886	263.13
847.189	229.23
847.491	278.95
847.794	287.99
848.096	319.62
848.399	299.29
848.701	312.84
849.003	319.62
849.305	292.51
849.608	310.59
849.91	242.79
850.212	297.03
850.514	254.09
850.816	274.43
851.118	274.43
851.419	285.73
851.721	278.95
852.023	285.73
852.325	294.77
852.626	299.29
852.928	274.43
853.229	281.21
853.531	344.48
853.832	258.61
854.133	294.77
854.435	333.18
854.736	285.73
855.037	276.69
855.338	283.47
855.639	335.44
855.94	299.29
856.241	333.18
856.542	242.79
856.843	222.45
857.144	299.29
857.444	321.88
857.745	256.35
858.046	297.03
858.346	281.21
858.647	265.39
858.947	240.53
859.247	285.73
859.548	278.95
859.848	260.87
860.148	215.67
860.448	249.57
860.749	195.33
861.049	276.69
861.349	292.51
861.648	260.87
861.948	240.53
862.248	211.15
862.548	260.87
862.848	265.39
863.147	310.59
863.447	292.51
863.746	281.21
864.046	324.14
864.345	274.43
864.645	342.22
864.944	306.07
865.243	306.07
865.542	292.51
865.842	260.87
866.141	274.43
866.44	283.47
866.739	319.62
867.038	204.37
867.337	222.45
867.635	328.66
867.934	263.13
868.233	272.17
868.531	290.25
868.83	236.01
869.129	272.17
869.427	328.66
869.725	299.29
870.024	226.97
870.322	339.96
870.62	324.14
870.918	249.57
871.217	272.17
871.515	303.81
871.813	272.17
872.111	256.35
872.409	274.43
872.706	290.25
873.004	317.36
873.302	269.91
873.6	278.95
873.897	328.66
874.195	310.59
874.492	226.97
874.79	281.21
875.087	306.07
875.384	233.75
875.682	256.35
875.979	287.99
876.276	260.87
876.573	349
876.87	349
877.167	349
