Data from PL_2polymer_F8BT_MEHPPV_USB2H096331_0091.txt Node
Date: Tue Dec 15 16:40:40 CET 2020
User: spadmin
Spectrometer: USB2+H09633
Trigger mode: 0
Integration Time (sec): 1.000000E-2
Scans to average: 1
Electric dark correction enabled: true
Nonlinearity correction enabled: false
Boxcar width: 0
XAxis mode: Wavelengths
Number of Pixels in Spectrum: 2048
>>>>>Begin Spectral Data<<<<<
174.027	-40.39
174.405	-40.39
174.783	-40.39
175.162	-90.11
175.54	-76.55
175.918	-114.97
176.296	-114.97
176.674	-83.33
177.052	-78.81
177.43	-24.58
177.808	-47.17
178.186	-76.55
178.564	-33.61
178.942	43.22
179.32	9.32
179.698	-35.87
180.076	70.34
180.453	56.78
180.831	29.66
181.209	92.94
181.587	45.48
181.965	147.17
182.342	90.68
182.72	237.56
183.098	212.71
183.475	237.56
183.853	269.2
184.231	208.19
184.608	226.27
184.986	226.27
185.363	321.18
185.741	298.58
186.118	264.68
186.496	282.76
186.873	239.82
187.251	334.74
187.628	343.78
188.006	321.18
188.383	361.85
188.76	300.84
189.138	316.66
189.515	266.94
189.892	285.02
190.27	348.3
190.647	391.23
191.024	350.56
191.401	280.5
191.778	303.1
192.155	285.02
192.533	359.6
192.91	341.52
193.287	305.36
193.664	327.96
194.041	251.12
194.418	280.5
194.795	275.98
195.172	323.44
195.549	246.6
195.926	364.11
196.302	312.14
196.679	334.74
197.056	285.02
197.433	307.62
197.81	289.54
198.187	269.2
198.563	273.72
198.94	323.44
199.317	255.64
199.693	298.58
200.07	300.84
200.447	257.9
200.823	314.4
201.2	296.32
201.576	348.3
201.953	300.84
202.329	307.62
202.706	239.82
203.082	305.36
203.459	334.74
203.835	282.76
204.212	312.14
204.588	325.7
204.964	318.92
205.341	287.28
205.717	248.86
206.093	285.02
206.469	400.27
206.846	273.72
207.222	300.84
207.598	307.62
207.974	318.92
208.35	309.88
208.726	253.38
209.102	294.06
209.479	298.58
209.855	269.2
210.231	334.74
210.607	370.89
210.982	332.48
211.358	321.18
211.734	300.84
212.11	305.36
212.486	361.85
212.862	282.76
213.238	355.08
213.614	343.78
213.989	339.26
214.365	298.58
214.741	332.48
215.116	244.34
215.492	330.22
215.868	269.2
216.243	278.24
216.619	269.2
216.995	305.36
217.37	318.92
217.746	239.82
218.121	303.1
218.497	330.22
218.872	361.85
219.247	312.14
219.623	307.62
219.998	323.44
220.374	300.84
220.749	280.5
221.124	273.72
221.499	289.54
221.875	330.22
222.25	352.82
222.625	305.36
223	309.88
223.376	325.7
223.751	294.06
224.126	318.92
224.501	303.1
224.876	361.85
225.251	343.78
225.626	309.88
226.001	278.24
226.376	312.14
226.751	366.37
227.126	291.8
227.501	312.14
227.875	305.36
228.25	346.04
228.625	323.44
229	357.34
229.375	366.37
229.749	280.5
230.124	269.2
230.499	334.74
230.873	318.92
231.248	332.48
231.623	341.52
231.997	289.54
232.372	314.4
232.746	253.38
233.121	327.96
233.495	323.44
233.87	307.62
234.244	316.66
234.619	370.89
234.993	321.18
235.367	352.82
235.742	289.54
236.116	305.36
236.49	316.66
236.865	350.56
237.239	325.7
237.613	334.74
237.987	384.45
238.361	357.34
238.736	300.84
239.11	275.98
239.484	300.84
239.858	370.89
240.232	350.56
240.606	296.32
240.98	309.88
241.354	312.14
241.728	341.52
242.102	330.22
242.475	334.74
242.849	337
243.223	314.4
243.597	298.58
243.971	312.14
244.344	334.74
244.718	332.48
245.092	305.36
245.466	343.78
245.839	379.93
246.213	296.32
246.586	260.16
246.96	352.82
247.334	382.19
247.707	323.44
248.081	291.8
248.454	341.52
248.828	357.34
249.201	332.48
249.574	370.89
249.948	339.26
250.321	377.67
250.694	339.26
251.068	307.62
251.441	346.04
251.814	269.2
252.187	327.96
252.561	357.34
252.934	314.4
253.307	377.67
253.68	337
254.053	314.4
254.426	337
254.799	370.89
255.172	368.63
255.545	386.71
255.918	346.04
256.291	364.11
256.664	307.62
257.037	361.85
257.41	379.93
257.782	368.63
258.155	359.6
258.528	339.26
258.901	368.63
259.273	305.36
259.646	321.18
260.019	370.89
260.391	393.49
260.764	332.48
261.137	398.01
261.509	339.26
261.882	370.89
262.254	307.62
262.627	282.76
262.999	321.18
263.372	364.11
263.744	325.7
264.116	366.37
264.489	323.44
264.861	391.23
265.233	330.22
265.606	348.3
265.978	391.23
266.35	398.01
266.722	404.79
267.094	314.4
267.467	312.14
267.839	398.01
268.211	294.06
268.583	422.87
268.955	388.97
269.327	337
269.699	352.82
270.071	422.87
270.443	361.85
270.815	407.05
271.186	316.66
271.558	368.63
271.93	413.83
272.302	343.78
272.674	382.19
273.045	388.97
273.417	341.52
273.789	409.31
274.16	402.53
274.532	384.45
274.904	352.82
275.275	343.78
275.647	350.56
276.018	393.49
276.39	357.34
276.761	400.27
277.133	343.78
277.504	357.34
277.875	386.71
278.247	361.85
278.618	418.35
278.989	407.05
279.361	384.45
279.732	366.37
280.103	386.71
280.474	384.45
280.846	418.35
281.217	352.82
281.588	337
281.959	404.79
282.33	325.7
282.701	357.34
283.072	418.35
283.443	325.7
283.814	395.75
284.185	350.56
284.556	434.17
284.927	361.85
285.297	370.89
285.668	375.41
286.039	350.56
286.41	388.97
286.781	400.27
287.151	440.95
287.522	366.37
287.893	463.55
288.263	348.3
288.634	425.13
289.004	461.29
289.375	391.23
289.745	395.75
290.116	303.1
290.486	425.13
290.857	388.97
291.227	402.53
291.598	379.93
291.968	364.11
292.338	429.65
292.709	379.93
293.079	422.87
293.449	402.53
293.819	355.08
294.189	339.26
294.56	411.57
294.93	357.34
295.3	438.69
295.67	373.15
296.04	468.07
296.41	407.05
296.78	422.87
297.15	429.65
297.52	411.57
297.89	398.01
298.259	416.09
298.629	348.3
298.999	384.45
299.369	359.6
299.739	388.97
300.108	398.01
300.478	355.08
300.848	427.39
301.217	377.67
301.587	357.34
301.957	386.71
302.326	398.01
302.696	391.23
303.065	364.11
303.435	366.37
303.804	465.81
304.174	449.99
304.543	434.17
304.912	409.31
305.282	366.37
305.651	361.85
306.02	431.91
306.39	429.65
306.759	409.31
307.128	429.65
307.497	459.03
307.866	483.89
308.235	431.91
308.604	402.53
308.974	391.23
309.343	443.21
309.712	436.43
310.08	373.15
310.449	477.11
310.818	429.65
311.187	409.31
311.556	486.15
311.925	400.27
312.294	409.31
312.662	393.49
313.031	479.37
313.4	386.71
313.769	407.05
314.137	418.35
314.506	395.75
314.874	386.71
315.243	416.09
315.612	479.37
315.98	443.21
316.349	407.05
316.717	368.63
317.085	431.91
317.454	420.61
317.822	386.71
318.191	339.26
318.559	402.53
318.927	427.39
319.295	373.15
319.664	454.51
320.032	452.25
320.4	398.01
320.768	370.89
321.136	434.17
321.504	486.15
321.872	461.29
322.24	427.39
322.608	418.35
322.976	384.45
323.344	443.21
323.712	497.44
324.08	425.13
324.448	413.83
324.816	470.33
325.183	477.11
325.551	413.83
325.919	456.77
326.287	495.18
326.654	497.44
327.022	465.81
327.389	461.29
327.757	382.19
328.125	445.47
328.492	436.43
328.86	499.7
329.227	461.29
329.594	490.67
329.962	440.95
330.329	434.17
330.697	413.83
331.064	429.65
331.431	477.11
331.798	454.51
332.166	477.11
332.533	456.77
332.9	454.51
333.267	407.05
333.634	461.29
334.001	470.33
334.368	492.92
334.735	490.67
335.102	440.95
335.469	504.22
335.836	497.44
336.203	454.51
336.57	447.73
336.937	465.81
337.304	504.22
337.67	520.04
338.037	497.44
338.404	483.89
338.771	497.44
339.137	438.69
339.504	411.57
339.87	535.86
340.237	506.48
340.604	465.81
340.97	461.29
341.337	526.82
341.703	486.15
342.069	538.12
342.436	524.56
342.802	472.59
343.169	483.89
343.535	513.26
343.901	558.46
344.267	540.38
344.634	524.56
345	490.67
345.366	513.26
345.732	443.21
346.098	547.16
346.464	533.6
346.83	479.37
347.196	479.37
347.562	499.7
347.928	490.67
348.294	515.52
348.66	549.42
349.026	459.03
349.392	549.42
349.757	556.2
350.123	547.16
350.489	565.24
350.855	506.48
351.22	605.92
351.586	633.03
351.951	540.38
352.317	549.42
352.683	556.2
353.048	538.12
353.414	531.34
353.779	553.94
354.144	508.74
354.51	587.84
354.875	535.86
355.24	601.4
355.606	544.9
355.971	583.32
356.336	601.4
356.701	608.18
357.067	578.8
357.432	651.11
357.797	601.4
358.162	623.99
358.527	562.98
358.892	565.24
359.257	585.58
359.622	619.48
359.987	660.15
360.352	581.06
360.717	732.47
361.082	608.18
361.446	648.85
361.811	696.31
362.176	709.87
362.541	644.33
362.905	696.31
363.27	723.43
363.635	698.57
363.999	642.07
364.364	696.31
364.728	691.79
365.093	718.91
365.457	705.35
365.822	680.49
366.186	723.43
366.55	784.44
366.915	784.44
367.279	716.65
367.643	761.84
368.008	750.55
368.372	786.7
368.736	764.1
369.1	827.38
369.464	770.88
369.828	852.24
370.192	800.26
370.556	818.34
370.92	940.37
371.284	843.2
371.648	849.98
372.012	904.21
372.376	863.54
372.74	947.15
373.104	947.15
373.468	1008.17
373.831	1066.92
374.195	1035.28
374.559	1005.91
374.922	1130.2
375.286	1091.78
375.65	1182.17
376.013	1184.43
376.377	1261.27
376.74	1338.1
377.104	1216.07
377.467	1351.66
377.83	1487.25
378.194	1419.45
378.557	1579.9
378.92	1607.02
379.284	1735.83
379.647	1830.74
380.01	1916.62
380.373	1993.45
380.736	2115.48
381.1	2264.63
381.463	2474.79
381.826	2544.85
382.189	2838.63
382.552	3055.57
382.915	3188.9
383.278	3335.79
383.64	3706.4
384.003	4034.07
384.366	4438.58
384.729	4684.91
385.092	5048.74
385.454	5473.58
385.817	6165.09
386.18	6571.86
386.542	7288.23
386.905	7930.02
387.268	8592.15
387.63	9559.35
387.993	10277.98
388.355	11044.06
388.718	12196.57
389.08	13299.37
389.442	14662.04
389.805	16036.02
390.167	17202.09
390.529	19012.21
390.892	21581.64
391.254	22469.75
391.616	23866.32
391.978	27061.72
392.34	30171.24
392.702	31504.54
393.064	33994.87
393.426	36315.71
393.788	38406.05
394.15	40485.09
394.512	43393.49
394.874	46286.07
395.236	49273.56
395.598	52062.19
395.96	54464.39
396.321	56622.52
396.683	58249.6
397.045	60520.73
397.406	62685.64
397.768	64186.17
398.13	65096.88
398.491	65096.88
398.853	65096.88
399.214	65096.88
399.576	65096.88
399.937	65096.88
400.299	65096.88
400.66	65096.88
401.021	65096.88
401.383	65096.88
401.744	65096.88
402.105	65096.88
402.466	65096.88
402.827	65096.88
403.189	65096.88
403.55	65096.88
403.911	65096.88
404.272	65096.88
404.633	65096.88
404.994	65096.88
405.355	65096.88
405.716	65096.88
406.077	65096.88
406.437	65096.88
406.798	65096.88
407.159	65096.88
407.52	65096.88
407.88	65096.88
408.241	65096.88
408.602	65096.88
408.962	65096.88
409.323	65096.88
409.684	65096.88
410.044	65096.88
410.405	65096.88
410.765	65096.88
411.125	65096.88
411.486	65096.88
411.846	65096.88
412.206	65096.88
412.567	65096.88
412.927	65096.88
413.287	65096.88
413.647	65096.88
414.007	65096.88
414.368	65096.88
414.728	65096.88
415.088	65096.88
415.448	65096.88
415.808	65096.88
416.168	65096.88
416.528	65096.88
416.887	65096.88
417.247	65096.88
417.607	65096.88
417.967	65096.88
418.327	64434.75
418.686	63435.9
419.046	62292.43
419.406	61338.78
419.765	60873.26
420.125	59232.62
420.484	57587.47
420.844	56733.25
421.203	55124.26
421.563	53155.95
421.922	52769.52
422.282	50130.04
422.641	48288.28
423	46297.37
423.36	44114.38
423.719	41144.96
424.078	38656.89
424.437	36580.11
424.796	34885.24
425.155	33732.73
425.515	31692.1
425.874	30539.59
426.233	27710.29
426.592	26069.65
426.95	25690
427.309	23789.49
427.668	23362.38
428.027	21534.18
428.386	21134.19
428.745	18738.77
429.103	17895.86
429.462	17125.26
429.821	15758.06
430.179	15358.07
430.538	14743.4
430.897	14329.85
431.255	13098.24
431.614	12583
431.972	12079.06
432.33	11726.53
432.689	11355.92
433.047	10888.13
433.405	10009.06
433.764	9694.94
434.122	9342.41
434.48	9062.19
434.838	8470.12
435.197	8232.83
435.555	7959.4
435.913	7582
436.271	7030.61
436.629	6951.51
436.987	6567.34
437.345	6318.76
437.703	6151.53
438.061	5771.88
438.418	5507.48
438.776	5184.33
439.134	5141.39
439.492	4854.39
439.849	4542.54
440.207	4334.63
440.565	4273.62
440.922	4063.45
441.28	3991.14
441.637	3832.95
441.995	3543.69
442.352	3525.61
442.71	3281.55
443.067	3295.11
443.425	3155
443.782	3005.85
444.139	2944.84
444.496	2829.59
444.854	2669.14
445.211	2612.64
445.568	2540.33
445.925	2429.6
446.282	2355.02
446.639	2257.85
446.996	2228.47
447.353	2323.39
447.71	2253.33
448.067	2192.32
448.424	2061.25
448.781	1909.84
449.137	1819.44
449.494	1729.05
449.851	1805.88
450.208	1726.79
450.564	1668.04
450.921	1521.15
451.278	1636.4
451.634	1527.93
451.991	1478.21
452.347	1491.77
452.704	1433.01
453.06	1351.66
453.416	1419.45
453.773	1315.5
454.129	1236.41
454.485	1261.27
454.841	1279.34
455.198	1211.55
455.554	1123.42
455.91	1125.68
456.266	1042.06
456.622	1066.92
456.978	1055.62
457.334	940.37
457.69	956.19
458.046	872.58
458.402	929.07
458.758	940.37
459.114	795.74
459.469	829.64
459.825	818.34
460.181	793.48
460.536	809.3
460.892	818.34
461.248	775.4
461.603	827.38
461.959	840.94
462.314	721.17
462.67	761.84
463.025	761.84
463.38	748.29
463.736	689.53
464.091	687.27
464.446	743.77
464.802	694.05
465.157	662.41
465.512	639.81
465.867	644.33
466.222	621.74
466.577	623.99
466.932	572.02
467.287	605.92
467.642	633.03
467.997	576.54
468.352	601.4
468.707	601.4
469.062	565.24
469.417	558.46
469.771	549.42
470.126	492.92
470.481	542.64
470.835	547.16
471.19	562.98
471.544	549.42
471.899	572.02
472.253	540.38
472.608	486.15
472.962	553.94
473.317	603.66
473.671	551.68
474.025	581.06
474.38	526.82
474.734	630.77
475.088	574.28
475.442	542.64
475.796	558.46
476.15	574.28
476.504	513.26
476.858	495.18
477.212	508.74
477.566	556.2
477.92	517.78
478.274	538.12
478.628	413.83
478.982	540.38
479.336	524.56
479.689	492.92
480.043	488.41
480.397	479.37
480.75	504.22
481.104	511
481.457	544.9
481.811	531.34
482.164	452.25
482.518	499.7
482.871	461.29
483.225	511
483.578	492.92
483.931	495.18
484.284	465.81
484.638	472.59
484.991	483.89
485.344	490.67
485.697	420.61
486.05	490.67
486.403	465.81
486.756	459.03
487.109	504.22
487.462	461.29
487.815	492.92
488.168	465.81
488.52	479.37
488.873	495.18
489.226	425.13
489.579	513.26
489.931	465.81
490.284	492.92
490.637	492.92
490.989	440.95
491.342	486.15
491.694	454.51
492.047	436.43
492.399	477.11
492.751	443.21
493.104	497.44
493.456	427.39
493.808	459.03
494.16	388.97
494.513	456.77
494.865	443.21
495.217	468.07
495.569	481.63
495.921	420.61
496.273	558.46
496.625	511
496.977	445.47
497.329	479.37
497.68	434.17
498.032	443.21
498.384	477.11
498.736	479.37
499.087	479.37
499.439	445.47
499.791	452.25
500.142	472.59
500.494	472.59
500.845	393.49
501.197	431.91
501.548	402.53
501.9	404.79
502.251	386.71
502.602	445.47
502.954	388.97
503.305	461.29
503.656	492.92
504.007	440.95
504.358	468.07
504.709	407.05
505.061	445.47
505.412	418.35
505.763	461.29
506.113	373.15
506.464	445.47
506.815	434.17
507.166	468.07
507.517	474.85
507.868	459.03
508.218	522.3
508.569	459.03
508.92	538.12
509.27	506.48
509.621	465.81
509.971	499.7
510.322	540.38
510.672	481.63
511.023	508.74
511.373	533.6
511.723	524.56
512.074	470.33
512.424	501.96
512.774	544.9
513.124	454.51
513.475	492.92
513.825	465.81
514.175	407.05
514.525	538.12
514.875	436.43
515.225	542.64
515.575	501.96
515.924	506.48
516.274	558.46
516.624	511
516.974	576.54
517.324	522.3
517.673	551.68
518.023	456.77
518.373	576.54
518.722	565.24
519.072	590.1
519.421	542.64
519.771	551.68
520.12	540.38
520.469	549.42
520.819	585.58
521.168	531.34
521.517	538.12
521.867	526.82
522.216	619.48
522.565	678.23
522.914	549.42
523.263	551.68
523.612	560.72
523.961	644.33
524.31	572.02
524.659	587.84
525.008	628.51
525.357	637.55
525.705	621.74
526.054	626.25
526.403	585.58
526.752	547.16
527.1	599.14
527.449	630.77
527.797	657.89
528.146	637.55
528.495	657.89
528.843	662.41
529.191	553.94
529.54	675.97
529.888	626.25
530.236	666.93
530.585	617.22
530.933	608.18
531.281	633.03
531.629	635.29
531.977	553.94
532.325	664.67
532.673	655.63
533.021	644.33
533.369	653.37
533.717	619.48
534.065	660.15
534.413	648.85
534.761	608.18
535.108	635.29
535.456	691.79
535.804	657.89
536.151	614.96
536.499	621.74
536.847	635.29
537.194	680.49
537.542	560.72
537.889	682.75
538.236	646.59
538.584	633.03
538.931	657.89
539.278	617.22
539.626	646.59
539.973	655.63
540.32	612.7
540.667	678.23
541.014	565.24
541.361	594.62
541.708	736.99
542.055	675.97
542.402	581.06
542.749	560.72
543.096	605.92
543.443	630.77
543.789	628.51
544.136	626.25
544.483	605.92
544.83	653.37
545.176	596.88
545.523	687.27
545.869	565.24
546.216	576.54
546.562	633.03
546.909	574.28
547.255	653.37
547.601	560.72
547.948	614.96
548.294	576.54
548.64	619.48
548.986	666.93
549.332	560.72
549.678	666.93
550.025	703.09
550.371	594.62
550.717	660.15
551.062	678.23
551.408	687.27
551.754	664.67
552.1	714.39
552.446	680.49
552.792	653.37
553.137	612.7
553.483	675.97
553.828	653.37
554.174	673.71
554.52	599.14
554.865	614.96
555.211	660.15
555.556	657.89
555.901	612.7
556.247	657.89
556.592	646.59
556.937	565.24
557.282	712.13
557.628	698.57
557.973	642.07
558.318	651.11
558.663	675.97
559.008	736.99
559.353	660.15
559.698	691.79
560.043	671.45
560.388	653.37
560.732	687.27
561.077	723.43
561.422	741.51
561.766	727.95
562.111	653.37
562.456	723.43
562.8	714.39
563.145	675.97
563.489	736.99
563.834	739.25
564.178	791.22
564.523	709.87
564.867	655.63
565.211	734.73
565.555	788.96
565.9	755.06
566.244	696.31
566.588	807.04
566.932	709.87
567.276	746.03
567.62	764.1
567.964	743.77
568.308	759.58
568.652	752.81
568.996	759.58
569.339	870.32
569.683	888.39
570.027	795.74
570.371	836.42
570.714	802.52
571.058	816.08
571.401	721.17
571.745	798
572.088	757.32
572.432	732.47
572.775	802.52
573.118	822.86
573.462	798
573.805	791.22
574.148	854.5
574.491	820.6
574.835	827.38
575.178	836.42
575.521	809.3
575.864	786.7
576.207	768.62
576.55	870.32
576.892	861.28
577.235	795.74
577.578	752.81
577.921	743.77
578.264	759.58
578.606	793.48
578.949	725.69
579.292	755.06
579.634	915.51
579.977	827.38
580.319	865.8
580.662	840.94
581.004	700.83
581.346	829.64
581.689	739.25
582.031	746.03
582.373	809.3
582.715	757.32
583.057	813.82
583.4	714.39
583.742	714.39
584.084	843.2
584.426	734.73
584.768	755.06
585.109	748.29
585.451	660.15
585.793	714.39
586.135	678.23
586.477	727.95
586.818	746.03
587.16	700.83
587.502	655.63
587.843	687.27
588.185	750.55
588.526	739.25
588.868	721.17
589.209	669.19
589.55	633.03
589.892	696.31
590.233	779.92
590.574	709.87
590.915	721.17
591.257	691.79
591.598	705.35
591.939	759.58
592.28	696.31
592.621	714.39
592.962	698.57
593.303	669.19
593.643	585.58
593.984	691.79
594.325	716.65
594.666	655.63
595.006	596.88
595.347	660.15
595.688	714.39
596.028	691.79
596.369	655.63
596.709	603.66
597.05	578.8
597.39	628.51
597.73	583.32
598.071	639.81
598.411	565.24
598.751	569.76
599.091	642.07
599.431	691.79
599.772	590.1
600.112	581.06
600.452	610.44
600.792	558.46
601.132	630.77
601.471	581.06
601.811	565.24
602.151	515.52
602.491	608.18
602.831	567.5
603.17	567.5
603.51	526.82
603.849	596.88
604.189	619.48
604.528	583.32
604.868	499.7
605.207	562.98
605.547	549.42
605.886	524.56
606.225	520.04
606.565	533.6
606.904	558.46
607.243	533.6
607.582	508.74
607.921	517.78
608.26	513.26
608.599	585.58
608.938	513.26
609.277	544.9
609.616	522.3
609.955	506.48
610.293	488.41
610.632	574.28
610.971	526.82
611.309	576.54
611.648	517.78
611.987	531.34
612.325	495.18
612.664	456.77
613.002	574.28
613.34	515.52
613.679	434.17
614.017	497.44
614.355	483.89
614.694	540.38
615.032	511
615.37	436.43
615.708	562.98
616.046	499.7
616.384	497.44
616.722	544.9
617.06	463.55
617.398	452.25
617.736	463.55
618.073	492.92
618.411	488.41
618.749	472.59
619.086	572.02
619.424	547.16
619.762	522.3
620.099	542.64
620.437	501.96
620.774	459.03
621.112	479.37
621.449	501.96
621.786	529.08
622.123	524.56
622.461	508.74
622.798	474.85
623.135	488.41
623.472	551.68
623.809	517.78
624.146	522.3
624.483	524.56
624.82	486.15
625.157	522.3
625.494	497.44
625.83	404.79
626.167	407.05
626.504	427.39
626.841	499.7
627.177	477.11
627.514	547.16
627.85	547.16
628.187	479.37
628.523	477.11
628.86	506.48
629.196	497.44
629.532	481.63
629.869	547.16
630.205	483.89
630.541	549.42
630.877	431.91
631.213	452.25
631.549	463.55
631.885	427.39
632.221	513.26
632.557	495.18
632.893	495.18
633.229	490.67
633.564	488.41
633.9	506.48
634.236	486.15
634.572	456.77
634.907	465.81
635.243	449.99
635.578	492.92
635.914	431.91
636.249	517.78
636.585	515.52
636.92	477.11
637.255	429.65
637.59	468.07
637.926	436.43
638.261	520.04
638.596	463.55
638.931	425.13
639.266	499.7
639.601	420.61
639.936	501.96
640.271	492.92
640.606	479.37
640.94	506.48
641.275	438.69
641.61	404.79
641.945	456.77
642.279	402.53
642.614	436.43
642.948	391.23
643.283	513.26
643.617	393.49
643.952	400.27
644.286	468.07
644.62	463.55
644.955	375.41
645.289	411.57
645.623	391.23
645.957	416.09
646.291	395.75
646.625	366.37
646.959	422.87
647.293	463.55
647.627	420.61
647.961	357.34
648.295	449.99
648.629	443.21
648.962	438.69
649.296	377.67
649.63	431.91
649.963	366.37
650.297	384.45
650.63	413.83
650.964	434.17
651.297	422.87
651.631	479.37
651.964	463.55
652.297	400.27
652.631	407.05
652.964	398.01
653.297	400.27
653.63	386.71
653.963	391.23
654.296	447.73
654.629	472.59
654.962	404.79
655.295	370.89
655.628	391.23
655.961	384.45
656.293	386.71
656.626	404.79
656.959	384.45
657.291	343.78
657.624	294.06
657.956	366.37
658.289	400.27
658.621	359.6
658.954	400.27
659.286	393.49
659.618	425.13
659.95	418.35
660.283	321.18
660.615	334.74
660.947	348.3
661.279	379.93
661.611	400.27
661.943	298.58
662.275	377.67
662.607	402.53
662.939	312.14
663.27	346.04
663.602	409.31
663.934	327.96
664.266	352.82
664.597	404.79
664.929	416.09
665.26	366.37
665.592	382.19
665.923	443.21
666.255	273.72
666.586	323.44
666.917	377.67
667.248	330.22
667.58	325.7
667.911	420.61
668.242	379.93
668.573	346.04
668.904	325.7
669.235	316.66
669.566	346.04
669.897	409.31
670.228	314.4
670.558	422.87
670.889	361.85
671.22	370.89
671.551	359.6
671.881	404.79
672.212	316.66
672.542	357.34
672.873	323.44
673.203	355.08
673.533	420.61
673.864	321.18
674.194	321.18
674.524	343.78
674.855	341.52
675.185	368.63
675.515	334.74
675.845	375.41
676.175	296.32
676.505	461.29
676.835	368.63
677.165	343.78
677.494	339.26
677.824	375.41
678.154	402.53
678.484	294.06
678.813	323.44
679.143	346.04
679.472	348.3
679.802	305.36
680.131	361.85
680.461	325.7
680.79	303.1
681.119	413.83
681.449	352.82
681.778	287.28
682.107	357.34
682.436	330.22
682.765	350.56
683.094	323.44
683.423	416.09
683.752	323.44
684.081	334.74
684.41	391.23
684.739	348.3
685.067	393.49
685.396	325.7
685.725	332.48
686.053	323.44
686.382	289.54
686.711	244.34
687.039	339.26
687.367	366.37
687.696	289.54
688.024	352.82
688.352	330.22
688.681	316.66
689.009	370.89
689.337	275.98
689.665	298.58
689.993	366.37
690.321	285.02
690.649	348.3
690.977	303.1
691.305	325.7
691.633	355.08
691.961	316.66
692.288	208.19
692.616	368.63
692.944	361.85
693.271	339.26
693.599	332.48
693.926	343.78
694.254	382.19
694.581	312.14
694.908	359.6
695.236	307.62
695.563	343.78
695.89	330.22
696.217	316.66
696.544	287.28
696.871	332.48
697.198	359.6
697.525	352.82
697.852	289.54
698.179	321.18
698.506	316.66
698.833	278.24
699.16	330.22
699.486	294.06
699.813	316.66
700.139	332.48
700.466	314.4
700.793	289.54
701.119	348.3
701.445	314.4
701.772	289.54
702.098	350.56
702.424	305.36
702.75	339.26
703.077	346.04
703.403	346.04
703.729	366.37
704.055	366.37
704.381	273.72
704.707	332.48
705.033	257.9
705.358	359.6
705.684	327.96
706.01	255.64
706.336	312.14
706.661	309.88
706.987	364.11
707.312	294.06
707.638	325.7
707.963	334.74
708.289	332.48
708.614	312.14
708.939	285.02
709.265	388.97
709.59	289.54
709.915	321.18
710.24	357.34
710.565	325.7
710.89	285.02
711.215	282.76
711.54	257.9
711.865	305.36
712.19	271.46
712.515	332.48
712.839	321.18
713.164	294.06
713.489	377.67
713.813	298.58
714.138	251.12
714.462	384.45
714.787	260.16
715.111	316.66
715.435	307.62
715.76	271.46
716.084	294.06
716.408	275.98
716.732	321.18
717.056	321.18
717.381	316.66
717.705	285.02
718.028	273.72
718.352	264.68
718.676	327.96
719	253.38
719.324	325.7
719.648	355.08
719.971	321.18
720.295	318.92
720.618	287.28
720.942	273.72
721.265	327.96
721.589	350.56
721.912	357.34
722.236	346.04
722.559	248.86
722.882	332.48
723.205	407.05
723.528	210.45
723.851	375.41
724.174	316.66
724.497	269.2
724.82	359.6
725.143	314.4
725.466	298.58
725.789	273.72
726.112	253.38
726.434	278.24
726.757	341.52
727.08	312.14
727.402	309.88
727.725	337
728.047	325.7
728.37	330.22
728.692	298.58
729.014	262.42
729.336	348.3
729.659	273.72
729.981	303.1
730.303	303.1
730.625	303.1
730.947	244.34
731.269	273.72
731.591	316.66
731.913	346.04
732.235	332.48
732.556	271.46
732.878	305.36
733.2	262.42
733.521	282.76
733.843	316.66
734.164	294.06
734.486	287.28
734.807	343.78
735.129	266.94
735.45	350.56
735.771	300.84
736.092	262.42
736.414	285.02
736.735	370.89
737.056	312.14
737.377	291.8
737.698	312.14
738.019	294.06
738.34	312.14
738.66	278.24
738.981	334.74
739.302	314.4
739.623	352.82
739.943	327.96
740.264	316.66
740.584	327.96
740.905	303.1
741.225	332.48
741.546	269.2
741.866	244.34
742.186	246.6
742.507	339.26
742.827	285.02
743.147	316.66
743.467	348.3
743.787	257.9
744.107	318.92
744.427	287.28
744.747	289.54
745.067	282.76
745.386	348.3
745.706	298.58
746.026	346.04
746.346	359.6
746.665	289.54
746.985	269.2
747.304	244.34
747.624	282.76
747.943	303.1
748.262	298.58
748.582	294.06
748.901	235.3
749.22	375.41
749.539	330.22
749.858	271.46
750.177	273.72
750.496	330.22
750.815	269.2
751.134	307.62
751.453	280.5
751.772	294.06
752.09	291.8
752.409	348.3
752.728	337
753.046	289.54
753.365	291.8
753.683	237.56
754.002	271.46
754.32	275.98
754.639	291.8
754.957	312.14
755.275	350.56
755.593	289.54
755.911	255.64
756.23	305.36
756.548	262.42
756.866	300.84
757.183	278.24
757.501	291.8
757.819	296.32
758.137	352.82
758.455	312.14
758.772	316.66
759.09	271.46
759.408	257.9
759.725	321.18
760.043	242.08
760.36	325.7
760.677	266.94
760.995	321.18
761.312	275.98
761.629	260.16
761.946	300.84
762.264	364.11
762.581	285.02
762.898	280.5
763.215	246.6
763.532	289.54
763.848	271.46
764.165	210.45
764.482	294.06
764.799	364.11
765.115	264.68
765.432	255.64
765.749	287.28
766.065	294.06
766.382	208.19
766.698	248.86
767.014	239.82
767.331	287.28
767.647	321.18
767.963	307.62
768.279	282.76
768.595	289.54
768.911	282.76
769.227	287.28
769.543	300.84
769.859	309.88
770.175	355.08
770.491	314.4
770.807	307.62
771.122	278.24
771.438	332.48
771.754	219.49
772.069	352.82
772.385	298.58
772.7	248.86
773.016	285.02
773.331	257.9
773.646	262.42
773.961	266.94
774.277	262.42
774.592	305.36
774.907	377.67
775.222	233.04
775.537	278.24
775.852	305.36
776.167	257.9
776.482	334.74
776.796	314.4
777.111	321.18
777.426	325.7
777.74	266.94
778.055	275.98
778.369	282.76
778.684	337
778.998	307.62
779.313	257.9
779.627	266.94
779.941	291.8
780.255	291.8
780.57	221.75
780.884	388.97
781.198	291.8
781.512	237.56
781.826	303.1
782.14	298.58
782.453	257.9
782.767	307.62
783.081	282.76
783.395	291.8
783.708	221.75
784.022	318.92
784.335	294.06
784.649	314.4
784.962	244.34
785.276	377.67
785.589	294.06
785.902	291.8
786.216	289.54
786.529	289.54
786.842	262.42
787.155	255.64
787.468	314.4
787.781	300.84
788.094	253.38
788.407	294.06
788.72	285.02
789.032	309.88
789.345	321.18
789.658	269.2
789.97	266.94
790.283	285.02
790.595	346.04
790.908	316.66
791.22	219.49
791.532	248.86
791.845	275.98
792.157	334.74
792.469	269.2
792.781	291.8
793.093	282.76
793.405	273.72
793.717	289.54
794.029	341.52
794.341	251.12
794.653	314.4
794.965	411.57
795.276	262.42
795.588	325.7
795.9	298.58
796.211	262.42
796.523	264.68
796.834	264.68
797.146	303.1
797.457	273.72
797.768	343.78
798.08	285.02
798.391	278.24
798.702	298.58
799.013	228.53
799.324	264.68
799.635	325.7
799.946	303.1
800.257	275.98
800.568	334.74
800.878	298.58
801.189	327.96
801.5	280.5
801.81	330.22
802.121	273.72
802.431	275.98
802.742	296.32
803.052	334.74
803.363	321.18
803.673	287.28
803.983	352.82
804.293	307.62
804.603	312.14
804.913	273.72
805.224	291.8
805.533	244.34
805.843	233.04
806.153	305.36
806.463	278.24
806.773	235.3
807.083	278.24
807.392	289.54
807.702	271.46
808.011	303.1
808.321	300.84
808.63	275.98
808.94	271.46
809.249	300.84
809.558	309.88
809.868	275.98
810.177	334.74
810.486	307.62
810.795	307.62
811.104	346.04
811.413	291.8
811.722	287.28
812.031	366.37
812.339	341.52
812.648	280.5
812.957	307.62
813.266	298.58
813.574	235.3
813.883	370.89
814.191	278.24
814.5	296.32
814.808	285.02
815.116	275.98
815.424	255.64
815.733	318.92
816.041	280.5
816.349	289.54
816.657	289.54
816.965	201.41
817.273	291.8
817.581	287.28
817.889	278.24
818.196	282.76
818.504	226.27
818.812	348.3
819.12	278.24
819.427	355.08
819.735	257.9
820.042	300.84
820.349	325.7
820.657	260.16
820.964	285.02
821.271	253.38
821.579	357.34
821.886	285.02
822.193	330.22
822.5	278.24
822.807	273.72
823.114	239.82
823.421	271.46
823.727	309.88
824.034	280.5
824.341	248.86
824.648	355.08
824.954	296.32
825.261	260.16
825.567	318.92
825.874	289.54
826.18	314.4
826.486	366.37
826.793	298.58
827.099	298.58
827.405	285.02
827.711	230.78
828.017	253.38
828.323	343.78
828.629	339.26
828.935	266.94
829.241	253.38
829.547	298.58
829.852	296.32
830.158	330.22
830.464	307.62
830.769	235.3
831.075	271.46
831.38	251.12
831.686	287.28
831.991	294.06
832.296	269.2
832.601	269.2
832.907	305.36
833.212	318.92
833.517	337
833.822	226.27
834.127	305.36
834.432	291.8
834.737	337
835.041	255.64
835.346	282.76
835.651	264.68
835.956	296.32
836.26	269.2
836.565	352.82
836.869	237.56
837.174	239.82
837.478	294.06
837.782	266.94
838.087	291.8
838.391	337
838.695	318.92
838.999	325.7
839.303	350.56
839.607	269.2
839.911	323.44
840.215	264.68
840.519	291.8
840.822	287.28
841.126	257.9
841.43	402.53
841.733	303.1
842.037	285.02
842.34	300.84
842.644	314.4
842.947	382.19
843.251	305.36
843.554	291.8
843.857	266.94
844.16	253.38
844.463	237.56
844.766	305.36
845.069	269.2
845.372	255.64
845.675	307.62
845.978	287.28
846.281	253.38
846.583	280.5
846.886	327.96
847.189	312.14
847.491	291.8
847.794	309.88
848.096	364.11
848.399	307.62
848.701	318.92
849.003	307.62
849.305	280.5
849.608	334.74
849.91	321.18
850.212	375.41
850.514	327.96
850.816	253.38
851.118	269.2
851.419	282.76
851.721	266.94
852.023	339.26
852.325	273.72
852.626	309.88
852.928	289.54
853.229	327.96
853.531	262.42
853.832	285.02
854.133	289.54
854.435	248.86
854.736	334.74
855.037	312.14
855.338	266.94
855.639	341.52
855.94	282.76
856.241	257.9
856.542	337
856.843	269.2
857.144	321.18
857.444	278.24
857.745	314.4
858.046	318.92
858.346	289.54
858.647	253.38
858.947	294.06
859.247	309.88
859.548	235.3
859.848	208.19
860.148	298.58
860.448	253.38
860.749	282.76
861.049	314.4
861.349	294.06
861.648	309.88
861.948	248.86
862.248	375.41
862.548	352.82
862.848	278.24
863.147	300.84
863.447	273.72
863.746	305.36
864.046	305.36
864.345	321.18
864.645	285.02
864.944	285.02
865.243	296.32
865.542	314.4
865.842	294.06
866.141	361.85
866.44	314.4
866.739	280.5
867.038	325.7
867.337	285.02
867.635	273.72
867.934	307.62
868.233	275.98
868.531	334.74
868.83	266.94
869.129	341.52
869.427	289.54
869.725	271.46
870.024	330.22
870.322	325.7
870.62	208.19
870.918	253.38
871.217	289.54
871.515	260.16
871.813	233.04
872.111	280.5
872.409	309.88
872.706	303.1
873.004	255.64
873.302	298.58
873.6	318.92
873.897	262.42
874.195	300.84
874.492	325.7
874.79	332.48
875.087	294.06
875.384	350.56
875.682	257.9
875.979	285.02
876.276	294.06
876.573	212.71
876.87	212.71
877.167	212.71
