Data from PL_2polymer_F8BT_MEHPPV_USB2H096331_0003.txt Node
Date: Tue Dec 15 16:40:39 CET 2020
User: spadmin
Spectrometer: USB2+H09633
Trigger mode: 0
Integration Time (sec): 1.000000E-2
Scans to average: 1
Electric dark correction enabled: true
Nonlinearity correction enabled: false
Boxcar width: 0
XAxis mode: Wavelengths
Number of Pixels in Spectrum: 2048
>>>>>Begin Spectral Data<<<<<
174.027	-58.05
174.405	-58.05
174.783	-58.05
175.162	-80.65
175.54	-44.49
175.918	-114.55
176.296	-125.84
176.674	-164.26
177.052	-134.88
177.43	-62.57
177.808	-26.41
178.186	23.3
178.564	-8.33
178.942	-12.85
179.32	-10.59
179.698	2.97
180.076	7.49
180.453	41.38
180.831	91.1
181.209	120.48
181.587	154.37
181.965	104.66
182.342	138.56
182.72	170.19
183.098	179.23
183.475	208.61
183.853	289.96
184.231	233.47
184.608	280.92
184.986	217.65
185.363	296.74
185.741	346.46
186.118	314.82
186.496	335.16
186.873	294.48
187.251	287.7
187.628	271.89
188.006	355.5
188.383	285.44
188.76	337.42
189.138	323.86
189.515	247.03
189.892	353.24
190.27	299
190.647	280.92
191.024	289.96
191.401	292.22
191.778	283.18
192.155	366.8
192.533	360.02
192.91	357.76
193.287	303.52
193.664	332.9
194.041	294.48
194.418	384.88
194.795	269.63
195.172	267.37
195.549	285.44
195.926	251.55
196.302	369.06
196.679	271.89
197.056	256.07
197.433	319.34
197.81	332.9
198.187	303.52
198.563	314.82
198.94	235.73
199.317	269.63
199.693	326.12
200.07	317.08
200.447	344.2
200.823	301.26
201.2	287.7
201.576	278.66
201.953	326.12
202.329	235.73
202.706	233.47
203.082	224.43
203.459	312.56
203.835	321.6
204.212	355.5
204.588	339.68
204.964	326.12
205.341	287.7
205.717	332.9
206.093	269.63
206.469	267.37
206.846	346.46
207.222	312.56
207.598	344.2
207.974	348.72
208.35	421.03
208.726	262.85
209.102	235.73
209.479	269.63
209.855	294.48
210.231	346.46
210.607	350.98
210.982	276.41
211.358	256.07
211.734	328.38
212.11	269.63
212.486	339.68
212.862	317.08
213.238	289.96
213.614	332.9
213.989	305.78
214.365	299
214.741	339.68
215.116	283.18
215.492	332.9
215.868	335.16
216.243	360.02
216.619	312.56
216.995	319.34
217.37	323.86
217.746	326.12
218.121	219.91
218.497	292.22
218.872	353.24
219.247	369.06
219.623	317.08
219.998	312.56
220.374	280.92
220.749	308.04
221.124	355.5
221.499	344.2
221.875	323.86
222.25	247.03
222.625	294.48
223	294.48
223.376	355.5
223.751	402.96
224.126	355.5
224.501	314.82
224.876	244.77
225.251	369.06
225.626	289.96
226.001	310.3
226.376	278.66
226.751	344.2
227.126	271.89
227.501	332.9
227.875	269.63
228.25	364.54
228.625	317.08
229	294.48
229.375	350.98
229.749	260.59
230.124	305.78
230.499	332.9
230.873	323.86
231.248	321.6
231.623	328.38
231.997	362.28
232.372	247.03
232.746	310.3
233.121	317.08
233.495	366.8
233.87	289.96
234.244	405.22
234.619	337.42
234.993	328.38
235.367	326.12
235.742	373.58
236.116	332.9
236.49	360.02
236.865	321.6
237.239	308.04
237.613	396.18
237.987	380.36
238.361	312.56
238.736	328.38
239.11	296.74
239.484	398.44
239.858	328.38
240.232	308.04
240.606	310.3
240.98	303.52
241.354	337.42
241.728	348.72
242.102	305.78
242.475	328.38
242.849	369.06
243.223	330.64
243.597	387.14
243.971	353.24
244.344	337.42
244.718	369.06
245.092	332.9
245.466	371.32
245.839	369.06
246.213	317.08
246.586	305.78
246.96	328.38
247.334	341.94
247.707	375.84
248.081	350.98
248.454	326.12
248.828	411.99
249.201	366.8
249.574	364.54
249.948	355.5
250.321	310.3
250.694	299
251.068	357.76
251.441	339.68
251.814	355.5
252.187	328.38
252.561	382.62
252.934	319.34
253.307	364.54
253.68	350.98
254.053	384.88
254.426	418.77
254.799	330.64
255.172	369.06
255.545	341.94
255.918	425.55
256.291	350.98
256.664	344.2
257.037	364.54
257.41	312.56
257.782	341.94
258.155	339.68
258.528	355.5
258.901	360.02
259.273	357.76
259.646	353.24
260.019	299
260.391	341.94
260.764	346.46
261.137	350.98
261.509	328.38
261.882	305.78
262.254	425.55
262.627	346.46
262.999	366.8
263.372	335.16
263.744	350.98
264.116	330.64
264.489	357.76
264.861	256.07
265.233	350.98
265.606	312.56
265.978	357.76
266.35	378.1
266.722	323.86
267.094	364.54
267.467	303.52
267.839	328.38
268.211	350.98
268.583	335.16
268.955	332.9
269.327	344.2
269.699	350.98
270.071	362.28
270.443	348.72
270.815	346.46
271.186	375.84
271.558	407.48
271.93	280.92
272.302	382.62
272.674	353.24
273.045	421.03
273.417	407.48
273.789	393.92
274.16	380.36
274.532	369.06
274.904	301.26
275.275	337.42
275.647	360.02
276.018	337.42
276.39	350.98
276.761	416.51
277.133	434.59
277.504	387.14
277.875	398.44
278.247	378.1
278.618	407.48
278.989	319.34
279.361	425.55
279.732	387.14
280.103	362.28
280.474	378.1
280.846	314.82
281.217	378.1
281.588	391.66
281.959	393.92
282.33	360.02
282.701	366.8
283.072	398.44
283.443	373.58
283.814	366.8
284.185	335.16
284.556	427.81
284.927	402.96
285.297	369.06
285.668	369.06
286.039	350.98
286.41	346.46
286.781	378.1
287.151	348.72
287.522	407.48
287.893	362.28
288.263	425.55
288.634	350.98
289.004	355.5
289.375	411.99
289.745	389.4
290.116	369.06
290.486	369.06
290.857	350.98
291.227	360.02
291.598	357.76
291.968	436.85
292.338	402.96
292.709	391.66
293.079	387.14
293.449	396.18
293.819	371.32
294.189	319.34
294.56	312.56
294.93	396.18
295.3	294.48
295.67	362.28
296.04	346.46
296.41	364.54
296.78	378.1
297.15	346.46
297.52	366.8
297.89	371.32
298.259	470.75
298.629	360.02
298.999	337.42
299.369	432.33
299.739	335.16
300.108	407.48
300.478	373.58
300.848	421.03
301.217	421.03
301.587	391.66
301.957	387.14
302.326	348.72
302.696	360.02
303.065	371.32
303.435	391.66
303.804	427.81
304.174	378.1
304.543	434.59
304.912	362.28
305.282	436.85
305.651	382.62
306.02	414.25
306.39	427.81
306.759	369.06
307.128	421.03
307.497	396.18
307.866	432.33
308.235	425.55
308.604	409.73
308.974	398.44
309.343	355.5
309.712	384.88
310.08	427.81
310.449	441.37
310.818	407.48
311.187	418.77
311.556	443.63
311.925	430.07
312.294	423.29
312.662	482.05
313.031	402.96
313.4	405.22
313.769	387.14
314.137	477.53
314.506	470.75
314.874	495.61
315.243	445.89
315.612	445.89
315.98	432.33
316.349	357.76
316.717	470.75
317.085	448.15
317.454	387.14
317.822	393.92
318.191	434.59
318.559	411.99
318.927	418.77
319.295	439.11
319.664	371.32
320.032	484.31
320.4	484.31
320.768	405.22
321.136	436.85
321.504	414.25
321.872	486.57
322.24	407.48
322.608	427.81
322.976	491.09
323.344	443.63
323.712	430.07
324.08	459.45
324.448	459.45
324.816	416.51
325.183	450.41
325.551	409.73
325.919	402.96
326.287	432.33
326.654	434.59
327.022	486.57
327.389	434.59
327.757	457.19
328.125	398.44
328.492	479.79
328.86	459.45
329.227	439.11
329.594	402.96
329.962	466.23
330.329	477.53
330.697	459.45
331.064	448.15
331.431	491.09
331.798	402.96
332.166	468.49
332.533	459.45
332.9	457.19
333.267	484.31
333.634	421.03
334.001	355.5
334.368	482.05
334.735	497.87
335.102	482.05
335.469	500.13
335.836	466.23
336.203	436.85
336.57	493.35
336.937	497.87
337.304	468.49
337.67	497.87
338.037	448.15
338.404	391.66
338.771	461.71
339.137	506.91
339.504	536.29
339.87	522.73
340.237	461.71
340.604	522.73
340.97	425.55
341.337	486.57
341.703	454.93
342.069	450.41
342.436	477.53
342.802	477.53
343.169	493.35
343.535	452.67
343.901	454.93
344.267	482.05
344.634	479.79
345	506.91
345.366	554.36
345.732	545.32
346.098	470.75
346.464	531.77
346.83	518.21
347.196	545.32
347.562	477.53
347.928	556.62
348.294	527.25
348.66	513.69
349.026	610.86
349.392	552.1
349.757	522.73
350.123	599.56
350.489	522.73
350.855	554.36
351.22	586
351.586	599.56
351.951	640.24
352.317	513.69
352.683	610.86
353.048	583.74
353.414	536.29
353.779	579.22
354.144	597.3
354.51	687.69
354.875	680.91
355.24	583.74
355.606	613.12
355.971	597.3
356.336	549.84
356.701	595.04
357.067	552.1
357.432	592.78
357.797	549.84
358.162	615.38
358.527	565.66
358.892	554.36
359.257	656.06
359.622	640.24
359.987	703.51
360.352	608.6
360.717	635.72
361.082	665.1
361.446	649.28
361.811	637.98
362.176	667.36
362.541	671.87
362.905	698.99
363.27	586
363.635	744.19
363.999	735.15
364.364	753.23
364.728	694.47
365.093	750.97
365.457	721.59
365.822	683.17
366.186	721.59
366.55	746.45
366.915	744.19
367.279	755.49
367.643	723.85
368.008	809.72
368.372	802.94
368.736	796.17
369.1	924.98
369.464	800.69
369.828	877.52
370.192	827.8
370.556	841.36
370.92	897.86
371.284	868.48
371.648	904.64
372.012	949.83
372.376	956.61
372.74	940.79
373.104	1037.97
373.468	1051.53
373.831	1010.85
374.195	1180.34
374.559	1065.08
374.922	1089.94
375.286	1101.24
375.65	1241.35
376.013	1218.75
376.377	1175.82
376.74	1257.17
377.104	1318.19
377.467	1352.08
377.83	1465.07
378.194	1526.09
378.557	1485.41
378.92	1621
379.284	1652.64
379.647	1806.31
380.01	1885.4
380.373	2020.99
380.736	2143.02
381.1	2375.78
381.463	2513.63
381.826	2669.56
382.189	2762.22
382.552	2988.2
382.915	3227.74
383.278	3564.45
383.64	3840.15
384.003	4050.32
384.366	4418.67
384.729	4716.97
385.092	5132.77
385.454	5636.72
385.817	6136.14
386.18	6764.37
386.542	7345.15
386.905	7914.62
387.268	8807.25
387.63	9724.74
387.993	10273.88
388.355	11180.07
388.718	12606.02
389.08	13491.88
389.442	14703.14
389.805	16138.13
390.167	17358.44
390.529	18960.66
390.892	21491.67
391.254	22838.52
391.616	24757.12
391.978	27523.15
392.34	29832.69
392.702	31410.05
393.064	34397.54
393.426	36569.24
393.788	38944.31
394.15	40844.83
394.512	43789.39
394.874	46372.37
395.236	49834.42
395.598	52388.03
395.96	54586.84
396.321	56674.92
396.683	58439.85
397.045	60973.11
397.406	62810.35
397.768	64356.08
398.13	65095.04
398.491	65095.04
398.853	65095.04
399.214	65095.04
399.576	65095.04
399.937	65095.04
400.299	65095.04
400.66	65095.04
401.021	65095.04
401.383	65095.04
401.744	65095.04
402.105	65095.04
402.466	65095.04
402.827	65095.04
403.189	65095.04
403.55	65095.04
403.911	65095.04
404.272	65095.04
404.633	65095.04
404.994	65095.04
405.355	65095.04
405.716	65095.04
406.077	65095.04
406.437	65095.04
406.798	65095.04
407.159	65095.04
407.52	65095.04
407.88	65095.04
408.241	65095.04
408.602	65095.04
408.962	65095.04
409.323	65095.04
409.684	65095.04
410.044	65095.04
410.405	65095.04
410.765	65095.04
411.125	65095.04
411.486	65095.04
411.846	65095.04
412.206	65095.04
412.567	65095.04
412.927	65095.04
413.287	65095.04
413.647	65095.04
414.007	65095.04
414.368	65095.04
414.728	65095.04
415.088	65095.04
415.448	65095.04
415.808	65095.04
416.168	65095.04
416.528	65095.04
416.887	65095.04
417.247	65095.04
417.607	65095.04
417.967	65095.04
418.327	64460.03
418.686	63551.58
419.046	62521.1
419.406	61560.67
419.765	61316.61
420.125	59214.97
420.484	57890.71
420.844	57097.51
421.203	55517.89
421.563	53730.37
421.922	52986.88
422.282	50489.77
422.641	48318.08
423	46281.98
423.36	44797.27
423.719	41660.63
424.078	39328.49
424.437	37529.66
424.796	35629.15
425.155	34205.46
425.515	32081.22
425.874	31315.14
426.233	27832.74
426.592	26411.31
426.95	25590.99
427.309	24160.52
427.668	23618.16
428.027	21493.93
428.386	21202.41
428.745	19157.26
429.103	17808.15
429.462	17329.06
429.821	16160.73
430.179	15399.17
430.538	15028.56
430.897	14576.59
431.255	13387.92
431.614	12777.77
431.972	12341.62
432.33	11713.39
432.689	11634.3
433.047	10759.75
433.405	10366.54
433.764	10007.22
434.122	9562.04
434.48	8942.84
434.838	8499.92
435.197	8179.02
435.555	8084.11
435.913	7727.06
436.271	7150.8
436.629	7040.07
436.987	6624.26
437.345	6405.06
437.703	6271.73
438.061	5894.34
438.418	5437.85
438.776	5272.88
439.134	5225.43
439.492	4875.15
439.849	4594.94
440.207	4603.97
440.565	4310.2
440.922	4149.75
441.28	3883.09
441.637	3822.07
441.995	3675.19
442.352	3431.12
442.71	3408.53
443.067	3234.52
443.425	3232.26
443.782	2870.69
444.139	2904.58
444.496	2854.87
444.854	2820.97
445.211	2674.08
445.568	2624.37
445.925	2459.4
446.282	2317.03
446.639	2373.53
446.996	2312.51
447.353	2307.99
447.71	2335.11
448.067	2213.08
448.424	2147.54
448.781	2011.95
449.137	1966.76
449.494	1756.59
449.851	1797.27
450.208	1679.76
450.564	1679.76
450.921	1510.27
451.278	1541.91
451.634	1616.48
451.991	1523.83
452.347	1476.37
452.704	1426.66
453.06	1413.1
453.416	1322.71
453.773	1334
454.129	1313.67
454.485	1218.75
454.841	1146.44
455.198	1180.34
455.554	1121.58
455.91	1062.83
456.266	1083.16
456.622	1056.05
456.978	992.77
457.334	974.69
457.69	992.77
458.046	940.79
458.402	893.34
458.758	859.44
459.114	861.7
459.469	934.01
459.825	843.62
460.181	791.65
460.536	796.17
460.892	773.57
461.248	852.66
461.603	798.43
461.959	750.97
462.314	750.97
462.67	771.31
463.025	793.91
463.38	676.39
463.736	750.97
464.091	744.19
464.446	660.58
464.802	626.68
465.157	649.28
465.512	712.55
465.867	696.73
466.222	712.55
466.577	601.82
466.932	671.87
467.287	622.16
467.642	656.06
467.997	590.52
468.352	705.77
468.707	601.82
469.062	615.38
469.417	601.82
469.771	617.64
470.126	581.48
470.481	583.74
470.835	567.92
471.19	581.48
471.544	583.74
471.899	567.92
472.253	538.55
472.608	586
472.962	558.88
473.317	592.78
473.671	534.03
474.025	547.58
474.38	558.88
474.734	529.51
475.088	617.64
475.442	493.35
475.796	545.32
476.15	538.55
476.504	590.52
476.858	534.03
477.212	518.21
477.566	518.21
477.92	506.91
478.274	493.35
478.628	509.17
478.982	504.65
479.336	520.47
479.689	511.43
480.043	554.36
480.397	554.36
480.75	552.1
481.104	522.73
481.457	538.55
481.811	484.31
482.164	504.65
482.518	450.41
482.871	434.59
483.225	461.71
483.578	547.58
483.931	495.61
484.284	493.35
484.638	432.33
484.991	549.84
485.344	506.91
485.697	502.39
486.05	479.79
486.403	463.97
486.756	484.31
487.109	473.01
487.462	497.87
487.815	459.45
488.168	439.11
488.52	477.53
488.873	459.45
489.226	495.61
489.579	482.05
489.931	402.96
490.284	378.1
490.637	439.11
490.989	468.49
491.342	411.99
491.694	432.33
492.047	479.79
492.399	409.73
492.751	518.21
493.104	479.79
493.456	436.85
493.808	445.89
494.16	389.4
494.513	425.55
494.865	400.7
495.217	450.41
495.569	391.66
495.921	439.11
496.273	405.22
496.625	418.77
496.977	468.49
497.329	466.23
497.68	459.45
498.032	457.19
498.384	468.49
498.736	477.53
499.087	414.25
499.439	477.53
499.791	452.67
500.142	344.2
500.494	479.79
500.845	463.97
501.197	405.22
501.548	398.44
501.9	393.92
502.251	457.19
502.602	418.77
502.954	427.81
503.305	369.06
503.656	425.55
504.007	339.68
504.358	479.79
504.709	432.33
505.061	423.29
505.412	391.66
505.763	425.55
506.113	454.93
506.464	445.89
506.815	450.41
507.166	452.67
507.517	411.99
507.868	400.7
508.218	430.07
508.569	407.48
508.92	436.85
509.27	418.77
509.621	427.81
509.971	398.44
510.322	463.97
510.672	457.19
511.023	350.98
511.373	436.85
511.723	439.11
512.074	466.23
512.424	382.62
512.774	475.27
513.124	434.59
513.475	432.33
513.825	427.81
514.175	491.09
514.525	378.1
514.875	482.05
515.225	391.66
515.575	495.61
515.924	362.28
516.274	366.8
516.624	389.4
516.974	443.63
517.324	427.81
517.673	439.11
518.023	380.36
518.373	398.44
518.722	396.18
519.072	346.46
519.421	409.73
519.771	459.45
520.12	414.25
520.469	448.15
520.819	418.77
521.168	425.55
521.517	441.37
521.867	378.1
522.216	414.25
522.565	423.29
522.914	488.83
523.263	427.81
523.612	461.71
523.961	445.89
524.31	466.23
524.659	425.55
525.008	450.41
525.357	389.4
525.705	411.99
526.054	443.63
526.403	418.77
526.752	402.96
527.1	357.76
527.449	457.19
527.797	436.85
528.146	430.07
528.495	439.11
528.843	398.44
529.191	434.59
529.54	423.29
529.888	452.67
530.236	436.85
530.585	425.55
530.933	459.45
531.281	434.59
531.629	457.19
531.977	468.49
532.325	378.1
532.673	411.99
533.021	391.66
533.369	323.86
533.717	443.63
534.065	393.92
534.413	400.7
534.761	436.85
535.108	448.15
535.456	448.15
535.804	364.54
536.151	402.96
536.499	470.75
536.847	409.73
537.194	423.29
537.542	391.66
537.889	414.25
538.236	389.4
538.584	434.59
538.931	423.29
539.278	421.03
539.626	360.02
539.973	371.32
540.32	454.93
540.667	416.51
541.014	369.06
541.361	436.85
541.708	443.63
542.055	398.44
542.402	380.36
542.749	396.18
543.096	391.66
543.443	346.46
543.789	421.03
544.136	400.7
544.483	436.85
544.83	396.18
545.176	382.62
545.523	402.96
545.869	378.1
546.216	355.5
546.562	396.18
546.909	317.08
547.255	362.28
547.601	380.36
547.948	375.84
548.294	375.84
548.64	421.03
548.986	405.22
549.332	470.75
549.678	387.14
550.025	332.9
550.371	337.42
550.717	402.96
551.062	369.06
551.408	328.38
551.754	416.51
552.1	355.5
552.446	400.7
552.792	364.54
553.137	418.77
553.483	357.76
553.828	389.4
554.174	414.25
554.52	360.02
554.865	364.54
555.211	407.48
555.556	330.64
555.901	387.14
556.247	439.11
556.592	360.02
556.937	362.28
557.282	346.46
557.628	350.98
557.973	414.25
558.318	339.68
558.663	434.59
559.008	364.54
559.353	375.84
559.698	350.98
560.043	346.46
560.388	375.84
560.732	330.64
561.077	414.25
561.422	326.12
561.766	382.62
562.111	330.64
562.456	389.4
562.8	416.51
563.145	337.42
563.489	346.46
563.834	396.18
564.178	402.96
564.523	360.02
564.867	341.94
565.211	353.24
565.555	407.48
565.9	357.76
566.244	432.33
566.588	380.36
566.932	323.86
567.276	360.02
567.62	423.29
567.964	364.54
568.308	366.8
568.652	350.98
568.996	310.3
569.339	369.06
569.683	341.94
570.027	341.94
570.371	337.42
570.714	348.72
571.058	310.3
571.401	364.54
571.745	389.4
572.088	323.86
572.432	466.23
572.775	312.56
573.118	330.64
573.462	308.04
573.805	335.16
574.148	355.5
574.491	364.54
574.835	400.7
575.178	303.52
575.521	389.4
575.864	382.62
576.207	387.14
576.55	346.46
576.892	314.82
577.235	371.32
577.578	346.46
577.921	364.54
578.264	348.72
578.606	317.08
578.949	346.46
579.292	312.56
579.634	350.98
579.977	337.42
580.319	335.16
580.662	409.73
581.004	317.08
581.346	332.9
581.689	357.76
582.031	396.18
582.373	371.32
582.715	335.16
583.057	289.96
583.4	414.25
583.742	355.5
584.084	411.99
584.426	296.74
584.768	373.58
585.109	344.2
585.451	348.72
585.793	366.8
586.135	391.66
586.477	373.58
586.818	350.98
587.16	332.9
587.502	330.64
587.843	411.99
588.185	326.12
588.526	303.52
588.868	258.33
589.209	344.2
589.55	337.42
589.892	344.2
590.233	416.51
590.574	436.85
590.915	360.02
591.257	301.26
591.598	416.51
591.939	330.64
592.28	430.07
592.621	362.28
592.962	396.18
593.303	332.9
593.643	323.86
593.984	335.16
594.325	357.76
594.666	337.42
595.006	278.66
595.347	296.74
595.688	348.72
596.028	310.3
596.369	321.6
596.709	337.42
597.05	362.28
597.39	319.34
597.73	355.5
598.071	371.32
598.411	308.04
598.751	360.02
599.091	319.34
599.431	274.15
599.772	357.76
600.112	341.94
600.452	378.1
600.792	339.68
601.132	330.64
601.471	355.5
601.811	317.08
602.151	353.24
602.491	321.6
602.831	283.18
603.17	357.76
603.51	251.55
603.849	314.82
604.189	285.44
604.528	344.2
604.868	308.04
605.207	355.5
605.547	289.96
605.886	314.82
606.225	319.34
606.565	296.74
606.904	346.46
607.243	371.32
607.582	378.1
607.921	251.55
608.26	357.76
608.599	303.52
608.938	303.52
609.277	360.02
609.616	269.63
609.955	357.76
610.293	330.64
610.632	328.38
610.971	294.48
611.309	330.64
611.648	348.72
611.987	314.82
612.325	328.38
612.664	274.15
613.002	283.18
613.34	414.25
613.679	339.68
614.017	357.76
614.355	285.44
614.694	355.5
615.032	301.26
615.37	289.96
615.708	332.9
616.046	308.04
616.384	317.08
616.722	350.98
617.06	276.41
617.398	323.86
617.736	328.38
618.073	310.3
618.411	310.3
618.749	328.38
619.086	337.42
619.424	344.2
619.762	346.46
620.099	402.96
620.437	407.48
620.774	341.94
621.112	292.22
621.449	321.6
621.786	294.48
622.123	319.34
622.461	321.6
622.798	249.29
623.135	310.3
623.472	305.78
623.809	294.48
624.146	321.6
624.483	278.66
624.82	339.68
625.157	260.59
625.494	326.12
625.83	299
626.167	319.34
626.504	373.58
626.841	332.9
627.177	294.48
627.514	402.96
627.85	396.18
628.187	348.72
628.523	292.22
628.86	366.8
629.196	321.6
629.532	296.74
629.869	323.86
630.205	369.06
630.541	269.63
630.877	423.29
631.213	323.86
631.549	346.46
631.885	299
632.221	319.34
632.557	276.41
632.893	366.8
633.229	339.68
633.564	344.2
633.9	375.84
634.236	337.42
634.572	344.2
634.907	278.66
635.243	355.5
635.578	292.22
635.914	271.89
636.249	289.96
636.585	319.34
636.92	317.08
637.255	299
637.59	283.18
637.926	274.15
638.261	335.16
638.596	308.04
638.931	328.38
639.266	301.26
639.601	321.6
639.936	350.98
640.271	301.26
640.606	308.04
640.94	326.12
641.275	305.78
641.61	323.86
641.945	314.82
642.279	289.96
642.614	317.08
642.948	292.22
643.283	260.59
643.617	308.04
643.952	253.81
644.286	253.81
644.62	267.37
644.955	253.81
645.289	269.63
645.623	326.12
645.957	319.34
646.291	364.54
646.625	353.24
646.959	339.68
647.293	337.42
647.627	323.86
647.961	380.36
648.295	308.04
648.629	373.58
648.962	326.12
649.296	407.48
649.63	323.86
649.963	294.48
650.297	321.6
650.63	348.72
650.964	299
651.297	350.98
651.631	305.78
651.964	310.3
652.297	328.38
652.631	414.25
652.964	328.38
653.297	350.98
653.63	317.08
653.963	344.2
654.296	323.86
654.629	314.82
654.962	285.44
655.295	269.63
655.628	346.46
655.961	341.94
656.293	314.82
656.626	344.2
656.959	314.82
657.291	269.63
657.624	319.34
657.956	371.32
658.289	323.86
658.621	314.82
658.954	355.5
659.286	362.28
659.618	330.64
659.95	350.98
660.283	323.86
660.615	276.41
660.947	289.96
661.279	353.24
661.611	278.66
661.943	350.98
662.275	378.1
662.607	330.64
662.939	398.44
663.27	265.11
663.602	292.22
663.934	224.43
664.266	312.56
664.597	301.26
664.929	337.42
665.26	319.34
665.592	337.42
665.923	296.74
666.255	317.08
666.586	387.14
666.917	285.44
667.248	287.7
667.58	280.92
667.911	265.11
668.242	269.63
668.573	301.26
668.904	366.8
669.235	341.94
669.566	319.34
669.897	332.9
670.228	314.82
670.558	237.99
670.889	332.9
671.22	310.3
671.551	341.94
671.881	314.82
672.212	350.98
672.542	344.2
672.873	337.42
673.203	357.76
673.533	350.98
673.864	233.47
674.194	296.74
674.524	330.64
674.855	280.92
675.185	240.25
675.515	303.52
675.845	341.94
676.175	314.82
676.505	265.11
676.835	292.22
677.165	330.64
677.494	253.81
677.824	330.64
678.154	339.68
678.484	265.11
678.813	301.26
679.143	294.48
679.472	364.54
679.802	353.24
680.131	357.76
680.461	335.16
680.79	328.38
681.119	319.34
681.449	366.8
681.778	301.26
682.107	294.48
682.436	285.44
682.765	269.63
683.094	276.41
683.423	299
683.752	323.86
684.081	360.02
684.41	256.07
684.739	332.9
685.067	287.7
685.396	337.42
685.725	335.16
686.053	335.16
686.382	332.9
686.711	339.68
687.039	247.03
687.367	332.9
687.696	287.7
688.024	276.41
688.352	341.94
688.681	256.07
689.009	240.25
689.337	303.52
689.665	314.82
689.993	321.6
690.321	265.11
690.649	274.15
690.977	348.72
691.305	344.2
691.633	267.37
691.961	267.37
692.288	262.85
692.616	301.26
692.944	280.92
693.271	274.15
693.599	319.34
693.926	258.33
694.254	339.68
694.581	276.41
694.908	256.07
695.236	292.22
695.563	321.6
695.89	346.46
696.217	310.3
696.544	308.04
696.871	314.82
697.198	317.08
697.525	262.85
697.852	287.7
698.179	296.74
698.506	299
698.833	344.2
699.16	348.72
699.486	278.66
699.813	271.89
700.139	242.51
700.466	262.85
700.793	242.51
701.119	305.78
701.445	256.07
701.772	285.44
702.098	396.18
702.424	330.64
702.75	330.64
703.077	301.26
703.403	287.7
703.729	332.9
704.055	251.55
704.381	310.3
704.707	299
705.033	269.63
705.358	353.24
705.684	310.3
706.01	341.94
706.336	271.89
706.661	332.9
706.987	285.44
707.312	326.12
707.638	274.15
707.963	292.22
708.289	292.22
708.614	366.8
708.939	312.56
709.265	228.95
709.59	274.15
709.915	299
710.24	319.34
710.565	258.33
710.89	262.85
711.215	335.16
711.54	274.15
711.865	335.16
712.19	301.26
712.515	278.66
712.839	303.52
713.164	299
713.489	247.03
713.813	247.03
714.138	339.68
714.462	274.15
714.787	355.5
715.111	262.85
715.435	274.15
715.76	237.99
716.084	321.6
716.408	283.18
716.732	353.24
717.056	226.69
717.381	260.59
717.705	274.15
718.028	312.56
718.352	280.92
718.676	206.35
719	258.33
719.324	251.55
719.648	235.73
719.971	305.78
720.295	312.56
720.618	314.82
720.942	240.25
721.265	267.37
721.589	262.85
721.912	314.82
722.236	326.12
722.559	312.56
722.882	310.3
723.205	276.41
723.528	285.44
723.851	301.26
724.174	256.07
724.497	296.74
724.82	289.96
725.143	305.78
725.466	299
725.789	269.63
726.112	280.92
726.434	274.15
726.757	310.3
727.08	271.89
727.402	287.7
727.725	326.12
728.047	276.41
728.37	247.03
728.692	292.22
729.014	278.66
729.336	283.18
729.659	240.25
729.981	321.6
730.303	335.16
730.625	289.96
730.947	301.26
731.269	323.86
731.591	323.86
731.913	314.82
732.235	319.34
732.556	346.46
732.878	344.2
733.2	285.44
733.521	317.08
733.843	314.82
734.164	360.02
734.486	244.77
734.807	321.6
735.129	287.7
735.45	292.22
735.771	253.81
736.092	292.22
736.414	240.25
736.735	321.6
737.056	312.56
737.377	278.66
737.698	224.43
738.019	369.06
738.34	305.78
738.66	330.64
738.981	310.3
739.302	319.34
739.623	296.74
739.943	310.3
740.264	296.74
740.584	350.98
740.905	292.22
741.225	278.66
741.546	296.74
741.866	285.44
742.186	285.44
742.507	283.18
742.827	235.73
743.147	312.56
743.467	276.41
743.787	360.02
744.107	328.38
744.427	253.81
744.747	260.59
745.067	371.32
745.386	323.86
745.706	267.37
746.026	317.08
746.346	228.95
746.665	217.65
746.985	305.78
747.304	337.42
747.624	319.34
747.943	267.37
748.262	305.78
748.582	296.74
748.901	262.85
749.22	337.42
749.539	344.2
749.858	285.44
750.177	339.68
750.496	296.74
750.815	283.18
751.134	303.52
751.453	274.15
751.772	317.08
752.09	330.64
752.409	269.63
752.728	262.85
753.046	296.74
753.365	269.63
753.683	265.11
754.002	285.44
754.32	199.57
754.639	251.55
754.957	346.46
755.275	328.38
755.593	332.9
755.911	283.18
756.23	267.37
756.548	337.42
756.866	280.92
757.183	321.6
757.501	317.08
757.819	296.74
758.137	321.6
758.455	258.33
758.772	317.08
759.09	326.12
759.408	247.03
759.725	251.55
760.043	247.03
760.36	341.94
760.677	292.22
760.995	265.11
761.312	269.63
761.629	247.03
761.946	292.22
762.264	278.66
762.581	278.66
762.898	267.37
763.215	371.32
763.532	326.12
763.848	274.15
764.165	305.78
764.482	276.41
764.799	278.66
765.115	346.46
765.432	271.89
765.749	294.48
766.065	323.86
766.382	373.58
766.698	301.26
767.014	346.46
767.331	312.56
767.647	357.76
767.963	312.56
768.279	292.22
768.595	303.52
768.911	240.25
769.227	274.15
769.543	323.86
769.859	292.22
770.175	240.25
770.491	308.04
770.807	337.42
771.122	326.12
771.438	260.59
771.754	274.15
772.069	312.56
772.385	296.74
772.7	296.74
773.016	299
773.331	260.59
773.646	197.31
773.961	260.59
774.277	335.16
774.592	244.77
774.907	240.25
775.222	294.48
775.537	253.81
775.852	274.15
776.167	301.26
776.482	283.18
776.796	274.15
777.111	314.82
777.426	280.92
777.74	233.47
778.055	269.63
778.369	265.11
778.684	303.52
778.998	296.74
779.313	280.92
779.627	328.38
779.941	308.04
780.255	278.66
780.57	265.11
780.884	262.85
781.198	341.94
781.512	319.34
781.826	267.37
782.14	292.22
782.453	312.56
782.767	262.85
783.081	280.92
783.395	280.92
783.708	265.11
784.022	341.94
784.335	296.74
784.649	287.7
784.962	287.7
785.276	285.44
785.589	346.46
785.902	242.51
786.216	355.5
786.529	328.38
786.842	335.16
787.155	265.11
787.468	289.96
787.781	244.77
788.094	337.42
788.407	341.94
788.72	269.63
789.032	321.6
789.345	233.47
789.658	330.64
789.97	283.18
790.283	314.82
790.595	337.42
790.908	260.59
791.22	269.63
791.532	314.82
791.845	323.86
792.157	242.51
792.469	287.7
792.781	294.48
793.093	244.77
793.405	312.56
793.717	308.04
794.029	289.96
794.341	283.18
794.653	276.41
794.965	287.7
795.276	326.12
795.588	319.34
795.9	213.13
796.211	276.41
796.523	253.81
796.834	285.44
797.146	303.52
797.457	328.38
797.768	240.25
798.08	240.25
798.391	319.34
798.702	319.34
799.013	292.22
799.324	303.52
799.635	292.22
799.946	312.56
800.257	269.63
800.568	292.22
800.878	337.42
801.189	321.6
801.5	278.66
801.81	296.74
802.121	251.55
802.431	289.96
802.742	280.92
803.052	326.12
803.363	235.73
803.673	328.38
803.983	265.11
804.293	280.92
804.603	213.13
804.913	269.63
805.224	312.56
805.533	335.16
805.843	253.81
806.153	328.38
806.463	296.74
806.773	341.94
807.083	235.73
807.392	310.3
807.702	260.59
808.011	276.41
808.321	326.12
808.63	335.16
808.94	314.82
809.249	319.34
809.558	280.92
809.868	271.89
810.177	287.7
810.486	285.44
810.795	308.04
811.104	285.44
811.413	296.74
811.722	303.52
812.031	247.03
812.339	260.59
812.648	332.9
812.957	237.99
813.266	289.96
813.574	260.59
813.883	292.22
814.191	328.38
814.5	317.08
814.808	237.99
815.116	321.6
815.424	292.22
815.733	292.22
816.041	299
816.349	299
816.657	299
816.965	296.74
817.273	278.66
817.581	249.29
817.889	296.74
818.196	276.41
818.504	310.3
818.812	258.33
819.12	321.6
819.427	294.48
819.735	253.81
820.042	308.04
820.349	287.7
820.657	296.74
820.964	199.57
821.271	339.68
821.579	219.91
821.886	317.08
822.193	256.07
822.5	301.26
822.807	222.17
823.114	301.26
823.421	321.6
823.727	262.85
824.034	299
824.341	337.42
824.648	296.74
824.954	276.41
825.261	341.94
825.567	296.74
825.874	353.24
826.18	314.82
826.486	323.86
826.793	301.26
827.099	314.82
827.405	278.66
827.711	280.92
828.017	337.42
828.323	251.55
828.629	274.15
828.935	289.96
829.241	233.47
829.547	317.08
829.852	330.64
830.158	296.74
830.464	364.54
830.769	344.2
831.075	251.55
831.38	346.46
831.686	289.96
831.991	258.33
832.296	326.12
832.601	305.78
832.907	228.95
833.212	278.66
833.517	262.85
833.822	314.82
834.127	271.89
834.432	271.89
834.737	283.18
835.041	289.96
835.346	323.86
835.651	271.89
835.956	287.7
836.26	267.37
836.565	267.37
836.869	296.74
837.174	244.77
837.478	339.68
837.782	328.38
838.087	364.54
838.391	303.52
838.695	251.55
838.999	317.08
839.303	294.48
839.607	310.3
839.911	346.46
840.215	296.74
840.519	310.3
840.822	299
841.126	285.44
841.43	312.56
841.733	208.61
842.037	312.56
842.34	319.34
842.644	312.56
842.947	339.68
843.251	285.44
843.554	265.11
843.857	299
844.16	321.6
844.463	344.2
844.766	326.12
845.069	289.96
845.372	337.42
845.675	258.33
845.978	312.56
846.281	278.66
846.583	217.65
846.886	278.66
847.189	249.29
847.491	337.42
847.794	269.63
848.096	262.85
848.399	321.6
848.701	308.04
849.003	330.64
849.305	244.77
849.608	364.54
849.91	292.22
850.212	305.78
850.514	271.89
850.816	265.11
851.118	258.33
851.419	292.22
851.721	278.66
852.023	326.12
852.325	271.89
852.626	219.91
852.928	287.7
853.229	305.78
853.531	292.22
853.832	260.59
854.133	337.42
854.435	380.36
854.736	283.18
855.037	287.7
855.338	285.44
855.639	285.44
855.94	247.03
856.241	314.82
856.542	337.42
856.843	296.74
857.144	258.33
857.444	237.99
857.745	247.03
858.046	332.9
858.346	301.26
858.647	294.48
858.947	278.66
859.247	330.64
859.548	262.85
859.848	271.89
860.148	278.66
860.448	251.55
860.749	267.37
861.049	301.26
861.349	292.22
861.648	319.34
861.948	314.82
862.248	267.37
862.548	276.41
862.848	314.82
863.147	283.18
863.447	335.16
863.746	287.7
864.046	319.34
864.345	332.9
864.645	199.57
864.944	247.03
865.243	274.15
865.542	319.34
865.842	350.98
866.141	271.89
866.44	271.89
866.739	326.12
867.038	271.89
867.337	280.92
867.635	335.16
867.934	317.08
868.233	262.85
868.531	328.38
868.83	224.43
869.129	244.77
869.427	280.92
869.725	242.51
870.024	271.89
870.322	360.02
870.62	215.39
870.918	312.56
871.217	296.74
871.515	269.63
871.813	400.7
872.111	312.56
872.409	226.69
872.706	296.74
873.004	183.75
873.302	278.66
873.6	265.11
873.897	310.3
874.195	256.07
874.492	314.82
874.79	253.81
875.087	319.34
875.384	305.78
875.682	289.96
875.979	348.72
876.276	305.78
876.573	328.38
876.87	328.38
877.167	328.38
