Data from PL_2polymer_F8BT_MEHPPV_USB2H096331_0420.txt Node
Date: Tue Dec 15 16:40:43 CET 2020
User: spadmin
Spectrometer: USB2+H09633
Trigger mode: 0
Integration Time (sec): 1.000000E-2
Scans to average: 1
Electric dark correction enabled: true
Nonlinearity correction enabled: false
Boxcar width: 0
XAxis mode: Wavelengths
Number of Pixels in Spectrum: 2048
>>>>>Begin Spectral Data<<<<<
174.027	-56.78
174.405	-56.78
174.783	-56.78
175.162	-111.01
175.54	-131.35
175.918	-111.01
176.296	-108.75
176.674	-81.64
177.052	-72.6
177.43	-79.38
177.808	-25.14
178.186	-70.34
178.564	-40.96
178.942	6.5
179.32	-16.1
179.698	49.43
180.076	35.87
180.453	51.69
180.831	44.91
181.209	119.49
181.587	85.59
181.965	101.41
182.342	144.35
182.72	194.06
183.098	212.14
183.475	246.04
183.853	223.44
184.231	239.26
184.608	259.6
184.986	291.24
185.363	307.05
185.741	298.01
186.118	316.09
186.496	316.09
186.873	309.31
187.251	239.26
187.628	327.39
188.006	325.13
188.383	325.13
188.76	340.95
189.138	329.65
189.515	336.43
189.892	279.94
190.27	365.81
190.647	275.42
191.024	420.05
191.401	325.13
191.778	374.85
192.155	318.35
192.533	331.91
192.91	270.9
193.287	293.5
193.664	354.51
194.041	313.83
194.418	311.57
194.795	304.79
195.172	311.57
195.549	243.78
195.926	304.79
196.302	298.01
196.679	298.01
197.056	334.17
197.433	311.57
197.81	325.13
198.187	270.9
198.563	313.83
198.94	275.42
199.317	318.35
199.693	277.68
200.07	243.78
200.447	259.6
200.823	307.05
201.2	275.42
201.576	309.31
201.953	275.42
202.329	275.42
202.706	259.6
203.082	325.13
203.459	243.78
203.835	223.44
204.212	313.83
204.588	336.43
204.964	255.08
205.341	336.43
205.717	295.75
206.093	318.35
206.469	336.43
206.846	273.16
207.222	277.68
207.598	320.61
207.974	345.47
208.35	277.68
208.726	279.94
209.102	354.51
209.479	320.61
209.855	288.98
210.231	293.5
210.607	295.75
210.982	309.31
211.358	347.73
211.734	361.29
212.11	300.27
212.486	318.35
212.862	372.59
213.238	307.05
213.614	365.81
213.989	302.53
214.365	345.47
214.741	255.08
215.116	311.57
215.492	343.21
215.868	309.31
216.243	318.35
216.619	232.48
216.995	307.05
217.37	334.17
217.746	345.47
218.121	307.05
218.497	309.31
218.872	304.79
219.247	340.95
219.623	304.79
219.998	347.73
220.374	388.41
220.749	309.31
221.124	304.79
221.499	288.98
221.875	268.64
222.25	329.65
222.625	288.98
223	307.05
223.376	302.53
223.751	270.9
224.126	232.48
224.501	377.11
224.876	284.46
225.251	325.13
225.626	331.91
226.001	336.43
226.376	349.99
226.751	338.69
227.126	338.69
227.501	318.35
227.875	286.72
228.25	320.61
228.625	352.25
229	334.17
229.375	266.38
229.749	279.94
230.124	309.31
230.499	304.79
230.873	266.38
231.248	379.37
231.623	334.17
231.997	331.91
232.372	336.43
232.746	325.13
233.121	343.21
233.495	383.89
233.87	336.43
234.244	361.29
234.619	311.57
234.993	370.33
235.367	338.69
235.742	340.95
236.116	370.33
236.49	347.73
236.865	291.24
237.239	359.03
237.613	311.57
237.987	374.85
238.361	336.43
238.736	327.39
239.11	347.73
239.484	300.27
239.858	365.81
240.232	361.29
240.606	356.77
240.98	347.73
241.354	261.86
241.728	347.73
242.102	340.95
242.475	300.27
242.849	336.43
243.223	307.05
243.597	365.81
243.971	277.68
244.344	365.81
244.718	293.5
245.092	383.89
245.466	334.17
245.839	334.17
246.213	352.25
246.586	331.91
246.96	338.69
247.334	379.37
247.707	313.83
248.081	347.73
248.454	248.3
248.828	368.07
249.201	338.69
249.574	345.47
249.948	345.47
250.321	331.91
250.694	340.95
251.068	363.55
251.441	381.63
251.814	356.77
252.187	370.33
252.561	322.87
252.934	304.79
253.307	293.5
253.68	413.27
254.053	381.63
254.426	327.39
254.799	370.33
255.172	363.55
255.545	401.97
255.918	331.91
256.291	291.24
256.664	298.01
257.037	370.33
257.41	370.33
257.782	273.16
258.155	379.37
258.528	354.51
258.901	340.95
259.273	359.03
259.646	392.93
260.019	352.25
260.391	365.81
260.764	386.15
261.137	309.31
261.509	401.97
261.882	404.23
262.254	302.53
262.627	295.75
262.999	325.13
263.372	422.31
263.744	313.83
264.116	302.53
264.489	334.17
264.861	309.31
265.233	331.91
265.606	309.31
265.978	370.33
266.35	365.81
266.722	304.79
267.094	379.37
267.467	399.71
267.839	343.21
268.211	356.77
268.583	372.59
268.955	381.63
269.327	352.25
269.699	408.75
270.071	343.21
270.443	347.73
270.815	343.21
271.186	392.93
271.558	313.83
271.93	343.21
272.302	334.17
272.674	404.23
273.045	365.81
273.417	347.73
273.789	352.25
274.16	316.09
274.532	411.01
274.904	429.08
275.275	386.15
275.647	397.45
276.018	381.63
276.39	368.07
276.761	359.03
277.133	381.63
277.504	399.71
277.875	383.89
278.247	390.67
278.618	343.21
278.989	397.45
279.361	336.43
279.732	349.99
280.103	374.85
280.474	322.87
280.846	349.99
281.217	435.86
281.588	325.13
281.959	338.69
282.33	460.72
282.701	401.97
283.072	406.49
283.443	354.51
283.814	426.82
284.185	401.97
284.556	336.43
284.927	415.53
285.297	415.53
285.668	399.71
286.039	392.93
286.41	329.65
286.781	372.59
287.151	343.21
287.522	374.85
287.893	352.25
288.263	359.03
288.634	377.11
289.004	386.15
289.375	327.39
289.745	307.05
290.116	411.01
290.486	386.15
290.857	329.65
291.227	395.19
291.598	334.17
291.968	381.63
292.338	426.82
292.709	377.11
293.079	392.93
293.449	340.95
293.819	377.11
294.189	417.79
294.56	363.55
294.93	397.45
295.3	411.01
295.67	440.38
296.04	325.13
296.41	386.15
296.78	386.15
297.15	340.95
297.52	334.17
297.89	413.27
298.259	406.49
298.629	309.31
298.999	438.12
299.369	302.53
299.739	429.08
300.108	388.41
300.478	386.15
300.848	429.08
301.217	415.53
301.587	433.6
301.957	386.15
302.326	429.08
302.696	340.95
303.065	381.63
303.435	429.08
303.804	329.65
304.174	417.79
304.543	401.97
304.912	379.37
305.282	383.89
305.651	392.93
306.02	429.08
306.39	420.05
306.759	406.49
307.128	422.31
307.497	415.53
307.866	392.93
308.235	302.53
308.604	417.79
308.974	406.49
309.343	392.93
309.712	444.9
310.08	374.85
310.449	345.47
310.818	426.82
311.187	415.53
311.556	390.67
311.925	379.37
312.294	388.41
312.662	465.24
313.031	435.86
313.4	422.31
313.769	462.98
314.137	415.53
314.506	481.06
314.874	447.16
315.243	408.75
315.612	544.34
315.98	453.94
316.349	368.07
316.717	465.24
317.085	433.6
317.454	374.85
317.822	422.31
318.191	499.14
318.559	451.68
318.927	381.63
319.295	426.82
319.664	363.55
320.032	379.37
320.4	406.49
320.768	435.86
321.136	512.7
321.504	408.75
321.872	359.03
322.24	377.11
322.608	426.82
322.976	458.46
323.344	413.27
323.712	413.27
324.08	508.18
324.448	406.49
324.816	374.85
325.183	386.15
325.551	514.96
325.919	397.45
326.287	411.01
326.654	435.86
327.022	512.7
327.389	458.46
327.757	433.6
328.125	433.6
328.492	415.53
328.86	453.94
329.227	483.32
329.594	474.28
329.962	408.75
330.329	453.94
330.697	483.32
331.064	440.38
331.431	456.2
331.798	496.88
332.166	438.12
332.533	496.88
332.9	460.72
333.267	478.8
333.634	519.48
334.001	478.8
334.368	447.16
334.735	508.18
335.102	431.34
335.469	494.62
335.836	524
336.203	508.18
336.57	431.34
336.937	469.76
337.304	469.76
337.67	521.74
338.037	517.22
338.404	456.2
338.771	460.72
339.137	478.8
339.504	499.14
339.87	530.78
340.237	501.4
340.604	492.36
340.97	494.62
341.337	433.6
341.703	478.8
342.069	458.46
342.436	519.48
342.802	501.4
343.169	492.36
343.535	483.32
343.901	447.16
344.267	603.09
344.634	483.32
345	512.7
345.366	517.22
345.732	501.4
346.098	560.15
346.464	499.14
346.83	537.56
347.196	501.4
347.562	519.48
347.928	539.82
348.294	519.48
348.66	521.74
349.026	524
349.392	560.15
349.757	564.67
350.123	643.77
350.489	508.18
350.855	467.5
351.22	528.52
351.586	603.09
351.951	555.64
352.317	537.56
352.683	483.32
353.048	582.75
353.414	514.96
353.779	551.12
354.144	542.08
354.51	605.35
354.875	560.15
355.24	571.45
355.606	612.13
355.971	623.43
356.336	589.53
356.701	605.35
357.067	643.77
357.432	627.95
357.797	587.27
358.162	657.33
358.527	580.49
358.892	609.87
359.257	657.33
359.622	598.57
359.987	659.59
360.352	702.52
360.717	605.35
361.082	609.87
361.446	682.19
361.811	666.37
362.176	695.74
362.541	661.85
362.905	684.45
363.27	657.33
363.635	702.52
363.999	731.9
364.364	707.04
364.728	718.34
365.093	693.48
365.457	734.16
365.822	720.6
366.186	716.08
366.55	829.07
366.915	736.42
367.279	740.94
367.643	811
368.008	713.82
368.372	815.52
368.736	783.88
369.1	822.29
369.464	783.88
369.828	815.52
370.192	896.87
370.556	824.55
370.92	899.13
371.284	919.47
371.648	971.44
372.012	978.22
372.376	908.17
372.74	1021.16
373.104	1050.54
373.468	980.48
373.831	1077.66
374.195	1057.32
374.559	1091.21
374.922	1025.68
375.286	973.7
375.65	1149.97
376.013	1220.02
376.377	1217.76
376.74	1274.26
377.104	1285.56
377.467	1375.95
377.83	1509.28
378.194	1450.53
378.557	1572.56
378.92	1622.27
379.284	1699.11
379.647	1879.89
380.01	1927.35
380.373	2065.2
380.736	2119.44
381.1	2327.34
381.463	2438.07
381.826	2668.57
382.189	2763.49
382.552	2984.95
382.915	3136.36
383.278	3459.51
383.64	3735.21
384.003	4171.36
384.366	4410.9
384.729	4838.01
385.092	5219.92
385.454	5610.87
385.817	6114.81
386.18	6618.75
386.542	7371.28
386.905	8053.74
387.268	8535.09
387.63	9832.23
387.993	10422.04
388.355	11416.37
388.718	12202.79
389.08	13353.04
389.442	14668.26
389.805	16186.86
390.167	17278.36
390.529	19124.64
390.892	21517.8
391.254	22952.79
391.616	24329.02
391.978	27336.85
392.34	30078.02
392.702	31653.12
393.064	34780.72
393.426	36446.22
393.788	38683.45
394.15	40821.24
394.512	43467.5
394.874	46238.05
395.236	49015.38
395.598	52346.36
395.96	54588.11
396.321	56470.55
396.683	58461.46
397.045	60698.69
397.406	62766.43
397.768	64375.43
398.13	65096.31
398.491	65096.31
398.853	65096.31
399.214	65096.31
399.576	65096.31
399.937	65096.31
400.299	65096.31
400.66	65096.31
401.021	65096.31
401.383	65096.31
401.744	65096.31
402.105	65096.31
402.466	65096.31
402.827	65096.31
403.189	65096.31
403.55	65096.31
403.911	65096.31
404.272	65096.31
404.633	65096.31
404.994	65096.31
405.355	65096.31
405.716	65096.31
406.077	65096.31
406.437	65096.31
406.798	65096.31
407.159	65096.31
407.52	65096.31
407.88	65096.31
408.241	65096.31
408.602	65096.31
408.962	65096.31
409.323	65096.31
409.684	65096.31
410.044	65096.31
410.405	65096.31
410.765	65096.31
411.125	65096.31
411.486	65096.31
411.846	65096.31
412.206	65096.31
412.567	65096.31
412.927	65096.31
413.287	65096.31
413.647	65096.31
414.007	65096.31
414.368	65096.31
414.728	65096.31
415.088	65096.31
415.448	65096.31
415.808	65096.31
416.168	65096.31
416.528	65096.31
416.887	65096.31
417.247	65096.31
417.607	65096.31
417.967	65096.31
418.327	64562.99
418.686	63500.87
419.046	62447.79
419.406	61424.09
419.765	61103.2
420.125	59141.67
420.484	58009.49
420.844	57150.76
421.203	54949.69
421.563	53191.54
421.922	53200.58
422.282	50301.22
422.641	48280.93
423	46380.42
423.36	44520.58
423.719	42007.65
424.078	39460.83
424.437	37268.79
424.796	35564.88
425.155	34145.71
425.515	31831.65
425.874	30658.8
426.233	27974.12
426.592	26252.13
426.95	25942.54
427.309	24152.75
427.668	23386.67
428.027	21682.76
428.386	20957.36
428.745	18641.04
429.103	17865.91
429.462	17016.22
429.821	15956.36
430.179	15402.7
430.538	14473.91
430.897	14580.13
431.255	13495.41
431.614	12806.16
431.972	12245.72
432.33	11567.77
432.689	11667.21
433.047	10722.6
433.405	10408.48
433.764	9658.22
434.122	9495.51
434.48	9077.44
434.838	8625.48
435.197	8148.66
435.555	8117.02
435.913	7714.77
436.271	7036.82
436.629	6980.32
436.987	6645.87
437.345	6388.25
437.703	6031.2
438.061	5920.47
438.418	5366.81
438.776	5091.11
439.134	5262.86
439.492	5057.21
439.849	4758.91
440.207	4428.98
440.565	4356.67
440.922	4184.92
441.28	3911.48
441.637	3798.49
441.995	3671.94
442.352	3527.31
442.71	3450.47
443.067	3330.7
443.425	3120.54
443.782	2962.35
444.139	3009.81
444.496	2797.38
444.854	2824.5
445.211	2722.81
445.568	2684.39
445.925	2478.75
446.282	2356.72
446.639	2338.64
446.996	2225.65
447.353	2325.08
447.71	2295.7
448.067	2162.37
448.424	2087.8
448.781	2047.12
449.137	1888.93
449.494	1814.36
449.851	1943.17
450.208	1737.52
450.564	1642.61
450.921	1559
451.278	1509.28
451.634	1561.26
451.991	1479.9
452.347	1511.54
452.704	1470.87
453.06	1414.37
453.416	1317.2
453.773	1369.17
454.129	1314.94
454.485	1235.84
454.841	1285.56
455.198	1145.45
455.554	1055.06
455.91	1070.88
456.266	1159.01
456.622	1125.11
456.978	1048.28
457.334	955.62
457.69	957.88
458.046	910.43
458.402	937.55
458.758	853.93
459.114	901.39
459.469	853.93
459.825	874.27
460.181	786.14
460.536	878.79
460.892	797.44
461.248	790.66
461.603	799.7
461.959	659.59
462.314	772.58
462.67	743.2
463.025	704.78
463.38	736.42
463.736	668.63
464.091	783.88
464.446	670.89
464.802	716.08
465.157	763.54
465.512	679.93
465.867	636.99
466.222	646.03
466.577	621.17
466.932	655.07
467.287	657.33
467.642	643.77
467.997	587.27
468.352	625.69
468.707	693.48
469.062	652.81
469.417	589.53
469.771	553.38
470.126	544.34
470.481	652.81
470.835	646.03
471.19	580.49
471.544	580.49
471.899	603.09
472.253	589.53
472.608	564.67
472.962	560.15
473.317	596.31
473.671	535.3
474.025	542.08
474.38	496.88
474.734	566.93
475.088	503.66
475.442	530.78
475.796	514.96
476.15	551.12
476.504	514.96
476.858	537.56
477.212	544.34
477.566	562.41
477.92	467.5
478.274	539.82
478.628	494.62
478.982	528.52
479.336	487.84
479.689	514.96
480.043	530.78
480.397	501.4
480.75	447.16
481.104	465.24
481.457	528.52
481.811	483.32
482.164	442.64
482.518	528.52
482.871	476.54
483.225	476.54
483.578	453.94
483.931	442.64
484.284	444.9
484.638	582.75
484.991	517.22
485.344	542.08
485.697	481.06
486.05	492.36
486.403	526.26
486.756	440.38
487.109	449.42
487.462	499.14
487.815	492.36
488.168	524
488.52	458.46
488.873	462.98
489.226	451.68
489.579	519.48
489.931	496.88
490.284	564.67
490.637	456.2
490.989	431.34
491.342	429.08
491.694	442.64
492.047	467.5
492.399	390.67
492.751	404.23
493.104	469.76
493.456	483.32
493.808	469.76
494.16	408.75
494.513	460.72
494.865	429.08
495.217	467.5
495.569	411.01
495.921	397.45
496.273	433.6
496.625	476.54
496.977	370.33
497.329	478.8
497.68	458.46
498.032	420.05
498.384	485.58
498.736	413.27
499.087	431.34
499.439	422.31
499.791	395.19
500.142	411.01
500.494	395.19
500.845	401.97
501.197	395.19
501.548	449.42
501.9	388.41
502.251	510.44
502.602	368.07
502.954	456.2
503.305	390.67
503.656	456.2
504.007	438.12
504.358	467.5
504.709	359.03
505.061	415.53
505.412	379.37
505.763	431.34
506.113	420.05
506.464	487.84
506.815	465.24
507.166	444.9
507.517	474.28
507.868	453.94
508.218	431.34
508.569	404.23
508.92	449.42
509.27	379.37
509.621	435.86
509.971	399.71
510.322	453.94
510.672	363.55
511.023	411.01
511.373	392.93
511.723	377.11
512.074	453.94
512.424	422.31
512.774	442.64
513.124	431.34
513.475	408.75
513.825	462.98
514.175	481.06
514.525	442.64
514.875	426.82
515.225	424.57
515.575	429.08
515.924	438.12
516.274	401.97
516.624	451.68
516.974	392.93
517.324	453.94
517.673	426.82
518.023	462.98
518.373	383.89
518.722	356.77
519.072	401.97
519.421	449.42
519.771	447.16
520.12	433.6
520.469	392.93
520.819	483.32
521.168	415.53
521.517	528.52
521.867	462.98
522.216	424.57
522.565	499.14
522.914	447.16
523.263	440.38
523.612	429.08
523.961	404.23
524.31	372.59
524.659	449.42
525.008	438.12
525.357	496.88
525.705	424.57
526.054	447.16
526.403	415.53
526.752	381.63
527.1	401.97
527.449	426.82
527.797	496.88
528.146	435.86
528.495	444.9
528.843	401.97
529.191	417.79
529.54	447.16
529.888	453.94
530.236	435.86
530.585	377.11
530.933	496.88
531.281	408.75
531.629	467.5
531.977	467.5
532.325	456.2
532.673	415.53
533.021	370.33
533.369	438.12
533.717	392.93
534.065	417.79
534.413	483.32
534.761	438.12
535.108	458.46
535.456	444.9
535.804	415.53
536.151	399.71
536.499	438.12
536.847	474.28
537.194	442.64
537.542	460.72
537.889	413.27
538.236	399.71
538.584	392.93
538.931	386.15
539.278	390.67
539.626	386.15
539.973	383.89
540.32	331.91
540.667	449.42
541.014	313.83
541.361	386.15
541.708	444.9
542.055	429.08
542.402	352.25
542.749	478.8
543.096	368.07
543.443	424.57
543.789	365.81
544.136	334.17
544.483	365.81
544.83	404.23
545.176	417.79
545.523	359.03
545.869	390.67
546.216	440.38
546.562	440.38
546.909	406.49
547.255	404.23
547.601	401.97
547.948	467.5
548.294	361.29
548.64	415.53
548.986	372.59
549.332	322.87
549.678	390.67
550.025	381.63
550.371	422.31
550.717	392.93
551.062	336.43
551.408	386.15
551.754	417.79
552.1	392.93
552.446	406.49
552.792	424.57
553.137	397.45
553.483	304.79
553.828	365.81
554.174	386.15
554.52	438.12
554.865	343.21
555.211	397.45
555.556	429.08
555.901	359.03
556.247	395.19
556.592	397.45
556.937	399.71
557.282	331.91
557.628	365.81
557.973	345.47
558.318	390.67
558.663	429.08
559.008	334.17
559.353	340.95
559.698	356.77
560.043	379.37
560.388	408.75
560.732	368.07
561.077	395.19
561.422	392.93
561.766	383.89
562.111	370.33
562.456	352.25
562.8	363.55
563.145	329.65
563.489	336.43
563.834	354.51
564.178	390.67
564.523	361.29
564.867	331.91
565.211	401.97
565.555	372.59
565.9	397.45
566.244	368.07
566.588	340.95
566.932	349.99
567.276	356.77
567.62	365.81
567.964	347.73
568.308	395.19
568.652	343.21
568.996	298.01
569.339	370.33
569.683	431.34
570.027	361.29
570.371	417.79
570.714	370.33
571.058	420.05
571.401	442.64
571.745	397.45
572.088	401.97
572.432	352.25
572.775	334.17
573.118	347.73
573.462	397.45
573.805	309.31
574.148	356.77
574.491	361.29
574.835	329.65
575.178	349.99
575.521	288.98
575.864	361.29
576.207	365.81
576.55	288.98
576.892	365.81
577.235	322.87
577.578	415.53
577.921	356.77
578.264	354.51
578.606	284.46
578.949	331.91
579.292	327.39
579.634	318.35
579.977	336.43
580.319	329.65
580.662	311.57
581.004	377.11
581.346	372.59
581.689	345.47
582.031	334.17
582.373	365.81
582.715	406.49
583.057	381.63
583.4	395.19
583.742	329.65
584.084	395.19
584.426	352.25
584.768	397.45
585.109	336.43
585.451	273.16
585.793	275.42
586.135	361.29
586.477	381.63
586.818	383.89
587.16	397.45
587.502	343.21
587.843	359.03
588.185	284.46
588.526	383.89
588.868	359.03
589.209	383.89
589.55	347.73
589.892	334.17
590.233	307.05
590.574	356.77
590.915	338.69
591.257	397.45
591.598	331.91
591.939	304.79
592.28	318.35
592.621	359.03
592.962	354.51
593.303	295.75
593.643	359.03
593.984	381.63
594.325	372.59
594.666	313.83
595.006	374.85
595.347	349.99
595.688	313.83
596.028	347.73
596.369	295.75
596.709	343.21
597.05	293.5
597.39	415.53
597.73	372.59
598.071	338.69
598.411	295.75
598.751	316.09
599.091	363.55
599.431	293.5
599.772	381.63
600.112	322.87
600.452	363.55
600.792	343.21
601.132	286.72
601.471	313.83
601.811	336.43
602.151	325.13
602.491	322.87
602.831	365.81
603.17	291.24
603.51	370.33
603.849	338.69
604.189	383.89
604.528	395.19
604.868	334.17
605.207	349.99
605.547	331.91
605.886	395.19
606.225	347.73
606.565	279.94
606.904	381.63
607.243	408.75
607.582	340.95
607.921	356.77
608.26	313.83
608.599	352.25
608.938	320.61
609.277	316.09
609.616	313.83
609.955	372.59
610.293	397.45
610.632	354.51
610.971	370.33
611.309	318.35
611.648	356.77
611.987	386.15
612.325	420.05
612.664	318.35
613.002	377.11
613.34	336.43
613.679	320.61
614.017	361.29
614.355	354.51
614.694	282.2
615.032	316.09
615.37	293.5
615.708	336.43
616.046	313.83
616.384	311.57
616.722	316.09
617.06	309.31
617.398	370.33
617.736	383.89
618.073	329.65
618.411	293.5
618.749	295.75
619.086	343.21
619.424	288.98
619.762	298.01
620.099	359.03
620.437	368.07
620.774	372.59
621.112	311.57
621.449	273.16
621.786	349.99
622.123	338.69
622.461	349.99
622.798	343.21
623.135	309.31
623.472	383.89
623.809	343.21
624.146	279.94
624.483	334.17
624.82	352.25
625.157	343.21
625.494	327.39
625.83	329.65
626.167	374.85
626.504	291.24
626.841	370.33
627.177	370.33
627.514	291.24
627.85	331.91
628.187	320.61
628.523	401.97
628.86	252.82
629.196	286.72
629.532	365.81
629.869	282.2
630.205	309.31
630.541	286.72
630.877	275.42
631.213	322.87
631.549	266.38
631.885	331.91
632.221	329.65
632.557	336.43
632.893	295.75
633.229	313.83
633.564	325.13
633.9	338.69
634.236	295.75
634.572	349.99
634.907	318.35
635.243	322.87
635.578	309.31
635.914	354.51
636.249	363.55
636.585	316.09
636.92	311.57
637.255	352.25
637.59	313.83
637.926	307.05
638.261	261.86
638.596	338.69
638.931	322.87
639.266	291.24
639.601	345.47
639.936	316.09
640.271	257.34
640.606	304.79
640.94	302.53
641.275	383.89
641.61	329.65
641.945	363.55
642.279	343.21
642.614	298.01
642.948	282.2
643.283	268.64
643.617	322.87
643.952	316.09
644.286	320.61
644.62	298.01
644.955	300.27
645.289	352.25
645.623	246.04
645.957	298.01
646.291	273.16
646.625	325.13
646.959	252.82
647.293	320.61
647.627	361.29
647.961	320.61
648.295	243.78
648.629	286.72
648.962	273.16
649.296	282.2
649.63	304.79
649.963	316.09
650.297	334.17
650.63	266.38
650.964	277.68
651.297	374.85
651.631	277.68
651.964	302.53
652.297	259.6
652.631	277.68
652.964	318.35
653.297	273.16
653.63	307.05
653.963	243.78
654.296	298.01
654.629	363.55
654.962	325.13
655.295	320.61
655.628	318.35
655.961	250.56
656.293	300.27
656.626	293.5
656.959	327.39
657.291	293.5
657.624	325.13
657.956	307.05
658.289	345.47
658.621	307.05
658.954	322.87
659.286	334.17
659.618	307.05
659.95	347.73
660.283	307.05
660.615	340.95
660.947	316.09
661.279	302.53
661.611	340.95
661.943	282.2
662.275	291.24
662.607	320.61
662.939	318.35
663.27	340.95
663.602	309.31
663.934	343.21
664.266	354.51
664.597	261.86
664.929	300.27
665.26	356.77
665.592	322.87
665.923	318.35
666.255	331.91
666.586	298.01
666.917	302.53
667.248	304.79
667.58	282.2
667.911	340.95
668.242	291.24
668.573	347.73
668.904	286.72
669.235	293.5
669.566	331.91
669.897	343.21
670.228	316.09
670.558	304.79
670.889	291.24
671.22	322.87
671.551	325.13
671.881	273.16
672.212	261.86
672.542	343.21
672.873	302.53
673.203	320.61
673.533	288.98
673.864	356.77
674.194	304.79
674.524	318.35
674.855	386.15
675.185	322.87
675.515	288.98
675.845	307.05
676.175	252.82
676.505	295.75
676.835	257.34
677.165	241.52
677.494	270.9
677.824	246.04
678.154	277.68
678.484	316.09
678.813	313.83
679.143	322.87
679.472	279.94
679.802	329.65
680.131	311.57
680.461	316.09
680.79	322.87
681.119	300.27
681.449	275.42
681.778	266.38
682.107	313.83
682.436	316.09
682.765	334.17
683.094	318.35
683.423	322.87
683.752	347.73
684.081	338.69
684.41	313.83
684.739	298.01
685.067	318.35
685.396	300.27
685.725	307.05
686.053	288.98
686.382	336.43
686.711	252.82
687.039	284.46
687.367	356.77
687.696	320.61
688.024	320.61
688.352	392.93
688.681	277.68
689.009	257.34
689.337	284.46
689.665	322.87
689.993	286.72
690.321	286.72
690.649	318.35
690.977	293.5
691.305	325.13
691.633	295.75
691.961	243.78
692.288	340.95
692.616	298.01
692.944	268.64
693.271	302.53
693.599	298.01
693.926	241.52
694.254	329.65
694.581	282.2
694.908	298.01
695.236	300.27
695.563	259.6
695.89	266.38
696.217	307.05
696.544	298.01
696.871	318.35
697.198	284.46
697.525	345.47
697.852	354.51
698.179	307.05
698.506	266.38
698.833	347.73
699.16	309.31
699.486	307.05
699.813	331.91
700.139	338.69
700.466	356.77
700.793	307.05
701.119	277.68
701.445	277.68
701.772	322.87
702.098	307.05
702.424	322.87
702.75	273.16
703.077	298.01
703.403	257.34
703.729	295.75
704.055	325.13
704.381	266.38
704.707	275.42
705.033	282.2
705.358	291.24
705.684	298.01
706.01	261.86
706.336	279.94
706.661	338.69
706.987	311.57
707.312	309.31
707.638	311.57
707.963	302.53
708.289	257.34
708.614	279.94
708.939	279.94
709.265	257.34
709.59	352.25
709.915	268.64
710.24	343.21
710.565	298.01
710.89	288.98
711.215	261.86
711.54	325.13
711.865	316.09
712.19	356.77
712.515	379.37
712.839	295.75
713.164	284.46
713.489	311.57
713.813	298.01
714.138	363.55
714.462	268.64
714.787	286.72
715.111	313.83
715.435	313.83
715.76	311.57
716.084	252.82
716.408	266.38
716.732	302.53
717.056	320.61
717.381	388.41
717.705	309.31
718.028	291.24
718.352	282.2
718.676	372.59
719	275.42
719.324	334.17
719.648	264.12
719.971	352.25
720.295	300.27
720.618	291.24
720.942	227.96
721.265	259.6
721.589	255.08
721.912	266.38
722.236	300.27
722.559	340.95
722.882	304.79
723.205	275.42
723.528	329.65
723.851	261.86
724.174	343.21
724.497	329.65
724.82	325.13
725.143	307.05
725.466	232.48
725.789	345.47
726.112	320.61
726.434	304.79
726.757	313.83
727.08	279.94
727.402	322.87
727.725	268.64
728.047	322.87
728.37	257.34
728.692	338.69
729.014	295.75
729.336	286.72
729.659	268.64
729.981	291.24
730.303	295.75
730.625	248.3
730.947	291.24
731.269	279.94
731.591	309.31
731.913	302.53
732.235	288.98
732.556	291.24
732.878	214.4
733.2	284.46
733.521	266.38
733.843	243.78
734.164	295.75
734.486	347.73
734.807	331.91
735.129	266.38
735.45	194.06
735.771	266.38
736.092	316.09
736.414	293.5
736.735	266.38
737.056	298.01
737.377	293.5
737.698	279.94
738.019	268.64
738.34	246.04
738.66	250.56
738.981	343.21
739.302	246.04
739.623	304.79
739.943	334.17
740.264	329.65
740.584	259.6
740.905	277.68
741.225	246.04
741.546	200.84
741.866	300.27
742.186	291.24
742.507	275.42
742.827	268.64
743.147	268.64
743.467	257.34
743.787	275.42
744.107	248.3
744.427	329.65
744.747	320.61
745.067	275.42
745.386	291.24
745.706	302.53
746.026	327.39
746.346	354.51
746.665	295.75
746.985	264.12
747.304	295.75
747.624	279.94
747.943	318.35
748.262	295.75
748.582	261.86
748.901	334.17
749.22	318.35
749.539	293.5
749.858	331.91
750.177	291.24
750.496	284.46
750.815	246.04
751.134	286.72
751.453	313.83
751.772	343.21
752.09	304.79
752.409	298.01
752.728	266.38
753.046	352.25
753.365	250.56
753.683	264.12
754.002	218.92
754.32	255.08
754.639	311.57
754.957	300.27
755.275	241.52
755.593	286.72
755.911	273.16
756.23	261.86
756.548	268.64
756.866	243.78
757.183	255.08
757.501	316.09
757.819	318.35
758.137	302.53
758.455	261.86
758.772	252.82
759.09	322.87
759.408	359.03
759.725	300.27
760.043	259.6
760.36	293.5
760.677	298.01
760.995	304.79
761.312	298.01
761.629	293.5
761.946	309.31
762.264	279.94
762.581	286.72
762.898	241.52
763.215	237
763.532	302.53
763.848	282.2
764.165	264.12
764.482	325.13
764.799	320.61
765.115	261.86
765.432	255.08
765.749	313.83
766.065	300.27
766.382	311.57
766.698	246.04
767.014	275.42
767.331	282.2
767.647	288.98
767.963	282.2
768.279	230.22
768.595	325.13
768.911	282.2
769.227	338.69
769.543	273.16
769.859	264.12
770.175	259.6
770.491	288.98
770.807	307.05
771.122	295.75
771.438	302.53
771.754	322.87
772.069	270.9
772.385	261.86
772.7	268.64
773.016	327.39
773.331	307.05
773.646	252.82
773.961	264.12
774.277	234.74
774.592	239.26
774.907	214.4
775.222	311.57
775.537	293.5
775.852	209.88
776.167	302.53
776.482	284.46
776.796	279.94
777.111	336.43
777.426	239.26
777.74	302.53
778.055	307.05
778.369	270.9
778.684	313.83
778.998	300.27
779.313	318.35
779.627	270.9
779.941	293.5
780.255	300.27
780.57	325.13
780.884	363.55
781.198	286.72
781.512	277.68
781.826	282.2
782.14	266.38
782.453	354.51
782.767	372.59
783.081	288.98
783.395	282.2
783.708	284.46
784.022	302.53
784.335	266.38
784.649	345.47
784.962	257.34
785.276	282.2
785.589	295.75
785.902	266.38
786.216	307.05
786.529	295.75
786.842	329.65
787.155	370.33
787.468	336.43
787.781	237
788.094	266.38
788.407	284.46
788.72	313.83
789.032	347.73
789.345	302.53
789.658	331.91
789.97	259.6
790.283	243.78
790.595	284.46
790.908	255.08
791.22	282.2
791.532	327.39
791.845	284.46
792.157	241.52
792.469	298.01
792.781	270.9
793.093	279.94
793.405	325.13
793.717	359.03
794.029	302.53
794.341	322.87
794.653	300.27
794.965	293.5
795.276	318.35
795.588	316.09
795.9	273.16
796.211	302.53
796.523	327.39
796.834	270.9
797.146	318.35
797.457	232.48
797.768	270.9
798.08	241.52
798.391	316.09
798.702	298.01
799.013	302.53
799.324	340.95
799.635	196.32
799.946	300.27
800.257	279.94
800.568	291.24
800.878	273.16
801.189	237
801.5	293.5
801.81	284.46
802.121	259.6
802.431	352.25
802.742	270.9
803.052	277.68
803.363	336.43
803.673	270.9
803.983	352.25
804.293	288.98
804.603	331.91
804.913	268.64
805.224	345.47
805.533	388.41
805.843	291.24
806.153	300.27
806.463	279.94
806.773	232.48
807.083	300.27
807.392	322.87
807.702	282.2
808.011	286.72
808.321	336.43
808.63	218.92
808.94	340.95
809.249	248.3
809.558	261.86
809.868	288.98
810.177	282.2
810.486	307.05
810.795	316.09
811.104	264.12
811.413	316.09
811.722	268.64
812.031	261.86
812.339	338.69
812.648	282.2
812.957	338.69
813.266	327.39
813.574	205.36
813.883	252.82
814.191	261.86
814.5	318.35
814.808	325.13
815.116	288.98
815.424	298.01
815.733	331.91
816.041	268.64
816.349	288.98
816.657	275.42
816.965	309.31
817.273	361.29
817.581	288.98
817.889	345.47
818.196	304.79
818.504	316.09
818.812	234.74
819.12	248.3
819.427	302.53
819.735	273.16
820.042	311.57
820.349	252.82
820.657	277.68
820.964	300.27
821.271	359.03
821.579	291.24
821.886	327.39
822.193	257.34
822.5	259.6
822.807	343.21
823.114	295.75
823.421	327.39
823.727	307.05
824.034	273.16
824.341	291.24
824.648	291.24
824.954	300.27
825.261	320.61
825.567	248.3
825.874	261.86
826.18	322.87
826.486	259.6
826.793	284.46
827.099	286.72
827.405	302.53
827.711	241.52
828.017	259.6
828.323	257.34
828.629	304.79
828.935	237
829.241	307.05
829.547	288.98
829.852	270.9
830.158	298.01
830.464	268.64
830.769	309.31
831.075	313.83
831.38	300.27
831.686	298.01
831.991	302.53
832.296	359.03
832.601	266.38
832.907	282.2
833.212	322.87
833.517	313.83
833.822	318.35
834.127	298.01
834.432	291.24
834.737	311.57
835.041	327.39
835.346	288.98
835.651	273.16
835.956	304.79
836.26	340.95
836.565	329.65
836.869	318.35
837.174	291.24
837.478	304.79
837.782	307.05
838.087	248.3
838.391	313.83
838.695	343.21
838.999	307.05
839.303	338.69
839.607	275.42
839.911	288.98
840.215	270.9
840.519	243.78
840.822	286.72
841.126	340.95
841.43	316.09
841.733	377.11
842.037	295.75
842.34	282.2
842.644	261.86
842.947	334.17
843.251	300.27
843.554	313.83
843.857	277.68
844.16	282.2
844.463	277.68
844.766	261.86
845.069	295.75
845.372	340.95
845.675	347.73
845.978	273.16
846.281	300.27
846.583	252.82
846.886	309.31
847.189	266.38
847.491	255.08
847.794	293.5
848.096	252.82
848.399	336.43
848.701	270.9
849.003	259.6
849.305	334.17
849.608	298.01
849.91	295.75
850.212	334.17
850.514	291.24
850.816	284.46
851.118	266.38
851.419	322.87
851.721	309.31
852.023	284.46
852.325	275.42
852.626	322.87
852.928	246.04
853.229	304.79
853.531	268.64
853.832	307.05
854.133	311.57
854.435	311.57
854.736	266.38
855.037	286.72
855.338	336.43
855.639	309.31
855.94	218.92
856.241	221.18
856.542	300.27
856.843	248.3
857.144	327.39
857.444	307.05
857.745	293.5
858.046	295.75
858.346	288.98
858.647	279.94
858.947	388.41
859.247	261.86
859.548	275.42
859.848	352.25
860.148	334.17
860.448	234.74
860.749	334.17
861.049	304.79
861.349	234.74
861.648	368.07
861.948	338.69
862.248	291.24
862.548	284.46
862.848	311.57
863.147	291.24
863.447	295.75
863.746	246.04
864.046	239.26
864.345	286.72
864.645	286.72
864.944	255.08
865.243	279.94
865.542	279.94
865.842	293.5
866.141	298.01
866.44	338.69
866.739	352.25
867.038	320.61
867.337	329.65
867.635	352.25
867.934	277.68
868.233	349.99
868.531	255.08
868.83	302.53
869.129	331.91
869.427	340.95
869.725	200.84
870.024	288.98
870.322	246.04
870.62	291.24
870.918	336.43
871.217	322.87
871.515	291.24
871.813	300.27
872.111	298.01
872.409	234.74
872.706	255.08
873.004	266.38
873.302	293.5
873.6	334.17
873.897	273.16
874.195	282.2
874.492	304.79
874.79	347.73
875.087	325.13
875.384	275.42
875.682	277.68
875.979	320.61
876.276	311.57
876.573	316.09
876.87	316.09
877.167	316.09
