Data from PL_2polymer_F8BT_MEHPPV_USB2H096331_0269.txt Node
Date: Tue Dec 15 16:40:42 CET 2020
User: spadmin
Spectrometer: USB2+H09633
Trigger mode: 0
Integration Time (sec): 1.000000E-2
Scans to average: 1
Electric dark correction enabled: true
Nonlinearity correction enabled: false
Boxcar width: 0
XAxis mode: Wavelengths
Number of Pixels in Spectrum: 2048
>>>>>Begin Spectral Data<<<<<
174.027	-44.91
174.405	-44.91
174.783	-44.91
175.162	-114.97
175.54	-171.46
175.918	-78.81
176.296	-178.24
176.674	-62.99
177.052	-101.41
177.43	-101.41
177.808	-72.03
178.186	-35.87
178.564	-105.93
178.942	-29.1
179.32	13.84
179.698	70.34
180.076	47.74
180.453	63.56
180.831	104.23
181.209	124.57
181.587	135.87
181.965	126.83
182.342	144.91
182.72	187.85
183.098	169.77
183.475	219.49
183.853	183.33
184.231	325.7
184.608	291.8
184.986	287.28
185.363	251.12
185.741	370.89
186.118	341.52
186.496	285.02
186.873	291.8
187.251	303.1
187.628	237.56
188.006	278.24
188.383	318.92
188.76	332.48
189.138	314.4
189.515	330.22
189.892	278.24
190.27	273.72
190.647	285.02
191.024	273.72
191.401	289.54
191.778	337
192.155	275.98
192.533	309.88
192.91	253.38
193.287	273.72
193.664	323.44
194.041	341.52
194.418	314.4
194.795	334.74
195.172	296.32
195.549	289.54
195.926	217.23
196.302	373.15
196.679	316.66
197.056	233.04
197.433	287.28
197.81	255.64
198.187	294.06
198.563	318.92
198.94	287.28
199.317	314.4
199.693	242.08
200.07	316.66
200.447	221.75
200.823	239.82
201.2	275.98
201.576	339.26
201.953	260.16
202.329	251.12
202.706	318.92
203.082	260.16
203.459	291.8
203.835	280.5
204.212	285.02
204.588	275.98
204.964	291.8
205.341	214.97
205.717	303.1
206.093	260.16
206.469	228.53
206.846	255.64
207.222	303.1
207.598	285.02
207.974	264.68
208.35	334.74
208.726	291.8
209.102	266.94
209.479	316.66
209.855	305.36
210.231	291.8
210.607	300.84
210.982	305.36
211.358	239.82
211.734	341.52
212.11	285.02
212.486	337
212.862	291.8
213.238	307.62
213.614	260.16
213.989	316.66
214.365	269.2
214.741	289.54
215.116	248.86
215.492	305.36
215.868	305.36
216.243	355.08
216.619	291.8
216.995	409.31
217.37	294.06
217.746	327.96
218.121	370.89
218.497	273.72
218.872	325.7
219.247	307.62
219.623	298.58
219.998	330.22
220.374	337
220.749	355.08
221.124	260.16
221.499	307.62
221.875	235.3
222.25	291.8
222.625	233.04
223	350.56
223.376	366.37
223.751	330.22
224.126	323.44
224.501	339.26
224.876	321.18
225.251	300.84
225.626	343.78
226.001	332.48
226.376	350.56
226.751	307.62
227.126	368.63
227.501	330.22
227.875	318.92
228.25	266.94
228.625	300.84
229	260.16
229.375	316.66
229.749	316.66
230.124	264.68
230.499	327.96
230.873	361.85
231.248	253.38
231.623	325.7
231.997	287.28
232.372	368.63
232.746	375.41
233.121	307.62
233.495	307.62
233.87	289.54
234.244	364.11
234.619	266.94
234.993	307.62
235.367	404.79
235.742	337
236.116	318.92
236.49	357.34
236.865	332.48
237.239	332.48
237.613	305.36
237.987	289.54
238.361	364.11
238.736	314.4
239.11	314.4
239.484	341.52
239.858	334.74
240.232	343.78
240.606	386.71
240.98	318.92
241.354	318.92
241.728	334.74
242.102	346.04
242.475	366.37
242.849	303.1
243.223	307.62
243.597	332.48
243.971	298.58
244.344	339.26
244.718	309.88
245.092	327.96
245.466	359.6
245.839	296.32
246.213	305.36
246.586	321.18
246.96	305.36
247.334	251.12
247.707	323.44
248.081	327.96
248.454	379.93
248.828	269.2
249.201	318.92
249.574	352.82
249.948	332.48
250.321	260.16
250.694	321.18
251.068	350.56
251.441	296.32
251.814	359.6
252.187	318.92
252.561	361.85
252.934	357.34
253.307	373.15
253.68	388.97
254.053	303.1
254.426	348.3
254.799	337
255.172	337
255.545	289.54
255.918	341.52
256.291	409.31
256.664	364.11
257.037	341.52
257.41	384.45
257.782	350.56
258.155	239.82
258.528	355.08
258.901	269.2
259.273	364.11
259.646	303.1
260.019	368.63
260.391	343.78
260.764	321.18
261.137	352.82
261.509	400.27
261.882	346.04
262.254	271.46
262.627	332.48
262.999	375.41
263.372	303.1
263.744	323.44
264.116	357.34
264.489	341.52
264.861	334.74
265.233	352.82
265.606	348.3
265.978	377.67
266.35	309.88
266.722	420.61
267.094	330.22
267.467	393.49
267.839	332.48
268.211	379.93
268.583	361.85
268.955	364.11
269.327	395.75
269.699	337
270.071	355.08
270.443	323.44
270.815	429.65
271.186	388.97
271.558	400.27
271.93	386.71
272.302	348.3
272.674	273.72
273.045	355.08
273.417	339.26
273.789	327.96
274.16	339.26
274.532	318.92
274.904	465.81
275.275	382.19
275.647	375.41
276.018	388.97
276.39	337
276.761	434.17
277.133	422.87
277.504	382.19
277.875	438.69
278.247	413.83
278.618	366.37
278.989	364.11
279.361	352.82
279.732	332.48
280.103	287.28
280.474	407.05
280.846	361.85
281.217	413.83
281.588	379.93
281.959	337
282.33	382.19
282.701	357.34
283.072	375.41
283.443	416.09
283.814	364.11
284.185	431.91
284.556	303.1
284.927	350.56
285.297	357.34
285.668	429.65
286.039	327.96
286.41	370.89
286.781	407.05
287.151	409.31
287.522	348.3
287.893	434.17
288.263	314.4
288.634	280.5
289.004	364.11
289.375	413.83
289.745	361.85
290.116	388.97
290.486	400.27
290.857	359.6
291.227	468.07
291.598	404.79
291.968	312.14
292.338	373.15
292.709	359.6
293.079	339.26
293.449	395.75
293.819	384.45
294.189	454.51
294.56	382.19
294.93	346.04
295.3	395.75
295.67	361.85
296.04	332.48
296.41	361.85
296.78	361.85
297.15	373.15
297.52	395.75
297.89	341.52
298.259	355.08
298.629	393.49
298.999	384.45
299.369	416.09
299.739	364.11
300.108	357.34
300.478	409.31
300.848	327.96
301.217	377.67
301.587	370.89
301.957	404.79
302.326	422.87
302.696	398.01
303.065	368.63
303.435	425.13
303.804	407.05
304.174	386.71
304.543	436.43
304.912	400.27
305.282	368.63
305.651	384.45
306.02	373.15
306.39	398.01
306.759	370.89
307.128	398.01
307.497	395.75
307.866	352.82
308.235	370.89
308.604	411.57
308.974	341.52
309.343	377.67
309.712	434.17
310.08	445.47
310.449	436.43
310.818	459.03
311.187	427.39
311.556	411.57
311.925	438.69
312.294	449.99
312.662	479.37
313.031	422.87
313.4	368.63
313.769	416.09
314.137	481.63
314.506	454.51
314.874	366.37
315.243	400.27
315.612	373.15
315.98	490.67
316.349	395.75
316.717	393.49
317.085	366.37
317.454	454.51
317.822	431.91
318.191	398.01
318.559	456.77
318.927	377.67
319.295	436.43
319.664	352.82
320.032	515.52
320.4	470.33
320.768	400.27
321.136	499.7
321.504	425.13
321.872	429.65
322.24	495.18
322.608	427.39
322.976	420.61
323.344	440.95
323.712	465.81
324.08	468.07
324.448	438.69
324.816	445.47
325.183	511
325.551	382.19
325.919	440.95
326.287	409.31
326.654	456.77
327.022	422.87
327.389	375.41
327.757	454.51
328.125	452.25
328.492	470.33
328.86	413.83
329.227	438.69
329.594	436.43
329.962	481.63
330.329	422.87
330.697	440.95
331.064	461.29
331.431	465.81
331.798	427.39
332.166	508.74
332.533	535.86
332.9	474.85
333.267	416.09
333.634	477.11
334.001	407.05
334.368	529.08
334.735	511
335.102	490.67
335.469	508.74
335.836	497.44
336.203	535.86
336.57	488.41
336.937	431.91
337.304	452.25
337.67	495.18
338.037	508.74
338.404	506.48
338.771	540.38
339.137	470.33
339.504	465.81
339.87	449.99
340.237	472.59
340.604	495.18
340.97	515.52
341.337	549.42
341.703	468.07
342.069	477.11
342.436	499.7
342.802	501.96
343.169	465.81
343.535	547.16
343.901	508.74
344.267	508.74
344.634	497.44
345	556.2
345.366	520.04
345.732	524.56
346.098	501.96
346.464	488.41
346.83	522.3
347.196	526.82
347.562	520.04
347.928	560.72
348.294	492.92
348.66	472.59
349.026	553.94
349.392	490.67
349.757	470.33
350.123	497.44
350.489	540.38
350.855	601.4
351.22	619.48
351.586	535.86
351.951	508.74
352.317	565.24
352.683	587.84
353.048	501.96
353.414	594.62
353.779	619.48
354.144	623.99
354.51	556.2
354.875	601.4
355.24	617.22
355.606	544.9
355.971	608.18
356.336	569.76
356.701	608.18
357.067	596.88
357.432	599.14
357.797	635.29
358.162	576.54
358.527	565.24
358.892	644.33
359.257	581.06
359.622	592.36
359.987	678.23
360.352	578.8
360.717	687.27
361.082	694.05
361.446	614.96
361.811	594.62
362.176	700.83
362.541	646.59
362.905	741.51
363.27	718.91
363.635	673.71
363.999	700.83
364.364	757.32
364.728	727.95
365.093	752.81
365.457	705.35
365.822	766.36
366.186	750.55
366.55	829.64
366.915	782.18
367.279	793.48
367.643	712.13
368.008	773.14
368.372	752.81
368.736	739.25
369.1	816.08
369.464	820.6
369.828	825.12
370.192	870.32
370.556	883.88
370.92	863.54
371.284	892.91
371.648	825.12
372.012	953.93
372.376	915.51
372.74	974.27
373.104	994.61
373.468	1066.92
373.831	1073.7
374.195	1062.4
374.559	1069.18
374.922	1094.04
375.286	1057.88
375.65	1166.35
376.013	1222.85
376.377	1209.29
376.74	1249.97
377.104	1290.64
377.467	1356.18
377.83	1394.6
378.194	1444.31
378.557	1555.04
378.92	1530.19
379.284	1688.37
379.647	1749.39
380.01	1964.07
380.373	2061.25
380.736	2083.84
381.1	2282.71
381.463	2477.05
381.826	2705.3
382.189	2775.35
382.552	3023.93
382.915	3161.78
383.278	3378.72
383.64	3719.96
384.003	3973.06
384.366	4519.94
384.729	4745.92
385.092	5105.23
385.454	5536.86
385.817	6137.97
386.18	6601.24
386.542	7398.96
386.905	7762.79
387.268	8759.37
387.63	9566.13
387.993	10372.89
388.355	11177.39
388.718	12544.59
389.08	13464.34
389.442	14858.65
389.805	16196.47
390.167	17321.86
390.529	19143.28
390.892	21423.45
391.254	22795.16
391.616	24340.89
391.978	27362.27
392.34	30225.48
392.702	31375.73
393.064	34440.05
393.426	36614.01
393.788	38858.02
394.15	40923.5
394.512	43784.44
394.874	46439.74
395.236	49637.4
395.598	52100.61
395.96	54450.83
396.321	56541.17
396.683	58455.24
397.045	60780.61
397.406	62787.33
397.768	64375.99
398.13	65090.1
398.491	65090.1
398.853	65090.1
399.214	65090.1
399.576	65090.1
399.937	65090.1
400.299	65090.1
400.66	65090.1
401.021	65090.1
401.383	65090.1
401.744	65090.1
402.105	65090.1
402.466	65090.1
402.827	65090.1
403.189	65090.1
403.55	65090.1
403.911	65090.1
404.272	65090.1
404.633	65090.1
404.994	65090.1
405.355	65090.1
405.716	65090.1
406.077	65090.1
406.437	65090.1
406.798	65090.1
407.159	65090.1
407.52	65090.1
407.88	65090.1
408.241	65090.1
408.602	65090.1
408.962	65090.1
409.323	65090.1
409.684	65090.1
410.044	65090.1
410.405	65090.1
410.765	65090.1
411.125	65090.1
411.486	65090.1
411.846	65090.1
412.206	65090.1
412.567	65090.1
412.927	65090.1
413.287	65090.1
413.647	65090.1
414.007	65090.1
414.368	65090.1
414.728	65090.1
415.088	65090.1
415.448	65090.1
415.808	65090.1
416.168	65090.1
416.528	65090.1
416.887	65090.1
417.247	65090.1
417.607	65090.1
417.967	65090.1
418.327	64394.07
418.686	63612.17
419.046	62647.22
419.406	61571.54
419.765	61255.17
420.125	59447.31
420.484	57743.4
420.844	57300.47
421.203	55332.16
421.563	53659.89
421.922	53223.74
422.282	50602.34
422.641	48184.33
423	46326.75
423.36	44602.5
423.719	41840.99
424.078	39224.11
424.437	36887.45
424.796	35445.68
425.155	34096.56
425.515	32033.34
425.874	30946.36
426.233	27873
426.592	26302.42
426.95	25644.81
427.309	24282.13
427.668	23714.91
428.027	21631.35
428.386	21021.2
428.745	18856.28
429.103	17726.37
429.462	16919.61
429.821	15846.19
430.179	15579.53
430.538	14856.39
430.897	14406.68
431.255	13631.56
431.614	12675.66
431.972	12325.38
432.33	11837.26
432.689	11794.32
433.047	10899.43
433.405	10201.14
433.764	9873.47
434.122	9624.89
434.48	8960.5
434.838	8601.19
435.197	8293.85
435.555	8092.73
435.913	7685.96
436.271	7398.96
436.629	7073.54
436.987	6831.74
437.345	6488.25
437.703	6244.19
438.061	5823.86
438.418	5399.01
438.776	5234.04
439.134	5256.64
439.492	4899.59
439.849	4730.1
440.207	4612.59
440.565	4140.29
440.922	4016
441.28	3819.39
441.637	3751.6
441.995	3575.33
442.352	3536.91
442.71	3313.19
443.067	3213.76
443.425	3080.43
443.782	2913.2
444.139	3005.85
444.496	2795.69
444.854	2782.13
445.211	2619.42
445.568	2486.09
445.925	2474.79
446.282	2431.86
446.639	2284.97
446.996	2287.23
447.353	2307.57
447.71	2190.06
448.067	2178.76
448.424	2142.6
448.781	1968.59
449.137	1939.21
449.494	1869.16
449.851	1869.16
450.208	1733.57
450.564	1706.45
450.921	1588.94
451.278	1584.42
451.634	1602.5
451.991	1464.65
452.347	1507.59
452.704	1378.78
453.06	1408.16
453.416	1315.5
453.773	1263.53
454.129	1268.05
454.485	1222.85
454.841	1148.27
455.198	1166.35
455.554	1209.29
455.91	1164.09
456.266	1125.68
456.622	1164.09
456.978	1075.96
457.334	1001.39
457.69	965.23
458.046	976.53
458.402	901.95
458.758	962.97
459.114	917.77
459.469	915.51
459.825	904.21
460.181	820.6
460.536	748.29
460.892	904.21
461.248	836.42
461.603	709.87
461.959	764.1
462.314	748.29
462.67	829.64
463.025	712.13
463.38	730.21
463.736	725.69
464.091	727.95
464.446	594.62
464.802	723.43
465.157	732.47
465.512	623.99
465.867	696.31
466.222	725.69
466.577	619.48
466.932	664.67
467.287	628.51
467.642	574.28
467.997	572.02
468.352	617.22
468.707	562.98
469.062	590.1
469.417	603.66
469.771	608.18
470.126	569.76
470.481	610.44
470.835	576.54
471.19	576.54
471.544	621.74
471.899	558.46
472.253	544.9
472.608	560.72
472.962	540.38
473.317	637.55
473.671	596.88
474.025	535.86
474.38	499.7
474.734	533.6
475.088	567.5
475.442	449.99
475.796	513.26
476.15	544.9
476.504	542.64
476.858	533.6
477.212	438.69
477.566	474.85
477.92	569.76
478.274	558.46
478.628	524.56
478.982	492.92
479.336	465.81
479.689	504.22
480.043	540.38
480.397	499.7
480.75	524.56
481.104	431.91
481.457	477.11
481.811	445.47
482.164	472.59
482.518	499.7
482.871	438.69
483.225	425.13
483.578	529.08
483.931	524.56
484.284	472.59
484.638	479.37
484.991	490.67
485.344	459.03
485.697	533.6
486.05	513.26
486.403	463.55
486.756	411.57
487.109	465.81
487.462	483.89
487.815	434.17
488.168	479.37
488.52	504.22
488.873	449.99
489.226	447.73
489.579	431.91
489.931	404.79
490.284	452.25
490.637	418.35
490.989	452.25
491.342	440.95
491.694	418.35
492.047	499.7
492.399	449.99
492.751	461.29
493.104	445.47
493.456	398.01
493.808	440.95
494.16	454.51
494.513	449.99
494.865	434.17
495.217	434.17
495.569	375.41
495.921	445.47
496.273	404.79
496.625	425.13
496.977	434.17
497.329	479.37
497.68	465.81
498.032	404.79
498.384	461.29
498.736	422.87
499.087	384.45
499.439	416.09
499.791	445.47
500.142	443.21
500.494	359.6
500.845	454.51
501.197	391.23
501.548	440.95
501.9	416.09
502.251	459.03
502.602	361.85
502.954	393.49
503.305	477.11
503.656	465.81
504.007	431.91
504.358	434.17
504.709	461.29
505.061	395.75
505.412	382.19
505.763	357.34
506.113	359.6
506.464	382.19
506.815	440.95
507.166	409.31
507.517	474.85
507.868	411.57
508.218	373.15
508.569	445.47
508.92	384.45
509.27	499.7
509.621	447.73
509.971	359.6
510.322	465.81
510.672	427.39
511.023	483.89
511.373	440.95
511.723	436.43
512.074	373.15
512.424	391.23
512.774	434.17
513.124	434.17
513.475	395.75
513.825	429.65
514.175	429.65
514.525	384.45
514.875	456.77
515.225	388.97
515.575	370.89
515.924	391.23
516.274	416.09
516.624	436.43
516.974	402.53
517.324	440.95
517.673	425.13
518.023	411.57
518.373	391.23
518.722	425.13
519.072	416.09
519.421	468.07
519.771	377.67
520.12	343.78
520.469	359.6
520.819	413.83
521.168	470.33
521.517	436.43
521.867	398.01
522.216	452.25
522.565	343.78
522.914	400.27
523.263	420.61
523.612	452.25
523.961	402.53
524.31	445.47
524.659	420.61
525.008	452.25
525.357	391.23
525.705	402.53
526.054	375.41
526.403	438.69
526.752	393.49
527.1	386.71
527.449	429.65
527.797	404.79
528.146	418.35
528.495	470.33
528.843	420.61
529.191	386.71
529.54	434.17
529.888	398.01
530.236	386.71
530.585	420.61
530.933	463.55
531.281	416.09
531.629	418.35
531.977	425.13
532.325	443.21
532.673	440.95
533.021	400.27
533.369	409.31
533.717	443.21
534.065	456.77
534.413	393.49
534.761	427.39
535.108	501.96
535.456	352.82
535.804	352.82
536.151	409.31
536.499	454.51
536.847	459.03
537.194	384.45
537.542	379.93
537.889	364.11
538.236	461.29
538.584	332.48
538.931	409.31
539.278	357.34
539.626	463.55
539.973	416.09
540.32	388.97
540.667	402.53
541.014	429.65
541.361	366.37
541.708	463.55
542.055	409.31
542.402	327.96
542.749	364.11
543.096	337
543.443	393.49
543.789	373.15
544.136	418.35
544.483	368.63
544.83	364.11
545.176	377.67
545.523	411.57
545.869	391.23
546.216	368.63
546.562	352.82
546.909	346.04
547.255	350.56
547.601	370.89
547.948	456.77
548.294	427.39
548.64	429.65
548.986	339.26
549.332	343.78
549.678	416.09
550.025	366.37
550.371	325.7
550.717	418.35
551.062	382.19
551.408	452.25
551.754	377.67
552.1	470.33
552.446	370.89
552.792	370.89
553.137	291.8
553.483	309.88
553.828	416.09
554.174	334.74
554.52	357.34
554.865	355.08
555.211	314.4
555.556	379.93
555.901	388.97
556.247	382.19
556.592	355.08
556.937	416.09
557.282	341.52
557.628	330.22
557.973	395.75
558.318	334.74
558.663	327.96
559.008	341.52
559.353	388.97
559.698	334.74
560.043	368.63
560.388	440.95
560.732	343.78
561.077	402.53
561.422	404.79
561.766	352.82
562.111	375.41
562.456	355.08
562.8	346.04
563.145	330.22
563.489	321.18
563.834	409.31
564.178	404.79
564.523	373.15
564.867	343.78
565.211	361.85
565.555	377.67
565.9	366.37
566.244	343.78
566.588	411.57
566.932	359.6
567.276	312.14
567.62	379.93
567.964	368.63
568.308	382.19
568.652	357.34
568.996	373.15
569.339	377.67
569.683	366.37
570.027	382.19
570.371	339.26
570.714	359.6
571.058	388.97
571.401	402.53
571.745	357.34
572.088	327.96
572.432	352.82
572.775	375.41
573.118	327.96
573.462	327.96
573.805	350.56
574.148	409.31
574.491	379.93
574.835	388.97
575.178	357.34
575.521	318.92
575.864	332.48
576.207	388.97
576.55	366.37
576.892	366.37
577.235	361.85
577.578	318.92
577.921	341.52
578.264	337
578.606	312.14
578.949	296.32
579.292	357.34
579.634	339.26
579.977	359.6
580.319	366.37
580.662	379.93
581.004	303.1
581.346	370.89
581.689	379.93
582.031	400.27
582.373	436.43
582.715	364.11
583.057	440.95
583.4	305.36
583.742	327.96
584.084	361.85
584.426	355.08
584.768	350.56
585.109	359.6
585.451	285.02
585.793	316.66
586.135	350.56
586.477	316.66
586.818	262.42
587.16	368.63
587.502	343.78
587.843	327.96
588.185	337
588.526	391.23
588.868	373.15
589.209	357.34
589.55	294.06
589.892	346.04
590.233	334.74
590.574	411.57
590.915	364.11
591.257	262.42
591.598	303.1
591.939	368.63
592.28	323.44
592.621	269.2
592.962	323.44
593.303	280.5
593.643	330.22
593.984	370.89
594.325	307.62
594.666	341.52
595.006	339.26
595.347	391.23
595.688	237.56
596.028	285.02
596.369	348.3
596.709	278.24
597.05	420.61
597.39	309.88
597.73	364.11
598.071	343.78
598.411	318.92
598.751	346.04
599.091	382.19
599.431	287.28
599.772	370.89
600.112	366.37
600.452	352.82
600.792	384.45
601.132	339.26
601.471	271.46
601.811	364.11
602.151	327.96
602.491	323.44
602.831	309.88
603.17	287.28
603.51	373.15
603.849	364.11
604.189	264.68
604.528	330.22
604.868	307.62
605.207	282.76
605.547	264.68
605.886	377.67
606.225	298.58
606.565	285.02
606.904	359.6
607.243	332.48
607.582	318.92
607.921	253.38
608.26	391.23
608.599	264.68
608.938	291.8
609.277	275.98
609.616	285.02
609.955	309.88
610.293	305.36
610.632	346.04
610.971	325.7
611.309	327.96
611.648	321.18
611.987	361.85
612.325	271.46
612.664	316.66
613.002	404.79
613.34	298.58
613.679	357.34
614.017	309.88
614.355	355.08
614.694	368.63
615.032	332.48
615.37	393.49
615.708	323.44
616.046	348.3
616.384	391.23
616.722	332.48
617.06	239.82
617.398	355.08
617.736	285.02
618.073	305.36
618.411	339.26
618.749	296.32
619.086	341.52
619.424	282.76
619.762	321.18
620.099	352.82
620.437	307.62
620.774	305.36
621.112	253.38
621.449	330.22
621.786	316.66
622.123	321.18
622.461	291.8
622.798	339.26
623.135	388.97
623.472	278.24
623.809	309.88
624.146	300.84
624.483	334.74
624.82	246.6
625.157	255.64
625.494	285.02
625.83	352.82
626.167	352.82
626.504	364.11
626.841	282.76
627.177	260.16
627.514	330.22
627.85	318.92
628.187	373.15
628.523	373.15
628.86	244.34
629.196	339.26
629.532	332.48
629.869	307.62
630.205	316.66
630.541	361.85
630.877	316.66
631.213	275.98
631.549	318.92
631.885	346.04
632.221	262.42
632.557	289.54
632.893	303.1
633.229	343.78
633.564	366.37
633.9	300.84
634.236	294.06
634.572	271.46
634.907	314.4
635.243	287.28
635.578	305.36
635.914	323.44
636.249	278.24
636.585	294.06
636.92	298.58
637.255	312.14
637.59	289.54
637.926	325.7
638.261	327.96
638.596	260.16
638.931	291.8
639.266	325.7
639.601	359.6
639.936	330.22
640.271	285.02
640.606	343.78
640.94	271.46
641.275	255.64
641.61	330.22
641.945	303.1
642.279	264.68
642.614	298.58
642.948	264.68
643.283	280.5
643.617	327.96
643.952	307.62
644.286	323.44
644.62	341.52
644.955	309.88
645.289	219.49
645.623	275.98
645.957	251.12
646.291	275.98
646.625	368.63
646.959	318.92
647.293	305.36
647.627	275.98
647.961	323.44
648.295	264.68
648.629	298.58
648.962	303.1
649.296	364.11
649.63	343.78
649.963	373.15
650.297	309.88
650.63	314.4
650.964	273.72
651.297	282.76
651.631	291.8
651.964	318.92
652.297	285.02
652.631	323.44
652.964	271.46
653.297	361.85
653.63	278.24
653.963	339.26
654.296	318.92
654.629	273.72
654.962	285.02
655.295	325.7
655.628	314.4
655.961	275.98
656.293	307.62
656.626	366.37
656.959	300.84
657.291	294.06
657.624	303.1
657.956	287.28
658.289	314.4
658.621	262.42
658.954	237.56
659.286	294.06
659.618	296.32
659.95	296.32
660.283	391.23
660.615	303.1
660.947	314.4
661.279	298.58
661.611	287.28
661.943	253.38
662.275	303.1
662.607	201.41
662.939	314.4
663.27	244.34
663.602	287.28
663.934	330.22
664.266	271.46
664.597	248.86
664.929	337
665.26	309.88
665.592	289.54
665.923	287.28
666.255	334.74
666.586	327.96
666.917	321.18
667.248	287.28
667.58	280.5
667.911	373.15
668.242	373.15
668.573	332.48
668.904	298.58
669.235	323.44
669.566	291.8
669.897	266.94
670.228	327.96
670.558	296.32
670.889	280.5
671.22	368.63
671.551	266.94
671.881	287.28
672.212	253.38
672.542	346.04
672.873	291.8
673.203	275.98
673.533	251.12
673.864	285.02
674.194	337
674.524	264.68
674.855	343.78
675.185	278.24
675.515	314.4
675.845	239.82
676.175	314.4
676.505	307.62
676.835	305.36
677.165	275.98
677.494	323.44
677.824	316.66
678.154	235.3
678.484	244.34
678.813	366.37
679.143	330.22
679.472	257.9
679.802	266.94
680.131	282.76
680.461	280.5
680.79	321.18
681.119	271.46
681.449	285.02
681.778	318.92
682.107	285.02
682.436	323.44
682.765	255.64
683.094	296.32
683.423	366.37
683.752	316.66
684.081	312.14
684.41	271.46
684.739	266.94
685.067	264.68
685.396	269.2
685.725	228.53
686.053	278.24
686.382	307.62
686.711	289.54
687.039	303.1
687.367	253.38
687.696	314.4
688.024	300.84
688.352	300.84
688.681	300.84
689.009	294.06
689.337	298.58
689.665	325.7
689.993	296.32
690.321	348.3
690.649	321.18
690.977	309.88
691.305	260.16
691.633	278.24
691.961	269.2
692.288	296.32
692.616	242.08
692.944	278.24
693.271	273.72
693.599	289.54
693.926	273.72
694.254	255.64
694.581	228.53
694.908	255.64
695.236	233.04
695.563	262.42
695.89	273.72
696.217	273.72
696.544	257.9
696.871	289.54
697.198	214.97
697.525	237.56
697.852	262.42
698.179	291.8
698.506	327.96
698.833	316.66
699.16	307.62
699.486	212.71
699.813	251.12
700.139	273.72
700.466	273.72
700.793	289.54
701.119	307.62
701.445	339.26
701.772	309.88
702.098	280.5
702.424	242.08
702.75	244.34
703.077	337
703.403	262.42
703.729	264.68
704.055	278.24
704.381	280.5
704.707	271.46
705.033	266.94
705.358	323.44
705.684	323.44
706.01	318.92
706.336	332.48
706.661	309.88
706.987	296.32
707.312	296.32
707.638	221.75
707.963	346.04
708.289	278.24
708.614	275.98
708.939	298.58
709.265	307.62
709.59	309.88
709.915	364.11
710.24	350.56
710.565	291.8
710.89	239.82
711.215	271.46
711.54	341.52
711.865	289.54
712.19	280.5
712.515	248.86
712.839	291.8
713.164	257.9
713.489	303.1
713.813	321.18
714.138	287.28
714.462	282.76
714.787	332.48
715.111	287.28
715.435	246.6
715.76	307.62
716.084	332.48
716.408	253.38
716.732	269.2
717.056	323.44
717.381	278.24
717.705	244.34
718.028	253.38
718.352	271.46
718.676	235.3
719	316.66
719.324	314.4
719.648	341.52
719.971	239.82
720.295	248.86
720.618	289.54
720.942	287.28
721.265	246.6
721.589	289.54
721.912	228.53
722.236	233.04
722.559	255.64
722.882	291.8
723.205	291.8
723.528	285.02
723.851	314.4
724.174	330.22
724.497	289.54
724.82	346.04
725.143	388.97
725.466	296.32
725.789	339.26
726.112	248.86
726.434	273.72
726.757	330.22
727.08	294.06
727.402	269.2
727.725	305.36
728.047	278.24
728.37	309.88
728.692	386.71
729.014	341.52
729.336	253.38
729.659	346.04
729.981	210.45
730.303	323.44
730.625	287.28
730.947	280.5
731.269	307.62
731.591	285.02
731.913	285.02
732.235	305.36
732.556	233.04
732.878	264.68
733.2	300.84
733.521	291.8
733.843	275.98
734.164	334.74
734.486	271.46
734.807	298.58
735.129	260.16
735.45	278.24
735.771	303.1
736.092	214.97
736.414	285.02
736.735	346.04
737.056	289.54
737.377	280.5
737.698	275.98
738.019	291.8
738.34	327.96
738.66	327.96
738.981	285.02
739.302	273.72
739.623	298.58
739.943	318.92
740.264	253.38
740.584	314.4
740.905	291.8
741.225	341.52
741.546	280.5
741.866	257.9
742.186	242.08
742.507	273.72
742.827	280.5
743.147	300.84
743.467	289.54
743.787	251.12
744.107	271.46
744.427	309.88
744.747	285.02
745.067	314.4
745.386	285.02
745.706	291.8
746.026	327.96
746.346	264.68
746.665	266.94
746.985	300.84
747.304	341.52
747.624	303.1
747.943	273.72
748.262	248.86
748.582	343.78
748.901	339.26
749.22	296.32
749.539	330.22
749.858	305.36
750.177	248.86
750.496	257.9
750.815	300.84
751.134	264.68
751.453	271.46
751.772	282.76
752.09	273.72
752.409	228.53
752.728	303.1
753.046	266.94
753.365	316.66
753.683	269.2
754.002	269.2
754.32	314.4
754.639	230.78
754.957	300.84
755.275	260.16
755.593	269.2
755.911	282.76
756.23	294.06
756.548	262.42
756.866	260.16
757.183	273.72
757.501	361.85
757.819	273.72
758.137	264.68
758.455	275.98
758.772	350.56
759.09	321.18
759.408	269.2
759.725	228.53
760.043	314.4
760.36	334.74
760.677	273.72
760.995	294.06
761.312	379.93
761.629	300.84
761.946	269.2
762.264	303.1
762.581	264.68
762.898	321.18
763.215	339.26
763.532	291.8
763.848	309.88
764.165	289.54
764.482	264.68
764.799	337
765.115	280.5
765.432	212.71
765.749	294.06
766.065	352.82
766.382	341.52
766.698	237.56
767.014	257.9
767.331	273.72
767.647	296.32
767.963	273.72
768.279	309.88
768.595	262.42
768.911	257.9
769.227	260.16
769.543	246.6
769.859	296.32
770.175	309.88
770.491	269.2
770.807	325.7
771.122	269.2
771.438	352.82
771.754	266.94
772.069	278.24
772.385	298.58
772.7	298.58
773.016	298.58
773.331	271.46
773.646	307.62
773.961	282.76
774.277	296.32
774.592	273.72
774.907	285.02
775.222	266.94
775.537	314.4
775.852	296.32
776.167	321.18
776.482	282.76
776.796	242.08
777.111	273.72
777.426	266.94
777.74	253.38
778.055	264.68
778.369	303.1
778.684	339.26
778.998	289.54
779.313	316.66
779.627	312.14
779.941	208.19
780.255	230.78
780.57	309.88
780.884	325.7
781.198	309.88
781.512	230.78
781.826	253.38
782.14	271.46
782.453	303.1
782.767	257.9
783.081	251.12
783.395	282.76
783.708	300.84
784.022	312.14
784.335	269.2
784.649	230.78
784.962	273.72
785.276	273.72
785.589	327.96
785.902	303.1
786.216	266.94
786.529	244.34
786.842	316.66
787.155	300.84
787.468	285.02
787.781	341.52
788.094	257.9
788.407	321.18
788.72	309.88
789.032	321.18
789.345	260.16
789.658	251.12
789.97	262.42
790.283	266.94
790.595	237.56
790.908	208.19
791.22	255.64
791.532	217.23
791.845	235.3
792.157	251.12
792.469	337
792.781	303.1
793.093	269.2
793.405	253.38
793.717	307.62
794.029	300.84
794.341	269.2
794.653	257.9
794.965	309.88
795.276	275.98
795.588	280.5
795.9	228.53
796.211	321.18
796.523	294.06
796.834	289.54
797.146	219.49
797.457	269.2
797.768	305.36
798.08	289.54
798.391	287.28
798.702	275.98
799.013	289.54
799.324	237.56
799.635	221.75
799.946	262.42
800.257	312.14
800.568	242.08
800.878	262.42
801.189	278.24
801.5	307.62
801.81	253.38
802.121	257.9
802.431	298.58
802.742	246.6
803.052	296.32
803.363	303.1
803.673	269.2
803.983	275.98
804.293	278.24
804.603	289.54
804.913	278.24
805.224	273.72
805.533	203.67
805.843	242.08
806.153	226.27
806.463	244.34
806.773	287.28
807.083	266.94
807.392	221.75
807.702	298.58
808.011	278.24
808.321	332.48
808.63	269.2
808.94	262.42
809.249	248.86
809.558	309.88
809.868	273.72
810.177	298.58
810.486	253.38
810.795	332.48
811.104	305.36
811.413	296.32
811.722	341.52
812.031	318.92
812.339	275.98
812.648	327.96
812.957	287.28
813.266	305.36
813.574	233.04
813.883	255.64
814.191	285.02
814.5	266.94
814.808	282.76
815.116	312.14
815.424	282.76
815.733	282.76
816.041	228.53
816.349	266.94
816.657	287.28
816.965	264.68
817.273	312.14
817.581	377.67
817.889	332.48
818.196	266.94
818.504	224.01
818.812	278.24
819.12	337
819.427	266.94
819.735	282.76
820.042	318.92
820.349	235.3
820.657	296.32
820.964	224.01
821.271	278.24
821.579	251.12
821.886	325.7
822.193	287.28
822.5	246.6
822.807	325.7
823.114	330.22
823.421	280.5
823.727	325.7
824.034	285.02
824.341	230.78
824.648	339.26
824.954	296.32
825.261	300.84
825.567	269.2
825.874	280.5
826.18	269.2
826.486	314.4
826.793	294.06
827.099	303.1
827.405	275.98
827.711	303.1
828.017	323.44
828.323	337
828.629	230.78
828.935	307.62
829.241	273.72
829.547	235.3
829.852	289.54
830.158	287.28
830.464	327.96
830.769	264.68
831.075	266.94
831.38	255.64
831.686	237.56
831.991	298.58
832.296	291.8
832.601	285.02
832.907	271.46
833.212	346.04
833.517	210.45
833.822	287.28
834.127	285.02
834.432	237.56
834.737	280.5
835.041	280.5
835.346	280.5
835.651	280.5
835.956	264.68
836.26	300.84
836.565	314.4
836.869	294.06
837.174	303.1
837.478	300.84
837.782	264.68
838.087	330.22
838.391	300.84
838.695	291.8
838.999	221.75
839.303	355.08
839.607	318.92
839.911	294.06
840.215	282.76
840.519	273.72
840.822	327.96
841.126	318.92
841.43	269.2
841.733	316.66
842.037	307.62
842.34	318.92
842.644	251.12
842.947	257.9
843.251	217.23
843.554	323.44
843.857	303.1
844.16	246.6
844.463	253.38
844.766	266.94
845.069	226.27
845.372	192.37
845.675	226.27
845.978	294.06
846.281	296.32
846.583	273.72
846.886	235.3
847.189	366.37
847.491	370.89
847.794	280.5
848.096	341.52
848.399	348.3
848.701	314.4
849.003	305.36
849.305	235.3
849.608	280.5
849.91	355.08
850.212	332.48
850.514	285.02
850.816	303.1
851.118	291.8
851.419	291.8
851.721	296.32
852.023	303.1
852.325	208.19
852.626	242.08
852.928	312.14
853.229	305.36
853.531	334.74
853.832	280.5
854.133	296.32
854.435	260.16
854.736	296.32
855.037	285.02
855.338	282.76
855.639	303.1
855.94	368.63
856.241	289.54
856.542	248.86
856.843	309.88
857.144	246.6
857.444	296.32
857.745	233.04
858.046	325.7
858.346	305.36
858.647	266.94
858.947	242.08
859.247	289.54
859.548	242.08
859.848	262.42
860.148	226.27
860.448	253.38
860.749	235.3
861.049	312.14
861.349	255.64
861.648	262.42
861.948	309.88
862.248	300.84
862.548	337
862.848	275.98
863.147	309.88
863.447	257.9
863.746	305.36
864.046	228.53
864.345	260.16
864.645	305.36
864.944	282.76
865.243	300.84
865.542	262.42
865.842	271.46
866.141	339.26
866.44	255.64
866.739	296.32
867.038	287.28
867.337	296.32
867.635	307.62
867.934	316.66
868.233	350.56
868.531	309.88
868.83	205.93
869.129	296.32
869.427	384.45
869.725	343.78
870.024	332.48
870.322	246.6
870.62	296.32
870.918	264.68
871.217	275.98
871.515	228.53
871.813	303.1
872.111	264.68
872.409	287.28
872.706	289.54
873.004	253.38
873.302	357.34
873.6	285.02
873.897	287.28
874.195	366.37
874.492	212.71
874.79	235.3
875.087	289.54
875.384	316.66
875.682	230.78
875.979	210.45
876.276	266.94
876.573	269.2
876.87	269.2
877.167	269.2
