Data from PL_2polymer_F8BT_MEHPPV_USB2H096331_0216.txt Node
Date: Tue Dec 15 16:40:41 CET 2020
User: spadmin
Spectrometer: USB2+H09633
Trigger mode: 0
Integration Time (sec): 1.000000E-2
Scans to average: 1
Electric dark correction enabled: true
Nonlinearity correction enabled: false
Boxcar width: 0
XAxis mode: Wavelengths
Number of Pixels in Spectrum: 2048
>>>>>Begin Spectral Data<<<<<
174.027	-60.45
174.405	-60.45
174.783	-60.45
175.162	-180.22
175.54	-130.51
175.918	-85.31
176.296	-94.35
176.674	-94.35
177.052	-98.87
177.43	-49.15
177.808	-22.03
178.186	-49.15
178.564	-8.47
178.942	-24.29
179.32	-1.69
179.698	-6.21
180.076	14.12
180.453	36.72
180.831	118.08
181.209	52.54
181.587	104.52
181.965	122.6
182.342	149.71
182.72	231.07
183.098	212.99
183.475	183.61
183.853	246.89
184.231	249.15
184.608	244.63
184.986	314.68
185.363	264.96
185.741	278.52
186.118	323.72
186.496	285.3
186.873	287.56
187.251	328.24
187.628	377.96
188.006	262.7
188.383	294.34
188.76	307.9
189.138	294.34
189.515	328.24
189.892	323.72
190.27	355.36
190.647	335.02
191.024	355.36
191.401	339.54
191.778	298.86
192.155	269.48
192.533	301.12
192.91	298.86
193.287	262.7
193.664	319.2
194.041	339.54
194.418	307.9
194.795	303.38
195.172	301.12
195.549	319.2
195.926	296.6
196.302	276.26
196.679	287.56
197.056	264.96
197.433	274
197.81	283.04
198.187	237.85
198.563	260.45
198.94	267.22
199.317	319.2
199.693	310.16
200.07	314.68
200.447	292.08
200.823	328.24
201.2	269.48
201.576	260.45
201.953	237.85
202.329	296.6
202.706	260.45
203.082	341.8
203.459	307.9
203.835	280.78
204.212	287.56
204.588	283.04
204.964	296.6
205.341	301.12
205.717	292.08
206.093	337.28
206.469	246.89
206.846	303.38
207.222	337.28
207.598	353.1
207.974	289.82
208.35	303.38
208.726	305.64
209.102	339.54
209.479	292.08
209.855	323.72
210.231	335.02
210.607	364.4
210.982	296.6
211.358	312.42
211.734	296.6
212.11	316.94
212.486	228.81
212.862	307.9
213.238	289.82
213.614	307.9
213.989	249.15
214.365	332.76
214.741	296.6
215.116	296.6
215.492	289.82
215.868	323.72
216.243	267.22
216.619	235.59
216.995	292.08
217.37	289.82
217.746	325.98
218.121	307.9
218.497	271.74
218.872	312.42
219.247	301.12
219.623	332.76
219.998	264.96
220.374	364.4
220.749	337.28
221.124	278.52
221.499	264.96
221.875	328.24
222.25	278.52
222.625	325.98
223	296.6
223.376	274
223.751	283.04
224.126	332.76
224.501	285.3
224.876	287.56
225.251	353.1
225.626	337.28
226.001	339.54
226.376	344.06
226.751	276.26
227.126	335.02
227.501	337.28
227.875	325.98
228.25	332.76
228.625	283.04
229	314.68
229.375	285.3
229.749	319.2
230.124	312.42
230.499	321.46
230.873	314.68
231.248	287.56
231.623	332.76
231.997	330.5
232.372	323.72
232.746	301.12
233.121	337.28
233.495	328.24
233.87	348.58
234.244	346.32
234.619	323.72
234.993	307.9
235.367	337.28
235.742	335.02
236.116	294.34
236.49	312.42
236.865	328.24
237.239	427.67
237.613	355.36
237.987	359.88
238.361	310.16
238.736	391.52
239.11	377.96
239.484	328.24
239.858	330.5
240.232	325.98
240.606	335.02
240.98	373.44
241.354	387
241.728	321.46
242.102	339.54
242.475	344.06
242.849	310.16
243.223	355.36
243.597	405.07
243.971	307.9
244.344	321.46
244.718	353.1
245.092	339.54
245.466	341.8
245.839	350.84
246.213	292.08
246.586	346.32
246.96	341.8
247.334	323.72
247.707	355.36
248.081	323.72
248.454	332.76
248.828	301.12
249.201	319.2
249.574	350.84
249.948	323.72
250.321	332.76
250.694	350.84
251.068	350.84
251.441	296.6
251.814	321.46
252.187	350.84
252.561	303.38
252.934	285.3
253.307	362.14
253.68	253.67
254.053	346.32
254.426	341.8
254.799	337.28
255.172	316.94
255.545	310.16
255.918	391.52
256.291	314.68
256.664	307.9
257.037	246.89
257.41	325.98
257.782	380.22
258.155	341.8
258.528	366.66
258.901	341.8
259.273	371.18
259.646	359.88
260.019	337.28
260.391	371.18
260.764	393.77
261.137	337.28
261.509	289.82
261.882	368.92
262.254	366.66
262.627	296.6
262.999	321.46
263.372	339.54
263.744	328.24
264.116	409.59
264.489	330.5
264.861	346.32
265.233	344.06
265.606	375.7
265.978	314.68
266.35	310.16
266.722	373.44
267.094	350.84
267.467	355.36
267.839	382.48
268.211	287.56
268.583	389.26
268.955	316.94
269.327	391.52
269.699	332.76
270.071	391.52
270.443	362.14
270.815	310.16
271.186	344.06
271.558	387
271.93	407.33
272.302	429.93
272.674	357.62
273.045	301.12
273.417	312.42
273.789	368.92
274.16	364.4
274.532	425.41
274.904	384.74
275.275	346.32
275.647	405.07
276.018	344.06
276.39	366.66
276.761	371.18
277.133	382.48
277.504	328.24
277.875	344.06
278.247	346.32
278.618	452.53
278.989	400.55
279.361	366.66
279.732	355.36
280.103	364.4
280.474	350.84
280.846	387
281.217	362.14
281.588	346.32
281.959	274
282.33	382.48
282.701	375.7
283.072	368.92
283.443	341.8
283.814	380.22
284.185	312.42
284.556	344.06
284.927	316.94
285.297	362.14
285.668	350.84
286.039	407.33
286.41	380.22
286.781	391.52
287.151	400.55
287.522	384.74
287.893	337.28
288.263	375.7
288.634	427.67
289.004	375.7
289.375	402.81
289.745	296.6
290.116	364.4
290.486	389.26
290.857	368.92
291.227	298.86
291.598	341.8
291.968	280.78
292.338	420.89
292.709	432.19
293.079	377.96
293.449	409.59
293.819	450.27
294.189	339.54
294.56	389.26
294.93	384.74
295.3	341.8
295.67	391.52
296.04	393.77
296.41	364.4
296.78	391.52
297.15	407.33
297.52	405.07
297.89	472.87
298.259	387
298.629	434.45
298.999	402.81
299.369	364.4
299.739	371.18
300.108	396.03
300.478	459.31
300.848	375.7
301.217	362.14
301.587	380.22
301.957	353.1
302.326	432.19
302.696	382.48
303.065	335.02
303.435	348.58
303.804	366.66
304.174	418.63
304.543	350.84
304.912	396.03
305.282	432.19
305.651	396.03
306.02	438.97
306.39	443.49
306.759	355.36
307.128	346.32
307.497	414.11
307.866	382.48
308.235	368.92
308.604	387
308.974	353.1
309.343	438.97
309.712	472.87
310.08	472.87
310.449	411.85
310.818	488.69
311.187	448.01
311.556	452.53
311.925	450.27
312.294	402.81
312.662	400.55
313.031	425.41
313.4	384.74
313.769	398.29
314.137	420.89
314.506	425.41
314.874	357.62
315.243	414.11
315.612	448.01
315.98	420.89
316.349	443.49
316.717	423.15
317.085	457.05
317.454	438.97
317.822	434.45
318.191	411.85
318.559	432.19
318.927	416.37
319.295	420.89
319.664	368.92
320.032	405.07
320.4	344.06
320.768	429.93
321.136	389.26
321.504	438.97
321.872	463.83
322.24	441.23
322.608	472.87
322.976	481.91
323.344	400.55
323.712	475.13
324.08	497.73
324.448	414.11
324.816	348.58
325.183	398.29
325.551	445.75
325.919	434.45
326.287	454.79
326.654	371.18
327.022	454.79
327.389	463.83
327.757	468.35
328.125	468.35
328.492	405.07
328.86	457.05
329.227	459.31
329.594	443.49
329.962	452.53
330.329	414.11
330.697	407.33
331.064	457.05
331.431	497.73
331.798	551.96
332.166	457.05
332.533	434.45
332.9	450.27
333.267	477.39
333.634	472.87
334.001	457.05
334.368	436.71
334.735	445.75
335.102	484.17
335.469	520.33
335.836	448.01
336.203	477.39
336.57	463.83
336.937	504.51
337.304	443.49
337.67	495.47
338.037	488.69
338.404	450.27
338.771	509.03
339.137	490.95
339.504	448.01
339.87	484.17
340.237	452.53
340.604	533.88
340.97	513.55
341.337	513.55
341.703	490.95
342.069	509.03
342.436	536.14
342.802	472.87
343.169	540.66
343.535	488.69
343.901	524.84
344.267	477.39
344.634	509.03
345	459.31
345.366	459.31
345.732	382.48
346.098	495.47
346.464	457.05
346.83	533.88
347.196	554.22
347.562	511.29
347.928	495.47
348.294	493.21
348.66	522.59
349.026	556.48
349.392	540.66
349.757	495.47
350.123	545.18
350.489	502.25
350.855	540.66
351.22	520.33
351.586	459.31
351.951	612.98
352.317	470.61
352.683	576.82
353.048	585.86
353.414	583.6
353.779	579.08
354.144	506.77
354.51	540.66
354.875	608.46
355.24	542.92
355.606	511.29
355.971	536.14
356.336	637.84
356.701	545.18
357.067	606.2
357.432	585.86
357.797	597.16
358.162	547.44
358.527	642.36
358.892	612.98
359.257	631.06
359.622	622.02
359.987	619.76
360.352	615.24
360.717	626.54
361.082	637.84
361.446	608.46
361.811	649.14
362.176	689.81
362.541	642.36
362.905	644.62
363.27	628.8
363.635	789.24
363.999	671.73
364.364	685.29
364.728	766.65
365.093	703.37
365.457	762.13
365.822	728.23
366.186	775.69
366.55	780.21
366.915	771.17
367.279	759.87
367.643	798.28
368.008	739.53
368.372	796.02
368.736	818.62
369.1	750.83
369.464	807.32
369.828	807.32
370.192	870.6
370.556	834.44
370.92	915.8
371.284	834.44
371.648	863.82
372.012	992.63
372.376	904.5
372.74	936.13
373.104	940.65
373.468	1060.42
373.831	1112.4
374.195	1121.44
374.559	1049.12
374.922	1033.31
375.286	1049.12
375.65	1139.52
376.013	1105.62
376.377	1259.29
376.74	1223.13
377.104	1306.75
377.467	1358.72
377.83	1437.82
378.194	1451.37
378.557	1591.48
378.92	1602.78
379.284	1738.37
379.647	1788.09
380.01	1864.92
380.373	2088.65
380.736	2136.1
381.1	2285.25
381.463	2461.52
381.826	2594.85
382.189	2872.81
382.552	3003.88
382.915	3354.15
383.278	3550.75
383.64	3824.19
384.003	4025.32
384.366	4343.95
384.729	4723.6
385.092	5019.64
385.454	5451.27
385.817	5907.75
386.18	6752.93
386.542	7247.83
386.905	8061.37
387.268	8870.39
387.63	9566.42
387.993	10321.2
388.355	11444.33
388.718	12506.45
389.08	13340.33
389.442	14852.15
389.805	16205.79
390.167	17037.41
390.529	19328.87
390.892	21600
391.254	22732.17
391.616	24415.74
391.978	27190.81
392.34	30368.13
392.702	31093.53
393.064	34221.13
393.426	36259.5
393.788	39217.61
394.15	40953.16
394.512	43490.95
394.874	46559.79
395.236	49285.14
395.598	52415.01
395.96	54579.92
396.321	56559.53
396.683	58591.11
397.045	60586.54
397.406	62638.47
397.768	64179.67
398.13	65090.38
398.491	65090.38
398.853	65090.38
399.214	65090.38
399.576	65090.38
399.937	65090.38
400.299	65090.38
400.66	65090.38
401.021	65090.38
401.383	65090.38
401.744	65090.38
402.105	65090.38
402.466	65090.38
402.827	65090.38
403.189	65090.38
403.55	65090.38
403.911	65090.38
404.272	65090.38
404.633	65090.38
404.994	65090.38
405.355	65090.38
405.716	65090.38
406.077	65090.38
406.437	65090.38
406.798	65090.38
407.159	65090.38
407.52	65090.38
407.88	65090.38
408.241	65090.38
408.602	65090.38
408.962	65090.38
409.323	65090.38
409.684	65090.38
410.044	65090.38
410.405	65090.38
410.765	65090.38
411.125	65090.38
411.486	65090.38
411.846	65090.38
412.206	65090.38
412.567	65090.38
412.927	65090.38
413.287	65090.38
413.647	65090.38
414.007	65090.38
414.368	65090.38
414.728	65090.38
415.088	65090.38
415.448	65090.38
415.808	65090.38
416.168	65090.38
416.528	65090.38
416.887	65090.38
417.247	65090.38
417.607	65090.38
417.967	65090.38
418.327	64432.77
418.686	63696.07
419.046	62520.95
419.406	61641.88
419.765	61056.59
420.125	59517.64
420.484	57775.32
420.844	57099.63
421.203	55160.7
421.563	53269.22
421.922	53129.11
422.282	50729.17
422.641	48505.5
423	46177.88
423.36	44812.95
423.719	42105.67
424.078	39226.65
424.437	37231.22
424.796	35629.01
425.155	33875.38
425.515	31950.01
425.874	31098.05
426.233	28069.88
426.592	26117.39
426.95	25489.16
427.309	24413.48
427.668	23507.29
428.027	21618.08
428.386	21012.44
428.745	18849.79
429.103	17864.5
429.462	17308.58
429.821	16205.79
430.179	15475.86
430.538	14879.27
430.897	14153.87
431.255	13362.93
431.614	12877.06
431.972	12278.21
432.33	11670.31
432.689	11536.98
433.047	10757.34
433.405	10092.95
433.764	9932.51
434.122	9681.67
434.48	8831.97
434.838	8621.81
435.197	8111.09
435.555	8144.98
435.913	7634.26
436.271	7324.67
436.629	6886.26
436.987	6676.1
437.345	6364.24
437.703	6194.75
438.061	5869.34
438.418	5480.65
438.776	5198.17
439.134	5290.82
439.492	4947.33
439.849	4705.53
440.207	4407.23
440.565	4362.03
440.922	4115.71
441.28	3973.34
441.637	3774.48
441.995	3699.9
442.352	3360.93
442.71	3376.75
443.067	3238.9
443.425	3044.55
443.782	2960.94
444.139	2942.86
444.496	2791.45
444.854	2807.27
445.211	2592.59
445.568	2599.37
445.925	2432.14
446.282	2495.41
446.639	2314.63
446.996	2253.61
447.353	2221.98
447.71	2249.09
448.067	2129.32
448.424	2002.77
448.781	1914.64
449.137	1889.78
449.494	1876.22
449.851	1878.48
450.208	1625.38
450.564	1629.9
450.921	1537.25
451.278	1666.06
451.634	1625.38
451.991	1512.39
452.347	1559.85
452.704	1476.23
453.06	1372.28
453.416	1290.93
453.773	1365.5
454.129	1247.99
454.485	1168.9
454.841	1159.86
455.198	1141.78
455.554	1180.19
455.91	1148.56
456.266	1164.38
456.622	1128.22
456.978	1049.12
457.334	951.95
457.69	931.61
458.046	931.61
458.402	940.65
458.758	938.39
459.114	904.5
459.469	857.04
459.825	845.74
460.181	906.76
460.536	834.44
460.892	820.88
461.248	746.31
461.603	768.91
461.959	694.33
462.314	719.19
462.67	712.41
463.025	689.81
463.38	771.17
463.736	653.66
464.091	689.81
464.446	633.32
464.802	710.15
465.157	719.19
465.512	698.85
465.867	610.72
466.222	631.06
466.577	637.84
466.932	680.77
467.287	651.4
467.642	619.76
467.997	624.28
468.352	572.3
468.707	664.95
469.062	667.21
469.417	608.46
469.771	617.5
470.126	603.94
470.481	567.78
470.835	646.88
471.19	515.81
471.544	585.86
471.899	565.52
472.253	567.78
472.608	520.33
472.962	529.36
473.317	567.78
473.671	520.33
474.025	495.47
474.38	524.84
474.734	558.74
475.088	563.26
475.442	522.59
475.796	545.18
476.15	551.96
476.504	561
476.858	540.66
477.212	504.51
477.566	495.47
477.92	536.14
478.274	493.21
478.628	490.95
478.982	506.77
479.336	445.75
479.689	490.95
480.043	488.69
480.397	477.39
480.75	488.69
481.104	495.47
481.457	554.22
481.811	497.73
482.164	470.61
482.518	540.66
482.871	488.69
483.225	441.23
483.578	468.35
483.931	461.57
484.284	502.25
484.638	459.31
484.991	470.61
485.344	432.19
485.697	450.27
486.05	425.41
486.403	441.23
486.756	495.47
487.109	509.03
487.462	486.43
487.815	520.33
488.168	429.93
488.52	499.99
488.873	436.71
489.226	425.41
489.579	436.71
489.931	445.75
490.284	398.29
490.637	463.83
490.989	499.99
491.342	463.83
491.694	468.35
492.047	454.79
492.399	434.45
492.751	438.97
493.104	475.13
493.456	400.55
493.808	434.45
494.16	436.71
494.513	411.85
494.865	450.27
495.217	475.13
495.569	452.53
495.921	384.74
496.273	414.11
496.625	493.21
496.977	423.15
497.329	472.87
497.68	436.71
498.032	382.48
498.384	470.61
498.736	391.52
499.087	377.96
499.439	400.55
499.791	454.79
500.142	432.19
500.494	416.37
500.845	393.77
501.197	409.59
501.548	479.65
501.9	432.19
502.251	380.22
502.602	450.27
502.954	450.27
503.305	416.37
503.656	466.09
504.007	448.01
504.358	432.19
504.709	387
505.061	420.89
505.412	400.55
505.763	377.96
506.113	357.62
506.464	373.44
506.815	436.71
507.166	402.81
507.517	371.18
507.868	427.67
508.218	407.33
508.569	400.55
508.92	314.68
509.27	418.63
509.621	409.59
509.971	454.79
510.322	423.15
510.672	457.05
511.023	504.51
511.373	468.35
511.723	427.67
512.074	409.59
512.424	337.28
512.774	384.74
513.124	420.89
513.475	420.89
513.825	405.07
514.175	366.66
514.525	407.33
514.875	335.02
515.225	423.15
515.575	445.75
515.924	344.06
516.274	377.96
516.624	423.15
516.974	400.55
517.324	452.53
517.673	423.15
518.023	436.71
518.373	423.15
518.722	377.96
519.072	432.19
519.421	402.81
519.771	414.11
520.12	454.79
520.469	407.33
520.819	420.89
521.168	466.09
521.517	434.45
521.867	411.85
522.216	405.07
522.565	432.19
522.914	459.31
523.263	497.73
523.612	454.79
523.961	427.67
524.31	411.85
524.659	357.62
525.008	411.85
525.357	375.7
525.705	515.81
526.054	387
526.403	405.07
526.752	434.45
527.1	445.75
527.449	452.53
527.797	477.39
528.146	427.67
528.495	443.49
528.843	468.35
529.191	387
529.54	490.95
529.888	459.31
530.236	418.63
530.585	420.89
530.933	350.84
531.281	368.92
531.629	443.49
531.977	452.53
532.325	387
532.673	353.1
533.021	371.18
533.369	332.76
533.717	429.93
534.065	420.89
534.413	384.74
534.761	452.53
535.108	405.07
535.456	396.03
535.804	337.28
536.151	418.63
536.499	384.74
536.847	353.1
537.194	348.58
537.542	429.93
537.889	416.37
538.236	384.74
538.584	402.81
538.931	377.96
539.278	407.33
539.626	387
539.973	353.1
540.32	414.11
540.667	402.81
541.014	429.93
541.361	443.49
541.708	418.63
542.055	384.74
542.402	348.58
542.749	429.93
543.096	405.07
543.443	405.07
543.789	409.59
544.136	407.33
544.483	373.44
544.83	362.14
545.176	362.14
545.523	407.33
545.869	416.37
546.216	377.96
546.562	443.49
546.909	407.33
547.255	402.81
547.601	292.08
547.948	328.24
548.294	341.8
548.64	427.67
548.986	355.36
549.332	393.77
549.678	391.52
550.025	377.96
550.371	362.14
550.717	382.48
551.062	398.29
551.408	364.4
551.754	387
552.1	407.33
552.446	377.96
552.792	341.8
553.137	371.18
553.483	384.74
553.828	344.06
554.174	398.29
554.52	366.66
554.865	380.22
555.211	409.59
555.556	427.67
555.901	382.48
556.247	380.22
556.592	391.52
556.937	310.16
557.282	301.12
557.628	359.88
557.973	429.93
558.318	382.48
558.663	330.5
559.008	364.4
559.353	332.76
559.698	368.92
560.043	323.72
560.388	366.66
560.732	382.48
561.077	391.52
561.422	389.26
561.766	375.7
562.111	377.96
562.456	366.66
562.8	276.26
563.145	375.7
563.489	393.77
563.834	353.1
564.178	344.06
564.523	411.85
564.867	380.22
565.211	377.96
565.555	405.07
565.9	364.4
566.244	348.58
566.588	411.85
566.932	414.11
567.276	314.68
567.62	330.5
567.964	301.12
568.308	303.38
568.652	348.58
568.996	391.52
569.339	325.98
569.683	366.66
570.027	364.4
570.371	344.06
570.714	432.19
571.058	375.7
571.401	364.4
571.745	325.98
572.088	330.5
572.432	371.18
572.775	420.89
573.118	287.56
573.462	337.28
573.805	405.07
574.148	371.18
574.491	305.64
574.835	332.76
575.178	323.72
575.521	357.62
575.864	337.28
576.207	368.92
576.55	285.3
576.892	377.96
577.235	362.14
577.578	337.28
577.921	341.8
578.264	346.32
578.606	310.16
578.949	337.28
579.292	362.14
579.634	325.98
579.977	251.41
580.319	350.84
580.662	337.28
581.004	337.28
581.346	350.84
581.689	375.7
582.031	391.52
582.373	325.98
582.715	368.92
583.057	368.92
583.4	325.98
583.742	301.12
584.084	364.4
584.426	335.02
584.768	310.16
585.109	314.68
585.451	339.54
585.793	364.4
586.135	409.59
586.477	319.2
586.818	344.06
587.16	319.2
587.502	321.46
587.843	380.22
588.185	314.68
588.526	373.44
588.868	341.8
589.209	402.81
589.55	355.36
589.892	310.16
590.233	328.24
590.574	337.28
590.915	310.16
591.257	384.74
591.598	341.8
591.939	411.85
592.28	285.3
592.621	260.45
592.962	330.5
593.303	341.8
593.643	371.18
593.984	373.44
594.325	312.42
594.666	301.12
595.006	321.46
595.347	364.4
595.688	346.32
596.028	380.22
596.369	368.92
596.709	296.6
597.05	355.36
597.39	362.14
597.73	335.02
598.071	384.74
598.411	402.81
598.751	364.4
599.091	276.26
599.431	357.62
599.772	314.68
600.112	301.12
600.452	289.82
600.792	344.06
601.132	323.72
601.471	296.6
601.811	348.58
602.151	307.9
602.491	237.85
602.831	344.06
603.17	348.58
603.51	335.02
603.849	325.98
604.189	287.56
604.528	332.76
604.868	330.5
605.207	314.68
605.547	350.84
605.886	346.32
606.225	389.26
606.565	373.44
606.904	337.28
607.243	280.78
607.582	339.54
607.921	262.7
608.26	319.2
608.599	337.28
608.938	348.58
609.277	355.36
609.616	366.66
609.955	337.28
610.293	373.44
610.632	303.38
610.971	357.62
611.309	276.26
611.648	305.64
611.987	357.62
612.325	319.2
612.664	377.96
613.002	319.2
613.34	319.2
613.679	353.1
614.017	330.5
614.355	328.24
614.694	335.02
615.032	292.08
615.37	314.68
615.708	375.7
616.046	287.56
616.384	298.86
616.722	296.6
617.06	289.82
617.398	364.4
617.736	368.92
618.073	350.84
618.411	285.3
618.749	353.1
619.086	298.86
619.424	294.34
619.762	307.9
620.099	357.62
620.437	348.58
620.774	274
621.112	296.6
621.449	373.44
621.786	283.04
622.123	319.2
622.461	341.8
622.798	287.56
623.135	339.54
623.472	375.7
623.809	278.52
624.146	328.24
624.483	341.8
624.82	278.52
625.157	396.03
625.494	339.54
625.83	305.64
626.167	292.08
626.504	325.98
626.841	339.54
627.177	303.38
627.514	325.98
627.85	303.38
628.187	253.67
628.523	278.52
628.86	303.38
629.196	294.34
629.532	332.76
629.869	298.86
630.205	341.8
630.541	244.63
630.877	296.6
631.213	269.48
631.549	330.5
631.885	332.76
632.221	335.02
632.557	355.36
632.893	314.68
633.229	330.5
633.564	264.96
633.9	269.48
634.236	337.28
634.572	264.96
634.907	335.02
635.243	328.24
635.578	366.66
635.914	330.5
636.249	301.12
636.585	314.68
636.92	314.68
637.255	341.8
637.59	298.86
637.926	355.36
638.261	393.77
638.596	375.7
638.931	335.02
639.266	330.5
639.601	255.93
639.936	314.68
640.271	339.54
640.606	375.7
640.94	357.62
641.275	407.33
641.61	348.58
641.945	321.46
642.279	330.5
642.614	337.28
642.948	267.22
643.283	362.14
643.617	307.9
643.952	310.16
644.286	289.82
644.62	339.54
644.955	319.2
645.289	253.67
645.623	346.32
645.957	405.07
646.291	294.34
646.625	267.22
646.959	337.28
647.293	249.15
647.627	364.4
647.961	396.03
648.295	359.88
648.629	307.9
648.962	260.45
649.296	246.89
649.63	269.48
649.963	296.6
650.297	292.08
650.63	314.68
650.964	355.36
651.297	296.6
651.631	253.67
651.964	335.02
652.297	325.98
652.631	353.1
652.964	310.16
653.297	264.96
653.63	314.68
653.963	301.12
654.296	289.82
654.629	260.45
654.962	240.11
655.295	303.38
655.628	316.94
655.961	280.78
656.293	287.56
656.626	283.04
656.959	283.04
657.291	262.7
657.624	269.48
657.956	332.76
658.289	335.02
658.621	366.66
658.954	335.02
659.286	294.34
659.618	264.96
659.95	280.78
660.283	262.7
660.615	350.84
660.947	305.64
661.279	267.22
661.611	294.34
661.943	337.28
662.275	215.25
662.607	292.08
662.939	285.3
663.27	310.16
663.602	350.84
663.934	359.88
664.266	303.38
664.597	368.92
664.929	305.64
665.26	274
665.592	355.36
665.923	310.16
666.255	348.58
666.586	298.86
666.917	323.72
667.248	287.56
667.58	280.78
667.911	328.24
668.242	280.78
668.573	341.8
668.904	242.37
669.235	303.38
669.566	312.42
669.897	235.59
670.228	292.08
670.558	287.56
670.889	294.34
671.22	278.52
671.551	325.98
671.881	305.64
672.212	258.19
672.542	312.42
672.873	276.26
673.203	321.46
673.533	289.82
673.864	303.38
674.194	350.84
674.524	231.07
674.855	255.93
675.185	280.78
675.515	251.41
675.845	274
676.175	292.08
676.505	287.56
676.835	353.1
677.165	312.42
677.494	339.54
677.824	314.68
678.154	292.08
678.484	285.3
678.813	276.26
679.143	335.02
679.472	285.3
679.802	280.78
680.131	278.52
680.461	301.12
680.79	276.26
681.119	341.8
681.449	316.94
681.778	280.78
682.107	368.92
682.436	294.34
682.765	314.68
683.094	269.48
683.423	310.16
683.752	269.48
684.081	323.72
684.41	296.6
684.739	301.12
685.067	278.52
685.396	323.72
685.725	269.48
686.053	330.5
686.382	332.76
686.711	278.52
687.039	264.96
687.367	346.32
687.696	310.16
688.024	287.56
688.352	332.76
688.681	323.72
689.009	292.08
689.337	346.32
689.665	325.98
689.993	224.29
690.321	255.93
690.649	316.94
690.977	274
691.305	305.64
691.633	321.46
691.961	280.78
692.288	269.48
692.616	276.26
692.944	312.42
693.271	332.76
693.599	298.86
693.926	240.11
694.254	310.16
694.581	289.82
694.908	316.94
695.236	325.98
695.563	298.86
695.89	249.15
696.217	292.08
696.544	332.76
696.871	303.38
697.198	276.26
697.525	246.89
697.852	219.77
698.179	341.8
698.506	380.22
698.833	321.46
699.16	332.76
699.486	355.36
699.813	348.58
700.139	249.15
700.466	307.9
700.793	339.54
701.119	255.93
701.445	283.04
701.772	348.58
702.098	294.34
702.424	287.56
702.75	316.94
703.077	240.11
703.403	280.78
703.729	258.19
704.055	346.32
704.381	285.3
704.707	264.96
705.033	314.68
705.358	312.42
705.684	235.59
706.01	283.04
706.336	305.64
706.661	310.16
706.987	271.74
707.312	307.9
707.638	314.68
707.963	332.76
708.289	292.08
708.614	258.19
708.939	344.06
709.265	255.93
709.59	262.7
709.915	310.16
710.24	240.11
710.565	228.81
710.89	314.68
711.215	325.98
711.54	348.58
711.865	276.26
712.19	253.67
712.515	255.93
712.839	303.38
713.164	355.36
713.489	305.64
713.813	255.93
714.138	353.1
714.462	240.11
714.787	307.9
715.111	296.6
715.435	271.74
715.76	298.86
716.084	292.08
716.408	253.67
716.732	335.02
717.056	325.98
717.381	346.32
717.705	335.02
718.028	264.96
718.352	255.93
718.676	312.42
719	271.74
719.324	269.48
719.648	255.93
719.971	289.82
720.295	274
720.618	292.08
720.942	269.48
721.265	287.56
721.589	276.26
721.912	283.04
722.236	335.02
722.559	314.68
722.882	296.6
723.205	328.24
723.528	310.16
723.851	287.56
724.174	264.96
724.497	330.5
724.82	330.5
725.143	271.74
725.466	310.16
725.789	267.22
726.112	298.86
726.434	274
726.757	269.48
727.08	292.08
727.402	267.22
727.725	330.5
728.047	330.5
728.37	292.08
728.692	219.77
729.014	289.82
729.336	289.82
729.659	312.42
729.981	305.64
730.303	224.29
730.625	292.08
730.947	316.94
731.269	274
731.591	251.41
731.913	280.78
732.235	289.82
732.556	323.72
732.878	269.48
733.2	258.19
733.521	249.15
733.843	339.54
734.164	310.16
734.486	264.96
734.807	242.37
735.129	280.78
735.45	294.34
735.771	321.46
736.092	341.8
736.414	278.52
736.735	287.56
737.056	199.43
737.377	328.24
737.698	262.7
738.019	292.08
738.34	364.4
738.66	328.24
738.981	255.93
739.302	283.04
739.623	296.6
739.943	274
740.264	262.7
740.584	283.04
740.905	276.26
741.225	233.33
741.546	274
741.866	328.24
742.186	287.56
742.507	271.74
742.827	251.41
743.147	312.42
743.467	314.68
743.787	269.48
744.107	339.54
744.427	341.8
744.747	303.38
745.067	294.34
745.386	280.78
745.706	368.92
746.026	226.55
746.346	396.03
746.665	292.08
746.985	301.12
747.304	276.26
747.624	316.94
747.943	262.7
748.262	400.55
748.582	292.08
748.901	249.15
749.22	283.04
749.539	316.94
749.858	264.96
750.177	294.34
750.496	341.8
750.815	226.55
751.134	305.64
751.453	262.7
751.772	314.68
752.09	276.26
752.409	233.33
752.728	319.2
753.046	262.7
753.365	246.89
753.683	285.3
754.002	251.41
754.32	292.08
754.639	303.38
754.957	269.48
755.275	305.64
755.593	255.93
755.911	249.15
756.23	215.25
756.548	301.12
756.866	339.54
757.183	292.08
757.501	298.86
757.819	228.81
758.137	301.12
758.455	249.15
758.772	276.26
759.09	274
759.408	271.74
759.725	298.86
760.043	294.34
760.36	289.82
760.677	215.25
760.995	228.81
761.312	264.96
761.629	339.54
761.946	242.37
762.264	303.38
762.581	294.34
762.898	328.24
763.215	307.9
763.532	337.28
763.848	294.34
764.165	240.11
764.482	278.52
764.799	296.6
765.115	267.22
765.432	258.19
765.749	274
766.065	262.7
766.382	276.26
766.698	255.93
767.014	258.19
767.331	364.4
767.647	226.55
767.963	292.08
768.279	296.6
768.595	298.86
768.911	267.22
769.227	314.68
769.543	274
769.859	325.98
770.175	262.7
770.491	303.38
770.807	276.26
771.122	316.94
771.438	314.68
771.754	314.68
772.069	355.36
772.385	294.34
772.7	292.08
773.016	344.06
773.331	264.96
773.646	337.28
773.961	303.38
774.277	292.08
774.592	287.56
774.907	267.22
775.222	335.02
775.537	274
775.852	301.12
776.167	264.96
776.482	264.96
776.796	233.33
777.111	269.48
777.426	289.82
777.74	312.42
778.055	258.19
778.369	283.04
778.684	285.3
778.998	294.34
779.313	267.22
779.627	292.08
779.941	246.89
780.255	303.38
780.57	260.45
780.884	264.96
781.198	287.56
781.512	294.34
781.826	226.55
782.14	310.16
782.453	307.9
782.767	296.6
783.081	337.28
783.395	335.02
783.708	260.45
784.022	244.63
784.335	244.63
784.649	307.9
784.962	298.86
785.276	242.37
785.589	276.26
785.902	294.34
786.216	283.04
786.529	258.19
786.842	262.7
787.155	303.38
787.468	344.06
787.781	278.52
788.094	274
788.407	253.67
788.72	240.11
789.032	233.33
789.345	287.56
789.658	222.03
789.97	190.39
790.283	303.38
790.595	350.84
790.908	255.93
791.22	339.54
791.532	328.24
791.845	321.46
792.157	289.82
792.469	328.24
792.781	244.63
793.093	269.48
793.405	253.67
793.717	328.24
794.029	264.96
794.341	208.47
794.653	319.2
794.965	283.04
795.276	258.19
795.588	235.59
795.9	307.9
796.211	337.28
796.523	278.52
796.834	283.04
797.146	348.58
797.457	321.46
797.768	301.12
798.08	307.9
798.391	310.16
798.702	298.86
799.013	305.64
799.324	321.46
799.635	260.45
799.946	278.52
800.257	224.29
800.568	276.26
800.878	262.7
801.189	260.45
801.5	296.6
801.81	298.86
802.121	276.26
802.431	285.3
802.742	285.3
803.052	226.55
803.363	328.24
803.673	276.26
803.983	240.11
804.293	244.63
804.603	344.06
804.913	350.84
805.224	228.81
805.533	294.34
805.843	269.48
806.153	339.54
806.463	276.26
806.773	274
807.083	264.96
807.392	233.33
807.702	219.77
808.011	255.93
808.321	233.33
808.63	310.16
808.94	260.45
809.249	310.16
809.558	246.89
809.868	298.86
810.177	260.45
810.486	305.64
810.795	323.72
811.104	292.08
811.413	280.78
811.722	287.56
812.031	267.22
812.339	179.09
812.648	285.3
812.957	305.64
813.266	274
813.574	271.74
813.883	249.15
814.191	278.52
814.5	292.08
814.808	289.82
815.116	283.04
815.424	328.24
815.733	278.52
816.041	231.07
816.349	260.45
816.657	321.46
816.965	339.54
817.273	312.42
817.581	280.78
817.889	260.45
818.196	262.7
818.504	330.5
818.812	271.74
819.12	301.12
819.427	269.48
819.735	319.2
820.042	350.84
820.349	276.26
820.657	274
820.964	355.36
821.271	285.3
821.579	305.64
821.886	314.68
822.193	289.82
822.5	319.2
822.807	328.24
823.114	235.59
823.421	244.63
823.727	307.9
824.034	335.02
824.341	285.3
824.648	283.04
824.954	353.1
825.261	346.32
825.567	269.48
825.874	280.78
826.18	285.3
826.486	228.81
826.793	312.42
827.099	325.98
827.405	269.48
827.711	210.73
828.017	303.38
828.323	251.41
828.629	280.78
828.935	298.86
829.241	307.9
829.547	346.32
829.852	264.96
830.158	292.08
830.464	258.19
830.769	228.81
831.075	325.98
831.38	274
831.686	262.7
831.991	335.02
832.296	244.63
832.601	267.22
832.907	312.42
833.212	303.38
833.517	255.93
833.822	226.55
834.127	258.19
834.432	264.96
834.737	249.15
835.041	366.66
835.346	307.9
835.651	278.52
835.956	301.12
836.26	292.08
836.565	274
836.869	274
837.174	294.34
837.478	283.04
837.782	348.58
838.087	319.2
838.391	278.52
838.695	296.6
838.999	301.12
839.303	271.74
839.607	271.74
839.911	253.67
840.215	330.5
840.519	341.8
840.822	323.72
841.126	323.72
841.43	341.8
841.733	264.96
842.037	314.68
842.34	260.45
842.644	253.67
842.947	298.86
843.251	260.45
843.554	274
843.857	341.8
844.16	222.03
844.463	330.5
844.766	303.38
845.069	337.28
845.372	283.04
845.675	303.38
845.978	316.94
846.281	328.24
846.583	341.8
846.886	301.12
847.189	344.06
847.491	274
847.794	307.9
848.096	305.64
848.399	269.48
848.701	278.52
849.003	305.64
849.305	249.15
849.608	353.1
849.91	330.5
850.212	332.76
850.514	310.16
850.816	206.21
851.118	260.45
851.419	285.3
851.721	310.16
852.023	274
852.325	278.52
852.626	212.99
852.928	267.22
853.229	278.52
853.531	267.22
853.832	255.93
854.133	276.26
854.435	341.8
854.736	262.7
855.037	319.2
855.338	296.6
855.639	276.26
855.94	197.17
856.241	289.82
856.542	269.48
856.843	287.56
857.144	319.2
857.444	264.96
857.745	267.22
858.046	267.22
858.346	271.74
858.647	341.8
858.947	373.44
859.247	305.64
859.548	246.89
859.848	231.07
860.148	287.56
860.448	285.3
860.749	242.37
861.049	312.42
861.349	289.82
861.648	305.64
861.948	226.55
862.248	303.38
862.548	280.78
862.848	307.9
863.147	253.67
863.447	283.04
863.746	287.56
864.046	323.72
864.345	321.46
864.645	330.5
864.944	258.19
865.243	314.68
865.542	249.15
865.842	274
866.141	224.29
866.44	233.33
866.739	316.94
867.038	194.91
867.337	287.56
867.635	287.56
867.934	242.37
868.233	335.02
868.531	287.56
868.83	285.3
869.129	233.33
869.427	269.48
869.725	283.04
870.024	303.38
870.322	242.37
870.62	310.16
870.918	310.16
871.217	323.72
871.515	298.86
871.813	328.24
872.111	289.82
872.409	289.82
872.706	305.64
873.004	348.58
873.302	307.9
873.6	294.34
873.897	321.46
874.195	264.96
874.492	215.25
874.79	292.08
875.087	310.16
875.384	280.78
875.682	274
875.979	298.86
876.276	269.48
876.573	222.03
876.87	222.03
877.167	222.03
