Data from PL_2polymer_F8BT_MEHPPV_USB2H096331_0143.txt Node
Date: Tue Dec 15 15:30:43 CET 2020
User: spadmin
Spectrometer: USB2+H09633
Trigger mode: 0
Integration Time (sec): 1.000000E-2
Scans to average: 1
Electric dark correction enabled: true
Nonlinearity correction enabled: false
Boxcar width: 0
XAxis mode: Wavelengths
Number of Pixels in Spectrum: 2048
>>>>>Begin Spectral Data<<<<<
174.027	-41.81
174.405	-41.81
174.783	-41.81
175.162	-91.52
175.54	-123.16
175.918	-71.18
176.296	-114.12
176.674	-102.82
177.052	-48.59
177.43	-53.11
177.808	-68.92
178.186	-46.33
178.564	-37.29
178.942	-7.91
179.32	-7.91
179.698	-5.65
180.076	35.03
180.453	55.37
180.831	57.63
181.209	136.72
181.587	120.9
181.965	87
182.342	123.16
182.72	206.77
183.098	211.29
183.475	238.41
183.853	229.37
184.231	279.09
184.608	299.43
184.986	218.07
185.363	303.95
185.741	245.19
186.118	351.4
186.496	288.13
186.873	306.21
187.251	335.58
187.628	389.82
188.006	306.21
188.383	292.65
188.76	371.74
189.138	344.62
189.515	380.78
189.892	353.66
190.27	342.36
190.647	306.21
191.024	315.25
191.401	346.88
191.778	392.08
192.155	346.88
192.533	353.66
192.91	342.36
193.287	353.66
193.664	310.73
194.041	279.09
194.418	308.47
194.795	344.62
195.172	333.32
195.549	303.95
195.926	360.44
196.302	317.51
196.679	326.55
197.056	319.77
197.433	285.87
197.81	346.88
198.187	328.8
198.563	299.43
198.94	297.17
199.317	351.4
199.693	324.29
200.07	324.29
200.447	292.65
200.823	306.21
201.2	274.57
201.576	283.61
201.953	279.09
202.329	292.65
202.706	355.92
203.082	310.73
203.459	353.66
203.835	281.35
204.212	290.39
204.588	303.95
204.964	335.58
205.341	306.21
205.717	374
206.093	310.73
206.469	328.8
206.846	317.51
207.222	328.8
207.598	281.35
207.974	274.57
208.35	367.22
208.726	256.49
209.102	276.83
209.479	333.32
209.855	349.14
210.231	369.48
210.607	301.69
210.982	312.99
211.358	308.47
211.734	319.77
212.11	342.36
212.486	355.92
212.862	344.62
213.238	392.08
213.614	335.58
213.989	344.62
214.365	364.96
214.741	360.44
215.116	279.09
215.492	326.55
215.868	310.73
216.243	340.1
216.619	337.84
216.995	392.08
217.37	380.78
217.746	401.12
218.121	308.47
218.497	337.84
218.872	256.49
219.247	346.88
219.623	349.14
219.998	331.06
220.374	299.43
220.749	367.22
221.124	337.84
221.499	346.88
221.875	267.79
222.25	328.8
222.625	337.84
223	387.56
223.376	410.16
223.751	344.62
224.126	353.66
224.501	351.4
224.876	310.73
225.251	378.52
225.626	342.36
226.001	349.14
226.376	360.44
226.751	324.29
227.126	355.92
227.501	349.14
227.875	367.22
228.25	376.26
228.625	319.77
229	299.43
229.375	310.73
229.749	392.08
230.124	331.06
230.499	299.43
230.873	344.62
231.248	346.88
231.623	358.18
231.997	362.7
232.372	317.51
232.746	385.3
233.121	337.84
233.495	297.17
233.87	383.04
234.244	331.06
234.619	403.38
234.993	315.25
235.367	301.69
235.742	416.94
236.116	358.18
236.49	439.54
236.865	398.86
237.239	374
237.613	389.82
237.987	326.55
238.361	419.2
238.736	353.66
239.11	369.48
239.484	355.92
239.858	331.06
240.232	387.56
240.606	335.58
240.98	369.48
241.354	387.56
241.728	376.26
242.102	380.78
242.475	392.08
242.849	364.96
243.223	392.08
243.597	425.98
243.971	367.22
244.344	401.12
244.718	337.84
245.092	301.69
245.466	369.48
245.839	448.58
246.213	337.84
246.586	351.4
246.96	290.39
247.334	376.26
247.707	351.4
248.081	358.18
248.454	385.3
248.828	389.82
249.201	414.68
249.574	383.04
249.948	398.86
250.321	385.3
250.694	412.42
251.068	389.82
251.441	346.88
251.814	378.52
252.187	412.42
252.561	435.02
252.934	364.96
253.307	346.88
253.68	396.6
254.053	457.62
254.426	403.38
254.799	385.3
255.172	346.88
255.545	407.9
255.918	353.66
256.291	374
256.664	371.74
257.037	419.2
257.41	401.12
257.782	403.38
258.155	376.26
258.528	419.2
258.901	369.48
259.273	349.14
259.646	360.44
260.019	446.32
260.391	367.22
260.764	444.06
261.137	428.24
261.509	407.9
261.882	439.54
262.254	385.3
262.627	471.17
262.999	303.95
263.372	457.62
263.744	455.36
264.116	303.95
264.489	392.08
264.861	374
265.233	337.84
265.606	441.8
265.978	385.3
266.35	392.08
266.722	468.91
267.094	444.06
267.467	342.36
267.839	376.26
268.211	371.74
268.583	385.3
268.955	437.28
269.327	371.74
269.699	394.34
270.071	369.48
270.443	351.4
270.815	496.03
271.186	392.08
271.558	412.42
271.93	344.62
272.302	369.48
272.674	349.14
273.045	380.78
273.417	376.26
273.789	389.82
274.16	437.28
274.532	376.26
274.904	340.1
275.275	450.84
275.647	464.39
276.018	441.8
276.39	425.98
276.761	387.56
277.133	466.65
277.504	378.52
277.875	439.54
278.247	459.87
278.618	414.68
278.989	403.38
279.361	419.2
279.732	401.12
280.103	414.68
280.474	364.96
280.846	405.64
281.217	455.36
281.588	414.68
281.959	351.4
282.33	394.34
282.701	344.62
283.072	419.2
283.443	435.02
283.814	455.36
284.185	421.46
284.556	412.42
284.927	459.87
285.297	459.87
285.668	448.58
286.039	444.06
286.41	432.76
286.781	398.86
287.151	412.42
287.522	419.2
287.893	423.72
288.263	407.9
288.634	387.56
289.004	407.9
289.375	387.56
289.745	419.2
290.116	423.72
290.486	453.1
290.857	441.8
291.227	425.98
291.598	441.8
291.968	457.62
292.338	412.42
292.709	516.37
293.079	394.34
293.449	471.17
293.819	346.88
294.189	511.85
294.56	471.17
294.93	475.69
295.3	466.65
295.67	489.25
296.04	473.43
296.41	416.94
296.78	509.59
297.15	425.98
297.52	471.17
297.89	462.13
298.259	389.82
298.629	473.43
298.999	466.65
299.369	473.43
299.739	387.56
300.108	412.42
300.478	462.13
300.848	394.34
301.217	453.1
301.587	410.16
301.957	466.65
302.326	480.21
302.696	505.07
303.065	500.55
303.435	475.69
303.804	421.46
304.174	493.77
304.543	430.5
304.912	500.55
305.282	459.87
305.651	491.51
306.02	468.91
306.39	516.37
306.759	435.02
307.128	496.03
307.497	464.39
307.866	527.67
308.235	435.02
308.604	500.55
308.974	572.87
309.343	559.31
309.712	597.72
310.08	484.73
310.449	563.83
310.818	525.41
311.187	489.25
311.556	532.19
311.925	520.89
312.294	468.91
312.662	491.51
313.031	475.69
313.4	516.37
313.769	529.93
314.137	493.77
314.506	509.59
314.874	543.49
315.243	557.05
315.612	516.37
315.98	468.91
316.349	570.61
316.717	572.87
317.085	502.81
317.454	437.28
317.822	493.77
318.191	496.03
318.559	541.23
318.927	552.53
319.295	518.63
319.664	554.79
320.032	480.21
320.4	444.06
320.768	471.17
321.136	502.81
321.504	475.69
321.872	575.13
322.24	520.89
322.608	529.93
322.976	457.62
323.344	523.15
323.712	529.93
324.08	486.99
324.448	532.19
324.816	511.85
325.183	527.67
325.551	554.79
325.919	498.29
326.287	520.89
326.654	448.58
327.022	536.71
327.389	536.71
327.757	525.41
328.125	496.03
328.492	453.1
328.86	550.27
329.227	511.85
329.594	586.43
329.962	572.87
330.329	581.91
330.697	493.77
331.064	577.39
331.431	489.25
331.798	559.31
332.166	559.31
332.533	656.48
332.9	572.87
333.267	613.54
333.634	631.62
334.001	602.24
334.368	658.74
334.735	527.67
335.102	507.33
335.469	581.91
335.836	586.43
336.203	552.53
336.57	661
336.937	590.94
337.304	586.43
337.67	665.52
338.037	563.83
338.404	651.96
338.771	636.14
339.137	613.54
339.504	602.24
339.87	627.1
340.237	692.64
340.604	636.14
340.97	670.04
341.337	624.84
341.703	633.88
342.069	651.96
342.436	649.7
342.802	649.7
343.169	703.94
343.535	586.43
343.901	636.14
344.267	629.36
344.634	620.32
345	602.24
345.366	620.32
345.732	627.1
346.098	663.26
346.464	674.56
346.83	719.76
347.196	690.38
347.562	602.24
347.928	676.82
348.294	661
348.66	638.4
349.026	672.3
349.392	615.8
349.757	676.82
350.123	672.3
350.489	638.4
350.855	645.18
351.22	670.04
351.586	645.18
351.951	692.64
352.317	699.42
352.683	731.05
353.048	744.61
353.414	735.57
353.779	740.09
354.144	740.09
354.51	798.85
354.875	728.79
355.24	771.73
355.606	753.65
355.971	767.21
356.336	697.16
356.701	835.01
357.067	821.45
357.432	783.03
357.797	762.69
358.162	789.81
358.527	760.43
358.892	801.11
359.257	807.89
359.622	803.37
359.987	859.86
360.352	909.58
360.717	837.27
361.082	850.83
361.446	803.37
361.811	900.54
362.176	898.28
362.541	893.76
362.905	916.36
363.27	923.14
363.635	807.89
363.999	986.41
364.364	943.48
364.728	909.58
365.093	970.6
365.457	999.97
365.822	936.7
366.186	957.04
366.55	1027.09
366.915	1013.53
367.279	1079.07
367.643	1063.25
368.008	1022.57
368.372	1029.35
368.736	1140.08
369.1	1183.02
369.464	1033.87
369.828	1207.88
370.192	1099.41
370.556	1169.46
370.92	1192.06
371.284	1158.16
371.648	1183.02
372.012	1228.22
372.376	1411.26
372.74	1395.44
373.104	1467.76
373.468	1456.46
373.831	1603.35
374.195	1454.2
374.559	1598.83
374.922	1589.79
375.286	1655.32
375.65	1684.7
376.013	1793.17
376.377	1879.05
376.74	1906.16
377.104	2010.12
377.467	2093.73
377.83	2127.63
378.194	2195.42
378.557	2407.85
378.92	2482.42
379.284	2649.65
379.647	2717.44
380.01	2911.79
380.373	3049.64
380.736	3307.26
381.1	3709.51
381.463	3786.34
381.826	4077.86
382.189	4364.86
382.552	4640.56
382.915	5015.69
383.278	5354.66
383.64	5894.76
384.003	6358.02
384.366	7153.48
384.729	7783.98
385.092	8057.42
385.454	8825.76
385.817	9957.93
386.18	10789.55
386.542	11865.22
386.905	13223.38
387.268	14328.44
387.63	15903.54
387.993	17160
388.355	18820.97
388.718	20676.29
389.08	22506.75
389.442	24493.14
389.805	26728.11
390.167	28542.75
390.529	31629.68
390.892	35774.2
391.254	37557.2
391.616	39943.58
391.978	44813.51
392.34	48607.76
392.702	50298.11
393.064	53452.83
393.426	55278.77
393.788	56980.42
394.15	58532.92
394.512	60492.19
394.874	62071.81
395.236	63782.5
395.598	65041.23
395.96	65041.23
396.321	65041.23
396.683	65041.23
397.045	65041.23
397.406	65041.23
397.768	65041.23
398.13	65041.23
398.491	65041.23
398.853	65041.23
399.214	65041.23
399.576	65041.23
399.937	65041.23
400.299	65041.23
400.66	65041.23
401.021	65041.23
401.383	65041.23
401.744	65041.23
402.105	65041.23
402.466	65041.23
402.827	65041.23
403.189	65041.23
403.55	65041.23
403.911	65041.23
404.272	65041.23
404.633	65041.23
404.994	65041.23
405.355	65041.23
405.716	65041.23
406.077	65041.23
406.437	65041.23
406.798	65041.23
407.159	65041.23
407.52	65041.23
407.88	65041.23
408.241	65041.23
408.602	65041.23
408.962	65041.23
409.323	65041.23
409.684	65041.23
410.044	65041.23
410.405	65041.23
410.765	65041.23
411.125	65041.23
411.486	65041.23
411.846	65041.23
412.206	65041.23
412.567	65041.23
412.927	65041.23
413.287	65041.23
413.647	65041.23
414.007	65041.23
414.368	65041.23
414.728	65041.23
415.088	65041.23
415.448	65041.23
415.808	65041.23
416.168	65041.23
416.528	65041.23
416.887	65041.23
417.247	65041.23
417.607	65041.23
417.967	65041.23
418.327	65041.23
418.686	65041.23
419.046	65041.23
419.406	65041.23
419.765	65041.23
420.125	65041.23
420.484	65041.23
420.844	65041.23
421.203	65041.23
421.563	65041.23
421.922	65041.23
422.282	63669.51
422.641	62187.07
423	61007.44
423.36	60302.37
423.719	58273.04
424.078	56153.33
424.437	54236.99
424.796	53418.93
425.155	51873.21
425.515	49577.23
425.874	48243.93
426.233	43794.33
426.592	41753.7
426.95	40867.85
427.309	38492.77
427.668	37817.08
428.027	34321.13
428.386	33758.43
428.745	30520.1
429.103	28601.51
429.462	27401.54
429.821	25882.94
430.179	24527.04
430.538	23702.2
430.897	23159.84
431.255	21751.97
431.614	20649.17
431.972	19767.84
432.33	18782.56
432.689	18809.67
433.047	17498.97
433.405	16242.51
433.764	15654.96
434.122	15295.64
434.48	14497.92
434.838	13840.31
435.197	13157.85
435.555	12665.2
435.913	12224.54
436.271	11607.6
436.629	10990.67
436.987	10572.6
437.345	10310.46
437.703	9797.48
438.061	9232.53
438.418	8785.08
438.776	8009.96
439.134	8073.23
439.492	7865.33
439.849	7327.49
440.207	7035.97
440.565	6819.03
440.922	6238.25
441.28	5989.67
441.637	6003.23
441.995	5596.46
442.352	5379.52
442.71	5137.72
443.067	5196.47
443.425	4730.95
443.782	4629.26
444.139	4617.96
444.496	4412.31
444.854	4170.51
445.211	3940.01
445.568	4012.32
445.925	3549.06
446.282	3501.6
446.639	3438.33
446.996	3438.33
447.353	3537.76
447.71	3359.23
448.067	3259.8
448.424	3033.82
448.781	2909.53
449.137	2789.76
449.494	2803.32
449.851	2602.19
450.208	2561.51
450.564	2516.32
450.921	2360.39
451.278	2387.51
451.634	2288.08
451.991	2190.9
452.347	2249.66
452.704	2132.15
453.06	1940.06
453.416	1908.42
453.773	1806.73
454.129	1824.81
454.485	1727.64
454.841	1738.94
455.198	1732.16
455.554	1603.35
455.91	1580.75
456.266	1580.75
456.622	1470.02
456.978	1390.92
457.334	1411.26
457.69	1325.39
458.046	1284.71
458.402	1338.95
458.758	1259.85
459.114	1248.55
459.469	1223.7
459.825	1106.19
460.181	1126.52
460.536	1117.48
460.892	1013.53
461.248	1002.23
461.603	999.97
461.959	957.04
462.314	929.92
462.67	975.12
463.025	993.19
463.38	891.5
463.736	970.6
464.091	1006.75
464.446	993.19
464.802	920.88
465.157	884.72
465.512	941.22
465.867	868.9
466.222	844.05
466.577	848.57
466.932	844.05
467.287	873.42
467.642	783.03
467.997	746.87
468.352	850.83
468.707	821.45
469.062	773.99
469.417	755.91
469.771	731.05
470.126	771.73
470.481	701.68
470.835	685.86
471.19	715.24
471.544	708.46
471.899	663.26
472.253	712.98
472.608	672.3
472.962	681.34
473.317	613.54
473.671	692.64
474.025	670.04
474.38	715.24
474.734	681.34
475.088	670.04
475.442	618.06
475.796	647.44
476.15	667.78
476.504	658.74
476.858	674.56
477.212	670.04
477.566	692.64
477.92	636.14
478.274	606.76
478.628	590.94
478.982	532.19
479.336	645.18
479.689	597.72
480.043	516.37
480.397	658.74
480.75	597.72
481.104	568.35
481.457	622.58
481.811	629.36
482.164	604.5
482.518	552.53
482.871	548.01
483.225	548.01
483.578	493.77
483.931	581.91
484.284	584.17
484.638	566.09
484.991	631.62
485.344	545.75
485.697	572.87
486.05	590.94
486.403	581.91
486.756	505.07
487.109	554.79
487.462	516.37
487.815	611.28
488.168	590.94
488.52	514.11
488.873	509.59
489.226	435.02
489.579	496.03
489.931	527.67
490.284	516.37
490.637	482.47
490.989	477.95
491.342	520.89
491.694	502.81
492.047	446.32
492.399	475.69
492.751	514.11
493.104	450.84
493.456	473.43
493.808	453.1
494.16	525.41
494.513	466.65
494.865	421.46
495.217	545.75
495.569	493.77
495.921	403.38
496.273	486.99
496.625	468.91
496.977	496.03
497.329	466.65
497.68	421.46
498.032	471.17
498.384	475.69
498.736	468.91
499.087	536.71
499.439	486.99
499.791	430.5
500.142	444.06
500.494	466.65
500.845	401.12
501.197	466.65
501.548	364.96
501.9	437.28
502.251	428.24
502.602	477.95
502.954	477.95
503.305	498.29
503.656	430.5
504.007	374
504.358	414.68
504.709	496.03
505.061	435.02
505.412	428.24
505.763	466.65
506.113	416.94
506.464	398.86
506.815	473.43
507.166	385.3
507.517	439.54
507.868	425.98
508.218	401.12
508.569	448.58
508.92	425.98
509.27	410.16
509.621	416.94
509.971	405.64
510.322	484.73
510.672	401.12
511.023	421.46
511.373	403.38
511.723	527.67
512.074	387.56
512.424	459.87
512.774	396.6
513.124	480.21
513.475	444.06
513.825	453.1
514.175	459.87
514.525	493.77
514.875	520.89
515.225	414.68
515.575	419.2
515.924	459.87
516.274	450.84
516.624	457.62
516.974	466.65
517.324	396.6
517.673	441.8
518.023	346.88
518.373	459.87
518.722	419.2
519.072	392.08
519.421	425.98
519.771	414.68
520.12	432.76
520.469	416.94
520.819	441.8
521.168	423.72
521.517	462.13
521.867	405.64
522.216	419.2
522.565	403.38
522.914	419.2
523.263	414.68
523.612	387.56
523.961	423.72
524.31	471.17
524.659	462.13
525.008	450.84
525.357	516.37
525.705	407.9
526.054	448.58
526.403	410.16
526.752	432.76
527.1	416.94
527.449	405.64
527.797	416.94
528.146	482.47
528.495	491.51
528.843	414.68
529.191	419.2
529.54	432.76
529.888	355.92
530.236	416.94
530.585	435.02
530.933	419.2
531.281	441.8
531.629	430.5
531.977	432.76
532.325	380.78
532.673	410.16
533.021	412.42
533.369	412.42
533.717	430.5
534.065	444.06
534.413	398.86
534.761	423.72
535.108	374
535.456	401.12
535.804	396.6
536.151	437.28
536.499	450.84
536.847	349.14
537.194	421.46
537.542	428.24
537.889	419.2
538.236	410.16
538.584	428.24
538.931	398.86
539.278	416.94
539.626	410.16
539.973	387.56
540.32	421.46
540.667	396.6
541.014	416.94
541.361	333.32
541.708	398.86
542.055	349.14
542.402	292.65
542.749	403.38
543.096	412.42
543.443	428.24
543.789	385.3
544.136	358.18
544.483	385.3
544.83	367.22
545.176	430.5
545.523	358.18
545.869	310.73
546.216	353.66
546.562	407.9
546.909	360.44
547.255	369.48
547.601	367.22
547.948	437.28
548.294	344.62
548.64	374
548.986	344.62
549.332	401.12
549.678	374
550.025	342.36
550.371	288.13
550.717	288.13
551.062	432.76
551.408	389.82
551.754	405.64
552.1	328.8
552.446	374
552.792	290.39
553.137	301.69
553.483	371.74
553.828	351.4
554.174	342.36
554.52	344.62
554.865	405.64
555.211	261.01
555.556	351.4
555.901	362.7
556.247	360.44
556.592	308.47
556.937	346.88
557.282	346.88
557.628	288.13
557.973	317.51
558.318	364.96
558.663	292.65
559.008	319.77
559.353	258.75
559.698	299.43
560.043	351.4
560.388	297.17
560.732	283.61
561.077	380.78
561.422	403.38
561.766	369.48
562.111	335.58
562.456	306.21
562.8	383.04
563.145	315.25
563.489	360.44
563.834	346.88
564.178	349.14
564.523	378.52
564.867	303.95
565.211	337.84
565.555	319.77
565.9	326.55
566.244	369.48
566.588	331.06
566.932	326.55
567.276	364.96
567.62	322.03
567.964	398.86
568.308	319.77
568.652	319.77
568.996	308.47
569.339	340.1
569.683	301.69
570.027	299.43
570.371	319.77
570.714	360.44
571.058	312.99
571.401	299.43
571.745	322.03
572.088	317.51
572.432	387.56
572.775	358.18
573.118	351.4
573.462	310.73
573.805	342.36
574.148	351.4
574.491	349.14
574.835	355.92
575.178	267.79
575.521	319.77
575.864	394.34
576.207	378.52
576.55	326.55
576.892	310.73
577.235	306.21
577.578	285.87
577.921	401.12
578.264	353.66
578.606	242.93
578.949	306.21
579.292	281.35
579.634	297.17
579.977	337.84
580.319	346.88
580.662	263.27
581.004	294.91
581.346	290.39
581.689	355.92
582.031	319.77
582.373	340.1
582.715	385.3
583.057	283.61
583.4	337.84
583.742	274.57
584.084	346.88
584.426	270.05
584.768	283.61
585.109	342.36
585.451	349.14
585.793	344.62
586.135	355.92
586.477	276.83
586.818	279.09
587.16	398.86
587.502	326.55
587.843	267.79
588.185	353.66
588.526	401.12
588.868	324.29
589.209	398.86
589.55	319.77
589.892	308.47
590.233	288.13
590.574	288.13
590.915	261.01
591.257	344.62
591.598	319.77
591.939	297.17
592.28	301.69
592.621	344.62
592.962	346.88
593.303	290.39
593.643	328.8
593.984	258.75
594.325	306.21
594.666	274.57
595.006	360.44
595.347	306.21
595.688	242.93
596.028	274.57
596.369	324.29
596.709	322.03
597.05	281.35
597.39	220.33
597.73	274.57
598.071	317.51
598.411	279.09
598.751	337.84
599.091	297.17
599.431	263.27
599.772	303.95
600.112	310.73
600.452	272.31
600.792	276.83
601.132	261.01
601.471	285.87
601.811	272.31
602.151	349.14
602.491	315.25
602.831	288.13
603.17	349.14
603.51	367.22
603.849	319.77
604.189	288.13
604.528	360.44
604.868	310.73
605.207	270.05
605.547	312.99
605.886	342.36
606.225	310.73
606.565	303.95
606.904	294.91
607.243	328.8
607.582	328.8
607.921	279.09
608.26	308.47
608.599	290.39
608.938	270.05
609.277	326.55
609.616	285.87
609.955	340.1
610.293	315.25
610.632	299.43
610.971	279.09
611.309	229.37
611.648	310.73
611.987	276.83
612.325	290.39
612.664	340.1
613.002	335.58
613.34	319.77
613.679	274.57
614.017	374
614.355	276.83
614.694	362.7
615.032	333.32
615.37	301.69
615.708	315.25
616.046	274.57
616.384	342.36
616.722	353.66
617.06	371.74
617.398	371.74
617.736	272.31
618.073	270.05
618.411	297.17
618.749	297.17
619.086	240.67
619.424	308.47
619.762	303.95
620.099	303.95
620.437	263.27
620.774	297.17
621.112	290.39
621.449	319.77
621.786	263.27
622.123	281.35
622.461	254.23
622.798	270.05
623.135	263.27
623.472	306.21
623.809	276.83
624.146	337.84
624.483	285.87
624.82	261.01
625.157	324.29
625.494	285.87
625.83	258.75
626.167	213.55
626.504	249.71
626.841	303.95
627.177	328.8
627.514	283.61
627.85	292.65
628.187	312.99
628.523	231.63
628.86	303.95
629.196	380.78
629.532	285.87
629.869	231.63
630.205	351.4
630.541	294.91
630.877	297.17
631.213	263.27
631.549	238.41
631.885	285.87
632.221	292.65
632.557	315.25
632.893	267.79
633.229	256.49
633.564	367.22
633.9	297.17
634.236	346.88
634.572	272.31
634.907	258.75
635.243	322.03
635.578	335.58
635.914	308.47
636.249	265.53
636.585	265.53
636.92	288.13
637.255	317.51
637.59	276.83
637.926	308.47
638.261	301.69
638.596	249.71
638.931	322.03
639.266	279.09
639.601	319.77
639.936	303.95
640.271	279.09
640.606	229.37
640.94	324.29
641.275	297.17
641.61	301.69
641.945	288.13
642.279	364.96
642.614	303.95
642.948	261.01
643.283	267.79
643.617	274.57
643.952	303.95
644.286	333.32
644.62	297.17
644.955	288.13
645.289	263.27
645.623	324.29
645.957	317.51
646.291	292.65
646.625	283.61
646.959	256.49
647.293	222.59
647.627	294.91
647.961	283.61
648.295	299.43
648.629	331.06
648.962	326.55
649.296	346.88
649.63	222.59
649.963	249.71
650.297	360.44
650.63	238.41
650.964	220.33
651.297	245.19
651.631	326.55
651.964	340.1
652.297	270.05
652.631	294.91
652.964	346.88
653.297	233.89
653.63	312.99
653.963	288.13
654.296	238.41
654.629	306.21
654.962	220.33
655.295	337.84
655.628	315.25
655.961	324.29
656.293	292.65
656.626	251.97
656.959	290.39
657.291	265.53
657.624	272.31
657.956	279.09
658.289	285.87
658.621	285.87
658.954	263.27
659.286	224.85
659.618	233.89
659.95	279.09
660.283	306.21
660.615	299.43
660.947	261.01
661.279	337.84
661.611	301.69
661.943	306.21
662.275	306.21
662.607	285.87
662.939	261.01
663.27	247.45
663.602	270.05
663.934	283.61
664.266	240.67
664.597	315.25
664.929	303.95
665.26	258.75
665.592	303.95
665.923	297.17
666.255	249.71
666.586	340.1
666.917	231.63
667.248	193.22
667.58	274.57
667.911	297.17
668.242	206.77
668.573	326.55
668.904	272.31
669.235	306.21
669.566	299.43
669.897	279.09
670.228	306.21
670.558	254.23
670.889	297.17
671.22	238.41
671.551	324.29
671.881	265.53
672.212	256.49
672.542	303.95
672.873	279.09
673.203	322.03
673.533	310.73
673.864	218.07
674.194	256.49
674.524	281.35
674.855	328.8
675.185	290.39
675.515	263.27
675.845	322.03
676.175	263.27
676.505	317.51
676.835	360.44
677.165	385.3
677.494	285.87
677.824	231.63
678.154	215.81
678.484	222.59
678.813	279.09
679.143	276.83
679.472	310.73
679.802	254.23
680.131	263.27
680.461	229.37
680.79	242.93
681.119	276.83
681.449	285.87
681.778	224.85
682.107	245.19
682.436	281.35
682.765	328.8
683.094	299.43
683.423	328.8
683.752	215.81
684.081	276.83
684.41	281.35
684.739	220.33
685.067	281.35
685.396	294.91
685.725	303.95
686.053	258.75
686.382	306.21
686.711	317.51
687.039	312.99
687.367	211.29
687.696	281.35
688.024	279.09
688.352	317.51
688.681	242.93
689.009	290.39
689.337	310.73
689.665	281.35
689.993	288.13
690.321	290.39
690.649	337.84
690.977	294.91
691.305	229.37
691.633	274.57
691.961	274.57
692.288	274.57
692.616	254.23
692.944	211.29
693.271	297.17
693.599	324.29
693.926	242.93
694.254	245.19
694.581	261.01
694.908	233.89
695.236	292.65
695.563	258.75
695.89	270.05
696.217	256.49
696.544	288.13
696.871	322.03
697.198	290.39
697.525	294.91
697.852	267.79
698.179	254.23
698.506	283.61
698.833	263.27
699.16	270.05
699.486	254.23
699.813	265.53
700.139	288.13
700.466	267.79
700.793	247.45
701.119	263.27
701.445	227.11
701.772	254.23
702.098	270.05
702.424	279.09
702.75	263.27
703.077	319.77
703.403	283.61
703.729	276.83
704.055	231.63
704.381	251.97
704.707	292.65
705.033	283.61
705.358	211.29
705.684	297.17
706.01	222.59
706.336	292.65
706.661	224.85
706.987	324.29
707.312	290.39
707.638	312.99
707.963	301.69
708.289	258.75
708.614	265.53
708.939	274.57
709.265	294.91
709.59	261.01
709.915	306.21
710.24	342.36
710.565	299.43
710.89	261.01
711.215	188.7
711.54	240.67
711.865	258.75
712.19	251.97
712.515	242.93
712.839	247.45
713.164	186.44
713.489	283.61
713.813	276.83
714.138	270.05
714.462	229.37
714.787	267.79
715.111	229.37
715.435	231.63
715.76	222.59
716.084	288.13
716.408	199.99
716.732	218.07
717.056	301.69
717.381	274.57
717.705	231.63
718.028	288.13
718.352	218.07
718.676	236.15
719	186.44
719.324	306.21
719.648	270.05
719.971	247.45
720.295	272.31
720.618	301.69
720.942	263.27
721.265	312.99
721.589	335.58
721.912	238.41
722.236	251.97
722.559	285.87
722.882	283.61
723.205	281.35
723.528	297.17
723.851	303.95
724.174	265.53
724.497	233.89
724.82	297.17
725.143	281.35
725.466	276.83
725.789	288.13
726.112	265.53
726.434	261.01
726.757	288.13
727.08	229.37
727.402	247.45
727.725	261.01
728.047	236.15
728.37	263.27
728.692	317.51
729.014	242.93
729.336	333.32
729.659	285.87
729.981	261.01
730.303	218.07
730.625	258.75
730.947	312.99
731.269	290.39
731.591	256.49
731.913	267.79
732.235	279.09
732.556	270.05
732.878	242.93
733.2	256.49
733.521	317.51
733.843	224.85
734.164	267.79
734.486	247.45
734.807	274.57
735.129	297.17
735.45	328.8
735.771	301.69
736.092	331.06
736.414	263.27
736.735	288.13
737.056	279.09
737.377	285.87
737.698	247.45
738.019	242.93
738.34	267.79
738.66	324.29
738.981	285.87
739.302	251.97
739.623	288.13
739.943	283.61
740.264	274.57
740.584	263.27
740.905	224.85
741.225	283.61
741.546	290.39
741.866	285.87
742.186	258.75
742.507	195.48
742.827	299.43
743.147	249.71
743.467	179.66
743.787	193.22
744.107	238.41
744.427	224.85
744.747	301.69
745.067	272.31
745.386	236.15
745.706	211.29
746.026	274.57
746.346	181.92
746.665	272.31
746.985	267.79
747.304	258.75
747.624	240.67
747.943	238.41
748.262	247.45
748.582	322.03
748.901	251.97
749.22	267.79
749.539	281.35
749.858	238.41
750.177	229.37
750.496	310.73
750.815	211.29
751.134	231.63
751.453	231.63
751.772	290.39
752.09	211.29
752.409	261.01
752.728	224.85
753.046	279.09
753.365	240.67
753.683	279.09
754.002	209.03
754.32	290.39
754.639	294.91
754.957	254.23
755.275	281.35
755.593	258.75
755.911	236.15
756.23	249.71
756.548	279.09
756.866	272.31
757.183	270.05
757.501	272.31
757.819	319.77
758.137	204.51
758.455	215.81
758.772	199.99
759.09	261.01
759.408	285.87
759.725	270.05
760.043	267.79
760.36	267.79
760.677	303.95
760.995	270.05
761.312	303.95
761.629	258.75
761.946	265.53
762.264	297.17
762.581	265.53
762.898	224.85
763.215	193.22
763.532	306.21
763.848	251.97
764.165	290.39
764.482	249.71
764.799	254.23
765.115	288.13
765.432	274.57
765.749	261.01
766.065	285.87
766.382	229.37
766.698	242.93
767.014	261.01
767.331	251.97
767.647	270.05
767.963	256.49
768.279	267.79
768.595	328.8
768.911	292.65
769.227	283.61
769.543	337.84
769.859	306.21
770.175	251.97
770.491	331.06
770.807	258.75
771.122	279.09
771.438	261.01
771.754	328.8
772.069	290.39
772.385	297.17
772.7	220.33
773.016	224.85
773.331	272.31
773.646	242.93
773.961	285.87
774.277	242.93
774.592	288.13
774.907	258.75
775.222	263.27
775.537	267.79
775.852	294.91
776.167	236.15
776.482	346.88
776.796	312.99
777.111	267.79
777.426	290.39
777.74	326.55
778.055	272.31
778.369	258.75
778.684	281.35
778.998	256.49
779.313	288.13
779.627	256.49
779.941	233.89
780.255	256.49
780.57	270.05
780.884	279.09
781.198	270.05
781.512	240.67
781.826	254.23
782.14	283.61
782.453	249.71
782.767	231.63
783.081	231.63
783.395	224.85
783.708	238.41
784.022	256.49
784.335	251.97
784.649	285.87
784.962	220.33
785.276	288.13
785.589	279.09
785.902	265.53
786.216	256.49
786.529	263.27
786.842	308.47
787.155	337.84
787.468	281.35
787.781	193.22
788.094	288.13
788.407	315.25
788.72	195.48
789.032	229.37
789.345	344.62
789.658	247.45
789.97	265.53
790.283	276.83
790.595	251.97
790.908	249.71
791.22	272.31
791.532	254.23
791.845	288.13
792.157	292.65
792.469	299.43
792.781	242.93
793.093	297.17
793.405	288.13
793.717	256.49
794.029	267.79
794.341	265.53
794.653	238.41
794.965	279.09
795.276	312.99
795.588	285.87
795.9	303.95
796.211	294.91
796.523	267.79
796.834	186.44
797.146	256.49
797.457	242.93
797.768	276.83
798.08	254.23
798.391	240.67
798.702	297.17
799.013	267.79
799.324	242.93
799.635	240.67
799.946	297.17
800.257	279.09
800.568	251.97
800.878	261.01
801.189	249.71
801.5	290.39
801.81	247.45
802.121	204.51
802.431	256.49
802.742	308.47
803.052	279.09
803.363	315.25
803.673	288.13
803.983	249.71
804.293	267.79
804.603	222.59
804.913	249.71
805.224	258.75
805.533	267.79
805.843	177.4
806.153	288.13
806.463	238.41
806.773	294.91
807.083	265.53
807.392	213.55
807.702	294.91
808.011	249.71
808.321	263.27
808.63	258.75
808.94	319.77
809.249	263.27
809.558	261.01
809.868	294.91
810.177	267.79
810.486	184.18
810.795	249.71
811.104	288.13
811.413	315.25
811.722	231.63
812.031	213.55
812.339	276.83
812.648	265.53
812.957	294.91
813.266	308.47
813.574	274.57
813.883	308.47
814.191	312.99
814.5	281.35
814.808	247.45
815.116	256.49
815.424	199.99
815.733	181.92
816.041	283.61
816.349	299.43
816.657	285.87
816.965	290.39
817.273	292.65
817.581	222.59
817.889	267.79
818.196	285.87
818.504	233.89
818.812	181.92
819.12	283.61
819.427	285.87
819.735	218.07
820.042	285.87
820.349	251.97
820.657	281.35
820.964	303.95
821.271	227.11
821.579	283.61
821.886	231.63
822.193	283.61
822.5	251.97
822.807	247.45
823.114	285.87
823.421	312.99
823.727	290.39
824.034	236.15
824.341	247.45
824.648	256.49
824.954	247.45
825.261	254.23
825.567	274.57
825.874	261.01
826.18	270.05
826.486	285.87
826.793	297.17
827.099	240.67
827.405	281.35
827.711	238.41
828.017	328.8
828.323	310.73
828.629	249.71
828.935	319.77
829.241	285.87
829.547	270.05
829.852	220.33
830.158	270.05
830.464	315.25
830.769	261.01
831.075	256.49
831.38	328.8
831.686	299.43
831.991	236.15
832.296	215.81
832.601	267.79
832.907	303.95
833.212	220.33
833.517	242.93
833.822	294.91
834.127	256.49
834.432	288.13
834.737	297.17
835.041	227.11
835.346	270.05
835.651	254.23
835.956	218.07
836.26	292.65
836.565	229.37
836.869	263.27
837.174	342.36
837.478	206.77
837.782	247.45
838.087	276.83
838.391	258.75
838.695	279.09
838.999	299.43
839.303	240.67
839.607	270.05
839.911	229.37
840.215	274.57
840.519	315.25
840.822	249.71
841.126	199.99
841.43	218.07
841.733	317.51
842.037	267.79
842.34	270.05
842.644	231.63
842.947	306.21
843.251	270.05
843.554	274.57
843.857	242.93
844.16	263.27
844.463	204.51
844.766	184.18
845.069	315.25
845.372	285.87
845.675	301.69
845.978	274.57
846.281	251.97
846.583	249.71
846.886	265.53
847.189	297.17
847.491	281.35
847.794	279.09
848.096	308.47
848.399	312.99
848.701	301.69
849.003	251.97
849.305	233.89
849.608	272.31
849.91	220.33
850.212	258.75
850.514	254.23
850.816	245.19
851.118	261.01
851.419	279.09
851.721	276.83
852.023	283.61
852.325	251.97
852.626	261.01
852.928	224.85
853.229	328.8
853.531	322.03
853.832	288.13
854.133	310.73
854.435	231.63
854.736	288.13
855.037	263.27
855.338	267.79
855.639	272.31
855.94	222.59
856.241	254.23
856.542	220.33
856.843	238.41
857.144	270.05
857.444	199.99
857.745	227.11
858.046	231.63
858.346	263.27
858.647	281.35
858.947	233.89
859.247	317.51
859.548	267.79
859.848	290.39
860.148	254.23
860.448	267.79
860.749	315.25
861.049	279.09
861.349	312.99
861.648	272.31
861.948	333.32
862.248	265.53
862.548	279.09
862.848	288.13
863.147	310.73
863.447	231.63
863.746	267.79
864.046	353.66
864.345	285.87
864.645	322.03
864.944	272.31
865.243	238.41
865.542	290.39
865.842	355.92
866.141	270.05
866.44	272.31
866.739	353.66
867.038	263.27
867.337	290.39
867.635	279.09
867.934	190.96
868.233	279.09
868.531	312.99
868.83	240.67
869.129	333.32
869.427	306.21
869.725	279.09
870.024	261.01
870.322	249.71
870.62	258.75
870.918	306.21
871.217	303.95
871.515	288.13
871.813	254.23
872.111	227.11
872.409	281.35
872.706	231.63
873.004	261.01
873.302	247.45
873.6	249.71
873.897	281.35
874.195	254.23
874.492	251.97
874.79	317.51
875.087	220.33
875.384	238.41
875.682	322.03
875.979	215.81
876.276	242.93
876.573	274.57
876.87	274.57
877.167	274.57
