Data from PL_2polymer_F8BT_MEHPPV_USB2H096331_0126.txt Node
Date: Tue Dec 15 15:30:43 CET 2020
User: spadmin
Spectrometer: USB2+H09633
Trigger mode: 0
Integration Time (sec): 1.000000E-2
Scans to average: 1
Electric dark correction enabled: true
Nonlinearity correction enabled: false
Boxcar width: 0
XAxis mode: Wavelengths
Number of Pixels in Spectrum: 2048
>>>>>Begin Spectral Data<<<<<
174.027	-90.25
174.405	-90.25
174.783	-90.25
175.162	-128.67
175.54	-90.25
175.918	-153.53
176.296	-133.19
176.674	-142.23
177.052	-69.91
177.43	-72.17
177.808	-42.8
178.186	29.52
178.564	-24.72
178.942	-4.38
179.32	-20.2
179.698	9.18
180.076	27.26
180.453	83.75
180.831	67.94
181.209	61.16
181.587	79.24
181.965	151.55
182.342	147.03
182.72	210.31
183.098	280.36
183.475	232.9
183.853	244.2
184.231	291.66
184.608	293.92
184.986	334.6
185.363	330.08
185.741	330.08
186.118	325.56
186.496	377.53
186.873	332.34
187.251	312
187.628	305.22
188.006	332.34
188.383	357.19
188.76	384.31
189.138	327.82
189.515	357.19
189.892	366.23
190.27	323.3
190.647	357.19
191.024	409.17
191.401	341.38
191.778	348.15
192.155	352.67
192.533	300.7
192.91	352.67
193.287	300.7
193.664	273.58
194.041	359.45
194.418	377.53
194.795	332.34
195.172	327.82
195.549	307.48
195.926	332.34
196.302	316.52
196.679	307.48
197.056	316.52
197.433	373.01
197.81	361.71
198.187	323.3
198.563	298.44
198.94	350.41
199.317	271.32
199.693	307.48
200.07	323.3
200.447	273.58
200.823	341.38
201.2	357.19
201.576	345.89
201.953	348.15
202.329	382.05
202.706	321.04
203.082	314.26
203.459	321.04
203.835	300.7
204.212	314.26
204.588	375.27
204.964	357.19
205.341	339.12
205.717	289.4
206.093	284.88
206.469	336.86
206.846	321.04
207.222	357.19
207.598	309.74
207.974	348.15
208.35	361.71
208.726	278.1
209.102	348.15
209.479	284.88
209.855	359.45
210.231	332.34
210.607	314.26
210.982	334.6
211.358	391.09
211.734	411.43
212.11	325.56
212.486	278.1
212.862	307.48
213.238	325.56
213.614	332.34
213.989	318.78
214.365	284.88
214.741	296.18
215.116	348.15
215.492	366.23
215.868	363.97
216.243	334.6
216.619	300.7
216.995	323.3
217.37	260.02
217.746	348.15
218.121	420.47
218.497	345.89
218.872	354.93
219.247	321.04
219.623	379.79
219.998	352.67
220.374	336.86
220.749	348.15
221.124	278.1
221.499	400.13
221.875	350.41
222.25	359.45
222.625	332.34
223	348.15
223.376	307.48
223.751	325.56
224.126	341.38
224.501	359.45
224.876	312
225.251	409.17
225.626	352.67
226.001	373.01
226.376	341.38
226.751	388.83
227.126	339.12
227.501	327.82
227.875	332.34
228.25	354.93
228.625	415.95
229	359.45
229.375	352.67
229.749	284.88
230.124	406.91
230.499	366.23
230.873	404.65
231.248	384.31
231.623	373.01
231.997	382.05
232.372	334.6
232.746	359.45
233.121	379.79
233.495	341.38
233.87	343.64
234.244	427.25
234.619	325.56
234.993	305.22
235.367	393.35
235.742	373.01
236.116	397.87
236.49	411.43
236.865	352.67
237.239	386.57
237.613	429.51
237.987	350.41
238.361	343.64
238.736	357.19
239.11	411.43
239.484	418.21
239.858	384.31
240.232	334.6
240.606	397.87
240.98	343.64
241.354	314.26
241.728	393.35
242.102	377.53
242.475	336.86
242.849	316.52
243.223	397.87
243.597	402.39
243.971	370.75
244.344	406.91
244.718	350.41
245.092	404.65
245.466	440.81
245.839	400.13
246.213	388.83
246.586	379.79
246.96	384.31
247.334	415.95
247.707	427.25
248.081	343.64
248.454	413.69
248.828	400.13
249.201	354.93
249.574	334.6
249.948	366.23
250.321	388.83
250.694	415.95
251.068	406.91
251.441	343.64
251.814	341.38
252.187	345.89
252.561	404.65
252.934	357.19
253.307	388.83
253.68	379.79
254.053	415.95
254.426	429.51
254.799	350.41
255.172	363.97
255.545	434.03
255.918	422.73
256.291	321.04
256.664	402.39
257.037	384.31
257.41	393.35
257.782	454.37
258.155	391.09
258.528	368.49
258.901	415.95
259.273	384.31
259.646	434.03
260.019	345.89
260.391	377.53
260.764	397.87
261.137	391.09
261.509	382.05
261.882	366.23
262.254	406.91
262.627	375.27
262.999	379.79
263.372	397.87
263.744	418.21
264.116	332.34
264.489	386.57
264.861	402.39
265.233	370.75
265.606	318.78
265.978	366.23
266.35	368.49
266.722	411.43
267.094	382.05
267.467	402.39
267.839	413.69
268.211	443.07
268.583	400.13
268.955	422.73
269.327	375.27
269.699	395.61
270.071	418.21
270.443	384.31
270.815	373.01
271.186	373.01
271.558	384.31
271.93	397.87
272.302	406.91
272.674	393.35
273.045	415.95
273.417	393.35
273.789	434.03
274.16	434.03
274.532	415.95
274.904	440.81
275.275	424.99
275.647	415.95
276.018	366.23
276.39	409.17
276.761	386.57
277.133	370.75
277.504	377.53
277.875	418.21
278.247	461.15
278.618	431.77
278.989	418.21
279.361	422.73
279.732	449.85
280.103	393.35
280.474	449.85
280.846	438.55
281.217	427.25
281.588	359.45
281.959	474.71
282.33	420.47
282.701	388.83
283.072	472.45
283.443	481.48
283.814	438.55
284.185	409.17
284.556	397.87
284.927	406.91
285.297	483.74
285.668	467.93
286.039	456.63
286.41	458.89
286.781	463.41
287.151	510.86
287.522	429.51
287.893	413.69
288.263	443.07
288.634	427.25
289.004	467.93
289.375	395.61
289.745	413.69
290.116	449.85
290.486	424.99
290.857	492.78
291.227	436.29
291.598	440.81
291.968	445.33
292.338	422.73
292.709	447.59
293.079	443.07
293.449	429.51
293.819	522.16
294.189	424.99
294.56	531.2
294.93	370.75
295.3	431.77
295.67	447.59
296.04	472.45
296.41	370.75
296.78	422.73
297.15	481.48
297.52	497.3
297.89	465.67
298.259	447.59
298.629	515.38
298.999	418.21
299.369	458.89
299.739	438.55
300.108	445.33
300.478	443.07
300.848	458.89
301.217	422.73
301.587	434.03
301.957	366.23
302.326	528.94
302.696	413.69
303.065	456.63
303.435	528.94
303.804	522.16
304.174	531.2
304.543	470.19
304.912	447.59
305.282	506.34
305.651	497.3
306.02	492.78
306.39	474.71
306.759	513.12
307.128	436.29
307.497	465.67
307.866	424.99
308.235	519.9
308.604	488.26
308.974	528.94
309.343	533.46
309.712	476.96
310.08	519.9
310.449	492.78
310.818	519.9
311.187	506.34
311.556	497.3
311.925	463.41
312.294	467.93
312.662	476.96
313.031	537.98
313.4	501.82
313.769	576.4
314.137	452.11
314.506	472.45
314.874	495.04
315.243	528.94
315.612	490.52
315.98	528.94
316.349	551.54
316.717	510.86
317.085	544.76
317.454	499.56
317.822	483.74
318.191	560.58
318.559	488.26
318.927	452.11
319.295	506.34
319.664	515.38
320.032	533.46
320.4	537.98
320.768	547.02
321.136	542.5
321.504	495.04
321.872	490.52
322.24	526.68
322.608	556.06
322.976	524.42
323.344	524.42
323.712	587.7
324.08	488.26
324.448	558.32
324.816	547.02
325.183	551.54
325.551	547.02
325.919	519.9
326.287	560.58
326.654	449.85
327.022	483.74
327.389	621.59
327.757	542.5
328.125	553.8
328.492	495.04
328.86	515.38
329.227	583.18
329.594	501.82
329.962	569.62
330.329	610.29
330.697	528.94
331.064	560.58
331.431	495.04
331.798	483.74
332.166	567.36
332.533	540.24
332.9	542.5
333.267	648.71
333.634	594.48
334.001	610.29
334.368	574.14
334.735	592.22
335.102	605.78
335.469	551.54
335.836	623.85
336.203	601.26
336.57	571.88
336.937	569.62
337.304	583.18
337.67	632.89
338.037	619.33
338.404	537.98
338.771	637.41
339.137	630.63
339.504	556.06
339.87	641.93
340.237	594.48
340.604	623.85
340.97	585.44
341.337	585.44
341.703	599
342.069	644.19
342.436	592.22
342.802	605.78
343.169	637.41
343.535	648.71
343.901	723.29
344.267	650.97
344.634	646.45
345	594.48
345.366	660.01
345.732	682.61
346.098	660.01
346.464	628.37
346.83	628.37
347.196	687.13
347.562	696.17
347.928	741.36
348.294	632.89
348.66	576.4
349.026	614.81
349.392	727.81
349.757	684.87
350.123	671.31
350.489	660.01
350.855	736.85
351.22	702.95
351.586	698.43
351.951	711.99
352.317	723.29
352.683	702.95
353.048	795.6
353.414	680.35
353.779	757.18
354.144	763.96
354.51	804.64
354.875	702.95
355.24	691.65
355.606	838.54
355.971	766.22
356.336	806.9
356.701	806.9
357.067	725.55
357.432	806.9
357.797	761.7
358.162	768.48
358.527	840.8
358.892	885.99
359.257	797.86
359.622	858.88
359.987	870.17
360.352	867.92
360.717	908.59
361.082	834.02
361.446	845.32
361.811	836.28
362.176	804.64
362.541	940.23
362.905	989.95
363.27	908.59
363.635	1053.22
363.999	940.23
364.364	942.49
364.728	978.65
365.093	915.37
365.457	1021.58
365.822	980.91
366.186	931.19
366.55	1010.28
366.915	960.57
367.279	1005.76
367.643	1066.78
368.008	1035.14
368.372	1127.8
368.736	1093.9
369.1	1032.88
369.464	1161.69
369.828	1143.61
370.192	1209.15
370.556	1166.21
370.92	1211.41
371.284	1218.19
371.648	1274.68
372.012	1256.61
372.376	1385.42
372.74	1351.52
373.104	1378.64
373.468	1455.47
373.831	1459.99
374.195	1575.24
374.559	1557.16
374.922	1643.04
375.286	1606.88
375.65	1676.93
376.013	1801.22
376.377	1839.64
376.74	1817.04
377.104	1920.99
377.467	1993.31
377.83	2018.17
378.194	2207.99
378.557	2169.58
378.92	2510.81
379.284	2447.53
379.647	2720.97
380.01	2942.44
380.373	3007.97
380.736	3150.34
381.1	3613.61
381.463	3823.77
381.826	4013.6
382.189	4271.22
382.552	4576.29
382.915	5005.66
383.278	5507.34
383.64	5923.15
384.003	6320.88
384.366	6879.06
384.729	7572.82
385.092	8051.91
385.454	8582.97
385.817	9556.95
386.18	10878.95
386.542	11525.26
386.905	12867.6
387.268	14237.06
387.63	15814.41
387.993	16481.06
388.355	18379.32
388.718	20334.07
389.08	21900.13
389.442	23922.68
389.805	26401.71
390.167	27741.78
390.529	30964.3
390.892	34580.02
391.254	37214.98
391.616	39160.69
391.978	43788.82
392.34	47786.46
392.702	49406.75
393.064	52719.66
393.426	54794.18
393.788	56635.94
394.15	58195.22
394.512	59824.56
394.874	61625.64
395.236	63526.15
395.598	65051.54
395.96	65051.54
396.321	65051.54
396.683	65051.54
397.045	65051.54
397.406	65051.54
397.768	65051.54
398.13	65051.54
398.491	65051.54
398.853	65051.54
399.214	65051.54
399.576	65051.54
399.937	65051.54
400.299	65051.54
400.66	65051.54
401.021	65051.54
401.383	65051.54
401.744	65051.54
402.105	65051.54
402.466	65051.54
402.827	65051.54
403.189	65051.54
403.55	65051.54
403.911	65051.54
404.272	65051.54
404.633	65051.54
404.994	65051.54
405.355	65051.54
405.716	65051.54
406.077	65051.54
406.437	65051.54
406.798	65051.54
407.159	65051.54
407.52	65051.54
407.88	65051.54
408.241	65051.54
408.602	65051.54
408.962	65051.54
409.323	65051.54
409.684	65051.54
410.044	65051.54
410.405	65051.54
410.765	65051.54
411.125	65051.54
411.486	65051.54
411.846	65051.54
412.206	65051.54
412.567	65051.54
412.927	65051.54
413.287	65051.54
413.647	65051.54
414.007	65051.54
414.368	65051.54
414.728	65051.54
415.088	65051.54
415.448	65051.54
415.808	65051.54
416.168	65051.54
416.528	65051.54
416.887	65051.54
417.247	65051.54
417.607	65051.54
417.967	65051.54
418.327	65051.54
418.686	65051.54
419.046	65051.54
419.406	65051.54
419.765	65051.54
420.125	65051.54
420.484	65051.54
420.844	65051.54
421.203	65051.54
421.563	65051.54
421.922	65049.28
422.282	63401.86
422.641	62079.86
423	60658.43
423.36	59833.6
423.719	57817.83
424.078	55962.51
424.437	54355.77
424.796	53045.07
425.155	51420.26
425.515	48764.96
425.874	47596.63
426.233	43641.93
426.592	41058.95
426.95	40419.42
427.309	37809.32
427.668	36989
428.027	33673.83
428.386	33278.36
428.745	29902.18
429.103	28031.04
429.462	27113.55
429.821	25161.06
430.179	24270.69
430.538	23543.03
430.897	23075.24
431.255	21321.61
431.614	20291.13
431.972	19201.9
432.33	18788.35
432.689	18142.04
433.047	17048.28
433.405	16117.23
433.764	15629.11
434.122	14695.8
434.48	14146.66
434.838	13181.72
435.197	12967.03
435.555	12596.42
435.913	11850.68
436.271	11355.77
436.629	10808.9
436.987	10325.29
437.345	9694.8
437.703	9556.95
438.061	9181.82
438.418	8623.64
438.776	8246.25
439.134	8047.39
439.492	7584.12
439.849	7236.11
440.207	6813.52
440.565	6745.73
440.922	6235.01
441.28	5932.19
441.637	5722.02
441.995	5640.67
442.352	5362.71
442.71	5107.35
443.067	4718.66
443.425	4540.13
443.782	4531.1
444.139	4571.77
444.496	4287.03
444.854	4151.44
445.211	4074.61
445.568	3902.86
445.925	3645.24
446.282	3636.2
446.639	3459.94
446.996	3407.96
447.353	3514.17
447.71	3279.15
448.067	3297.23
448.424	3082.55
448.781	3089.33
449.137	2861.08
449.494	2648.66
449.851	2705.15
450.208	2522.11
450.564	2384.26
450.921	2262.23
451.278	2239.63
451.634	2402.34
451.991	2255.45
452.347	2156.02
452.704	2189.91
453.06	2038.51
453.416	1828.34
453.773	1844.16
454.129	1866.76
454.485	1751.51
454.841	1717.61
455.198	1695.01
455.554	1631.74
455.91	1561.68
456.266	1534.56
456.622	1611.4
456.978	1389.94
457.334	1335.7
457.69	1362.82
458.046	1353.78
458.402	1175.25
458.758	1317.62
459.114	1188.81
459.469	1130.06
459.825	1166.21
460.181	1114.24
460.536	1111.98
460.892	1159.43
461.248	1026.1
461.603	1037.4
461.959	967.35
462.314	958.31
462.67	1012.54
463.025	883.73
463.38	951.53
463.736	958.31
464.091	967.35
464.446	906.33
464.802	924.41
465.157	813.68
465.512	924.41
465.867	908.59
466.222	852.1
466.577	922.15
466.932	840.8
467.287	775.26
467.642	847.58
467.997	815.94
468.352	822.72
468.707	831.76
469.062	791.08
469.417	806.9
469.771	795.6
470.126	748.14
470.481	775.26
470.835	711.99
471.19	759.44
471.544	723.29
471.899	698.43
472.253	732.33
472.608	705.21
472.962	752.66
473.317	727.81
473.671	646.45
474.025	623.85
474.38	664.53
474.734	705.21
475.088	596.74
475.442	623.85
475.796	641.93
476.15	761.7
476.504	653.23
476.858	644.19
477.212	684.87
477.566	698.43
477.92	678.09
478.274	562.84
478.628	537.98
478.982	623.85
479.336	653.23
479.689	628.37
480.043	687.13
480.397	567.36
480.75	553.8
481.104	617.07
481.457	544.76
481.811	673.57
482.164	617.07
482.518	644.19
482.871	657.75
483.225	544.76
483.578	458.89
483.931	589.96
484.284	650.97
484.638	601.26
484.991	617.07
485.344	599
485.697	434.03
486.05	576.4
486.403	580.92
486.756	612.55
487.109	562.84
487.462	542.5
487.815	528.94
488.168	592.22
488.52	492.78
488.873	547.02
489.226	524.42
489.579	519.9
489.931	589.96
490.284	585.44
490.637	562.84
490.989	515.38
491.342	556.06
491.694	526.68
492.047	542.5
492.399	560.58
492.751	490.52
493.104	542.5
493.456	533.46
493.808	513.12
494.16	445.33
494.513	526.68
494.865	476.96
495.217	526.68
495.569	519.9
495.921	562.84
496.273	528.94
496.625	540.24
496.977	499.56
497.329	556.06
497.68	492.78
498.032	470.19
498.384	483.74
498.736	490.52
499.087	474.71
499.439	447.59
499.791	458.89
500.142	501.82
500.494	470.19
500.845	474.71
501.197	517.64
501.548	537.98
501.9	587.7
502.251	585.44
502.602	506.34
502.954	474.71
503.305	504.08
503.656	470.19
504.007	542.5
504.358	501.82
504.709	436.29
505.061	443.07
505.412	486
505.763	495.04
506.113	524.42
506.464	443.07
506.815	531.2
507.166	492.78
507.517	479.22
507.868	492.78
508.218	461.15
508.569	449.85
508.92	490.52
509.27	519.9
509.621	504.08
509.971	519.9
510.322	540.24
510.672	567.36
511.023	565.1
511.373	510.86
511.723	504.08
512.074	497.3
512.424	560.58
512.774	517.64
513.124	524.42
513.475	533.46
513.825	531.2
514.175	648.71
514.525	515.38
514.875	565.1
515.225	569.62
515.575	565.1
515.924	594.48
516.274	535.72
516.624	551.54
516.974	578.66
517.324	499.56
517.673	551.54
518.023	565.1
518.373	628.37
518.722	560.58
519.072	562.84
519.421	621.59
519.771	571.88
520.12	623.85
520.469	610.29
520.819	650.97
521.168	610.29
521.517	560.58
521.867	567.36
522.216	608.03
522.565	682.61
522.914	553.8
523.263	558.32
523.612	608.03
523.961	594.48
524.31	660.01
524.659	660.01
525.008	617.07
525.357	626.11
525.705	556.06
526.054	644.19
526.403	614.81
526.752	519.9
527.1	578.66
527.449	709.73
527.797	705.21
528.146	632.89
528.495	736.85
528.843	599
529.191	657.75
529.54	617.07
529.888	623.85
530.236	641.93
530.585	578.66
530.933	664.53
531.281	632.89
531.629	619.33
531.977	623.85
532.325	531.2
532.673	682.61
533.021	669.05
533.369	587.7
533.717	592.22
534.065	567.36
534.413	637.41
534.761	596.74
535.108	553.8
535.456	632.89
535.804	594.48
536.151	608.03
536.499	619.33
536.847	626.11
537.194	571.88
537.542	644.19
537.889	569.62
538.236	589.96
538.584	571.88
538.931	687.13
539.278	635.15
539.626	623.85
539.973	655.49
540.32	567.36
540.667	592.22
541.014	605.78
541.361	605.78
541.708	632.89
542.055	571.88
542.402	522.16
542.749	601.26
543.096	578.66
543.443	571.88
543.789	608.03
544.136	617.07
544.483	558.32
544.83	571.88
545.176	556.06
545.523	594.48
545.869	610.29
546.216	644.19
546.562	528.94
546.909	578.66
547.255	605.78
547.601	580.92
547.948	578.66
548.294	569.62
548.64	558.32
548.986	596.74
549.332	585.44
549.678	558.32
550.025	608.03
550.371	626.11
550.717	510.86
551.062	596.74
551.408	601.26
551.754	587.7
552.1	553.8
552.446	610.29
552.792	567.36
553.137	612.55
553.483	528.94
553.828	549.28
554.174	565.1
554.52	567.36
554.865	596.74
555.211	599
555.556	610.29
555.901	558.32
556.247	549.28
556.592	517.64
556.937	551.54
557.282	610.29
557.628	569.62
557.973	580.92
558.318	612.55
558.663	544.76
559.008	547.02
559.353	592.22
559.698	603.52
560.043	569.62
560.388	639.67
560.732	589.96
561.077	578.66
561.422	596.74
561.766	610.29
562.111	540.24
562.456	576.4
562.8	553.8
563.145	599
563.489	558.32
563.834	587.7
564.178	592.22
564.523	599
564.867	513.12
565.211	601.26
565.555	553.8
565.9	603.52
566.244	585.44
566.588	639.67
566.932	560.58
567.276	657.75
567.62	562.84
567.964	666.79
568.308	721.03
568.652	594.48
568.996	666.79
569.339	608.03
569.683	678.09
570.027	614.81
570.371	626.11
570.714	646.45
571.058	558.32
571.401	675.83
571.745	635.15
572.088	657.75
572.432	646.45
572.775	589.96
573.118	596.74
573.462	621.59
573.805	608.03
574.148	684.87
574.491	644.19
574.835	610.29
575.178	617.07
575.521	648.71
575.864	702.95
576.207	594.48
576.55	587.7
576.892	646.45
577.235	608.03
577.578	653.23
577.921	599
578.264	682.61
578.606	603.52
578.949	637.41
579.292	678.09
579.634	608.03
579.977	596.74
580.319	680.35
580.662	637.41
581.004	682.61
581.346	603.52
581.689	547.02
582.031	635.15
582.373	556.06
582.715	623.85
583.057	560.58
583.4	603.52
583.742	589.96
584.084	528.94
584.426	599
584.768	528.94
585.109	644.19
585.451	560.58
585.793	601.26
586.135	567.36
586.477	565.1
586.818	589.96
587.16	576.4
587.502	585.44
587.843	574.14
588.185	558.32
588.526	531.2
588.868	551.54
589.209	531.2
589.55	488.26
589.892	587.7
590.233	612.55
590.574	504.08
590.915	519.9
591.257	567.36
591.598	531.2
591.939	490.52
592.28	574.14
592.621	537.98
592.962	533.46
593.303	506.34
593.643	537.98
593.984	528.94
594.325	467.93
594.666	537.98
595.006	553.8
595.347	454.37
595.688	510.86
596.028	481.48
596.369	504.08
596.709	558.32
597.05	535.72
597.39	483.74
597.73	553.8
598.071	510.86
598.411	551.54
598.751	447.59
599.091	445.33
599.431	463.41
599.772	436.29
600.112	463.41
600.452	499.56
600.792	542.5
601.132	544.76
601.471	418.21
601.811	443.07
602.151	526.68
602.491	492.78
602.831	486
603.17	449.85
603.51	476.96
603.849	499.56
604.189	463.41
604.528	454.37
604.868	395.61
605.207	461.15
605.547	476.96
605.886	461.15
606.225	449.85
606.565	528.94
606.904	483.74
607.243	443.07
607.582	476.96
607.921	377.53
608.26	409.17
608.599	384.31
608.938	406.91
609.277	447.59
609.616	411.43
609.955	427.25
610.293	481.48
610.632	436.29
610.971	418.21
611.309	470.19
611.648	395.61
611.987	472.45
612.325	438.55
612.664	411.43
613.002	404.65
613.34	429.51
613.679	406.91
614.017	492.78
614.355	393.35
614.694	454.37
615.032	359.45
615.37	447.59
615.708	422.73
616.046	420.47
616.384	481.48
616.722	492.78
617.06	434.03
617.398	434.03
617.736	395.61
618.073	420.47
618.411	474.71
618.749	406.91
619.086	470.19
619.424	406.91
619.762	409.17
620.099	384.31
620.437	440.81
620.774	409.17
621.112	400.13
621.449	535.72
621.786	454.37
622.123	427.25
622.461	449.85
622.798	406.91
623.135	445.33
623.472	461.15
623.809	341.38
624.146	409.17
624.483	461.15
624.82	386.57
625.157	415.95
625.494	447.59
625.83	445.33
626.167	406.91
626.504	456.63
626.841	483.74
627.177	443.07
627.514	481.48
627.85	422.73
628.187	411.43
628.523	447.59
628.86	345.89
629.196	352.67
629.532	436.29
629.869	357.19
630.205	375.27
630.541	312
630.877	354.93
631.213	420.47
631.549	373.01
631.885	314.26
632.221	384.31
632.557	411.43
632.893	391.09
633.229	474.71
633.564	323.3
633.9	373.01
634.236	422.73
634.572	373.01
634.907	393.35
635.243	388.83
635.578	431.77
635.914	411.43
636.249	379.79
636.585	384.31
636.92	363.97
637.255	420.47
637.59	293.92
637.926	370.75
638.261	458.89
638.596	456.63
638.931	384.31
639.266	352.67
639.601	418.21
639.936	454.37
640.271	339.12
640.606	350.41
640.94	443.07
641.275	375.27
641.61	307.48
641.945	406.91
642.279	359.45
642.614	339.12
642.948	296.18
643.283	327.82
643.617	352.67
643.952	409.17
644.286	413.69
644.62	397.87
644.955	312
645.289	363.97
645.623	363.97
645.957	375.27
646.291	377.53
646.625	363.97
646.959	345.89
647.293	336.86
647.627	341.38
647.961	300.7
648.295	393.35
648.629	384.31
648.962	325.56
649.296	400.13
649.63	395.61
649.963	359.45
650.297	379.79
650.63	354.93
650.964	305.22
651.297	296.18
651.631	305.22
651.964	321.04
652.297	339.12
652.631	370.75
652.964	375.27
653.297	330.08
653.63	411.43
653.963	370.75
654.296	348.15
654.629	357.19
654.962	302.96
655.295	377.53
655.628	352.67
655.961	278.1
656.293	327.82
656.626	397.87
656.959	336.86
657.291	262.28
657.624	298.44
657.956	332.34
658.289	257.76
658.621	284.88
658.954	307.48
659.286	373.01
659.618	370.75
659.95	345.89
660.283	298.44
660.615	330.08
660.947	357.19
661.279	307.48
661.611	336.86
661.943	284.88
662.275	307.48
662.607	341.38
662.939	275.84
663.27	339.12
663.602	352.67
663.934	391.09
664.266	323.3
664.597	300.7
664.929	318.78
665.26	354.93
665.592	312
665.923	282.62
666.255	316.52
666.586	321.04
666.917	348.15
667.248	312
667.58	377.53
667.911	373.01
668.242	312
668.573	345.89
668.904	312
669.235	318.78
669.566	305.22
669.897	332.34
670.228	248.72
670.558	273.58
670.889	284.88
671.22	316.52
671.551	359.45
671.881	312
672.212	307.48
672.542	312
672.873	296.18
673.203	305.22
673.533	262.28
673.864	300.7
674.194	350.41
674.524	266.8
674.855	293.92
675.185	280.36
675.515	271.32
675.845	253.24
676.175	291.66
676.505	264.54
676.835	255.5
677.165	343.64
677.494	368.49
677.824	316.52
678.154	345.89
678.484	318.78
678.813	275.84
679.143	366.23
679.472	325.56
679.802	345.89
680.131	348.15
680.461	300.7
680.79	282.62
681.119	321.04
681.449	314.26
681.778	291.66
682.107	298.44
682.436	266.8
682.765	298.44
683.094	271.32
683.423	228.38
683.752	287.14
684.081	345.89
684.41	275.84
684.739	307.48
685.067	309.74
685.396	336.86
685.725	300.7
686.053	343.64
686.382	339.12
686.711	271.32
687.039	296.18
687.367	264.54
687.696	300.7
688.024	266.8
688.352	302.96
688.681	278.1
689.009	368.49
689.337	368.49
689.665	176.41
689.993	354.93
690.321	275.84
690.649	278.1
690.977	307.48
691.305	361.71
691.633	271.32
691.961	302.96
692.288	287.14
692.616	280.36
692.944	316.52
693.271	332.34
693.599	280.36
693.926	291.66
694.254	273.58
694.581	302.96
694.908	300.7
695.236	262.28
695.563	237.42
695.89	300.7
696.217	237.42
696.544	339.12
696.871	287.14
697.198	275.84
697.525	278.1
697.852	300.7
698.179	293.92
698.506	217.08
698.833	264.54
699.16	248.72
699.486	293.92
699.813	293.92
700.139	330.08
700.466	278.1
700.793	282.62
701.119	201.27
701.445	237.42
701.772	273.58
702.098	293.92
702.424	280.36
702.75	253.24
703.077	257.76
703.403	323.3
703.729	264.54
704.055	330.08
704.381	302.96
704.707	266.8
705.033	248.72
705.358	282.62
705.684	293.92
706.01	284.88
706.336	232.9
706.661	257.76
706.987	250.98
707.312	305.22
707.638	327.82
707.963	325.56
708.289	300.7
708.614	266.8
708.939	296.18
709.265	232.9
709.59	217.08
709.915	339.12
710.24	330.08
710.565	282.62
710.89	278.1
711.215	278.1
711.54	339.12
711.865	305.22
712.19	228.38
712.515	255.5
712.839	278.1
713.164	318.78
713.489	255.5
713.813	357.19
714.138	257.76
714.462	264.54
714.787	271.32
715.111	287.14
715.435	248.72
715.76	289.4
716.084	341.38
716.408	237.42
716.732	314.26
717.056	336.86
717.381	309.74
717.705	280.36
718.028	282.62
718.352	239.68
718.676	278.1
719	241.94
719.324	278.1
719.648	296.18
719.971	253.24
720.295	250.98
720.618	269.06
720.942	246.46
721.265	239.68
721.589	314.26
721.912	291.66
722.236	239.68
722.559	330.08
722.882	239.68
723.205	244.2
723.528	284.88
723.851	269.06
724.174	321.04
724.497	296.18
724.82	300.7
725.143	309.74
725.466	271.32
725.789	232.9
726.112	266.8
726.434	278.1
726.757	309.74
727.08	257.76
727.402	316.52
727.725	314.26
728.047	226.12
728.37	316.52
728.692	264.54
729.014	264.54
729.336	302.96
729.659	300.7
729.981	352.67
730.303	246.46
730.625	230.64
730.947	325.56
731.269	253.24
731.591	350.41
731.913	293.92
732.235	298.44
732.556	244.2
732.878	280.36
733.2	302.96
733.521	321.04
733.843	280.36
734.164	291.66
734.486	325.56
734.807	273.58
735.129	235.16
735.45	264.54
735.771	325.56
736.092	230.64
736.414	330.08
736.735	332.34
737.056	361.71
737.377	289.4
737.698	325.56
738.019	278.1
738.34	318.78
738.66	296.18
738.981	253.24
739.302	296.18
739.623	284.88
739.943	239.68
740.264	307.48
740.584	314.26
740.905	291.66
741.225	309.74
741.546	257.76
741.866	327.82
742.186	262.28
742.507	239.68
742.827	321.04
743.147	282.62
743.467	314.26
743.787	278.1
744.107	253.24
744.427	305.22
744.747	293.92
745.067	239.68
745.386	330.08
745.706	298.44
746.026	269.06
746.346	241.94
746.665	307.48
746.985	280.36
747.304	244.2
747.624	241.94
747.943	230.64
748.262	323.3
748.582	266.8
748.901	312
749.22	278.1
749.539	282.62
749.858	226.12
750.177	264.54
750.496	296.18
750.815	327.82
751.134	298.44
751.453	287.14
751.772	271.32
752.09	228.38
752.409	257.76
752.728	273.58
753.046	284.88
753.365	246.46
753.683	280.36
754.002	271.32
754.32	280.36
754.639	257.76
754.957	309.74
755.275	280.36
755.593	291.66
755.911	280.36
756.23	219.34
756.548	302.96
756.866	291.66
757.183	300.7
757.501	246.46
757.819	230.64
758.137	269.06
758.455	266.8
758.772	287.14
759.09	266.8
759.408	226.12
759.725	257.76
760.043	269.06
760.36	280.36
760.677	318.78
760.995	264.54
761.312	287.14
761.629	323.3
761.946	280.36
762.264	253.24
762.581	237.42
762.898	287.14
763.215	257.76
763.532	266.8
763.848	275.84
764.165	293.92
764.482	284.88
764.799	275.84
765.115	298.44
765.432	309.74
765.749	307.48
766.065	232.9
766.382	302.96
766.698	293.92
767.014	262.28
767.331	194.49
767.647	271.32
767.963	278.1
768.279	298.44
768.595	257.76
768.911	339.12
769.227	278.1
769.543	264.54
769.859	318.78
770.175	264.54
770.491	289.4
770.807	239.68
771.122	302.96
771.438	273.58
771.754	370.75
772.069	273.58
772.385	271.32
772.7	260.02
773.016	223.86
773.331	309.74
773.646	260.02
773.961	219.34
774.277	226.12
774.592	289.4
774.907	309.74
775.222	237.42
775.537	264.54
775.852	280.36
776.167	269.06
776.482	302.96
776.796	246.46
777.111	282.62
777.426	287.14
777.74	257.76
778.055	280.36
778.369	257.76
778.684	314.26
778.998	307.48
779.313	282.62
779.627	255.5
779.941	266.8
780.255	203.53
780.57	318.78
780.884	357.19
781.198	300.7
781.512	266.8
781.826	318.78
782.14	289.4
782.453	305.22
782.767	228.38
783.081	278.1
783.395	287.14
783.708	293.92
784.022	296.18
784.335	235.16
784.649	208.05
784.962	264.54
785.276	275.84
785.589	280.36
785.902	275.84
786.216	273.58
786.529	316.52
786.842	291.66
787.155	359.45
787.468	287.14
787.781	250.98
788.094	350.41
788.407	271.32
788.72	318.78
789.032	296.18
789.345	228.38
789.658	321.04
789.97	278.1
790.283	248.72
790.595	332.34
790.908	260.02
791.22	280.36
791.532	214.82
791.845	307.48
792.157	212.57
792.469	217.08
792.781	248.72
793.093	336.86
793.405	185.45
793.717	201.27
794.029	262.28
794.341	275.84
794.653	341.38
794.965	314.26
795.276	305.22
795.588	239.68
795.9	257.76
796.211	264.54
796.523	235.16
796.834	309.74
797.146	327.82
797.457	241.94
797.768	284.88
798.08	332.34
798.391	228.38
798.702	307.48
799.013	262.28
799.324	237.42
799.635	284.88
799.946	302.96
800.257	318.78
800.568	271.32
800.878	269.06
801.189	264.54
801.5	293.92
801.81	300.7
802.121	269.06
802.431	305.22
802.742	266.8
803.052	262.28
803.363	275.84
803.673	339.12
803.983	296.18
804.293	312
804.603	273.58
804.913	248.72
805.224	266.8
805.533	280.36
805.843	316.52
806.153	260.02
806.463	278.1
806.773	228.38
807.083	280.36
807.392	312
807.702	226.12
808.011	264.54
808.321	275.84
808.63	226.12
808.94	269.06
809.249	246.46
809.558	307.48
809.868	219.34
810.177	239.68
810.486	287.14
810.795	289.4
811.104	300.7
811.413	325.56
811.722	325.56
812.031	241.94
812.339	284.88
812.648	266.8
812.957	296.18
813.266	287.14
813.574	300.7
813.883	314.26
814.191	262.28
814.5	284.88
814.808	232.9
815.116	284.88
815.424	318.78
815.733	232.9
816.041	309.74
816.349	305.22
816.657	278.1
816.965	278.1
817.273	354.93
817.581	253.24
817.889	296.18
818.196	280.36
818.504	246.46
818.812	273.58
819.12	241.94
819.427	239.68
819.735	232.9
820.042	228.38
820.349	253.24
820.657	275.84
820.964	241.94
821.271	228.38
821.579	228.38
821.886	248.72
822.193	330.08
822.5	205.79
822.807	291.66
823.114	287.14
823.421	262.28
823.727	359.45
824.034	278.1
824.341	255.5
824.648	296.18
824.954	269.06
825.261	330.08
825.567	275.84
825.874	312
826.18	336.86
826.486	307.48
826.793	280.36
827.099	271.32
827.405	307.48
827.711	280.36
828.017	293.92
828.323	228.38
828.629	289.4
828.935	296.18
829.241	282.62
829.547	327.82
829.852	278.1
830.158	318.78
830.464	330.08
830.769	287.14
831.075	239.68
831.38	284.88
831.686	318.78
831.991	282.62
832.296	273.58
832.601	280.36
832.907	248.72
833.212	314.26
833.517	235.16
833.822	323.3
834.127	253.24
834.432	314.26
834.737	302.96
835.041	212.57
835.346	248.72
835.651	235.16
835.956	241.94
836.26	266.8
836.565	291.66
836.869	336.86
837.174	298.44
837.478	228.38
837.782	253.24
838.087	312
838.391	199.01
838.695	273.58
838.999	262.28
839.303	262.28
839.607	228.38
839.911	316.52
840.215	212.57
840.519	302.96
840.822	278.1
841.126	266.8
841.43	296.18
841.733	230.64
842.037	262.28
842.34	321.04
842.644	273.58
842.947	275.84
843.251	230.64
843.554	246.46
843.857	250.98
844.16	273.58
844.463	255.5
844.766	235.16
845.069	359.45
845.372	300.7
845.675	321.04
845.978	264.54
846.281	284.88
846.583	325.56
846.886	282.62
847.189	241.94
847.491	307.48
847.794	273.58
848.096	280.36
848.399	226.12
848.701	298.44
849.003	264.54
849.305	330.08
849.608	255.5
849.91	321.04
850.212	264.54
850.514	280.36
850.816	296.18
851.118	348.15
851.419	257.76
851.721	271.32
852.023	284.88
852.325	314.26
852.626	275.84
852.928	307.48
853.229	305.22
853.531	282.62
853.832	194.49
854.133	266.8
854.435	219.34
854.736	330.08
855.037	189.97
855.338	318.78
855.639	273.58
855.94	262.28
856.241	327.82
856.542	246.46
856.843	314.26
857.144	318.78
857.444	312
857.745	269.06
858.046	273.58
858.346	257.76
858.647	296.18
858.947	321.04
859.247	250.98
859.548	287.14
859.848	280.36
860.148	246.46
860.448	221.6
860.749	253.24
861.049	293.92
861.349	269.06
861.648	284.88
861.948	253.24
862.248	309.74
862.548	321.04
862.848	275.84
863.147	266.8
863.447	307.48
863.746	237.42
864.046	237.42
864.345	289.4
864.645	214.82
864.944	309.74
865.243	339.12
865.542	284.88
865.842	384.31
866.141	282.62
866.44	255.5
866.739	257.76
867.038	262.28
867.337	291.66
867.635	296.18
867.934	273.58
868.233	330.08
868.531	280.36
868.83	253.24
869.129	307.48
869.427	264.54
869.725	212.57
870.024	257.76
870.322	300.7
870.62	266.8
870.918	246.46
871.217	284.88
871.515	239.68
871.813	221.6
872.111	250.98
872.409	264.54
872.706	271.32
873.004	244.2
873.302	244.2
873.6	248.72
873.897	298.44
874.195	205.79
874.492	289.4
874.79	336.86
875.087	210.31
875.384	307.48
875.682	309.74
875.979	312
876.276	246.46
876.573	255.5
876.87	255.5
877.167	255.5
