Data from PL_2polymer_F8BT_MEHPPV_USB2H096331_0200.txt Node
Date: Tue Dec 15 15:30:43 CET 2020
User: spadmin
Spectrometer: USB2+H09633
Trigger mode: 0
Integration Time (sec): 1.000000E-2
Scans to average: 1
Electric dark correction enabled: true
Nonlinearity correction enabled: false
Boxcar width: 0
XAxis mode: Wavelengths
Number of Pixels in Spectrum: 2048
>>>>>Begin Spectral Data<<<<<
174.027	-70.34
174.405	-70.34
174.783	-70.34
175.162	-90.68
175.54	-131.35
175.918	-101.97
176.296	-165.25
176.674	-68.08
177.052	-88.42
177.43	-7.06
177.808	-27.4
178.186	-9.32
178.564	-9.32
178.942	11.02
179.32	29.1
179.698	13.28
180.076	-68.08
180.453	53.95
180.831	60.73
181.209	112.71
181.587	72.03
181.965	90.11
182.342	72.03
182.72	173.72
183.098	173.72
183.475	255.08
183.853	216.66
184.231	282.2
184.608	338.69
184.986	300.27
185.363	200.84
185.741	277.68
186.118	361.29
186.496	307.05
186.873	334.17
187.251	300.27
187.628	354.51
188.006	298.01
188.383	304.79
188.76	347.73
189.138	388.41
189.515	338.69
189.892	293.5
190.27	354.51
190.647	309.31
191.024	286.72
191.401	381.63
191.778	365.81
192.155	338.69
192.533	288.98
192.91	361.29
193.287	329.65
193.664	246.04
194.041	286.72
194.418	298.01
194.795	250.56
195.172	257.34
195.549	307.05
195.926	298.01
196.302	340.95
196.679	327.39
197.056	316.09
197.433	295.75
197.81	345.47
198.187	230.22
198.563	322.87
198.94	282.2
199.317	243.78
199.693	329.65
200.07	345.47
200.447	268.64
200.823	340.95
201.2	331.91
201.576	291.24
201.953	279.94
202.329	311.57
202.706	352.25
203.082	298.01
203.459	327.39
203.835	338.69
204.212	298.01
204.588	331.91
204.964	261.86
205.341	279.94
205.717	313.83
206.093	377.11
206.469	302.53
206.846	372.59
207.222	359.03
207.598	243.78
207.974	302.53
208.35	322.87
208.726	307.05
209.102	288.98
209.479	318.35
209.855	343.21
210.231	293.5
210.607	311.57
210.982	361.29
211.358	383.89
211.734	250.56
212.11	295.75
212.486	340.95
212.862	311.57
213.238	347.73
213.614	327.39
213.989	300.27
214.365	365.81
214.741	309.31
215.116	277.68
215.492	361.29
215.868	368.07
216.243	316.09
216.619	363.55
216.995	372.59
217.37	370.33
217.746	298.01
218.121	279.94
218.497	354.51
218.872	302.53
219.247	368.07
219.623	316.09
219.998	318.35
220.374	268.64
220.749	298.01
221.124	322.87
221.499	334.17
221.875	273.16
222.25	377.11
222.625	316.09
223	309.31
223.376	309.31
223.751	302.53
224.126	347.73
224.501	359.03
224.876	361.29
225.251	336.43
225.626	325.13
226.001	298.01
226.376	327.39
226.751	352.25
227.126	365.81
227.501	356.77
227.875	302.53
228.25	325.13
228.625	198.58
229	359.03
229.375	347.73
229.749	309.31
230.124	336.43
230.499	329.65
230.873	336.43
231.248	433.6
231.623	316.09
231.997	293.5
232.372	322.87
232.746	318.35
233.121	313.83
233.495	365.81
233.87	336.43
234.244	386.15
234.619	336.43
234.993	429.08
235.367	329.65
235.742	320.61
236.116	304.79
236.49	401.97
236.865	313.83
237.239	354.51
237.613	347.73
237.987	435.86
238.361	361.29
238.736	345.47
239.11	363.55
239.484	411.01
239.858	311.57
240.232	343.21
240.606	336.43
240.98	372.59
241.354	401.97
241.728	370.33
242.102	311.57
242.475	359.03
242.849	395.19
243.223	340.95
243.597	302.53
243.971	298.01
244.344	354.51
244.718	347.73
245.092	397.45
245.466	361.29
245.839	275.42
246.213	361.29
246.586	377.11
246.96	291.24
247.334	363.55
247.707	340.95
248.081	293.5
248.454	327.39
248.828	343.21
249.201	325.13
249.574	354.51
249.948	370.33
250.321	372.59
250.694	293.5
251.068	320.61
251.441	411.01
251.814	395.19
252.187	354.51
252.561	374.85
252.934	349.99
253.307	368.07
253.68	345.47
254.053	352.25
254.426	361.29
254.799	334.17
255.172	401.97
255.545	404.23
255.918	365.81
256.291	345.47
256.664	401.97
257.037	331.91
257.41	379.37
257.782	449.42
258.155	352.25
258.528	334.17
258.901	415.53
259.273	386.15
259.646	343.21
260.019	404.23
260.391	331.91
260.764	345.47
261.137	377.11
261.509	356.77
261.882	415.53
262.254	399.71
262.627	420.05
262.999	447.16
263.372	426.82
263.744	322.87
264.116	363.55
264.489	374.85
264.861	408.75
265.233	417.79
265.606	329.65
265.978	374.85
266.35	377.11
266.722	379.37
267.094	401.97
267.467	433.6
267.839	415.53
268.211	408.75
268.583	322.87
268.955	390.67
269.327	377.11
269.699	392.93
270.071	399.71
270.443	386.15
270.815	388.41
271.186	370.33
271.558	383.89
271.93	331.91
272.302	426.82
272.674	408.75
273.045	406.49
273.417	390.67
273.789	347.73
274.16	458.46
274.532	388.41
274.904	413.27
275.275	406.49
275.647	361.29
276.018	431.34
276.39	429.08
276.761	438.12
277.133	433.6
277.504	395.19
277.875	354.51
278.247	397.45
278.618	512.7
278.989	395.19
279.361	408.75
279.732	363.55
280.103	417.79
280.474	386.15
280.846	406.49
281.217	377.11
281.588	406.49
281.959	406.49
282.33	442.64
282.701	399.71
283.072	372.59
283.443	365.81
283.814	435.86
284.185	390.67
284.556	404.23
284.927	401.97
285.297	406.49
285.668	372.59
286.039	424.57
286.41	415.53
286.781	456.2
287.151	444.9
287.522	462.98
287.893	392.93
288.263	359.03
288.634	433.6
289.004	440.38
289.375	429.08
289.745	453.94
290.116	406.49
290.486	458.46
290.857	426.82
291.227	426.82
291.598	415.53
291.968	390.67
292.338	395.19
292.709	458.46
293.079	345.47
293.449	426.82
293.819	374.85
294.189	465.24
294.56	440.38
294.93	442.64
295.3	404.23
295.67	431.34
296.04	392.93
296.41	472.02
296.78	399.71
297.15	449.42
297.52	485.58
297.89	444.9
298.259	426.82
298.629	442.64
298.999	408.75
299.369	408.75
299.739	472.02
300.108	451.68
300.478	483.32
300.848	438.12
301.217	417.79
301.587	411.01
301.957	408.75
302.326	447.16
302.696	481.06
303.065	426.82
303.435	492.36
303.804	460.72
304.174	417.79
304.543	462.98
304.912	420.05
305.282	465.24
305.651	476.54
306.02	424.57
306.39	469.76
306.759	415.53
307.128	501.4
307.497	551.12
307.866	426.82
308.235	386.15
308.604	458.46
308.974	510.44
309.343	438.12
309.712	449.42
310.08	453.94
310.449	505.92
310.818	467.5
311.187	521.74
311.556	426.82
311.925	447.16
312.294	422.31
312.662	535.3
313.031	514.96
313.4	490.1
313.769	553.38
314.137	485.58
314.506	478.8
314.874	451.68
315.243	553.38
315.612	526.26
315.98	510.44
316.349	492.36
316.717	505.92
317.085	483.32
317.454	492.36
317.822	467.5
318.191	494.62
318.559	499.14
318.927	526.26
319.295	496.88
319.664	490.1
320.032	555.64
320.4	426.82
320.768	503.66
321.136	512.7
321.504	426.82
321.872	503.66
322.24	503.66
322.608	524
322.976	465.24
323.344	535.3
323.712	544.34
324.08	594.05
324.448	551.12
324.816	494.62
325.183	566.93
325.551	521.74
325.919	564.67
326.287	449.42
326.654	546.6
327.022	469.76
327.389	492.36
327.757	591.79
328.125	496.88
328.492	496.88
328.86	551.12
329.227	566.93
329.594	521.74
329.962	496.88
330.329	533.04
330.697	582.75
331.064	514.96
331.431	546.6
331.798	496.88
332.166	555.64
332.533	582.75
332.9	510.44
333.267	548.86
333.634	582.75
334.001	625.69
334.368	573.71
334.735	548.86
335.102	535.3
335.469	582.75
335.836	564.67
336.203	618.91
336.57	585.01
336.937	580.49
337.304	605.35
337.67	569.19
338.037	582.75
338.404	616.65
338.771	661.85
339.137	612.13
339.504	650.55
339.87	548.86
340.237	575.97
340.604	603.09
340.97	648.29
341.337	591.79
341.703	607.61
342.069	603.09
342.436	625.69
342.802	621.17
343.169	575.97
343.535	616.65
343.901	609.87
344.267	594.05
344.634	585.01
345	580.49
345.366	548.86
345.732	641.51
346.098	646.03
346.464	666.37
346.83	670.89
347.196	566.93
347.562	679.93
347.928	702.52
348.294	639.25
348.66	598.57
349.026	664.11
349.392	587.27
349.757	596.31
350.123	686.71
350.489	636.99
350.855	698
351.22	650.55
351.586	621.17
351.951	664.11
352.317	725.12
352.683	736.42
353.048	700.26
353.414	704.78
353.779	675.41
354.144	738.68
354.51	716.08
354.875	738.68
355.24	786.14
355.606	781.62
355.971	801.96
356.336	664.11
356.701	774.84
357.067	731.9
357.432	817.78
357.797	792.92
358.162	808.74
358.527	792.92
358.892	761.28
359.257	847.15
359.622	797.44
359.987	801.96
360.352	869.75
360.717	815.52
361.082	883.31
361.446	849.41
361.811	865.23
362.176	844.89
362.541	955.62
362.905	831.33
363.27	903.65
363.635	905.91
363.999	966.92
364.364	905.91
364.728	948.85
365.093	919.47
365.457	966.92
365.822	973.7
366.186	955.62
366.55	1066.36
366.915	951.1
367.279	948.85
367.643	1021.16
368.008	1016.64
368.372	1043.76
368.736	1093.47
369.1	1079.92
369.464	1125.11
369.828	1195.17
370.192	1145.45
370.556	1129.63
370.92	1177.09
371.284	1274.26
371.648	1326.24
372.012	1301.38
372.376	1283.3
372.74	1378.21
373.104	1335.28
373.468	1522.84
373.831	1479.9
374.195	1452.79
374.559	1538.66
374.922	1595.16
375.286	1590.64
375.65	1676.51
376.013	1669.73
376.377	1794.02
376.74	1703.63
377.104	1938.65
377.467	2094.58
377.83	2020
378.194	2148.81
378.557	2279.88
378.92	2377.06
379.284	2544.28
379.647	2684.39
380.01	2899.08
380.373	2962.35
380.736	3242.57
381.1	3613.18
381.463	3825.61
381.826	4056.11
382.189	4268.53
382.552	4697.9
382.915	4935.18
383.278	5344.21
383.64	5789.4
384.003	6401.81
384.366	7011.96
384.729	7565.62
385.092	8137.36
385.454	8575.76
385.817	9533.93
386.18	10729.38
386.542	11653.65
386.905	12817.46
387.268	13897.66
387.63	15565.41
387.993	16763.12
388.355	18478.33
388.718	20222.91
389.08	21972.02
389.442	24152.75
389.805	26064.57
390.167	28204.63
390.529	31119.8
390.892	34746.83
391.254	36801.01
391.616	39741.05
391.978	44068.62
392.34	47758.91
392.702	49383.73
393.064	52757.65
393.426	54773.42
393.788	56676.19
394.15	58002.71
394.512	60041.08
394.874	61835.38
395.236	63699.74
395.598	65030.78
395.96	65030.78
396.321	65030.78
396.683	65030.78
397.045	65030.78
397.406	65030.78
397.768	65030.78
398.13	65030.78
398.491	65030.78
398.853	65030.78
399.214	65030.78
399.576	65030.78
399.937	65030.78
400.299	65030.78
400.66	65030.78
401.021	65030.78
401.383	65030.78
401.744	65030.78
402.105	65030.78
402.466	65030.78
402.827	65030.78
403.189	65030.78
403.55	65030.78
403.911	65030.78
404.272	65030.78
404.633	65030.78
404.994	65030.78
405.355	65030.78
405.716	65030.78
406.077	65030.78
406.437	65030.78
406.798	65030.78
407.159	65030.78
407.52	65030.78
407.88	65030.78
408.241	65030.78
408.602	65030.78
408.962	65030.78
409.323	65030.78
409.684	65030.78
410.044	65030.78
410.405	65030.78
410.765	65030.78
411.125	65030.78
411.486	65030.78
411.846	65030.78
412.206	65030.78
412.567	65030.78
412.927	65030.78
413.287	65030.78
413.647	65030.78
414.007	65030.78
414.368	65030.78
414.728	65030.78
415.088	65030.78
415.448	65030.78
415.808	65030.78
416.168	65030.78
416.528	65030.78
416.887	65030.78
417.247	65030.78
417.607	65030.78
417.967	65030.78
418.327	65030.78
418.686	65030.78
419.046	65030.78
419.406	65030.78
419.765	65030.78
420.125	65030.78
420.484	65030.78
420.844	65030.78
421.203	65030.78
421.563	65030.78
421.922	65030.78
422.282	63369.8
422.641	61808.26
423	60791.34
423.36	59885.15
423.719	57776.73
424.078	55821.98
424.437	53747.46
424.796	52674.04
425.155	51415.31
425.515	48769.06
425.874	47747.61
426.233	43087.85
426.592	41130.84
426.95	40179.45
427.309	38312.83
427.668	36760.33
428.027	33698.27
428.386	32753.66
428.745	29931.13
429.103	28613.65
429.462	27095.05
429.821	25169.68
430.179	24493.99
430.538	23327.92
430.897	22552.8
431.255	21352.83
431.614	20175.46
431.972	19560.79
432.33	18516.74
432.689	18216.19
433.047	17032.04
433.405	16019.64
433.764	15366.55
434.122	14971.08
434.48	14189.17
434.838	13389.2
435.197	12989.21
435.555	12247.98
435.913	12031.04
436.271	11348.57
436.629	10989.26
436.987	10587.01
437.345	9814.15
437.703	9502.29
438.061	9233.37
438.418	8476.33
438.776	8277.47
439.134	8013.07
439.492	7683.13
439.849	7260.54
440.207	7075.24
440.565	6537.4
440.922	6324.97
441.28	5943.06
441.637	5775.84
441.995	5534.04
442.352	5280.93
442.71	5120.49
443.067	5007.5
443.425	4670.78
443.782	4372.48
444.139	4370.22
444.496	4200.74
444.854	4203
445.211	3762.33
445.568	3958.94
445.925	3574.76
446.282	3590.58
446.639	3378.16
446.996	3353.3
447.353	3445.95
447.71	3301.33
448.067	3238.05
448.424	3045.97
448.781	2867.44
449.137	2747.67
449.494	2686.65
449.851	2661.79
450.208	2530.72
450.564	2451.63
450.921	2331.86
451.278	2291.18
451.634	2322.82
451.991	2175.93
452.347	2153.33
452.704	2128.48
453.06	2024.52
453.416	1968.03
453.773	1884.41
454.129	1735.27
454.485	1782.72
454.841	1807.58
455.198	1613.23
455.554	1610.97
455.91	1572.56
456.266	1479.9
456.622	1556.74
456.978	1394.03
457.334	1412.11
457.69	1396.29
458.046	1328.5
458.402	1222.28
458.758	1208.73
459.114	1170.31
459.469	1159.01
459.825	1131.89
460.181	1095.73
460.536	1125.11
460.892	1079.92
461.248	1048.28
461.603	1077.66
461.959	991.78
462.314	1007.6
462.67	1007.6
463.025	1025.68
463.38	957.88
463.736	937.55
464.091	917.21
464.446	885.57
464.802	874.27
465.157	869.75
465.512	829.07
465.867	840.37
466.222	851.67
466.577	822.29
466.932	749.98
467.287	847.15
467.642	876.53
467.997	754.5
468.352	682.19
468.707	838.11
469.062	745.46
469.417	790.66
469.771	761.28
470.126	763.54
470.481	783.88
470.835	740.94
471.19	700.26
471.544	688.96
471.899	698
472.253	686.71
472.608	675.41
472.962	704.78
473.317	707.04
473.671	704.78
474.025	614.39
474.38	609.87
474.734	618.91
475.088	623.43
475.442	664.11
475.796	521.74
476.15	605.35
476.504	607.61
476.858	587.27
477.212	686.71
477.566	587.27
477.92	607.61
478.274	630.21
478.628	591.79
478.982	521.74
479.336	627.95
479.689	621.17
480.043	621.17
480.397	537.56
480.75	519.48
481.104	603.09
481.457	605.35
481.811	542.08
482.164	636.99
482.518	551.12
482.871	533.04
483.225	641.51
483.578	575.97
483.931	537.56
484.284	526.26
484.638	562.41
484.991	589.53
485.344	546.6
485.697	469.76
486.05	557.89
486.403	512.7
486.756	575.97
487.109	555.64
487.462	517.22
487.815	548.86
488.168	546.6
488.52	499.14
488.873	481.06
489.226	505.92
489.579	587.27
489.931	501.4
490.284	560.15
490.637	462.98
490.989	521.74
491.342	476.54
491.694	449.42
492.047	514.96
492.399	526.26
492.751	521.74
493.104	485.58
493.456	528.52
493.808	478.8
494.16	542.08
494.513	447.16
494.865	510.44
495.217	519.48
495.569	447.16
495.921	451.68
496.273	517.22
496.625	392.93
496.977	505.92
497.329	447.16
497.68	490.1
498.032	494.62
498.384	485.58
498.736	431.34
499.087	426.82
499.439	413.27
499.791	453.94
500.142	433.6
500.494	433.6
500.845	449.42
501.197	499.14
501.548	444.9
501.9	451.68
502.251	476.54
502.602	514.96
502.954	481.06
503.305	462.98
503.656	453.94
504.007	503.66
504.358	465.24
504.709	449.42
505.061	404.23
505.412	390.67
505.763	447.16
506.113	503.66
506.464	546.6
506.815	517.22
507.166	411.01
507.517	485.58
507.868	424.57
508.218	519.48
508.569	420.05
508.92	492.36
509.27	496.88
509.621	472.02
509.971	544.34
510.322	458.46
510.672	469.76
511.023	492.36
511.373	487.84
511.723	521.74
512.074	551.12
512.424	537.56
512.774	533.04
513.124	551.12
513.475	453.94
513.825	544.34
514.175	614.39
514.525	501.4
514.875	569.19
515.225	636.99
515.575	539.82
515.924	557.89
516.274	499.14
516.624	569.19
516.974	453.94
517.324	575.97
517.673	542.08
518.023	496.88
518.373	526.26
518.722	530.78
519.072	539.82
519.421	600.83
519.771	625.69
520.12	609.87
520.469	594.05
520.819	539.82
521.168	553.38
521.517	496.88
521.867	555.64
522.216	564.67
522.565	646.03
522.914	553.38
523.263	587.27
523.612	594.05
523.961	630.21
524.31	524
524.659	636.99
525.008	627.95
525.357	585.01
525.705	664.11
526.054	600.83
526.403	580.49
526.752	544.34
527.1	646.03
527.449	670.89
527.797	636.99
528.146	636.99
528.495	600.83
528.843	553.38
529.191	546.6
529.54	650.55
529.888	594.05
530.236	589.53
530.585	612.13
530.933	557.89
531.281	591.79
531.629	578.23
531.977	598.57
532.325	587.27
532.673	614.39
533.021	648.29
533.369	571.45
533.717	614.39
534.065	634.73
534.413	621.17
534.761	625.69
535.108	585.01
535.456	553.38
535.804	596.31
536.151	607.61
536.499	607.61
536.847	555.64
537.194	596.31
537.542	521.74
537.889	600.83
538.236	634.73
538.584	580.49
538.931	537.56
539.278	517.22
539.626	616.65
539.973	524
540.32	528.52
540.667	621.17
541.014	573.71
541.361	537.56
541.708	510.44
542.055	600.83
542.402	551.12
542.749	618.91
543.096	571.45
543.443	530.78
543.789	557.89
544.136	575.97
544.483	514.96
544.83	612.13
545.176	542.08
545.523	578.23
545.869	573.71
546.216	521.74
546.562	478.8
546.909	575.97
547.255	555.64
547.601	505.92
547.948	566.93
548.294	539.82
548.64	571.45
548.986	598.57
549.332	494.62
549.678	510.44
550.025	553.38
550.371	519.48
550.717	521.74
551.062	569.19
551.408	612.13
551.754	530.78
552.1	546.6
552.446	605.35
552.792	546.6
553.137	580.49
553.483	582.75
553.828	573.71
554.174	555.64
554.52	521.74
554.865	569.19
555.211	508.18
555.556	526.26
555.901	496.88
556.247	553.38
556.592	607.61
556.937	505.92
557.282	512.7
557.628	521.74
557.973	521.74
558.318	512.7
558.663	569.19
559.008	560.15
559.353	542.08
559.698	517.22
560.043	643.77
560.388	526.26
560.732	548.86
561.077	598.57
561.422	598.57
561.766	562.41
562.111	490.1
562.456	562.41
562.8	530.78
563.145	575.97
563.489	580.49
563.834	555.64
564.178	560.15
564.523	539.82
564.867	648.29
565.211	555.64
565.555	555.64
565.9	569.19
566.244	544.34
566.588	548.86
566.932	560.15
567.276	573.71
567.62	571.45
567.964	564.67
568.308	533.04
568.652	585.01
568.996	587.27
569.339	564.67
569.683	548.86
570.027	596.31
570.371	585.01
570.714	535.3
571.058	594.05
571.401	612.13
571.745	598.57
572.088	566.93
572.432	544.34
572.775	623.43
573.118	661.85
573.462	557.89
573.805	636.99
574.148	580.49
574.491	575.97
574.835	562.41
575.178	573.71
575.521	594.05
575.864	510.44
576.207	650.55
576.55	533.04
576.892	539.82
577.235	560.15
577.578	580.49
577.921	548.86
578.264	612.13
578.606	605.35
578.949	582.75
579.292	571.45
579.634	616.65
579.977	609.87
580.319	573.71
580.662	603.09
581.004	564.67
581.346	526.26
581.689	553.38
582.031	551.12
582.373	528.52
582.715	632.47
583.057	530.78
583.4	560.15
583.742	528.52
584.084	544.34
584.426	555.64
584.768	548.86
585.109	564.67
585.451	585.01
585.793	485.58
586.135	537.56
586.477	444.9
586.818	528.52
587.16	603.09
587.502	542.08
587.843	503.66
588.185	442.64
588.526	469.76
588.868	490.1
589.209	533.04
589.55	483.32
589.892	524
590.233	524
590.574	526.26
590.915	512.7
591.257	517.22
591.598	517.22
591.939	401.97
592.28	510.44
592.621	469.76
592.962	499.14
593.303	539.82
593.643	526.26
593.984	494.62
594.325	517.22
594.666	553.38
595.006	435.86
595.347	392.93
595.688	347.73
596.028	487.84
596.369	472.02
596.709	476.54
597.05	453.94
597.39	485.58
597.73	528.52
598.071	483.32
598.411	408.75
598.751	429.08
599.091	435.86
599.431	476.54
599.772	580.49
600.112	478.8
600.452	444.9
600.792	485.58
601.132	442.64
601.471	397.45
601.811	413.27
602.151	406.49
602.491	449.42
602.831	478.8
603.17	508.18
603.51	458.46
603.849	404.23
604.189	426.82
604.528	451.68
604.868	449.42
605.207	368.07
605.547	429.08
605.886	449.42
606.225	431.34
606.565	458.46
606.904	406.49
607.243	386.15
607.582	408.75
607.921	383.89
608.26	397.45
608.599	415.53
608.938	392.93
609.277	415.53
609.616	392.93
609.955	408.75
610.293	453.94
610.632	331.91
610.971	386.15
611.309	429.08
611.648	417.79
611.987	422.31
612.325	390.67
612.664	395.19
613.002	370.33
613.34	420.05
613.679	386.15
614.017	399.71
614.355	365.81
614.694	388.41
615.032	359.03
615.37	383.89
615.708	359.03
616.046	397.45
616.384	365.81
616.722	453.94
617.06	347.73
617.398	363.55
617.736	379.37
618.073	399.71
618.411	352.25
618.749	456.2
619.086	354.51
619.424	397.45
619.762	413.27
620.099	381.63
620.437	406.49
620.774	420.05
621.112	354.51
621.449	361.29
621.786	386.15
622.123	365.81
622.461	372.59
622.798	392.93
623.135	424.57
623.472	361.29
623.809	392.93
624.146	426.82
624.483	438.12
624.82	413.27
625.157	372.59
625.494	347.73
625.83	349.99
626.167	331.91
626.504	370.33
626.841	368.07
627.177	370.33
627.514	395.19
627.85	322.87
628.187	356.77
628.523	406.49
628.86	338.69
629.196	377.11
629.532	383.89
629.869	408.75
630.205	343.21
630.541	429.08
630.877	381.63
631.213	311.57
631.549	354.51
631.885	377.11
632.221	356.77
632.557	304.79
632.893	338.69
633.229	386.15
633.564	399.71
633.9	429.08
634.236	372.59
634.572	440.38
634.907	368.07
635.243	368.07
635.578	316.09
635.914	397.45
636.249	377.11
636.585	300.27
636.92	363.55
637.255	370.33
637.59	368.07
637.926	343.21
638.261	359.03
638.596	343.21
638.931	392.93
639.266	390.67
639.601	361.29
639.936	293.5
640.271	359.03
640.606	345.47
640.94	304.79
641.275	288.98
641.61	388.41
641.945	361.29
642.279	349.99
642.614	336.43
642.948	383.89
643.283	381.63
643.617	293.5
643.952	338.69
644.286	243.78
644.62	329.65
644.955	383.89
645.289	372.59
645.623	325.13
645.957	379.37
646.291	318.35
646.625	279.94
646.959	309.31
647.293	300.27
647.627	325.13
647.961	356.77
648.295	343.21
648.629	347.73
648.962	377.11
649.296	318.35
649.63	336.43
649.963	322.87
650.297	311.57
650.63	408.75
650.964	277.68
651.297	365.81
651.631	340.95
651.964	325.13
652.297	354.51
652.631	338.69
652.964	293.5
653.297	268.64
653.63	377.11
653.963	282.2
654.296	277.68
654.629	275.42
654.962	372.59
655.295	293.5
655.628	329.65
655.961	343.21
656.293	329.65
656.626	288.98
656.959	318.35
657.291	363.55
657.624	329.65
657.956	302.53
658.289	298.01
658.621	239.26
658.954	318.35
659.286	316.09
659.618	259.6
659.95	356.77
660.283	309.31
660.615	273.16
660.947	282.2
661.279	313.83
661.611	313.83
661.943	284.46
662.275	406.49
662.607	331.91
662.939	298.01
663.27	316.09
663.602	266.38
663.934	246.04
664.266	216.66
664.597	259.6
664.929	284.46
665.26	259.6
665.592	284.46
665.923	286.72
666.255	298.01
666.586	273.16
666.917	307.05
667.248	338.69
667.58	257.34
667.911	270.9
668.242	288.98
668.573	293.5
668.904	275.42
669.235	311.57
669.566	286.72
669.897	352.25
670.228	252.82
670.558	354.51
670.889	270.9
671.22	270.9
671.551	282.2
671.881	298.01
672.212	273.16
672.542	275.42
672.873	237
673.203	327.39
673.533	248.3
673.864	261.86
674.194	320.61
674.524	307.05
674.855	270.9
675.185	320.61
675.515	288.98
675.845	293.5
676.175	316.09
676.505	293.5
676.835	302.53
677.165	225.7
677.494	282.2
677.824	286.72
678.154	279.94
678.484	259.6
678.813	298.01
679.143	307.05
679.472	334.17
679.802	334.17
680.131	248.3
680.461	255.08
680.79	279.94
681.119	286.72
681.449	313.83
681.778	255.08
682.107	277.68
682.436	302.53
682.765	255.08
683.094	298.01
683.423	169.2
683.752	307.05
684.081	325.13
684.41	279.94
684.739	293.5
685.067	232.48
685.396	345.47
685.725	309.31
686.053	331.91
686.382	264.12
686.711	313.83
687.039	295.75
687.367	279.94
687.696	209.88
688.024	288.98
688.352	257.34
688.681	250.56
689.009	261.86
689.337	309.31
689.665	288.98
689.993	237
690.321	252.82
690.649	325.13
690.977	304.79
691.305	266.38
691.633	275.42
691.961	261.86
692.288	275.42
692.616	318.35
692.944	266.38
693.271	307.05
693.599	300.27
693.926	293.5
694.254	259.6
694.581	212.14
694.908	275.42
695.236	340.95
695.563	243.78
695.89	239.26
696.217	248.3
696.544	282.2
696.871	243.78
697.198	270.9
697.525	338.69
697.852	286.72
698.179	347.73
698.506	372.59
698.833	284.46
699.16	255.08
699.486	239.26
699.813	232.48
700.139	243.78
700.466	255.08
700.793	225.7
701.119	243.78
701.445	209.88
701.772	187.28
702.098	248.3
702.424	241.52
702.75	250.56
703.077	273.16
703.403	282.2
703.729	347.73
704.055	286.72
704.381	261.86
704.707	246.04
705.033	268.64
705.358	298.01
705.684	288.98
706.01	284.46
706.336	241.52
706.661	185.02
706.987	237
707.312	304.79
707.638	241.52
707.963	268.64
708.289	270.9
708.614	248.3
708.939	261.86
709.265	230.22
709.59	255.08
709.915	223.44
710.24	239.26
710.565	264.12
710.89	255.08
711.215	234.74
711.54	227.96
711.865	293.5
712.19	304.79
712.515	300.27
712.839	291.24
713.164	239.26
713.489	221.18
713.813	277.68
714.138	295.75
714.462	275.42
714.787	284.46
715.111	268.64
715.435	250.56
715.76	288.98
716.084	259.6
716.408	313.83
716.732	298.01
717.056	270.9
717.381	252.82
717.705	304.79
718.028	322.87
718.352	257.34
718.676	282.2
719	286.72
719.324	214.4
719.648	288.98
719.971	322.87
720.295	261.86
720.618	300.27
720.942	246.04
721.265	293.5
721.589	261.86
721.912	216.66
722.236	264.12
722.559	327.39
722.882	241.52
723.205	293.5
723.528	225.7
723.851	230.22
724.174	252.82
724.497	232.48
724.82	309.31
725.143	255.08
725.466	255.08
725.789	273.16
726.112	259.6
726.434	218.92
726.757	259.6
727.08	307.05
727.402	300.27
727.725	282.2
728.047	248.3
728.37	277.68
728.692	252.82
729.014	300.27
729.336	275.42
729.659	203.1
729.981	214.4
730.303	223.44
730.625	282.2
730.947	311.57
731.269	214.4
731.591	196.32
731.913	218.92
732.235	225.7
732.556	246.04
732.878	336.43
733.2	304.79
733.521	354.51
733.843	205.36
734.164	255.08
734.486	248.3
734.807	221.18
735.129	286.72
735.45	221.18
735.771	273.16
736.092	288.98
736.414	282.2
736.735	218.92
737.056	255.08
737.377	218.92
737.698	291.24
738.019	243.78
738.34	246.04
738.66	270.9
738.981	218.92
739.302	207.62
739.623	288.98
739.943	268.64
740.264	282.2
740.584	264.12
740.905	313.83
741.225	270.9
741.546	248.3
741.866	257.34
742.186	313.83
742.507	302.53
742.827	352.25
743.147	298.01
743.467	196.32
743.787	264.12
744.107	279.94
744.427	270.9
744.747	230.22
745.067	248.3
745.386	257.34
745.706	286.72
746.026	252.82
746.346	270.9
746.665	232.48
746.985	313.83
747.304	277.68
747.624	286.72
747.943	318.35
748.262	322.87
748.582	266.38
748.901	248.3
749.22	259.6
749.539	203.1
749.858	230.22
750.177	295.75
750.496	313.83
750.815	230.22
751.134	288.98
751.453	309.31
751.772	225.7
752.09	302.53
752.409	257.34
752.728	268.64
753.046	288.98
753.365	266.38
753.683	277.68
754.002	218.92
754.32	277.68
754.639	221.18
754.957	255.08
755.275	241.52
755.593	232.48
755.911	273.16
756.23	266.38
756.548	239.26
756.866	250.56
757.183	270.9
757.501	216.66
757.819	318.35
758.137	232.48
758.455	304.79
758.772	255.08
759.09	275.42
759.408	203.1
759.725	223.44
760.043	252.82
760.36	279.94
760.677	214.4
760.995	313.83
761.312	252.82
761.629	295.75
761.946	218.92
762.264	173.72
762.581	221.18
762.898	225.7
763.215	349.99
763.532	268.64
763.848	221.18
764.165	316.09
764.482	243.78
764.799	284.46
765.115	232.48
765.432	169.2
765.749	257.34
766.065	191.8
766.382	234.74
766.698	232.48
767.014	221.18
767.331	252.82
767.647	239.26
767.963	307.05
768.279	259.6
768.595	232.48
768.911	304.79
769.227	261.86
769.543	264.12
769.859	237
770.175	243.78
770.491	241.52
770.807	207.62
771.122	277.68
771.438	288.98
771.754	239.26
772.069	153.39
772.385	302.53
772.7	284.46
773.016	264.12
773.331	293.5
773.646	250.56
773.961	227.96
774.277	275.42
774.592	259.6
774.907	304.79
775.222	173.72
775.537	259.6
775.852	279.94
776.167	261.86
776.482	182.76
776.796	282.2
777.111	209.88
777.426	268.64
777.74	207.62
778.055	309.31
778.369	255.08
778.684	288.98
778.998	266.38
779.313	295.75
779.627	237
779.941	282.2
780.255	298.01
780.57	264.12
780.884	257.34
781.198	275.42
781.512	318.35
781.826	268.64
782.14	257.34
782.453	293.5
782.767	286.72
783.081	223.44
783.395	194.06
783.708	243.78
784.022	191.8
784.335	250.56
784.649	230.22
784.962	259.6
785.276	185.02
785.589	246.04
785.902	259.6
786.216	307.05
786.529	225.7
786.842	293.5
787.155	214.4
787.468	239.26
787.781	234.74
788.094	198.58
788.407	307.05
788.72	191.8
789.032	216.66
789.345	298.01
789.658	291.24
789.97	255.08
790.283	227.96
790.595	252.82
790.908	286.72
791.22	302.53
791.532	257.34
791.845	250.56
792.157	243.78
792.469	266.38
792.781	227.96
793.093	223.44
793.405	214.4
793.717	264.12
794.029	234.74
794.341	304.79
794.653	218.92
794.965	205.36
795.276	279.94
795.588	209.88
795.9	257.34
796.211	259.6
796.523	257.34
796.834	270.9
797.146	203.1
797.457	252.82
797.768	252.82
798.08	264.12
798.391	277.68
798.702	227.96
799.013	259.6
799.324	318.35
799.635	243.78
799.946	255.08
800.257	282.2
800.568	255.08
800.878	237
801.189	322.87
801.5	225.7
801.81	216.66
802.121	241.52
802.431	252.82
802.742	237
803.052	259.6
803.363	257.34
803.673	261.86
803.983	300.27
804.293	266.38
804.603	241.52
804.913	261.86
805.224	295.75
805.533	300.27
805.843	241.52
806.153	221.18
806.463	252.82
806.773	284.46
807.083	241.52
807.392	225.7
807.702	259.6
808.011	298.01
808.321	198.58
808.63	232.48
808.94	232.48
809.249	194.06
809.558	268.64
809.868	203.1
810.177	291.24
810.486	279.94
810.795	311.57
811.104	286.72
811.413	313.83
811.722	311.57
812.031	266.38
812.339	266.38
812.648	223.44
812.957	252.82
813.266	230.22
813.574	286.72
813.883	212.14
814.191	234.74
814.5	273.16
814.808	266.38
815.116	264.12
815.424	207.62
815.733	291.24
816.041	291.24
816.349	282.2
816.657	246.04
816.965	252.82
817.273	246.04
817.581	232.48
817.889	237
818.196	259.6
818.504	162.43
818.812	268.64
819.12	234.74
819.427	257.34
819.735	320.61
820.042	282.2
820.349	250.56
820.657	302.53
820.964	223.44
821.271	205.36
821.579	214.4
821.886	268.64
822.193	255.08
822.5	232.48
822.807	302.53
823.114	279.94
823.421	261.86
823.727	227.96
824.034	239.26
824.341	286.72
824.648	406.49
824.954	322.87
825.261	291.24
825.567	232.48
825.874	223.44
826.18	322.87
826.486	284.46
826.793	171.46
827.099	173.72
827.405	232.48
827.711	225.7
828.017	232.48
828.323	327.39
828.629	259.6
828.935	318.35
829.241	295.75
829.547	250.56
829.852	182.76
830.158	284.46
830.464	282.2
830.769	266.38
831.075	237
831.38	309.31
831.686	302.53
831.991	214.4
832.296	250.56
832.601	277.68
832.907	248.3
833.212	277.68
833.517	286.72
833.822	282.2
834.127	300.27
834.432	316.09
834.737	187.28
835.041	266.38
835.346	270.9
835.651	250.56
835.956	248.3
836.26	182.76
836.565	207.62
836.869	243.78
837.174	194.06
837.478	255.08
837.782	255.08
838.087	275.42
838.391	257.34
838.695	209.88
838.999	255.08
839.303	196.32
839.607	198.58
839.911	273.16
840.215	216.66
840.519	300.27
840.822	200.84
841.126	175.98
841.43	293.5
841.733	277.68
842.037	279.94
842.34	232.48
842.644	239.26
842.947	221.18
843.251	266.38
843.554	241.52
843.857	286.72
844.16	255.08
844.463	243.78
844.766	248.3
845.069	295.75
845.372	334.17
845.675	293.5
845.978	234.74
846.281	300.27
846.583	216.66
846.886	279.94
847.189	257.34
847.491	241.52
847.794	286.72
848.096	232.48
848.399	268.64
848.701	207.62
849.003	246.04
849.305	275.42
849.608	279.94
849.91	221.18
850.212	227.96
850.514	239.26
850.816	218.92
851.118	223.44
851.419	223.44
851.721	313.83
852.023	243.78
852.325	207.62
852.626	205.36
852.928	277.68
853.229	203.1
853.531	298.01
853.832	207.62
854.133	227.96
854.435	293.5
854.736	252.82
855.037	230.22
855.338	293.5
855.639	237
855.94	264.12
856.241	225.7
856.542	214.4
856.843	284.46
857.144	279.94
857.444	227.96
857.745	291.24
858.046	252.82
858.346	264.12
858.647	288.98
858.947	270.9
859.247	248.3
859.548	205.36
859.848	266.38
860.148	270.9
860.448	311.57
860.749	266.38
861.049	214.4
861.349	273.16
861.648	282.2
861.948	241.52
862.248	214.4
862.548	259.6
862.848	268.64
863.147	214.4
863.447	264.12
863.746	246.04
864.046	277.68
864.345	234.74
864.645	275.42
864.944	203.1
865.243	318.35
865.542	291.24
865.842	266.38
866.141	243.78
866.44	266.38
866.739	277.68
867.038	268.64
867.337	255.08
867.635	255.08
867.934	246.04
868.233	293.5
868.531	279.94
868.83	241.52
869.129	298.01
869.427	270.9
869.725	250.56
870.024	250.56
870.322	270.9
870.62	232.48
870.918	250.56
871.217	187.28
871.515	266.38
871.813	268.64
872.111	275.42
872.409	243.78
872.706	261.86
873.004	248.3
873.302	268.64
873.6	266.38
873.897	304.79
874.195	286.72
874.492	225.7
874.79	327.39
875.087	252.82
875.384	241.52
875.682	227.96
875.979	218.92
876.276	270.9
876.573	291.24
876.87	291.24
877.167	291.24
