Data from PL_2polymer_F8BT_MEHPPV_USB2H096331_0033.txt Node
Date: Tue Dec 15 15:30:42 CET 2020
User: spadmin
Spectrometer: USB2+H09633
Trigger mode: 0
Integration Time (sec): 1.000000E-2
Scans to average: 1
Electric dark correction enabled: true
Nonlinearity correction enabled: false
Boxcar width: 0
XAxis mode: Wavelengths
Number of Pixels in Spectrum: 2048
>>>>>Begin Spectral Data<<<<<
174.027	-71.47
174.405	-71.47
174.783	-71.47
175.162	-69.21
175.54	-57.91
175.918	-103.1
176.296	-53.39
176.674	-66.95
177.052	-44.35
177.43	-100.84
177.808	-98.58
178.186	-46.61
178.564	-26.27
178.942	-21.75
179.32	46.04
179.698	52.82
180.076	25.71
180.453	-1.41
180.831	73.16
181.209	73.16
181.587	159.04
181.965	30.23
182.342	186.15
182.72	208.75
183.098	188.41
183.475	240.39
183.853	256.21
184.231	278.81
184.608	294.63
184.986	292.37
185.363	296.88
185.741	272.03
186.118	312.7
186.496	299.14
186.873	265.25
187.251	310.44
187.628	285.59
188.006	319.48
188.383	362.42
188.76	360.16
189.138	348.86
189.515	312.7
189.892	344.34
190.27	346.6
190.647	303.66
191.024	360.16
191.401	380.5
191.778	353.38
192.155	276.55
192.533	360.16
192.91	364.68
193.287	351.12
193.664	339.82
194.041	292.37
194.418	292.37
194.795	357.9
195.172	396.32
195.549	296.88
195.926	346.6
196.302	348.86
196.679	305.92
197.056	355.64
197.433	319.48
197.81	357.9
198.187	299.14
198.563	278.81
198.94	348.86
199.317	362.42
199.693	355.64
200.07	371.46
200.447	373.72
200.823	394.06
201.2	260.73
201.576	330.78
201.953	317.22
202.329	312.7
202.706	296.88
203.082	353.38
203.459	305.92
203.835	364.68
204.212	301.4
204.588	351.12
204.964	312.7
205.341	348.86
205.717	330.78
206.093	303.66
206.469	290.11
206.846	321.74
207.222	314.96
207.598	299.14
207.974	346.6
208.35	339.82
208.726	357.9
209.102	339.82
209.479	355.64
209.855	357.9
210.231	321.74
210.607	330.78
210.982	305.92
211.358	346.6
211.734	339.82
212.11	366.94
212.486	391.8
212.862	285.59
213.238	281.07
213.614	371.46
213.989	366.94
214.365	416.66
214.741	344.34
215.116	362.42
215.492	346.6
215.868	351.12
216.243	362.42
216.619	301.4
216.995	371.46
217.37	389.54
217.746	335.3
218.121	355.64
218.497	385.02
218.872	321.74
219.247	409.88
219.623	339.82
219.998	344.34
220.374	339.82
220.749	355.64
221.124	351.12
221.499	357.9
221.875	412.14
222.25	380.5
222.625	301.4
223	364.68
223.376	407.62
223.751	326.26
224.126	294.63
224.501	342.08
224.876	380.5
225.251	385.02
225.626	391.8
226.001	375.98
226.376	337.56
226.751	346.6
227.126	432.47
227.501	328.52
227.875	348.86
228.25	326.26
228.625	366.94
229	278.81
229.375	412.14
229.749	360.16
230.124	321.74
230.499	337.56
230.873	303.66
231.248	317.22
231.623	432.47
231.997	394.06
232.372	373.72
232.746	342.08
233.121	351.12
233.495	301.4
233.87	305.92
234.244	355.64
234.619	371.46
234.993	305.92
235.367	421.18
235.742	321.74
236.116	360.16
236.49	378.24
236.865	364.68
237.239	366.94
237.613	353.38
237.987	355.64
238.361	348.86
238.736	333.04
239.11	407.62
239.484	371.46
239.858	351.12
240.232	321.74
240.606	335.3
240.98	337.56
241.354	335.3
241.728	344.34
242.102	396.32
242.475	409.88
242.849	375.98
243.223	378.24
243.597	355.64
243.971	362.42
244.344	375.98
244.718	427.95
245.092	305.92
245.466	369.2
245.839	414.4
246.213	339.82
246.586	342.08
246.96	364.68
247.334	339.82
247.707	452.81
248.081	360.16
248.454	482.19
248.828	418.92
249.201	348.86
249.574	409.88
249.948	317.22
250.321	403.1
250.694	439.25
251.068	423.44
251.441	387.28
251.814	400.84
252.187	427.95
252.561	400.84
252.934	436.99
253.307	423.44
253.68	398.58
254.053	373.72
254.426	421.18
254.799	441.51
255.172	375.98
255.545	396.32
255.918	448.29
256.291	427.95
256.664	378.24
257.037	405.36
257.41	396.32
257.782	380.5
258.155	405.36
258.528	405.36
258.901	387.28
259.273	330.78
259.646	488.97
260.019	457.33
260.391	364.68
260.764	430.21
261.137	425.7
261.509	400.84
261.882	385.02
262.254	355.64
262.627	400.84
262.999	470.89
263.372	369.2
263.744	369.2
264.116	387.28
264.489	396.32
264.861	353.38
265.233	389.54
265.606	403.1
265.978	452.81
266.35	412.14
266.722	387.28
267.094	396.32
267.467	357.9
267.839	362.42
268.211	398.58
268.583	353.38
268.955	455.07
269.327	436.99
269.699	394.06
270.071	427.95
270.443	412.14
270.815	432.47
271.186	398.58
271.558	464.11
271.93	357.9
272.302	394.06
272.674	396.32
273.045	434.73
273.417	432.47
273.789	400.84
274.16	486.71
274.532	430.21
274.904	443.77
275.275	409.88
275.647	430.21
276.018	434.73
276.39	441.51
276.761	436.99
277.133	446.03
277.504	441.51
277.875	396.32
278.247	416.66
278.618	443.77
278.989	479.93
279.361	477.67
279.732	344.34
280.103	407.62
280.474	321.74
280.846	470.89
281.217	443.77
281.588	464.11
281.959	416.66
282.33	452.81
282.701	482.19
283.072	394.06
283.443	380.5
283.814	482.19
284.185	466.37
284.556	450.55
284.927	443.77
285.297	464.11
285.668	405.36
286.039	425.7
286.41	477.67
286.781	466.37
287.151	455.07
287.522	457.33
287.893	457.33
288.263	466.37
288.634	491.23
289.004	432.47
289.375	432.47
289.745	459.59
290.116	502.53
290.486	459.59
290.857	446.03
291.227	491.23
291.598	450.55
291.968	423.44
292.338	421.18
292.709	391.8
293.079	439.25
293.449	430.21
293.819	500.27
294.189	464.11
294.56	475.41
294.93	409.88
295.3	446.03
295.67	446.03
296.04	434.73
296.41	455.07
296.78	452.81
297.15	468.63
297.52	439.25
297.89	425.7
298.259	525.13
298.629	470.89
298.999	387.28
299.369	468.63
299.739	486.71
300.108	486.71
300.478	450.55
300.848	407.62
301.217	446.03
301.587	457.33
301.957	488.97
302.326	432.47
302.696	484.45
303.065	482.19
303.435	500.27
303.804	466.37
304.174	516.09
304.543	450.55
304.912	441.51
305.282	493.49
305.651	504.79
306.02	516.09
306.39	468.63
306.759	486.71
307.128	495.75
307.497	427.95
307.866	448.29
308.235	527.39
308.604	527.39
308.974	513.83
309.343	450.55
309.712	486.71
310.08	461.85
310.449	479.93
310.818	527.39
311.187	563.54
311.556	520.61
311.925	475.41
312.294	441.51
312.662	495.75
313.031	507.05
313.4	518.35
313.769	529.65
314.137	427.95
314.506	549.99
314.874	484.45
315.243	495.75
315.612	466.37
315.98	545.47
316.349	534.17
316.717	543.21
317.085	488.97
317.454	531.91
317.822	534.17
318.191	491.23
318.559	491.23
318.927	547.73
319.295	552.25
319.664	572.58
320.032	500.27
320.4	500.27
320.768	479.93
321.136	527.39
321.504	452.81
321.872	464.11
322.24	574.84
322.608	518.35
322.976	549.99
323.344	588.4
323.712	518.35
324.08	504.79
324.448	547.73
324.816	507.05
325.183	518.35
325.551	479.93
325.919	482.19
326.287	479.93
326.654	534.17
327.022	595.18
327.389	511.57
327.757	613.26
328.125	606.48
328.492	516.09
328.86	629.08
329.227	511.57
329.594	500.27
329.962	482.19
330.329	570.32
330.697	583.88
331.064	536.43
331.431	534.17
331.798	559.02
332.166	531.91
332.533	599.7
332.9	581.62
333.267	592.92
333.634	574.84
334.001	574.84
334.368	588.4
334.735	606.48
335.102	565.8
335.469	568.06
335.836	647.16
336.203	588.4
336.57	581.62
336.937	624.56
337.304	547.73
337.67	538.69
338.037	629.08
338.404	631.34
338.771	563.54
339.137	644.9
339.504	613.26
339.87	660.72
340.237	642.64
340.604	581.62
340.97	640.38
341.337	592.92
341.703	631.34
342.069	690.09
342.436	592.92
342.802	631.34
343.169	658.46
343.535	608.74
343.901	681.06
344.267	604.22
344.634	714.95
345	658.46
345.366	604.22
345.732	674.28
346.098	624.56
346.464	599.7
346.83	651.68
347.196	653.94
347.562	692.35
347.928	721.73
348.294	703.65
348.66	606.48
349.026	665.24
349.392	662.98
349.757	674.28
350.123	701.39
350.489	721.73
350.855	733.03
351.22	714.95
351.586	785.01
351.951	755.63
352.317	751.11
352.683	681.06
353.048	739.81
353.414	748.85
353.779	699.13
354.144	775.97
354.51	780.49
354.875	760.15
355.24	748.85
355.606	775.97
355.971	800.83
356.336	744.33
356.701	785.01
357.067	748.85
357.432	850.54
357.797	737.55
358.162	825.68
358.527	737.55
358.892	803.09
359.257	812.13
359.622	832.46
359.987	796.31
360.352	735.29
360.717	825.68
361.082	794.05
361.446	818.91
361.811	870.88
362.176	868.62
362.541	873.14
362.905	916.08
363.27	870.88
363.635	873.14
363.999	938.68
364.364	920.6
364.728	968.05
365.093	1015.51
365.457	990.65
365.822	907.04
366.186	949.98
366.55	1038.11
366.915	1053.93
367.279	995.17
367.643	968.05
368.008	1035.85
368.372	1051.67
368.736	1114.94
369.1	1130.76
369.464	1072.01
369.828	1137.54
370.192	1114.94
370.556	1178.22
370.92	1214.37
371.284	1216.63
371.648	1209.86
372.012	1297.99
372.376	1282.17
372.74	1356.74
373.104	1514.93
373.468	1555.61
373.831	1584.99
374.195	1578.21
374.559	1591.77
374.922	1589.51
375.286	1555.61
375.65	1648.26
376.013	1722.84
376.377	1874.24
376.74	1865.21
377.104	1874.24
377.467	1914.92
377.83	2118.31
378.194	2281.01
378.557	2398.52
378.92	2497.96
379.284	2687.78
379.647	2773.66
380.01	2870.83
380.373	3076.47
380.736	3261.78
381.1	3722.78
381.463	3774.76
381.826	4014.3
382.189	4405.25
382.552	4658.35
382.915	4938.57
383.278	5363.42
383.64	6002.95
384.003	6477.51
384.366	7182.58
384.729	7607.43
385.092	8127.19
385.454	8863.89
385.817	9966.69
386.18	10843.5
386.542	11842.34
386.905	13092.03
387.268	14330.41
387.63	15925.85
387.993	16915.66
388.355	18565.33
388.718	20357.37
389.08	22438.68
389.442	24402.47
389.805	26474.73
390.167	28684.84
390.529	31896.05
390.892	35746.8
391.254	37586.3
391.616	39990.76
391.978	44410.98
392.34	48752.11
392.702	50028.91
393.064	53298.88
393.426	55294.31
393.788	57038.9
394.15	58706.65
394.512	60482.87
394.874	62091.87
395.236	63802.56
395.598	65049.98
395.96	65049.98
396.321	65049.98
396.683	65049.98
397.045	65049.98
397.406	65049.98
397.768	65049.98
398.13	65049.98
398.491	65049.98
398.853	65049.98
399.214	65049.98
399.576	65049.98
399.937	65049.98
400.299	65049.98
400.66	65049.98
401.021	65049.98
401.383	65049.98
401.744	65049.98
402.105	65049.98
402.466	65049.98
402.827	65049.98
403.189	65049.98
403.55	65049.98
403.911	65049.98
404.272	65049.98
404.633	65049.98
404.994	65049.98
405.355	65049.98
405.716	65049.98
406.077	65049.98
406.437	65049.98
406.798	65049.98
407.159	65049.98
407.52	65049.98
407.88	65049.98
408.241	65049.98
408.602	65049.98
408.962	65049.98
409.323	65049.98
409.684	65049.98
410.044	65049.98
410.405	65049.98
410.765	65049.98
411.125	65049.98
411.486	65049.98
411.846	65049.98
412.206	65049.98
412.567	65049.98
412.927	65049.98
413.287	65049.98
413.647	65049.98
414.007	65049.98
414.368	65049.98
414.728	65049.98
415.088	65049.98
415.448	65049.98
415.808	65049.98
416.168	65049.98
416.528	65049.98
416.887	65049.98
417.247	65049.98
417.607	65049.98
417.967	65049.98
418.327	65049.98
418.686	65049.98
419.046	65049.98
419.406	65049.98
419.765	65049.98
420.125	65049.98
420.484	65049.98
420.844	65049.98
421.203	65049.98
421.563	65049.98
421.922	65049.98
422.282	63863.58
422.641	62292.99
423	61124.66
423.36	60116.78
423.719	58186.89
424.078	56625.35
424.437	54494.33
424.796	53486.45
425.155	51868.41
425.515	49337.4
425.874	48080.94
426.233	44345.44
426.592	41773.76
426.95	40318.43
427.309	38447.29
427.668	37568.22
428.027	34709.54
428.386	33672.28
428.745	30474.62
429.103	29026.07
429.462	27469.05
429.821	25742.54
430.179	24614.89
430.538	23930.16
430.897	23166.34
431.255	21636.44
431.614	20454.55
431.972	19717.84
432.33	18750.64
432.689	18389.06
433.047	17340.5
433.405	16296.46
433.764	15824.16
434.122	15168.81
434.48	14210.64
434.838	13668.28
435.197	13173.38
435.555	12759.83
435.913	12192.62
436.271	11458.17
436.629	11058.18
436.987	10637.86
437.345	9822.06
437.703	10005.1
438.061	9320.38
438.418	8617.57
438.776	8574.63
439.134	8222.1
439.492	7663.92
439.849	7266.19
440.207	7098.97
440.565	6814.23
440.922	6384.86
441.28	5919.34
441.637	5740.81
441.995	5627.82
442.352	5569.06
442.71	5121.62
443.067	5051.56
443.425	4780.38
443.782	4595.08
444.139	4613.16
444.496	4208.65
444.854	4233.5
445.211	4034.64
445.568	4054.98
445.925	3652.73
446.282	3598.49
446.639	3625.61
446.996	3544.26
447.353	3449.34
447.71	3388.33
448.067	3363.47
448.424	3130.71
448.781	3103.59
449.137	2866.31
449.494	2807.55
449.851	2687.78
450.208	2552.19
450.564	2384.97
450.921	2290.05
451.278	2292.31
451.634	2366.89
451.991	2371.41
452.347	2278.75
452.704	2163.5
453.06	2077.63
453.416	1960.12
453.773	1871.98
454.129	1867.47
454.485	1797.41
454.841	1740.91
455.198	1734.14
455.554	1596.29
455.91	1623.4
456.266	1655.04
456.622	1625.66
456.978	1472
457.334	1352.22
457.69	1406.46
458.046	1300.25
458.402	1257.31
458.758	1130.76
459.114	1218.89
459.469	1209.86
459.825	1151.1
460.181	1203.08
460.536	1137.54
460.892	1279.91
461.248	1103.64
461.603	1040.37
461.959	1056.19
462.314	1035.85
462.67	1029.07
463.025	963.53
463.38	1035.85
463.736	1022.29
464.091	972.57
464.446	981.61
464.802	995.17
465.157	891.22
465.512	898
465.867	902.52
466.222	886.7
466.577	913.82
466.932	846.02
467.287	821.16
467.642	909.3
467.997	807.61
468.352	812.13
468.707	791.79
469.062	855.06
469.417	818.91
469.771	753.37
470.126	798.57
470.481	705.91
470.835	755.63
471.19	771.45
471.544	762.41
471.899	746.59
472.253	687.84
472.608	656.2
472.962	701.39
473.317	601.96
473.671	687.84
474.025	703.65
474.38	658.46
474.734	669.76
475.088	604.22
475.442	690.09
475.796	640.38
476.15	651.68
476.504	662.98
476.858	633.6
477.212	601.96
477.566	604.22
477.92	608.74
478.274	608.74
478.628	649.42
478.982	653.94
479.336	538.69
479.689	606.48
480.043	681.06
480.397	577.1
480.75	662.98
481.104	547.73
481.457	588.4
481.811	622.3
482.164	615.52
482.518	502.53
482.871	504.79
483.225	581.62
483.578	611
483.931	547.73
484.284	624.56
484.638	525.13
484.991	586.14
485.344	500.27
485.697	552.25
486.05	565.8
486.403	568.06
486.756	549.99
487.109	574.84
487.462	568.06
487.815	613.26
488.168	586.14
488.52	536.43
488.873	579.36
489.226	543.21
489.579	520.61
489.931	500.27
490.284	518.35
490.637	482.19
490.989	484.45
491.342	520.61
491.694	459.59
492.047	511.57
492.399	491.23
492.751	516.09
493.104	495.75
493.456	597.44
493.808	495.75
494.16	488.97
494.513	520.61
494.865	502.53
495.217	531.91
495.569	531.91
495.921	468.63
496.273	457.33
496.625	495.75
496.977	495.75
497.329	498.01
497.68	366.94
498.032	452.81
498.384	425.7
498.736	441.51
499.087	441.51
499.439	439.25
499.791	450.55
500.142	470.89
500.494	461.85
500.845	421.18
501.197	479.93
501.548	436.99
501.9	507.05
502.251	452.81
502.602	418.92
502.954	455.07
503.305	491.23
503.656	407.62
504.007	430.21
504.358	534.17
504.709	432.47
505.061	534.17
505.412	448.29
505.763	459.59
506.113	441.51
506.464	436.99
506.815	464.11
507.166	396.32
507.517	432.47
507.868	432.47
508.218	479.93
508.569	423.44
508.92	427.95
509.27	448.29
509.621	423.44
509.971	473.15
510.322	443.77
510.672	378.24
511.023	387.28
511.373	477.67
511.723	459.59
512.074	407.62
512.424	448.29
512.774	389.54
513.124	495.75
513.475	470.89
513.825	475.41
514.175	450.55
514.525	446.03
514.875	477.67
515.225	434.73
515.575	495.75
515.924	457.33
516.274	430.21
516.624	443.77
516.974	477.67
517.324	470.89
517.673	477.67
518.023	378.24
518.373	436.99
518.722	432.47
519.072	484.45
519.421	412.14
519.771	511.57
520.12	425.7
520.469	448.29
520.819	452.81
521.168	414.4
521.517	450.55
521.867	427.95
522.216	382.76
522.565	461.85
522.914	455.07
523.263	421.18
523.612	427.95
523.961	371.46
524.31	436.99
524.659	479.93
525.008	405.36
525.357	421.18
525.705	446.03
526.054	484.45
526.403	468.63
526.752	443.77
527.1	434.73
527.449	425.7
527.797	418.92
528.146	425.7
528.495	466.37
528.843	375.98
529.191	418.92
529.54	504.79
529.888	385.02
530.236	470.89
530.585	398.58
530.933	400.84
531.281	466.37
531.629	507.05
531.977	457.33
532.325	405.36
532.673	482.19
533.021	432.47
533.369	461.85
533.717	441.51
534.065	371.46
534.413	459.59
534.761	450.55
535.108	364.68
535.456	414.4
535.804	396.32
536.151	459.59
536.499	398.58
536.847	466.37
537.194	357.9
537.542	423.44
537.889	418.92
538.236	407.62
538.584	371.46
538.931	443.77
539.278	427.95
539.626	464.11
539.973	342.08
540.32	407.62
540.667	423.44
541.014	378.24
541.361	403.1
541.708	436.99
542.055	398.58
542.402	491.23
542.749	344.34
543.096	375.98
543.443	425.7
543.789	416.66
544.136	396.32
544.483	412.14
544.83	333.04
545.176	344.34
545.523	346.6
545.869	405.36
546.216	339.82
546.562	373.72
546.909	373.72
547.255	389.54
547.601	371.46
547.948	321.74
548.294	405.36
548.64	324
548.986	357.9
549.332	360.16
549.678	342.08
550.025	416.66
550.371	414.4
550.717	333.04
551.062	366.94
551.408	333.04
551.754	418.92
552.1	389.54
552.446	281.07
552.792	427.95
553.137	326.26
553.483	335.3
553.828	373.72
554.174	382.76
554.52	378.24
554.865	319.48
555.211	355.64
555.556	360.16
555.901	285.59
556.247	378.24
556.592	305.92
556.937	387.28
557.282	382.76
557.628	385.02
557.973	355.64
558.318	360.16
558.663	416.66
559.008	337.56
559.353	326.26
559.698	335.3
560.043	333.04
560.388	305.92
560.732	439.25
561.077	373.72
561.422	305.92
561.766	346.6
562.111	357.9
562.456	335.3
562.8	281.07
563.145	353.38
563.489	394.06
563.834	407.62
564.178	351.12
564.523	353.38
564.867	346.6
565.211	346.6
565.555	258.47
565.9	364.68
566.244	339.82
566.588	427.95
566.932	292.37
567.276	274.29
567.62	296.88
567.964	337.56
568.308	389.54
568.652	366.94
568.996	339.82
569.339	328.52
569.683	360.16
570.027	348.86
570.371	382.76
570.714	324
571.058	362.42
571.401	362.42
571.745	342.08
572.088	294.63
572.432	328.52
572.775	355.64
573.118	389.54
573.462	317.22
573.805	335.3
574.148	353.38
574.491	348.86
574.835	283.33
575.178	405.36
575.521	335.3
575.864	258.47
576.207	351.12
576.55	360.16
576.892	296.88
577.235	319.48
577.578	351.12
577.921	296.88
578.264	385.02
578.606	330.78
578.949	364.68
579.292	290.11
579.634	278.81
579.977	351.12
580.319	308.18
580.662	287.85
581.004	342.08
581.346	373.72
581.689	258.47
582.031	378.24
582.373	351.12
582.715	285.59
583.057	342.08
583.4	312.7
583.742	396.32
584.084	351.12
584.426	366.94
584.768	312.7
585.109	362.42
585.451	346.6
585.793	357.9
586.135	269.77
586.477	355.64
586.818	337.56
587.16	360.16
587.502	414.4
587.843	333.04
588.185	364.68
588.526	360.16
588.868	346.6
589.209	333.04
589.55	319.48
589.892	317.22
590.233	283.33
590.574	312.7
590.915	328.52
591.257	317.22
591.598	389.54
591.939	303.66
592.28	321.74
592.621	324
592.962	231.35
593.303	344.34
593.643	324
593.984	328.52
594.325	378.24
594.666	360.16
595.006	312.7
595.347	321.74
595.688	362.42
596.028	391.8
596.369	364.68
596.709	330.78
597.05	303.66
597.39	276.55
597.73	328.52
598.071	303.66
598.411	351.12
598.751	373.72
599.091	301.4
599.431	299.14
599.772	294.63
600.112	256.21
600.452	337.56
600.792	337.56
601.132	326.26
601.471	344.34
601.811	337.56
602.151	292.37
602.491	317.22
602.831	308.18
603.17	310.44
603.51	310.44
603.849	274.29
604.189	360.16
604.528	348.86
604.868	333.04
605.207	335.3
605.547	285.59
605.886	378.24
606.225	287.85
606.565	262.99
606.904	287.85
607.243	348.86
607.582	351.12
607.921	360.16
608.26	281.07
608.599	283.33
608.938	330.78
609.277	296.88
609.616	324
609.955	281.07
610.293	335.3
610.632	312.7
610.971	312.7
611.309	269.77
611.648	278.81
611.987	281.07
612.325	355.64
612.664	269.77
613.002	337.56
613.34	319.48
613.679	357.9
614.017	281.07
614.355	242.65
614.694	299.14
615.032	238.13
615.37	283.33
615.708	290.11
616.046	287.85
616.384	328.52
616.722	394.06
617.06	321.74
617.398	312.7
617.736	283.33
618.073	267.51
618.411	296.88
618.749	294.63
619.086	276.55
619.424	373.72
619.762	378.24
620.099	342.08
620.437	260.73
620.774	262.99
621.112	366.94
621.449	262.99
621.786	267.51
622.123	312.7
622.461	333.04
622.798	348.86
623.135	238.13
623.472	348.86
623.809	283.33
624.146	360.16
624.483	305.92
624.82	310.44
625.157	351.12
625.494	303.66
625.83	287.85
626.167	308.18
626.504	324
626.841	303.66
627.177	321.74
627.514	308.18
627.85	301.4
628.187	308.18
628.523	346.6
628.86	312.7
629.196	310.44
629.532	314.96
629.869	283.33
630.205	287.85
630.541	240.39
630.877	262.99
631.213	305.92
631.549	357.9
631.885	362.42
632.221	281.07
632.557	256.21
632.893	294.63
633.229	310.44
633.564	310.44
633.9	285.59
634.236	335.3
634.572	317.22
634.907	353.38
635.243	278.81
635.578	337.56
635.914	258.47
636.249	339.82
636.585	351.12
636.92	378.24
637.255	342.08
637.59	339.82
637.926	301.4
638.261	272.03
638.596	348.86
638.931	296.88
639.266	321.74
639.601	335.3
639.936	344.34
640.271	333.04
640.606	278.81
640.94	317.22
641.275	299.14
641.61	265.25
641.945	235.87
642.279	319.48
642.614	308.18
642.948	299.14
643.283	287.85
643.617	346.6
643.952	294.63
644.286	330.78
644.62	321.74
644.955	299.14
645.289	274.29
645.623	283.33
645.957	296.88
646.291	326.26
646.625	299.14
646.959	301.4
647.293	301.4
647.627	301.4
647.961	328.52
648.295	290.11
648.629	310.44
648.962	342.08
649.296	287.85
649.63	281.07
649.963	346.6
650.297	296.88
650.63	357.9
650.964	269.77
651.297	312.7
651.631	269.77
651.964	222.31
652.297	285.59
652.631	281.07
652.964	285.59
653.297	301.4
653.63	272.03
653.963	244.91
654.296	328.52
654.629	326.26
654.962	274.29
655.295	283.33
655.628	326.26
655.961	267.51
656.293	324
656.626	348.86
656.959	269.77
657.291	308.18
657.624	287.85
657.956	314.96
658.289	260.73
658.621	269.77
658.954	326.26
659.286	233.61
659.618	272.03
659.95	272.03
660.283	351.12
660.615	294.63
660.947	262.99
661.279	265.25
661.611	256.21
661.943	301.4
662.275	314.96
662.607	299.14
662.939	292.37
663.27	333.04
663.602	303.66
663.934	348.86
664.266	267.51
664.597	301.4
664.929	312.7
665.26	319.48
665.592	242.65
665.923	272.03
666.255	299.14
666.586	244.91
666.917	260.73
667.248	278.81
667.58	260.73
667.911	278.81
668.242	274.29
668.573	326.26
668.904	262.99
669.235	274.29
669.566	290.11
669.897	260.73
670.228	319.48
670.558	319.48
670.889	276.55
671.22	292.37
671.551	301.4
671.881	324
672.212	262.99
672.542	312.7
672.873	262.99
673.203	287.85
673.533	337.56
673.864	262.99
674.194	290.11
674.524	204.23
674.855	285.59
675.185	262.99
675.515	296.88
675.845	296.88
676.175	294.63
676.505	272.03
676.835	253.95
677.165	328.52
677.494	220.05
677.824	267.51
678.154	333.04
678.484	278.81
678.813	251.69
679.143	308.18
679.472	229.09
679.802	278.81
680.131	292.37
680.461	305.92
680.79	244.91
681.119	303.66
681.449	231.35
681.778	287.85
682.107	310.44
682.436	314.96
682.765	308.18
683.094	262.99
683.423	258.47
683.752	204.23
684.081	256.21
684.41	326.26
684.739	344.34
685.067	258.47
685.396	269.77
685.725	308.18
686.053	324
686.382	290.11
686.711	251.69
687.039	269.77
687.367	267.51
687.696	314.96
688.024	317.22
688.352	233.61
688.681	220.05
689.009	292.37
689.337	258.47
689.665	324
689.993	348.86
690.321	272.03
690.649	276.55
690.977	317.22
691.305	242.65
691.633	290.11
691.961	328.52
692.288	267.51
692.616	240.39
692.944	240.39
693.271	274.29
693.599	269.77
693.926	317.22
694.254	278.81
694.581	335.3
694.908	258.47
695.236	240.39
695.563	269.77
695.89	305.92
696.217	292.37
696.544	317.22
696.871	242.65
697.198	326.26
697.525	319.48
697.852	319.48
698.179	308.18
698.506	285.59
698.833	303.66
699.16	220.05
699.486	265.25
699.813	244.91
700.139	253.95
700.466	292.37
700.793	283.33
701.119	247.17
701.445	260.73
701.772	294.63
702.098	238.13
702.424	287.85
702.75	242.65
703.077	285.59
703.403	278.81
703.729	290.11
704.055	299.14
704.381	303.66
704.707	253.95
705.033	342.08
705.358	299.14
705.684	265.25
706.01	229.09
706.336	247.17
706.661	238.13
706.987	262.99
707.312	278.81
707.638	308.18
707.963	260.73
708.289	226.83
708.614	256.21
708.939	267.51
709.265	308.18
709.59	240.39
709.915	283.33
710.24	290.11
710.565	287.85
710.89	206.49
711.215	260.73
711.54	238.13
711.865	272.03
712.19	301.4
712.515	276.55
712.839	269.77
713.164	303.66
713.489	229.09
713.813	294.63
714.138	260.73
714.462	287.85
714.787	240.39
715.111	290.11
715.435	244.91
715.76	287.85
716.084	296.88
716.408	281.07
716.732	274.29
717.056	272.03
717.381	251.69
717.705	292.37
718.028	276.55
718.352	283.33
718.676	278.81
719	351.12
719.324	229.09
719.648	265.25
719.971	287.85
720.295	244.91
720.618	321.74
720.942	258.47
721.265	262.99
721.589	238.13
721.912	308.18
722.236	251.69
722.559	278.81
722.882	312.7
723.205	272.03
723.528	231.35
723.851	281.07
724.174	326.26
724.497	330.78
724.82	287.85
725.143	226.83
725.466	247.17
725.789	249.43
726.112	319.48
726.434	339.82
726.757	251.69
727.08	301.4
727.402	260.73
727.725	224.57
728.047	260.73
728.37	278.81
728.692	204.23
729.014	235.87
729.336	285.59
729.659	321.74
729.981	272.03
730.303	360.16
730.625	253.95
730.947	226.83
731.269	233.61
731.591	290.11
731.913	305.92
732.235	258.47
732.556	269.77
732.878	287.85
733.2	299.14
733.521	256.21
733.843	312.7
734.164	281.07
734.486	294.63
734.807	233.61
735.129	274.29
735.45	235.87
735.771	281.07
736.092	242.65
736.414	321.74
736.735	256.21
737.056	292.37
737.377	247.17
737.698	242.65
738.019	235.87
738.34	213.27
738.66	299.14
738.981	272.03
739.302	262.99
739.623	281.07
739.943	301.4
740.264	296.88
740.584	314.96
740.905	303.66
741.225	310.44
741.546	249.43
741.866	305.92
742.186	317.22
742.507	258.47
742.827	294.63
743.147	342.08
743.467	260.73
743.787	299.14
744.107	281.07
744.427	283.33
744.747	294.63
745.067	278.81
745.386	260.73
745.706	258.47
746.026	305.92
746.346	303.66
746.665	328.52
746.985	253.95
747.304	290.11
747.624	222.31
747.943	292.37
748.262	244.91
748.582	224.57
748.901	301.4
749.22	272.03
749.539	251.69
749.858	285.59
750.177	346.6
750.496	258.47
750.815	335.3
751.134	294.63
751.453	319.48
751.772	244.91
752.09	199.71
752.409	179.37
752.728	231.35
753.046	278.81
753.365	299.14
753.683	278.81
754.002	326.26
754.32	265.25
754.639	364.68
754.957	287.85
755.275	287.85
755.593	242.65
755.911	269.77
756.23	247.17
756.548	290.11
756.866	269.77
757.183	296.88
757.501	278.81
757.819	211.01
758.137	319.48
758.455	333.04
758.772	278.81
759.09	188.41
759.408	161.3
759.725	305.92
760.043	274.29
760.36	326.26
760.677	267.51
760.995	294.63
761.312	276.55
761.629	242.65
761.946	170.33
762.264	303.66
762.581	235.87
762.898	274.29
763.215	278.81
763.532	260.73
763.848	274.29
764.165	305.92
764.482	287.85
764.799	204.23
765.115	222.31
765.432	267.51
765.749	256.21
766.065	324
766.382	220.05
766.698	308.18
767.014	231.35
767.331	222.31
767.647	274.29
767.963	233.61
768.279	215.53
768.595	364.68
768.911	321.74
769.227	272.03
769.543	317.22
769.859	287.85
770.175	321.74
770.491	276.55
770.807	276.55
771.122	310.44
771.438	262.99
771.754	305.92
772.069	242.65
772.385	312.7
772.7	330.78
773.016	310.44
773.331	310.44
773.646	272.03
773.961	222.31
774.277	224.57
774.592	324
774.907	287.85
775.222	192.93
775.537	242.65
775.852	294.63
776.167	258.47
776.482	249.43
776.796	272.03
777.111	312.7
777.426	249.43
777.74	281.07
778.055	294.63
778.369	269.77
778.684	244.91
778.998	274.29
779.313	215.53
779.627	267.51
779.941	303.66
780.255	292.37
780.57	294.63
780.884	283.33
781.198	260.73
781.512	278.81
781.826	238.13
782.14	296.88
782.453	303.66
782.767	260.73
783.081	276.55
783.395	240.39
783.708	292.37
784.022	247.17
784.335	256.21
784.649	292.37
784.962	290.11
785.276	256.21
785.589	314.96
785.902	314.96
786.216	260.73
786.529	258.47
786.842	274.29
787.155	287.85
787.468	274.29
787.781	290.11
788.094	278.81
788.407	235.87
788.72	262.99
789.032	292.37
789.345	285.59
789.658	242.65
789.97	314.96
790.283	274.29
790.595	276.55
790.908	281.07
791.22	328.52
791.532	276.55
791.845	299.14
792.157	265.25
792.469	260.73
792.781	281.07
793.093	292.37
793.405	247.17
793.717	242.65
794.029	213.27
794.341	296.88
794.653	281.07
794.965	305.92
795.276	335.3
795.588	317.22
795.9	229.09
796.211	265.25
796.523	251.69
796.834	301.4
797.146	265.25
797.457	287.85
797.768	249.43
798.08	290.11
798.391	278.81
798.702	303.66
799.013	251.69
799.324	285.59
799.635	285.59
799.946	242.65
800.257	305.92
800.568	204.23
800.878	305.92
801.189	235.87
801.5	333.04
801.81	281.07
802.121	206.49
802.431	258.47
802.742	314.96
803.052	269.77
803.363	260.73
803.673	247.17
803.983	299.14
804.293	215.53
804.603	272.03
804.913	269.77
805.224	337.56
805.533	339.82
805.843	310.44
806.153	226.83
806.463	278.81
806.773	265.25
807.083	247.17
807.392	226.83
807.702	238.13
808.011	224.57
808.321	267.51
808.63	224.57
808.94	262.99
809.249	285.59
809.558	296.88
809.868	260.73
810.177	292.37
810.486	285.59
810.795	278.81
811.104	274.29
811.413	258.47
811.722	324
812.031	276.55
812.339	253.95
812.648	269.77
812.957	233.61
813.266	258.47
813.574	274.29
813.883	281.07
814.191	274.29
814.5	301.4
814.808	247.17
815.116	319.48
815.424	351.12
815.733	242.65
816.041	317.22
816.349	290.11
816.657	276.55
816.965	265.25
817.273	235.87
817.581	348.86
817.889	199.71
818.196	244.91
818.504	260.73
818.812	319.48
819.12	251.69
819.427	296.88
819.735	281.07
820.042	242.65
820.349	281.07
820.657	224.57
820.964	269.77
821.271	308.18
821.579	256.21
821.886	211.01
822.193	269.77
822.5	299.14
822.807	260.73
823.114	303.66
823.421	249.43
823.727	267.51
824.034	231.35
824.341	308.18
824.648	312.7
824.954	269.77
825.261	292.37
825.567	287.85
825.874	265.25
826.18	224.57
826.486	324
826.793	308.18
827.099	290.11
827.405	278.81
827.711	317.22
828.017	256.21
828.323	269.77
828.629	294.63
828.935	290.11
829.241	265.25
829.547	251.69
829.852	242.65
830.158	179.37
830.464	240.39
830.769	256.21
831.075	274.29
831.38	283.33
831.686	253.95
831.991	296.88
832.296	305.92
832.601	278.81
832.907	256.21
833.212	292.37
833.517	351.12
833.822	285.59
834.127	353.38
834.432	285.59
834.737	272.03
835.041	317.22
835.346	226.83
835.651	249.43
835.956	199.71
836.26	296.88
836.565	204.23
836.869	328.52
837.174	296.88
837.478	276.55
837.782	262.99
838.087	285.59
838.391	251.69
838.695	303.66
838.999	265.25
839.303	269.77
839.607	231.35
839.911	319.48
840.215	337.56
840.519	274.29
840.822	226.83
841.126	274.29
841.43	296.88
841.733	262.99
842.037	319.48
842.34	238.13
842.644	290.11
842.947	296.88
843.251	303.66
843.554	265.25
843.857	242.65
844.16	308.18
844.463	378.24
844.766	321.74
845.069	244.91
845.372	278.81
845.675	272.03
845.978	195.19
846.281	276.55
846.583	224.57
846.886	299.14
847.189	242.65
847.491	265.25
847.794	287.85
848.096	247.17
848.399	226.83
848.701	296.88
849.003	183.89
849.305	296.88
849.608	276.55
849.91	247.17
850.212	305.92
850.514	310.44
850.816	262.99
851.118	269.77
851.419	249.43
851.721	251.69
852.023	299.14
852.325	321.74
852.626	247.17
852.928	283.33
853.229	357.9
853.531	328.52
853.832	247.17
854.133	305.92
854.435	256.21
854.736	333.04
855.037	287.85
855.338	319.48
855.639	258.47
855.94	233.61
856.241	256.21
856.542	301.4
856.843	183.89
857.144	253.95
857.444	285.59
857.745	281.07
858.046	231.35
858.346	281.07
858.647	267.51
858.947	253.95
859.247	253.95
859.548	258.47
859.848	256.21
860.148	244.91
860.448	303.66
860.749	235.87
861.049	208.75
861.349	303.66
861.648	256.21
861.948	292.37
862.248	272.03
862.548	274.29
862.848	296.88
863.147	267.51
863.447	305.92
863.746	233.61
864.046	287.85
864.345	238.13
864.645	269.77
864.944	199.71
865.243	229.09
865.542	287.85
865.842	238.13
866.141	278.81
866.44	283.33
866.739	249.43
867.038	220.05
867.337	308.18
867.635	206.49
867.934	244.91
868.233	262.99
868.531	285.59
868.83	229.09
869.129	278.81
869.427	276.55
869.725	310.44
870.024	290.11
870.322	235.87
870.62	262.99
870.918	213.27
871.217	319.48
871.515	256.21
871.813	251.69
872.111	267.51
872.409	283.33
872.706	251.69
873.004	204.23
873.302	321.74
873.6	249.43
873.897	278.81
874.195	242.65
874.492	204.23
874.79	310.44
875.087	308.18
875.384	272.03
875.682	312.7
875.979	260.73
876.276	269.77
876.573	240.39
876.87	240.39
877.167	240.39
