Data from PL_2polymer_F8BT_MEHPPV_USB2H096331_0443.txt Node
Date: Tue Dec 15 16:23:52 CET 2020
User: spadmin
Spectrometer: USB2+H09633
Trigger mode: 0
Integration Time (sec): 1.000000E-2
Scans to average: 1
Electric dark correction enabled: true
Nonlinearity correction enabled: false
Boxcar width: 0
XAxis mode: Wavelengths
Number of Pixels in Spectrum: 2048
>>>>>Begin Spectral Data<<<<<
174.027	-124.01
174.405	-124.01
174.783	-124.01
175.162	-69.77
175.54	-72.03
175.918	-151.13
176.296	-133.05
176.674	-85.59
177.052	-56.21
177.43	-17.8
177.808	-44.91
178.186	7.06
178.564	-47.17
178.942	-24.58
179.32	-6.5
179.698	-31.36
180.076	88.42
180.453	101.97
180.831	101.97
181.209	65.82
181.587	52.26
181.965	29.66
182.342	178.81
182.72	174.29
183.098	253.38
183.475	185.59
183.853	242.08
184.231	282.76
184.608	269.2
184.986	305.36
185.363	248.86
185.741	307.62
186.118	294.06
186.496	291.8
186.873	352.82
187.251	316.66
187.628	314.4
188.006	305.36
188.383	323.44
188.76	346.04
189.138	373.15
189.515	339.26
189.892	314.4
190.27	300.84
190.647	273.72
191.024	334.74
191.401	366.37
191.778	312.14
192.155	332.48
192.533	352.82
192.91	305.36
193.287	395.75
193.664	298.58
194.041	307.62
194.418	323.44
194.795	316.66
195.172	285.02
195.549	255.64
195.926	291.8
196.302	287.28
196.679	294.06
197.056	332.48
197.433	282.76
197.81	327.96
198.187	364.11
198.563	312.14
198.94	251.12
199.317	255.64
199.693	253.38
200.07	379.93
200.447	352.82
200.823	296.32
201.2	318.92
201.576	318.92
201.953	260.16
202.329	334.74
202.706	294.06
203.082	323.44
203.459	316.66
203.835	409.31
204.212	314.4
204.588	339.26
204.964	327.96
205.341	219.49
205.717	260.16
206.093	296.32
206.469	337
206.846	393.49
207.222	332.48
207.598	289.54
207.974	364.11
208.35	318.92
208.726	255.64
209.102	305.36
209.479	226.27
209.855	318.92
210.231	309.88
210.607	287.28
210.982	339.26
211.358	346.04
211.734	300.84
212.11	275.98
212.486	309.88
212.862	298.58
213.238	300.84
213.614	343.78
213.989	314.4
214.365	327.96
214.741	266.94
215.116	343.78
215.492	260.16
215.868	327.96
216.243	373.15
216.619	373.15
216.995	282.76
217.37	262.42
217.746	368.63
218.121	309.88
218.497	357.34
218.872	384.45
219.247	350.56
219.623	346.04
219.998	348.3
220.374	348.3
220.749	339.26
221.124	346.04
221.499	359.6
221.875	343.78
222.25	341.52
222.625	334.74
223	368.63
223.376	307.62
223.751	298.58
224.126	346.04
224.501	337
224.876	420.61
225.251	325.7
225.626	312.14
226.001	352.82
226.376	384.45
226.751	402.53
227.126	341.52
227.501	361.85
227.875	404.79
228.25	368.63
228.625	364.11
229	348.3
229.375	341.52
229.749	332.48
230.124	332.48
230.499	332.48
230.873	361.85
231.248	309.88
231.623	350.56
231.997	368.63
232.372	398.01
232.746	343.78
233.121	379.93
233.495	355.08
233.87	350.56
234.244	291.8
234.619	287.28
234.993	325.7
235.367	416.09
235.742	382.19
236.116	348.3
236.49	334.74
236.865	370.89
237.239	407.05
237.613	379.93
237.987	384.45
238.361	327.96
238.736	337
239.11	461.29
239.484	368.63
239.858	404.79
240.232	384.45
240.606	341.52
240.98	368.63
241.354	337
241.728	422.87
242.102	409.31
242.475	327.96
242.849	303.1
243.223	325.7
243.597	359.6
243.971	445.47
244.344	364.11
244.718	393.49
245.092	407.05
245.466	418.35
245.839	332.48
246.213	314.4
246.586	368.63
246.96	377.67
247.334	343.78
247.707	461.29
248.081	384.45
248.454	346.04
248.828	456.77
249.201	355.08
249.574	368.63
249.948	411.57
250.321	359.6
250.694	411.57
251.068	425.13
251.441	341.52
251.814	382.19
252.187	339.26
252.561	420.61
252.934	411.57
253.307	391.23
253.68	388.97
254.053	357.34
254.426	386.71
254.799	346.04
255.172	370.89
255.545	436.43
255.918	321.18
256.291	312.14
256.664	350.56
257.037	375.41
257.41	402.53
257.782	332.48
258.155	391.23
258.528	400.27
258.901	436.43
259.273	382.19
259.646	409.31
260.019	449.99
260.391	413.83
260.764	409.31
261.137	402.53
261.509	368.63
261.882	294.06
262.254	325.7
262.627	409.31
262.999	393.49
263.372	379.93
263.744	416.09
264.116	379.93
264.489	409.31
264.861	337
265.233	366.37
265.606	429.65
265.978	420.61
266.35	352.82
266.722	294.06
267.094	409.31
267.467	398.01
267.839	339.26
268.211	348.3
268.583	411.57
268.955	402.53
269.327	359.6
269.699	379.93
270.071	388.97
270.443	386.71
270.815	411.57
271.186	456.77
271.558	427.39
271.93	375.41
272.302	398.01
272.674	373.15
273.045	400.27
273.417	436.43
273.789	391.23
274.16	418.35
274.532	327.96
274.904	416.09
275.275	391.23
275.647	483.89
276.018	422.87
276.39	452.25
276.761	416.09
277.133	364.11
277.504	327.96
277.875	382.19
278.247	400.27
278.618	398.01
278.989	411.57
279.361	379.93
279.732	393.49
280.103	388.97
280.474	398.01
280.846	429.65
281.217	413.83
281.588	445.47
281.959	377.67
282.33	413.83
282.701	404.79
283.072	492.92
283.443	386.71
283.814	425.13
284.185	429.65
284.556	481.63
284.927	373.15
285.297	465.81
285.668	429.65
286.039	400.27
286.41	443.21
286.781	438.69
287.151	416.09
287.522	416.09
287.893	434.17
288.263	400.27
288.634	486.15
289.004	400.27
289.375	447.73
289.745	472.59
290.116	398.01
290.486	409.31
290.857	449.99
291.227	332.48
291.598	370.89
291.968	418.35
292.338	445.47
292.709	395.75
293.079	449.99
293.449	477.11
293.819	452.25
294.189	425.13
294.56	508.74
294.93	474.85
295.3	481.63
295.67	513.26
296.04	422.87
296.41	391.23
296.78	483.89
297.15	434.17
297.52	501.96
297.89	357.34
298.259	440.95
298.629	443.21
298.999	463.55
299.369	456.77
299.739	452.25
300.108	479.37
300.478	379.93
300.848	447.73
301.217	492.92
301.587	499.7
301.957	386.71
302.326	411.57
302.696	411.57
303.065	386.71
303.435	495.18
303.804	544.9
304.174	463.55
304.543	395.75
304.912	472.59
305.282	456.77
305.651	452.25
306.02	404.79
306.39	465.81
306.759	461.29
307.128	474.85
307.497	409.31
307.866	445.47
308.235	506.48
308.604	533.6
308.974	465.81
309.343	556.2
309.712	454.51
310.08	501.96
310.449	558.46
310.818	535.86
311.187	549.42
311.556	497.44
311.925	520.04
312.294	443.21
312.662	479.37
313.031	517.78
313.4	501.96
313.769	402.53
314.137	488.41
314.506	522.3
314.874	524.56
315.243	511
315.612	572.02
315.98	522.3
316.349	508.74
316.717	463.55
317.085	468.07
317.454	517.78
317.822	449.99
318.191	431.91
318.559	463.55
318.927	488.41
319.295	468.07
319.664	569.76
320.032	472.59
320.4	425.13
320.768	531.34
321.136	578.8
321.504	459.03
321.872	508.74
322.24	540.38
322.608	506.48
322.976	522.3
323.344	506.48
323.712	459.03
324.08	501.96
324.448	481.63
324.816	479.37
325.183	531.34
325.551	501.96
325.919	562.98
326.287	447.73
326.654	524.56
327.022	553.94
327.389	549.42
327.757	533.6
328.125	508.74
328.492	481.63
328.86	547.16
329.227	587.84
329.594	513.26
329.962	495.18
330.329	567.5
330.697	549.42
331.064	544.9
331.431	515.52
331.798	592.36
332.166	574.28
332.533	651.11
332.9	544.9
333.267	596.88
333.634	594.62
334.001	529.08
334.368	572.02
334.735	540.38
335.102	612.7
335.469	623.99
335.836	562.98
336.203	574.28
336.57	572.02
336.937	576.54
337.304	608.18
337.67	601.4
338.037	551.68
338.404	605.92
338.771	596.88
339.137	671.45
339.504	517.78
339.87	558.46
340.237	567.5
340.604	608.18
340.97	560.72
341.337	639.81
341.703	639.81
342.069	635.29
342.436	642.07
342.802	581.06
343.169	596.88
343.535	644.33
343.901	646.59
344.267	637.55
344.634	590.1
345	581.06
345.366	596.88
345.732	603.66
346.098	648.85
346.464	617.22
346.83	687.27
347.196	764.1
347.562	562.98
347.928	603.66
348.294	628.51
348.66	583.32
349.026	716.65
349.392	657.89
349.757	691.79
350.123	648.85
350.489	734.73
350.855	639.81
351.22	639.81
351.586	691.79
351.951	779.92
352.317	730.21
352.683	639.81
353.048	680.49
353.414	703.09
353.779	655.63
354.144	696.31
354.51	709.87
354.875	734.73
355.24	698.57
355.606	705.35
355.971	626.25
356.336	795.74
356.701	732.47
357.067	838.68
357.432	829.64
357.797	761.84
358.162	784.44
358.527	836.42
358.892	761.84
359.257	793.48
359.622	739.25
359.987	748.29
360.352	782.18
360.717	859.02
361.082	793.48
361.446	845.46
361.811	856.76
362.176	929.07
362.541	827.38
362.905	917.77
363.27	888.39
363.635	949.41
363.999	933.59
364.364	915.51
364.728	868.06
365.093	969.75
365.457	1010.43
365.822	987.83
366.186	906.47
366.55	1008.17
366.915	1062.4
367.279	1026.24
367.643	972.01
368.008	1035.28
368.372	983.31
368.736	1010.43
369.1	1094.04
369.464	1057.88
369.828	1033.02
370.192	1091.78
370.556	1175.39
370.92	1141.5
371.284	1152.79
371.648	1188.95
372.012	1200.25
372.376	1313.24
372.74	1333.58
373.104	1313.24
373.468	1326.8
373.831	1464.65
374.195	1405.9
374.559	1448.83
374.922	1591.2
375.286	1588.94
375.65	1695.15
376.013	1611.54
376.377	1679.33
376.74	1828.48
377.104	1817.18
377.467	1950.51
377.83	2034.13
378.194	2104.18
378.557	2284.97
378.92	2420.56
379.284	2499.65
379.647	2755.01
380.01	2759.53
380.373	2931.28
380.736	3109.81
381.1	3484.94
381.463	3636.35
381.826	3952.72
382.189	4117.69
382.552	4524.46
382.915	4881.51
383.278	5333.48
383.64	5846.46
384.003	6244.19
384.366	6793.32
384.729	7252.07
385.092	8047.53
385.454	8655.42
385.817	9468.96
386.18	10230.52
386.542	11437.27
386.905	12573.96
387.268	13566.03
387.63	15326.43
387.993	16524.14
388.355	17744.45
388.718	19644.96
389.08	21355.65
389.442	23500.23
389.805	25536.33
390.167	27104.65
390.529	30550.89
390.892	34105.6
391.254	35447.94
391.616	38586.84
391.978	42340.41
392.34	46448.78
392.702	48618.21
393.064	52010.21
393.426	54003.38
393.788	55743.45
394.15	57246.23
394.512	59076.7
394.874	60932.01
395.236	62597.51
395.598	64378.25
395.96	65076.54
396.321	65076.54
396.683	65076.54
397.045	65076.54
397.406	65076.54
397.768	65076.54
398.13	65076.54
398.491	65076.54
398.853	65076.54
399.214	65076.54
399.576	65076.54
399.937	65076.54
400.299	65076.54
400.66	65076.54
401.021	65076.54
401.383	65076.54
401.744	65076.54
402.105	65076.54
402.466	65076.54
402.827	65076.54
403.189	65076.54
403.55	65076.54
403.911	65076.54
404.272	65076.54
404.633	65076.54
404.994	65076.54
405.355	65076.54
405.716	65076.54
406.077	65076.54
406.437	65076.54
406.798	65076.54
407.159	65076.54
407.52	65076.54
407.88	65076.54
408.241	65076.54
408.602	65076.54
408.962	65076.54
409.323	65076.54
409.684	65076.54
410.044	65076.54
410.405	65076.54
410.765	65076.54
411.125	65076.54
411.486	65076.54
411.846	65076.54
412.206	65076.54
412.567	65076.54
412.927	65076.54
413.287	65076.54
413.647	65076.54
414.007	65076.54
414.368	65076.54
414.728	65076.54
415.088	65076.54
415.448	65076.54
415.808	65076.54
416.168	65076.54
416.528	65076.54
416.887	65076.54
417.247	65076.54
417.607	65076.54
417.967	65076.54
418.327	65076.54
418.686	65076.54
419.046	65076.54
419.406	65076.54
419.765	65076.54
420.125	65076.54
420.484	65076.54
420.844	65076.54
421.203	65076.54
421.563	64509.32
421.922	64199.72
422.282	62396.38
422.641	61155.74
423	59700.41
423.36	58965.96
423.719	56633.82
424.078	54986.41
424.437	52873.47
424.796	51560.51
425.155	50075.8
425.515	47413.73
425.874	46539.17
426.233	42396.91
426.592	39190.21
426.95	38932.59
427.309	36889.71
427.668	36189.16
428.027	32435.59
428.386	32015.26
428.745	29100.08
429.103	27430.07
429.462	26245.92
429.821	24474.22
430.179	23391.76
430.538	22490.09
430.897	22198.57
431.255	20630.25
431.614	19310.51
431.972	18539.91
432.33	17934.27
432.689	17595.3
433.047	16517.36
433.405	15697.04
433.764	14456.4
434.122	14485.78
434.48	13563.77
434.838	12901.64
435.197	12666.62
435.555	12137.82
435.913	11367.22
436.271	10892.65
436.629	10404.53
436.987	10101.71
437.345	9536.75
437.703	9416.98
438.061	8856.55
438.418	8217.02
438.776	7704.03
439.134	7665.62
439.492	7313.08
439.849	6989.93
440.207	6576.38
440.565	6379.78
440.922	5950.41
441.28	5715.39
441.637	5620.47
441.995	5265.68
442.352	5141.39
442.71	4897.33
443.067	4926.71
443.425	4589.99
443.782	4361.75
444.139	4214.86
444.496	4020.52
444.854	3932.38
445.211	3799.05
445.568	3724.48
445.925	3412.62
446.282	3435.22
446.639	3435.22
446.996	3277.03
447.353	3295.11
447.71	3236.36
448.067	3132.4
448.424	3035.23
448.781	2856.7
449.137	2784.39
449.494	2639.76
449.851	2678.18
450.208	2379.88
450.564	2269.15
450.921	2273.67
451.278	2287.23
451.634	2242.03
451.991	2160.68
452.347	2149.38
452.704	2016.05
453.06	2070.28
453.416	1875.94
453.773	1708.71
454.129	1661.26
454.485	1631.88
454.841	1715.49
455.198	1579.9
455.554	1503.07
455.91	1543.74
456.266	1586.68
456.622	1509.85
456.978	1349.4
457.334	1383.3
457.69	1272.57
458.046	1283.86
458.402	1132.46
458.758	1175.39
459.114	1227.37
459.469	1164.09
459.825	1094.04
460.181	1107.6
460.536	1112.12
460.892	1062.4
461.248	1069.18
461.603	1071.44
461.959	1071.44
462.314	985.57
462.67	999.13
463.025	924.55
463.38	938.11
463.736	913.25
464.091	870.32
464.446	888.39
464.802	906.47
465.157	906.47
465.512	892.91
465.867	874.84
466.222	809.3
466.577	802.52
466.932	915.51
467.287	802.52
467.642	877.1
467.997	809.3
468.352	741.51
468.707	775.4
469.062	703.09
469.417	748.29
469.771	784.44
470.126	707.61
470.481	750.55
470.835	653.37
471.19	811.56
471.544	680.49
471.899	619.48
472.253	666.93
472.608	680.49
472.962	700.83
473.317	639.81
473.671	630.77
474.025	678.23
474.38	605.92
474.734	644.33
475.088	626.25
475.442	691.79
475.796	596.88
476.15	671.45
476.504	694.05
476.858	639.81
477.212	522.3
477.566	639.81
477.92	651.11
478.274	635.29
478.628	599.14
478.982	623.99
479.336	644.33
479.689	553.94
480.043	587.84
480.397	533.6
480.75	610.44
481.104	567.5
481.457	553.94
481.811	608.18
482.164	578.8
482.518	594.62
482.871	515.52
483.225	540.38
483.578	544.9
483.931	581.06
484.284	544.9
484.638	583.32
484.991	506.48
485.344	621.74
485.697	590.1
486.05	594.62
486.403	472.59
486.756	572.02
487.109	585.58
487.462	544.9
487.815	542.64
488.168	578.8
488.52	506.48
488.873	572.02
489.226	544.9
489.579	540.38
489.931	551.68
490.284	540.38
490.637	576.54
490.989	596.88
491.342	549.42
491.694	470.33
492.047	495.18
492.399	490.67
492.751	538.12
493.104	553.94
493.456	443.21
493.808	522.3
494.16	481.63
494.513	517.78
494.865	470.33
495.217	520.04
495.569	562.98
495.921	544.9
496.273	590.1
496.625	551.68
496.977	526.82
497.329	490.67
497.68	477.11
498.032	549.42
498.384	535.86
498.736	472.59
499.087	463.55
499.439	459.03
499.791	524.56
500.142	517.78
500.494	517.78
500.845	549.42
501.197	556.2
501.548	486.15
501.9	477.11
502.251	427.39
502.602	488.41
502.954	522.3
503.305	488.41
503.656	515.52
504.007	495.18
504.358	459.03
504.709	499.7
505.061	497.44
505.412	488.41
505.763	456.77
506.113	497.44
506.464	492.92
506.815	456.77
507.166	524.56
507.517	431.91
507.868	492.92
508.218	522.3
508.569	506.48
508.92	511
509.27	479.37
509.621	474.85
509.971	445.47
510.322	465.81
510.672	499.7
511.023	520.04
511.373	522.3
511.723	533.6
512.074	572.02
512.424	569.76
512.774	508.74
513.124	474.85
513.475	572.02
513.825	558.46
514.175	497.44
514.525	544.9
514.875	477.11
515.225	547.16
515.575	617.22
515.924	572.02
516.274	520.04
516.624	594.62
516.974	520.04
517.324	535.86
517.673	642.07
518.023	511
518.373	572.02
518.722	610.44
519.072	542.64
519.421	603.66
519.771	562.98
520.12	560.72
520.469	533.6
520.819	628.51
521.168	549.42
521.517	587.84
521.867	567.5
522.216	578.8
522.565	574.28
522.914	603.66
523.263	445.47
523.612	608.18
523.961	565.24
524.31	596.88
524.659	635.29
525.008	522.3
525.357	567.5
525.705	664.67
526.054	610.44
526.403	540.38
526.752	576.54
527.1	730.21
527.449	646.59
527.797	608.18
528.146	578.8
528.495	590.1
528.843	567.5
529.191	590.1
529.54	623.99
529.888	657.89
530.236	576.54
530.585	578.8
530.933	639.81
531.281	646.59
531.629	694.05
531.977	585.58
532.325	594.62
532.673	617.22
533.021	635.29
533.369	621.74
533.717	560.72
534.065	626.25
534.413	673.71
534.761	637.55
535.108	558.46
535.456	639.81
535.804	594.62
536.151	610.44
536.499	565.24
536.847	601.4
537.194	596.88
537.542	617.22
537.889	576.54
538.236	504.22
538.584	587.84
538.931	660.15
539.278	553.94
539.626	608.18
539.973	583.32
540.32	596.88
540.667	623.99
541.014	544.9
541.361	574.28
541.708	610.44
542.055	669.19
542.402	565.24
542.749	612.7
543.096	572.02
543.443	642.07
543.789	651.11
544.136	614.96
544.483	626.25
544.83	558.46
545.176	569.76
545.523	682.75
545.869	562.98
546.216	642.07
546.562	587.84
546.909	612.7
547.255	599.14
547.601	635.29
547.948	585.58
548.294	657.89
548.64	583.32
548.986	653.37
549.332	569.76
549.678	587.84
550.025	617.22
550.371	581.06
550.717	547.16
551.062	547.16
551.408	583.32
551.754	596.88
552.1	569.76
552.446	610.44
552.792	583.32
553.137	623.99
553.483	497.44
553.828	612.7
554.174	596.88
554.52	578.8
554.865	621.74
555.211	574.28
555.556	585.58
555.901	520.04
556.247	576.54
556.592	644.33
556.937	574.28
557.282	576.54
557.628	594.62
557.973	630.77
558.318	524.56
558.663	612.7
559.008	581.06
559.353	535.86
559.698	617.22
560.043	515.52
560.388	614.96
560.732	603.66
561.077	612.7
561.422	587.84
561.766	553.94
562.111	583.32
562.456	655.63
562.8	603.66
563.145	592.36
563.489	594.62
563.834	610.44
564.178	619.48
564.523	621.74
564.867	637.55
565.211	558.46
565.555	590.1
565.9	569.76
566.244	646.59
566.588	585.58
566.932	614.96
567.276	596.88
567.62	633.03
567.964	619.48
568.308	569.76
568.652	642.07
568.996	590.1
569.339	596.88
569.683	644.33
570.027	642.07
570.371	596.88
570.714	628.51
571.058	560.72
571.401	567.5
571.745	601.4
572.088	651.11
572.432	646.59
572.775	542.64
573.118	621.74
573.462	601.4
573.805	601.4
574.148	592.36
574.491	689.53
574.835	617.22
575.178	553.94
575.521	558.46
575.864	601.4
576.207	592.36
576.55	621.74
576.892	626.25
577.235	614.96
577.578	542.64
577.921	578.8
578.264	603.66
578.606	628.51
578.949	594.62
579.292	655.63
579.634	617.22
579.977	553.94
580.319	646.59
580.662	574.28
581.004	574.28
581.346	608.18
581.689	517.78
582.031	605.92
582.373	506.48
582.715	581.06
583.057	572.02
583.4	601.4
583.742	542.64
584.084	628.51
584.426	637.55
584.768	565.24
585.109	567.5
585.451	531.34
585.793	578.8
586.135	547.16
586.477	531.34
586.818	562.98
587.16	488.41
587.502	445.47
587.843	520.04
588.185	531.34
588.526	531.34
588.868	590.1
589.209	490.67
589.55	549.42
589.892	495.18
590.233	569.76
590.574	590.1
590.915	515.52
591.257	490.67
591.598	449.99
591.939	567.5
592.28	486.15
592.621	492.92
592.962	501.96
593.303	495.18
593.643	506.48
593.984	515.52
594.325	488.41
594.666	511
595.006	495.18
595.347	470.33
595.688	391.23
596.028	535.86
596.369	492.92
596.709	427.39
597.05	529.08
597.39	452.25
597.73	452.25
598.071	483.89
598.411	463.55
598.751	483.89
599.091	474.85
599.431	454.51
599.772	468.07
600.112	481.63
600.452	413.83
600.792	481.63
601.132	429.65
601.471	481.63
601.811	452.25
602.151	409.31
602.491	388.97
602.831	468.07
603.17	465.81
603.51	449.99
603.849	449.99
604.189	449.99
604.528	411.57
604.868	492.92
605.207	461.29
605.547	436.43
605.886	420.61
606.225	425.13
606.565	413.83
606.904	440.95
607.243	492.92
607.582	438.69
607.921	420.61
608.26	445.47
608.599	431.91
608.938	465.81
609.277	445.47
609.616	438.69
609.955	431.91
610.293	425.13
610.632	420.61
610.971	407.05
611.309	456.77
611.648	445.47
611.987	443.21
612.325	449.99
612.664	449.99
613.002	422.87
613.34	377.67
613.679	445.47
614.017	398.01
614.355	447.73
614.694	449.99
615.032	402.53
615.37	373.15
615.708	375.41
616.046	407.05
616.384	449.99
616.722	411.57
617.06	395.75
617.398	474.85
617.736	470.33
618.073	395.75
618.411	393.49
618.749	454.51
619.086	355.08
619.424	418.35
619.762	411.57
620.099	440.95
620.437	416.09
620.774	391.23
621.112	413.83
621.449	395.75
621.786	316.66
622.123	438.69
622.461	429.65
622.798	393.49
623.135	366.37
623.472	420.61
623.809	364.11
624.146	418.35
624.483	350.56
624.82	465.81
625.157	391.23
625.494	393.49
625.83	348.3
626.167	384.45
626.504	388.97
626.841	422.87
627.177	393.49
627.514	343.78
627.85	364.11
628.187	350.56
628.523	377.67
628.86	431.91
629.196	411.57
629.532	416.09
629.869	332.48
630.205	386.71
630.541	334.74
630.877	339.26
631.213	346.04
631.549	366.37
631.885	343.78
632.221	355.08
632.557	395.75
632.893	350.56
633.229	352.82
633.564	361.85
633.9	366.37
634.236	400.27
634.572	359.6
634.907	364.11
635.243	416.09
635.578	486.15
635.914	375.41
636.249	386.71
636.585	402.53
636.92	359.6
637.255	402.53
637.59	348.3
637.926	370.89
638.261	402.53
638.596	391.23
638.931	357.34
639.266	343.78
639.601	373.15
639.936	339.26
640.271	398.01
640.606	334.74
640.94	364.11
641.275	278.24
641.61	357.34
641.945	303.1
642.279	300.84
642.614	352.82
642.948	334.74
643.283	364.11
643.617	379.93
643.952	343.78
644.286	341.52
644.62	346.04
644.955	355.08
645.289	357.34
645.623	327.96
645.957	357.34
646.291	386.71
646.625	350.56
646.959	398.01
647.293	337
647.627	364.11
647.961	359.6
648.295	294.06
648.629	350.56
648.962	273.72
649.296	314.4
649.63	355.08
649.963	393.49
650.297	366.37
650.63	382.19
650.964	343.78
651.297	341.52
651.631	361.85
651.964	350.56
652.297	309.88
652.631	368.63
652.964	350.56
653.297	334.74
653.63	330.22
653.963	303.1
654.296	332.48
654.629	337
654.962	343.78
655.295	312.14
655.628	289.54
655.961	294.06
656.293	305.36
656.626	314.4
656.959	285.02
657.291	413.83
657.624	377.67
657.956	346.04
658.289	357.34
658.621	402.53
658.954	366.37
659.286	388.97
659.618	361.85
659.95	361.85
660.283	327.96
660.615	309.88
660.947	237.56
661.279	388.97
661.611	359.6
661.943	314.4
662.275	343.78
662.607	282.76
662.939	330.22
663.27	357.34
663.602	357.34
663.934	337
664.266	343.78
664.597	271.46
664.929	332.48
665.26	275.98
665.592	282.76
665.923	264.68
666.255	366.37
666.586	332.48
666.917	366.37
667.248	339.26
667.58	298.58
667.911	357.34
668.242	321.18
668.573	278.24
668.904	334.74
669.235	377.67
669.566	321.18
669.897	194.63
670.228	323.44
670.558	280.5
670.889	323.44
671.22	294.06
671.551	280.5
671.881	316.66
672.212	422.87
672.542	307.62
672.873	327.96
673.203	373.15
673.533	289.54
673.864	271.46
674.194	285.02
674.524	332.48
674.855	337
675.185	398.01
675.515	303.1
675.845	307.62
676.175	269.2
676.505	271.46
676.835	341.52
677.165	278.24
677.494	305.36
677.824	294.06
678.154	357.34
678.484	334.74
678.813	364.11
679.143	296.32
679.472	287.28
679.802	273.72
680.131	337
680.461	296.32
680.79	314.4
681.119	282.76
681.449	278.24
681.778	282.76
682.107	298.58
682.436	285.02
682.765	287.28
683.094	384.45
683.423	294.06
683.752	266.94
684.081	339.26
684.41	260.16
684.739	307.62
685.067	203.67
685.396	278.24
685.725	287.28
686.053	312.14
686.382	278.24
686.711	294.06
687.039	275.98
687.367	273.72
687.696	323.44
688.024	350.56
688.352	289.54
688.681	278.24
689.009	294.06
689.337	307.62
689.665	257.9
689.993	327.96
690.321	253.38
690.649	327.96
690.977	196.89
691.305	285.02
691.633	314.4
691.961	339.26
692.288	294.06
692.616	253.38
692.944	294.06
693.271	287.28
693.599	291.8
693.926	327.96
694.254	266.94
694.581	280.5
694.908	323.44
695.236	248.86
695.563	341.52
695.89	309.88
696.217	273.72
696.544	246.6
696.871	275.98
697.198	287.28
697.525	269.2
697.852	307.62
698.179	282.76
698.506	323.44
698.833	314.4
699.16	282.76
699.486	316.66
699.813	294.06
700.139	262.42
700.466	282.76
700.793	321.18
701.119	350.56
701.445	257.9
701.772	271.46
702.098	278.24
702.424	264.68
702.75	280.5
703.077	321.18
703.403	346.04
703.729	273.72
704.055	235.3
704.381	294.06
704.707	316.66
705.033	314.4
705.358	280.5
705.684	307.62
706.01	327.96
706.336	327.96
706.661	242.08
706.987	266.94
707.312	300.84
707.638	269.2
707.963	251.12
708.289	246.6
708.614	287.28
708.939	278.24
709.265	287.28
709.59	348.3
709.915	255.64
710.24	278.24
710.565	289.54
710.89	260.16
711.215	307.62
711.54	244.34
711.865	266.94
712.19	314.4
712.515	300.84
712.839	282.76
713.164	323.44
713.489	296.32
713.813	219.49
714.138	300.84
714.462	305.36
714.787	298.58
715.111	257.9
715.435	253.38
715.76	296.32
716.084	251.12
716.408	316.66
716.732	266.94
717.056	316.66
717.381	244.34
717.705	386.71
718.028	337
718.352	330.22
718.676	266.94
719	307.62
719.324	316.66
719.648	346.04
719.971	235.3
720.295	237.56
720.618	246.6
720.942	303.1
721.265	321.18
721.589	346.04
721.912	287.28
722.236	309.88
722.559	289.54
722.882	203.67
723.205	260.16
723.528	309.88
723.851	271.46
724.174	312.14
724.497	300.84
724.82	307.62
725.143	300.84
725.466	300.84
725.789	373.15
726.112	242.08
726.434	251.12
726.757	264.68
727.08	341.52
727.402	251.12
727.725	330.22
728.047	262.42
728.37	266.94
728.692	219.49
729.014	217.23
729.336	264.68
729.659	346.04
729.981	278.24
730.303	278.24
730.625	337
730.947	343.78
731.269	285.02
731.591	312.14
731.913	251.12
732.235	257.9
732.556	287.28
732.878	278.24
733.2	262.42
733.521	309.88
733.843	257.9
734.164	237.56
734.486	366.37
734.807	262.42
735.129	316.66
735.45	257.9
735.771	298.58
736.092	237.56
736.414	296.32
736.735	285.02
737.056	294.06
737.377	273.72
737.698	291.8
738.019	251.12
738.34	323.44
738.66	230.78
738.981	303.1
739.302	285.02
739.623	257.9
739.943	289.54
740.264	271.46
740.584	255.64
740.905	194.63
741.225	219.49
741.546	262.42
741.866	264.68
742.186	296.32
742.507	346.04
742.827	314.4
743.147	280.5
743.467	298.58
743.787	246.6
744.107	221.75
744.427	298.58
744.747	323.44
745.067	228.53
745.386	235.3
745.706	253.38
746.026	251.12
746.346	266.94
746.665	303.1
746.985	244.34
747.304	219.49
747.624	330.22
747.943	255.64
748.262	278.24
748.582	287.28
748.901	296.32
749.22	307.62
749.539	248.86
749.858	314.4
750.177	235.3
750.496	224.01
750.815	282.76
751.134	244.34
751.453	282.76
751.772	226.27
752.09	255.64
752.409	244.34
752.728	278.24
753.046	233.04
753.365	235.3
753.683	312.14
754.002	285.02
754.32	307.62
754.639	296.32
754.957	246.6
755.275	282.76
755.593	280.5
755.911	228.53
756.23	282.76
756.548	271.46
756.866	269.2
757.183	298.58
757.501	244.34
757.819	262.42
758.137	332.48
758.455	271.46
758.772	255.64
759.09	242.08
759.408	282.76
759.725	248.86
760.043	337
760.36	321.18
760.677	275.98
760.995	285.02
761.312	318.92
761.629	246.6
761.946	285.02
762.264	264.68
762.581	264.68
762.898	285.02
763.215	262.42
763.532	312.14
763.848	314.4
764.165	305.36
764.482	294.06
764.799	305.36
765.115	282.76
765.432	307.62
765.749	314.4
766.065	298.58
766.382	244.34
766.698	303.1
767.014	253.38
767.331	303.1
767.647	262.42
767.963	309.88
768.279	273.72
768.595	296.32
768.911	321.18
769.227	278.24
769.543	212.71
769.859	257.9
770.175	314.4
770.491	266.94
770.807	269.2
771.122	323.44
771.438	334.74
771.754	300.84
772.069	273.72
772.385	269.2
772.7	251.12
773.016	230.78
773.331	242.08
773.646	280.5
773.961	269.2
774.277	273.72
774.592	266.94
774.907	269.2
775.222	246.6
775.537	260.16
775.852	237.56
776.167	323.44
776.482	264.68
776.796	244.34
777.111	190.11
777.426	303.1
777.74	316.66
778.055	237.56
778.369	264.68
778.684	282.76
778.998	280.5
779.313	287.28
779.627	242.08
779.941	244.34
780.255	289.54
780.57	287.28
780.884	244.34
781.198	269.2
781.512	239.82
781.826	278.24
782.14	260.16
782.453	321.18
782.767	278.24
783.081	291.8
783.395	190.11
783.708	305.36
784.022	305.36
784.335	273.72
784.649	253.38
784.962	271.46
785.276	262.42
785.589	260.16
785.902	264.68
786.216	287.28
786.529	273.72
786.842	298.58
787.155	327.96
787.468	316.66
787.781	309.88
788.094	273.72
788.407	359.6
788.72	278.24
789.032	305.36
789.345	239.82
789.658	289.54
789.97	260.16
790.283	318.92
790.595	266.94
790.908	282.76
791.22	339.26
791.532	287.28
791.845	275.98
792.157	325.7
792.469	312.14
792.781	260.16
793.093	305.36
793.405	280.5
793.717	318.92
794.029	303.1
794.341	248.86
794.653	285.02
794.965	201.41
795.276	235.3
795.588	233.04
795.9	235.3
796.211	262.42
796.523	275.98
796.834	262.42
797.146	309.88
797.457	294.06
797.768	262.42
798.08	316.66
798.391	364.11
798.702	242.08
799.013	271.46
799.324	287.28
799.635	278.24
799.946	296.32
800.257	355.08
800.568	260.16
800.878	300.84
801.189	230.78
801.5	226.27
801.81	312.14
802.121	303.1
802.431	287.28
802.742	255.64
803.052	298.58
803.363	309.88
803.673	341.52
803.983	271.46
804.293	285.02
804.603	237.56
804.913	325.7
805.224	305.36
805.533	309.88
805.843	266.94
806.153	296.32
806.463	260.16
806.773	212.71
807.083	282.76
807.392	224.01
807.702	278.24
808.011	298.58
808.321	334.74
808.63	305.36
808.94	312.14
809.249	298.58
809.558	230.78
809.868	228.53
810.177	219.49
810.486	298.58
810.795	287.28
811.104	260.16
811.413	296.32
811.722	269.2
812.031	253.38
812.339	269.2
812.648	251.12
812.957	327.96
813.266	296.32
813.574	321.18
813.883	235.3
814.191	257.9
814.5	343.78
814.808	294.06
815.116	273.72
815.424	318.92
815.733	242.08
816.041	255.64
816.349	260.16
816.657	273.72
816.965	246.6
817.273	298.58
817.581	278.24
817.889	316.66
818.196	294.06
818.504	280.5
818.812	239.82
819.12	296.32
819.427	341.52
819.735	264.68
820.042	255.64
820.349	291.8
820.657	275.98
820.964	275.98
821.271	291.8
821.579	287.28
821.886	271.46
822.193	291.8
822.5	260.16
822.807	289.54
823.114	398.01
823.421	339.26
823.727	273.72
824.034	251.12
824.341	264.68
824.648	291.8
824.954	305.36
825.261	321.18
825.567	248.86
825.874	278.24
826.18	233.04
826.486	291.8
826.793	289.54
827.099	257.9
827.405	348.3
827.711	273.72
828.017	205.93
828.323	285.02
828.629	307.62
828.935	309.88
829.241	253.38
829.547	260.16
829.852	203.67
830.158	262.42
830.464	251.12
830.769	280.5
831.075	305.36
831.38	368.63
831.686	273.72
831.991	298.58
832.296	235.3
832.601	262.42
832.907	291.8
833.212	278.24
833.517	303.1
833.822	307.62
834.127	233.04
834.432	327.96
834.737	318.92
835.041	305.36
835.346	298.58
835.651	248.86
835.956	298.58
836.26	242.08
836.565	233.04
836.869	257.9
837.174	291.8
837.478	278.24
837.782	210.45
838.087	233.04
838.391	260.16
838.695	246.6
838.999	273.72
839.303	273.72
839.607	280.5
839.911	226.27
840.215	269.2
840.519	307.62
840.822	260.16
841.126	226.27
841.43	257.9
841.733	230.78
842.037	264.68
842.34	280.5
842.644	307.62
842.947	312.14
843.251	212.71
843.554	230.78
843.857	323.44
844.16	287.28
844.463	305.36
844.766	323.44
845.069	314.4
845.372	294.06
845.675	257.9
845.978	307.62
846.281	269.2
846.583	255.64
846.886	251.12
847.189	330.22
847.491	303.1
847.794	237.56
848.096	205.93
848.399	341.52
848.701	280.5
849.003	260.16
849.305	228.53
849.608	271.46
849.91	269.2
850.212	239.82
850.514	264.68
850.816	269.2
851.118	217.23
851.419	221.75
851.721	278.24
852.023	208.19
852.325	282.76
852.626	325.7
852.928	285.02
853.229	242.08
853.531	303.1
853.832	248.86
854.133	332.48
854.435	287.28
854.736	318.92
855.037	221.75
855.338	269.2
855.639	316.66
855.94	262.42
856.241	262.42
856.542	327.96
856.843	199.15
857.144	237.56
857.444	287.28
857.745	210.45
858.046	253.38
858.346	235.3
858.647	255.64
858.947	282.76
859.247	323.44
859.548	237.56
859.848	275.98
860.148	251.12
860.448	285.02
860.749	289.54
861.049	269.2
861.349	294.06
861.648	285.02
861.948	264.68
862.248	357.34
862.548	253.38
862.848	235.3
863.147	246.6
863.447	224.01
863.746	251.12
864.046	275.98
864.345	314.4
864.645	291.8
864.944	298.58
865.243	255.64
865.542	271.46
865.842	273.72
866.141	251.12
866.44	296.32
866.739	339.26
867.038	239.82
867.337	251.12
867.635	230.78
867.934	264.68
868.233	341.52
868.531	266.94
868.83	323.44
869.129	266.94
869.427	294.06
869.725	296.32
870.024	282.76
870.322	271.46
870.62	309.88
870.918	260.16
871.217	321.18
871.515	239.82
871.813	341.52
872.111	305.36
872.409	224.01
872.706	271.46
873.004	205.93
873.302	278.24
873.6	275.98
873.897	339.26
874.195	278.24
874.492	264.68
874.79	246.6
875.087	271.46
875.384	291.8
875.682	291.8
875.979	251.12
876.276	318.92
876.573	219.49
876.87	219.49
877.167	219.49
