Data from PL_2polymer_F8BT_MEHPPV_USB2H096331_0026.txt Node
Date: Tue Dec 15 16:23:48 CET 2020
User: spadmin
Spectrometer: USB2+H09633
Trigger mode: 0
Integration Time (sec): 1.000000E-2
Scans to average: 1
Electric dark correction enabled: true
Nonlinearity correction enabled: false
Boxcar width: 0
XAxis mode: Wavelengths
Number of Pixels in Spectrum: 2048
>>>>>Begin Spectral Data<<<<<
174.027	-51.13
174.405	-51.13
174.783	-51.13
175.162	-64.69
175.54	-166.38
175.918	-78.25
176.296	-141.52
176.674	-91.81
177.052	-44.35
177.43	-94.07
177.808	-69.21
178.186	-60.17
178.564	-78.25
178.942	-53.39
179.32	30.23
179.698	14.41
180.076	34.74
180.453	143.22
180.831	98.02
181.209	68.64
181.587	140.96
181.965	102.54
182.342	127.4
182.72	206.49
183.098	154.52
183.475	192.93
183.853	113.84
184.231	247.17
184.608	229.09
184.986	235.87
185.363	330.78
185.741	339.82
186.118	238.13
186.496	262.99
186.873	337.56
187.251	373.72
187.628	296.88
188.006	319.48
188.383	385.02
188.76	305.92
189.138	375.98
189.515	425.7
189.892	333.04
190.27	362.42
190.647	351.12
191.024	351.12
191.401	301.4
191.778	328.52
192.155	312.7
192.533	348.86
192.91	362.42
193.287	330.78
193.664	339.82
194.041	357.9
194.418	324
194.795	267.51
195.172	278.81
195.549	283.33
195.926	348.86
196.302	353.38
196.679	360.16
197.056	272.03
197.433	301.4
197.81	283.33
198.187	310.44
198.563	296.88
198.94	346.6
199.317	274.29
199.693	272.03
200.07	314.96
200.447	285.59
200.823	324
201.2	303.66
201.576	339.82
201.953	339.82
202.329	299.14
202.706	303.66
203.082	276.55
203.459	344.34
203.835	296.88
204.212	274.29
204.588	319.48
204.964	328.52
205.341	281.07
205.717	262.99
206.093	364.68
206.469	378.24
206.846	301.4
207.222	274.29
207.598	281.07
207.974	324
208.35	342.08
208.726	371.46
209.102	351.12
209.479	269.77
209.855	360.16
210.231	319.48
210.607	346.6
210.982	274.29
211.358	314.96
211.734	342.08
212.11	244.91
212.486	357.9
212.862	394.06
213.238	333.04
213.614	344.34
213.989	296.88
214.365	310.44
214.741	348.86
215.116	353.38
215.492	335.3
215.868	339.82
216.243	292.37
216.619	299.14
216.995	278.81
217.37	369.2
217.746	296.88
218.121	387.28
218.497	335.3
218.872	321.74
219.247	339.82
219.623	346.6
219.998	296.88
220.374	351.12
220.749	262.99
221.124	283.33
221.499	303.66
221.875	283.33
222.25	385.02
222.625	321.74
223	353.38
223.376	346.6
223.751	339.82
224.126	369.2
224.501	310.44
224.876	353.38
225.251	389.54
225.626	330.78
226.001	380.5
226.376	326.26
226.751	328.52
227.126	308.18
227.501	290.11
227.875	371.46
228.25	319.48
228.625	348.86
229	319.48
229.375	299.14
229.749	303.66
230.124	337.56
230.499	353.38
230.873	357.9
231.248	344.34
231.623	394.06
231.997	357.9
232.372	351.12
232.746	371.46
233.121	305.92
233.495	394.06
233.87	421.18
234.244	403.1
234.619	371.46
234.993	371.46
235.367	360.16
235.742	385.02
236.116	319.48
236.49	308.18
236.865	281.07
237.239	326.26
237.613	303.66
237.987	382.76
238.361	373.72
238.736	396.32
239.11	353.38
239.484	346.6
239.858	412.14
240.232	364.68
240.606	421.18
240.98	312.7
241.354	357.9
241.728	371.46
242.102	362.42
242.475	312.7
242.849	366.94
243.223	351.12
243.597	382.76
243.971	312.7
244.344	310.44
244.718	385.02
245.092	308.18
245.466	283.33
245.839	398.58
246.213	360.16
246.586	405.36
246.96	375.98
247.334	351.12
247.707	330.78
248.081	366.94
248.454	344.34
248.828	380.5
249.201	391.8
249.574	330.78
249.948	339.82
250.321	346.6
250.694	351.12
251.068	375.98
251.441	351.12
251.814	344.34
252.187	375.98
252.561	369.2
252.934	362.42
253.307	389.54
253.68	312.7
254.053	355.64
254.426	364.68
254.799	312.7
255.172	360.16
255.545	407.62
255.918	375.98
256.291	369.2
256.664	394.06
257.037	362.42
257.41	348.86
257.782	394.06
258.155	366.94
258.528	380.5
258.901	391.8
259.273	400.84
259.646	330.78
260.019	353.38
260.391	339.82
260.764	353.38
261.137	448.29
261.509	355.64
261.882	335.3
262.254	389.54
262.627	290.11
262.999	403.1
263.372	373.72
263.744	312.7
264.116	362.42
264.489	348.86
264.861	385.02
265.233	389.54
265.606	362.42
265.978	400.84
266.35	391.8
266.722	326.26
267.094	314.96
267.467	364.68
267.839	427.95
268.211	441.51
268.583	362.42
268.955	357.9
269.327	366.94
269.699	436.99
270.071	434.73
270.443	389.54
270.815	459.59
271.186	443.77
271.558	391.8
271.93	301.4
272.302	427.95
272.674	382.76
273.045	382.76
273.417	380.5
273.789	373.72
274.16	375.98
274.532	380.5
274.904	369.2
275.275	373.72
275.647	375.98
276.018	409.88
276.39	425.7
276.761	396.32
277.133	385.02
277.504	398.58
277.875	425.7
278.247	353.38
278.618	455.07
278.989	317.22
279.361	441.51
279.732	380.5
280.103	378.24
280.474	446.03
280.846	389.54
281.217	400.84
281.588	421.18
281.959	394.06
282.33	355.64
282.701	387.28
283.072	339.82
283.443	398.58
283.814	362.42
284.185	378.24
284.556	414.4
284.927	398.58
285.297	427.95
285.668	450.55
286.039	450.55
286.41	421.18
286.781	335.3
287.151	450.55
287.522	434.73
287.893	441.51
288.263	400.84
288.634	357.9
289.004	439.25
289.375	405.36
289.745	344.34
290.116	403.1
290.486	412.14
290.857	504.79
291.227	470.89
291.598	398.58
291.968	391.8
292.338	389.54
292.709	337.56
293.079	398.58
293.449	425.7
293.819	443.77
294.189	407.62
294.56	498.01
294.93	416.66
295.3	455.07
295.67	455.07
296.04	396.32
296.41	427.95
296.78	450.55
297.15	434.73
297.52	446.03
297.89	425.7
298.259	409.88
298.629	464.11
298.999	405.36
299.369	394.06
299.739	387.28
300.108	498.01
300.478	477.67
300.848	461.85
301.217	459.59
301.587	459.59
301.957	407.62
302.326	473.15
302.696	400.84
303.065	439.25
303.435	461.85
303.804	486.71
304.174	482.19
304.543	488.97
304.912	461.85
305.282	421.18
305.651	500.27
306.02	484.45
306.39	520.61
306.759	434.73
307.128	403.1
307.497	500.27
307.866	443.77
308.235	441.51
308.604	398.58
308.974	500.27
309.343	495.75
309.712	473.15
310.08	504.79
310.449	479.93
310.818	520.61
311.187	486.71
311.556	464.11
311.925	423.44
312.294	380.5
312.662	475.41
313.031	488.97
313.4	531.91
313.769	427.95
314.137	470.89
314.506	529.65
314.874	475.41
315.243	470.89
315.612	502.53
315.98	418.92
316.349	457.33
316.717	396.32
317.085	511.57
317.454	486.71
317.822	504.79
318.191	538.69
318.559	482.19
318.927	500.27
319.295	511.57
319.664	470.89
320.032	475.41
320.4	538.69
320.768	520.61
321.136	486.71
321.504	516.09
321.872	495.75
322.24	479.93
322.608	488.97
322.976	484.45
323.344	491.23
323.712	455.07
324.08	568.06
324.448	475.41
324.816	574.84
325.183	534.17
325.551	529.65
325.919	450.55
326.287	436.99
326.654	559.02
327.022	536.43
327.389	452.81
327.757	466.37
328.125	484.45
328.492	414.4
328.86	486.71
329.227	513.83
329.594	559.02
329.962	583.88
330.329	536.43
330.697	511.57
331.064	509.31
331.431	520.61
331.798	468.63
332.166	549.99
332.533	601.96
332.9	534.17
333.267	559.02
333.634	615.52
334.001	577.1
334.368	534.17
334.735	525.13
335.102	500.27
335.469	588.4
335.836	543.21
336.203	565.8
336.57	543.21
336.937	488.97
337.304	543.21
337.67	669.76
338.037	516.09
338.404	640.38
338.771	629.08
339.137	581.62
339.504	608.74
339.87	633.6
340.237	563.54
340.604	644.9
340.97	723.99
341.337	611
341.703	588.4
342.069	613.26
342.436	577.1
342.802	516.09
343.169	665.24
343.535	601.96
343.901	651.68
344.267	601.96
344.634	531.91
345	687.84
345.366	710.43
345.732	665.24
346.098	626.82
346.464	626.82
346.83	590.66
347.196	658.46
347.562	640.38
347.928	669.76
348.294	631.34
348.66	581.62
349.026	660.72
349.392	579.36
349.757	647.16
350.123	692.35
350.489	653.94
350.855	665.24
351.22	644.9
351.586	669.76
351.951	674.28
352.317	665.24
352.683	669.76
353.048	726.25
353.414	696.87
353.779	606.48
354.144	681.06
354.51	728.51
354.875	694.61
355.24	717.21
355.606	674.28
355.971	631.34
356.336	631.34
356.701	737.55
357.067	681.06
357.432	762.41
357.797	692.35
358.162	690.09
358.527	712.69
358.892	737.55
359.257	775.97
359.622	775.97
359.987	775.97
360.352	834.72
360.717	857.32
361.082	787.27
361.446	879.92
361.811	800.83
362.176	827.94
362.541	909.3
362.905	904.78
363.27	882.18
363.635	855.06
363.999	870.88
364.364	999.69
364.728	990.65
365.093	963.53
365.457	949.98
365.822	911.56
366.186	898
366.55	1004.21
366.915	979.35
367.279	1013.25
367.643	1020.03
368.008	981.61
368.372	997.43
368.736	1029.07
369.1	1081.05
369.464	1135.28
369.828	992.91
370.192	1146.58
370.556	1072.01
370.92	1123.98
371.284	1101.38
371.648	1273.13
372.012	1343.19
372.376	1232.45
372.74	1381.6
373.104	1404.2
373.468	1438.1
373.831	1426.8
374.195	1472
374.559	1514.93
374.922	1571.43
375.286	1526.23
375.65	1666.34
376.013	1580.47
376.377	1786.11
376.74	1729.62
377.104	1856.17
377.467	2088.93
377.83	2120.57
378.194	2204.18
378.557	2256.16
378.92	2317.17
379.284	2577.05
379.647	2518.3
380.01	2748.8
380.373	2961.22
380.736	3019.98
381.1	3512.62
381.463	3614.31
381.826	3865.15
382.189	4073.06
382.552	4515.98
382.915	5022.18
383.278	5078.68
383.64	5856.06
384.003	6274.13
384.366	6737.39
384.729	7376.92
385.092	8066.17
385.454	8707.96
385.817	9616.41
386.18	10341.82
386.542	11351.96
386.905	12619.72
387.268	13817.43
387.63	15385.75
387.993	16413.98
388.355	17864.78
388.718	19989.02
389.08	21430.79
389.442	23552.77
389.805	25387.75
390.167	27394.48
390.529	30569.54
390.892	34142.32
391.254	36065.44
391.616	38352.38
391.978	42510.46
392.34	46799.62
392.702	48471.89
393.064	52004
393.426	54252.53
393.788	55967.74
394.15	57423.07
394.512	59036.58
394.874	61038.79
395.236	62591.29
395.598	64435.31
395.96	65070.32
396.321	65070.32
396.683	65070.32
397.045	65070.32
397.406	65070.32
397.768	65070.32
398.13	65070.32
398.491	65070.32
398.853	65070.32
399.214	65070.32
399.576	65070.32
399.937	65070.32
400.299	65070.32
400.66	65070.32
401.021	65070.32
401.383	65070.32
401.744	65070.32
402.105	65070.32
402.466	65070.32
402.827	65070.32
403.189	65070.32
403.55	65070.32
403.911	65070.32
404.272	65070.32
404.633	65070.32
404.994	65070.32
405.355	65070.32
405.716	65070.32
406.077	65070.32
406.437	65070.32
406.798	65070.32
407.159	65070.32
407.52	65070.32
407.88	65070.32
408.241	65070.32
408.602	65070.32
408.962	65070.32
409.323	65070.32
409.684	65070.32
410.044	65070.32
410.405	65070.32
410.765	65070.32
411.125	65070.32
411.486	65070.32
411.846	65070.32
412.206	65070.32
412.567	65070.32
412.927	65070.32
413.287	65070.32
413.647	65070.32
414.007	65070.32
414.368	65070.32
414.728	65070.32
415.088	65070.32
415.448	65070.32
415.808	65070.32
416.168	65070.32
416.528	65070.32
416.887	65070.32
417.247	65070.32
417.607	65070.32
417.967	65070.32
418.327	65070.32
418.686	65070.32
419.046	65070.32
419.406	65070.32
419.765	65070.32
420.125	65070.32
420.484	65070.32
420.844	65070.32
421.203	65070.32
421.563	64708.75
421.922	64195.77
422.282	62446.66
422.641	60955.18
423	59813.96
423.36	59050.14
423.719	56643.43
424.078	54998.27
424.437	53312.44
424.796	51188.2
425.155	49965.64
425.515	47425.59
425.874	46569.11
426.233	42318.38
426.592	39608.85
426.95	39186.26
427.309	36695.93
427.668	35642.85
428.027	32438.41
428.386	32063.28
428.745	28919.86
429.103	27283.75
429.462	25796.78
429.821	24434.1
430.179	23435.26
430.538	22614.94
430.897	21643.22
431.255	20644.37
431.614	19238.76
431.972	18877.19
432.33	17824.11
432.689	17512.25
433.047	16332.62
433.405	15320.22
433.764	14884.07
434.122	14504.42
434.48	13699.92
434.838	13067.17
435.197	12572.27
435.555	12201.66
435.913	11412.98
436.271	11006.21
436.629	10470.63
436.987	9993.81
437.345	9623.19
437.703	9433.37
438.061	8920.39
438.418	8337.35
438.776	7969
439.134	7808.55
439.492	7311.39
439.849	6834.57
440.207	6642.48
440.565	6421.02
440.922	6167.92
441.28	5758.89
441.637	5501.27
441.995	5250.43
442.352	5047.04
442.71	4972.47
443.067	4757.78
443.425	4588.3
443.782	4332.94
444.139	4346.5
444.496	4120.51
444.854	4054.98
445.211	3786.06
445.568	3745.38
445.925	3555.56
446.282	3501.32
446.639	3343.13
446.996	3334.09
447.353	3309.24
447.71	3243.7
448.067	3065.17
448.424	2965.74
448.781	2886.65
449.137	2764.62
449.494	2626.77
449.851	2604.17
450.208	2427.9
450.564	2240.34
450.921	2190.62
451.278	2138.64
451.634	2276.49
451.991	2145.42
452.347	2174.8
452.704	2014.35
453.06	1899.1
453.416	1905.88
453.773	1729.62
454.129	1641.48
454.485	1603.07
454.841	1673.12
455.198	1571.43
455.554	1571.43
455.91	1605.33
456.266	1566.91
456.622	1478.77
456.978	1379.34
457.334	1352.22
457.69	1268.61
458.046	1336.41
458.402	1268.61
458.758	1178.22
459.114	1114.94
459.469	1173.7
459.825	1060.71
460.181	1083.3
460.536	1047.15
460.892	1060.71
461.248	974.83
461.603	1008.73
461.959	1026.81
462.314	1015.51
462.67	1008.73
463.025	940.94
463.38	931.9
463.736	888.96
464.091	927.38
464.446	891.22
464.802	902.52
465.157	875.4
465.512	850.54
465.867	873.14
466.222	843.76
466.577	742.07
466.932	744.33
467.287	782.75
467.642	780.49
467.997	805.35
468.352	812.13
468.707	775.97
469.062	755.63
469.417	791.79
469.771	685.58
470.126	712.69
470.481	719.47
470.835	703.65
471.19	723.99
471.544	708.17
471.899	728.51
472.253	714.95
472.608	696.87
472.962	633.6
473.317	638.12
473.671	613.26
474.025	611
474.38	615.52
474.734	649.42
475.088	592.92
475.442	642.64
475.796	613.26
476.15	629.08
476.504	624.56
476.858	586.14
477.212	676.54
477.566	653.94
477.92	669.76
478.274	577.1
478.628	565.8
478.982	606.48
479.336	597.44
479.689	588.4
480.043	545.47
480.397	565.8
480.75	615.52
481.104	656.2
481.457	549.99
481.811	554.51
482.164	635.86
482.518	644.9
482.871	658.46
483.225	568.06
483.578	595.18
483.931	547.73
484.284	520.61
484.638	543.21
484.991	500.27
485.344	583.88
485.697	531.91
486.05	606.48
486.403	534.17
486.756	518.35
487.109	547.73
487.462	520.61
487.815	561.28
488.168	545.47
488.52	586.14
488.873	482.19
489.226	522.87
489.579	531.91
489.931	552.25
490.284	477.67
490.637	547.73
490.989	543.21
491.342	520.61
491.694	488.97
492.047	513.83
492.399	488.97
492.751	536.43
493.104	498.01
493.456	452.81
493.808	493.49
494.16	468.63
494.513	468.63
494.865	502.53
495.217	504.79
495.569	518.35
495.921	536.43
496.273	430.21
496.625	461.85
496.977	504.79
497.329	423.44
497.68	466.37
498.032	430.21
498.384	543.21
498.736	500.27
499.087	443.77
499.439	513.83
499.791	498.01
500.142	547.73
500.494	464.11
500.845	543.21
501.197	405.36
501.548	441.51
501.9	559.02
502.251	520.61
502.602	482.19
502.954	475.41
503.305	522.87
503.656	459.59
504.007	452.81
504.358	412.14
504.709	482.19
505.061	520.61
505.412	407.62
505.763	479.93
506.113	412.14
506.464	495.75
506.815	507.05
507.166	486.71
507.517	443.77
507.868	479.93
508.218	482.19
508.569	461.85
508.92	479.93
509.27	565.8
509.621	446.03
509.971	436.99
510.322	473.15
510.672	464.11
511.023	466.37
511.373	475.41
511.723	507.05
512.074	457.33
512.424	436.99
512.774	457.33
513.124	421.18
513.475	536.43
513.825	423.44
514.175	495.75
514.525	493.49
514.875	439.25
515.225	409.88
515.575	482.19
515.924	403.1
516.274	446.03
516.624	498.01
516.974	421.18
517.324	470.89
517.673	491.23
518.023	520.61
518.373	527.39
518.722	491.23
519.072	529.65
519.421	450.55
519.771	479.93
520.12	495.75
520.469	466.37
520.819	446.03
521.168	470.89
521.517	439.25
521.867	464.11
522.216	495.75
522.565	488.97
522.914	518.35
523.263	457.33
523.612	513.83
523.961	468.63
524.31	475.41
524.659	464.11
525.008	502.53
525.357	455.07
525.705	504.79
526.054	486.71
526.403	536.43
526.752	414.4
527.1	459.59
527.449	470.89
527.797	511.57
528.146	488.97
528.495	400.84
528.843	525.13
529.191	441.51
529.54	477.67
529.888	522.87
530.236	484.45
530.585	543.21
530.933	473.15
531.281	507.05
531.629	502.53
531.977	479.93
532.325	516.09
532.673	475.41
533.021	436.99
533.369	536.43
533.717	470.89
534.065	455.07
534.413	473.15
534.761	375.98
535.108	473.15
535.456	436.99
535.804	450.55
536.151	452.81
536.499	493.49
536.847	430.21
537.194	500.27
537.542	443.77
537.889	425.7
538.236	479.93
538.584	493.49
538.931	421.18
539.278	439.25
539.626	407.62
539.973	412.14
540.32	389.54
540.667	441.51
541.014	427.95
541.361	425.7
541.708	488.97
542.055	394.06
542.402	421.18
542.749	362.42
543.096	389.54
543.443	477.67
543.789	409.88
544.136	450.55
544.483	418.92
544.83	405.36
545.176	479.93
545.523	398.58
545.869	421.18
546.216	446.03
546.562	427.95
546.909	375.98
547.255	387.28
547.601	421.18
547.948	396.32
548.294	378.24
548.64	360.16
548.986	504.79
549.332	330.78
549.678	335.3
550.025	378.24
550.371	407.62
550.717	425.7
551.062	418.92
551.408	448.29
551.754	466.37
552.1	423.44
552.446	423.44
552.792	443.77
553.137	391.8
553.483	389.54
553.828	391.8
554.174	443.77
554.52	425.7
554.865	353.38
555.211	310.44
555.556	364.68
555.901	409.88
556.247	430.21
556.592	342.08
556.937	409.88
557.282	348.86
557.628	486.71
557.973	439.25
558.318	382.76
558.663	321.74
559.008	378.24
559.353	360.16
559.698	430.21
560.043	423.44
560.388	342.08
560.732	375.98
561.077	464.11
561.422	321.74
561.766	414.4
562.111	400.84
562.456	448.29
562.8	394.06
563.145	337.56
563.489	351.12
563.834	452.81
564.178	400.84
564.523	396.32
564.867	378.24
565.211	427.95
565.555	366.94
565.9	335.3
566.244	430.21
566.588	380.5
566.932	366.94
567.276	423.44
567.62	369.2
567.964	389.54
568.308	389.54
568.652	366.94
568.996	398.58
569.339	328.52
569.683	324
570.027	310.44
570.371	344.34
570.714	385.02
571.058	414.4
571.401	342.08
571.745	353.38
572.088	391.8
572.432	364.68
572.775	360.16
573.118	303.66
573.462	362.42
573.805	360.16
574.148	391.8
574.491	362.42
574.835	346.6
575.178	326.26
575.521	335.3
575.864	369.2
576.207	369.2
576.55	355.64
576.892	281.07
577.235	348.86
577.578	326.26
577.921	382.76
578.264	380.5
578.606	366.94
578.949	308.18
579.292	337.56
579.634	423.44
579.977	403.1
580.319	303.66
580.662	380.5
581.004	321.74
581.346	389.54
581.689	344.34
582.031	407.62
582.373	296.88
582.715	398.58
583.057	360.16
583.4	330.78
583.742	351.12
584.084	421.18
584.426	317.22
584.768	385.02
585.109	348.86
585.451	366.94
585.793	305.92
586.135	339.82
586.477	337.56
586.818	294.63
587.16	400.84
587.502	362.42
587.843	398.58
588.185	353.38
588.526	344.34
588.868	258.47
589.209	371.46
589.55	369.2
589.892	375.98
590.233	337.56
590.574	355.64
590.915	319.48
591.257	344.34
591.598	267.51
591.939	301.4
592.28	339.82
592.621	326.26
592.962	337.56
593.303	360.16
593.643	366.94
593.984	362.42
594.325	403.1
594.666	355.64
595.006	366.94
595.347	387.28
595.688	312.7
596.028	299.14
596.369	317.22
596.709	348.86
597.05	299.14
597.39	324
597.73	353.38
598.071	337.56
598.411	330.78
598.751	357.9
599.091	355.64
599.431	305.92
599.772	346.6
600.112	380.5
600.452	353.38
600.792	296.88
601.132	312.7
601.471	346.6
601.811	272.03
602.151	391.8
602.491	346.6
602.831	321.74
603.17	353.38
603.51	333.04
603.849	351.12
604.189	344.34
604.528	357.9
604.868	324
605.207	328.52
605.547	362.42
605.886	366.94
606.225	294.63
606.565	290.11
606.904	314.96
607.243	310.44
607.582	319.48
607.921	405.36
608.26	265.25
608.599	389.54
608.938	274.29
609.277	294.63
609.616	330.78
609.955	310.44
610.293	337.56
610.632	262.99
610.971	328.52
611.309	290.11
611.648	290.11
611.987	244.91
612.325	285.59
612.664	324
613.002	328.52
613.34	296.88
613.679	319.48
614.017	260.73
614.355	317.22
614.694	312.7
615.032	310.44
615.37	328.52
615.708	303.66
616.046	274.29
616.384	423.44
616.722	360.16
617.06	324
617.398	333.04
617.736	321.74
618.073	394.06
618.411	391.8
618.749	321.74
619.086	394.06
619.424	342.08
619.762	290.11
620.099	371.46
620.437	353.38
620.774	251.69
621.112	364.68
621.449	366.94
621.786	305.92
622.123	346.6
622.461	278.81
622.798	283.33
623.135	301.4
623.472	283.33
623.809	339.82
624.146	276.55
624.483	262.99
624.82	314.96
625.157	312.7
625.494	308.18
625.83	285.59
626.167	344.34
626.504	290.11
626.841	281.07
627.177	357.9
627.514	330.78
627.85	274.29
628.187	364.68
628.523	278.81
628.86	326.26
629.196	305.92
629.532	335.3
629.869	278.81
630.205	335.3
630.541	242.65
630.877	344.34
631.213	296.88
631.549	283.33
631.885	319.48
632.221	301.4
632.557	299.14
632.893	290.11
633.229	353.38
633.564	360.16
633.9	369.2
634.236	303.66
634.572	321.74
634.907	308.18
635.243	258.47
635.578	351.12
635.914	333.04
636.249	333.04
636.585	314.96
636.92	240.39
637.255	240.39
637.59	294.63
637.926	308.18
638.261	278.81
638.596	305.92
638.931	267.51
639.266	287.85
639.601	326.26
639.936	305.92
640.271	342.08
640.606	272.03
640.94	299.14
641.275	242.65
641.61	253.95
641.945	287.85
642.279	314.96
642.614	330.78
642.948	321.74
643.283	292.37
643.617	292.37
643.952	324
644.286	312.7
644.62	292.37
644.955	283.33
645.289	326.26
645.623	290.11
645.957	296.88
646.291	281.07
646.625	272.03
646.959	287.85
647.293	274.29
647.627	369.2
647.961	281.07
648.295	301.4
648.629	303.66
648.962	229.09
649.296	276.55
649.63	292.37
649.963	319.48
650.297	328.52
650.63	330.78
650.964	342.08
651.297	319.48
651.631	258.47
651.964	285.59
652.297	319.48
652.631	333.04
652.964	290.11
653.297	240.39
653.63	260.73
653.963	247.17
654.296	296.88
654.629	317.22
654.962	292.37
655.295	301.4
655.628	256.21
655.961	285.59
656.293	269.77
656.626	260.73
656.959	303.66
657.291	294.63
657.624	285.59
657.956	285.59
658.289	269.77
658.621	299.14
658.954	287.85
659.286	324
659.618	281.07
659.95	274.29
660.283	249.43
660.615	238.13
660.947	267.51
661.279	256.21
661.611	285.59
661.943	324
662.275	267.51
662.607	308.18
662.939	342.08
663.27	274.29
663.602	285.59
663.934	301.4
664.266	351.12
664.597	360.16
664.929	267.51
665.26	292.37
665.592	287.85
665.923	199.71
666.255	260.73
666.586	337.56
666.917	265.25
667.248	265.25
667.58	355.64
667.911	312.7
668.242	317.22
668.573	310.44
668.904	310.44
669.235	330.78
669.566	274.29
669.897	301.4
670.228	265.25
670.558	303.66
670.889	285.59
671.22	283.33
671.551	342.08
671.881	238.13
672.212	272.03
672.542	224.57
672.873	328.52
673.203	292.37
673.533	262.99
673.864	305.92
674.194	281.07
674.524	287.85
674.855	278.81
675.185	287.85
675.515	283.33
675.845	285.59
676.175	258.47
676.505	240.39
676.835	317.22
677.165	283.33
677.494	321.74
677.824	253.95
678.154	260.73
678.484	294.63
678.813	296.88
679.143	229.09
679.472	226.83
679.802	281.07
680.131	310.44
680.461	296.88
680.79	281.07
681.119	211.01
681.449	240.39
681.778	251.69
682.107	260.73
682.436	290.11
682.765	274.29
683.094	267.51
683.423	281.07
683.752	233.61
684.081	233.61
684.41	339.82
684.739	220.05
685.067	303.66
685.396	276.55
685.725	305.92
686.053	299.14
686.382	326.26
686.711	292.37
687.039	312.7
687.367	321.74
687.696	364.68
688.024	312.7
688.352	333.04
688.681	292.37
689.009	294.63
689.337	249.43
689.665	278.81
689.993	269.77
690.321	262.99
690.649	274.29
690.977	253.95
691.305	283.33
691.633	249.43
691.961	312.7
692.288	278.81
692.616	292.37
692.944	276.55
693.271	265.25
693.599	260.73
693.926	229.09
694.254	305.92
694.581	283.33
694.908	276.55
695.236	276.55
695.563	317.22
695.89	253.95
696.217	312.7
696.544	247.17
696.871	305.92
697.198	312.7
697.525	312.7
697.852	226.83
698.179	222.31
698.506	215.53
698.833	256.21
699.16	330.78
699.486	262.99
699.813	224.57
700.139	299.14
700.466	301.4
700.793	274.29
701.119	256.21
701.445	330.78
701.772	238.13
702.098	222.31
702.424	290.11
702.75	344.34
703.077	303.66
703.403	278.81
703.729	278.81
704.055	321.74
704.381	294.63
704.707	251.69
705.033	305.92
705.358	272.03
705.684	231.35
706.01	233.61
706.336	305.92
706.661	251.69
706.987	292.37
707.312	229.09
707.638	242.65
707.963	321.74
708.289	294.63
708.614	256.21
708.939	328.52
709.265	231.35
709.59	256.21
709.915	299.14
710.24	249.43
710.565	299.14
710.89	258.47
711.215	267.51
711.54	283.33
711.865	262.99
712.19	251.69
712.515	303.66
712.839	260.73
713.164	317.22
713.489	281.07
713.813	224.57
714.138	238.13
714.462	287.85
714.787	229.09
715.111	238.13
715.435	328.52
715.76	247.17
716.084	283.33
716.408	222.31
716.732	235.87
717.056	299.14
717.381	308.18
717.705	238.13
718.028	278.81
718.352	281.07
718.676	262.99
719	240.39
719.324	276.55
719.648	242.65
719.971	274.29
720.295	186.15
720.618	278.81
720.942	260.73
721.265	294.63
721.589	269.77
721.912	310.44
722.236	292.37
722.559	249.43
722.882	260.73
723.205	215.53
723.528	290.11
723.851	260.73
724.174	292.37
724.497	294.63
724.82	312.7
725.143	249.43
725.466	308.18
725.789	296.88
726.112	235.87
726.434	226.83
726.757	226.83
727.08	326.26
727.402	292.37
727.725	242.65
728.047	247.17
728.37	276.55
728.692	305.92
729.014	337.56
729.336	224.57
729.659	258.47
729.981	287.85
730.303	308.18
730.625	231.35
730.947	258.47
731.269	253.95
731.591	342.08
731.913	267.51
732.235	285.59
732.556	256.21
732.878	312.7
733.2	222.31
733.521	251.69
733.843	287.85
734.164	276.55
734.486	215.53
734.807	326.26
735.129	247.17
735.45	249.43
735.771	240.39
736.092	235.87
736.414	303.66
736.735	283.33
737.056	276.55
737.377	251.69
737.698	240.39
738.019	269.77
738.34	274.29
738.66	222.31
738.981	260.73
739.302	197.45
739.623	251.69
739.943	240.39
740.264	260.73
740.584	242.65
740.905	256.21
741.225	258.47
741.546	278.81
741.866	276.55
742.186	244.91
742.507	265.25
742.827	310.44
743.147	274.29
743.467	287.85
743.787	290.11
744.107	260.73
744.427	240.39
744.747	262.99
745.067	256.21
745.386	258.47
745.706	208.75
746.026	294.63
746.346	296.88
746.665	242.65
746.985	249.43
747.304	242.65
747.624	267.51
747.943	337.56
748.262	235.87
748.582	199.71
748.901	244.91
749.22	211.01
749.539	260.73
749.858	267.51
750.177	269.77
750.496	296.88
750.815	269.77
751.134	348.86
751.453	278.81
751.772	240.39
752.09	247.17
752.409	199.71
752.728	276.55
753.046	299.14
753.365	199.71
753.683	215.53
754.002	278.81
754.32	253.95
754.639	267.51
754.957	281.07
755.275	272.03
755.593	231.35
755.911	274.29
756.23	244.91
756.548	299.14
756.866	303.66
757.183	204.23
757.501	258.47
757.819	253.95
758.137	262.99
758.455	251.69
758.772	251.69
759.09	321.74
759.408	231.35
759.725	211.01
760.043	292.37
760.36	249.43
760.677	265.25
760.995	258.47
761.312	281.07
761.629	231.35
761.946	170.33
762.264	294.63
762.581	269.77
762.898	240.39
763.215	247.17
763.532	256.21
763.848	294.63
764.165	242.65
764.482	269.77
764.799	224.57
765.115	195.19
765.432	299.14
765.749	242.65
766.065	344.34
766.382	314.96
766.698	272.03
767.014	272.03
767.331	269.77
767.647	301.4
767.963	321.74
768.279	281.07
768.595	278.81
768.911	260.73
769.227	330.78
769.543	229.09
769.859	285.59
770.175	281.07
770.491	235.87
770.807	310.44
771.122	260.73
771.438	283.33
771.754	314.96
772.069	296.88
772.385	253.95
772.7	208.75
773.016	324
773.331	330.78
773.646	244.91
773.961	342.08
774.277	260.73
774.592	317.22
774.907	267.51
775.222	333.04
775.537	303.66
775.852	238.13
776.167	303.66
776.482	351.12
776.796	299.14
777.111	267.51
777.426	281.07
777.74	276.55
778.055	269.77
778.369	287.85
778.684	276.55
778.998	303.66
779.313	285.59
779.627	353.38
779.941	244.91
780.255	262.99
780.57	213.27
780.884	321.74
781.198	272.03
781.512	253.95
781.826	213.27
782.14	249.43
782.453	317.22
782.767	269.77
783.081	301.4
783.395	238.13
783.708	242.65
784.022	294.63
784.335	260.73
784.649	229.09
784.962	238.13
785.276	301.4
785.589	262.99
785.902	251.69
786.216	235.87
786.529	222.31
786.842	190.67
787.155	308.18
787.468	281.07
787.781	258.47
788.094	301.4
788.407	276.55
788.72	267.51
789.032	267.51
789.345	258.47
789.658	296.88
789.97	217.79
790.283	285.59
790.595	242.65
790.908	258.47
791.22	204.23
791.532	208.75
791.845	281.07
792.157	281.07
792.469	290.11
792.781	190.67
793.093	333.04
793.405	276.55
793.717	287.85
794.029	326.26
794.341	278.81
794.653	260.73
794.965	220.05
795.276	283.33
795.588	249.43
795.9	299.14
796.211	253.95
796.523	211.01
796.834	238.13
797.146	226.83
797.457	256.21
797.768	272.03
798.08	283.33
798.391	326.26
798.702	342.08
799.013	226.83
799.324	314.96
799.635	285.59
799.946	260.73
800.257	244.91
800.568	247.17
800.878	319.48
801.189	240.39
801.5	260.73
801.81	285.59
802.121	217.79
802.431	294.63
802.742	321.74
803.052	242.65
803.363	256.21
803.673	303.66
803.983	233.61
804.293	217.79
804.603	201.97
804.913	213.27
805.224	240.39
805.533	317.22
805.843	326.26
806.153	267.51
806.463	290.11
806.773	220.05
807.083	328.52
807.392	310.44
807.702	281.07
808.011	201.97
808.321	244.91
808.63	242.65
808.94	206.49
809.249	276.55
809.558	283.33
809.868	226.83
810.177	292.37
810.486	276.55
810.795	238.13
811.104	242.65
811.413	303.66
811.722	249.43
812.031	330.78
812.339	292.37
812.648	330.78
812.957	283.33
813.266	278.81
813.574	222.31
813.883	262.99
814.191	224.57
814.5	247.17
814.808	303.66
815.116	319.48
815.424	208.75
815.733	321.74
816.041	260.73
816.349	265.25
816.657	249.43
816.965	233.61
817.273	224.57
817.581	305.92
817.889	265.25
818.196	305.92
818.504	267.51
818.812	229.09
819.12	201.97
819.427	197.45
819.735	267.51
820.042	290.11
820.349	296.88
820.657	206.49
820.964	226.83
821.271	265.25
821.579	224.57
821.886	249.43
822.193	247.17
822.5	231.35
822.807	206.49
823.114	290.11
823.421	267.51
823.727	238.13
824.034	215.53
824.341	269.77
824.648	242.65
824.954	303.66
825.261	333.04
825.567	308.18
825.874	231.35
826.18	301.4
826.486	314.96
826.793	258.47
827.099	262.99
827.405	335.3
827.711	222.31
828.017	244.91
828.323	353.38
828.629	294.63
828.935	251.69
829.241	247.17
829.547	211.01
829.852	220.05
830.158	242.65
830.464	229.09
830.769	281.07
831.075	267.51
831.38	272.03
831.686	258.47
831.991	204.23
832.296	301.4
832.601	265.25
832.907	299.14
833.212	253.95
833.517	260.73
833.822	294.63
834.127	251.69
834.432	269.77
834.737	251.69
835.041	294.63
835.346	188.41
835.651	226.83
835.956	208.75
836.26	296.88
836.565	240.39
836.869	285.59
837.174	253.95
837.478	242.65
837.782	276.55
838.087	267.51
838.391	251.69
838.695	253.95
838.999	251.69
839.303	253.95
839.607	233.61
839.911	251.69
840.215	260.73
840.519	211.01
840.822	301.4
841.126	220.05
841.43	292.37
841.733	235.87
842.037	292.37
842.34	208.75
842.644	287.85
842.947	238.13
843.251	272.03
843.554	260.73
843.857	235.87
844.16	312.7
844.463	278.81
844.766	285.59
845.069	226.83
845.372	233.61
845.675	310.44
845.978	335.3
846.281	281.07
846.583	283.33
846.886	296.88
847.189	324
847.491	242.65
847.794	290.11
848.096	251.69
848.399	269.77
848.701	256.21
849.003	247.17
849.305	317.22
849.608	213.27
849.91	260.73
850.212	253.95
850.514	249.43
850.816	301.4
851.118	208.75
851.419	235.87
851.721	249.43
852.023	287.85
852.325	226.83
852.626	319.48
852.928	238.13
853.229	299.14
853.531	276.55
853.832	301.4
854.133	258.47
854.435	299.14
854.736	274.29
855.037	253.95
855.338	330.78
855.639	274.29
855.94	287.85
856.241	260.73
856.542	310.44
856.843	276.55
857.144	265.25
857.444	278.81
857.745	287.85
858.046	274.29
858.346	283.33
858.647	242.65
858.947	208.75
859.247	258.47
859.548	242.65
859.848	292.37
860.148	283.33
860.448	165.81
860.749	260.73
861.049	281.07
861.349	231.35
861.648	240.39
861.948	283.33
862.248	244.91
862.548	192.93
862.848	262.99
863.147	211.01
863.447	251.69
863.746	220.05
864.046	285.59
864.345	238.13
864.645	208.75
864.944	235.87
865.243	274.29
865.542	330.78
865.842	186.15
866.141	269.77
866.44	235.87
866.739	211.01
867.038	256.21
867.337	235.87
867.635	258.47
867.934	220.05
868.233	312.7
868.531	317.22
868.83	308.18
869.129	192.93
869.427	235.87
869.725	324
870.024	283.33
870.322	303.66
870.62	233.61
870.918	312.7
871.217	242.65
871.515	278.81
871.813	281.07
872.111	285.59
872.409	220.05
872.706	253.95
873.004	305.92
873.302	276.55
873.6	283.33
873.897	262.99
874.195	278.81
874.492	229.09
874.79	317.22
875.087	319.48
875.384	324
875.682	247.17
875.979	335.3
876.276	342.08
876.573	244.91
876.87	244.91
877.167	244.91
