Data from PL_2polymer_F8BT_MEHPPV_USB2H096331_0458.txt Node
Date: Tue Dec 15 16:23:52 CET 2020
User: spadmin
Spectrometer: USB2+H09633
Trigger mode: 0
Integration Time (sec): 1.000000E-2
Scans to average: 1
Electric dark correction enabled: true
Nonlinearity correction enabled: false
Boxcar width: 0
XAxis mode: Wavelengths
Number of Pixels in Spectrum: 2048
>>>>>Begin Spectral Data<<<<<
174.027	-70.34
174.405	-70.34
174.783	-70.34
175.162	-86.16
175.54	-95.2
175.918	-117.79
176.296	-120.05
176.674	-92.94
177.052	-72.6
177.43	-47.74
177.808	-36.44
178.186	-20.62
178.564	-77.12
178.942	-22.88
179.32	40.39
179.698	4.24
180.076	-40.96
180.453	96.89
180.831	33.61
181.209	67.51
181.587	189.54
181.965	99.15
182.342	72.03
182.72	171.46
183.098	241.52
183.475	255.08
183.853	223.44
184.231	264.12
184.608	291.24
184.986	273.16
185.363	275.42
185.741	334.17
186.118	309.31
186.496	347.73
186.873	288.98
187.251	316.09
187.628	304.79
188.006	291.24
188.383	361.29
188.76	340.95
189.138	322.87
189.515	331.91
189.892	309.31
190.27	309.31
190.647	237
191.024	329.65
191.401	304.79
191.778	325.13
192.155	356.77
192.533	279.94
192.91	313.83
193.287	218.92
193.664	392.93
194.041	282.2
194.418	322.87
194.795	340.95
195.172	252.82
195.549	309.31
195.926	279.94
196.302	286.72
196.679	273.16
197.056	302.53
197.433	320.61
197.81	347.73
198.187	302.53
198.563	275.42
198.94	349.99
199.317	334.17
199.693	327.39
200.07	327.39
200.447	286.72
200.823	320.61
201.2	295.75
201.576	221.18
201.953	334.17
202.329	338.69
202.706	329.65
203.082	329.65
203.459	316.09
203.835	298.01
204.212	345.47
204.588	322.87
204.964	417.79
205.341	286.72
205.717	268.64
206.093	334.17
206.469	338.69
206.846	331.91
207.222	325.13
207.598	291.24
207.974	309.31
208.35	383.89
208.726	361.29
209.102	365.81
209.479	293.5
209.855	356.77
210.231	343.21
210.607	316.09
210.982	273.16
211.358	309.31
211.734	298.01
212.11	311.57
212.486	302.53
212.862	277.68
213.238	379.37
213.614	320.61
213.989	320.61
214.365	268.64
214.741	320.61
215.116	282.2
215.492	388.41
215.868	386.15
216.243	406.49
216.619	246.04
216.995	359.03
217.37	325.13
217.746	377.11
218.121	327.39
218.497	334.17
218.872	311.57
219.247	349.99
219.623	352.25
219.998	345.47
220.374	318.35
220.749	381.63
221.124	356.77
221.499	363.55
221.875	313.83
222.25	361.29
222.625	386.15
223	354.51
223.376	349.99
223.751	347.73
224.126	361.29
224.501	331.91
224.876	359.03
225.251	354.51
225.626	343.21
226.001	349.99
226.376	340.95
226.751	318.35
227.126	377.11
227.501	386.15
227.875	318.35
228.25	363.55
228.625	309.31
229	365.81
229.375	309.31
229.749	349.99
230.124	383.89
230.499	392.93
230.873	298.01
231.248	311.57
231.623	329.65
231.997	327.39
232.372	383.89
232.746	368.07
233.121	307.05
233.495	352.25
233.87	365.81
234.244	329.65
234.619	316.09
234.993	340.95
235.367	370.33
235.742	361.29
236.116	365.81
236.49	338.69
236.865	284.46
237.239	352.25
237.613	381.63
237.987	316.09
238.361	320.61
238.736	383.89
239.11	397.45
239.484	411.01
239.858	293.5
240.232	352.25
240.606	282.2
240.98	381.63
241.354	365.81
241.728	336.43
242.102	365.81
242.475	388.41
242.849	365.81
243.223	433.6
243.597	356.77
243.971	386.15
244.344	408.75
244.718	359.03
245.092	345.47
245.466	359.03
245.839	316.09
246.213	370.33
246.586	440.38
246.96	295.75
247.334	356.77
247.707	417.79
248.081	395.19
248.454	340.95
248.828	329.65
249.201	370.33
249.574	404.23
249.948	340.95
250.321	338.69
250.694	392.93
251.068	334.17
251.441	397.45
251.814	399.71
252.187	352.25
252.561	447.16
252.934	340.95
253.307	370.33
253.68	399.71
254.053	411.01
254.426	383.89
254.799	415.53
255.172	458.46
255.545	397.45
255.918	359.03
256.291	426.82
256.664	377.11
257.037	368.07
257.41	372.59
257.782	411.01
258.155	433.6
258.528	395.19
258.901	372.59
259.273	422.31
259.646	354.51
260.019	374.85
260.391	415.53
260.764	408.75
261.137	377.11
261.509	424.57
261.882	345.47
262.254	395.19
262.627	374.85
262.999	372.59
263.372	374.85
263.744	343.21
264.116	370.33
264.489	320.61
264.861	397.45
265.233	417.79
265.606	325.13
265.978	381.63
266.35	347.73
266.722	374.85
267.094	415.53
267.467	381.63
267.839	381.63
268.211	370.33
268.583	435.86
268.955	411.01
269.327	309.31
269.699	377.11
270.071	361.29
270.443	408.75
270.815	435.86
271.186	415.53
271.558	345.47
271.93	370.33
272.302	390.67
272.674	411.01
273.045	349.99
273.417	377.11
273.789	424.57
274.16	449.42
274.532	408.75
274.904	388.41
275.275	392.93
275.647	411.01
276.018	377.11
276.39	399.71
276.761	474.28
277.133	420.05
277.504	417.79
277.875	422.31
278.247	388.41
278.618	383.89
278.989	372.59
279.361	392.93
279.732	420.05
280.103	368.07
280.474	383.89
280.846	422.31
281.217	401.97
281.588	413.27
281.959	399.71
282.33	440.38
282.701	433.6
283.072	404.23
283.443	447.16
283.814	404.23
284.185	365.81
284.556	524
284.927	460.72
285.297	383.89
285.668	440.38
286.039	465.24
286.41	429.08
286.781	372.59
287.151	440.38
287.522	431.34
287.893	422.31
288.263	458.46
288.634	404.23
289.004	462.98
289.375	478.8
289.745	462.98
290.116	386.15
290.486	417.79
290.857	440.38
291.227	411.01
291.598	406.49
291.968	474.28
292.338	472.02
292.709	424.57
293.079	460.72
293.449	460.72
293.819	440.38
294.189	383.89
294.56	451.68
294.93	453.94
295.3	406.49
295.67	435.86
296.04	456.2
296.41	462.98
296.78	501.4
297.15	462.98
297.52	426.82
297.89	453.94
298.259	433.6
298.629	444.9
298.999	451.68
299.369	458.46
299.739	451.68
300.108	481.06
300.478	435.86
300.848	485.58
301.217	472.02
301.587	426.82
301.957	476.54
302.326	420.05
302.696	438.12
303.065	401.97
303.435	481.06
303.804	517.22
304.174	510.44
304.543	501.4
304.912	438.12
305.282	544.34
305.651	460.72
306.02	492.36
306.39	496.88
306.759	438.12
307.128	485.58
307.497	397.45
307.866	426.82
308.235	492.36
308.604	478.8
308.974	472.02
309.343	438.12
309.712	535.3
310.08	548.86
310.449	492.36
310.818	392.93
311.187	453.94
311.556	469.76
311.925	433.6
312.294	499.14
312.662	478.8
313.031	456.2
313.4	505.92
313.769	453.94
314.137	505.92
314.506	530.78
314.874	494.62
315.243	501.4
315.612	501.4
315.98	422.31
316.349	395.19
316.717	521.74
317.085	492.36
317.454	456.2
317.822	494.62
318.191	514.96
318.559	499.14
318.927	492.36
319.295	451.68
319.664	555.64
320.032	442.64
320.4	494.62
320.768	494.62
321.136	481.06
321.504	530.78
321.872	505.92
322.24	435.86
322.608	573.71
322.976	494.62
323.344	458.46
323.712	508.18
324.08	524
324.448	553.38
324.816	494.62
325.183	587.27
325.551	469.76
325.919	487.84
326.287	564.67
326.654	524
327.022	505.92
327.389	551.12
327.757	564.67
328.125	569.19
328.492	526.26
328.86	494.62
329.227	542.08
329.594	564.67
329.962	578.23
330.329	560.15
330.697	544.34
331.064	571.45
331.431	501.4
331.798	551.12
332.166	494.62
332.533	646.03
332.9	449.42
333.267	544.34
333.634	564.67
334.001	569.19
334.368	566.93
334.735	569.19
335.102	569.19
335.469	569.19
335.836	499.14
336.203	596.31
336.57	578.23
336.937	519.48
337.304	589.53
337.67	514.96
338.037	612.13
338.404	573.71
338.771	600.83
339.137	580.49
339.504	598.57
339.87	666.37
340.237	587.27
340.604	627.95
340.97	707.04
341.337	530.78
341.703	591.79
342.069	537.56
342.436	578.23
342.802	609.87
343.169	582.75
343.535	612.13
343.901	591.79
344.267	580.49
344.634	639.25
345	621.17
345.366	679.93
345.732	598.57
346.098	673.15
346.464	618.91
346.83	636.99
347.196	643.77
347.562	618.91
347.928	627.95
348.294	679.93
348.66	648.29
349.026	614.39
349.392	600.83
349.757	704.78
350.123	652.81
350.489	580.49
350.855	711.56
351.22	688.96
351.586	720.6
351.951	675.41
352.317	720.6
352.683	695.74
353.048	716.08
353.414	688.96
353.779	745.46
354.144	743.2
354.51	754.5
354.875	675.41
355.24	670.89
355.606	639.25
355.971	718.34
356.336	702.52
356.701	756.76
357.067	847.15
357.432	811
357.797	754.5
358.162	747.72
358.527	815.52
358.892	801.96
359.257	729.64
359.622	799.7
359.987	806.48
360.352	815.52
360.717	761.28
361.082	731.9
361.446	867.49
361.811	892.35
362.176	844.89
362.541	887.83
362.905	964.66
363.27	917.21
363.635	890.09
363.999	919.47
364.364	1005.34
364.728	937.55
365.093	978.22
365.457	905.91
365.822	926.25
366.186	946.59
366.55	1005.34
366.915	899.13
367.279	948.85
367.643	973.7
368.008	892.35
368.372	1005.34
368.736	1012.12
369.1	1059.58
369.464	1093.47
369.828	1093.47
370.192	1048.28
370.556	1068.62
370.92	1149.97
371.284	1199.69
371.648	1247.14
372.012	1249.4
372.376	1301.38
372.74	1292.34
373.104	1373.69
373.468	1391.77
373.831	1407.59
374.195	1423.41
374.559	1495.72
374.922	1516.06
375.286	1556.74
375.65	1606.45
376.013	1644.87
376.377	1721.71
376.74	1821.14
377.104	1746.56
377.467	1974.81
377.83	1940.91
378.194	2130.73
378.557	2282.14
378.92	2358.98
379.284	2471.97
379.647	2695.69
380.01	2779.31
380.373	3059.52
380.736	3219.97
381.1	3520.53
381.463	3687.76
381.826	3945.38
382.189	4200.74
382.552	4544.23
382.915	4844.79
383.278	5287.71
383.64	5741.94
384.003	6155.49
384.366	6711.41
384.729	7454.89
385.092	7952.05
385.454	8526.05
385.817	9276.31
386.18	10652.54
386.542	11463.82
386.905	12713.51
387.268	13696.53
387.63	15188.02
387.993	16600.41
388.355	17533.72
388.718	19703.15
389.08	21483.9
389.442	23316.62
389.805	25553.85
390.167	27043.07
390.529	30299.49
390.892	33883.57
391.254	35614.6
391.616	38443.9
391.978	42726.28
392.34	46741.99
392.702	48463.98
393.064	51709.09
393.426	53774.57
393.788	55982.43
394.15	57293.13
394.512	58870.49
394.874	61015.06
395.236	62709.93
395.598	64440.96
395.96	65075.97
396.321	65075.97
396.683	65075.97
397.045	65075.97
397.406	65075.97
397.768	65075.97
398.13	65075.97
398.491	65075.97
398.853	65075.97
399.214	65075.97
399.576	65075.97
399.937	65075.97
400.299	65075.97
400.66	65075.97
401.021	65075.97
401.383	65075.97
401.744	65075.97
402.105	65075.97
402.466	65075.97
402.827	65075.97
403.189	65075.97
403.55	65075.97
403.911	65075.97
404.272	65075.97
404.633	65075.97
404.994	65075.97
405.355	65075.97
405.716	65075.97
406.077	65075.97
406.437	65075.97
406.798	65075.97
407.159	65075.97
407.52	65075.97
407.88	65075.97
408.241	65075.97
408.602	65075.97
408.962	65075.97
409.323	65075.97
409.684	65075.97
410.044	65075.97
410.405	65075.97
410.765	65075.97
411.125	65075.97
411.486	65075.97
411.846	65075.97
412.206	65075.97
412.567	65075.97
412.927	65075.97
413.287	65075.97
413.647	65075.97
414.007	65075.97
414.368	65075.97
414.728	65075.97
415.088	65075.97
415.448	65075.97
415.808	65075.97
416.168	65075.97
416.528	65075.97
416.887	65075.97
417.247	65075.97
417.607	65075.97
417.967	65075.97
418.327	65075.97
418.686	65075.97
419.046	65075.97
419.406	65075.97
419.765	65075.97
420.125	65075.97
420.484	65075.97
420.844	65075.97
421.203	65075.97
421.563	64621.75
421.922	64230.8
422.282	62511.07
422.641	60895.29
423	59790.24
423.36	58872.75
423.719	56653.6
424.078	54678.51
424.437	53290.97
424.796	51614.18
425.155	49908.01
425.515	47621.06
425.874	46136.36
426.233	41835.91
426.592	39268.74
426.95	38889.09
427.309	36249.61
427.668	35707.25
428.027	32733.32
428.386	32170.62
428.745	28710.83
429.103	27409.17
429.462	26136.88
429.821	24437.49
430.179	23736.95
430.538	22525.68
430.897	22159.59
431.255	20708.78
431.614	19409.38
431.972	18824.08
432.33	17813.94
432.689	17454.63
433.047	16369.91
433.405	15538.29
433.764	14939.44
434.122	14528.15
434.48	13597.1
434.838	12885.25
435.197	12485.26
435.555	12234.42
435.913	11461.56
436.271	10837.85
436.629	10494.36
436.987	10137.3
437.345	9637.88
437.703	9389.3
438.061	8742.99
438.418	8329.44
438.776	7949.79
439.134	7665.05
439.492	7359.98
439.849	6928.35
440.207	6672.99
440.565	6286.56
440.922	6123.85
441.28	5676.4
441.637	5719.34
441.995	5267.38
442.352	5267.38
442.71	4960.04
443.067	4824.45
443.425	4532.93
443.782	4297.91
444.139	4415.42
444.496	3995.09
444.854	4010.91
445.211	3832.39
445.568	3572.5
445.925	3459.51
446.282	3509.23
446.639	3262.91
446.996	3292.29
447.353	3393.98
447.71	3179.29
448.067	3138.62
448.424	2890.04
448.781	2849.36
449.137	2740.89
449.494	2675.35
449.851	2526.2
450.208	2368.02
450.564	2397.39
450.921	2282.14
451.278	2085.54
451.634	2284.4
451.991	2173.67
452.347	2085.54
452.704	2112.66
453.06	1954.47
453.416	1834.7
453.773	1771.42
454.129	1746.56
454.485	1662.95
454.841	1674.25
455.198	1577.08
455.554	1597.42
455.91	1586.12
456.266	1516.06
456.622	1439.23
456.978	1357.87
457.334	1292.34
457.69	1272
458.046	1353.35
458.402	1278.78
458.758	1233.58
459.114	1204.21
459.469	1172.57
459.825	1156.75
460.181	1192.91
460.536	1136.41
460.892	1154.49
461.248	1000.82
461.603	1003.08
461.959	980.48
462.314	1030.2
462.67	955.62
463.025	849.41
463.38	847.15
463.736	989.52
464.091	935.29
464.446	883.31
464.802	869.75
465.157	833.59
465.512	869.75
465.867	824.55
466.222	930.77
466.577	820.03
466.932	790.66
467.287	842.63
467.642	772.58
467.997	806.48
468.352	788.4
468.707	788.4
469.062	797.44
469.417	709.3
469.771	736.42
470.126	779.36
470.481	711.56
470.835	713.82
471.19	725.12
471.544	634.73
471.899	668.63
472.253	700.26
472.608	632.47
472.962	704.78
473.317	707.04
473.671	616.65
474.025	729.64
474.38	643.77
474.734	648.29
475.088	670.89
475.442	596.31
475.796	636.99
476.15	670.89
476.504	569.19
476.858	670.89
477.212	639.25
477.566	591.79
477.92	632.47
478.274	605.35
478.628	560.15
478.982	616.65
479.336	564.67
479.689	636.99
480.043	612.13
480.397	639.25
480.75	580.49
481.104	546.6
481.457	557.89
481.811	589.53
482.164	594.05
482.518	639.25
482.871	612.13
483.225	487.84
483.578	546.6
483.931	555.64
484.284	562.41
484.638	575.97
484.991	544.34
485.344	555.64
485.697	542.08
486.05	557.89
486.403	589.53
486.756	476.54
487.109	578.23
487.462	557.89
487.815	562.41
488.168	533.04
488.52	553.38
488.873	499.14
489.226	508.18
489.579	472.02
489.931	496.88
490.284	490.1
490.637	438.12
490.989	553.38
491.342	467.5
491.694	546.6
492.047	508.18
492.399	575.97
492.751	528.52
493.104	546.6
493.456	560.15
493.808	499.14
494.16	501.4
494.513	447.16
494.865	456.2
495.217	485.58
495.569	449.42
495.921	505.92
496.273	560.15
496.625	413.27
496.977	589.53
497.329	503.66
497.68	444.9
498.032	379.37
498.384	478.8
498.736	435.86
499.087	528.52
499.439	503.66
499.791	519.48
500.142	560.15
500.494	503.66
500.845	483.32
501.197	535.3
501.548	444.9
501.9	492.36
502.251	521.74
502.602	512.7
502.954	508.18
503.305	478.8
503.656	551.12
504.007	503.66
504.358	499.14
504.709	519.48
505.061	508.18
505.412	476.54
505.763	487.84
506.113	492.36
506.464	517.22
506.815	456.2
507.166	485.58
507.517	533.04
507.868	487.84
508.218	413.27
508.569	458.46
508.92	494.62
509.27	456.2
509.621	469.76
509.971	519.48
510.322	535.3
510.672	551.12
511.023	519.48
511.373	453.94
511.723	494.62
512.074	533.04
512.424	474.28
512.774	539.82
513.124	517.22
513.475	472.02
513.825	494.62
514.175	526.26
514.525	462.98
514.875	505.92
515.225	524
515.575	415.53
515.924	483.32
516.274	490.1
516.624	508.18
516.974	426.82
517.324	494.62
517.673	499.14
518.023	548.86
518.373	492.36
518.722	433.6
519.072	533.04
519.421	449.42
519.771	442.64
520.12	524
520.469	555.64
520.819	528.52
521.168	555.64
521.517	514.96
521.867	508.18
522.216	555.64
522.565	481.06
522.914	562.41
523.263	521.74
523.612	472.02
523.961	490.1
524.31	528.52
524.659	562.41
525.008	492.36
525.357	614.39
525.705	512.7
526.054	478.8
526.403	496.88
526.752	474.28
527.1	465.24
527.449	469.76
527.797	562.41
528.146	487.84
528.495	555.64
528.843	589.53
529.191	517.22
529.54	542.08
529.888	539.82
530.236	496.88
530.585	494.62
530.933	487.84
531.281	469.76
531.629	451.68
531.977	548.86
532.325	503.66
532.673	444.9
533.021	492.36
533.369	492.36
533.717	555.64
534.065	530.78
534.413	514.96
534.761	499.14
535.108	512.7
535.456	492.36
535.804	490.1
536.151	485.58
536.499	517.22
536.847	537.56
537.194	447.16
537.542	429.08
537.889	508.18
538.236	440.38
538.584	478.8
538.931	429.08
539.278	359.03
539.626	485.58
539.973	431.34
540.32	462.98
540.667	512.7
541.014	485.58
541.361	472.02
541.708	397.45
542.055	519.48
542.402	467.5
542.749	433.6
543.096	426.82
543.443	460.72
543.789	458.46
544.136	542.08
544.483	494.62
544.83	406.49
545.176	390.67
545.523	435.86
545.869	462.98
546.216	413.27
546.562	442.64
546.909	426.82
547.255	438.12
547.601	458.46
547.948	481.06
548.294	510.44
548.64	433.6
548.986	438.12
549.332	429.08
549.678	422.31
550.025	438.12
550.371	442.64
550.717	438.12
551.062	485.58
551.408	465.24
551.754	467.5
552.1	404.23
552.446	438.12
552.792	431.34
553.137	467.5
553.483	401.97
553.828	401.97
554.174	456.2
554.52	426.82
554.865	352.25
555.211	424.57
555.556	433.6
555.901	469.76
556.247	476.54
556.592	494.62
556.937	406.49
557.282	411.01
557.628	415.53
557.973	424.57
558.318	451.68
558.663	415.53
559.008	397.45
559.353	440.38
559.698	388.41
560.043	381.63
560.388	422.31
560.732	413.27
561.077	401.97
561.422	435.86
561.766	492.36
562.111	411.01
562.456	408.75
562.8	322.87
563.145	361.29
563.489	406.49
563.834	431.34
564.178	404.23
564.523	408.75
564.867	395.19
565.211	433.6
565.555	456.2
565.9	422.31
566.244	458.46
566.588	433.6
566.932	465.24
567.276	422.31
567.62	413.27
567.964	451.68
568.308	406.49
568.652	417.79
568.996	460.72
569.339	447.16
569.683	390.67
570.027	449.42
570.371	429.08
570.714	406.49
571.058	440.38
571.401	377.11
571.745	440.38
572.088	435.86
572.432	460.72
572.775	383.89
573.118	435.86
573.462	395.19
573.805	381.63
574.148	447.16
574.491	453.94
574.835	413.27
575.178	453.94
575.521	397.45
575.864	372.59
576.207	334.17
576.55	383.89
576.892	408.75
577.235	415.53
577.578	411.01
577.921	431.34
578.264	370.33
578.606	397.45
578.949	347.73
579.292	404.23
579.634	370.33
579.977	415.53
580.319	478.8
580.662	435.86
581.004	472.02
581.346	404.23
581.689	406.49
582.031	383.89
582.373	401.97
582.715	361.29
583.057	401.97
583.4	302.53
583.742	404.23
584.084	388.41
584.426	372.59
584.768	365.81
585.109	318.35
585.451	334.17
585.793	379.37
586.135	420.05
586.477	397.45
586.818	368.07
587.16	379.37
587.502	322.87
587.843	345.47
588.185	440.38
588.526	363.55
588.868	374.85
589.209	361.29
589.55	363.55
589.892	395.19
590.233	343.21
590.574	359.03
590.915	395.19
591.257	365.81
591.598	383.89
591.939	422.31
592.28	397.45
592.621	354.51
592.962	370.33
593.303	381.63
593.643	365.81
593.984	361.29
594.325	340.95
594.666	386.15
595.006	383.89
595.347	320.61
595.688	354.51
596.028	365.81
596.369	349.99
596.709	311.57
597.05	383.89
597.39	327.39
597.73	388.41
598.071	368.07
598.411	334.17
598.751	383.89
599.091	377.11
599.431	325.13
599.772	331.91
600.112	343.21
600.452	359.03
600.792	320.61
601.132	340.95
601.471	354.51
601.811	381.63
602.151	390.67
602.491	316.09
602.831	395.19
603.17	340.95
603.51	372.59
603.849	386.15
604.189	372.59
604.528	304.79
604.868	359.03
605.207	406.49
605.547	386.15
605.886	298.01
606.225	275.42
606.565	349.99
606.904	356.77
607.243	336.43
607.582	368.07
607.921	390.67
608.26	345.47
608.599	361.29
608.938	336.43
609.277	368.07
609.616	327.39
609.955	309.31
610.293	359.03
610.632	320.61
610.971	365.81
611.309	368.07
611.648	318.35
611.987	343.21
612.325	284.46
612.664	320.61
613.002	372.59
613.34	365.81
613.679	313.83
614.017	372.59
614.355	325.13
614.694	331.91
615.032	270.9
615.37	322.87
615.708	313.83
616.046	286.72
616.384	327.39
616.722	309.31
617.06	347.73
617.398	340.95
617.736	340.95
618.073	293.5
618.411	304.79
618.749	397.45
619.086	345.47
619.424	338.69
619.762	372.59
620.099	311.57
620.437	349.99
620.774	286.72
621.112	329.65
621.449	363.55
621.786	313.83
622.123	295.75
622.461	257.34
622.798	331.91
623.135	338.69
623.472	300.27
623.809	293.5
624.146	284.46
624.483	309.31
624.82	363.55
625.157	338.69
625.494	359.03
625.83	318.35
626.167	286.72
626.504	275.42
626.841	313.83
627.177	295.75
627.514	282.2
627.85	395.19
628.187	336.43
628.523	293.5
628.86	334.17
629.196	309.31
629.532	388.41
629.869	325.13
630.205	322.87
630.541	252.82
630.877	340.95
631.213	329.65
631.549	349.99
631.885	300.27
632.221	331.91
632.557	343.21
632.893	329.65
633.229	334.17
633.564	359.03
633.9	286.72
634.236	336.43
634.572	268.64
634.907	316.09
635.243	379.37
635.578	293.5
635.914	268.64
636.249	277.68
636.585	264.12
636.92	302.53
637.255	377.11
637.59	329.65
637.926	340.95
638.261	302.53
638.596	338.69
638.931	372.59
639.266	293.5
639.601	237
639.936	277.68
640.271	309.31
640.606	300.27
640.94	331.91
641.275	277.68
641.61	349.99
641.945	273.16
642.279	273.16
642.614	338.69
642.948	361.29
643.283	304.79
643.617	307.05
643.952	304.79
644.286	322.87
644.62	336.43
644.955	293.5
645.289	255.08
645.623	325.13
645.957	345.47
646.291	252.82
646.625	295.75
646.959	304.79
647.293	252.82
647.627	320.61
647.961	318.35
648.295	340.95
648.629	349.99
648.962	286.72
649.296	343.21
649.63	302.53
649.963	302.53
650.297	230.22
650.63	282.2
650.964	293.5
651.297	295.75
651.631	196.32
651.964	279.94
652.297	340.95
652.631	300.27
652.964	268.64
653.297	334.17
653.63	329.65
653.963	322.87
654.296	259.6
654.629	322.87
654.962	277.68
655.295	209.88
655.628	322.87
655.961	270.9
656.293	304.79
656.626	279.94
656.959	282.2
657.291	377.11
657.624	243.78
657.956	327.39
658.289	347.73
658.621	277.68
658.954	345.47
659.286	309.31
659.618	300.27
659.95	286.72
660.283	300.27
660.615	284.46
660.947	286.72
661.279	331.91
661.611	368.07
661.943	307.05
662.275	365.81
662.607	304.79
662.939	279.94
663.27	282.2
663.602	293.5
663.934	264.12
664.266	246.04
664.597	338.69
664.929	325.13
665.26	248.3
665.592	291.24
665.923	286.72
666.255	313.83
666.586	307.05
666.917	264.12
667.248	266.38
667.58	345.47
667.911	268.64
668.242	295.75
668.573	288.98
668.904	311.57
669.235	275.42
669.566	320.61
669.897	311.57
670.228	318.35
670.558	264.12
670.889	277.68
671.22	377.11
671.551	286.72
671.881	298.01
672.212	264.12
672.542	302.53
672.873	331.91
673.203	322.87
673.533	322.87
673.864	282.2
674.194	275.42
674.524	311.57
674.855	275.42
675.185	268.64
675.515	302.53
675.845	268.64
676.175	345.47
676.505	277.68
676.835	318.35
677.165	257.34
677.494	264.12
677.824	277.68
678.154	304.79
678.484	318.35
678.813	293.5
679.143	259.6
679.472	261.86
679.802	349.99
680.131	318.35
680.461	284.46
680.79	277.68
681.119	316.09
681.449	268.64
681.778	331.91
682.107	266.38
682.436	282.2
682.765	304.79
683.094	295.75
683.423	300.27
683.752	246.04
684.081	311.57
684.41	313.83
684.739	318.35
685.067	284.46
685.396	309.31
685.725	288.98
686.053	230.22
686.382	264.12
686.711	307.05
687.039	390.67
687.367	257.34
687.696	239.26
688.024	275.42
688.352	309.31
688.681	277.68
689.009	288.98
689.337	270.9
689.665	218.92
689.993	286.72
690.321	275.42
690.649	327.39
690.977	250.56
691.305	273.16
691.633	270.9
691.961	318.35
692.288	327.39
692.616	270.9
692.944	225.7
693.271	311.57
693.599	295.75
693.926	307.05
694.254	309.31
694.581	212.14
694.908	227.96
695.236	288.98
695.563	284.46
695.89	270.9
696.217	300.27
696.544	325.13
696.871	286.72
697.198	264.12
697.525	252.82
697.852	261.86
698.179	288.98
698.506	304.79
698.833	248.3
699.16	273.16
699.486	284.46
699.813	227.96
700.139	255.08
700.466	295.75
700.793	279.94
701.119	227.96
701.445	259.6
701.772	293.5
702.098	275.42
702.424	266.38
702.75	257.34
703.077	239.26
703.403	264.12
703.729	252.82
704.055	279.94
704.381	311.57
704.707	268.64
705.033	259.6
705.358	329.65
705.684	282.2
706.01	270.9
706.336	300.27
706.661	288.98
706.987	277.68
707.312	291.24
707.638	288.98
707.963	291.24
708.289	347.73
708.614	264.12
708.939	331.91
709.265	268.64
709.59	279.94
709.915	284.46
710.24	286.72
710.565	284.46
710.89	214.4
711.215	175.98
711.54	279.94
711.865	295.75
712.19	257.34
712.515	221.18
712.839	216.66
713.164	304.79
713.489	264.12
713.813	302.53
714.138	277.68
714.462	270.9
714.787	307.05
715.111	200.84
715.435	352.25
715.76	349.99
716.084	327.39
716.408	273.16
716.732	270.9
717.056	232.48
717.381	275.42
717.705	325.13
718.028	304.79
718.352	293.5
718.676	261.86
719	207.62
719.324	234.74
719.648	221.18
719.971	248.3
720.295	250.56
720.618	334.17
720.942	255.08
721.265	316.09
721.589	313.83
721.912	275.42
722.236	250.56
722.559	264.12
722.882	300.27
723.205	252.82
723.528	248.3
723.851	311.57
724.174	293.5
724.497	198.58
724.82	246.04
725.143	232.48
725.466	318.35
725.789	286.72
726.112	313.83
726.434	304.79
726.757	286.72
727.08	259.6
727.402	325.13
727.725	304.79
728.047	277.68
728.37	298.01
728.692	273.16
729.014	304.79
729.336	316.09
729.659	230.22
729.981	273.16
730.303	275.42
730.625	270.9
730.947	227.96
731.269	261.86
731.591	268.64
731.913	291.24
732.235	241.52
732.556	311.57
732.878	277.68
733.2	336.43
733.521	241.52
733.843	334.17
734.164	288.98
734.486	250.56
734.807	284.46
735.129	248.3
735.45	311.57
735.771	340.95
736.092	343.21
736.414	243.78
736.735	234.74
737.056	347.73
737.377	273.16
737.698	300.27
738.019	284.46
738.34	252.82
738.66	261.86
738.981	307.05
739.302	259.6
739.623	300.27
739.943	261.86
740.264	241.52
740.584	255.08
740.905	273.16
741.225	259.6
741.546	266.38
741.866	275.42
742.186	286.72
742.507	266.38
742.827	243.78
743.147	325.13
743.467	243.78
743.787	279.94
744.107	252.82
744.427	218.92
744.747	279.94
745.067	286.72
745.386	270.9
745.706	284.46
746.026	295.75
746.346	302.53
746.665	293.5
746.985	320.61
747.304	225.7
747.624	300.27
747.943	307.05
748.262	275.42
748.582	300.27
748.901	232.48
749.22	284.46
749.539	264.12
749.858	282.2
750.177	250.56
750.496	311.57
750.815	311.57
751.134	218.92
751.453	293.5
751.772	279.94
752.09	259.6
752.409	302.53
752.728	261.86
753.046	279.94
753.365	295.75
753.683	246.04
754.002	273.16
754.32	279.94
754.639	259.6
754.957	288.98
755.275	250.56
755.593	182.76
755.911	225.7
756.23	259.6
756.548	311.57
756.866	343.21
757.183	264.12
757.501	198.58
757.819	232.48
758.137	307.05
758.455	227.96
758.772	273.16
759.09	307.05
759.408	298.01
759.725	250.56
760.043	268.64
760.36	286.72
760.677	248.3
760.995	221.18
761.312	252.82
761.629	243.78
761.946	293.5
762.264	298.01
762.581	318.35
762.898	295.75
763.215	273.16
763.532	264.12
763.848	320.61
764.165	313.83
764.482	293.5
764.799	261.86
765.115	282.2
765.432	318.35
765.749	277.68
766.065	246.04
766.382	291.24
766.698	227.96
767.014	250.56
767.331	275.42
767.647	279.94
767.963	259.6
768.279	349.99
768.595	320.61
768.911	282.2
769.227	291.24
769.543	320.61
769.859	359.03
770.175	295.75
770.491	372.59
770.807	275.42
771.122	255.08
771.438	365.81
771.754	313.83
772.069	291.24
772.385	316.09
772.7	307.05
773.016	225.7
773.331	259.6
773.646	286.72
773.961	203.1
774.277	234.74
774.592	311.57
774.907	318.35
775.222	311.57
775.537	221.18
775.852	237
776.167	270.9
776.482	243.78
776.796	316.09
777.111	266.38
777.426	196.32
777.74	284.46
778.055	298.01
778.369	298.01
778.684	279.94
778.998	288.98
779.313	277.68
779.627	327.39
779.941	275.42
780.255	284.46
780.57	218.92
780.884	277.68
781.198	288.98
781.512	264.12
781.826	270.9
782.14	268.64
782.453	230.22
782.767	264.12
783.081	304.79
783.395	268.64
783.708	246.04
784.022	291.24
784.335	273.16
784.649	275.42
784.962	268.64
785.276	273.16
785.589	313.83
785.902	237
786.216	275.42
786.529	239.26
786.842	209.88
787.155	241.52
787.468	293.5
787.781	268.64
788.094	257.34
788.407	264.12
788.72	288.98
789.032	246.04
789.345	230.22
789.658	300.27
789.97	257.34
790.283	284.46
790.595	230.22
790.908	349.99
791.22	255.08
791.532	293.5
791.845	221.18
792.157	318.35
792.469	266.38
792.781	273.16
793.093	307.05
793.405	331.91
793.717	311.57
794.029	237
794.341	300.27
794.653	313.83
794.965	284.46
795.276	352.25
795.588	345.47
795.9	270.9
796.211	284.46
796.523	243.78
796.834	275.42
797.146	300.27
797.457	234.74
797.768	334.17
798.08	257.34
798.391	322.87
798.702	316.09
799.013	270.9
799.324	239.26
799.635	313.83
799.946	205.36
800.257	246.04
800.568	241.52
800.878	259.6
801.189	268.64
801.5	282.2
801.81	264.12
802.121	284.46
802.431	223.44
802.742	196.32
803.052	304.79
803.363	239.26
803.673	313.83
803.983	304.79
804.293	252.82
804.603	282.2
804.913	252.82
805.224	270.9
805.533	250.56
805.843	279.94
806.153	334.17
806.463	329.65
806.773	243.78
807.083	225.7
807.392	300.27
807.702	286.72
808.011	304.79
808.321	264.12
808.63	291.24
808.94	291.24
809.249	227.96
809.558	288.98
809.868	232.48
810.177	277.68
810.486	322.87
810.795	203.1
811.104	225.7
811.413	282.2
811.722	277.68
812.031	291.24
812.339	198.58
812.648	216.66
812.957	270.9
813.266	243.78
813.574	313.83
813.883	259.6
814.191	250.56
814.5	304.79
814.808	322.87
815.116	237
815.424	279.94
815.733	273.16
816.041	295.75
816.349	178.24
816.657	227.96
816.965	264.12
817.273	293.5
817.581	241.52
817.889	304.79
818.196	243.78
818.504	261.86
818.812	248.3
819.12	284.46
819.427	250.56
819.735	257.34
820.042	295.75
820.349	331.91
820.657	243.78
820.964	307.05
821.271	282.2
821.579	291.24
821.886	313.83
822.193	279.94
822.5	268.64
822.807	270.9
823.114	232.48
823.421	255.08
823.727	209.88
824.034	232.48
824.341	250.56
824.648	370.33
824.954	252.82
825.261	237
825.567	295.75
825.874	232.48
826.18	277.68
826.486	230.22
826.793	311.57
827.099	300.27
827.405	286.72
827.711	300.27
828.017	268.64
828.323	320.61
828.629	295.75
828.935	279.94
829.241	331.91
829.547	318.35
829.852	264.12
830.158	257.34
830.464	257.34
830.769	286.72
831.075	325.13
831.38	304.79
831.686	286.72
831.991	295.75
832.296	354.51
832.601	277.68
832.907	288.98
833.212	259.6
833.517	237
833.822	259.6
834.127	255.08
834.432	223.44
834.737	282.2
835.041	268.64
835.346	298.01
835.651	298.01
835.956	259.6
836.26	273.16
836.565	340.95
836.869	261.86
837.174	273.16
837.478	257.34
837.782	291.24
838.087	268.64
838.391	282.2
838.695	291.24
838.999	246.04
839.303	331.91
839.607	291.24
839.911	311.57
840.215	288.98
840.519	275.42
840.822	284.46
841.126	237
841.43	304.79
841.733	259.6
842.037	307.05
842.34	325.13
842.644	302.53
842.947	248.3
843.251	325.13
843.554	225.7
843.857	309.31
844.16	214.4
844.463	241.52
844.766	313.83
845.069	241.52
845.372	295.75
845.675	316.09
845.978	191.8
846.281	257.34
846.583	273.16
846.886	259.6
847.189	259.6
847.491	185.02
847.794	261.86
848.096	218.92
848.399	237
848.701	300.27
849.003	304.79
849.305	302.53
849.608	295.75
849.91	234.74
850.212	286.72
850.514	241.52
850.816	300.27
851.118	275.42
851.419	300.27
851.721	325.13
852.023	275.42
852.325	282.2
852.626	237
852.928	286.72
853.229	257.34
853.531	298.01
853.832	255.08
854.133	264.12
854.435	275.42
854.736	336.43
855.037	286.72
855.338	300.27
855.639	307.05
855.94	246.04
856.241	266.38
856.542	298.01
856.843	293.5
857.144	237
857.444	320.61
857.745	268.64
858.046	255.08
858.346	270.9
858.647	277.68
858.947	234.74
859.247	205.36
859.548	284.46
859.848	239.26
860.148	288.98
860.448	266.38
860.749	322.87
861.049	288.98
861.349	300.27
861.648	209.88
861.948	266.38
862.248	316.09
862.548	327.39
862.848	259.6
863.147	293.5
863.447	352.25
863.746	250.56
864.046	284.46
864.345	322.87
864.645	282.2
864.944	257.34
865.243	322.87
865.542	248.3
865.842	243.78
866.141	313.83
866.44	316.09
866.739	261.86
867.038	252.82
867.337	304.79
867.635	284.46
867.934	270.9
868.233	246.04
868.531	250.56
868.83	284.46
869.129	268.64
869.427	259.6
869.725	309.31
870.024	277.68
870.322	234.74
870.62	275.42
870.918	243.78
871.217	336.43
871.515	304.79
871.813	381.63
872.111	298.01
872.409	225.7
872.706	221.18
873.004	302.53
873.302	250.56
873.6	320.61
873.897	286.72
874.195	225.7
874.492	268.64
874.79	266.38
875.087	300.27
875.384	277.68
875.682	311.57
875.979	334.17
876.276	311.57
876.573	196.32
876.87	196.32
877.167	196.32
