Data from PL_2polymer_F8BT_MEHPPV_USB2H096331_0437.txt Node
Date: Tue Dec 15 16:23:52 CET 2020
User: spadmin
Spectrometer: USB2+H09633
Trigger mode: 0
Integration Time (sec): 1.000000E-2
Scans to average: 1
Electric dark correction enabled: true
Nonlinearity correction enabled: false
Boxcar width: 0
XAxis mode: Wavelengths
Number of Pixels in Spectrum: 2048
>>>>>Begin Spectral Data<<<<<
174.027	-81.64
174.405	-81.64
174.783	-81.64
175.162	-101.97
175.54	-79.38
175.918	-106.49
176.296	-120.05
176.674	-90.68
177.052	-160.73
177.43	-63.56
177.808	-50
178.186	-47.74
178.564	-20.62
178.942	-63.56
179.32	53.95
179.698	40.39
180.076	20.06
180.453	29.1
180.831	96.89
181.209	153.39
181.587	90.11
181.965	133.05
182.342	121.75
182.72	171.46
183.098	250.56
183.475	196.32
183.853	237
184.231	182.76
184.608	275.42
184.986	284.46
185.363	241.52
185.741	300.27
186.118	284.46
186.496	349.99
186.873	320.61
187.251	288.98
187.628	340.95
188.006	288.98
188.383	372.59
188.76	327.39
189.138	273.16
189.515	295.75
189.892	329.65
190.27	415.53
190.647	413.27
191.024	361.29
191.401	261.86
191.778	307.05
192.155	356.77
192.533	320.61
192.91	334.17
193.287	327.39
193.664	347.73
194.041	320.61
194.418	331.91
194.795	284.46
195.172	322.87
195.549	293.5
195.926	291.24
196.302	257.34
196.679	261.86
197.056	329.65
197.433	300.27
197.81	338.69
198.187	295.75
198.563	293.5
198.94	318.35
199.317	325.13
199.693	282.2
200.07	259.6
200.447	361.29
200.823	327.39
201.2	356.77
201.576	257.34
201.953	288.98
202.329	298.01
202.706	365.81
203.082	277.68
203.459	325.13
203.835	295.75
204.212	298.01
204.588	309.31
204.964	307.05
205.341	255.08
205.717	309.31
206.093	288.98
206.469	277.68
206.846	311.57
207.222	279.94
207.598	270.9
207.974	325.13
208.35	293.5
208.726	313.83
209.102	372.59
209.479	227.96
209.855	343.21
210.231	293.5
210.607	345.47
210.982	322.87
211.358	336.43
211.734	304.79
212.11	307.05
212.486	286.72
212.862	336.43
213.238	338.69
213.614	336.43
213.989	313.83
214.365	338.69
214.741	318.35
215.116	338.69
215.492	309.31
215.868	359.03
216.243	300.27
216.619	264.12
216.995	275.42
217.37	379.37
217.746	329.65
218.121	275.42
218.497	331.91
218.872	304.79
219.247	327.39
219.623	338.69
219.998	372.59
220.374	320.61
220.749	318.35
221.124	365.81
221.499	291.24
221.875	365.81
222.25	329.65
222.625	365.81
223	264.12
223.376	329.65
223.751	307.05
224.126	327.39
224.501	345.47
224.876	298.01
225.251	298.01
225.626	340.95
226.001	343.21
226.376	322.87
226.751	345.47
227.126	368.07
227.501	390.67
227.875	329.65
228.25	329.65
228.625	365.81
229	338.69
229.375	359.03
229.749	325.13
230.124	300.27
230.499	307.05
230.873	304.79
231.248	331.91
231.623	298.01
231.997	399.71
232.372	340.95
232.746	363.55
233.121	404.23
233.495	309.31
233.87	331.91
234.244	386.15
234.619	381.63
234.993	270.9
235.367	343.21
235.742	359.03
236.116	345.47
236.49	349.99
236.865	415.53
237.239	431.34
237.613	320.61
237.987	404.23
238.361	255.08
238.736	338.69
239.11	377.11
239.484	390.67
239.858	329.65
240.232	318.35
240.606	417.79
240.98	347.73
241.354	392.93
241.728	347.73
242.102	336.43
242.475	340.95
242.849	377.11
243.223	377.11
243.597	307.05
243.971	374.85
244.344	413.27
244.718	372.59
245.092	379.37
245.466	372.59
245.839	411.01
246.213	338.69
246.586	447.16
246.96	397.45
247.334	395.19
247.707	331.91
248.081	370.33
248.454	363.55
248.828	304.79
249.201	372.59
249.574	381.63
249.948	397.45
250.321	354.51
250.694	411.01
251.068	383.89
251.441	279.94
251.814	320.61
252.187	363.55
252.561	444.9
252.934	336.43
253.307	406.49
253.68	368.07
254.053	329.65
254.426	270.9
254.799	359.03
255.172	392.93
255.545	386.15
255.918	383.89
256.291	417.79
256.664	426.82
257.037	395.19
257.41	329.65
257.782	318.35
258.155	408.75
258.528	404.23
258.901	345.47
259.273	406.49
259.646	345.47
260.019	325.13
260.391	379.37
260.764	345.47
261.137	395.19
261.509	415.53
261.882	365.81
262.254	467.5
262.627	401.97
262.999	431.34
263.372	379.37
263.744	329.65
264.116	377.11
264.489	368.07
264.861	365.81
265.233	379.37
265.606	356.77
265.978	354.51
266.35	388.41
266.722	368.07
267.094	365.81
267.467	349.99
267.839	381.63
268.211	413.27
268.583	347.73
268.955	456.2
269.327	372.59
269.699	349.99
270.071	327.39
270.443	395.19
270.815	374.85
271.186	420.05
271.558	397.45
271.93	392.93
272.302	424.57
272.674	372.59
273.045	406.49
273.417	349.99
273.789	379.37
274.16	503.66
274.532	388.41
274.904	386.15
275.275	429.08
275.647	383.89
276.018	316.09
276.39	442.64
276.761	431.34
277.133	383.89
277.504	440.38
277.875	386.15
278.247	359.03
278.618	474.28
278.989	374.85
279.361	379.37
279.732	392.93
280.103	431.34
280.474	388.41
280.846	329.65
281.217	363.55
281.588	359.03
281.959	365.81
282.33	435.86
282.701	453.94
283.072	417.79
283.443	349.99
283.814	383.89
284.185	451.68
284.556	458.46
284.927	401.97
285.297	406.49
285.668	356.77
286.039	440.38
286.41	440.38
286.781	408.75
287.151	476.54
287.522	422.31
287.893	365.81
288.263	469.76
288.634	469.76
289.004	435.86
289.375	392.93
289.745	392.93
290.116	361.29
290.486	349.99
290.857	347.73
291.227	469.76
291.598	420.05
291.968	338.69
292.338	388.41
292.709	370.33
293.079	483.32
293.449	413.27
293.819	422.31
294.189	413.27
294.56	440.38
294.93	399.71
295.3	444.9
295.67	467.5
296.04	442.64
296.41	429.08
296.78	433.6
297.15	494.62
297.52	453.94
297.89	368.07
298.259	420.05
298.629	447.16
298.999	447.16
299.369	472.02
299.739	413.27
300.108	496.88
300.478	444.9
300.848	458.46
301.217	460.72
301.587	503.66
301.957	444.9
302.326	458.46
302.696	411.01
303.065	424.57
303.435	438.12
303.804	483.32
304.174	476.54
304.543	478.8
304.912	474.28
305.282	485.58
305.651	413.27
306.02	433.6
306.39	411.01
306.759	442.64
307.128	440.38
307.497	429.08
307.866	435.86
308.235	494.62
308.604	372.59
308.974	447.16
309.343	431.34
309.712	426.82
310.08	431.34
310.449	505.92
310.818	472.02
311.187	465.24
311.556	503.66
311.925	528.52
312.294	503.66
312.662	483.32
313.031	429.08
313.4	519.48
313.769	496.88
314.137	460.72
314.506	478.8
314.874	512.7
315.243	478.8
315.612	476.54
315.98	539.82
316.349	465.24
316.717	521.74
317.085	501.4
317.454	578.23
317.822	537.56
318.191	467.5
318.559	467.5
318.927	442.64
319.295	447.16
319.664	438.12
320.032	494.62
320.4	435.86
320.768	413.27
321.136	510.44
321.504	501.4
321.872	429.08
322.24	462.98
322.608	442.64
322.976	469.76
323.344	548.86
323.712	555.64
324.08	462.98
324.448	415.53
324.816	485.58
325.183	451.68
325.551	544.34
325.919	492.36
326.287	573.71
326.654	528.52
327.022	508.18
327.389	521.74
327.757	555.64
328.125	512.7
328.492	499.14
328.86	505.92
329.227	544.34
329.594	519.48
329.962	524
330.329	555.64
330.697	546.6
331.064	487.84
331.431	553.38
331.798	555.64
332.166	481.06
332.533	546.6
332.9	544.34
333.267	585.01
333.634	571.45
334.001	580.49
334.368	539.82
334.735	537.56
335.102	578.23
335.469	600.83
335.836	589.53
336.203	546.6
336.57	553.38
336.937	512.7
337.304	539.82
337.67	555.64
338.037	589.53
338.404	519.48
338.771	614.39
339.137	553.38
339.504	607.61
339.87	609.87
340.237	578.23
340.604	659.59
340.97	571.45
341.337	591.79
341.703	623.43
342.069	580.49
342.436	655.07
342.802	566.93
343.169	573.71
343.535	575.97
343.901	625.69
344.267	670.89
344.634	560.15
345	607.61
345.366	661.85
345.732	539.82
346.098	573.71
346.464	684.45
346.83	627.95
347.196	564.67
347.562	609.87
347.928	682.19
348.294	627.95
348.66	630.21
349.026	677.67
349.392	743.2
349.757	677.67
350.123	655.07
350.489	702.52
350.855	664.11
351.22	621.17
351.586	630.21
351.951	718.34
352.317	727.38
352.683	718.34
353.048	713.82
353.414	711.56
353.779	698
354.144	679.93
354.51	666.37
354.875	722.86
355.24	695.74
355.606	759.02
355.971	736.42
356.336	749.98
356.701	738.68
357.067	727.38
357.432	691.22
357.797	747.72
358.162	765.8
358.527	788.4
358.892	779.36
359.257	820.03
359.622	815.52
359.987	783.88
360.352	772.58
360.717	806.48
361.082	831.33
361.446	738.68
361.811	752.24
362.176	946.59
362.541	804.22
362.905	878.79
363.27	921.73
363.635	878.79
363.999	912.69
364.364	890.09
364.728	973.7
365.093	910.43
365.457	919.47
365.822	901.39
366.186	996.3
366.55	998.56
366.915	971.44
367.279	996.3
367.643	969.18
368.008	953.36
368.372	966.92
368.736	1043.76
369.1	1086.69
369.464	1043.76
369.828	1041.5
370.192	1131.89
370.556	1109.29
370.92	1238.1
371.284	1269.74
371.648	1238.1
372.012	1197.43
372.376	1344.31
372.74	1314.94
373.104	1333.02
373.468	1418.89
373.831	1405.33
374.195	1520.58
374.559	1507.02
374.922	1509.28
375.286	1626.79
375.65	1633.57
376.013	1633.57
376.377	1719.45
376.74	1748.82
377.104	1714.93
377.467	2022.26
377.83	2076.5
378.194	2105.88
378.557	2320.56
378.92	2279.88
379.284	2451.63
379.647	2621.12
380.01	2679.87
380.373	3000.77
380.736	3055
381.1	3549.91
381.463	3540.87
381.826	3821.09
382.189	4096.78
382.552	4587.17
382.915	4914.84
383.278	5289.97
383.64	5687.7
384.003	6121.59
384.366	6546.44
384.729	7260.54
385.092	7906.85
385.454	8478.59
385.817	9258.23
386.18	10232.22
386.542	11161.01
386.905	12304.48
387.268	13368.86
387.63	14810.63
387.993	16053.53
388.355	17592.48
388.718	19431.97
389.08	21434.18
389.442	23208.15
389.805	25246.51
390.167	27149.29
390.529	30107.4
390.892	33562.68
391.254	35784.09
391.616	37910.59
391.978	42021.21
392.34	45975.91
392.702	47971.34
393.064	51354.3
393.426	53480.8
393.788	55426.51
394.15	57026.47
394.512	58881.79
394.874	60587.95
395.236	62522.37
395.598	64314.41
395.96	65071.45
396.321	65071.45
396.683	65071.45
397.045	65071.45
397.406	65071.45
397.768	65071.45
398.13	65071.45
398.491	65071.45
398.853	65071.45
399.214	65071.45
399.576	65071.45
399.937	65071.45
400.299	65071.45
400.66	65071.45
401.021	65071.45
401.383	65071.45
401.744	65071.45
402.105	65071.45
402.466	65071.45
402.827	65071.45
403.189	65071.45
403.55	65071.45
403.911	65071.45
404.272	65071.45
404.633	65071.45
404.994	65071.45
405.355	65071.45
405.716	65071.45
406.077	65071.45
406.437	65071.45
406.798	65071.45
407.159	65071.45
407.52	65071.45
407.88	65071.45
408.241	65071.45
408.602	65071.45
408.962	65071.45
409.323	65071.45
409.684	65071.45
410.044	65071.45
410.405	65071.45
410.765	65071.45
411.125	65071.45
411.486	65071.45
411.846	65071.45
412.206	65071.45
412.567	65071.45
412.927	65071.45
413.287	65071.45
413.647	65071.45
414.007	65071.45
414.368	65071.45
414.728	65071.45
415.088	65071.45
415.448	65071.45
415.808	65071.45
416.168	65071.45
416.528	65071.45
416.887	65071.45
417.247	65071.45
417.607	65071.45
417.967	65071.45
418.327	65071.45
418.686	65071.45
419.046	65071.45
419.406	65071.45
419.765	65071.45
420.125	65071.45
420.484	65071.45
420.844	65071.45
421.203	65071.45
421.563	64160.74
421.922	63939.28
422.282	62045.54
422.641	60798.12
423	59293.07
423.36	58673.88
423.719	56386.94
424.078	54341.79
424.437	52802.85
424.796	50631.15
425.155	49383.73
425.515	46658.38
425.874	45688.91
426.233	41591.84
426.592	39727.49
426.95	38432.61
427.309	36256.39
427.668	34853.04
428.027	32172.88
428.386	31574.03
428.745	28688.23
429.103	27140.25
429.462	25825.03
429.821	24005.87
430.179	23056.74
430.538	22184.44
430.897	21318.93
431.255	20139.3
431.614	18950.63
431.972	18385.67
432.33	17583.44
432.689	17359.71
433.047	16254.66
433.405	15097.63
433.764	14514.59
434.122	14453.57
434.48	13160.95
434.838	12887.51
435.197	12277.36
435.555	12028.78
435.913	11224.28
436.271	10858.19
436.629	10374.59
436.987	9820.93
437.345	9371.22
437.703	9122.64
438.061	8645.82
438.418	8087.64
438.776	7780.3
439.134	7710.25
439.492	7217.61
439.849	6808.58
440.207	6602.93
440.565	6523.84
440.922	5945.32
441.28	5640.25
441.637	5518.22
441.995	5461.72
442.352	5143.09
442.71	4817.67
443.067	4810.89
443.425	4537.45
443.782	4304.69
444.139	4234.63
444.496	4010.91
444.854	3972.49
445.211	3827.87
445.568	3843.68
445.925	3403.02
446.282	3314.88
446.639	3387.2
446.996	3222.23
447.353	3321.66
447.71	3204.15
448.067	3039.19
448.424	2905.86
448.781	2824.5
449.137	2734.11
449.494	2501.35
449.851	2523.94
450.208	2404.17
450.564	2243.73
450.921	2252.77
451.278	2135.25
451.634	2234.69
451.991	2114.92
452.347	2184.97
452.704	1965.77
453.06	1992.89
453.416	1708.15
453.773	1735.27
454.129	1748.82
454.485	1610.97
454.841	1685.55
455.198	1552.22
455.554	1574.82
455.91	1595.16
456.266	1545.44
456.622	1441.49
456.978	1412.11
457.334	1351.09
457.69	1258.44
458.046	1335.28
458.402	1281.04
458.758	1190.65
459.114	1195.17
459.469	1217.76
459.825	1140.93
460.181	1111.55
460.536	1023.42
460.892	1075.4
461.248	998.56
461.603	1064.1
461.959	996.3
462.314	930.77
462.67	1021.16
463.025	955.62
463.38	971.44
463.736	953.36
464.091	858.45
464.446	896.87
464.802	808.74
465.157	856.19
465.512	822.29
465.867	917.21
466.222	795.18
466.577	842.63
466.932	792.92
467.287	768.06
467.642	774.84
467.997	682.19
468.352	777.1
468.707	783.88
469.062	736.42
469.417	754.5
469.771	700.26
470.126	666.37
470.481	745.46
470.835	738.68
471.19	736.42
471.544	702.52
471.899	639.25
472.253	657.33
472.608	684.45
472.962	607.61
473.317	716.08
473.671	652.81
474.025	636.99
474.38	657.33
474.734	630.21
475.088	702.52
475.442	664.11
475.796	627.95
476.15	668.63
476.504	634.73
476.858	673.15
477.212	657.33
477.566	636.99
477.92	670.89
478.274	657.33
478.628	598.57
478.982	627.95
479.336	578.23
479.689	564.67
480.043	587.27
480.397	542.08
480.75	551.12
481.104	600.83
481.457	616.65
481.811	600.83
482.164	603.09
482.518	526.26
482.871	591.79
483.225	573.71
483.578	600.83
483.931	578.23
484.284	609.87
484.638	553.38
484.991	496.88
485.344	544.34
485.697	551.12
486.05	562.41
486.403	609.87
486.756	648.29
487.109	548.86
487.462	542.08
487.815	625.69
488.168	562.41
488.52	530.78
488.873	560.15
489.226	618.91
489.579	557.89
489.931	537.56
490.284	639.25
490.637	562.41
490.989	553.38
491.342	542.08
491.694	627.95
492.047	564.67
492.399	605.35
492.751	546.6
493.104	530.78
493.456	578.23
493.808	582.75
494.16	555.64
494.513	575.97
494.865	542.08
495.217	521.74
495.569	580.49
495.921	591.79
496.273	555.64
496.625	560.15
496.977	589.53
497.329	582.75
497.68	575.97
498.032	607.61
498.384	621.17
498.736	580.49
499.087	623.43
499.439	594.05
499.791	664.11
500.142	693.48
500.494	648.29
500.845	607.61
501.197	659.59
501.548	675.41
501.9	657.33
502.251	686.71
502.602	650.55
502.954	625.69
503.305	761.28
503.656	768.06
504.007	799.7
504.358	743.2
504.709	722.86
505.061	774.84
505.412	770.32
505.763	727.38
506.113	801.96
506.464	851.67
506.815	876.53
507.166	813.26
507.517	860.71
507.868	862.97
508.218	896.87
508.569	935.29
508.92	975.96
509.27	874.27
509.621	964.66
509.971	1009.86
510.322	982.74
510.672	980.48
511.023	1021.16
511.373	1055.06
511.723	1039.24
512.074	1050.54
512.424	1100.25
512.774	1064.1
513.124	1104.77
513.475	1118.33
513.825	1084.43
514.175	1140.93
514.525	1109.29
514.875	1192.91
515.225	1206.47
515.575	1222.28
515.924	1276.52
516.274	1217.76
516.624	1231.32
516.974	1346.57
517.324	1310.42
517.673	1314.94
518.023	1371.43
518.373	1441.49
518.722	1414.37
519.072	1427.93
519.421	1414.37
519.771	1378.21
520.12	1504.76
520.469	1538.66
520.819	1529.62
521.168	1608.71
521.517	1653.91
521.867	1601.94
522.216	1581.6
522.565	1608.71
522.914	1757.86
523.263	1624.53
523.612	1626.79
523.961	1692.33
524.31	1669.73
524.659	1671.99
525.008	1818.88
525.357	1728.49
525.705	1832.44
526.054	1809.84
526.403	1773.68
526.752	1850.52
527.1	1760.12
527.449	1771.42
527.797	1846
528.146	1812.1
528.495	1882.15
528.843	1900.23
529.191	1830.18
529.54	1956.73
529.888	1965.77
530.236	1972.55
530.585	1958.99
530.933	1986.11
531.281	2090.06
531.629	2071.98
531.977	2022.26
532.325	2038.08
532.673	2105.88
533.021	2015.48
533.369	2164.63
533.717	1997.41
534.065	2015.48
534.413	1968.03
534.761	2117.18
535.108	2101.36
535.456	2085.54
535.804	1979.33
536.151	2040.34
536.499	2040.34
536.847	2101.36
537.194	2040.34
537.542	2123.96
537.889	2035.82
538.236	2060.68
538.584	2108.14
538.931	2096.84
539.278	2212.09
539.626	2114.92
539.973	2094.58
540.32	2053.9
540.667	2060.68
541.014	2067.46
541.361	2155.59
541.708	2110.4
542.055	2071.98
542.402	2099.1
542.749	2094.58
543.096	2114.92
543.443	2171.41
543.789	2128.48
544.136	1981.59
544.483	2148.81
544.83	2144.29
545.176	2076.5
545.523	2047.12
545.869	2155.59
546.216	2040.34
546.562	2008.7
546.909	2083.28
547.255	2071.98
547.601	2101.36
547.948	2099.1
548.294	2164.63
548.64	2040.34
548.986	2126.22
549.332	2020
549.678	1999.66
550.025	2101.36
550.371	1995.15
550.717	2092.32
551.062	2001.92
551.408	2060.68
551.754	2128.48
552.1	2049.38
552.446	1983.85
552.792	2144.29
553.137	1988.37
553.483	2040.34
553.828	2090.06
554.174	2038.08
554.52	2187.23
554.865	2135.25
555.211	2056.16
555.556	2081.02
555.901	2144.29
556.247	2108.14
556.592	2096.84
556.937	1958.99
557.282	2049.38
557.628	2056.16
557.973	2096.84
558.318	2164.63
558.663	1988.37
559.008	2038.08
559.353	2020
559.698	2081.02
560.043	2101.36
560.388	1974.81
560.732	2135.25
561.077	2191.75
561.422	2069.72
561.766	2112.66
562.111	2069.72
562.456	2067.46
562.8	2184.97
563.145	2038.08
563.489	2114.92
563.834	2135.25
564.178	2160.11
564.523	2114.92
564.867	2139.77
565.211	2085.54
565.555	2198.53
565.9	2212.09
566.244	2132.99
566.588	2243.73
566.932	2157.85
567.276	2160.11
567.62	2180.45
567.964	2286.66
568.308	2234.69
568.652	2216.61
568.996	2191.75
569.339	2137.51
569.683	2160.11
570.027	2126.22
570.371	2171.41
570.714	2162.37
571.058	2250.51
571.401	2110.4
571.745	2160.11
572.088	2105.88
572.432	2232.43
572.775	2232.43
573.118	2184.97
573.462	2160.11
573.805	2166.89
574.148	2139.77
574.491	2248.25
574.835	2216.61
575.178	2017.74
575.521	2178.19
575.864	2114.92
576.207	2105.88
576.55	2126.22
576.892	2146.55
577.235	2101.36
577.578	2101.36
577.921	2087.8
578.264	2132.99
578.606	2144.29
578.949	2092.32
579.292	2110.4
579.634	2112.66
579.977	2175.93
580.319	1977.07
580.662	2081.02
581.004	1992.89
581.346	2033.56
581.689	1999.66
582.031	2008.7
582.373	1859.56
582.715	2001.92
583.057	2015.48
583.4	1875.37
583.742	1886.67
584.084	1891.19
584.426	1893.45
584.768	1934.13
585.109	1864.08
585.451	1850.52
585.793	1787.24
586.135	1873.11
586.477	1877.63
586.818	1904.75
587.16	1798.54
587.502	1710.41
587.843	1769.16
588.185	1855.04
588.526	1748.82
588.868	1753.34
589.209	1701.37
589.55	1644.87
589.892	1737.52
590.233	1694.59
590.574	1726.23
590.915	1696.85
591.257	1690.07
591.598	1784.98
591.939	1622.27
592.28	1651.65
592.621	1592.9
592.962	1595.16
593.303	1647.13
593.643	1604.2
593.984	1529.62
594.325	1586.12
594.666	1549.96
595.006	1518.32
595.347	1518.32
595.688	1466.35
596.028	1448.27
596.369	1482.16
596.709	1466.35
597.05	1430.19
597.39	1470.87
597.73	1425.67
598.071	1412.11
598.411	1459.57
598.751	1403.07
599.091	1342.06
599.431	1418.89
599.772	1305.9
600.112	1342.06
600.452	1378.21
600.792	1296.86
601.132	1353.35
601.471	1308.16
601.811	1326.24
602.151	1156.75
602.491	1238.1
602.831	1244.88
603.17	1231.32
603.51	1206.47
603.849	1258.44
604.189	1222.28
604.528	1308.16
604.868	1154.49
605.207	1208.73
605.547	1251.66
605.886	1220.02
606.225	1262.96
606.565	1224.54
606.904	1181.61
607.243	1195.17
607.582	1197.43
607.921	1201.95
608.26	1118.33
608.599	1168.05
608.938	1177.09
609.277	1197.43
609.616	1145.45
609.955	1066.36
610.293	1145.45
610.632	1143.19
610.971	1075.4
611.309	1046.02
611.648	1131.89
611.987	1046.02
612.325	1131.89
612.664	1012.12
613.002	1109.29
613.34	1041.5
613.679	1100.25
614.017	1077.66
614.355	1048.28
614.694	1070.88
615.032	964.66
615.37	996.3
615.708	1064.1
616.046	928.51
616.384	1012.12
616.722	1086.69
617.06	1109.29
617.398	1068.62
617.736	1025.68
618.073	1061.84
618.411	1034.72
618.749	1068.62
619.086	899.13
619.424	1059.58
619.762	1012.12
620.099	1082.17
620.437	1036.98
620.774	989.52
621.112	994.04
621.449	960.14
621.786	1016.64
622.123	966.92
622.461	926.25
622.798	1009.86
623.135	991.78
623.472	1007.6
623.809	944.33
624.146	991.78
624.483	942.07
624.82	957.88
625.157	876.53
625.494	991.78
625.83	982.74
626.167	971.44
626.504	948.85
626.841	955.62
627.177	978.22
627.514	881.05
627.85	942.07
628.187	982.74
628.523	914.95
628.86	1032.46
629.196	887.83
629.532	840.37
629.869	829.07
630.205	948.85
630.541	847.15
630.877	881.05
631.213	824.55
631.549	869.75
631.885	872.01
632.221	869.75
632.557	867.49
632.893	910.43
633.229	808.74
633.564	833.59
633.9	840.37
634.236	858.45
634.572	885.57
634.907	835.85
635.243	817.78
635.578	754.5
635.914	842.63
636.249	815.52
636.585	738.68
636.92	806.48
637.255	799.7
637.59	779.36
637.926	817.78
638.261	813.26
638.596	808.74
638.931	731.9
639.266	768.06
639.601	720.6
639.936	713.82
640.271	707.04
640.606	829.07
640.94	743.2
641.275	777.1
641.61	670.89
641.945	779.36
642.279	675.41
642.614	716.08
642.948	756.76
643.283	709.3
643.617	763.54
643.952	664.11
644.286	682.19
644.62	747.72
644.955	589.53
645.289	679.93
645.623	765.8
645.957	720.6
646.291	720.6
646.625	636.99
646.959	743.2
647.293	686.71
647.627	594.05
647.961	594.05
648.295	539.82
648.629	555.64
648.962	657.33
649.296	560.15
649.63	616.65
649.963	650.55
650.297	675.41
650.63	598.57
650.964	643.77
651.297	652.81
651.631	607.61
651.964	693.48
652.297	521.74
652.631	657.33
652.964	607.61
653.297	589.53
653.63	691.22
653.963	603.09
654.296	551.12
654.629	589.53
654.962	587.27
655.295	566.93
655.628	648.29
655.961	505.92
656.293	555.64
656.626	548.86
656.959	569.19
657.291	539.82
657.624	575.97
657.956	535.3
658.289	499.14
658.621	573.71
658.954	548.86
659.286	524
659.618	524
659.95	499.14
660.283	510.44
660.615	492.36
660.947	524
661.279	512.7
661.611	508.18
661.943	492.36
662.275	492.36
662.607	494.62
662.939	467.5
663.27	555.64
663.602	494.62
663.934	519.48
664.266	514.96
664.597	537.56
664.929	514.96
665.26	467.5
665.592	406.49
665.923	503.66
666.255	478.8
666.586	483.32
666.917	494.62
667.248	503.66
667.58	453.94
667.911	474.28
668.242	465.24
668.573	415.53
668.904	426.82
669.235	542.08
669.566	514.96
669.897	417.79
670.228	472.02
670.558	395.19
670.889	438.12
671.22	431.34
671.551	467.5
671.881	435.86
672.212	469.76
672.542	447.16
672.873	481.06
673.203	478.8
673.533	399.71
673.864	472.02
674.194	465.24
674.524	429.08
674.855	451.68
675.185	433.6
675.515	397.45
675.845	417.79
676.175	417.79
676.505	424.57
676.835	462.98
677.165	456.2
677.494	433.6
677.824	449.42
678.154	408.75
678.484	424.57
678.813	422.31
679.143	449.42
679.472	377.11
679.802	379.37
680.131	361.29
680.461	465.24
680.79	365.81
681.119	417.79
681.449	415.53
681.778	401.97
682.107	426.82
682.436	440.38
682.765	406.49
683.094	345.47
683.423	424.57
683.752	408.75
684.081	395.19
684.41	361.29
684.739	383.89
685.067	374.85
685.396	381.63
685.725	424.57
686.053	352.25
686.382	379.37
686.711	413.27
687.039	397.45
687.367	406.49
687.696	370.33
688.024	415.53
688.352	381.63
688.681	433.6
689.009	381.63
689.337	395.19
689.665	424.57
689.993	392.93
690.321	370.33
690.649	352.25
690.977	345.47
691.305	399.71
691.633	401.97
691.961	383.89
692.288	286.72
692.616	372.59
692.944	390.67
693.271	415.53
693.599	329.65
693.926	349.99
694.254	359.03
694.581	347.73
694.908	415.53
695.236	368.07
695.563	379.37
695.89	320.61
696.217	338.69
696.544	383.89
696.871	365.81
697.198	327.39
697.525	354.51
697.852	361.29
698.179	363.55
698.506	368.07
698.833	379.37
699.16	381.63
699.486	361.29
699.813	343.21
700.139	406.49
700.466	313.83
700.793	331.91
701.119	404.23
701.445	304.79
701.772	397.45
702.098	368.07
702.424	368.07
702.75	284.46
703.077	340.95
703.403	406.49
703.729	370.33
704.055	343.21
704.381	408.75
704.707	352.25
705.033	383.89
705.358	275.42
705.684	309.31
706.01	293.5
706.336	343.21
706.661	338.69
706.987	374.85
707.312	361.29
707.638	354.51
707.963	372.59
708.289	288.98
708.614	334.17
708.939	336.43
709.265	302.53
709.59	411.01
709.915	286.72
710.24	372.59
710.565	322.87
710.89	395.19
711.215	325.13
711.54	343.21
711.865	320.61
712.19	363.55
712.515	340.95
712.839	307.05
713.164	359.03
713.489	325.13
713.813	336.43
714.138	316.09
714.462	349.99
714.787	372.59
715.111	243.78
715.435	322.87
715.76	295.75
716.084	309.31
716.408	286.72
716.732	307.05
717.056	336.43
717.381	288.98
717.705	320.61
718.028	338.69
718.352	307.05
718.676	372.59
719	311.57
719.324	288.98
719.648	345.47
719.971	261.86
720.295	307.05
720.618	302.53
720.942	318.35
721.265	392.93
721.589	221.18
721.912	345.47
722.236	372.59
722.559	338.69
722.882	365.81
723.205	248.3
723.528	282.2
723.851	327.39
724.174	277.68
724.497	325.13
724.82	349.99
725.143	322.87
725.466	381.63
725.789	268.64
726.112	302.53
726.434	318.35
726.757	270.9
727.08	325.13
727.402	268.64
727.725	309.31
728.047	291.24
728.37	359.03
728.692	293.5
729.014	291.24
729.336	275.42
729.659	311.57
729.981	313.83
730.303	268.64
730.625	359.03
730.947	282.2
731.269	298.01
731.591	288.98
731.913	266.38
732.235	284.46
732.556	361.29
732.878	307.05
733.2	318.35
733.521	255.08
733.843	304.79
734.164	338.69
734.486	279.94
734.807	264.12
735.129	203.1
735.45	309.31
735.771	264.12
736.092	307.05
736.414	248.3
736.735	264.12
737.056	298.01
737.377	343.21
737.698	286.72
738.019	259.6
738.34	383.89
738.66	300.27
738.981	284.46
739.302	349.99
739.623	241.52
739.943	302.53
740.264	277.68
740.584	282.2
740.905	313.83
741.225	329.65
741.546	340.95
741.866	273.16
742.186	298.01
742.507	307.05
742.827	345.47
743.147	277.68
743.467	261.86
743.787	293.5
744.107	298.01
744.427	266.38
744.747	298.01
745.067	261.86
745.386	282.2
745.706	329.65
746.026	295.75
746.346	327.39
746.665	318.35
746.985	268.64
747.304	338.69
747.624	282.2
747.943	261.86
748.262	356.77
748.582	282.2
748.901	255.08
749.22	284.46
749.539	304.79
749.858	300.27
750.177	320.61
750.496	293.5
750.815	293.5
751.134	241.52
751.453	248.3
751.772	325.13
752.09	293.5
752.409	223.44
752.728	309.31
753.046	307.05
753.365	318.35
753.683	311.57
754.002	288.98
754.32	259.6
754.639	266.38
754.957	349.99
755.275	295.75
755.593	252.82
755.911	302.53
756.23	320.61
756.548	248.3
756.866	261.86
757.183	279.94
757.501	365.81
757.819	239.26
758.137	257.34
758.455	298.01
758.772	257.34
759.09	359.03
759.408	300.27
759.725	246.04
760.043	282.2
760.36	252.82
760.677	248.3
760.995	288.98
761.312	327.39
761.629	338.69
761.946	286.72
762.264	331.91
762.581	205.36
762.898	250.56
763.215	313.83
763.532	313.83
763.848	257.34
764.165	212.14
764.482	239.26
764.799	243.78
765.115	300.27
765.432	264.12
765.749	327.39
766.065	261.86
766.382	266.38
766.698	232.48
767.014	257.34
767.331	291.24
767.647	309.31
767.963	304.79
768.279	252.82
768.595	331.91
768.911	275.42
769.227	286.72
769.543	246.04
769.859	212.14
770.175	284.46
770.491	237
770.807	259.6
771.122	232.48
771.438	313.83
771.754	243.78
772.069	239.26
772.385	331.91
772.7	268.64
773.016	275.42
773.331	286.72
773.646	264.12
773.961	273.16
774.277	241.52
774.592	264.12
774.907	334.17
775.222	248.3
775.537	293.5
775.852	239.26
776.167	329.65
776.482	318.35
776.796	298.01
777.111	214.4
777.426	300.27
777.74	237
778.055	316.09
778.369	331.91
778.684	218.92
778.998	311.57
779.313	316.09
779.627	282.2
779.941	318.35
780.255	304.79
780.57	284.46
780.884	257.34
781.198	309.31
781.512	232.48
781.826	259.6
782.14	295.75
782.453	230.22
782.767	252.82
783.081	255.08
783.395	241.52
783.708	288.98
784.022	325.13
784.335	273.16
784.649	291.24
784.962	255.08
785.276	293.5
785.589	277.68
785.902	279.94
786.216	250.56
786.529	273.16
786.842	275.42
787.155	273.16
787.468	295.75
787.781	248.3
788.094	273.16
788.407	264.12
788.72	246.04
789.032	237
789.345	338.69
789.658	295.75
789.97	277.68
790.283	248.3
790.595	252.82
790.908	311.57
791.22	313.83
791.532	261.86
791.845	252.82
792.157	277.68
792.469	311.57
792.781	327.39
793.093	221.18
793.405	248.3
793.717	255.08
794.029	232.48
794.341	320.61
794.653	241.52
794.965	284.46
795.276	234.74
795.588	214.4
795.9	194.06
796.211	216.66
796.523	268.64
796.834	261.86
797.146	286.72
797.457	246.04
797.768	227.96
798.08	275.42
798.391	277.68
798.702	277.68
799.013	270.9
799.324	266.38
799.635	309.31
799.946	273.16
800.257	200.84
800.568	336.43
800.878	325.13
801.189	286.72
801.5	207.62
801.81	234.74
802.121	266.38
802.431	200.84
802.742	218.92
803.052	237
803.363	259.6
803.673	200.84
803.983	286.72
804.293	239.26
804.603	252.82
804.913	264.12
805.224	239.26
805.533	241.52
805.843	221.18
806.153	322.87
806.463	216.66
806.773	282.2
807.083	282.2
807.392	320.61
807.702	205.36
808.011	259.6
808.321	270.9
808.63	311.57
808.94	270.9
809.249	322.87
809.558	300.27
809.868	322.87
810.177	230.22
810.486	307.05
810.795	309.31
811.104	286.72
811.413	309.31
811.722	338.69
812.031	304.79
812.339	277.68
812.648	295.75
812.957	279.94
813.266	327.39
813.574	268.64
813.883	318.35
814.191	268.64
814.5	234.74
814.808	327.39
815.116	257.34
815.424	327.39
815.733	288.98
816.041	284.46
816.349	293.5
816.657	239.26
816.965	347.73
817.273	277.68
817.581	234.74
817.889	309.31
818.196	239.26
818.504	270.9
818.812	241.52
819.12	298.01
819.427	273.16
819.735	318.35
820.042	241.52
820.349	252.82
820.657	345.47
820.964	270.9
821.271	311.57
821.579	338.69
821.886	209.88
822.193	234.74
822.5	255.08
822.807	261.86
823.114	185.02
823.421	227.96
823.727	298.01
824.034	277.68
824.341	279.94
824.648	349.99
824.954	316.09
825.261	196.32
825.567	282.2
825.874	277.68
826.18	246.04
826.486	255.08
826.793	338.69
827.099	214.4
827.405	286.72
827.711	216.66
828.017	275.42
828.323	309.31
828.629	295.75
828.935	298.01
829.241	270.9
829.547	255.08
829.852	218.92
830.158	246.04
830.464	239.26
830.769	275.42
831.075	311.57
831.38	248.3
831.686	273.16
831.991	237
832.296	257.34
832.601	259.6
832.907	230.22
833.212	241.52
833.517	288.98
833.822	232.48
834.127	223.44
834.432	209.88
834.737	175.98
835.041	291.24
835.346	311.57
835.651	286.72
835.956	284.46
836.26	246.04
836.565	277.68
836.869	311.57
837.174	250.56
837.478	212.14
837.782	275.42
838.087	307.05
838.391	277.68
838.695	291.24
838.999	282.2
839.303	232.48
839.607	298.01
839.911	295.75
840.215	293.5
840.519	232.48
840.822	237
841.126	270.9
841.43	218.92
841.733	264.12
842.037	261.86
842.34	282.2
842.644	246.04
842.947	246.04
843.251	248.3
843.554	270.9
843.857	307.05
844.16	334.17
844.463	252.82
844.766	295.75
845.069	282.2
845.372	203.1
845.675	259.6
845.978	286.72
846.281	273.16
846.583	223.44
846.886	313.83
847.189	291.24
847.491	248.3
847.794	239.26
848.096	277.68
848.399	322.87
848.701	205.36
849.003	307.05
849.305	325.13
849.608	282.2
849.91	259.6
850.212	218.92
850.514	284.46
850.816	234.74
851.118	255.08
851.419	241.52
851.721	252.82
852.023	216.66
852.325	279.94
852.626	214.4
852.928	218.92
853.229	218.92
853.531	248.3
853.832	237
854.133	248.3
854.435	322.87
854.736	302.53
855.037	266.38
855.338	300.27
855.639	304.79
855.94	273.16
856.241	259.6
856.542	250.56
856.843	250.56
857.144	273.16
857.444	295.75
857.745	268.64
858.046	216.66
858.346	316.09
858.647	255.08
858.947	282.2
859.247	268.64
859.548	196.32
859.848	293.5
860.148	275.42
860.448	234.74
860.749	257.34
861.049	313.83
861.349	241.52
861.648	246.04
861.948	275.42
862.248	252.82
862.548	277.68
862.848	268.64
863.147	248.3
863.447	311.57
863.746	325.13
864.046	234.74
864.345	300.27
864.645	325.13
864.944	241.52
865.243	288.98
865.542	327.39
865.842	295.75
866.141	304.79
866.44	250.56
866.739	322.87
867.038	273.16
867.337	250.56
867.635	325.13
867.934	266.38
868.233	261.86
868.531	255.08
868.83	282.2
869.129	322.87
869.427	246.04
869.725	282.2
870.024	282.2
870.322	291.24
870.62	275.42
870.918	241.52
871.217	252.82
871.515	279.94
871.813	218.92
872.111	286.72
872.409	209.88
872.706	191.8
873.004	252.82
873.302	266.38
873.6	264.12
873.897	264.12
874.195	288.98
874.492	239.26
874.79	243.78
875.087	250.56
875.384	255.08
875.682	302.53
875.979	277.68
876.276	300.27
876.573	279.94
876.87	279.94
877.167	279.94
