Data from PL_2polymer_F8BT_MEHPPV_USB2H096331_0252.txt Node
Date: Tue Dec 15 16:23:50 CET 2020
User: spadmin
Spectrometer: USB2+H09633
Trigger mode: 0
Integration Time (sec): 1.000000E-2
Scans to average: 1
Electric dark correction enabled: true
Nonlinearity correction enabled: false
Boxcar width: 0
XAxis mode: Wavelengths
Number of Pixels in Spectrum: 2048
>>>>>Begin Spectral Data<<<<<
174.027	-52.26
174.405	-52.26
174.783	-52.26
175.162	-142.65
175.54	-149.43
175.918	-108.75
176.296	-124.57
176.674	-115.53
177.052	-92.94
177.43	-61.3
177.808	-13.84
178.186	-54.52
178.564	4.24
178.942	-36.44
179.32	1.98
179.698	17.8
180.076	90.11
180.453	44.91
180.831	114.97
181.209	76.55
181.587	108.19
181.965	40.39
182.342	200.84
182.72	200.84
183.098	194.06
183.475	243.78
183.853	279.94
184.231	261.86
184.608	293.5
184.986	309.31
185.363	325.13
185.741	336.43
186.118	275.42
186.496	275.42
186.873	343.21
187.251	298.01
187.628	322.87
188.006	343.21
188.383	277.68
188.76	313.83
189.138	411.01
189.515	318.35
189.892	345.47
190.27	286.72
190.647	390.67
191.024	345.47
191.401	363.55
191.778	291.24
192.155	331.91
192.533	295.75
192.91	313.83
193.287	304.79
193.664	266.38
194.041	404.23
194.418	293.5
194.795	304.79
195.172	248.3
195.549	327.39
195.926	266.38
196.302	286.72
196.679	284.46
197.056	327.39
197.433	298.01
197.81	334.17
198.187	277.68
198.563	286.72
198.94	336.43
199.317	327.39
199.693	311.57
200.07	316.09
200.447	243.78
200.823	386.15
201.2	329.65
201.576	311.57
201.953	318.35
202.329	307.05
202.706	277.68
203.082	363.55
203.459	307.05
203.835	284.46
204.212	356.77
204.588	336.43
204.964	322.87
205.341	325.13
205.717	302.53
206.093	320.61
206.469	318.35
206.846	261.86
207.222	322.87
207.598	322.87
207.974	340.95
208.35	322.87
208.726	325.13
209.102	340.95
209.479	383.89
209.855	273.16
210.231	340.95
210.607	300.27
210.982	279.94
211.358	340.95
211.734	320.61
212.11	327.39
212.486	343.21
212.862	388.41
213.238	239.26
213.614	361.29
213.989	340.95
214.365	368.07
214.741	340.95
215.116	334.17
215.492	322.87
215.868	331.91
216.243	336.43
216.619	311.57
216.995	359.03
217.37	334.17
217.746	397.45
218.121	392.93
218.497	304.79
218.872	363.55
219.247	397.45
219.623	298.01
219.998	368.07
220.374	340.95
220.749	372.59
221.124	352.25
221.499	331.91
221.875	386.15
222.25	352.25
222.625	349.99
223	304.79
223.376	284.46
223.751	338.69
224.126	386.15
224.501	368.07
224.876	340.95
225.251	336.43
225.626	322.87
226.001	291.24
226.376	401.97
226.751	379.37
227.126	352.25
227.501	340.95
227.875	431.34
228.25	343.21
228.625	368.07
229	411.01
229.375	275.42
229.749	383.89
230.124	334.17
230.499	356.77
230.873	352.25
231.248	377.11
231.623	383.89
231.997	359.03
232.372	370.33
232.746	363.55
233.121	377.11
233.495	377.11
233.87	363.55
234.244	372.59
234.619	370.33
234.993	401.97
235.367	370.33
235.742	320.61
236.116	325.13
236.49	417.79
236.865	383.89
237.239	377.11
237.613	322.87
237.987	354.51
238.361	349.99
238.736	395.19
239.11	460.72
239.484	363.55
239.858	343.21
240.232	397.45
240.606	322.87
240.98	372.59
241.354	413.27
241.728	399.71
242.102	370.33
242.475	374.85
242.849	356.77
243.223	397.45
243.597	359.03
243.971	361.29
244.344	349.99
244.718	417.79
245.092	386.15
245.466	343.21
245.839	365.81
246.213	354.51
246.586	345.47
246.96	370.33
247.334	374.85
247.707	372.59
248.081	442.64
248.454	390.67
248.828	408.75
249.201	347.73
249.574	392.93
249.948	336.43
250.321	395.19
250.694	408.75
251.068	349.99
251.441	401.97
251.814	440.38
252.187	417.79
252.561	356.77
252.934	392.93
253.307	406.49
253.68	381.63
254.053	417.79
254.426	309.31
254.799	365.81
255.172	300.27
255.545	392.93
255.918	322.87
256.291	401.97
256.664	449.42
257.037	343.21
257.41	377.11
257.782	372.59
258.155	302.53
258.528	343.21
258.901	433.6
259.273	447.16
259.646	406.49
260.019	379.37
260.391	397.45
260.764	329.65
261.137	377.11
261.509	359.03
261.882	316.09
262.254	345.47
262.627	327.39
262.999	349.99
263.372	424.57
263.744	401.97
264.116	411.01
264.489	377.11
264.861	361.29
265.233	372.59
265.606	370.33
265.978	383.89
266.35	354.51
266.722	361.29
267.094	329.65
267.467	352.25
267.839	408.75
268.211	368.07
268.583	327.39
268.955	345.47
269.327	408.75
269.699	429.08
270.071	354.51
270.443	370.33
270.815	417.79
271.186	361.29
271.558	395.19
271.93	440.38
272.302	386.15
272.674	435.86
273.045	411.01
273.417	336.43
273.789	377.11
274.16	352.25
274.532	377.11
274.904	426.82
275.275	363.55
275.647	397.45
276.018	435.86
276.39	406.49
276.761	426.82
277.133	395.19
277.504	456.2
277.875	429.08
278.247	440.38
278.618	474.28
278.989	460.72
279.361	392.93
279.732	406.49
280.103	422.31
280.474	383.89
280.846	435.86
281.217	438.12
281.588	397.45
281.959	363.55
282.33	374.85
282.701	377.11
283.072	383.89
283.443	456.2
283.814	413.27
284.185	514.96
284.556	465.24
284.927	510.44
285.297	426.82
285.668	347.73
286.039	395.19
286.41	381.63
286.781	472.02
287.151	374.85
287.522	429.08
287.893	415.53
288.263	422.31
288.634	460.72
289.004	377.11
289.375	444.9
289.745	438.12
290.116	399.71
290.486	490.1
290.857	499.14
291.227	404.23
291.598	465.24
291.968	420.05
292.338	422.31
292.709	431.34
293.079	442.64
293.449	444.9
293.819	472.02
294.189	411.01
294.56	460.72
294.93	444.9
295.3	390.67
295.67	472.02
296.04	478.8
296.41	474.28
296.78	444.9
297.15	483.32
297.52	411.01
297.89	483.32
298.259	438.12
298.629	438.12
298.999	404.23
299.369	438.12
299.739	453.94
300.108	462.98
300.478	449.42
300.848	478.8
301.217	381.63
301.587	422.31
301.957	474.28
302.326	485.58
302.696	408.75
303.065	426.82
303.435	474.28
303.804	485.58
304.174	460.72
304.543	474.28
304.912	424.57
305.282	472.02
305.651	458.46
306.02	467.5
306.39	420.05
306.759	478.8
307.128	451.68
307.497	447.16
307.866	521.74
308.235	449.42
308.604	519.48
308.974	517.22
309.343	417.79
309.712	456.2
310.08	478.8
310.449	474.28
310.818	490.1
311.187	551.12
311.556	524
311.925	492.36
312.294	508.18
312.662	508.18
313.031	508.18
313.4	505.92
313.769	456.2
314.137	512.7
314.506	521.74
314.874	501.4
315.243	476.54
315.612	510.44
315.98	429.08
316.349	548.86
316.717	533.04
317.085	551.12
317.454	564.67
317.822	485.58
318.191	539.82
318.559	456.2
318.927	481.06
319.295	508.18
319.664	526.26
320.032	481.06
320.4	542.08
320.768	528.52
321.136	535.3
321.504	447.16
321.872	548.86
322.24	530.78
322.608	481.06
322.976	537.56
323.344	517.22
323.712	503.66
324.08	494.62
324.448	528.52
324.816	555.64
325.183	528.52
325.551	546.6
325.919	519.48
326.287	451.68
326.654	519.48
327.022	490.1
327.389	501.4
327.757	490.1
328.125	505.92
328.492	508.18
328.86	472.02
329.227	546.6
329.594	453.94
329.962	487.84
330.329	501.4
330.697	503.66
331.064	519.48
331.431	537.56
331.798	600.83
332.166	546.6
332.533	605.35
332.9	585.01
333.267	524
333.634	621.17
334.001	585.01
334.368	598.57
334.735	492.36
335.102	582.75
335.469	582.75
335.836	524
336.203	553.38
336.57	607.61
336.937	528.52
337.304	596.31
337.67	476.54
338.037	616.65
338.404	555.64
338.771	596.31
339.137	614.39
339.504	546.6
339.87	648.29
340.237	578.23
340.604	634.73
340.97	641.51
341.337	609.87
341.703	682.19
342.069	553.38
342.436	512.7
342.802	655.07
343.169	636.99
343.535	594.05
343.901	618.91
344.267	612.13
344.634	623.43
345	616.65
345.366	621.17
345.732	591.79
346.098	589.53
346.464	688.96
346.83	673.15
347.196	612.13
347.562	623.43
347.928	734.16
348.294	652.81
348.66	643.77
349.026	659.59
349.392	686.71
349.757	713.82
350.123	707.04
350.489	790.66
350.855	655.07
351.22	657.33
351.586	675.41
351.951	734.16
352.317	731.9
352.683	747.72
353.048	727.38
353.414	700.26
353.779	677.67
354.144	833.59
354.51	759.02
354.875	759.02
355.24	673.15
355.606	691.22
355.971	768.06
356.336	727.38
356.701	747.72
357.067	729.64
357.432	752.24
357.797	729.64
358.162	738.68
358.527	788.4
358.892	790.66
359.257	844.89
359.622	788.4
359.987	734.16
360.352	808.74
360.717	842.63
361.082	811
361.446	838.11
361.811	797.44
362.176	892.35
362.541	840.37
362.905	885.57
363.27	899.13
363.635	998.56
363.999	928.51
364.364	939.81
364.728	935.29
365.093	853.93
365.457	928.51
365.822	917.21
366.186	933.03
366.55	1000.82
366.915	1000.82
367.279	969.18
367.643	1079.92
368.008	1003.08
368.372	1030.2
368.736	1018.9
369.1	1027.94
369.464	1134.15
369.828	1036.98
370.192	1068.62
370.556	1102.51
370.92	1084.43
371.284	1152.23
371.648	1140.93
372.012	1156.75
372.376	1256.18
372.74	1290.08
373.104	1337.54
373.468	1369.17
373.831	1387.25
374.195	1464.09
374.559	1457.31
374.922	1543.18
375.286	1520.58
375.65	1590.64
376.013	1687.81
376.377	1773.68
376.74	1760.12
377.104	1800.8
377.467	2008.7
377.83	2017.74
378.194	2153.33
378.557	2257.29
378.92	2397.39
379.284	2417.73
379.647	2623.38
380.01	2935.23
380.373	3057.26
380.736	3147.66
381.1	3511.49
381.463	3653.86
381.826	3979.27
382.189	4212.04
382.552	4408.64
382.915	4835.75
383.278	5219.92
383.64	5807.47
384.003	6211.98
384.366	6677.51
384.729	7509.12
385.092	7891.04
385.454	8559.94
385.817	9167.84
386.18	10383.63
386.542	11490.94
386.905	12501.08
387.268	13597.1
387.63	15230.96
387.993	16218.5
388.355	18035.4
388.718	19576.6
389.08	21287.29
389.442	23203.63
389.805	25307.53
390.167	27156.07
390.529	30075.76
390.892	33601.09
391.254	35476.75
391.616	37777.26
391.978	42369.22
392.34	46355.56
392.702	48000.72
393.064	51157.69
393.426	53623.17
393.788	55663.79
394.15	57141.72
394.512	58942.8
394.874	60741.62
395.236	62578.86
395.598	64386.73
395.96	65075.97
396.321	65075.97
396.683	65075.97
397.045	65075.97
397.406	65075.97
397.768	65075.97
398.13	65075.97
398.491	65075.97
398.853	65075.97
399.214	65075.97
399.576	65075.97
399.937	65075.97
400.299	65075.97
400.66	65075.97
401.021	65075.97
401.383	65075.97
401.744	65075.97
402.105	65075.97
402.466	65075.97
402.827	65075.97
403.189	65075.97
403.55	65075.97
403.911	65075.97
404.272	65075.97
404.633	65075.97
404.994	65075.97
405.355	65075.97
405.716	65075.97
406.077	65075.97
406.437	65075.97
406.798	65075.97
407.159	65075.97
407.52	65075.97
407.88	65075.97
408.241	65075.97
408.602	65075.97
408.962	65075.97
409.323	65075.97
409.684	65075.97
410.044	65075.97
410.405	65075.97
410.765	65075.97
411.125	65075.97
411.486	65075.97
411.846	65075.97
412.206	65075.97
412.567	65075.97
412.927	65075.97
413.287	65075.97
413.647	65075.97
414.007	65075.97
414.368	65075.97
414.728	65075.97
415.088	65075.97
415.448	65075.97
415.808	65075.97
416.168	65075.97
416.528	65075.97
416.887	65075.97
417.247	65075.97
417.607	65075.97
417.967	65075.97
418.327	65075.97
418.686	65075.97
419.046	65075.97
419.406	65075.97
419.765	65075.97
420.125	65075.97
420.484	65075.97
420.844	65075.97
421.203	65075.97
421.563	64262.43
421.922	64097.47
422.282	62346.1
422.641	60775.52
423	59690.8
423.36	58612.87
423.719	56522.53
424.078	54619.75
424.437	52660.48
424.796	51058.26
425.155	49575.82
425.515	47408.64
425.874	46208.67
426.233	41924.04
426.592	39336.54
426.95	38466.5
427.309	35894.82
427.668	35494.83
428.027	32523.16
428.386	31723.18
428.745	28898.39
429.103	27291.66
429.462	25779.83
429.821	23942.59
430.179	23562.94
430.538	22256.76
430.897	21639.83
431.255	20240.99
431.614	19420.68
431.972	18491.89
432.33	17587.96
432.689	17298.7
433.047	16141.67
433.405	15409.48
433.764	14616.28
434.122	14272.79
434.48	13621.96
434.838	12614.08
435.197	12408.43
435.555	12225.38
435.913	11262.7
436.271	10916.94
436.629	10562.15
436.987	9956.52
437.345	9407.38
437.703	9086.48
438.061	8413.06
438.418	8196.11
438.776	7882
439.134	7712.51
439.492	7269.58
439.849	6847
440.207	6876.37
440.565	6336.27
440.922	6026.68
441.28	5583.75
441.637	5518.22
441.995	5350.99
442.352	4989.42
442.71	4978.12
443.067	4652.7
443.425	4688.86
443.782	4356.67
444.139	4284.35
444.496	3970.23
444.854	3972.49
445.211	3839.16
445.568	3741.99
445.925	3549.91
446.282	3231.27
446.639	3285.51
446.996	3235.79
447.353	3335.22
447.71	3226.75
448.067	3278.73
448.424	3003.03
448.781	2786.08
449.137	2713.77
449.494	2598.52
449.851	2544.28
450.208	2368.02
450.564	2386.1
450.921	2110.4
451.278	2173.67
451.634	2277.62
451.991	2119.44
452.347	2121.7
452.704	2047.12
453.06	1938.65
453.416	1884.41
453.773	1850.52
454.129	1737.52
454.485	1739.78
454.841	1665.21
455.198	1572.56
455.554	1563.52
455.91	1473.13
456.266	1599.68
456.622	1520.58
456.978	1335.28
457.334	1351.09
457.69	1242.62
458.046	1244.88
458.402	1172.57
458.758	1231.32
459.114	1159.01
459.469	1154.49
459.825	1143.19
460.181	1120.59
460.536	1057.32
460.892	996.3
461.248	1046.02
461.603	966.92
461.959	985
462.314	1000.82
462.67	994.04
463.025	939.81
463.38	921.73
463.736	878.79
464.091	926.25
464.446	899.13
464.802	815.52
465.157	899.13
465.512	811
465.867	865.23
466.222	842.63
466.577	831.33
466.932	824.55
467.287	738.68
467.642	824.55
467.997	779.36
468.352	743.2
468.707	729.64
469.062	768.06
469.417	779.36
469.771	770.32
470.126	729.64
470.481	718.34
470.835	720.6
471.19	691.22
471.544	731.9
471.899	731.9
472.253	686.71
472.608	682.19
472.962	643.77
473.317	716.08
473.671	670.89
474.025	618.91
474.38	688.96
474.734	659.59
475.088	686.71
475.442	727.38
475.796	711.56
476.15	636.99
476.504	639.25
476.858	670.89
477.212	618.91
477.566	630.21
477.92	643.77
478.274	636.99
478.628	607.61
478.982	679.93
479.336	643.77
479.689	542.08
480.043	632.47
480.397	625.69
480.75	582.75
481.104	632.47
481.457	657.33
481.811	627.95
482.164	603.09
482.518	614.39
482.871	551.12
483.225	616.65
483.578	562.41
483.931	530.78
484.284	510.44
484.638	564.67
484.991	587.27
485.344	612.13
485.697	623.43
486.05	544.34
486.403	648.29
486.756	569.19
487.109	616.65
487.462	609.87
487.815	555.64
488.168	598.57
488.52	596.31
488.873	612.13
489.226	585.01
489.579	548.86
489.931	546.6
490.284	539.82
490.637	524
490.989	598.57
491.342	591.79
491.694	616.65
492.047	530.78
492.399	533.04
492.751	587.27
493.104	533.04
493.456	508.18
493.808	560.15
494.16	569.19
494.513	657.33
494.865	578.23
495.217	546.6
495.569	517.22
495.921	539.82
496.273	555.64
496.625	589.53
496.977	569.19
497.329	478.8
497.68	614.39
498.032	641.51
498.384	598.57
498.736	571.45
499.087	503.66
499.439	594.05
499.791	639.25
500.142	695.74
500.494	632.47
500.845	603.09
501.197	650.55
501.548	677.67
501.9	688.96
502.251	636.99
502.602	634.73
502.954	636.99
503.305	731.9
503.656	666.37
504.007	713.82
504.358	698
504.709	770.32
505.061	752.24
505.412	655.07
505.763	774.84
506.113	849.41
506.464	783.88
506.815	754.5
507.166	795.18
507.517	795.18
507.868	867.49
508.218	770.32
508.569	851.67
508.92	883.31
509.27	942.07
509.621	842.63
509.971	883.31
510.322	851.67
510.672	865.23
511.023	881.05
511.373	1034.72
511.723	935.29
512.074	923.99
512.424	1079.92
512.774	1014.38
513.124	996.3
513.475	969.18
513.825	1003.08
514.175	1086.69
514.525	1032.46
514.875	1127.37
515.225	1077.66
515.575	1190.65
515.924	1136.41
516.274	1174.83
516.624	1210.99
516.974	1177.09
517.324	1188.39
517.673	1161.27
518.023	1136.41
518.373	1258.44
518.722	1251.66
519.072	1235.84
519.421	1373.69
519.771	1380.47
520.12	1391.77
520.469	1405.33
520.819	1441.49
521.168	1425.67
521.517	1443.75
521.867	1543.18
522.216	1495.72
522.565	1595.16
522.914	1416.63
523.263	1495.72
523.612	1439.23
523.961	1540.92
524.31	1577.08
524.659	1552.22
525.008	1570.3
525.357	1638.09
525.705	1615.49
526.054	1586.12
526.403	1610.97
526.752	1723.97
527.1	1690.07
527.449	1599.68
527.797	1581.6
528.146	1662.95
528.495	1742.04
528.843	1744.3
529.191	1676.51
529.54	1665.21
529.888	1696.85
530.236	1771.42
530.585	1805.32
530.933	1599.68
531.281	1696.85
531.629	1701.37
531.977	1787.24
532.325	1784.98
532.673	1719.45
533.021	1809.84
533.369	1836.96
533.717	1735.27
534.065	1769.16
534.413	1755.6
534.761	1827.92
535.108	1678.77
535.456	1873.11
535.804	1864.08
536.151	1873.11
536.499	1823.4
536.847	1816.62
537.194	1834.7
537.542	1812.1
537.889	1723.97
538.236	1868.59
538.584	1864.08
538.931	1841.48
539.278	1805.32
539.626	1907.01
539.973	1836.96
540.32	1836.96
540.667	1882.15
541.014	1974.81
541.361	1859.56
541.708	1805.32
542.055	1821.14
542.402	1805.32
542.749	1859.56
543.096	1787.24
543.443	1866.34
543.789	1895.71
544.136	1852.78
544.483	1936.39
544.83	1861.82
545.176	1807.58
545.523	1868.59
545.869	1839.22
546.216	1814.36
546.562	1823.4
546.909	1784.98
547.255	1809.84
547.601	1794.02
547.948	1830.18
548.294	1886.67
548.64	1710.41
548.986	1805.32
549.332	1796.28
549.678	1868.59
550.025	1830.18
550.371	1859.56
550.717	1816.62
551.062	1927.35
551.408	1859.56
551.754	1769.16
552.1	1787.24
552.446	1852.78
552.792	1796.28
553.137	1911.53
553.483	1787.24
553.828	1800.8
554.174	1821.14
554.52	1812.1
554.865	1827.92
555.211	1814.36
555.556	1911.53
555.901	1877.63
556.247	1893.45
556.592	1904.75
556.937	1952.21
557.282	1846
557.628	1760.12
557.973	1717.19
558.318	1836.96
558.663	1891.19
559.008	1913.79
559.353	1846
559.698	1911.53
560.043	1803.06
560.388	1850.52
560.732	1789.5
561.077	1830.18
561.422	1834.7
561.766	1771.42
562.111	1913.79
562.456	1956.73
562.8	1857.3
563.145	1870.85
563.489	1882.15
563.834	1913.79
564.178	1857.3
564.523	1938.65
564.867	1805.32
565.211	1873.11
565.555	1864.08
565.9	1988.37
566.244	1836.96
566.588	1918.31
566.932	1803.06
567.276	1988.37
567.62	1929.61
567.964	1981.59
568.308	1884.41
568.652	1940.91
568.996	1995.15
569.339	1981.59
569.683	1875.37
570.027	1830.18
570.371	1888.93
570.714	1907.01
571.058	2008.7
571.401	1947.69
571.745	1902.49
572.088	1934.13
572.432	1904.75
572.775	1907.01
573.118	1909.27
573.462	1970.29
573.805	1968.03
574.148	1965.77
574.491	1929.61
574.835	1907.01
575.178	1918.31
575.521	1965.77
575.864	2024.52
576.207	1891.19
576.55	1834.7
576.892	1909.27
577.235	1866.34
577.578	2004.18
577.921	1958.99
578.264	1931.87
578.606	1832.44
578.949	1997.41
579.292	1891.19
579.634	1848.26
579.977	1796.28
580.319	1884.41
580.662	1947.69
581.004	1843.74
581.346	1791.76
581.689	1723.97
582.031	1766.9
582.373	1791.76
582.715	1938.65
583.057	1769.16
583.4	1805.32
583.742	1800.8
584.084	1775.94
584.426	1751.08
584.768	1832.44
585.109	1694.59
585.451	1737.52
585.793	1629.05
586.135	1662.95
586.477	1665.21
586.818	1762.38
587.16	1653.91
587.502	1613.23
587.843	1572.56
588.185	1638.09
588.526	1714.93
588.868	1581.6
589.209	1608.71
589.55	1610.97
589.892	1586.12
590.233	1529.62
590.574	1595.16
590.915	1606.45
591.257	1493.46
591.598	1459.57
591.939	1486.68
592.28	1479.9
592.621	1412.11
592.962	1414.37
593.303	1355.61
593.643	1328.5
593.984	1398.55
594.325	1396.29
594.666	1446.01
595.006	1357.87
595.347	1394.03
595.688	1305.9
596.028	1403.07
596.369	1312.68
596.709	1287.82
597.05	1339.8
597.39	1319.46
597.73	1238.1
598.071	1258.44
598.411	1226.8
598.751	1267.48
599.091	1258.44
599.431	1213.24
599.772	1240.36
600.112	1154.49
600.452	1113.81
600.792	1220.02
601.132	1276.52
601.471	1093.47
601.811	1177.09
602.151	1165.79
602.491	1199.69
602.831	1249.4
603.17	1143.19
603.51	1152.23
603.849	1165.79
604.189	1174.83
604.528	1131.89
604.868	1079.92
605.207	1122.85
605.547	1122.85
605.886	1057.32
606.225	1082.17
606.565	1041.5
606.904	1073.14
607.243	1075.4
607.582	1039.24
607.921	996.3
608.26	1046.02
608.599	1012.12
608.938	1145.45
609.277	1018.9
609.616	1068.62
609.955	1025.68
610.293	1023.42
610.632	1030.2
610.971	973.7
611.309	1023.42
611.648	1046.02
611.987	1012.12
612.325	957.88
612.664	985
613.002	946.59
613.34	933.03
613.679	1005.34
614.017	966.92
614.355	946.59
614.694	944.33
615.032	942.07
615.37	872.01
615.708	1000.82
616.046	928.51
616.384	905.91
616.722	962.4
617.06	905.91
617.398	946.59
617.736	901.39
618.073	948.85
618.411	844.89
618.749	930.77
619.086	883.31
619.424	1075.4
619.762	903.65
620.099	876.53
620.437	908.17
620.774	881.05
621.112	856.19
621.449	946.59
621.786	935.29
622.123	908.17
622.461	896.87
622.798	930.77
623.135	881.05
623.472	844.89
623.809	872.01
624.146	892.35
624.483	896.87
624.82	926.25
625.157	777.1
625.494	926.25
625.83	912.69
626.167	842.63
626.504	901.39
626.841	813.26
627.177	768.06
627.514	842.63
627.85	860.71
628.187	838.11
628.523	885.57
628.86	826.81
629.196	860.71
629.532	813.26
629.869	786.14
630.205	856.19
630.541	892.35
630.877	914.95
631.213	849.41
631.549	781.62
631.885	745.46
632.221	874.27
632.557	754.5
632.893	806.48
633.229	770.32
633.564	770.32
633.9	759.02
634.236	763.54
634.572	675.41
634.907	786.14
635.243	765.8
635.578	811
635.914	799.7
636.249	770.32
636.585	756.76
636.92	693.48
637.255	684.45
637.59	743.2
637.926	765.8
638.261	731.9
638.596	752.24
638.931	788.4
639.266	691.22
639.601	722.86
639.936	731.9
640.271	747.72
640.606	713.82
640.94	716.08
641.275	684.45
641.61	639.25
641.945	679.93
642.279	720.6
642.614	679.93
642.948	666.37
643.283	736.42
643.617	655.07
643.952	614.39
644.286	657.33
644.62	616.65
644.955	564.67
645.289	573.71
645.623	580.49
645.957	585.01
646.291	609.87
646.625	594.05
646.959	648.29
647.293	600.83
647.627	562.41
647.961	589.53
648.295	575.97
648.629	600.83
648.962	519.48
649.296	634.73
649.63	625.69
649.963	533.04
650.297	587.27
650.63	659.59
650.964	596.31
651.297	621.17
651.631	569.19
651.964	512.7
652.297	575.97
652.631	553.38
652.964	582.75
653.297	544.34
653.63	521.74
653.963	575.97
654.296	524
654.629	546.6
654.962	537.56
655.295	555.64
655.628	551.12
655.961	492.36
656.293	474.28
656.626	609.87
656.959	476.54
657.291	514.96
657.624	535.3
657.956	517.22
658.289	458.46
658.621	462.98
658.954	469.76
659.286	571.45
659.618	537.56
659.95	496.88
660.283	512.7
660.615	526.26
660.947	492.36
661.279	546.6
661.611	492.36
661.943	485.58
662.275	390.67
662.607	526.26
662.939	483.32
663.27	442.64
663.602	474.28
663.934	546.6
664.266	474.28
664.597	490.1
664.929	444.9
665.26	447.16
665.592	474.28
665.923	478.8
666.255	401.97
666.586	517.22
666.917	460.72
667.248	485.58
667.58	449.42
667.911	481.06
668.242	485.58
668.573	435.86
668.904	465.24
669.235	449.42
669.566	481.06
669.897	447.16
670.228	422.31
670.558	483.32
670.889	465.24
671.22	381.63
671.551	465.24
671.881	411.01
672.212	408.75
672.542	368.07
672.873	476.54
673.203	386.15
673.533	408.75
673.864	458.46
674.194	433.6
674.524	390.67
674.855	390.67
675.185	424.57
675.515	429.08
675.845	449.42
676.175	372.59
676.505	404.23
676.835	435.86
677.165	435.86
677.494	440.38
677.824	460.72
678.154	379.37
678.484	411.01
678.813	478.8
679.143	381.63
679.472	388.41
679.802	431.34
680.131	399.71
680.461	377.11
680.79	438.12
681.119	372.59
681.449	415.53
681.778	354.51
682.107	422.31
682.436	386.15
682.765	302.53
683.094	453.94
683.423	316.09
683.752	390.67
684.081	336.43
684.41	417.79
684.739	368.07
685.067	386.15
685.396	343.21
685.725	377.11
686.053	377.11
686.382	390.67
686.711	370.33
687.039	368.07
687.367	397.45
687.696	331.91
688.024	420.05
688.352	374.85
688.681	365.81
689.009	368.07
689.337	331.91
689.665	395.19
689.993	354.51
690.321	365.81
690.649	288.98
690.977	327.39
691.305	300.27
691.633	291.24
691.961	343.21
692.288	404.23
692.616	300.27
692.944	388.41
693.271	401.97
693.599	388.41
693.926	365.81
694.254	395.19
694.581	352.25
694.908	325.13
695.236	444.9
695.563	374.85
695.89	354.51
696.217	327.39
696.544	388.41
696.871	322.87
697.198	370.33
697.525	363.55
697.852	302.53
698.179	302.53
698.506	363.55
698.833	298.01
699.16	363.55
699.486	383.89
699.813	365.81
700.139	379.37
700.466	309.31
700.793	349.99
701.119	298.01
701.445	381.63
701.772	386.15
702.098	338.69
702.424	361.29
702.75	311.57
703.077	284.46
703.403	345.47
703.729	356.77
704.055	356.77
704.381	395.19
704.707	311.57
705.033	322.87
705.358	273.16
705.684	300.27
706.01	291.24
706.336	338.69
706.661	349.99
706.987	372.59
707.312	302.53
707.638	325.13
707.963	322.87
708.289	354.51
708.614	322.87
708.939	313.83
709.265	316.09
709.59	291.24
709.915	327.39
710.24	354.51
710.565	349.99
710.89	295.75
711.215	295.75
711.54	349.99
711.865	298.01
712.19	347.73
712.515	320.61
712.839	347.73
713.164	390.67
713.489	363.55
713.813	309.31
714.138	302.53
714.462	343.21
714.787	336.43
715.111	390.67
715.435	279.94
715.76	318.35
716.084	273.16
716.408	295.75
716.732	320.61
717.056	392.93
717.381	356.77
717.705	293.5
718.028	359.03
718.352	295.75
718.676	304.79
719	282.2
719.324	279.94
719.648	325.13
719.971	363.55
720.295	241.52
720.618	365.81
720.942	343.21
721.265	279.94
721.589	386.15
721.912	284.46
722.236	250.56
722.559	264.12
722.882	340.95
723.205	365.81
723.528	322.87
723.851	329.65
724.174	279.94
724.497	377.11
724.82	291.24
725.143	307.05
725.466	316.09
725.789	309.31
726.112	268.64
726.434	298.01
726.757	282.2
727.08	327.39
727.402	286.72
727.725	234.74
728.047	304.79
728.37	279.94
728.692	352.25
729.014	316.09
729.336	325.13
729.659	277.68
729.981	302.53
730.303	359.03
730.625	309.31
730.947	288.98
731.269	311.57
731.591	334.17
731.913	359.03
732.235	302.53
732.556	279.94
732.878	322.87
733.2	277.68
733.521	313.83
733.843	266.38
734.164	277.68
734.486	259.6
734.807	316.09
735.129	295.75
735.45	257.34
735.771	221.18
736.092	302.53
736.414	295.75
736.735	331.91
737.056	417.79
737.377	255.08
737.698	227.96
738.019	390.67
738.34	413.27
738.66	343.21
738.981	331.91
739.302	340.95
739.623	352.25
739.943	354.51
740.264	345.47
740.584	300.27
740.905	338.69
741.225	343.21
741.546	311.57
741.866	311.57
742.186	313.83
742.507	293.5
742.827	270.9
743.147	298.01
743.467	325.13
743.787	298.01
744.107	261.86
744.427	343.21
744.747	275.42
745.067	307.05
745.386	311.57
745.706	347.73
746.026	300.27
746.346	298.01
746.665	304.79
746.985	277.68
747.304	255.08
747.624	307.05
747.943	363.55
748.262	288.98
748.582	266.38
748.901	230.22
749.22	370.33
749.539	270.9
749.858	288.98
750.177	316.09
750.496	246.04
750.815	311.57
751.134	246.04
751.453	252.82
751.772	259.6
752.09	241.52
752.409	270.9
752.728	234.74
753.046	259.6
753.365	322.87
753.683	338.69
754.002	300.27
754.32	230.22
754.639	298.01
754.957	277.68
755.275	266.38
755.593	327.39
755.911	218.92
756.23	295.75
756.548	327.39
756.866	293.5
757.183	320.61
757.501	232.48
757.819	255.08
758.137	230.22
758.455	322.87
758.772	250.56
759.09	302.53
759.408	248.3
759.725	345.47
760.043	336.43
760.36	268.64
760.677	282.2
760.995	316.09
761.312	320.61
761.629	255.08
761.946	304.79
762.264	293.5
762.581	293.5
762.898	320.61
763.215	336.43
763.532	255.08
763.848	268.64
764.165	313.83
764.482	246.04
764.799	334.17
765.115	250.56
765.432	322.87
765.749	336.43
766.065	298.01
766.382	257.34
766.698	295.75
767.014	300.27
767.331	327.39
767.647	275.42
767.963	273.16
768.279	246.04
768.595	316.09
768.911	309.31
769.227	300.27
769.543	279.94
769.859	270.9
770.175	286.72
770.491	246.04
770.807	300.27
771.122	293.5
771.438	279.94
771.754	313.83
772.069	218.92
772.385	257.34
772.7	227.96
773.016	270.9
773.331	293.5
773.646	214.4
773.961	275.42
774.277	248.3
774.592	250.56
774.907	291.24
775.222	277.68
775.537	270.9
775.852	270.9
776.167	257.34
776.482	223.44
776.796	286.72
777.111	257.34
777.426	293.5
777.74	318.35
778.055	259.6
778.369	313.83
778.684	252.82
778.998	309.31
779.313	320.61
779.627	270.9
779.941	270.9
780.255	237
780.57	234.74
780.884	239.26
781.198	241.52
781.512	288.98
781.826	377.11
782.14	212.14
782.453	311.57
782.767	252.82
783.081	230.22
783.395	266.38
783.708	322.87
784.022	273.16
784.335	246.04
784.649	241.52
784.962	302.53
785.276	329.65
785.589	313.83
785.902	291.24
786.216	261.86
786.529	266.38
786.842	230.22
787.155	221.18
787.468	291.24
787.781	273.16
788.094	322.87
788.407	293.5
788.72	291.24
789.032	248.3
789.345	282.2
789.658	334.17
789.97	282.2
790.283	241.52
790.595	277.68
790.908	334.17
791.22	320.61
791.532	279.94
791.845	266.38
792.157	347.73
792.469	286.72
792.781	279.94
793.093	268.64
793.405	331.91
793.717	261.86
794.029	223.44
794.341	295.75
794.653	282.2
794.965	243.78
795.276	291.24
795.588	218.92
795.9	273.16
796.211	284.46
796.523	316.09
796.834	259.6
797.146	270.9
797.457	302.53
797.768	295.75
798.08	248.3
798.391	232.48
798.702	302.53
799.013	270.9
799.324	264.12
799.635	261.86
799.946	266.38
800.257	311.57
800.568	257.34
800.878	279.94
801.189	343.21
801.5	311.57
801.81	252.82
802.121	273.16
802.431	248.3
802.742	252.82
803.052	270.9
803.363	266.38
803.673	300.27
803.983	286.72
804.293	257.34
804.603	268.64
804.913	223.44
805.224	300.27
805.533	311.57
805.843	207.62
806.153	277.68
806.463	309.31
806.773	232.48
807.083	243.78
807.392	182.76
807.702	295.75
808.011	279.94
808.321	275.42
808.63	329.65
808.94	325.13
809.249	311.57
809.558	270.9
809.868	239.26
810.177	291.24
810.486	295.75
810.795	252.82
811.104	212.14
811.413	282.2
811.722	246.04
812.031	284.46
812.339	293.5
812.648	273.16
812.957	284.46
813.266	298.01
813.574	232.48
813.883	291.24
814.191	302.53
814.5	241.52
814.808	273.16
815.116	304.79
815.424	311.57
815.733	241.52
816.041	284.46
816.349	293.5
816.657	255.08
816.965	257.34
817.273	288.98
817.581	309.31
817.889	248.3
818.196	234.74
818.504	266.38
818.812	234.74
819.12	277.68
819.427	304.79
819.735	241.52
820.042	259.6
820.349	264.12
820.657	266.38
820.964	227.96
821.271	273.16
821.579	230.22
821.886	268.64
822.193	246.04
822.5	295.75
822.807	261.86
823.114	295.75
823.421	259.6
823.727	284.46
824.034	212.14
824.341	277.68
824.648	257.34
824.954	279.94
825.261	320.61
825.567	252.82
825.874	322.87
826.18	259.6
826.486	286.72
826.793	288.98
827.099	252.82
827.405	237
827.711	255.08
828.017	268.64
828.323	288.98
828.629	282.2
828.935	293.5
829.241	286.72
829.547	270.9
829.852	207.62
830.158	259.6
830.464	273.16
830.769	279.94
831.075	261.86
831.38	275.42
831.686	255.08
831.991	343.21
832.296	338.69
832.601	273.16
832.907	257.34
833.212	298.01
833.517	241.52
833.822	230.22
834.127	293.5
834.432	288.98
834.737	288.98
835.041	277.68
835.346	212.14
835.651	196.32
835.956	293.5
836.26	300.27
836.565	320.61
836.869	309.31
837.174	273.16
837.478	282.2
837.782	264.12
838.087	241.52
838.391	268.64
838.695	273.16
838.999	268.64
839.303	288.98
839.607	311.57
839.911	261.86
840.215	255.08
840.519	302.53
840.822	316.09
841.126	372.59
841.43	316.09
841.733	329.65
842.037	257.34
842.34	270.9
842.644	252.82
842.947	318.35
843.251	230.22
843.554	270.9
843.857	225.7
844.16	279.94
844.463	275.42
844.766	275.42
845.069	284.46
845.372	311.57
845.675	275.42
845.978	286.72
846.281	320.61
846.583	300.27
846.886	257.34
847.189	255.08
847.491	318.35
847.794	227.96
848.096	268.64
848.399	261.86
848.701	304.79
849.003	307.05
849.305	320.61
849.608	261.86
849.91	264.12
850.212	320.61
850.514	230.22
850.816	300.27
851.118	234.74
851.419	234.74
851.721	225.7
852.023	252.82
852.325	264.12
852.626	261.86
852.928	225.7
853.229	266.38
853.531	336.43
853.832	270.9
854.133	252.82
854.435	275.42
854.736	239.26
855.037	232.48
855.338	277.68
855.639	221.18
855.94	327.39
856.241	234.74
856.542	264.12
856.843	259.6
857.144	266.38
857.444	259.6
857.745	268.64
858.046	361.29
858.346	255.08
858.647	255.08
858.947	277.68
859.247	255.08
859.548	302.53
859.848	318.35
860.148	279.94
860.448	268.64
860.749	293.5
861.049	252.82
861.349	261.86
861.648	243.78
861.948	252.82
862.248	275.42
862.548	209.88
862.848	279.94
863.147	252.82
863.447	316.09
863.746	304.79
864.046	268.64
864.345	295.75
864.645	268.64
864.944	255.08
865.243	322.87
865.542	230.22
865.842	284.46
866.141	264.12
866.44	352.25
866.739	266.38
867.038	255.08
867.337	209.88
867.635	302.53
867.934	338.69
868.233	266.38
868.531	257.34
868.83	246.04
869.129	295.75
869.427	246.04
869.725	268.64
870.024	302.53
870.322	293.5
870.62	298.01
870.918	243.78
871.217	252.82
871.515	336.43
871.813	309.31
872.111	221.18
872.409	273.16
872.706	261.86
873.004	261.86
873.302	241.52
873.6	345.47
873.897	259.6
874.195	239.26
874.492	291.24
874.79	270.9
875.087	302.53
875.384	264.12
875.682	277.68
875.979	277.68
876.276	227.96
876.573	291.24
876.87	291.24
877.167	291.24
