Data from PL_2polymer_F8BT_MEHPPV_USB2H096331_0093.txt Node
Date: Tue Dec 15 16:23:49 CET 2020
User: spadmin
Spectrometer: USB2+H09633
Trigger mode: 0
Integration Time (sec): 1.000000E-2
Scans to average: 1
Electric dark correction enabled: true
Nonlinearity correction enabled: false
Boxcar width: 0
XAxis mode: Wavelengths
Number of Pixels in Spectrum: 2048
>>>>>Begin Spectral Data<<<<<
174.027	-60.31
174.405	-60.31
174.783	-60.31
175.162	-100.99
175.54	-82.91
175.918	-82.91
176.296	-146.18
176.674	-96.47
177.052	-55.79
177.43	-37.71
177.808	-80.65
178.186	-49.01
178.564	-26.41
178.942	-37.71
179.32	-42.23
179.698	95.62
180.076	21.04
180.453	79.8
180.831	100.14
181.209	75.28
181.587	113.7
181.965	86.58
182.342	145.34
182.72	188.27
183.098	206.35
183.475	260.59
183.853	260.59
184.231	267.37
184.608	260.59
184.986	278.66
185.363	253.81
185.741	332.9
186.118	262.85
186.496	314.82
186.873	373.58
187.251	326.12
187.628	299
188.006	312.56
188.383	301.26
188.76	310.3
189.138	393.92
189.515	308.04
189.892	326.12
190.27	319.34
190.647	360.02
191.024	321.6
191.401	301.26
191.778	314.82
192.155	332.9
192.533	371.32
192.91	384.88
193.287	341.94
193.664	308.04
194.041	294.48
194.418	330.64
194.795	292.22
195.172	253.81
195.549	330.64
195.926	357.76
196.302	305.78
196.679	274.15
197.056	382.62
197.433	289.96
197.81	312.56
198.187	287.7
198.563	267.37
198.94	213.13
199.317	251.55
199.693	353.24
200.07	308.04
200.447	294.48
200.823	330.64
201.2	314.82
201.576	310.3
201.953	330.64
202.329	348.72
202.706	276.41
203.082	373.58
203.459	317.08
203.835	323.86
204.212	341.94
204.588	353.24
204.964	262.85
205.341	292.22
205.717	344.2
206.093	296.74
206.469	278.66
206.846	350.98
207.222	308.04
207.598	360.02
207.974	332.9
208.35	353.24
208.726	326.12
209.102	317.08
209.479	339.68
209.855	319.34
210.231	337.42
210.607	312.56
210.982	265.11
211.358	337.42
211.734	378.1
212.11	283.18
212.486	285.44
212.862	348.72
213.238	301.26
213.614	332.9
213.989	344.2
214.365	287.7
214.741	369.06
215.116	314.82
215.492	371.32
215.868	360.02
216.243	294.48
216.619	287.7
216.995	301.26
217.37	274.15
217.746	337.42
218.121	375.84
218.497	344.2
218.872	323.86
219.247	319.34
219.623	308.04
219.998	310.3
220.374	332.9
220.749	346.46
221.124	330.64
221.499	346.46
221.875	265.11
222.25	326.12
222.625	364.54
223	366.8
223.376	321.6
223.751	326.12
224.126	360.02
224.501	321.6
224.876	310.3
225.251	373.58
225.626	346.46
226.001	357.76
226.376	421.03
226.751	355.5
227.126	360.02
227.501	335.16
227.875	314.82
228.25	299
228.625	362.28
229	355.5
229.375	301.26
229.749	353.24
230.124	362.28
230.499	319.34
230.873	274.15
231.248	360.02
231.623	373.58
231.997	344.2
232.372	355.5
232.746	287.7
233.121	355.5
233.495	353.24
233.87	360.02
234.244	355.5
234.619	393.92
234.993	391.66
235.367	317.08
235.742	387.14
236.116	346.46
236.49	355.5
236.865	378.1
237.239	303.52
237.613	314.82
237.987	407.48
238.361	366.8
238.736	364.54
239.11	332.9
239.484	380.36
239.858	314.82
240.232	371.32
240.606	332.9
240.98	355.5
241.354	391.66
241.728	339.68
242.102	362.28
242.475	344.2
242.849	371.32
243.223	360.02
243.597	400.7
243.971	328.38
244.344	387.14
244.718	400.7
245.092	321.6
245.466	341.94
245.839	411.99
246.213	339.68
246.586	380.36
246.96	362.28
247.334	378.1
247.707	414.25
248.081	369.06
248.454	319.34
248.828	384.88
249.201	387.14
249.574	357.76
249.948	375.84
250.321	400.7
250.694	355.5
251.068	332.9
251.441	360.02
251.814	317.08
252.187	348.72
252.561	382.62
252.934	326.12
253.307	369.06
253.68	289.96
254.053	362.28
254.426	369.06
254.799	350.98
255.172	378.1
255.545	421.03
255.918	391.66
256.291	402.96
256.664	360.02
257.037	296.74
257.41	312.56
257.782	348.72
258.155	373.58
258.528	457.19
258.901	448.15
259.273	350.98
259.646	405.22
260.019	387.14
260.391	396.18
260.764	432.33
261.137	436.85
261.509	369.06
261.882	341.94
262.254	328.38
262.627	355.5
262.999	319.34
263.372	375.84
263.744	344.2
264.116	355.5
264.489	411.99
264.861	441.37
265.233	391.66
265.606	407.48
265.978	384.88
266.35	355.5
266.722	375.84
267.094	427.81
267.467	391.66
267.839	380.36
268.211	391.66
268.583	416.51
268.955	344.2
269.327	448.15
269.699	373.58
270.071	330.64
270.443	355.5
270.815	350.98
271.186	414.25
271.558	398.44
271.93	398.44
272.302	369.06
272.674	337.42
273.045	398.44
273.417	405.22
273.789	364.54
274.16	398.44
274.532	384.88
274.904	445.89
275.275	466.23
275.647	423.29
276.018	450.41
276.39	402.96
276.761	411.99
277.133	341.94
277.504	373.58
277.875	411.99
278.247	500.13
278.618	443.63
278.989	441.37
279.361	427.81
279.732	407.48
280.103	427.81
280.474	418.77
280.846	430.07
281.217	393.92
281.588	387.14
281.959	337.42
282.33	416.51
282.701	355.5
283.072	366.8
283.443	425.55
283.814	407.48
284.185	427.81
284.556	436.85
284.927	452.67
285.297	400.7
285.668	434.59
286.039	362.28
286.41	405.22
286.781	430.07
287.151	393.92
287.522	362.28
287.893	427.81
288.263	409.73
288.634	436.85
289.004	384.88
289.375	418.77
289.745	434.59
290.116	450.41
290.486	445.89
290.857	441.37
291.227	391.66
291.598	441.37
291.968	378.1
292.338	411.99
292.709	425.55
293.079	407.48
293.449	482.05
293.819	382.62
294.189	378.1
294.56	400.7
294.93	418.77
295.3	398.44
295.67	445.89
296.04	452.67
296.41	443.63
296.78	457.19
297.15	473.01
297.52	416.51
297.89	405.22
298.259	423.29
298.629	491.09
298.999	493.35
299.369	488.83
299.739	486.57
300.108	398.44
300.478	459.45
300.848	407.48
301.217	443.63
301.587	513.69
301.957	482.05
302.326	509.17
302.696	398.44
303.065	448.15
303.435	522.73
303.804	509.17
304.174	362.28
304.543	479.79
304.912	448.15
305.282	387.14
305.651	486.57
306.02	515.95
306.39	457.19
306.759	454.93
307.128	475.27
307.497	468.49
307.866	457.19
308.235	454.93
308.604	454.93
308.974	506.91
309.343	477.53
309.712	500.13
310.08	409.73
310.449	518.21
310.818	452.67
311.187	448.15
311.556	502.39
311.925	466.23
312.294	459.45
312.662	511.43
313.031	484.31
313.4	552.1
313.769	473.01
314.137	529.51
314.506	461.71
314.874	504.65
315.243	504.65
315.612	484.31
315.98	534.03
316.349	601.82
316.717	543.06
317.085	473.01
317.454	463.97
317.822	443.63
318.191	488.83
318.559	470.75
318.927	423.29
319.295	565.66
319.664	502.39
320.032	443.63
320.4	529.51
320.768	488.83
321.136	531.77
321.504	567.92
321.872	463.97
322.24	482.05
322.608	518.21
322.976	500.13
323.344	466.23
323.712	515.95
324.08	515.95
324.448	497.87
324.816	509.17
325.183	549.84
325.551	497.87
325.919	475.27
326.287	506.91
326.654	524.99
327.022	491.09
327.389	520.47
327.757	527.25
328.125	586
328.492	518.21
328.86	556.62
329.227	520.47
329.594	552.1
329.962	536.29
330.329	495.61
330.697	538.55
331.064	477.53
331.431	504.65
331.798	561.14
332.166	513.69
332.533	599.56
332.9	581.48
333.267	504.65
333.634	547.58
334.001	579.22
334.368	606.34
334.735	615.38
335.102	610.86
335.469	527.25
335.836	529.51
336.203	592.78
336.57	658.32
336.937	554.36
337.304	592.78
337.67	511.43
338.037	536.29
338.404	536.29
338.771	604.08
339.137	617.64
339.504	556.62
339.87	581.48
340.237	640.24
340.604	619.9
340.97	579.22
341.337	637.98
341.703	572.44
342.069	588.26
342.436	622.16
342.802	610.86
343.169	613.12
343.535	601.82
343.901	540.8
344.267	604.08
344.634	637.98
345	619.9
345.366	608.6
345.732	644.76
346.098	615.38
346.464	574.7
346.83	635.72
347.196	626.68
347.562	644.76
347.928	712.55
348.294	651.54
348.66	644.76
349.026	680.91
349.392	626.68
349.757	628.94
350.123	728.37
350.489	640.24
350.855	631.2
351.22	689.95
351.586	676.39
351.951	753.23
352.317	739.67
352.683	683.17
353.048	735.15
353.414	635.72
353.779	685.43
354.144	671.87
354.51	671.87
354.875	678.65
355.24	750.97
355.606	662.84
355.971	696.73
356.336	762.27
356.701	730.63
357.067	735.15
357.432	807.46
357.797	755.49
358.162	775.83
358.527	832.32
358.892	778.09
359.257	827.8
359.622	782.61
359.987	766.79
360.352	791.65
360.717	839.1
361.082	875.26
361.446	773.57
361.811	866.22
362.176	920.46
362.541	886.56
362.905	891.08
363.27	832.32
363.635	952.09
363.999	988.25
364.364	897.86
364.728	893.34
365.093	972.43
365.457	900.12
365.822	931.76
366.186	922.72
366.55	976.95
366.915	985.99
367.279	927.24
367.643	1004.07
368.008	1042.49
368.372	1056.05
368.736	1083.16
369.1	1130.62
369.464	1083.16
369.828	1130.62
370.192	1146.44
370.556	1144.18
370.92	1166.78
371.284	1169.04
371.648	1257.17
372.012	1241.35
372.376	1336.26
372.74	1322.71
373.104	1431.18
373.468	1399.54
373.831	1410.84
374.195	1532.87
374.559	1571.29
374.922	1496.71
375.286	1514.79
375.65	1492.19
376.013	1609.7
376.377	1670.72
376.74	1749.81
377.104	1817.61
377.467	1932.86
377.83	2018.73
378.194	2104.61
378.557	2251.49
378.92	2405.16
379.284	2556.57
379.647	2694.42
380.01	2755.44
380.373	2904.58
380.736	3031.13
381.1	3530.56
381.463	3758.8
381.826	3959.92
382.189	4249.18
382.552	4554.26
382.915	4863.86
383.278	5141.81
383.64	5657.05
384.003	6215.23
384.366	6786.97
384.729	7489.77
385.092	7880.72
385.454	8472.8
385.817	9577.86
386.18	10380.09
386.542	11487.41
386.905	12610.54
387.268	13869.27
387.63	15523.46
387.993	16172.03
388.355	18007.01
388.718	19690.58
389.08	21383.19
389.442	23360.54
389.805	25518.68
390.167	27251.97
390.529	30192
390.892	34074.39
391.254	35834.79
391.616	38232.47
391.978	42772.46
392.34	46720.38
392.702	48623.16
393.064	51963.18
393.426	54024.14
393.788	55775.51
394.15	57303.15
394.512	59108.76
394.874	61081.59
395.236	62844.25
395.598	64717.65
395.96	65072.44
396.321	65072.44
396.683	65072.44
397.045	65072.44
397.406	65072.44
397.768	65072.44
398.13	65072.44
398.491	65072.44
398.853	65072.44
399.214	65072.44
399.576	65072.44
399.937	65072.44
400.299	65072.44
400.66	65072.44
401.021	65072.44
401.383	65072.44
401.744	65072.44
402.105	65072.44
402.466	65072.44
402.827	65072.44
403.189	65072.44
403.55	65072.44
403.911	65072.44
404.272	65072.44
404.633	65072.44
404.994	65072.44
405.355	65072.44
405.716	65072.44
406.077	65072.44
406.437	65072.44
406.798	65072.44
407.159	65072.44
407.52	65072.44
407.88	65072.44
408.241	65072.44
408.602	65072.44
408.962	65072.44
409.323	65072.44
409.684	65072.44
410.044	65072.44
410.405	65072.44
410.765	65072.44
411.125	65072.44
411.486	65072.44
411.846	65072.44
412.206	65072.44
412.567	65072.44
412.927	65072.44
413.287	65072.44
413.647	65072.44
414.007	65072.44
414.368	65072.44
414.728	65072.44
415.088	65072.44
415.448	65072.44
415.808	65072.44
416.168	65072.44
416.528	65072.44
416.887	65072.44
417.247	65072.44
417.607	65072.44
417.967	65072.44
418.327	65072.44
418.686	65072.44
419.046	65072.44
419.406	65072.44
419.765	65072.44
420.125	65072.44
420.484	65072.44
420.844	65072.44
421.203	65072.44
421.563	64480.37
421.922	64292.8
422.282	62329.01
422.641	61147.12
423	59696.31
423.36	58946.05
423.719	56837.63
424.078	55140.5
424.437	53328.12
424.796	51773.36
425.155	50137.24
425.515	47689.85
425.874	46446.94
426.233	42503.54
426.592	39839.21
426.95	39373.68
427.309	36788.44
427.668	35728.58
428.027	32985.15
428.386	32415.67
428.745	29260.95
429.103	27459.87
429.462	26192.11
429.821	24485.94
430.179	23683.7
430.538	22718.75
430.897	21957.19
431.255	20956.09
431.614	19365.17
431.972	18623.95
432.33	18038.65
432.689	17672.56
433.047	16621.74
433.405	15598.04
433.764	14996.92
434.122	14707.66
434.48	13744.98
434.838	13057.99
435.197	12590.21
435.555	12289.65
435.913	11591.36
436.271	11042.22
436.629	10542.8
436.987	10061.46
437.345	9808.36
437.703	9338.31
438.061	8954.14
438.418	8235.52
438.776	7812.93
439.134	7541.75
439.492	7433.28
439.849	7046.85
440.207	6601.66
440.565	6506.75
440.922	6133.88
441.28	5718.07
441.637	5803.94
441.995	5322.6
442.352	5155.37
442.71	4965.55
443.067	4839
443.425	4493.24
443.782	4328.28
444.139	4362.17
444.496	4237.88
444.854	4032.24
445.211	3756.54
445.568	3894.39
445.925	3537.34
446.282	3401.75
446.639	3392.71
446.996	3302.31
447.353	3322.65
447.71	3148.65
448.067	3001.76
448.424	2940.74
448.781	2888.77
449.137	2766.74
449.494	2674.08
449.851	2538.49
450.208	2407.42
450.564	2389.34
450.921	2256.01
451.278	2145.28
451.634	2280.87
451.991	2118.16
452.347	2219.86
452.704	2075.23
453.06	2016.47
453.416	1878.62
453.773	1835.69
454.129	1822.13
454.485	1645.86
454.841	1659.42
455.198	1564.51
455.554	1616.48
455.91	1505.75
456.266	1508.01
456.622	1489.93
456.978	1329.48
457.334	1291.07
457.69	1343.04
458.046	1259.43
458.402	1245.87
458.758	1130.62
459.114	1180.34
459.469	1144.18
459.825	1022.15
460.181	1146.44
460.536	1074.12
460.892	1114.8
461.248	1044.75
461.603	1019.89
461.959	963.39
462.314	1001.81
462.67	992.77
463.025	985.99
463.38	1015.37
463.736	882.04
464.091	904.64
464.446	882.04
464.802	893.34
465.157	863.96
465.512	818.76
465.867	811.98
466.222	836.84
466.577	870.74
466.932	762.27
467.287	839.1
467.642	705.77
467.997	696.73
468.352	712.55
468.707	689.95
469.062	708.03
469.417	807.46
469.771	744.19
470.126	717.07
470.481	746.45
470.835	703.51
471.19	631.2
471.544	719.33
471.899	680.91
472.253	628.94
472.608	676.39
472.962	678.65
473.317	624.42
473.671	592.78
474.025	683.17
474.38	658.32
474.734	667.36
475.088	674.13
475.442	647.02
475.796	626.68
476.15	665.1
476.504	610.86
476.858	586
477.212	576.96
477.566	619.9
477.92	592.78
478.274	637.98
478.628	579.22
478.982	647.02
479.336	576.96
479.689	604.08
480.043	613.12
480.397	635.72
480.75	581.48
481.104	527.25
481.457	583.74
481.811	624.42
482.164	570.18
482.518	531.77
482.871	574.7
483.225	572.44
483.578	619.9
483.931	518.21
484.284	552.1
484.638	674.13
484.991	536.29
485.344	631.2
485.697	619.9
486.05	518.21
486.403	488.83
486.756	570.18
487.109	506.91
487.462	595.04
487.815	574.7
488.168	588.26
488.52	540.8
488.873	561.14
489.226	531.77
489.579	545.32
489.931	524.99
490.284	452.67
490.637	556.62
490.989	484.31
491.342	527.25
491.694	488.83
492.047	468.49
492.399	520.47
492.751	518.21
493.104	493.35
493.456	461.71
493.808	484.31
494.16	513.69
494.513	468.49
494.865	500.13
495.217	515.95
495.569	509.17
495.921	518.21
496.273	434.59
496.625	531.77
496.977	520.47
497.329	545.32
497.68	482.05
498.032	475.27
498.384	486.57
498.736	448.15
499.087	488.83
499.439	371.32
499.791	500.13
500.142	511.43
500.494	482.05
500.845	484.31
501.197	504.65
501.548	547.58
501.9	524.99
502.251	434.59
502.602	468.49
502.954	439.11
503.305	448.15
503.656	479.79
504.007	463.97
504.358	497.87
504.709	466.23
505.061	522.73
505.412	441.37
505.763	407.48
506.113	479.79
506.464	468.49
506.815	552.1
507.166	430.07
507.517	488.83
507.868	466.23
508.218	482.05
508.569	457.19
508.92	459.45
509.27	423.29
509.621	500.13
509.971	475.27
510.322	477.53
510.672	522.73
511.023	461.71
511.373	495.61
511.723	473.01
512.074	430.07
512.424	473.01
512.774	502.39
513.124	531.77
513.475	579.22
513.825	454.93
514.175	421.03
514.525	520.47
514.875	497.87
515.225	520.47
515.575	491.09
515.924	518.21
516.274	495.61
516.624	473.01
516.974	511.43
517.324	414.25
517.673	407.48
518.023	473.01
518.373	527.25
518.722	452.67
519.072	545.32
519.421	513.69
519.771	502.39
520.12	502.39
520.469	497.87
520.819	445.89
521.168	511.43
521.517	506.91
521.867	511.43
522.216	482.05
522.565	529.51
522.914	497.87
523.263	538.55
523.612	513.69
523.961	509.17
524.31	506.91
524.659	529.51
525.008	468.49
525.357	527.25
525.705	468.49
526.054	468.49
526.403	522.73
526.752	450.41
527.1	513.69
527.449	479.79
527.797	527.25
528.146	436.85
528.495	493.35
528.843	441.37
529.191	509.17
529.54	407.48
529.888	527.25
530.236	518.21
530.585	493.35
530.933	448.15
531.281	502.39
531.629	511.43
531.977	543.06
532.325	470.75
532.673	434.59
533.021	479.79
533.369	513.69
533.717	473.01
534.065	502.39
534.413	436.85
534.761	461.71
535.108	466.23
535.456	400.7
535.804	497.87
536.151	484.31
536.499	475.27
536.847	441.37
537.194	468.49
537.542	425.55
537.889	536.29
538.236	439.11
538.584	479.79
538.931	441.37
539.278	382.62
539.626	409.73
539.973	448.15
540.32	470.75
540.667	387.14
541.014	421.03
541.361	439.11
541.708	411.99
542.055	430.07
542.402	439.11
542.749	373.58
543.096	445.89
543.443	445.89
543.789	396.18
544.136	380.36
544.483	400.7
544.83	407.48
545.176	389.4
545.523	473.01
545.869	443.63
546.216	430.07
546.562	443.63
546.909	488.83
547.255	436.85
547.601	373.58
547.948	418.77
548.294	454.93
548.64	402.96
548.986	425.55
549.332	463.97
549.678	382.62
550.025	443.63
550.371	382.62
550.717	360.02
551.062	418.77
551.408	418.77
551.754	475.27
552.1	466.23
552.446	421.03
552.792	382.62
553.137	391.66
553.483	387.14
553.828	405.22
554.174	411.99
554.52	427.81
554.865	366.8
555.211	418.77
555.556	434.59
555.901	425.55
556.247	369.06
556.592	407.48
556.937	414.25
557.282	380.36
557.628	459.45
557.973	441.37
558.318	400.7
558.663	332.9
559.008	445.89
559.353	301.26
559.698	445.89
560.043	466.23
560.388	418.77
560.732	344.2
561.077	360.02
561.422	366.8
561.766	418.77
562.111	382.62
562.456	443.63
562.8	423.29
563.145	387.14
563.489	450.41
563.834	454.93
564.178	360.02
564.523	398.44
564.867	321.6
565.211	466.23
565.555	439.11
565.9	362.28
566.244	425.55
566.588	382.62
566.932	389.4
567.276	346.46
567.62	371.32
567.964	350.98
568.308	389.4
568.652	382.62
568.996	400.7
569.339	339.68
569.683	366.8
570.027	360.02
570.371	310.3
570.714	402.96
571.058	441.37
571.401	418.77
571.745	454.93
572.088	364.54
572.432	346.46
572.775	409.73
573.118	335.16
573.462	389.4
573.805	409.73
574.148	391.66
574.491	414.25
574.835	409.73
575.178	382.62
575.521	425.55
575.864	364.54
576.207	369.06
576.55	407.48
576.892	382.62
577.235	366.8
577.578	326.12
577.921	326.12
578.264	371.32
578.606	339.68
578.949	348.72
579.292	382.62
579.634	380.36
579.977	323.86
580.319	391.66
580.662	330.64
581.004	305.78
581.346	346.46
581.689	350.98
582.031	443.63
582.373	353.24
582.715	373.58
583.057	341.94
583.4	348.72
583.742	353.24
584.084	332.9
584.426	411.99
584.768	389.4
585.109	414.25
585.451	398.44
585.793	328.38
586.135	357.76
586.477	310.3
586.818	360.02
587.16	364.54
587.502	287.7
587.843	339.68
588.185	339.68
588.526	287.7
588.868	364.54
589.209	362.28
589.55	387.14
589.892	335.16
590.233	344.2
590.574	305.78
590.915	384.88
591.257	319.34
591.598	360.02
591.939	375.84
592.28	380.36
592.621	360.02
592.962	346.46
593.303	335.16
593.643	350.98
593.984	384.88
594.325	344.2
594.666	332.9
595.006	373.58
595.347	450.41
595.688	339.68
596.028	319.34
596.369	308.04
596.709	378.1
597.05	409.73
597.39	328.38
597.73	357.76
598.071	362.28
598.411	425.55
598.751	416.51
599.091	400.7
599.431	364.54
599.772	337.42
600.112	378.1
600.452	323.86
600.792	328.38
601.132	299
601.471	328.38
601.811	366.8
602.151	314.82
602.491	326.12
602.831	391.66
603.17	260.59
603.51	391.66
603.849	310.3
604.189	308.04
604.528	287.7
604.868	369.06
605.207	344.2
605.547	328.38
605.886	378.1
606.225	344.2
606.565	289.96
606.904	310.3
607.243	280.92
607.582	357.76
607.921	287.7
608.26	339.68
608.599	360.02
608.938	339.68
609.277	314.82
609.616	303.52
609.955	285.44
610.293	355.5
610.632	373.58
610.971	287.7
611.309	339.68
611.648	470.75
611.987	348.72
612.325	280.92
612.664	308.04
613.002	382.62
613.34	292.22
613.679	328.38
614.017	287.7
614.355	364.54
614.694	317.08
615.032	319.34
615.37	341.94
615.708	305.78
616.046	310.3
616.384	328.38
616.722	271.89
617.06	301.26
617.398	292.22
617.736	346.46
618.073	321.6
618.411	335.16
618.749	344.2
619.086	380.36
619.424	330.64
619.762	348.72
620.099	317.08
620.437	299
620.774	362.28
621.112	305.78
621.449	364.54
621.786	339.68
622.123	301.26
622.461	339.68
622.798	398.44
623.135	319.34
623.472	362.28
623.809	346.46
624.146	339.68
624.483	321.6
624.82	303.52
625.157	348.72
625.494	289.96
625.83	344.2
626.167	337.42
626.504	269.63
626.841	287.7
627.177	391.66
627.514	341.94
627.85	337.42
628.187	321.6
628.523	346.46
628.86	364.54
629.196	269.63
629.532	278.66
629.869	303.52
630.205	323.86
630.541	319.34
630.877	228.95
631.213	326.12
631.549	235.73
631.885	369.06
632.221	369.06
632.557	350.98
632.893	323.86
633.229	289.96
633.564	360.02
633.9	256.07
634.236	283.18
634.572	289.96
634.907	346.46
635.243	350.98
635.578	262.85
635.914	341.94
636.249	267.37
636.585	280.92
636.92	346.46
637.255	289.96
637.59	341.94
637.926	310.3
638.261	314.82
638.596	249.29
638.931	231.21
639.266	330.64
639.601	344.2
639.936	285.44
640.271	326.12
640.606	317.08
640.94	296.74
641.275	326.12
641.61	294.48
641.945	265.11
642.279	346.46
642.614	337.42
642.948	310.3
643.283	341.94
643.617	387.14
643.952	278.66
644.286	350.98
644.62	328.38
644.955	319.34
645.289	337.42
645.623	249.29
645.957	265.11
646.291	267.37
646.625	301.26
646.959	344.2
647.293	258.33
647.627	303.52
647.961	287.7
648.295	303.52
648.629	251.55
648.962	276.41
649.296	308.04
649.63	323.86
649.963	355.5
650.297	299
650.63	314.82
650.964	283.18
651.297	314.82
651.631	267.37
651.964	346.46
652.297	294.48
652.631	249.29
652.964	308.04
653.297	323.86
653.63	305.78
653.963	366.8
654.296	278.66
654.629	267.37
654.962	294.48
655.295	249.29
655.628	274.15
655.961	357.76
656.293	289.96
656.626	271.89
656.959	299
657.291	271.89
657.624	382.62
657.956	339.68
658.289	339.68
658.621	296.74
658.954	283.18
659.286	283.18
659.618	271.89
659.95	335.16
660.283	283.18
660.615	237.99
660.947	213.13
661.279	323.86
661.611	294.48
661.943	296.74
662.275	299
662.607	328.38
662.939	323.86
663.27	283.18
663.602	287.7
663.934	346.46
664.266	280.92
664.597	265.11
664.929	321.6
665.26	285.44
665.592	339.68
665.923	305.78
666.255	269.63
666.586	296.74
666.917	258.33
667.248	247.03
667.58	280.92
667.911	353.24
668.242	285.44
668.573	317.08
668.904	258.33
669.235	287.7
669.566	305.78
669.897	296.74
670.228	323.86
670.558	289.96
670.889	317.08
671.22	271.89
671.551	308.04
671.881	310.3
672.212	292.22
672.542	299
672.873	253.81
673.203	249.29
673.533	192.79
673.864	292.22
674.194	346.46
674.524	305.78
674.855	310.3
675.185	240.25
675.515	314.82
675.845	303.52
676.175	296.74
676.505	269.63
676.835	289.96
677.165	299
677.494	256.07
677.824	303.52
678.154	310.3
678.484	249.29
678.813	301.26
679.143	296.74
679.472	292.22
679.802	269.63
680.131	294.48
680.461	258.33
680.79	305.78
681.119	280.92
681.449	244.77
681.778	344.2
682.107	249.29
682.436	310.3
682.765	233.47
683.094	213.13
683.423	247.03
683.752	378.1
684.081	265.11
684.41	260.59
684.739	308.04
685.067	278.66
685.396	244.77
685.725	321.6
686.053	262.85
686.382	253.81
686.711	237.99
687.039	296.74
687.367	226.69
687.696	310.3
688.024	296.74
688.352	335.16
688.681	308.04
689.009	323.86
689.337	235.73
689.665	310.3
689.993	319.34
690.321	301.26
690.649	244.77
690.977	330.64
691.305	276.41
691.633	328.38
691.961	240.25
692.288	247.03
692.616	328.38
692.944	276.41
693.271	260.59
693.599	258.33
693.926	314.82
694.254	278.66
694.581	346.46
694.908	262.85
695.236	237.99
695.563	237.99
695.89	283.18
696.217	292.22
696.544	344.2
696.871	278.66
697.198	210.87
697.525	262.85
697.852	285.44
698.179	301.26
698.506	292.22
698.833	299
699.16	341.94
699.486	323.86
699.813	294.48
700.139	219.91
700.466	292.22
700.793	267.37
701.119	292.22
701.445	228.95
701.772	269.63
702.098	262.85
702.424	299
702.75	265.11
703.077	326.12
703.403	226.69
703.729	317.08
704.055	285.44
704.381	274.15
704.707	280.92
705.033	242.51
705.358	274.15
705.684	251.55
706.01	314.82
706.336	265.11
706.661	269.63
706.987	260.59
707.312	258.33
707.638	317.08
707.963	285.44
708.289	314.82
708.614	276.41
708.939	224.43
709.265	240.25
709.59	262.85
709.915	256.07
710.24	310.3
710.565	283.18
710.89	294.48
711.215	303.52
711.54	310.3
711.865	283.18
712.19	274.15
712.515	294.48
712.839	267.37
713.164	267.37
713.489	251.55
713.813	228.95
714.138	260.59
714.462	224.43
714.787	256.07
715.111	269.63
715.435	267.37
715.76	251.55
716.084	235.73
716.408	262.85
716.732	289.96
717.056	283.18
717.381	303.52
717.705	292.22
718.028	308.04
718.352	283.18
718.676	276.41
719	346.46
719.324	285.44
719.648	312.56
719.971	237.99
720.295	283.18
720.618	265.11
720.942	269.63
721.265	292.22
721.589	299
721.912	260.59
722.236	267.37
722.559	244.77
722.882	274.15
723.205	224.43
723.528	296.74
723.851	271.89
724.174	305.78
724.497	249.29
724.82	251.55
725.143	280.92
725.466	237.99
725.789	265.11
726.112	328.38
726.434	283.18
726.757	265.11
727.08	249.29
727.402	226.69
727.725	274.15
728.047	314.82
728.37	228.95
728.692	283.18
729.014	237.99
729.336	308.04
729.659	294.48
729.981	274.15
730.303	240.25
730.625	253.81
730.947	308.04
731.269	292.22
731.591	192.79
731.913	186.01
732.235	289.96
732.556	310.3
732.878	274.15
733.2	296.74
733.521	237.99
733.843	276.41
734.164	213.13
734.486	199.57
734.807	303.52
735.129	260.59
735.45	292.22
735.771	319.34
736.092	260.59
736.414	314.82
736.735	292.22
737.056	276.41
737.377	251.55
737.698	226.69
738.019	271.89
738.34	280.92
738.66	305.78
738.981	217.65
739.302	287.7
739.623	269.63
739.943	303.52
740.264	337.42
740.584	296.74
740.905	360.02
741.225	249.29
741.546	253.81
741.866	237.99
742.186	233.47
742.507	247.03
742.827	373.58
743.147	280.92
743.467	299
743.787	283.18
744.107	267.37
744.427	251.55
744.747	271.89
745.067	247.03
745.386	258.33
745.706	256.07
746.026	287.7
746.346	269.63
746.665	310.3
746.985	226.69
747.304	303.52
747.624	265.11
747.943	289.96
748.262	226.69
748.582	226.69
748.901	240.25
749.22	305.78
749.539	222.17
749.858	267.37
750.177	269.63
750.496	249.29
750.815	249.29
751.134	231.21
751.453	199.57
751.772	226.69
752.09	235.73
752.409	296.74
752.728	292.22
753.046	330.64
753.365	301.26
753.683	289.96
754.002	267.37
754.32	326.12
754.639	219.91
754.957	305.78
755.275	328.38
755.593	305.78
755.911	319.34
756.23	237.99
756.548	256.07
756.866	240.25
757.183	242.51
757.501	317.08
757.819	296.74
758.137	330.64
758.455	274.15
758.772	328.38
759.09	308.04
759.408	226.69
759.725	294.48
760.043	287.7
760.36	278.66
760.677	335.16
760.995	317.08
761.312	242.51
761.629	244.77
761.946	251.55
762.264	278.66
762.581	283.18
762.898	310.3
763.215	235.73
763.532	299
763.848	296.74
764.165	213.13
764.482	280.92
764.799	294.48
765.115	280.92
765.432	287.7
765.749	219.91
766.065	317.08
766.382	296.74
766.698	217.65
767.014	258.33
767.331	204.09
767.647	287.7
767.963	247.03
768.279	301.26
768.595	274.15
768.911	219.91
769.227	269.63
769.543	332.9
769.859	260.59
770.175	213.13
770.491	296.74
770.807	253.81
771.122	226.69
771.438	301.26
771.754	301.26
772.069	265.11
772.385	310.3
772.7	233.47
773.016	222.17
773.331	303.52
773.646	251.55
773.961	217.65
774.277	289.96
774.592	269.63
774.907	267.37
775.222	222.17
775.537	292.22
775.852	222.17
776.167	224.43
776.482	237.99
776.796	289.96
777.111	317.08
777.426	231.21
777.74	292.22
778.055	222.17
778.369	310.3
778.684	278.66
778.998	269.63
779.313	235.73
779.627	244.77
779.941	256.07
780.255	237.99
780.57	267.37
780.884	280.92
781.198	269.63
781.512	276.41
781.826	285.44
782.14	174.71
782.453	262.85
782.767	242.51
783.081	301.26
783.395	251.55
783.708	267.37
784.022	285.44
784.335	308.04
784.649	305.78
784.962	235.73
785.276	317.08
785.589	260.59
785.902	283.18
786.216	314.82
786.529	278.66
786.842	289.96
787.155	283.18
787.468	332.9
787.781	278.66
788.094	308.04
788.407	258.33
788.72	310.3
789.032	310.3
789.345	260.59
789.658	256.07
789.97	269.63
790.283	323.86
790.595	326.12
790.908	244.77
791.22	260.59
791.532	249.29
791.845	217.65
792.157	274.15
792.469	278.66
792.781	265.11
793.093	217.65
793.405	299
793.717	317.08
794.029	158.89
794.341	262.85
794.653	253.81
794.965	301.26
795.276	299
795.588	308.04
795.9	226.69
796.211	296.74
796.523	294.48
796.834	217.65
797.146	267.37
797.457	305.78
797.768	258.33
798.08	274.15
798.391	314.82
798.702	237.99
799.013	287.7
799.324	260.59
799.635	206.35
799.946	314.82
800.257	294.48
800.568	310.3
800.878	269.63
801.189	274.15
801.5	231.21
801.81	296.74
802.121	262.85
802.431	251.55
802.742	283.18
803.052	280.92
803.363	269.63
803.673	237.99
803.983	274.15
804.293	258.33
804.603	317.08
804.913	247.03
805.224	289.96
805.533	269.63
805.843	237.99
806.153	249.29
806.463	256.07
806.773	247.03
807.083	278.66
807.392	222.17
807.702	289.96
808.011	208.61
808.321	285.44
808.63	274.15
808.94	260.59
809.249	285.44
809.558	253.81
809.868	294.48
810.177	224.43
810.486	278.66
810.795	247.03
811.104	251.55
811.413	267.37
811.722	262.85
812.031	253.81
812.339	233.47
812.648	317.08
812.957	251.55
813.266	271.89
813.574	285.44
813.883	283.18
814.191	296.74
814.5	308.04
814.808	197.31
815.116	303.52
815.424	244.77
815.733	240.25
816.041	292.22
816.349	292.22
816.657	265.11
816.965	280.92
817.273	213.13
817.581	253.81
817.889	299
818.196	249.29
818.504	274.15
818.812	323.86
819.12	242.51
819.427	276.41
819.735	260.59
820.042	249.29
820.349	208.61
820.657	244.77
820.964	280.92
821.271	217.65
821.579	240.25
821.886	289.96
822.193	265.11
822.5	269.63
822.807	253.81
823.114	330.64
823.421	176.97
823.727	258.33
824.034	292.22
824.341	271.89
824.648	265.11
824.954	339.68
825.261	355.5
825.567	274.15
825.874	287.7
826.18	314.82
826.486	283.18
826.793	274.15
827.099	217.65
827.405	242.51
827.711	231.21
828.017	240.25
828.323	213.13
828.629	201.83
828.935	258.33
829.241	287.7
829.547	308.04
829.852	247.03
830.158	237.99
830.464	260.59
830.769	312.56
831.075	276.41
831.38	292.22
831.686	328.38
831.991	249.29
832.296	256.07
832.601	242.51
832.907	271.89
833.212	256.07
833.517	242.51
833.822	265.11
834.127	231.21
834.432	226.69
834.737	240.25
835.041	271.89
835.346	274.15
835.651	276.41
835.956	262.85
836.26	267.37
836.565	308.04
836.869	262.85
837.174	285.44
837.478	235.73
837.782	276.41
838.087	237.99
838.391	210.87
838.695	224.43
838.999	305.78
839.303	247.03
839.607	321.6
839.911	287.7
840.215	206.35
840.519	278.66
840.822	251.55
841.126	305.78
841.43	233.47
841.733	262.85
842.037	240.25
842.34	217.65
842.644	296.74
842.947	201.83
843.251	274.15
843.554	283.18
843.857	253.81
844.16	301.26
844.463	235.73
844.766	289.96
845.069	247.03
845.372	258.33
845.675	292.22
845.978	301.26
846.281	373.58
846.583	303.52
846.886	287.7
847.189	314.82
847.491	274.15
847.794	353.24
848.096	274.15
848.399	278.66
848.701	260.59
849.003	278.66
849.305	231.21
849.608	301.26
849.91	310.3
850.212	335.16
850.514	269.63
850.816	210.87
851.118	267.37
851.419	206.35
851.721	285.44
852.023	253.81
852.325	210.87
852.626	271.89
852.928	305.78
853.229	314.82
853.531	292.22
853.832	326.12
854.133	321.6
854.435	323.86
854.736	274.15
855.037	260.59
855.338	319.34
855.639	301.26
855.94	258.33
856.241	226.69
856.542	206.35
856.843	287.7
857.144	265.11
857.444	274.15
857.745	285.44
858.046	258.33
858.346	317.08
858.647	296.74
858.947	292.22
859.247	271.89
859.548	258.33
859.848	260.59
860.148	258.33
860.448	292.22
860.749	253.81
861.049	299
861.349	335.16
861.648	240.25
861.948	256.07
862.248	251.55
862.548	319.34
862.848	287.7
863.147	253.81
863.447	292.22
863.746	265.11
864.046	206.35
864.345	274.15
864.645	260.59
864.944	289.96
865.243	280.92
865.542	283.18
865.842	249.29
866.141	301.26
866.44	256.07
866.739	319.34
867.038	262.85
867.337	253.81
867.635	357.76
867.934	319.34
868.233	251.55
868.531	301.26
868.83	253.81
869.129	256.07
869.427	256.07
869.725	287.7
870.024	256.07
870.322	308.04
870.62	271.89
870.918	294.48
871.217	224.43
871.515	285.44
871.813	312.56
872.111	271.89
872.409	278.66
872.706	235.73
873.004	210.87
873.302	258.33
873.6	233.47
873.897	274.15
874.195	262.85
874.492	190.53
874.79	253.81
875.087	260.59
875.384	269.63
875.682	210.87
875.979	222.17
876.276	267.37
876.573	233.47
876.87	233.47
877.167	233.47
