Data from PL_2polymer_F8BT_MEHPPV_USB2H096331_0032.txt Node
Date: Tue Dec 15 16:23:48 CET 2020
User: spadmin
Spectrometer: USB2+H09633
Trigger mode: 0
Integration Time (sec): 1.000000E-2
Scans to average: 1
Electric dark correction enabled: true
Nonlinearity correction enabled: false
Boxcar width: 0
XAxis mode: Wavelengths
Number of Pixels in Spectrum: 2048
>>>>>Begin Spectral Data<<<<<
174.027	-44.21
174.405	-44.21
174.783	-44.21
175.162	-134.6
175.54	-121.04
175.918	-50.99
176.296	-112
176.674	-55.51
177.052	-102.96
177.43	-150.42
177.808	-3.53
178.186	-26.13
178.564	-44.21
178.942	-1.27
179.32	14.55
179.698	50.7
180.076	16.81
180.453	50.7
180.831	59.74
181.209	98.16
181.587	46.19
181.965	159.18
182.342	141.1
182.72	175
183.098	161.44
183.475	276.69
183.853	281.21
184.231	269.91
184.608	310.59
184.986	242.79
185.363	308.33
185.741	308.33
186.118	355.78
186.496	328.66
186.873	333.18
187.251	333.18
187.628	351.26
188.006	355.78
188.383	301.55
188.76	319.62
189.138	310.59
189.515	346.74
189.892	344.48
190.27	328.66
190.647	389.68
191.024	351.26
191.401	378.38
191.778	346.74
192.155	328.66
192.533	321.88
192.91	321.88
193.287	315.1
193.664	306.07
194.041	317.36
194.418	306.07
194.795	285.73
195.172	292.51
195.549	339.96
195.926	306.07
196.302	380.64
196.679	301.55
197.056	287.99
197.433	367.08
197.81	376.12
198.187	317.36
198.563	265.39
198.94	285.73
199.317	344.48
199.693	274.43
200.07	306.07
200.447	321.88
200.823	328.66
201.2	335.44
201.576	324.14
201.953	308.33
202.329	330.92
202.706	369.34
203.082	378.38
203.459	400.98
203.835	297.03
204.212	324.14
204.588	355.78
204.964	260.87
205.341	281.21
205.717	317.36
206.093	310.59
206.469	285.73
206.846	263.13
207.222	362.56
207.598	301.55
207.974	355.78
208.35	328.66
208.726	333.18
209.102	308.33
209.479	364.82
209.855	333.18
210.231	258.61
210.607	297.03
210.982	339.96
211.358	337.7
211.734	351.26
212.11	346.74
212.486	333.18
212.862	385.16
213.238	330.92
213.614	339.96
213.989	319.62
214.365	315.1
214.741	297.03
215.116	272.17
215.492	337.7
215.868	299.29
216.243	344.48
216.619	310.59
216.995	373.86
217.37	319.62
217.746	376.12
218.121	319.62
218.497	344.48
218.872	335.44
219.247	299.29
219.623	391.94
219.998	371.6
220.374	346.74
220.749	297.03
221.124	272.17
221.499	389.68
221.875	423.58
222.25	330.92
222.625	400.98
223	312.84
223.376	299.29
223.751	389.68
224.126	346.74
224.501	364.82
224.876	364.82
225.251	321.88
225.626	391.94
226.001	344.48
226.376	330.92
226.751	369.34
227.126	278.95
227.501	321.88
227.875	353.52
228.25	376.12
228.625	416.8
229	400.98
229.375	376.12
229.749	382.9
230.124	297.03
230.499	373.86
230.873	410.02
231.248	310.59
231.623	394.2
231.997	380.64
232.372	337.7
232.746	364.82
233.121	353.52
233.495	349
233.87	349
234.244	378.38
234.619	353.52
234.993	407.76
235.367	394.2
235.742	358.04
236.116	412.28
236.49	328.66
236.865	403.24
237.239	387.42
237.613	450.69
237.987	362.56
238.361	355.78
238.736	333.18
239.11	400.98
239.484	362.56
239.858	423.58
240.232	362.56
240.606	369.34
240.98	358.04
241.354	387.42
241.728	367.08
242.102	337.7
242.475	342.22
242.849	369.34
243.223	346.74
243.597	398.72
243.971	355.78
244.344	371.6
244.718	376.12
245.092	337.7
245.466	308.33
245.839	358.04
246.213	351.26
246.586	416.8
246.96	400.98
247.334	389.68
247.707	457.47
248.081	423.58
248.454	423.58
248.828	430.36
249.201	382.9
249.574	349
249.948	400.98
250.321	376.12
250.694	373.86
251.068	385.16
251.441	439.4
251.814	328.66
252.187	364.82
252.561	407.76
252.934	428.1
253.307	339.96
253.68	405.5
254.053	339.96
254.426	394.2
254.799	414.54
255.172	360.3
255.545	394.2
255.918	400.98
256.291	344.48
256.664	380.64
257.037	407.76
257.41	376.12
257.782	326.4
258.155	398.72
258.528	378.38
258.901	380.64
259.273	385.16
259.646	369.34
260.019	405.5
260.391	355.78
260.764	403.24
261.137	414.54
261.509	473.29
261.882	396.46
262.254	362.56
262.627	346.74
262.999	407.76
263.372	403.24
263.744	414.54
264.116	376.12
264.489	360.3
264.861	339.96
265.233	382.9
265.606	385.16
265.978	398.72
266.35	369.34
266.722	446.17
267.094	407.76
267.467	403.24
267.839	349
268.211	346.74
268.583	344.48
268.955	403.24
269.327	364.82
269.699	434.88
270.071	423.58
270.443	452.95
270.815	414.54
271.186	432.62
271.558	394.2
271.93	432.62
272.302	441.66
272.674	464.25
273.045	450.69
273.417	410.02
273.789	391.94
274.16	389.68
274.532	398.72
274.904	400.98
275.275	398.72
275.647	414.54
276.018	493.63
276.39	400.98
276.761	358.04
277.133	482.33
277.504	432.62
277.875	414.54
278.247	450.69
278.618	428.1
278.989	441.66
279.361	382.9
279.732	396.46
280.103	480.07
280.474	400.98
280.846	405.5
281.217	416.8
281.588	457.47
281.959	493.63
282.33	425.84
282.701	461.99
283.072	448.43
283.443	351.26
283.814	471.03
284.185	432.62
284.556	455.21
284.927	471.03
285.297	441.66
285.668	412.28
286.039	443.91
286.41	482.33
286.781	421.32
287.151	434.88
287.522	412.28
287.893	464.25
288.263	507.19
288.634	387.42
289.004	439.4
289.375	421.32
289.745	473.29
290.116	371.6
290.486	373.86
290.857	486.85
291.227	428.1
291.598	410.02
291.968	396.46
292.338	473.29
292.709	471.03
293.079	428.1
293.449	423.58
293.819	491.37
294.189	403.24
294.56	419.06
294.93	480.07
295.3	437.14
295.67	421.32
296.04	464.25
296.41	358.04
296.78	455.21
297.15	457.47
297.52	434.88
297.89	387.42
298.259	439.4
298.629	480.07
298.999	504.93
299.369	468.77
299.739	400.98
300.108	421.32
300.478	457.47
300.848	477.81
301.217	486.85
301.587	412.28
301.957	466.51
302.326	471.03
302.696	457.47
303.065	489.11
303.435	471.03
303.804	464.25
304.174	434.88
304.543	459.73
304.912	482.33
305.282	507.19
305.651	394.2
306.02	466.51
306.39	473.29
306.759	434.88
307.128	466.51
307.497	466.51
307.866	419.06
308.235	459.73
308.604	477.81
308.974	523.01
309.343	493.63
309.712	437.14
310.08	468.77
310.449	507.19
310.818	457.47
311.187	441.66
311.556	482.33
311.925	561.43
312.294	475.55
312.662	473.29
313.031	509.45
313.4	489.11
313.769	507.19
314.137	525.27
314.506	516.23
314.874	495.89
315.243	419.06
315.612	493.63
315.98	486.85
316.349	513.97
316.717	554.65
317.085	541.09
317.454	509.45
317.822	529.79
318.191	491.37
318.559	480.07
318.927	543.35
319.295	536.57
319.664	464.25
320.032	493.63
320.4	477.81
320.768	568.21
321.136	498.15
321.504	450.69
321.872	500.41
322.24	504.93
322.608	538.83
322.976	529.79
323.344	554.65
323.712	552.39
324.08	568.21
324.448	493.63
324.816	559.17
325.183	457.47
325.551	516.23
325.919	572.73
326.287	450.69
326.654	536.57
327.022	484.59
327.389	477.81
327.757	468.77
328.125	498.15
328.492	504.93
328.86	516.23
329.227	502.67
329.594	504.93
329.962	525.27
330.329	532.05
330.697	550.13
331.064	502.67
331.431	543.35
331.798	502.67
332.166	529.79
332.533	525.27
332.9	541.09
333.267	554.65
333.634	529.79
334.001	484.59
334.368	579.5
334.735	516.23
335.102	570.47
335.469	543.35
335.836	602.1
336.203	617.92
336.57	547.87
336.937	568.21
337.304	602.1
337.67	588.54
338.037	622.44
338.404	658.6
338.771	622.44
339.137	626.96
339.504	626.96
339.87	633.74
340.237	608.88
340.604	574.98
340.97	724.13
341.337	633.74
341.703	563.69
342.069	651.82
342.436	687.98
342.802	656.34
343.169	647.3
343.535	692.5
343.901	617.92
344.267	674.42
344.634	606.62
345	715.09
345.366	645.04
345.732	672.16
346.098	656.34
346.464	590.8
346.83	669.9
347.196	636
347.562	676.68
347.928	538.83
348.294	674.42
348.66	685.72
349.026	631.48
349.392	683.46
349.757	584.02
350.123	690.24
350.489	667.64
350.855	683.46
351.22	656.34
351.586	758.03
351.951	683.46
352.317	651.82
352.683	708.31
353.048	719.61
353.414	724.13
353.779	681.2
354.144	769.33
354.51	762.55
354.875	746.73
355.24	791.93
355.606	782.89
355.971	753.51
356.336	746.73
356.701	719.61
357.067	800.97
357.432	825.83
357.797	782.89
358.162	776.11
358.527	821.31
358.892	805.49
359.257	850.68
359.622	814.53
359.987	780.63
360.352	780.63
360.717	832.61
361.082	839.38
361.446	907.18
361.811	866.5
362.176	807.75
362.541	861.98
362.905	886.84
363.27	945.6
363.635	866.5
363.999	864.24
364.364	918.48
364.728	954.64
365.093	898.14
365.457	954.64
365.822	968.19
366.186	925.26
366.55	990.79
366.915	1031.47
367.279	1002.09
367.643	988.53
368.008	1015.65
368.372	952.38
368.736	1006.61
369.1	1099.26
369.464	1146.72
369.828	1042.77
370.192	1067.63
370.556	1221.3
370.92	1121.86
371.284	1198.7
371.648	1221.3
372.012	1275.53
372.376	1277.79
372.74	1370.44
373.104	1309.43
373.468	1447.28
373.831	1478.92
374.195	1415.64
374.559	1429.2
374.922	1528.63
375.286	1544.45
375.65	1648.4
376.013	1664.22
376.377	1761.39
376.74	1722.98
377.104	1958
377.467	1894.72
377.83	2066.47
378.194	2240.48
378.557	2274.38
378.92	2403.19
379.284	2588.49
379.647	2733.12
380.01	2841.59
380.373	2993
380.736	3022.38
381.1	3560.22
381.463	3673.21
381.826	4012.18
382.189	4213.31
382.552	4441.55
382.915	4669.79
383.278	5246.05
383.64	5740.95
384.003	6220.03
384.366	6868.6
384.729	7397.4
385.092	7951.06
385.454	8427.89
385.817	9406.39
386.18	10430.09
386.542	11410.86
386.905	12545.29
387.268	13824.35
387.63	15349.74
387.993	16249.15
388.355	17910.12
388.718	19756.4
389.08	21385.74
389.442	23787.93
389.805	25107.67
390.167	27259.03
390.529	30341.43
390.892	33988.8
391.254	35977.44
391.616	38664.38
391.978	42343.38
392.34	46637.05
392.702	48422.31
393.064	51929.57
393.426	53832.34
393.788	55798.39
394.15	57242.42
394.512	59066.1
394.874	61034.41
395.236	62774.48
395.598	64528.11
395.96	65084.02
396.321	65084.02
396.683	65084.02
397.045	65084.02
397.406	65084.02
397.768	65084.02
398.13	65084.02
398.491	65084.02
398.853	65084.02
399.214	65084.02
399.576	65084.02
399.937	65084.02
400.299	65084.02
400.66	65084.02
401.021	65084.02
401.383	65084.02
401.744	65084.02
402.105	65084.02
402.466	65084.02
402.827	65084.02
403.189	65084.02
403.55	65084.02
403.911	65084.02
404.272	65084.02
404.633	65084.02
404.994	65084.02
405.355	65084.02
405.716	65084.02
406.077	65084.02
406.437	65084.02
406.798	65084.02
407.159	65084.02
407.52	65084.02
407.88	65084.02
408.241	65084.02
408.602	65084.02
408.962	65084.02
409.323	65084.02
409.684	65084.02
410.044	65084.02
410.405	65084.02
410.765	65084.02
411.125	65084.02
411.486	65084.02
411.846	65084.02
412.206	65084.02
412.567	65084.02
412.927	65084.02
413.287	65084.02
413.647	65084.02
414.007	65084.02
414.368	65084.02
414.728	65084.02
415.088	65084.02
415.448	65084.02
415.808	65084.02
416.168	65084.02
416.528	65084.02
416.887	65084.02
417.247	65084.02
417.607	65084.02
417.967	65084.02
418.327	65084.02
418.686	65084.02
419.046	65084.02
419.406	65084.02
419.765	65084.02
420.125	65084.02
420.484	65084.02
420.844	65084.02
421.203	65084.02
421.563	64568.78
421.922	64277.26
422.282	62383.53
422.641	61066.05
423	59800.55
423.36	58749.73
423.719	57030
424.078	54948.7
424.437	52666.27
424.796	51561.21
425.155	50212.1
425.515	47346.64
425.874	45963.62
426.233	42316.26
426.592	39762.66
426.95	38838.39
427.309	36266.7
427.668	35629.43
428.027	32757.19
428.386	31997.89
428.745	29231.86
429.103	27249.99
429.462	25905.39
429.821	24271.54
430.179	23503.2
430.538	22425.26
430.897	21910.02
431.255	20619.66
431.614	19329.29
431.972	18938.34
432.33	17767.75
432.689	17342.91
433.047	16411.86
433.405	15431.09
433.764	14622.07
434.122	14420.95
434.48	13587.07
434.838	13189.34
435.197	12210.84
435.555	12136.26
435.913	11363.4
436.271	10961.15
436.629	10242.53
436.987	10045.92
437.345	9790.56
437.703	9291.14
438.061	8891.15
438.418	8059.53
438.776	7844.85
439.134	7695.7
439.492	7295.71
439.849	6931.88
440.207	6852.79
440.565	6439.24
440.922	6068.63
441.28	5738.69
441.637	5544.35
441.995	5356.78
442.352	5139.84
442.71	4927.41
443.067	4803.12
443.425	4538.72
443.782	4333.08
444.139	4405.39
444.496	4145.51
444.854	3991.84
445.211	3849.48
445.568	3779.42
445.925	3515.02
446.282	3508.24
446.639	3293.56
446.996	3117.29
447.353	3370.39
447.71	3164.75
448.067	3144.41
448.424	2961.36
448.781	2742.16
449.137	2843.85
449.494	2602.05
449.851	2461.94
450.208	2538.78
450.564	2425.78
450.921	2312.79
451.278	2156.86
451.634	2299.23
451.991	2129.75
452.347	2193.02
452.704	2134.27
453.06	1994.16
453.416	1820.15
453.773	1709.42
454.129	1786.25
454.485	1677.78
454.841	1634.84
455.198	1666.48
455.554	1607.73
455.91	1551.23
456.266	1616.77
456.622	1564.79
456.978	1365.92
457.334	1341.07
457.69	1356.89
458.046	1282.31
458.402	1237.11
458.758	1180.62
459.114	1198.7
459.469	1176.1
459.825	1180.62
460.181	1207.74
460.536	1085.71
460.892	1013.39
461.248	1015.65
461.603	1133.16
461.959	972.71
462.314	1051.81
462.67	995.31
463.025	936.56
463.38	972.71
463.736	895.88
464.091	954.64
464.446	846.16
464.802	911.7
465.157	855.2
465.512	904.92
465.867	900.4
466.222	852.94
466.577	852.94
466.932	825.83
467.287	891.36
467.642	859.72
467.997	814.53
468.352	825.83
468.707	791.93
469.062	791.93
469.417	791.93
469.771	794.19
470.126	778.37
470.481	796.45
470.835	721.87
471.19	692.5
471.544	710.57
471.899	703.8
472.253	663.12
472.608	735.43
472.962	703.8
473.317	669.9
473.671	658.6
474.025	640.52
474.38	658.6
474.734	791.93
475.088	663.12
475.442	617.92
475.796	656.34
476.15	649.56
476.504	647.3
476.858	667.64
477.212	584.02
477.566	645.04
477.92	663.12
478.274	642.78
478.628	624.7
478.982	565.95
479.336	624.7
479.689	638.26
480.043	593.06
480.397	552.39
480.75	525.27
481.104	561.43
481.457	581.76
481.811	620.18
482.164	626.96
482.518	550.13
482.871	543.35
483.225	602.1
483.578	543.35
483.931	584.02
484.284	685.72
484.638	590.8
484.991	622.44
485.344	547.87
485.697	561.43
486.05	579.5
486.403	640.52
486.756	541.09
487.109	563.69
487.462	559.17
487.815	624.7
488.168	541.09
488.52	550.13
488.873	570.47
489.226	529.79
489.579	636
489.931	559.17
490.284	570.47
490.637	552.39
490.989	577.24
491.342	482.33
491.694	511.71
492.047	543.35
492.399	536.57
492.751	511.71
493.104	532.05
493.456	532.05
493.808	525.27
494.16	450.69
494.513	527.53
494.865	638.26
495.217	523.01
495.569	482.33
495.921	529.79
496.273	559.17
496.625	500.41
496.977	511.71
497.329	552.39
497.68	459.73
498.032	552.39
498.384	532.05
498.736	482.33
499.087	482.33
499.439	554.65
499.791	518.49
500.142	484.59
500.494	396.46
500.845	477.81
501.197	579.5
501.548	500.41
501.9	520.75
502.251	511.71
502.602	525.27
502.954	495.89
503.305	561.43
503.656	543.35
504.007	507.19
504.358	459.73
504.709	498.15
505.061	498.15
505.412	527.53
505.763	509.45
506.113	579.5
506.464	550.13
506.815	568.21
507.166	529.79
507.517	541.09
507.868	550.13
508.218	554.65
508.569	556.91
508.92	606.62
509.27	584.02
509.621	547.87
509.971	532.05
510.322	511.71
510.672	502.67
511.023	568.21
511.373	527.53
511.723	561.43
512.074	574.98
512.424	547.87
512.774	622.44
513.124	642.78
513.475	615.66
513.825	606.62
514.175	604.36
514.525	626.96
514.875	663.12
515.225	602.1
515.575	593.06
515.924	624.7
516.274	606.62
516.624	656.34
516.974	681.2
517.324	649.56
517.673	674.42
518.023	676.68
518.373	633.74
518.722	656.34
519.072	667.64
519.421	660.86
519.771	699.28
520.12	685.72
520.469	620.18
520.819	624.7
521.168	685.72
521.517	690.24
521.867	746.73
522.216	724.13
522.565	669.9
522.914	681.2
523.263	773.85
523.612	751.25
523.961	712.83
524.31	701.54
524.659	762.55
525.008	719.61
525.357	746.73
525.705	739.95
526.054	699.28
526.403	685.72
526.752	742.21
527.1	719.61
527.449	764.81
527.797	739.95
528.146	812.27
528.495	762.55
528.843	654.08
529.191	814.53
529.54	737.69
529.888	789.67
530.236	737.69
530.585	794.19
530.933	748.99
531.281	746.73
531.629	762.55
531.977	760.29
532.325	785.15
532.673	825.83
533.021	735.43
533.369	726.39
533.717	762.55
534.065	687.98
534.413	771.59
534.761	782.89
535.108	782.89
535.456	751.25
535.804	706.05
536.151	733.17
536.499	816.79
536.847	751.25
537.194	717.35
537.542	719.61
537.889	760.29
538.236	800.97
538.584	665.38
538.931	787.41
539.278	728.65
539.626	789.67
539.973	800.97
540.32	715.09
540.667	706.05
541.014	764.81
541.361	751.25
541.708	721.87
542.055	753.51
542.402	636
542.749	755.77
543.096	742.21
543.443	782.89
543.789	706.05
544.136	728.65
544.483	642.78
544.83	753.51
545.176	687.98
545.523	710.57
545.869	724.13
546.216	748.99
546.562	687.98
546.909	760.29
547.255	735.43
547.601	751.25
547.948	758.03
548.294	769.33
548.64	694.76
548.986	665.38
549.332	733.17
549.678	712.83
550.025	697.02
550.371	703.8
550.717	699.28
551.062	712.83
551.408	667.64
551.754	672.16
552.1	586.28
552.446	717.35
552.792	719.61
553.137	647.3
553.483	742.21
553.828	710.57
554.174	697.02
554.52	719.61
554.865	685.72
555.211	764.81
555.556	739.95
555.901	699.28
556.247	701.54
556.592	660.86
556.937	647.3
557.282	642.78
557.628	694.76
557.973	660.86
558.318	697.02
558.663	694.76
559.008	751.25
559.353	683.46
559.698	669.9
560.043	649.56
560.388	645.04
560.732	717.35
561.077	669.9
561.422	665.38
561.766	719.61
562.111	712.83
562.456	719.61
562.8	706.05
563.145	739.95
563.489	647.3
563.834	665.38
564.178	678.94
564.523	751.25
564.867	685.72
565.211	710.57
565.555	613.4
565.9	624.7
566.244	656.34
566.588	683.46
566.932	602.1
567.276	685.72
567.62	685.72
567.964	665.38
568.308	701.54
568.652	676.68
568.996	697.02
569.339	748.99
569.683	667.64
570.027	690.24
570.371	667.64
570.714	672.16
571.058	660.86
571.401	658.6
571.745	739.95
572.088	706.05
572.432	728.65
572.775	597.58
573.118	660.86
573.462	764.81
573.805	669.9
574.148	724.13
574.491	622.44
574.835	649.56
575.178	642.78
575.521	721.87
575.864	706.05
576.207	744.47
576.55	651.82
576.892	706.05
577.235	701.54
577.578	787.41
577.921	712.83
578.264	617.92
578.606	703.8
578.949	651.82
579.292	669.9
579.634	613.4
579.977	699.28
580.319	656.34
580.662	656.34
581.004	701.54
581.346	685.72
581.689	613.4
582.031	626.96
582.373	599.84
582.715	640.52
583.057	658.6
583.4	595.32
583.742	570.47
584.084	579.5
584.426	581.76
584.768	654.08
585.109	633.74
585.451	672.16
585.793	579.5
586.135	647.3
586.477	599.84
586.818	584.02
587.16	626.96
587.502	692.5
587.843	692.5
588.185	620.18
588.526	572.73
588.868	570.47
589.209	586.28
589.55	572.73
589.892	602.1
590.233	611.14
590.574	565.95
590.915	527.53
591.257	525.27
591.598	547.87
591.939	520.75
592.28	579.5
592.621	491.37
592.962	500.41
593.303	550.13
593.643	579.5
593.984	534.31
594.325	552.39
594.666	534.31
595.006	527.53
595.347	532.05
595.688	516.23
596.028	572.73
596.369	597.58
596.709	561.43
597.05	547.87
597.39	599.84
597.73	570.47
598.071	509.45
598.411	574.98
598.751	471.03
599.091	523.01
599.431	581.76
599.772	577.24
600.112	482.33
600.452	504.93
600.792	502.67
601.132	565.95
601.471	450.69
601.811	552.39
602.151	468.77
602.491	513.97
602.831	523.01
603.17	504.93
603.51	568.21
603.849	525.27
604.189	452.95
604.528	556.91
604.868	570.47
605.207	446.17
605.547	527.53
605.886	552.39
606.225	498.15
606.565	452.95
606.904	464.25
607.243	484.59
607.582	437.14
607.921	516.23
608.26	414.54
608.599	464.25
608.938	493.63
609.277	477.81
609.616	434.88
609.955	441.66
610.293	518.49
610.632	396.46
610.971	509.45
611.309	439.4
611.648	511.71
611.987	416.8
612.325	500.41
612.664	498.15
613.002	448.43
613.34	459.73
613.679	461.99
614.017	500.41
614.355	489.11
614.694	475.55
615.032	432.62
615.37	434.88
615.708	439.4
616.046	428.1
616.384	511.71
616.722	405.5
617.06	493.63
617.398	502.67
617.736	507.19
618.073	507.19
618.411	486.85
618.749	464.25
619.086	452.95
619.424	398.72
619.762	491.37
620.099	419.06
620.437	475.55
620.774	425.84
621.112	437.14
621.449	464.25
621.786	452.95
622.123	437.14
622.461	448.43
622.798	473.29
623.135	416.8
623.472	353.52
623.809	405.5
624.146	450.69
624.483	423.58
624.82	437.14
625.157	480.07
625.494	466.51
625.83	448.43
626.167	443.91
626.504	455.21
626.841	421.32
627.177	448.43
627.514	416.8
627.85	523.01
628.187	396.46
628.523	400.98
628.86	405.5
629.196	310.59
629.532	385.16
629.869	452.95
630.205	441.66
630.541	394.2
630.877	441.66
631.213	480.07
631.549	403.24
631.885	412.28
632.221	412.28
632.557	391.94
632.893	400.98
633.229	376.12
633.564	367.08
633.9	360.3
634.236	387.42
634.572	414.54
634.907	471.03
635.243	376.12
635.578	346.74
635.914	457.47
636.249	403.24
636.585	525.27
636.92	398.72
637.255	358.04
637.59	382.9
637.926	414.54
638.261	360.3
638.596	362.56
638.931	360.3
639.266	412.28
639.601	398.72
639.936	391.94
640.271	376.12
640.606	339.96
640.94	396.46
641.275	394.2
641.61	403.24
641.945	443.91
642.279	339.96
642.614	373.86
642.948	441.66
643.283	358.04
643.617	358.04
643.952	335.44
644.286	376.12
644.62	400.98
644.955	382.9
645.289	335.44
645.623	321.88
645.957	330.92
646.291	412.28
646.625	358.04
646.959	358.04
647.293	349
647.627	371.6
647.961	419.06
648.295	382.9
648.629	339.96
648.962	349
649.296	353.52
649.63	346.74
649.963	355.78
650.297	344.48
650.63	387.42
650.964	287.99
651.297	360.3
651.631	308.33
651.964	346.74
652.297	312.84
652.631	407.76
652.964	371.6
653.297	321.88
653.63	364.82
653.963	405.5
654.296	378.38
654.629	315.1
654.962	371.6
655.295	380.64
655.628	349
655.961	346.74
656.293	367.08
656.626	358.04
656.959	358.04
657.291	367.08
657.624	319.62
657.956	333.18
658.289	330.92
658.621	410.02
658.954	398.72
659.286	317.36
659.618	353.52
659.95	236.01
660.283	344.48
660.615	319.62
660.947	339.96
661.279	326.4
661.611	355.78
661.943	301.55
662.275	267.65
662.607	335.44
662.939	292.51
663.27	337.7
663.602	303.81
663.934	364.82
664.266	385.16
664.597	364.82
664.929	312.84
665.26	317.36
665.592	312.84
665.923	339.96
666.255	306.07
666.586	360.3
666.917	358.04
667.248	382.9
667.58	299.29
667.911	330.92
668.242	317.36
668.573	326.4
668.904	376.12
669.235	360.3
669.566	330.92
669.897	319.62
670.228	364.82
670.558	319.62
670.889	349
671.22	287.99
671.551	333.18
671.881	319.62
672.212	335.44
672.542	367.08
672.873	333.18
673.203	367.08
673.533	292.51
673.864	351.26
674.194	299.29
674.524	265.39
674.855	378.38
675.185	339.96
675.515	346.74
675.845	292.51
676.175	337.7
676.505	267.65
676.835	294.77
677.165	339.96
677.494	281.21
677.824	335.44
678.154	303.81
678.484	355.78
678.813	294.77
679.143	333.18
679.472	335.44
679.802	317.36
680.131	335.44
680.461	335.44
680.79	297.03
681.119	310.59
681.449	339.96
681.778	290.25
682.107	299.29
682.436	326.4
682.765	355.78
683.094	315.1
683.423	371.6
683.752	342.22
684.081	312.84
684.41	299.29
684.739	290.25
685.067	333.18
685.396	328.66
685.725	299.29
686.053	297.03
686.382	317.36
686.711	312.84
687.039	306.07
687.367	321.88
687.696	303.81
688.024	251.83
688.352	315.1
688.681	272.17
689.009	299.29
689.337	276.69
689.665	346.74
689.993	407.76
690.321	297.03
690.649	297.03
690.977	321.88
691.305	358.04
691.633	324.14
691.961	278.95
692.288	303.81
692.616	254.09
692.944	287.99
693.271	290.25
693.599	351.26
693.926	328.66
694.254	333.18
694.581	312.84
694.908	276.69
695.236	308.33
695.563	292.51
695.89	303.81
696.217	256.35
696.544	274.43
696.871	342.22
697.198	312.84
697.525	321.88
697.852	306.07
698.179	335.44
698.506	330.92
698.833	342.22
699.16	263.13
699.486	321.88
699.813	351.26
700.139	349
700.466	272.17
700.793	281.21
701.119	353.52
701.445	324.14
701.772	287.99
702.098	301.55
702.424	330.92
702.75	272.17
703.077	249.57
703.403	297.03
703.729	367.08
704.055	247.31
704.381	312.84
704.707	321.88
705.033	373.86
705.358	297.03
705.684	245.05
706.01	267.65
706.336	278.95
706.661	312.84
706.987	231.49
707.312	281.21
707.638	287.99
707.963	231.49
708.289	238.27
708.614	364.82
708.939	278.95
709.265	294.77
709.59	260.87
709.915	281.21
710.24	294.77
710.565	326.4
710.89	306.07
711.215	245.05
711.54	317.36
711.865	229.23
712.19	321.88
712.515	263.13
712.839	297.03
713.164	269.91
713.489	328.66
713.813	301.55
714.138	308.33
714.462	274.43
714.787	319.62
715.111	328.66
715.435	274.43
715.76	306.07
716.084	346.74
716.408	312.84
716.732	281.21
717.056	346.74
717.381	267.65
717.705	251.83
718.028	249.57
718.352	285.73
718.676	297.03
719	308.33
719.324	281.21
719.648	312.84
719.971	312.84
720.295	315.1
720.618	321.88
720.942	306.07
721.265	229.23
721.589	269.91
721.912	249.57
722.236	245.05
722.559	254.09
722.882	321.88
723.205	260.87
723.528	310.59
723.851	297.03
724.174	249.57
724.497	290.25
724.82	272.17
725.143	299.29
725.466	310.59
725.789	315.1
726.112	306.07
726.434	278.95
726.757	344.48
727.08	249.57
727.402	247.31
727.725	294.77
728.047	333.18
728.37	299.29
728.692	294.77
729.014	267.65
729.336	301.55
729.659	333.18
729.981	297.03
730.303	281.21
730.625	206.63
730.947	226.97
731.269	256.35
731.591	242.79
731.913	274.43
732.235	258.61
732.556	249.57
732.878	269.91
733.2	333.18
733.521	294.77
733.843	263.13
734.164	321.88
734.486	299.29
734.807	242.79
735.129	346.74
735.45	236.01
735.771	285.73
736.092	306.07
736.414	265.39
736.735	317.36
737.056	319.62
737.377	303.81
737.698	281.21
738.019	278.95
738.34	303.81
738.66	330.92
738.981	231.49
739.302	269.91
739.623	254.09
739.943	339.96
740.264	328.66
740.584	249.57
740.905	267.65
741.225	249.57
741.546	362.56
741.866	278.95
742.186	339.96
742.507	299.29
742.827	297.03
743.147	265.39
743.467	267.65
743.787	254.09
744.107	236.01
744.427	351.26
744.747	263.13
745.067	276.69
745.386	283.47
745.706	272.17
746.026	294.77
746.346	276.69
746.665	269.91
746.985	335.44
747.304	258.61
747.624	294.77
747.943	276.69
748.262	292.51
748.582	303.81
748.901	321.88
749.22	310.59
749.539	339.96
749.858	287.99
750.177	267.65
750.496	274.43
750.815	269.91
751.134	220.19
751.453	335.44
751.772	317.36
752.09	299.29
752.409	267.65
752.728	303.81
753.046	240.53
753.365	308.33
753.683	285.73
754.002	301.55
754.32	285.73
754.639	258.61
754.957	222.45
755.275	263.13
755.593	258.61
755.911	231.49
756.23	233.75
756.548	306.07
756.866	256.35
757.183	267.65
757.501	254.09
757.819	358.04
758.137	326.4
758.455	281.21
758.772	353.52
759.09	263.13
759.408	229.23
759.725	294.77
760.043	308.33
760.36	224.71
760.677	292.51
760.995	269.91
761.312	258.61
761.629	272.17
761.946	315.1
762.264	287.99
762.581	360.3
762.898	299.29
763.215	249.57
763.532	276.69
763.848	297.03
764.165	285.73
764.482	267.65
764.799	299.29
765.115	290.25
765.432	285.73
765.749	238.27
766.065	231.49
766.382	233.75
766.698	290.25
767.014	315.1
767.331	281.21
767.647	236.01
767.963	213.41
768.279	229.23
768.595	283.47
768.911	281.21
769.227	297.03
769.543	267.65
769.859	319.62
770.175	240.53
770.491	254.09
770.807	290.25
771.122	245.05
771.438	267.65
771.754	236.01
772.069	306.07
772.385	287.99
772.7	287.99
773.016	319.62
773.331	339.96
773.646	335.44
773.961	281.21
774.277	267.65
774.592	231.49
774.907	344.48
775.222	319.62
775.537	263.13
775.852	260.87
776.167	308.33
776.482	269.91
776.796	256.35
777.111	231.49
777.426	310.59
777.74	283.47
778.055	276.69
778.369	299.29
778.684	308.33
778.998	281.21
779.313	240.53
779.627	245.05
779.941	281.21
780.255	321.88
780.57	306.07
780.884	292.51
781.198	287.99
781.512	267.65
781.826	312.84
782.14	299.29
782.453	308.33
782.767	251.83
783.081	224.71
783.395	278.95
783.708	281.21
784.022	240.53
784.335	290.25
784.649	294.77
784.962	315.1
785.276	272.17
785.589	267.65
785.902	247.31
786.216	272.17
786.529	254.09
786.842	310.59
787.155	324.14
787.468	317.36
787.781	292.51
788.094	333.18
788.407	251.83
788.72	245.05
789.032	224.71
789.345	267.65
789.658	281.21
789.97	272.17
790.283	249.57
790.595	310.59
790.908	349
791.22	308.33
791.532	272.17
791.845	278.95
792.157	226.97
792.469	297.03
792.781	276.69
793.093	330.92
793.405	240.53
793.717	294.77
794.029	297.03
794.341	391.94
794.653	306.07
794.965	220.19
795.276	258.61
795.588	290.25
795.9	297.03
796.211	285.73
796.523	240.53
796.834	290.25
797.146	312.84
797.457	303.81
797.768	236.01
798.08	342.22
798.391	283.47
798.702	290.25
799.013	269.91
799.324	276.69
799.635	276.69
799.946	254.09
800.257	236.01
800.568	265.39
800.878	297.03
801.189	274.43
801.5	265.39
801.81	267.65
802.121	317.36
802.431	269.91
802.742	272.17
803.052	285.73
803.363	256.35
803.673	258.61
803.983	301.55
804.293	222.45
804.603	258.61
804.913	276.69
805.224	278.95
805.533	260.87
805.843	283.47
806.153	319.62
806.463	281.21
806.773	256.35
807.083	290.25
807.392	294.77
807.702	224.71
808.011	328.66
808.321	260.87
808.63	285.73
808.94	242.79
809.249	267.65
809.558	299.29
809.868	299.29
810.177	303.81
810.486	328.66
810.795	294.77
811.104	312.84
811.413	272.17
811.722	297.03
812.031	310.59
812.339	247.31
812.648	328.66
812.957	274.43
813.266	222.45
813.574	251.83
813.883	317.36
814.191	301.55
814.5	312.84
814.808	303.81
815.116	281.21
815.424	315.1
815.733	240.53
816.041	265.39
816.349	330.92
816.657	278.95
816.965	330.92
817.273	265.39
817.581	276.69
817.889	290.25
818.196	328.66
818.504	263.13
818.812	306.07
819.12	310.59
819.427	306.07
819.735	251.83
820.042	283.47
820.349	249.57
820.657	283.47
820.964	290.25
821.271	299.29
821.579	267.65
821.886	240.53
822.193	236.01
822.5	285.73
822.807	197.59
823.114	290.25
823.421	267.65
823.727	283.47
824.034	267.65
824.341	240.53
824.648	287.99
824.954	328.66
825.261	344.48
825.567	349
825.874	204.37
826.18	297.03
826.486	297.03
826.793	292.51
827.099	330.92
827.405	283.47
827.711	254.09
828.017	310.59
828.323	249.57
828.629	292.51
828.935	240.53
829.241	254.09
829.547	319.62
829.852	301.55
830.158	301.55
830.464	315.1
830.769	294.77
831.075	315.1
831.38	308.33
831.686	349
831.991	208.89
832.296	292.51
832.601	206.63
832.907	319.62
833.212	247.31
833.517	269.91
833.822	269.91
834.127	272.17
834.432	265.39
834.737	310.59
835.041	317.36
835.346	312.84
835.651	267.65
835.956	294.77
836.26	312.84
836.565	292.51
836.869	310.59
837.174	290.25
837.478	380.64
837.782	256.35
838.087	398.72
838.391	294.77
838.695	297.03
838.999	294.77
839.303	324.14
839.607	321.88
839.911	258.61
840.215	294.77
840.519	256.35
840.822	278.95
841.126	301.55
841.43	269.91
841.733	258.61
842.037	238.27
842.34	297.03
842.644	245.05
842.947	294.77
843.251	260.87
843.554	278.95
843.857	274.43
844.16	269.91
844.463	274.43
844.766	254.09
845.069	353.52
845.372	328.66
845.675	283.47
845.978	251.83
846.281	202.11
846.583	263.13
846.886	310.59
847.189	269.91
847.491	229.23
847.794	297.03
848.096	358.04
848.399	315.1
848.701	222.45
849.003	242.79
849.305	278.95
849.608	269.91
849.91	301.55
850.212	269.91
850.514	274.43
850.816	242.79
851.118	256.35
851.419	231.49
851.721	333.18
852.023	292.51
852.325	245.05
852.626	278.95
852.928	312.84
853.229	272.17
853.531	290.25
853.832	333.18
854.133	301.55
854.435	312.84
854.736	240.53
855.037	272.17
855.338	306.07
855.639	328.66
855.94	245.05
856.241	256.35
856.542	222.45
856.843	294.77
857.144	278.95
857.444	303.81
857.745	240.53
858.046	231.49
858.346	263.13
858.647	373.86
858.947	317.36
859.247	299.29
859.548	303.81
859.848	292.51
860.148	238.27
860.448	312.84
860.749	290.25
861.049	263.13
861.349	319.62
861.648	292.51
861.948	333.18
862.248	303.81
862.548	276.69
862.848	294.77
863.147	333.18
863.447	256.35
863.746	297.03
864.046	292.51
864.345	263.13
864.645	276.69
864.944	281.21
865.243	260.87
865.542	245.05
865.842	333.18
866.141	297.03
866.44	335.44
866.739	272.17
867.038	306.07
867.337	236.01
867.635	290.25
867.934	292.51
868.233	276.69
868.531	278.95
868.83	265.39
869.129	236.01
869.427	211.15
869.725	274.43
870.024	276.69
870.322	274.43
870.62	349
870.918	285.73
871.217	274.43
871.515	319.62
871.813	292.51
872.111	260.87
872.409	281.21
872.706	260.87
873.004	256.35
873.302	281.21
873.6	276.69
873.897	260.87
874.195	269.91
874.492	301.55
874.79	285.73
875.087	217.93
875.384	299.29
875.682	263.13
875.979	292.51
876.276	278.95
876.573	238.27
876.87	238.27
877.167	238.27
