Data from PL_2polymer_F8BT_MEHPPV_USB2H096331_0127.txt Node
Date: Tue Dec 15 16:23:49 CET 2020
User: spadmin
Spectrometer: USB2+H09633
Trigger mode: 0
Integration Time (sec): 1.000000E-2
Scans to average: 1
Electric dark correction enabled: true
Nonlinearity correction enabled: false
Boxcar width: 0
XAxis mode: Wavelengths
Number of Pixels in Spectrum: 2048
>>>>>Begin Spectral Data<<<<<
174.027	-57.34
174.405	-57.34
174.783	-57.34
175.162	-127.4
175.54	-57.34
175.918	-156.78
176.296	-118.36
176.674	-91.24
177.052	-109.32
177.43	-68.64
177.808	1.41
178.186	-21.19
178.564	-16.67
178.942	-27.97
179.32	17.23
179.698	28.53
180.076	-12.15
180.453	21.75
180.831	71.47
181.209	121.18
181.587	66.95
181.965	137
182.342	225.14
182.72	123.44
183.098	252.25
183.475	227.4
183.853	261.29
184.231	263.55
184.608	288.41
184.986	304.23
185.363	317.79
185.741	320.05
186.118	301.97
186.496	297.45
186.873	329.09
187.251	353.95
187.628	349.43
188.006	324.57
188.383	333.61
188.76	369.76
189.138	295.19
189.515	340.39
189.892	362.98
190.27	311.01
190.647	335.87
191.024	340.39
191.401	342.65
191.778	320.05
192.155	333.61
192.533	333.61
192.91	295.19
193.287	304.23
193.664	338.13
194.041	356.21
194.418	320.05
194.795	347.17
195.172	378.8
195.549	317.79
195.926	281.63
196.302	358.47
196.679	342.65
197.056	329.09
197.433	292.93
197.81	320.05
198.187	297.45
198.563	295.19
198.94	283.89
199.317	342.65
199.693	254.51
200.07	306.49
200.447	311.01
200.823	315.53
201.2	304.23
201.576	243.21
201.953	308.75
202.329	306.49
202.706	301.97
203.082	249.99
203.459	243.21
203.835	263.55
204.212	338.13
204.588	329.09
204.964	292.93
205.341	374.28
205.717	292.93
206.093	322.31
206.469	331.35
206.846	281.63
207.222	279.37
207.598	254.51
207.974	295.19
208.35	281.63
208.726	333.61
209.102	277.11
209.479	290.67
209.855	369.76
210.231	301.97
210.607	369.76
210.982	290.67
211.358	317.79
211.734	324.57
212.11	367.5
212.486	331.35
212.862	254.51
213.238	306.49
213.614	342.65
213.989	335.87
214.365	286.15
214.741	308.75
215.116	333.61
215.492	306.49
215.868	335.87
216.243	326.83
216.619	367.5
216.995	301.97
217.37	369.76
217.746	369.76
218.121	279.37
218.497	344.91
218.872	301.97
219.247	306.49
219.623	313.27
219.998	340.39
220.374	344.91
220.749	362.98
221.124	292.93
221.499	268.07
221.875	322.31
222.25	279.37
222.625	286.15
223	329.09
223.376	356.21
223.751	338.13
224.126	329.09
224.501	374.28
224.876	403.66
225.251	322.31
225.626	401.4
226.001	311.01
226.376	344.91
226.751	304.23
227.126	376.54
227.501	311.01
227.875	292.93
228.25	335.87
228.625	358.47
229	349.43
229.375	292.93
229.749	347.17
230.124	347.17
230.499	374.28
230.873	385.58
231.248	414.96
231.623	320.05
231.997	353.95
232.372	326.83
232.746	405.92
233.121	356.21
233.495	369.76
233.87	378.8
234.244	365.24
234.619	353.95
234.993	340.39
235.367	320.05
235.742	437.56
236.116	353.95
236.49	347.17
236.865	283.89
237.239	349.43
237.613	365.24
237.987	351.69
238.361	329.09
238.736	351.69
239.11	353.95
239.484	338.13
239.858	356.21
240.232	333.61
240.606	344.91
240.98	322.31
241.354	353.95
241.728	369.76
242.102	428.52
242.475	392.36
242.849	374.28
243.223	396.88
243.597	374.28
243.971	320.05
244.344	356.21
244.718	333.61
245.092	340.39
245.466	390.1
245.839	365.24
246.213	365.24
246.586	360.72
246.96	403.66
247.334	417.22
247.707	392.36
248.081	365.24
248.454	392.36
248.828	342.65
249.201	365.24
249.574	356.21
249.948	320.05
250.321	313.27
250.694	376.54
251.068	414.96
251.441	403.66
251.814	353.95
252.187	356.21
252.561	464.68
252.934	347.17
253.307	385.58
253.68	410.44
254.053	394.62
254.426	378.8
254.799	378.8
255.172	437.56
255.545	360.72
255.918	487.28
256.291	401.4
256.664	385.58
257.037	353.95
257.41	392.36
257.782	385.58
258.155	405.92
258.528	428.52
258.901	421.74
259.273	374.28
259.646	360.72
260.019	405.92
260.391	378.8
260.764	381.06
261.137	410.44
261.509	401.4
261.882	358.47
262.254	338.13
262.627	390.1
262.999	360.72
263.372	410.44
263.744	419.48
264.116	419.48
264.489	356.21
264.861	333.61
265.233	399.14
265.606	396.88
265.978	376.54
266.35	358.47
266.722	435.3
267.094	403.66
267.467	376.54
267.839	392.36
268.211	313.27
268.583	453.38
268.955	383.32
269.327	385.58
269.699	374.28
270.071	374.28
270.443	424
270.815	405.92
271.186	322.31
271.558	356.21
271.93	414.96
272.302	439.82
272.674	374.28
273.045	369.76
273.417	362.98
273.789	378.8
274.16	396.88
274.532	392.36
274.904	399.14
275.275	401.4
275.647	367.5
276.018	383.32
276.39	401.4
276.761	437.56
277.133	433.04
277.504	353.95
277.875	430.78
278.247	392.36
278.618	403.66
278.989	387.84
279.361	344.91
279.732	367.5
280.103	451.12
280.474	351.69
280.846	414.96
281.217	460.16
281.588	399.14
281.959	396.88
282.33	396.88
282.701	446.6
283.072	457.9
283.443	469.2
283.814	421.74
284.185	383.32
284.556	392.36
284.927	414.96
285.297	381.06
285.668	478.24
286.039	442.08
286.41	448.86
286.781	460.16
287.151	390.1
287.522	412.7
287.893	412.7
288.263	414.96
288.634	448.86
289.004	437.56
289.375	457.9
289.745	424
290.116	385.58
290.486	419.48
290.857	439.82
291.227	426.26
291.598	471.46
291.968	460.16
292.338	424
292.709	442.08
293.079	460.16
293.449	392.36
293.819	399.14
294.189	424
294.56	401.4
294.93	381.06
295.3	480.5
295.67	419.48
296.04	444.34
296.41	439.82
296.78	505.35
297.15	412.7
297.52	439.82
297.89	428.52
298.259	446.6
298.629	419.48
298.999	442.08
299.369	433.04
299.739	473.72
300.108	446.6
300.478	455.64
300.848	433.04
301.217	446.6
301.587	426.26
301.957	390.1
302.326	451.12
302.696	487.28
303.065	457.9
303.435	491.79
303.804	496.31
304.174	496.31
304.543	496.31
304.912	485.02
305.282	464.68
305.651	421.74
306.02	376.54
306.39	424
306.759	460.16
307.128	462.42
307.497	390.1
307.866	453.38
308.235	494.05
308.604	568.63
308.974	455.64
309.343	514.39
309.712	444.34
310.08	444.34
310.449	444.34
310.818	509.87
311.187	518.91
311.556	536.99
311.925	405.92
312.294	471.46
312.662	471.46
313.031	428.52
313.4	503.09
313.769	424
314.137	489.54
314.506	455.64
314.874	417.22
315.243	489.54
315.612	491.79
315.98	507.61
316.349	478.24
316.717	566.37
317.085	566.37
317.454	498.57
317.822	446.6
318.191	430.78
318.559	503.09
318.927	552.81
319.295	424
319.664	543.77
320.032	505.35
320.4	439.82
320.768	514.39
321.136	471.46
321.504	516.65
321.872	478.24
322.24	494.05
322.608	509.87
322.976	534.73
323.344	498.57
323.712	532.47
324.08	561.85
324.448	491.79
324.816	534.73
325.183	539.25
325.551	530.21
325.919	428.52
326.287	523.43
326.654	525.69
327.022	516.65
327.389	505.35
327.757	505.35
328.125	516.65
328.492	573.15
328.86	462.42
329.227	523.43
329.594	451.12
329.962	489.54
330.329	507.61
330.697	539.25
331.064	516.65
331.431	505.35
331.798	507.61
332.166	523.43
332.533	679.36
332.9	523.43
333.267	525.69
333.634	561.85
334.001	602.53
334.368	579.93
334.735	568.63
335.102	561.85
335.469	532.47
335.836	593.49
336.203	557.33
336.57	593.49
336.937	550.55
337.304	595.75
337.67	532.47
338.037	661.28
338.404	595.75
338.771	618.35
339.137	566.37
339.504	613.83
339.87	570.89
340.237	654.5
340.604	620.61
340.97	577.67
341.337	625.12
341.703	588.97
342.069	636.42
342.436	518.91
342.802	564.11
343.169	600.27
343.535	591.23
343.901	636.42
344.267	607.05
344.634	631.9
345	604.79
345.366	602.53
345.732	568.63
346.098	598.01
346.464	595.75
346.83	622.86
347.196	640.94
347.562	652.24
347.928	573.15
348.294	622.86
348.66	649.98
349.026	749.42
349.392	634.16
349.757	604.79
350.123	704.22
350.489	609.31
350.855	588.97
351.22	652.24
351.586	640.94
351.951	674.84
352.317	720.04
352.683	699.7
353.048	661.28
353.414	758.45
353.779	688.4
354.144	713.26
354.51	715.52
354.875	704.22
355.24	679.36
355.606	699.7
355.971	722.3
356.336	765.23
356.701	749.42
357.067	726.82
357.432	760.71
357.797	715.52
358.162	715.52
358.527	803.65
358.892	756.19
359.257	724.56
359.622	871.45
359.987	785.57
360.352	866.93
360.717	842.07
361.082	740.38
361.446	812.69
361.811	735.86
362.176	860.15
362.541	909.86
362.905	975.4
363.27	918.9
363.635	896.3
363.999	914.38
364.364	880.49
364.728	905.34
365.093	912.12
365.457	986.7
365.822	900.82
366.186	909.86
366.55	979.92
366.915	984.44
367.279	961.84
367.643	993.48
368.008	1038.67
368.372	977.66
368.736	1056.75
369.1	1092.91
369.464	1106.47
369.828	1088.39
370.192	1061.27
370.556	1131.33
370.92	1169.74
371.284	1178.78
371.648	1178.78
372.012	1300.81
372.376	1366.35
372.74	1323.41
373.104	1336.97
373.468	1547.13
373.831	1400.25
374.195	1522.28
374.559	1544.87
374.922	1533.58
375.286	1461.26
375.65	1560.69
376.013	1694.02
376.377	1653.35
376.74	1809.27
377.104	1779.9
377.467	1981.02
377.83	1999.1
378.194	2136.95
378.557	2247.68
378.92	2417.17
379.284	2371.97
379.647	2616.03
380.01	2812.64
380.373	2930.15
380.736	3070.26
381.1	3447.65
381.463	3716.57
381.826	3980.97
382.189	4193.39
382.552	4451.01
382.915	4902.98
383.278	5321.05
383.64	5820.47
384.003	6356.05
384.366	6683.72
384.729	7391.05
385.092	8087.08
385.454	8640.73
385.817	9201.17
386.18	10416.96
386.542	11442.92
386.905	12518.6
387.268	13732.12
387.63	14988.59
387.993	16161.44
388.355	17752.36
388.718	19336.5
389.08	21587.29
389.442	23453.9
389.805	25309.22
390.167	27248.15
390.529	30391.57
390.892	33675.1
391.254	35790.3
391.616	38163.12
391.978	42671.48
392.34	46592.28
392.702	48183.2
393.064	51588.76
393.426	54056.49
393.788	55654.19
394.15	57095.96
394.512	58955.79
394.874	60937.66
395.236	62578.3
395.598	64501.41
395.96	65073.15
396.321	65073.15
396.683	65073.15
397.045	65073.15
397.406	65073.15
397.768	65073.15
398.13	65073.15
398.491	65073.15
398.853	65073.15
399.214	65073.15
399.576	65073.15
399.937	65073.15
400.299	65073.15
400.66	65073.15
401.021	65073.15
401.383	65073.15
401.744	65073.15
402.105	65073.15
402.466	65073.15
402.827	65073.15
403.189	65073.15
403.55	65073.15
403.911	65073.15
404.272	65073.15
404.633	65073.15
404.994	65073.15
405.355	65073.15
405.716	65073.15
406.077	65073.15
406.437	65073.15
406.798	65073.15
407.159	65073.15
407.52	65073.15
407.88	65073.15
408.241	65073.15
408.602	65073.15
408.962	65073.15
409.323	65073.15
409.684	65073.15
410.044	65073.15
410.405	65073.15
410.765	65073.15
411.125	65073.15
411.486	65073.15
411.846	65073.15
412.206	65073.15
412.567	65073.15
412.927	65073.15
413.287	65073.15
413.647	65073.15
414.007	65073.15
414.368	65073.15
414.728	65073.15
415.088	65073.15
415.448	65073.15
415.808	65073.15
416.168	65073.15
416.528	65073.15
416.887	65073.15
417.247	65073.15
417.607	65073.15
417.967	65073.15
418.327	65073.15
418.686	65073.15
419.046	65073.15
419.406	65073.15
419.765	65073.15
420.125	65073.15
420.484	65073.15
420.844	65073.15
421.203	65073.15
421.563	64551.13
421.922	64047.19
422.282	62440.45
422.641	60829.19
423	59708.32
423.36	58763.71
423.719	56750.2
424.078	54711.84
424.437	52998.89
424.796	51396.67
425.155	50067.89
425.515	47032.94
425.874	46043.14
426.233	41677.15
426.592	39525.8
426.95	38802.65
427.309	36201.59
427.668	35462.63
428.027	32608.46
428.386	32005.09
428.745	28936.24
429.103	27241.37
429.462	26213.15
429.821	24120.55
430.179	23417.75
430.538	22617.77
430.897	21609.88
431.255	20509.35
431.614	19185.09
431.972	18834.82
432.33	17503.78
432.689	17745.58
433.047	16561.43
433.405	15384.06
433.764	14848.48
434.122	14416.85
434.48	13506.14
434.838	12945.7
435.197	12373.97
435.555	12057.59
435.913	11406.76
436.271	10898.3
436.629	10740.11
436.987	9974.03
437.345	9422.63
437.703	9180.83
438.061	8792.14
438.418	8152.61
438.776	7843.01
439.134	7567.32
439.492	7327.77
439.849	7004.62
440.207	6670.16
440.565	6446.44
440.922	5967.36
441.28	5637.42
441.637	5501.83
441.995	5445.34
442.352	5147.04
442.71	4853.26
443.067	4753.83
443.425	4577.56
443.782	4349.32
444.139	4281.53
444.496	4069.1
444.854	3919.95
445.211	3752.73
445.568	3671.37
445.925	3427.31
446.282	3336.92
446.639	3341.44
446.996	3246.52
447.353	3355
447.71	3230.71
448.067	3099.64
448.424	2851.05
448.781	2891.73
449.137	2778.74
449.494	2616.03
449.851	2498.52
450.208	2561.8
450.564	2279.32
450.921	2238.64
451.278	2202.48
451.634	2297.4
451.991	2116.61
452.347	2071.41
452.704	1983.28
453.06	1938.08
453.416	1858.99
453.773	1662.39
454.129	1714.36
454.485	1675.94
454.841	1689.5
455.198	1642.05
455.554	1463.52
455.91	1621.71
456.266	1513.24
456.622	1429.62
456.978	1431.88
457.334	1233.02
457.69	1266.92
458.046	1190.08
458.402	1298.55
458.758	1223.98
459.114	1122.29
459.469	1138.11
459.825	1169.74
460.181	1142.63
460.536	1110.99
460.892	1025.11
461.248	1115.51
461.603	1000.26
461.959	1002.52
462.314	1095.17
462.67	941.5
463.025	966.36
463.38	1000.26
463.736	934.72
464.091	932.46
464.446	857.89
464.802	783.31
465.157	894.04
465.512	869.19
465.867	887.26
466.222	851.11
466.577	846.59
466.932	839.81
467.287	808.17
467.642	740.38
467.997	785.57
468.352	790.09
468.707	751.68
469.062	803.65
469.417	785.57
469.771	749.42
470.126	772.01
470.481	738.12
470.835	668.06
471.19	729.08
471.544	699.7
471.899	643.2
472.253	638.68
472.608	659.02
472.962	634.16
473.317	726.82
473.671	663.54
474.025	704.22
474.38	663.54
474.734	699.7
475.088	593.49
475.442	613.83
475.796	629.64
476.15	690.66
476.504	561.85
476.858	568.63
477.212	656.76
477.566	595.75
477.92	704.22
478.274	579.93
478.628	566.37
478.982	584.45
479.336	607.05
479.689	627.38
480.043	543.77
480.397	652.24
480.75	618.35
481.104	573.15
481.457	568.63
481.811	636.42
482.164	611.57
482.518	604.79
482.871	557.33
483.225	561.85
483.578	598.01
483.931	586.71
484.284	541.51
484.638	579.93
484.991	609.31
485.344	575.41
485.697	620.61
486.05	622.86
486.403	582.19
486.756	536.99
487.109	588.97
487.462	561.85
487.815	582.19
488.168	523.43
488.52	647.72
488.873	557.33
489.226	527.95
489.579	548.29
489.931	546.03
490.284	548.29
490.637	512.13
490.989	525.69
491.342	541.51
491.694	543.77
492.047	534.73
492.399	586.71
492.751	579.93
493.104	573.15
493.456	525.69
493.808	575.41
494.16	536.99
494.513	534.73
494.865	525.69
495.217	570.89
495.569	521.17
495.921	579.93
496.273	575.41
496.625	548.29
496.977	530.21
497.329	609.31
497.68	568.63
498.032	636.42
498.384	550.55
498.736	539.25
499.087	546.03
499.439	636.42
499.791	607.05
500.142	579.93
500.494	607.05
500.845	618.35
501.197	568.63
501.548	548.29
501.9	570.89
502.251	622.86
502.602	636.42
502.954	568.63
503.305	604.79
503.656	579.93
504.007	681.62
504.358	652.24
504.709	625.12
505.061	674.84
505.412	634.16
505.763	627.38
506.113	622.86
506.464	679.36
506.815	722.3
507.166	665.8
507.517	683.88
507.868	697.44
508.218	744.9
508.569	729.08
508.92	744.9
509.27	776.53
509.621	670.32
509.971	724.56
510.322	810.43
510.672	792.35
511.023	823.99
511.373	826.25
511.723	781.05
512.074	812.69
512.424	839.81
512.774	927.94
513.124	894.04
513.475	853.37
513.825	966.36
514.175	943.76
514.525	878.23
514.875	866.93
515.225	959.58
515.575	957.32
515.924	979.92
516.274	1031.89
516.624	1045.45
516.974	1065.79
517.324	1113.25
517.673	1065.79
518.023	979.92
518.373	1126.81
518.722	1138.11
519.072	1070.31
519.421	1092.91
519.771	1138.11
520.12	1124.55
520.469	1147.14
520.819	1083.87
521.168	1167.48
521.517	1151.66
521.867	1233.02
522.216	1181.04
522.565	1242.06
522.914	1210.42
523.263	1316.63
523.612	1300.81
523.961	1287.25
524.31	1289.51
524.659	1273.7
525.008	1339.23
525.357	1289.51
525.705	1397.99
526.054	1307.59
526.403	1420.58
526.752	1323.41
527.1	1366.35
527.449	1411.54
527.797	1388.95
528.146	1343.75
528.495	1436.4
528.843	1499.68
529.191	1465.78
529.54	1517.76
529.888	1370.87
530.236	1560.69
530.585	1438.66
530.933	1472.56
531.281	1535.84
531.629	1479.34
531.977	1551.65
532.325	1558.43
532.673	1522.28
533.021	1449.96
533.369	1474.82
533.717	1443.18
534.065	1492.9
534.413	1499.68
534.761	1431.88
535.108	1470.3
535.456	1510.98
535.804	1497.42
536.151	1447.7
536.499	1526.8
536.847	1490.64
537.194	1540.35
537.542	1492.9
537.889	1574.25
538.236	1501.94
538.584	1522.28
538.931	1553.91
539.278	1515.5
539.626	1529.06
539.973	1540.35
540.32	1490.64
540.667	1397.99
541.014	1531.32
541.361	1553.91
541.708	1431.88
542.055	1486.12
542.402	1470.3
542.749	1531.32
543.096	1465.78
543.443	1578.77
543.789	1565.21
544.136	1427.36
544.483	1504.2
544.83	1556.17
545.176	1465.78
545.523	1576.51
545.869	1562.95
546.216	1479.34
546.562	1492.9
546.909	1535.84
547.255	1488.38
547.601	1474.82
547.948	1474.82
548.294	1621.71
548.64	1501.94
548.986	1612.67
549.332	1585.55
549.678	1542.61
550.025	1520.02
550.371	1427.36
550.717	1477.08
551.062	1542.61
551.408	1520.02
551.754	1513.24
552.1	1560.69
552.446	1479.34
552.792	1508.72
553.137	1605.89
553.483	1569.73
553.828	1483.86
554.174	1440.92
554.52	1522.28
554.865	1463.52
555.211	1481.6
555.556	1456.74
555.901	1490.64
556.247	1583.29
556.592	1456.74
556.937	1472.56
557.282	1472.56
557.628	1454.48
557.973	1508.72
558.318	1461.26
558.663	1483.86
559.008	1556.17
559.353	1504.2
559.698	1490.64
560.043	1486.12
560.388	1515.5
560.732	1513.24
561.077	1420.58
561.422	1508.72
561.766	1515.5
562.111	1553.91
562.456	1535.84
562.8	1612.67
563.145	1526.8
563.489	1560.69
563.834	1499.68
564.178	1590.07
564.523	1574.25
564.867	1529.06
565.211	1556.17
565.555	1576.51
565.9	1522.28
566.244	1547.13
566.588	1587.81
566.932	1642.05
567.276	1610.41
567.62	1513.24
567.964	1474.82
568.308	1596.85
568.652	1639.79
568.996	1694.02
569.339	1571.99
569.683	1675.94
570.027	1621.71
570.371	1531.32
570.714	1614.93
571.058	1610.41
571.401	1549.39
571.745	1599.11
572.088	1551.65
572.432	1585.55
572.775	1565.21
573.118	1538.1
573.462	1623.97
573.805	1576.51
574.148	1617.19
574.491	1515.5
574.835	1630.75
575.178	1549.39
575.521	1508.72
575.864	1574.25
576.207	1556.17
576.55	1562.95
576.892	1612.67
577.235	1612.67
577.578	1590.07
577.921	1574.25
578.264	1486.12
578.606	1486.12
578.949	1479.34
579.292	1558.43
579.634	1452.22
579.977	1481.6
580.319	1524.54
580.662	1474.82
581.004	1472.56
581.346	1456.74
581.689	1567.47
582.031	1569.73
582.373	1529.06
582.715	1445.44
583.057	1492.9
583.4	1416.06
583.742	1418.32
584.084	1397.99
584.426	1402.51
584.768	1420.58
585.109	1440.92
585.451	1375.39
585.793	1407.03
586.135	1346.01
586.477	1395.73
586.818	1379.91
587.16	1294.03
587.502	1368.61
587.843	1413.8
588.185	1336.97
588.526	1287.25
588.868	1221.72
589.209	1248.84
589.55	1343.75
589.892	1233.02
590.233	1233.02
590.574	1201.38
590.915	1208.16
591.257	1323.41
591.598	1228.5
591.939	1208.16
592.28	1212.68
592.621	1214.94
592.962	1230.76
593.303	1169.74
593.643	1151.66
593.984	1090.65
594.325	1138.11
594.666	1235.28
595.006	1135.85
595.347	1110.99
595.688	1108.73
596.028	1077.09
596.369	1099.69
596.709	1011.56
597.05	1108.73
597.39	1090.65
597.73	1138.11
598.071	1068.05
598.411	1092.91
598.751	1061.27
599.091	1045.45
599.431	1095.17
599.772	1029.63
600.112	1047.71
600.452	943.76
600.792	977.66
601.132	1056.75
601.471	1061.27
601.811	1027.37
602.151	952.8
602.491	860.15
602.831	975.4
603.17	959.58
603.51	941.5
603.849	991.22
604.189	923.42
604.528	1016.07
604.868	968.62
605.207	950.54
605.547	873.71
605.886	934.72
606.225	1016.07
606.565	907.6
606.904	833.03
607.243	857.89
607.582	984.44
607.921	853.37
608.26	821.73
608.599	821.73
608.938	943.76
609.277	866.93
609.616	912.12
609.955	857.89
610.293	914.38
610.632	830.77
610.971	869.19
611.309	866.93
611.648	903.08
611.987	887.26
612.325	860.15
612.664	833.03
613.002	839.81
613.34	812.69
613.679	869.19
614.017	826.25
614.355	853.37
614.694	803.65
615.032	819.47
615.37	826.25
615.708	803.65
616.046	851.11
616.384	749.42
616.722	855.63
617.06	781.05
617.398	738.12
617.736	765.23
618.073	742.64
618.411	751.68
618.749	803.65
619.086	711
619.424	690.66
619.762	769.75
620.099	819.47
620.437	742.64
620.774	810.43
621.112	819.47
621.449	774.27
621.786	776.53
622.123	756.19
622.461	769.75
622.798	765.23
623.135	640.94
623.472	756.19
623.809	767.49
624.146	665.8
624.483	801.39
624.82	851.11
625.157	783.31
625.494	701.96
625.83	778.79
626.167	720.04
626.504	713.26
626.841	781.05
627.177	756.19
627.514	801.39
627.85	720.04
628.187	692.92
628.523	708.74
628.86	762.97
629.196	663.54
629.532	652.24
629.869	677.1
630.205	794.61
630.541	697.44
630.877	699.7
631.213	652.24
631.549	744.9
631.885	785.57
632.221	665.8
632.557	708.74
632.893	706.48
633.229	686.14
633.564	548.29
633.9	674.84
634.236	656.76
634.572	611.57
634.907	674.84
635.243	677.1
635.578	713.26
635.914	629.64
636.249	677.1
636.585	654.5
636.92	568.63
637.255	640.94
637.59	600.27
637.926	645.46
638.261	604.79
638.596	566.37
638.931	640.94
639.266	595.75
639.601	640.94
639.936	561.85
640.271	627.38
640.606	604.79
640.94	604.79
641.275	611.57
641.61	616.09
641.945	593.49
642.279	629.64
642.614	577.67
642.948	579.93
643.283	573.15
643.617	557.33
643.952	579.93
644.286	588.97
644.62	620.61
644.955	607.05
645.289	636.42
645.623	546.03
645.957	546.03
646.291	568.63
646.625	584.45
646.959	638.68
647.293	546.03
647.627	600.27
647.961	591.23
648.295	473.72
648.629	573.15
648.962	570.89
649.296	532.47
649.63	534.73
649.963	539.25
650.297	491.79
650.63	485.02
650.964	444.34
651.297	475.98
651.631	514.39
651.964	543.77
652.297	536.99
652.631	539.25
652.964	586.71
653.297	471.46
653.63	514.39
653.963	475.98
654.296	500.83
654.629	494.05
654.962	516.65
655.295	471.46
655.628	464.68
655.961	514.39
656.293	426.26
656.626	475.98
656.959	426.26
657.291	482.76
657.624	469.2
657.956	509.87
658.289	442.08
658.621	491.79
658.954	491.79
659.286	462.42
659.618	448.86
659.95	512.13
660.283	437.56
660.615	512.13
660.947	462.42
661.279	485.02
661.611	464.68
661.943	410.44
662.275	405.92
662.607	466.94
662.939	453.38
663.27	381.06
663.602	419.48
663.934	424
664.266	383.32
664.597	419.48
664.929	448.86
665.26	396.88
665.592	446.6
665.923	455.64
666.255	383.32
666.586	442.08
666.917	430.78
667.248	426.26
667.58	424
667.911	394.62
668.242	320.05
668.573	408.18
668.904	462.42
669.235	421.74
669.566	347.17
669.897	446.6
670.228	426.26
670.558	421.74
670.889	417.22
671.22	460.16
671.551	392.36
671.881	331.35
672.212	444.34
672.542	414.96
672.873	387.84
673.203	351.69
673.533	383.32
673.864	405.92
674.194	381.06
674.524	378.8
674.855	448.86
675.185	326.83
675.515	451.12
675.845	430.78
676.175	347.17
676.505	433.04
676.835	378.8
677.165	381.06
677.494	378.8
677.824	385.58
678.154	358.47
678.484	385.58
678.813	396.88
679.143	399.14
679.472	351.69
679.802	338.13
680.131	295.19
680.461	392.36
680.79	335.87
681.119	401.4
681.449	329.09
681.778	356.21
682.107	367.5
682.436	408.18
682.765	351.69
683.094	405.92
683.423	288.41
683.752	392.36
684.081	390.1
684.41	347.17
684.739	403.66
685.067	360.72
685.396	324.57
685.725	308.75
686.053	326.83
686.382	335.87
686.711	374.28
687.039	376.54
687.367	335.87
687.696	421.74
688.024	408.18
688.352	396.88
688.681	329.09
689.009	347.17
689.337	394.62
689.665	417.22
689.993	385.58
690.321	324.57
690.649	335.87
690.977	331.35
691.305	338.13
691.633	297.45
691.961	306.49
692.288	347.17
692.616	351.69
692.944	301.97
693.271	331.35
693.599	353.95
693.926	362.98
694.254	358.47
694.581	344.91
694.908	324.57
695.236	417.22
695.563	306.49
695.89	306.49
696.217	320.05
696.544	374.28
696.871	369.76
697.198	306.49
697.525	351.69
697.852	344.91
698.179	372.02
698.506	347.17
698.833	369.76
699.16	335.87
699.486	347.17
699.813	394.62
700.139	311.01
700.466	270.33
700.793	249.99
701.119	378.8
701.445	288.41
701.772	292.93
702.098	286.15
702.424	281.63
702.75	322.31
703.077	261.29
703.403	347.17
703.729	358.47
704.055	374.28
704.381	326.83
704.707	281.63
705.033	353.95
705.358	338.13
705.684	254.51
706.01	351.69
706.336	329.09
706.661	403.66
706.987	299.71
707.312	281.63
707.638	306.49
707.963	360.72
708.289	372.02
708.614	261.29
708.939	340.39
709.265	290.67
709.59	329.09
709.915	347.17
710.24	297.45
710.565	329.09
710.89	311.01
711.215	342.65
711.54	308.75
711.865	315.53
712.19	324.57
712.515	263.55
712.839	236.43
713.164	299.71
713.489	326.83
713.813	286.15
714.138	288.41
714.462	331.35
714.787	288.41
715.111	265.81
715.435	333.61
715.76	317.79
716.084	304.23
716.408	286.15
716.732	292.93
717.056	286.15
717.381	270.33
717.705	247.73
718.028	288.41
718.352	340.39
718.676	279.37
719	326.83
719.324	347.17
719.648	333.61
719.971	247.73
720.295	243.21
720.618	329.09
720.942	322.31
721.265	252.25
721.589	311.01
721.912	295.19
722.236	304.23
722.559	288.41
722.882	322.31
723.205	290.67
723.528	335.87
723.851	281.63
724.174	301.97
724.497	249.99
724.82	236.43
725.143	322.31
725.466	274.85
725.789	265.81
726.112	299.71
726.434	340.39
726.757	304.23
727.08	304.23
727.402	263.55
727.725	252.25
728.047	281.63
728.37	225.14
728.692	313.27
729.014	329.09
729.336	274.85
729.659	209.32
729.981	252.25
730.303	265.81
730.625	306.49
730.947	240.95
731.269	356.21
731.591	351.69
731.913	344.91
732.235	274.85
732.556	297.45
732.878	272.59
733.2	254.51
733.521	299.71
733.843	279.37
734.164	335.87
734.486	279.37
734.807	263.55
735.129	247.73
735.45	272.59
735.771	222.88
736.092	240.95
736.414	292.93
736.735	313.27
737.056	259.03
737.377	351.69
737.698	301.97
738.019	259.03
738.34	340.39
738.66	288.41
738.981	268.07
739.302	279.37
739.623	279.37
739.943	216.1
740.264	281.63
740.584	320.05
740.905	333.61
741.225	320.05
741.546	286.15
741.866	356.21
742.186	236.43
742.507	261.29
742.827	324.57
743.147	301.97
743.467	290.67
743.787	218.36
744.107	283.89
744.427	245.47
744.747	288.41
745.067	263.55
745.386	229.65
745.706	188.98
746.026	227.4
746.346	281.63
746.665	270.33
746.985	272.59
747.304	198.02
747.624	245.47
747.943	335.87
748.262	308.75
748.582	286.15
748.901	268.07
749.22	329.09
749.539	326.83
749.858	324.57
750.177	265.81
750.496	261.29
750.815	283.89
751.134	324.57
751.453	292.93
751.772	329.09
752.09	322.31
752.409	288.41
752.728	283.89
753.046	268.07
753.365	259.03
753.683	229.65
754.002	304.23
754.32	263.55
754.639	299.71
754.957	268.07
755.275	297.45
755.593	306.49
755.911	265.81
756.23	256.77
756.548	279.37
756.866	268.07
757.183	306.49
757.501	333.61
757.819	333.61
758.137	281.63
758.455	292.93
758.772	259.03
759.09	274.85
759.408	317.79
759.725	234.17
760.043	304.23
760.36	295.19
760.677	320.05
760.995	288.41
761.312	177.68
761.629	198.02
761.946	290.67
762.264	295.19
762.581	268.07
762.898	340.39
763.215	322.31
763.532	274.85
763.848	324.57
764.165	249.99
764.482	263.55
764.799	311.01
765.115	279.37
765.432	315.53
765.749	288.41
766.065	292.93
766.382	225.14
766.698	320.05
767.014	288.41
767.331	265.81
767.647	286.15
767.963	277.11
768.279	207.06
768.595	252.25
768.911	281.63
769.227	308.75
769.543	211.58
769.859	279.37
770.175	268.07
770.491	286.15
770.807	297.45
771.122	202.54
771.438	249.99
771.754	281.63
772.069	288.41
772.385	329.09
772.7	286.15
773.016	358.47
773.331	306.49
773.646	286.15
773.961	338.13
774.277	301.97
774.592	292.93
774.907	263.55
775.222	274.85
775.537	270.33
775.852	295.19
776.167	274.85
776.482	281.63
776.796	288.41
777.111	324.57
777.426	286.15
777.74	272.59
778.055	277.11
778.369	313.27
778.684	288.41
778.998	222.88
779.313	279.37
779.627	261.29
779.941	265.81
780.255	274.85
780.57	320.05
780.884	245.47
781.198	211.58
781.512	320.05
781.826	322.31
782.14	279.37
782.453	247.73
782.767	292.93
783.081	304.23
783.395	265.81
783.708	249.99
784.022	313.27
784.335	249.99
784.649	256.77
784.962	320.05
785.276	279.37
785.589	238.69
785.902	270.33
786.216	304.23
786.529	304.23
786.842	292.93
787.155	320.05
787.468	261.29
787.781	247.73
788.094	245.47
788.407	292.93
788.72	290.67
789.032	265.81
789.345	304.23
789.658	229.65
789.97	227.4
790.283	342.65
790.595	238.69
790.908	249.99
791.22	270.33
791.532	274.85
791.845	317.79
792.157	231.91
792.469	281.63
792.781	292.93
793.093	292.93
793.405	288.41
793.717	254.51
794.029	290.67
794.341	281.63
794.653	254.51
794.965	270.33
795.276	270.33
795.588	254.51
795.9	308.75
796.211	270.33
796.523	331.35
796.834	315.53
797.146	195.76
797.457	283.89
797.768	259.03
798.08	272.59
798.391	207.06
798.702	261.29
799.013	245.47
799.324	277.11
799.635	283.89
799.946	308.75
800.257	279.37
800.568	281.63
800.878	245.47
801.189	297.45
801.5	229.65
801.81	288.41
802.121	252.25
802.431	256.77
802.742	240.95
803.052	274.85
803.363	335.87
803.673	281.63
803.983	265.81
804.293	342.65
804.603	263.55
804.913	211.58
805.224	268.07
805.533	279.37
805.843	311.01
806.153	292.93
806.463	263.55
806.773	288.41
807.083	286.15
807.392	231.91
807.702	281.63
808.011	288.41
808.321	274.85
808.63	236.43
808.94	236.43
809.249	229.65
809.558	274.85
809.868	277.11
810.177	274.85
810.486	279.37
810.795	274.85
811.104	304.23
811.413	308.75
811.722	306.49
812.031	207.06
812.339	252.25
812.648	274.85
812.957	268.07
813.266	236.43
813.574	353.95
813.883	225.14
814.191	272.59
814.5	292.93
814.808	277.11
815.116	265.81
815.424	261.29
815.733	292.93
816.041	322.31
816.349	283.89
816.657	349.43
816.965	315.53
817.273	301.97
817.581	299.71
817.889	283.89
818.196	317.79
818.504	220.62
818.812	272.59
819.12	283.89
819.427	292.93
819.735	238.69
820.042	236.43
820.349	256.77
820.657	277.11
820.964	288.41
821.271	320.05
821.579	274.85
821.886	338.13
822.193	216.1
822.5	252.25
822.807	288.41
823.114	306.49
823.421	274.85
823.727	245.47
824.034	292.93
824.341	279.37
824.648	231.91
824.954	268.07
825.261	216.1
825.567	209.32
825.874	306.49
826.18	259.03
826.486	288.41
826.793	227.4
827.099	283.89
827.405	259.03
827.711	218.36
828.017	322.31
828.323	207.06
828.629	272.59
828.935	288.41
829.241	238.69
829.547	274.85
829.852	268.07
830.158	290.67
830.464	211.58
830.769	254.51
831.075	299.71
831.38	281.63
831.686	261.29
831.991	367.5
832.296	274.85
832.601	259.03
832.907	254.51
833.212	290.67
833.517	261.29
833.822	254.51
834.127	317.79
834.432	279.37
834.737	225.14
835.041	238.69
835.346	225.14
835.651	272.59
835.956	299.71
836.26	252.25
836.565	297.45
836.869	274.85
837.174	313.27
837.478	279.37
837.782	259.03
838.087	268.07
838.391	254.51
838.695	281.63
838.999	263.55
839.303	295.19
839.607	247.73
839.911	297.45
840.215	229.65
840.519	252.25
840.822	288.41
841.126	281.63
841.43	279.37
841.733	279.37
842.037	259.03
842.34	292.93
842.644	304.23
842.947	259.03
843.251	245.47
843.554	274.85
843.857	322.31
844.16	259.03
844.463	259.03
844.766	265.81
845.069	243.21
845.372	283.89
845.675	292.93
845.978	299.71
846.281	311.01
846.583	240.95
846.886	216.1
847.189	288.41
847.491	333.61
847.794	270.33
848.096	272.59
848.399	247.73
848.701	279.37
849.003	204.8
849.305	279.37
849.608	292.93
849.91	256.77
850.212	281.63
850.514	281.63
850.816	322.31
851.118	320.05
851.419	288.41
851.721	315.53
852.023	265.81
852.325	202.54
852.626	220.62
852.928	295.19
853.229	283.89
853.531	315.53
853.832	281.63
854.133	245.47
854.435	338.13
854.736	243.21
855.037	261.29
855.338	231.91
855.639	243.21
855.94	306.49
856.241	295.19
856.542	274.85
856.843	249.99
857.144	286.15
857.444	247.73
857.745	240.95
858.046	207.06
858.346	265.81
858.647	288.41
858.947	247.73
859.247	222.88
859.548	243.21
859.848	211.58
860.148	222.88
860.448	213.84
860.749	222.88
861.049	263.55
861.349	265.81
861.648	263.55
861.948	315.53
862.248	245.47
862.548	184.46
862.848	279.37
863.147	301.97
863.447	286.15
863.746	290.67
864.046	247.73
864.345	202.54
864.645	313.27
864.944	209.32
865.243	270.33
865.542	220.62
865.842	317.79
866.141	247.73
866.44	265.81
866.739	252.25
867.038	261.29
867.337	268.07
867.635	286.15
867.934	263.55
868.233	270.33
868.531	249.99
868.83	225.14
869.129	347.17
869.427	297.45
869.725	216.1
870.024	324.57
870.322	254.51
870.62	254.51
870.918	243.21
871.217	279.37
871.515	249.99
871.813	261.29
872.111	279.37
872.409	247.73
872.706	286.15
873.004	247.73
873.302	222.88
873.6	216.1
873.897	304.23
874.195	247.73
874.492	304.23
874.79	265.81
875.087	265.81
875.384	292.93
875.682	268.07
875.979	313.27
876.276	299.71
876.573	292.93
876.87	292.93
877.167	292.93
