Data from PL_2polymer_F8BT_MEHPPV_USB2H096331_0219.txt Node
Date: Tue Dec 15 16:23:50 CET 2020
User: spadmin
Spectrometer: USB2+H09633
Trigger mode: 0
Integration Time (sec): 1.000000E-2
Scans to average: 1
Electric dark correction enabled: true
Nonlinearity correction enabled: false
Boxcar width: 0
XAxis mode: Wavelengths
Number of Pixels in Spectrum: 2048
>>>>>Begin Spectral Data<<<<<
174.027	-28.25
174.405	-28.25
174.783	-28.25
175.162	-114.12
175.54	-73.44
175.918	-114.12
176.296	-134.46
176.674	-141.24
177.052	-116.38
177.43	-120.9
177.808	-46.33
178.186	-59.89
178.564	-5.65
178.942	-19.21
179.32	-1.13
179.698	12.43
180.076	37.29
180.453	96.04
180.831	84.74
181.209	107.34
181.587	114.12
181.965	193.22
182.342	100.56
182.72	157.06
183.098	231.63
183.475	211.29
183.853	238.41
184.231	163.84
184.608	258.75
184.986	274.57
185.363	351.4
185.741	279.09
186.118	294.91
186.496	328.8
186.873	301.69
187.251	306.21
187.628	283.61
188.006	319.77
188.383	369.48
188.76	342.36
189.138	272.31
189.515	331.06
189.892	317.51
190.27	367.22
190.647	315.25
191.024	319.77
191.401	335.58
191.778	360.44
192.155	367.22
192.533	337.84
192.91	328.8
193.287	315.25
193.664	355.92
194.041	342.36
194.418	380.78
194.795	369.48
195.172	380.78
195.549	403.38
195.926	353.66
196.302	349.14
196.679	310.73
197.056	301.69
197.433	358.18
197.81	319.77
198.187	328.8
198.563	326.55
198.94	342.36
199.317	333.32
199.693	337.84
200.07	308.47
200.447	344.62
200.823	261.01
201.2	270.05
201.576	294.91
201.953	367.22
202.329	328.8
202.706	270.05
203.082	353.66
203.459	283.61
203.835	403.38
204.212	383.04
204.588	299.43
204.964	276.83
205.341	346.88
205.717	349.14
206.093	263.27
206.469	376.26
206.846	299.43
207.222	346.88
207.598	265.53
207.974	310.73
208.35	376.26
208.726	378.52
209.102	319.77
209.479	299.43
209.855	306.21
210.231	326.55
210.607	265.53
210.982	317.51
211.358	355.92
211.734	340.1
212.11	312.99
212.486	333.32
212.862	306.21
213.238	349.14
213.614	346.88
213.989	335.58
214.365	369.48
214.741	346.88
215.116	335.58
215.492	328.8
215.868	270.05
216.243	303.95
216.619	337.84
216.995	288.13
217.37	355.92
217.746	378.52
218.121	398.86
218.497	396.6
218.872	387.56
219.247	310.73
219.623	335.58
219.998	335.58
220.374	374
220.749	401.12
221.124	337.84
221.499	383.04
221.875	324.29
222.25	319.77
222.625	428.24
223	385.3
223.376	317.51
223.751	392.08
224.126	385.3
224.501	344.62
224.876	389.82
225.251	272.31
225.626	279.09
226.001	392.08
226.376	385.3
226.751	410.16
227.126	383.04
227.501	328.8
227.875	394.34
228.25	376.26
228.625	337.84
229	340.1
229.375	371.74
229.749	333.32
230.124	319.77
230.499	308.47
230.873	349.14
231.248	315.25
231.623	385.3
231.997	374
232.372	441.8
232.746	439.54
233.121	324.29
233.495	346.88
233.87	308.47
234.244	326.55
234.619	353.66
234.993	378.52
235.367	371.74
235.742	344.62
236.116	346.88
236.49	333.32
236.865	362.7
237.239	349.14
237.613	346.88
237.987	344.62
238.361	285.87
238.736	405.64
239.11	297.17
239.484	324.29
239.858	358.18
240.232	412.42
240.606	407.9
240.98	335.58
241.354	364.96
241.728	297.17
242.102	414.68
242.475	374
242.849	367.22
243.223	428.24
243.597	392.08
243.971	374
244.344	374
244.718	335.58
245.092	369.48
245.466	346.88
245.839	385.3
246.213	401.12
246.586	364.96
246.96	394.34
247.334	376.26
247.707	412.42
248.081	374
248.454	378.52
248.828	414.68
249.201	392.08
249.574	362.7
249.948	362.7
250.321	394.34
250.694	423.72
251.068	355.92
251.441	407.9
251.814	374
252.187	412.42
252.561	358.18
252.934	419.2
253.307	383.04
253.68	401.12
254.053	419.2
254.426	383.04
254.799	432.76
255.172	392.08
255.545	421.46
255.918	412.42
256.291	383.04
256.664	383.04
257.037	416.94
257.41	380.78
257.782	416.94
258.155	371.74
258.528	344.62
258.901	466.65
259.273	401.12
259.646	355.92
260.019	351.4
260.391	355.92
260.764	428.24
261.137	401.12
261.509	407.9
261.882	462.13
262.254	389.82
262.627	362.7
262.999	349.14
263.372	367.22
263.744	437.28
264.116	407.9
264.489	380.78
264.861	410.16
265.233	407.9
265.606	364.96
265.978	425.98
266.35	380.78
266.722	421.46
267.094	378.52
267.467	392.08
267.839	473.43
268.211	387.56
268.583	385.3
268.955	369.48
269.327	412.42
269.699	448.58
270.071	416.94
270.443	369.48
270.815	376.26
271.186	466.65
271.558	378.52
271.93	355.92
272.302	333.32
272.674	392.08
273.045	342.36
273.417	392.08
273.789	367.22
274.16	423.72
274.532	446.32
274.904	387.56
275.275	471.17
275.647	444.06
276.018	444.06
276.39	419.2
276.761	392.08
277.133	389.82
277.504	423.72
277.875	435.02
278.247	412.42
278.618	403.38
278.989	439.54
279.361	387.56
279.732	448.58
280.103	387.56
280.474	385.3
280.846	435.02
281.217	392.08
281.588	435.02
281.959	448.58
282.33	423.72
282.701	459.87
283.072	468.91
283.443	439.54
283.814	414.68
284.185	425.98
284.556	392.08
284.927	432.76
285.297	453.1
285.668	468.91
286.039	432.76
286.41	430.5
286.781	360.44
287.151	453.1
287.522	407.9
287.893	453.1
288.263	419.2
288.634	448.58
289.004	428.24
289.375	419.2
289.745	523.15
290.116	360.44
290.486	414.68
290.857	425.98
291.227	435.02
291.598	471.17
291.968	387.56
292.338	446.32
292.709	448.58
293.079	423.72
293.449	477.95
293.819	421.46
294.189	459.87
294.56	428.24
294.93	439.54
295.3	477.95
295.67	414.68
296.04	407.9
296.41	439.54
296.78	410.16
297.15	432.76
297.52	493.77
297.89	496.03
298.259	453.1
298.629	480.21
298.999	464.39
299.369	468.91
299.739	471.17
300.108	450.84
300.478	453.1
300.848	412.42
301.217	423.72
301.587	482.47
301.957	514.11
302.326	396.6
302.696	407.9
303.065	439.54
303.435	538.97
303.804	477.95
304.174	455.36
304.543	505.07
304.912	500.55
305.282	446.32
305.651	446.32
306.02	520.89
306.39	425.98
306.759	389.82
307.128	511.85
307.497	459.87
307.866	480.21
308.235	527.67
308.604	507.33
308.974	523.15
309.343	475.69
309.712	529.93
310.08	493.77
310.449	541.23
310.818	489.25
311.187	473.43
311.556	491.51
311.925	482.47
312.294	432.76
312.662	482.47
313.031	491.51
313.4	466.65
313.769	471.17
314.137	514.11
314.506	466.65
314.874	500.55
315.243	496.03
315.612	489.25
315.98	457.62
316.349	507.33
316.717	554.79
317.085	554.79
317.454	462.13
317.822	523.15
318.191	496.03
318.559	516.37
318.927	545.75
319.295	518.63
319.664	523.15
320.032	496.03
320.4	579.65
320.768	520.89
321.136	500.55
321.504	489.25
321.872	536.71
322.24	493.77
322.608	446.32
322.976	493.77
323.344	446.32
323.712	500.55
324.08	486.99
324.448	455.36
324.816	570.61
325.183	466.65
325.551	505.07
325.919	541.23
326.287	455.36
326.654	509.59
327.022	505.07
327.389	520.89
327.757	541.23
328.125	554.79
328.492	584.17
328.86	568.35
329.227	514.11
329.594	441.8
329.962	595.46
330.329	523.15
330.697	459.87
331.064	491.51
331.431	527.67
331.798	523.15
332.166	554.79
332.533	563.83
332.9	674.56
333.267	638.4
333.634	520.89
334.001	618.06
334.368	570.61
334.735	511.85
335.102	590.94
335.469	572.87
335.836	575.13
336.203	523.15
336.57	609.02
336.937	588.69
337.304	622.58
337.67	572.87
338.037	577.39
338.404	570.61
338.771	548.01
339.137	651.96
339.504	554.79
339.87	559.31
340.237	642.92
340.604	518.63
340.97	597.72
341.337	525.41
341.703	590.94
342.069	638.4
342.436	590.94
342.802	624.84
343.169	577.39
343.535	572.87
343.901	577.39
344.267	665.52
344.634	570.61
345	658.74
345.366	575.13
345.732	663.26
346.098	604.5
346.464	676.82
346.83	613.54
347.196	627.1
347.562	581.91
347.928	667.78
348.294	606.76
348.66	627.1
349.026	665.52
349.392	658.74
349.757	667.78
350.123	557.05
350.489	633.88
350.855	706.2
351.22	629.36
351.586	717.5
351.951	764.95
352.317	715.24
352.683	712.98
353.048	667.78
353.414	753.65
353.779	708.46
354.144	737.83
354.51	742.35
354.875	708.46
355.24	753.65
355.606	760.43
355.971	726.53
356.336	737.83
356.701	823.71
357.067	724.27
357.432	769.47
357.797	749.13
358.162	764.95
358.527	857.6
358.892	767.21
359.257	751.39
359.622	798.85
359.987	789.81
360.352	780.77
360.717	764.95
361.082	760.43
361.446	891.5
361.811	846.31
362.176	807.89
362.541	830.49
362.905	966.08
363.27	905.06
363.635	932.18
363.999	979.64
364.364	891.5
364.728	911.84
365.093	993.19
365.457	993.19
365.822	972.86
366.186	972.86
366.55	1038.39
366.915	1045.17
367.279	925.4
367.643	979.64
368.008	945.74
368.372	1070.03
368.736	1006.75
369.1	1092.63
369.464	1128.78
369.828	1051.95
370.192	1110.71
370.556	1131.04
370.92	1207.88
371.284	1167.2
371.648	1137.82
372.012	1212.4
372.376	1325.39
372.74	1223.7
373.104	1336.69
373.468	1402.22
373.831	1524.25
374.195	1499.4
374.559	1555.89
374.922	1564.93
375.286	1463.24
375.65	1625.95
376.013	1738.94
376.377	1684.7
376.74	1779.61
377.104	1849.67
377.467	1960.4
377.83	2032.71
378.194	2114.07
378.557	2272.26
378.92	2491.46
379.284	2561.51
379.647	2672.25
380.01	2744.56
380.373	3022.52
380.736	3045.12
381.1	3506.12
381.463	3741.14
381.826	4007.8
382.189	4188.59
382.552	4432.65
382.915	4839.42
383.278	5121.9
383.64	5817.93
384.003	6141.08
384.366	6748.98
384.729	7356.87
385.092	7844.99
385.454	8491.3
385.817	9390.71
386.18	10611.02
386.542	11440.38
386.905	12500.24
387.268	13365.75
387.63	14988.31
387.993	16115.96
388.355	17776.93
388.718	19620.95
389.08	21144.08
389.442	23336.11
389.805	25092
390.167	27173.3
390.529	30382.25
390.892	33846.57
391.254	35507.54
391.616	38481.47
391.978	42192.11
392.34	46345.67
392.702	47963.71
393.064	51934.23
393.426	53789.55
393.788	55543.17
394.15	56998.5
394.512	58790.54
394.874	60711.4
395.236	62446.95
395.598	64433.33
395.96	65081.9
396.321	65081.9
396.683	65081.9
397.045	65081.9
397.406	65081.9
397.768	65081.9
398.13	65081.9
398.491	65081.9
398.853	65081.9
399.214	65081.9
399.576	65081.9
399.937	65081.9
400.299	65081.9
400.66	65081.9
401.021	65081.9
401.383	65081.9
401.744	65081.9
402.105	65081.9
402.466	65081.9
402.827	65081.9
403.189	65081.9
403.55	65081.9
403.911	65081.9
404.272	65081.9
404.633	65081.9
404.994	65081.9
405.355	65081.9
405.716	65081.9
406.077	65081.9
406.437	65081.9
406.798	65081.9
407.159	65081.9
407.52	65081.9
407.88	65081.9
408.241	65081.9
408.602	65081.9
408.962	65081.9
409.323	65081.9
409.684	65081.9
410.044	65081.9
410.405	65081.9
410.765	65081.9
411.125	65081.9
411.486	65081.9
411.846	65081.9
412.206	65081.9
412.567	65081.9
412.927	65081.9
413.287	65081.9
413.647	65081.9
414.007	65081.9
414.368	65081.9
414.728	65081.9
415.088	65081.9
415.448	65081.9
415.808	65081.9
416.168	65081.9
416.528	65081.9
416.887	65081.9
417.247	65081.9
417.607	65081.9
417.967	65081.9
418.327	65081.9
418.686	65081.9
419.046	65081.9
419.406	65081.9
419.765	65081.9
420.125	65081.9
420.484	65081.9
420.844	65081.9
421.203	65081.9
421.563	64155.38
421.922	64092.1
422.282	62132.83
422.641	60842.47
423	59479.79
423.36	58496.77
423.719	56548.8
424.078	54614.38
424.437	52544.38
424.796	51179.45
425.155	49527.51
425.515	47197.63
425.874	45848.51
426.233	42124.32
426.592	39563.93
426.95	38375.26
427.309	36072.5
427.668	35383.25
428.027	32791.23
428.386	31453.41
428.745	28859.13
429.103	27087.42
429.462	25541.7
429.821	24292.02
430.179	23159.84
430.538	22292.07
430.897	21758.75
431.255	20371.22
431.614	18961.08
431.972	18529.46
432.33	17790.49
432.689	17460.56
433.047	16219.91
433.405	15444.79
433.764	14775.88
434.122	14529.56
434.48	13523.94
434.838	12956.72
435.197	12371.43
435.555	12027.93
435.913	11146.6
436.271	10841.52
436.629	10366.96
436.987	10113.86
437.345	9189.59
437.703	9137.61
438.061	8690.17
438.418	8244.98
438.776	7711.66
439.134	7738.78
439.492	7189.64
439.849	6954.62
440.207	6624.68
440.565	6396.44
440.922	5930.92
441.28	5784.03
441.637	5426.98
441.995	5307.21
442.352	5205.51
442.71	4941.11
443.067	4728.69
443.425	4611.18
443.782	4251.87
444.139	4425.87
444.496	4107.24
444.854	3998.76
445.211	3856.4
445.568	3797.64
445.925	3474.48
446.282	3465.45
446.639	3375.05
446.996	3090.31
447.353	3316.3
447.71	3262.06
448.067	3205.57
448.424	2834.95
448.781	2868.85
449.137	2636.09
449.494	2502.76
449.851	2425.92
450.208	2439.48
450.564	2276.78
450.921	2150.23
451.278	2186.38
451.634	2213.5
451.991	2215.76
452.347	2053.05
452.704	2028.2
453.06	1890.35
453.416	1786.39
453.773	1754.76
454.129	1725.38
454.485	1598.83
454.841	1612.39
455.198	1607.87
455.554	1542.33
455.91	1526.51
456.266	1596.57
456.622	1485.84
456.978	1479.06
457.334	1332.17
457.69	1372.85
458.046	1325.39
458.402	1216.92
458.758	1167.2
459.114	1173.98
459.469	1201.1
459.825	1088.11
460.181	1076.81
460.536	1097.15
460.892	1031.61
461.248	1013.53
461.603	1045.17
461.959	952.52
462.314	968.34
462.67	914.1
463.025	995.45
463.38	880.2
463.736	990.93
464.091	850.83
464.446	911.84
464.802	864.38
465.157	830.49
465.512	823.71
465.867	862.12
466.222	864.38
466.577	819.19
466.932	839.53
467.287	792.07
467.642	798.85
467.997	819.19
468.352	789.81
468.707	798.85
469.062	778.51
469.417	753.65
469.771	783.03
470.126	685.86
470.481	751.39
470.835	724.27
471.19	699.42
471.544	740.09
471.899	654.22
472.253	599.98
472.608	651.96
472.962	724.27
473.317	712.98
473.671	663.26
474.025	638.4
474.38	667.78
474.734	636.14
475.088	631.62
475.442	586.43
475.796	654.22
476.15	638.4
476.504	676.82
476.858	636.14
477.212	697.16
477.566	665.52
477.92	593.2
478.274	672.3
478.628	579.65
478.982	638.4
479.336	584.17
479.689	631.62
480.043	618.06
480.397	606.76
480.75	593.2
481.104	661
481.457	570.61
481.811	649.7
482.164	579.65
482.518	561.57
482.871	670.04
483.225	620.32
483.578	581.91
483.931	597.72
484.284	613.54
484.638	597.72
484.991	597.72
485.344	586.43
485.697	581.91
486.05	629.36
486.403	527.67
486.756	590.94
487.109	597.72
487.462	622.58
487.815	633.88
488.168	661
488.52	590.94
488.873	627.1
489.226	624.84
489.579	577.39
489.931	559.31
490.284	590.94
490.637	566.09
490.989	588.69
491.342	550.27
491.694	516.37
492.047	645.18
492.399	559.31
492.751	622.58
493.104	599.98
493.456	529.93
493.808	579.65
494.16	595.46
494.513	570.61
494.865	545.75
495.217	548.01
495.569	611.28
495.921	570.61
496.273	568.35
496.625	638.4
496.977	590.94
497.329	597.72
497.68	597.72
498.032	590.94
498.384	622.58
498.736	663.26
499.087	624.84
499.439	620.32
499.791	568.35
500.142	631.62
500.494	615.8
500.845	645.18
501.197	649.7
501.548	631.62
501.9	618.06
502.251	636.14
502.602	645.18
502.954	606.76
503.305	694.9
503.656	706.2
504.007	642.92
504.358	701.68
504.709	749.13
505.061	719.76
505.412	792.07
505.763	753.65
506.113	663.26
506.464	751.39
506.815	787.55
507.166	873.42
507.517	823.71
507.868	764.95
508.218	884.72
508.569	884.72
508.92	796.59
509.27	828.23
509.621	848.57
509.971	855.34
510.322	909.58
510.672	911.84
511.023	850.83
511.373	952.52
511.723	1022.57
512.074	979.64
512.424	997.71
512.774	1038.39
513.124	1033.87
513.475	1006.75
513.825	1117.48
514.175	1029.35
514.525	1040.65
514.875	1135.56
515.225	1124.26
515.575	1106.19
515.924	1149.12
516.274	1110.71
516.624	1164.94
516.974	1219.18
517.324	1155.9
517.673	1221.44
518.023	1311.83
518.373	1250.81
518.722	1223.7
519.072	1293.75
519.421	1268.89
519.771	1280.19
520.12	1341.21
520.469	1361.55
520.819	1451.94
521.168	1366.07
521.517	1483.58
521.867	1402.22
522.216	1438.38
522.565	1465.5
522.914	1429.34
523.263	1465.5
523.612	1483.58
523.961	1492.62
524.31	1628.21
524.659	1571.71
525.008	1535.55
525.357	1558.15
525.705	1578.49
526.054	1693.74
526.403	1655.32
526.752	1657.58
527.1	1601.09
527.449	1689.22
527.797	1583.01
528.146	1668.88
528.495	1682.44
528.843	1793.17
529.191	1795.43
529.54	1815.77
529.888	1849.67
530.236	1752.5
530.585	1671.14
530.933	1840.63
531.281	1761.54
531.629	1926.5
531.977	1705.04
532.325	1811.25
532.673	1822.55
533.021	1804.47
533.369	1766.06
533.717	1804.47
534.065	1822.55
534.413	1820.29
534.761	1946.84
535.108	1858.71
535.456	1842.89
535.804	1779.61
536.151	1865.49
536.499	1908.42
536.847	1992.04
537.194	1768.32
537.542	1793.17
537.889	1870.01
538.236	1813.51
538.584	1831.59
538.931	1951.36
539.278	1811.25
539.626	1906.16
539.973	1833.85
540.32	1906.16
540.667	1899.39
541.014	1858.71
541.361	1763.8
541.708	1858.71
542.055	1779.61
542.402	1772.83
542.749	1806.73
543.096	1833.85
543.443	1931.02
543.789	1888.09
544.136	1822.55
544.483	1797.69
544.83	1811.25
545.176	1775.09
545.523	1928.76
545.869	1820.29
546.216	1883.57
546.562	1822.55
546.909	1892.61
547.255	1870.01
547.601	1806.73
547.948	1919.72
548.294	1799.95
548.64	1818.03
548.986	1824.81
549.332	1763.8
549.678	1860.97
550.025	1860.97
550.371	1829.33
550.717	1921.98
551.062	1836.11
551.408	1808.99
551.754	1763.8
552.1	1790.91
552.446	1763.8
552.792	1860.97
553.137	1808.99
553.483	1860.97
553.828	1822.55
554.174	1784.13
554.52	1867.75
554.865	1879.05
555.211	1829.33
555.556	1870.01
555.901	1802.21
556.247	1908.42
556.592	1890.35
556.937	1917.46
557.282	1815.77
557.628	1761.54
557.973	1881.31
558.318	1865.49
558.663	1833.85
559.008	1874.53
559.353	1802.21
559.698	1872.27
560.043	1874.53
560.388	1951.36
560.732	1901.64
561.077	1881.31
561.422	1912.94
561.766	1799.95
562.111	1806.73
562.456	1924.24
562.8	1908.42
563.145	1879.05
563.489	1775.09
563.834	1851.93
564.178	1942.32
564.523	1890.35
564.867	1888.09
565.211	1912.94
565.555	1795.43
565.9	1833.85
566.244	1818.03
566.588	1840.63
566.932	1822.55
567.276	1883.57
567.62	1912.94
567.964	1949.1
568.308	1935.54
568.652	2014.64
568.996	1926.5
569.339	1953.62
569.683	1937.8
570.027	2005.6
570.371	1863.23
570.714	1924.24
571.058	2039.49
571.401	1964.92
571.745	1901.64
572.088	1915.2
572.432	1976.22
572.775	1874.53
573.118	1838.37
573.462	1894.87
573.805	1876.79
574.148	1953.62
574.491	1969.44
574.835	1976.22
575.178	1928.76
575.521	1912.94
575.864	1851.93
576.207	1865.49
576.55	1928.76
576.892	1874.53
577.235	1926.5
577.578	1885.83
577.921	1940.06
578.264	1849.67
578.606	1883.57
578.949	1777.35
579.292	1799.95
579.634	1854.19
579.977	1802.21
580.319	1768.32
580.662	1838.37
581.004	1700.52
581.346	1786.39
581.689	1799.95
582.031	1790.91
582.373	1741.2
582.715	1845.15
583.057	1772.83
583.4	1729.9
583.742	1770.57
584.084	1808.99
584.426	1698.26
584.768	1802.21
585.109	1655.32
585.451	1720.86
585.793	1680.18
586.135	1646.28
586.477	1632.73
586.818	1680.18
587.16	1682.44
587.502	1677.92
587.843	1576.23
588.185	1628.21
588.526	1526.51
588.868	1614.65
589.209	1573.97
589.55	1562.67
589.892	1571.71
590.233	1542.33
590.574	1583.01
590.915	1420.3
591.257	1445.16
591.598	1503.92
591.939	1456.46
592.28	1422.56
592.621	1510.69
592.962	1388.66
593.303	1483.58
593.643	1388.66
593.984	1354.77
594.325	1460.98
594.666	1357.03
595.006	1336.69
595.347	1381.88
595.688	1454.2
596.028	1327.65
596.369	1357.03
596.709	1402.22
597.05	1366.07
597.39	1354.77
597.73	1246.29
598.071	1248.55
598.411	1203.36
598.751	1264.37
599.091	1223.7
599.431	1255.33
599.772	1244.04
600.112	1225.96
600.452	1228.22
600.792	1194.32
601.132	1221.44
601.471	1192.06
601.811	1144.6
602.151	1108.45
602.491	1185.28
602.831	1072.29
603.17	1169.46
603.51	1128.78
603.849	1140.08
604.189	1115.22
604.528	1092.63
604.868	1063.25
605.207	1124.26
605.547	1133.3
605.886	1119.74
606.225	1122
606.565	1018.05
606.904	1099.41
607.243	1072.29
607.582	997.71
607.921	1085.85
608.26	1054.21
608.599	961.56
608.938	1054.21
609.277	1115.22
609.616	1040.65
609.955	1002.23
610.293	975.12
610.632	1033.87
610.971	1031.61
611.309	952.52
611.648	1027.09
611.987	1040.65
612.325	959.3
612.664	968.34
613.002	1002.23
613.34	975.12
613.679	905.06
614.017	966.08
614.355	975.12
614.694	975.12
615.032	927.66
615.37	918.62
615.708	943.48
616.046	936.7
616.384	979.64
616.722	934.44
617.06	914.1
617.398	959.3
617.736	972.86
618.073	957.04
618.411	936.7
618.749	825.97
619.086	927.66
619.424	932.18
619.762	927.66
620.099	929.92
620.437	911.84
620.774	823.71
621.112	882.46
621.449	914.1
621.786	850.83
622.123	950.26
622.461	943.48
622.798	914.1
623.135	889.24
623.472	896.02
623.809	943.48
624.146	877.94
624.483	859.86
624.82	850.83
625.157	848.57
625.494	884.72
625.83	862.12
626.167	914.1
626.504	898.28
626.841	807.89
627.177	857.6
627.514	839.53
627.85	814.67
628.187	830.49
628.523	850.83
628.86	850.83
629.196	835.01
629.532	783.03
629.869	830.49
630.205	819.19
630.541	832.75
630.877	785.29
631.213	823.71
631.549	803.37
631.885	850.83
632.221	816.93
632.557	762.69
632.893	740.09
633.229	794.33
633.564	724.27
633.9	753.65
634.236	773.99
634.572	839.53
634.907	778.51
635.243	755.91
635.578	773.99
635.914	742.35
636.249	688.12
636.585	708.46
636.92	751.39
637.255	728.79
637.59	699.42
637.926	742.35
638.261	744.61
638.596	663.26
638.931	724.27
639.266	783.03
639.601	654.22
639.936	683.6
640.271	742.35
640.606	762.69
640.94	685.86
641.275	710.72
641.61	667.78
641.945	663.26
642.279	728.79
642.614	719.76
642.948	651.96
643.283	572.87
643.617	697.16
643.952	649.7
644.286	651.96
644.62	638.4
644.955	642.92
645.289	615.8
645.623	670.04
645.957	622.58
646.291	703.94
646.625	590.94
646.959	638.4
647.293	656.48
647.627	552.53
647.961	590.94
648.295	631.62
648.629	579.65
648.962	552.53
649.296	604.5
649.63	613.54
649.963	604.5
650.297	550.27
650.63	611.28
650.964	584.17
651.297	620.32
651.631	615.8
651.964	588.69
652.297	588.69
652.631	477.95
652.964	502.81
653.297	525.41
653.63	557.05
653.963	554.79
654.296	554.79
654.629	609.02
654.962	611.28
655.295	511.85
655.628	464.39
655.961	455.36
656.293	514.11
656.626	538.97
656.959	584.17
657.291	581.91
657.624	505.07
657.956	566.09
658.289	554.79
658.621	566.09
658.954	464.39
659.286	561.57
659.618	455.36
659.95	518.63
660.283	509.59
660.615	566.09
660.947	570.61
661.279	523.15
661.611	514.11
661.943	572.87
662.275	480.21
662.607	466.65
662.939	482.47
663.27	523.15
663.602	457.62
663.934	471.17
664.266	437.28
664.597	505.07
664.929	477.95
665.26	496.03
665.592	464.39
665.923	480.21
666.255	482.47
666.586	505.07
666.917	459.87
667.248	407.9
667.58	459.87
667.911	369.48
668.242	439.54
668.573	425.98
668.904	401.12
669.235	401.12
669.566	468.91
669.897	468.91
670.228	444.06
670.558	444.06
670.889	419.2
671.22	441.8
671.551	432.76
671.881	437.28
672.212	455.36
672.542	423.72
672.873	421.46
673.203	349.14
673.533	376.26
673.864	441.8
674.194	486.99
674.524	428.24
674.855	480.21
675.185	412.42
675.515	493.77
675.845	428.24
676.175	403.38
676.505	446.32
676.835	439.54
677.165	468.91
677.494	403.38
677.824	396.6
678.154	423.72
678.484	473.43
678.813	405.64
679.143	412.42
679.472	407.9
679.802	405.64
680.131	378.52
680.461	389.82
680.79	464.39
681.119	331.06
681.449	401.12
681.778	414.68
682.107	403.38
682.436	401.12
682.765	362.7
683.094	389.82
683.423	396.6
683.752	407.9
684.081	380.78
684.41	353.66
684.739	376.26
685.067	407.9
685.396	353.66
685.725	491.51
686.053	457.62
686.382	389.82
686.711	464.39
687.039	383.04
687.367	394.34
687.696	423.72
688.024	419.2
688.352	362.7
688.681	360.44
689.009	367.22
689.337	448.58
689.665	369.48
689.993	355.92
690.321	331.06
690.649	448.58
690.977	346.88
691.305	358.18
691.633	376.26
691.961	389.82
692.288	392.08
692.616	416.94
692.944	344.62
693.271	360.44
693.599	394.34
693.926	355.92
694.254	376.26
694.581	401.12
694.908	398.86
695.236	405.64
695.563	392.08
695.89	437.28
696.217	371.74
696.544	441.8
696.871	405.64
697.198	367.22
697.525	326.55
697.852	346.88
698.179	380.78
698.506	380.78
698.833	288.13
699.16	303.95
699.486	333.32
699.813	346.88
700.139	335.58
700.466	376.26
700.793	303.95
701.119	297.17
701.445	401.12
701.772	324.29
702.098	331.06
702.424	317.51
702.75	312.99
703.077	290.39
703.403	376.26
703.729	367.22
704.055	342.36
704.381	337.84
704.707	371.74
705.033	261.01
705.358	279.09
705.684	310.73
706.01	322.03
706.336	283.61
706.661	315.25
706.987	337.84
707.312	335.58
707.638	308.47
707.963	355.92
708.289	371.74
708.614	303.95
708.939	328.8
709.265	297.17
709.59	310.73
709.915	272.31
710.24	331.06
710.565	387.56
710.89	364.96
711.215	306.21
711.54	326.55
711.865	294.91
712.19	351.4
712.515	294.91
712.839	335.58
713.164	349.14
713.489	283.61
713.813	355.92
714.138	333.32
714.462	310.73
714.787	326.55
715.111	328.8
715.435	276.83
715.76	303.95
716.084	265.53
716.408	319.77
716.732	308.47
717.056	353.66
717.381	312.99
717.705	290.39
718.028	261.01
718.352	247.45
718.676	306.21
719	270.05
719.324	274.57
719.648	315.25
719.971	346.88
720.295	346.88
720.618	312.99
720.942	371.74
721.265	312.99
721.589	326.55
721.912	360.44
722.236	249.71
722.559	315.25
722.882	310.73
723.205	340.1
723.528	337.84
723.851	310.73
724.174	281.35
724.497	344.62
724.82	283.61
725.143	324.29
725.466	254.23
725.789	337.84
726.112	283.61
726.434	249.71
726.757	310.73
727.08	299.43
727.402	290.39
727.725	222.59
728.047	240.67
728.37	340.1
728.692	299.43
729.014	292.65
729.336	288.13
729.659	355.92
729.981	344.62
730.303	251.97
730.625	306.21
730.947	351.4
731.269	281.35
731.591	270.05
731.913	328.8
732.235	283.61
732.556	367.22
732.878	349.14
733.2	301.69
733.521	344.62
733.843	270.05
734.164	340.1
734.486	319.77
734.807	299.43
735.129	285.87
735.45	331.06
735.771	292.65
736.092	283.61
736.414	283.61
736.735	328.8
737.056	322.03
737.377	346.88
737.698	337.84
738.019	310.73
738.34	317.51
738.66	261.01
738.981	315.25
739.302	267.79
739.623	337.84
739.943	299.43
740.264	270.05
740.584	324.29
740.905	251.97
741.225	267.79
741.546	374
741.866	245.19
742.186	306.21
742.507	285.87
742.827	322.03
743.147	279.09
743.467	317.51
743.787	349.14
744.107	294.91
744.427	285.87
744.747	288.13
745.067	261.01
745.386	290.39
745.706	337.84
746.026	288.13
746.346	333.32
746.665	211.29
746.985	362.7
747.304	270.05
747.624	333.32
747.943	288.13
748.262	274.57
748.582	303.95
748.901	308.47
749.22	337.84
749.539	353.66
749.858	294.91
750.177	303.95
750.496	297.17
750.815	220.33
751.134	285.87
751.453	279.09
751.772	236.15
752.09	258.75
752.409	267.79
752.728	324.29
753.046	236.15
753.365	301.69
753.683	346.88
754.002	333.32
754.32	301.69
754.639	333.32
754.957	245.19
755.275	303.95
755.593	236.15
755.911	283.61
756.23	337.84
756.548	294.91
756.866	312.99
757.183	322.03
757.501	303.95
757.819	276.83
758.137	358.18
758.455	231.63
758.772	249.71
759.09	265.53
759.408	310.73
759.725	306.21
760.043	315.25
760.36	245.19
760.677	195.48
760.995	267.79
761.312	281.35
761.629	279.09
761.946	306.21
762.264	310.73
762.581	301.69
762.898	337.84
763.215	285.87
763.532	351.4
763.848	297.17
764.165	245.19
764.482	283.61
764.799	256.49
765.115	274.57
765.432	215.81
765.749	319.77
766.065	274.57
766.382	310.73
766.698	317.51
767.014	258.75
767.331	333.32
767.647	301.69
767.963	261.01
768.279	258.75
768.595	229.37
768.911	290.39
769.227	285.87
769.543	272.31
769.859	238.41
770.175	247.45
770.491	290.39
770.807	299.43
771.122	349.14
771.438	261.01
771.754	274.57
772.069	306.21
772.385	267.79
772.7	254.23
773.016	220.33
773.331	272.31
773.646	306.21
773.961	299.43
774.277	297.17
774.592	312.99
774.907	258.75
775.222	267.79
775.537	299.43
775.852	288.13
776.167	258.75
776.482	308.47
776.796	251.97
777.111	236.15
777.426	322.03
777.74	229.37
778.055	315.25
778.369	254.23
778.684	294.91
778.998	276.83
779.313	285.87
779.627	308.47
779.941	317.51
780.255	310.73
780.57	290.39
780.884	256.49
781.198	326.55
781.512	283.61
781.826	297.17
782.14	344.62
782.453	301.69
782.767	267.79
783.081	240.67
783.395	254.23
783.708	290.39
784.022	333.32
784.335	285.87
784.649	294.91
784.962	310.73
785.276	351.4
785.589	344.62
785.902	288.13
786.216	233.89
786.529	326.55
786.842	308.47
787.155	283.61
787.468	265.53
787.781	299.43
788.094	301.69
788.407	267.79
788.72	290.39
789.032	303.95
789.345	263.27
789.658	261.01
789.97	319.77
790.283	324.29
790.595	236.15
790.908	292.65
791.22	247.45
791.532	288.13
791.845	294.91
792.157	265.53
792.469	249.71
792.781	283.61
793.093	251.97
793.405	288.13
793.717	306.21
794.029	233.89
794.341	238.41
794.653	283.61
794.965	292.65
795.276	344.62
795.588	297.17
795.9	256.49
796.211	251.97
796.523	308.47
796.834	258.75
797.146	285.87
797.457	265.53
797.768	290.39
798.08	297.17
798.391	270.05
798.702	315.25
799.013	279.09
799.324	276.83
799.635	337.84
799.946	308.47
800.257	279.09
800.568	231.63
800.878	283.61
801.189	213.55
801.5	270.05
801.81	236.15
802.121	294.91
802.431	249.71
802.742	297.17
803.052	245.19
803.363	301.69
803.673	254.23
803.983	261.01
804.293	233.89
804.603	261.01
804.913	308.47
805.224	274.57
805.533	233.89
805.843	328.8
806.153	258.75
806.463	254.23
806.773	310.73
807.083	240.67
807.392	258.75
807.702	274.57
808.011	322.03
808.321	292.65
808.63	227.11
808.94	272.31
809.249	288.13
809.558	274.57
809.868	231.63
810.177	249.71
810.486	310.73
810.795	274.57
811.104	261.01
811.413	256.49
811.722	331.06
812.031	303.95
812.339	303.95
812.648	251.97
812.957	233.89
813.266	322.03
813.574	209.03
813.883	310.73
814.191	251.97
814.5	288.13
814.808	290.39
815.116	238.41
815.424	299.43
815.733	349.14
816.041	279.09
816.349	263.27
816.657	319.77
816.965	301.69
817.273	283.61
817.581	249.71
817.889	301.69
818.196	306.21
818.504	322.03
818.812	213.55
819.12	258.75
819.427	276.83
819.735	224.85
820.042	254.23
820.349	299.43
820.657	276.83
820.964	303.95
821.271	247.45
821.579	337.84
821.886	299.43
822.193	308.47
822.5	213.55
822.807	315.25
823.114	326.55
823.421	267.79
823.727	240.67
824.034	279.09
824.341	301.69
824.648	281.35
824.954	265.53
825.261	299.43
825.567	319.77
825.874	283.61
826.18	227.11
826.486	317.51
826.793	303.95
827.099	265.53
827.405	279.09
827.711	261.01
828.017	251.97
828.323	265.53
828.629	310.73
828.935	290.39
829.241	276.83
829.547	285.87
829.852	337.84
830.158	233.89
830.464	281.35
830.769	209.03
831.075	283.61
831.38	319.77
831.686	236.15
831.991	238.41
832.296	292.65
832.601	242.93
832.907	229.37
833.212	233.89
833.517	247.45
833.822	254.23
834.127	261.01
834.432	299.43
834.737	263.27
835.041	328.8
835.346	233.89
835.651	281.35
835.956	238.41
836.26	315.25
836.565	222.59
836.869	227.11
837.174	308.47
837.478	288.13
837.782	249.71
838.087	326.55
838.391	267.79
838.695	242.93
838.999	227.11
839.303	254.23
839.607	312.99
839.911	283.61
840.215	290.39
840.519	303.95
840.822	254.23
841.126	224.85
841.43	222.59
841.733	272.31
842.037	279.09
842.34	353.66
842.644	263.27
842.947	303.95
843.251	236.15
843.554	319.77
843.857	238.41
844.16	220.33
844.463	299.43
844.766	184.18
845.069	247.45
845.372	238.41
845.675	292.65
845.978	326.55
846.281	328.8
846.583	290.39
846.886	315.25
847.189	328.8
847.491	285.87
847.794	281.35
848.096	272.31
848.399	317.51
848.701	301.69
849.003	270.05
849.305	251.97
849.608	251.97
849.91	251.97
850.212	285.87
850.514	249.71
850.816	288.13
851.118	195.48
851.419	274.57
851.721	308.47
852.023	209.03
852.325	294.91
852.626	299.43
852.928	254.23
853.229	218.07
853.531	270.05
853.832	242.93
854.133	258.75
854.435	270.05
854.736	261.01
855.037	247.45
855.338	258.75
855.639	276.83
855.94	265.53
856.241	251.97
856.542	245.19
856.843	290.39
857.144	294.91
857.444	290.39
857.745	229.37
858.046	303.95
858.346	254.23
858.647	319.77
858.947	308.47
859.247	249.71
859.548	218.07
859.848	299.43
860.148	256.49
860.448	263.27
860.749	288.13
861.049	335.58
861.349	351.4
861.648	306.21
861.948	299.43
862.248	218.07
862.548	272.31
862.848	276.83
863.147	254.23
863.447	261.01
863.746	231.63
864.046	285.87
864.345	297.17
864.645	272.31
864.944	312.99
865.243	322.03
865.542	270.05
865.842	236.15
866.141	238.41
866.44	256.49
866.739	274.57
867.038	218.07
867.337	344.62
867.635	340.1
867.934	279.09
868.233	274.57
868.531	276.83
868.83	267.79
869.129	204.51
869.427	281.35
869.725	310.73
870.024	220.33
870.322	299.43
870.62	274.57
870.918	258.75
871.217	290.39
871.515	276.83
871.813	251.97
872.111	306.21
872.409	270.05
872.706	290.39
873.004	285.87
873.302	301.69
873.6	270.05
873.897	256.49
874.195	294.91
874.492	297.17
874.79	254.23
875.087	333.32
875.384	324.29
875.682	267.79
875.979	333.32
876.276	297.17
876.573	369.48
876.87	369.48
877.167	369.48
