Data from PL_2polymer_F8BT_MEHPPV_USB2H096331_0447.txt Node
Date: Tue Dec 15 16:23:52 CET 2020
User: spadmin
Spectrometer: USB2+H09633
Trigger mode: 0
Integration Time (sec): 1.000000E-2
Scans to average: 1
Electric dark correction enabled: true
Nonlinearity correction enabled: false
Boxcar width: 0
XAxis mode: Wavelengths
Number of Pixels in Spectrum: 2048
>>>>>Begin Spectral Data<<<<<
174.027	-72.31
174.405	-72.31
174.783	-72.31
175.162	-106.21
175.54	-146.89
175.918	-56.5
176.296	-79.09
176.674	-70.05
177.052	-79.09
177.43	-51.98
177.808	-49.72
178.186	-76.83
178.564	-15.82
178.942	-45.2
179.32	33.9
179.698	-58.76
180.076	90.39
180.453	22.6
180.831	65.54
181.209	90.39
181.587	126.55
181.965	97.17
182.342	174.01
182.72	169.49
183.098	246.32
183.475	142.37
183.853	223.72
184.231	300.56
184.608	291.52
184.986	228.24
185.363	302.82
185.741	268.92
186.118	239.54
186.496	284.74
186.873	250.84
187.251	239.54
187.628	316.38
188.006	287
188.383	332.19
188.76	341.23
189.138	302.82
189.515	350.27
189.892	320.9
190.27	345.75
190.647	298.3
191.024	287
191.401	329.93
191.778	314.12
192.155	352.53
192.533	287
192.91	246.32
193.287	300.56
193.664	320.9
194.041	298.3
194.418	302.82
194.795	268.92
195.172	293.78
195.549	345.75
195.926	352.53
196.302	325.42
196.679	343.49
197.056	379.65
197.433	273.44
197.81	307.34
198.187	275.7
198.563	298.3
198.94	309.6
199.317	273.44
199.693	332.19
200.07	300.56
200.447	266.66
200.823	268.92
201.2	305.08
201.576	282.48
201.953	298.3
202.329	291.52
202.706	298.3
203.082	314.12
203.459	289.26
203.835	332.19
204.212	307.34
204.588	323.16
204.964	266.66
205.341	320.9
205.717	305.08
206.093	266.66
206.469	246.32
206.846	273.44
207.222	341.23
207.598	293.78
207.974	280.22
208.35	296.04
208.726	366.09
209.102	397.73
209.479	264.4
209.855	316.38
210.231	366.09
210.607	338.97
210.982	291.52
211.358	352.53
211.734	323.16
212.11	255.36
212.486	280.22
212.862	232.76
213.238	284.74
213.614	257.62
213.989	363.83
214.365	273.44
214.741	289.26
215.116	341.23
215.492	316.38
215.868	289.26
216.243	341.23
216.619	302.82
216.995	409.03
217.37	320.9
217.746	361.57
218.121	336.71
218.497	302.82
218.872	268.92
219.247	273.44
219.623	291.52
219.998	366.09
220.374	341.23
220.749	345.75
221.124	311.86
221.499	348.01
221.875	291.52
222.25	311.86
222.625	366.09
223	280.22
223.376	363.83
223.751	332.19
224.126	302.82
224.501	361.57
224.876	305.08
225.251	336.71
225.626	318.64
226.001	345.75
226.376	336.71
226.751	395.47
227.126	316.38
227.501	370.61
227.875	404.51
228.25	359.31
228.625	311.86
229	357.05
229.375	348.01
229.749	343.49
230.124	366.09
230.499	298.3
230.873	307.34
231.248	384.17
231.623	307.34
231.997	359.31
232.372	264.4
232.746	350.27
233.121	289.26
233.495	314.12
233.87	316.38
234.244	368.35
234.619	404.51
234.993	377.39
235.367	350.27
235.742	305.08
236.116	390.95
236.49	381.91
236.865	422.59
237.239	363.83
237.613	300.56
237.987	345.75
238.361	302.82
238.736	409.03
239.11	325.42
239.484	354.79
239.858	291.52
240.232	291.52
240.606	329.93
240.98	352.53
241.354	275.7
241.728	323.16
242.102	332.19
242.475	363.83
242.849	345.75
243.223	327.68
243.597	327.68
243.971	393.21
244.344	345.75
244.718	259.88
245.092	309.6
245.466	336.71
245.839	323.16
246.213	366.09
246.586	282.48
246.96	379.65
247.334	282.48
247.707	341.23
248.081	327.68
248.454	325.42
248.828	372.87
249.201	309.6
249.574	298.3
249.948	327.68
250.321	402.25
250.694	271.18
251.068	314.12
251.441	397.73
251.814	363.83
252.187	348.01
252.561	314.12
252.934	307.34
253.307	311.86
253.68	372.87
254.053	418.07
254.426	375.13
254.799	399.99
255.172	329.93
255.545	320.9
255.918	359.31
256.291	359.31
256.664	390.95
257.037	307.34
257.41	388.69
257.782	384.17
258.155	348.01
258.528	420.33
258.901	359.31
259.273	395.47
259.646	404.51
260.019	370.61
260.391	359.31
260.764	375.13
261.137	354.79
261.509	357.05
261.882	397.73
262.254	334.45
262.627	375.13
262.999	318.64
263.372	343.49
263.744	388.69
264.116	325.42
264.489	325.42
264.861	354.79
265.233	372.87
265.606	307.34
265.978	350.27
266.35	386.43
266.722	447.45
267.094	338.97
267.467	359.31
267.839	275.7
268.211	336.71
268.583	323.16
268.955	361.57
269.327	388.69
269.699	366.09
270.071	363.83
270.443	350.27
270.815	352.53
271.186	420.33
271.558	390.95
271.93	370.61
272.302	361.57
272.674	472.3
273.045	298.3
273.417	352.53
273.789	399.99
274.16	431.63
274.532	384.17
274.904	393.21
275.275	366.09
275.647	379.65
276.018	379.65
276.39	354.79
276.761	411.29
277.133	409.03
277.504	409.03
277.875	433.89
278.247	363.83
278.618	402.25
278.989	447.45
279.361	372.87
279.732	323.16
280.103	357.05
280.474	372.87
280.846	399.99
281.217	397.73
281.588	436.15
281.959	406.77
282.33	461
282.701	327.68
283.072	413.55
283.443	388.69
283.814	431.63
284.185	424.85
284.556	404.51
284.927	445.19
285.297	348.01
285.668	458.74
286.039	359.31
286.41	433.89
286.781	438.41
287.151	370.61
287.522	488.12
287.893	348.01
288.263	483.6
288.634	409.03
289.004	370.61
289.375	395.47
289.745	467.78
290.116	368.35
290.486	427.11
290.857	375.13
291.227	388.69
291.598	431.63
291.968	357.05
292.338	418.07
292.709	350.27
293.079	350.27
293.449	424.85
293.819	415.81
294.189	404.51
294.56	415.81
294.93	485.86
295.3	429.37
295.67	413.55
296.04	375.13
296.41	415.81
296.78	445.19
297.15	431.63
297.52	461
297.89	422.59
298.259	458.74
298.629	420.33
298.999	377.39
299.369	440.67
299.739	449.71
300.108	413.55
300.478	363.83
300.848	483.6
301.217	431.63
301.587	402.25
301.957	377.39
302.326	461
302.696	445.19
303.065	393.21
303.435	415.81
303.804	418.07
304.174	440.67
304.543	472.3
304.912	456.49
305.282	404.51
305.651	431.63
306.02	406.77
306.39	424.85
306.759	451.97
307.128	418.07
307.497	375.13
307.866	499.42
308.235	431.63
308.604	440.67
308.974	415.81
309.343	445.19
309.712	492.64
310.08	501.68
310.449	470.04
310.818	472.3
311.187	492.64
311.556	510.72
311.925	386.43
312.294	454.23
312.662	501.68
313.031	503.94
313.4	508.46
313.769	519.76
314.137	470.04
314.506	576.26
314.874	476.82
315.243	488.12
315.612	445.19
315.98	540.1
316.349	533.32
316.717	515.24
317.085	506.2
317.454	501.68
317.822	483.6
318.191	494.9
318.559	431.63
318.927	503.94
319.295	424.85
319.664	418.07
320.032	472.3
320.4	524.28
320.768	485.86
321.136	483.6
321.504	512.98
321.872	494.9
322.24	522.02
322.608	508.46
322.976	422.59
323.344	463.26
323.712	465.52
324.08	497.16
324.448	488.12
324.816	508.46
325.183	465.52
325.551	483.6
325.919	454.23
326.287	440.67
326.654	567.22
327.022	472.3
327.389	519.76
327.757	472.3
328.125	576.26
328.492	476.82
328.86	508.46
329.227	544.62
329.594	465.52
329.962	490.38
330.329	515.24
330.697	519.76
331.064	549.14
331.431	531.06
331.798	494.9
332.166	517.5
332.533	592.07
332.9	427.11
333.267	551.4
333.634	533.32
334.001	512.98
334.368	537.84
334.735	479.08
335.102	451.97
335.469	535.58
335.836	571.74
336.203	625.97
336.57	544.62
336.937	605.63
337.304	531.06
337.67	501.68
338.037	551.4
338.404	594.33
338.771	535.58
339.137	535.58
339.504	576.26
339.87	594.33
340.237	621.45
340.604	560.44
340.97	646.31
341.337	555.92
341.703	621.45
342.069	596.59
342.436	598.85
342.802	598.85
343.169	580.78
343.535	564.96
343.901	576.26
344.267	614.67
344.634	655.35
345	639.53
345.366	601.11
345.732	598.85
346.098	657.61
346.464	616.93
346.83	596.59
347.196	635.01
347.562	623.71
347.928	614.67
348.294	673.43
348.66	549.14
349.026	632.75
349.392	646.31
349.757	612.41
350.123	664.39
350.489	635.01
350.855	671.17
351.22	578.52
351.586	621.45
351.951	696.03
352.317	619.19
352.683	664.39
353.048	700.55
353.414	711.85
353.779	673.43
354.144	682.47
354.51	662.13
354.875	686.99
355.24	720.88
355.606	653.09
355.971	664.39
356.336	729.92
356.701	700.55
357.067	702.81
357.432	729.92
357.797	707.33
358.162	700.55
358.527	768.34
358.892	777.38
359.257	874.55
359.622	766.08
359.987	707.33
360.352	820.32
360.717	781.9
361.082	806.76
361.446	759.3
361.811	802.24
362.176	897.15
362.541	876.81
362.905	917.49
363.27	872.29
363.635	820.32
363.999	933.31
364.364	883.59
364.728	980.77
365.093	897.15
365.457	964.95
365.822	906.19
366.186	960.43
366.55	922.01
366.915	951.39
367.279	1050.82
367.643	1012.4
368.008	1037.26
368.372	1005.62
368.736	983.02
369.1	989.8
369.464	1141.21
369.828	1030.48
370.192	1030.48
370.556	1129.91
370.92	1100.54
371.284	1143.47
371.648	1181.89
372.012	1224.83
372.376	1288.1
372.74	1308.44
373.104	1405.61
373.468	1297.14
373.831	1448.55
374.195	1383.01
374.559	1464.37
374.922	1405.61
375.286	1444.03
375.65	1486.97
376.013	1570.58
376.377	1801.08
376.74	1819.16
377.104	1832.72
377.467	1954.75
377.83	1950.23
378.194	2040.62
378.557	2282.43
378.92	2377.34
379.284	2494.85
379.647	2639.48
380.01	2777.33
380.373	2946.82
380.736	3068.85
381.1	3378.44
381.463	3701.6
381.826	3850.75
382.189	4042.83
382.552	4546.77
382.915	4806.65
383.278	5272.18
383.64	5735.44
384.003	6139.95
384.366	6648.41
384.729	7579.46
385.092	7959.11
385.454	8542.15
385.817	9428
386.18	10334.19
386.542	11172.59
386.905	12307.02
387.268	13685.52
387.63	15125.03
387.993	16273.02
388.355	17723.83
388.718	19674.06
389.08	21472.88
389.442	23445.71
389.805	25179
390.167	27045.62
390.529	30241.01
390.892	33732.45
391.254	35361.78
391.616	38204.65
391.978	41998.9
392.34	46663.18
392.702	48010.04
393.064	51539.89
393.426	53829.09
393.788	55623.4
394.15	56929.58
394.512	58906.93
394.874	60802.92
395.236	62475.19
395.598	64283.06
395.96	65058.18
396.321	65058.18
396.683	65058.18
397.045	65058.18
397.406	65058.18
397.768	65058.18
398.13	65058.18
398.491	65058.18
398.853	65058.18
399.214	65058.18
399.576	65058.18
399.937	65058.18
400.299	65058.18
400.66	65058.18
401.021	65058.18
401.383	65058.18
401.744	65058.18
402.105	65058.18
402.466	65058.18
402.827	65058.18
403.189	65058.18
403.55	65058.18
403.911	65058.18
404.272	65058.18
404.633	65058.18
404.994	65058.18
405.355	65058.18
405.716	65058.18
406.077	65058.18
406.437	65058.18
406.798	65058.18
407.159	65058.18
407.52	65058.18
407.88	65058.18
408.241	65058.18
408.602	65058.18
408.962	65058.18
409.323	65058.18
409.684	65058.18
410.044	65058.18
410.405	65058.18
410.765	65058.18
411.125	65058.18
411.486	65058.18
411.846	65058.18
412.206	65058.18
412.567	65058.18
412.927	65058.18
413.287	65058.18
413.647	65058.18
414.007	65058.18
414.368	65058.18
414.728	65058.18
415.088	65058.18
415.448	65058.18
415.808	65058.18
416.168	65058.18
416.528	65058.18
416.887	65058.18
417.247	65058.18
417.607	65058.18
417.967	65058.18
418.327	65058.18
418.686	65058.18
419.046	65058.18
419.406	65058.18
419.765	65058.18
420.125	65058.18
420.484	65058.18
420.844	65058.18
421.203	65058.18
421.563	64183.62
421.922	64020.92
422.282	62163.34
422.641	60816.48
423	59514.82
423.36	58294.51
423.719	56448.23
424.078	54712.69
424.437	52604.27
424.796	51069.84
425.155	49558.02
425.515	47029.27
425.874	45992.01
426.233	41687.04
426.592	39321
426.95	38715.37
427.309	36087.19
427.668	35506.41
428.027	32177.68
428.386	31407.08
428.745	28907.71
429.103	26810.59
429.462	25714.58
429.821	24087.5
430.179	23246.85
430.538	22137.27
430.897	21687.57
431.255	20178
431.614	18806.29
431.972	18302.34
432.33	17857.16
432.689	17163.39
433.047	16110.31
433.405	15238.02
433.764	14682.1
434.122	14241.43
434.48	13348.8
434.838	12955.59
435.197	12144.31
435.555	11947.71
435.913	11251.68
436.271	10966.94
436.629	10546.62
436.987	9794.09
437.345	9183.94
437.703	9269.81
438.061	8849.48
438.418	8119.56
438.776	7870.98
439.134	7841.6
439.492	7181.73
439.849	6955.75
440.207	6716.21
440.565	6456.33
440.922	5925.27
441.28	5645.05
441.637	5414.55
441.995	5297.04
442.352	5010.04
442.71	4829.25
443.067	4770.5
443.425	4497.06
443.782	4191.98
444.139	4212.32
444.496	4090.29
444.854	3875.6
445.211	3753.57
445.568	3699.34
445.925	3428.16
446.282	3509.51
446.639	3412.34
446.996	3186.36
447.353	3220.25
447.71	3152.46
448.067	3039.47
448.424	2933.26
448.781	2818.01
449.137	2657.56
449.494	2564.9
449.851	2497.11
450.208	2352.48
450.564	2338.92
450.921	2219.15
451.278	2185.25
451.634	2171.69
451.991	2106.16
452.347	2045.14
452.704	1936.67
453.06	2011.25
453.416	1936.67
453.773	1841.76
454.129	1731.03
454.485	1547.98
454.841	1694.87
455.198	1670.01
455.554	1597.7
455.91	1563.8
456.266	1523.12
456.622	1444.03
456.978	1337.82
457.334	1344.6
457.69	1344.6
458.046	1254.2
458.402	1258.72
458.758	1186.41
459.114	1166.07
459.469	1190.93
459.825	1150.25
460.181	1055.34
460.536	1064.38
460.892	1066.64
461.248	989.8
461.603	1023.7
461.959	985.28
462.314	951.39
462.67	885.85
463.025	876.81
463.38	897.15
463.736	901.67
464.091	906.19
464.446	906.19
464.802	793.2
465.157	854.21
465.512	854.21
465.867	790.94
466.222	809.02
466.577	860.99
466.932	811.28
467.287	831.62
467.642	741.22
467.997	768.34
468.352	718.63
468.707	759.3
469.062	779.64
469.417	718.63
469.771	691.51
470.126	732.18
470.481	686.99
470.835	635.01
471.19	723.14
471.544	668.91
471.899	675.69
472.253	675.69
472.608	723.14
472.962	614.67
473.317	639.53
473.671	682.47
474.025	696.03
474.38	639.53
474.734	691.51
475.088	671.17
475.442	623.71
475.796	576.26
476.15	684.73
476.504	635.01
476.858	605.63
477.212	589.81
477.566	592.07
477.92	650.83
478.274	598.85
478.628	583.04
478.982	601.11
479.336	655.35
479.689	639.53
480.043	596.59
480.397	589.81
480.75	555.92
481.104	553.66
481.457	567.22
481.811	503.94
482.164	625.97
482.518	562.7
482.871	603.37
483.225	528.8
483.578	564.96
483.931	628.23
484.284	540.1
484.638	594.33
484.991	542.36
485.344	533.32
485.697	542.36
486.05	587.56
486.403	637.27
486.756	562.7
487.109	522.02
487.462	630.49
487.815	580.78
488.168	578.52
488.52	558.18
488.873	503.94
489.226	515.24
489.579	494.9
489.931	510.72
490.284	594.33
490.637	537.84
490.989	628.23
491.342	569.48
491.694	540.1
492.047	585.3
492.399	632.75
492.751	544.62
493.104	574
493.456	564.96
493.808	616.93
494.16	519.76
494.513	549.14
494.865	497.16
495.217	632.75
495.569	544.62
495.921	531.06
496.273	551.4
496.625	583.04
496.977	632.75
497.329	567.22
497.68	524.28
498.032	580.78
498.384	537.84
498.736	580.78
499.087	605.63
499.439	646.31
499.791	610.15
500.142	598.85
500.494	691.51
500.845	641.79
501.197	686.99
501.548	639.53
501.9	720.88
502.251	616.93
502.602	603.37
502.954	702.81
503.305	698.29
503.656	705.07
504.007	748
504.358	718.63
504.709	675.69
505.061	757.04
505.412	732.18
505.763	743.48
506.113	766.08
506.464	786.42
506.815	802.24
507.166	784.16
507.517	788.68
507.868	813.54
508.218	815.8
508.569	833.88
508.92	829.36
509.27	815.8
509.621	870.03
509.971	912.97
510.322	906.19
510.672	973.99
511.023	890.37
511.373	976.25
511.723	924.27
512.074	940.09
512.424	969.47
512.774	992.06
513.124	964.95
513.475	1039.52
513.825	1016.92
514.175	1014.66
514.525	1116.35
514.875	1105.06
515.225	1152.51
515.575	1172.85
515.924	1166.07
516.274	1195.45
516.624	1215.79
516.974	1184.15
517.324	1306.18
517.673	1274.54
518.023	1297.14
518.373	1324.26
518.722	1247.42
519.072	1331.04
519.421	1281.32
519.771	1267.76
520.12	1315.22
520.469	1466.63
520.819	1432.73
521.168	1362.68
521.517	1428.21
521.867	1493.75
522.216	1520.86
522.565	1491.49
522.914	1507.3
523.263	1633.86
523.612	1559.28
523.961	1613.52
524.31	1557.02
524.659	1502.79
525.008	1541.2
525.357	1620.3
525.705	1640.63
526.054	1656.45
526.403	1735.55
526.752	1645.15
527.1	1663.23
527.449	1688.09
527.797	1744.59
528.146	1717.47
528.495	1814.64
528.843	1719.73
529.191	1728.77
529.54	1760.41
529.888	1764.93
530.236	1844.02
530.585	1721.99
530.933	1767.19
531.281	1825.94
531.629	1839.5
531.977	1855.32
532.325	1884.7
532.673	1805.6
533.021	1819.16
533.369	1900.51
533.717	1848.54
534.065	1866.62
534.413	1938.93
534.761	1853.06
535.108	1905.03
535.456	1893.74
535.804	1896
536.151	1959.27
536.499	1952.49
536.847	1979.61
537.194	1938.93
537.542	1968.31
537.889	1914.07
538.236	1923.11
538.584	1947.97
538.931	1966.05
539.278	1970.57
539.626	1889.22
539.973	1945.71
540.32	1900.51
540.667	1927.63
541.014	1947.97
541.361	1966.05
541.708	1966.05
542.055	1968.31
542.402	1846.28
542.749	2006.73
543.096	1902.77
543.443	1927.63
543.789	1875.66
544.136	1880.18
544.483	1807.86
544.83	1914.07
545.176	1889.22
545.523	1929.89
545.869	1970.57
546.216	1941.19
546.562	1896
546.909	2011.25
547.255	1990.91
547.601	1959.27
547.948	1898.26
548.294	1920.85
548.64	1916.33
548.986	1925.37
549.332	1873.4
549.678	1947.97
550.025	1907.29
550.371	1891.48
550.717	1909.55
551.062	1934.41
551.408	1877.92
551.754	1896
552.1	1862.1
552.446	2004.47
552.792	1893.74
553.137	1900.51
553.483	1830.46
553.828	1911.81
554.174	1859.84
554.52	1995.43
554.865	1848.54
555.211	1995.43
555.556	1966.05
555.901	1950.23
556.247	1891.48
556.592	1952.49
556.937	1846.28
557.282	1945.71
557.628	1961.53
557.973	1898.26
558.318	1954.75
558.663	1925.37
559.008	2002.21
559.353	1963.79
559.698	1995.43
560.043	1997.69
560.388	1925.37
560.732	1990.91
561.077	1972.83
561.422	2070
561.766	1909.55
562.111	1966.05
562.456	1947.97
562.8	2006.73
563.145	1988.65
563.489	1984.13
563.834	2063.22
564.178	1988.65
564.523	1993.17
564.867	1920.85
565.211	2081.3
565.555	1945.71
565.9	2013.51
566.244	1986.39
566.588	2045.14
566.932	1920.85
567.276	1952.49
567.62	2042.88
567.964	2065.48
568.308	2036.1
568.652	2056.44
568.996	1999.95
569.339	1947.97
569.683	2027.07
570.027	2027.07
570.371	2067.74
570.714	2047.4
571.058	2029.33
571.401	2002.21
571.745	2042.88
572.088	1988.65
572.432	1975.09
572.775	2054.18
573.118	2103.9
573.462	1927.63
573.805	1905.03
574.148	1868.88
574.491	1945.71
574.835	1995.43
575.178	1961.53
575.521	2027.07
575.864	2042.88
576.207	1963.79
576.55	1961.53
576.892	1977.35
577.235	1968.31
577.578	1907.29
577.921	1984.13
578.264	1977.35
578.606	1950.23
578.949	1859.84
579.292	1812.38
579.634	1952.49
579.977	1938.93
580.319	1968.31
580.662	1891.48
581.004	1925.37
581.346	1871.14
581.689	1805.6
582.031	1941.19
582.373	1796.56
582.715	1805.6
583.057	1726.51
583.4	1828.2
583.742	1859.84
584.084	1803.34
584.426	1814.64
584.768	1789.78
585.109	1807.86
585.451	1737.81
585.793	1692.61
586.135	1771.7
586.477	1740.07
586.818	1735.55
587.16	1568.32
587.502	1642.89
587.843	1681.31
588.185	1579.62
588.526	1667.75
588.868	1559.28
589.209	1624.82
589.55	1624.82
589.892	1670.01
590.233	1721.99
590.574	1647.41
590.915	1613.52
591.257	1459.85
591.598	1525.38
591.939	1595.44
592.28	1561.54
592.621	1568.32
592.962	1450.81
593.303	1547.98
593.643	1444.03
593.984	1500.53
594.325	1412.39
594.666	1425.95
595.006	1392.05
595.347	1398.83
595.688	1378.49
596.028	1324.26
596.369	1317.48
596.709	1265.5
597.05	1351.38
597.39	1297.14
597.73	1369.46
598.071	1285.84
598.411	1322
598.751	1360.42
599.091	1322
599.431	1285.84
599.772	1371.72
600.112	1224.83
600.452	1251.94
600.792	1220.31
601.132	1211.27
601.471	1195.45
601.811	1290.36
602.151	1333.3
602.491	1270.02
602.831	1227.09
603.17	1177.37
603.51	1227.09
603.849	1166.07
604.189	1132.17
604.528	1150.25
604.868	1150.25
605.207	1109.58
605.547	1267.76
605.886	1096.02
606.225	1168.33
606.565	1032.74
606.904	1172.85
607.243	1048.56
607.582	1044.04
607.921	1005.62
608.26	1025.96
608.599	1039.52
608.938	1021.44
609.277	1039.52
609.616	1098.28
609.955	1082.46
610.293	1055.34
610.632	1044.04
610.971	1111.84
611.309	1046.3
611.648	976.25
611.987	1039.52
612.325	942.35
612.664	1075.68
613.002	973.99
613.34	944.61
613.679	994.32
614.017	953.65
614.355	958.17
614.694	998.84
615.032	1010.14
615.37	992.06
615.708	971.73
616.046	1001.1
616.384	915.23
616.722	917.49
617.06	937.83
617.398	962.69
617.736	1007.88
618.073	809.02
618.411	1035
618.749	973.99
619.086	894.89
619.424	935.57
619.762	928.79
620.099	933.31
620.437	951.39
620.774	964.95
621.112	953.65
621.449	872.29
621.786	906.19
622.123	890.37
622.461	998.84
622.798	876.81
623.135	888.11
623.472	847.44
623.809	915.23
624.146	915.23
624.483	919.75
624.82	906.19
625.157	872.29
625.494	928.79
625.83	836.14
626.167	890.37
626.504	881.33
626.841	903.93
627.177	831.62
627.514	922.01
627.85	856.47
628.187	824.84
628.523	827.1
628.86	953.65
629.196	813.54
629.532	842.92
629.869	854.21
630.205	987.54
630.541	885.85
630.877	879.07
631.213	757.04
631.549	845.18
631.885	811.28
632.221	802.24
632.557	833.88
632.893	795.46
633.229	802.24
633.564	829.36
633.9	836.14
634.236	876.81
634.572	790.94
634.907	777.38
635.243	795.46
635.578	797.72
635.914	705.07
636.249	772.86
636.585	748
636.92	696.03
637.255	684.73
637.59	732.18
637.926	770.6
638.261	759.3
638.596	718.63
638.931	775.12
639.266	759.3
639.601	696.03
639.936	705.07
640.271	723.14
640.606	666.65
640.94	673.43
641.275	639.53
641.61	716.37
641.945	641.79
642.279	720.88
642.614	668.91
642.948	675.69
643.283	680.21
643.617	637.27
643.952	671.17
644.286	709.59
644.62	612.41
644.955	639.53
645.289	574
645.623	621.45
645.957	686.99
646.291	653.09
646.625	655.35
646.959	580.78
647.293	689.25
647.627	616.93
647.961	616.93
648.295	596.59
648.629	571.74
648.962	569.48
649.296	621.45
649.63	639.53
649.963	616.93
650.297	610.15
650.63	574
650.964	578.52
651.297	560.44
651.631	598.85
651.964	607.89
652.297	537.84
652.631	585.3
652.964	551.4
653.297	587.56
653.63	546.88
653.963	526.54
654.296	519.76
654.629	526.54
654.962	551.4
655.295	503.94
655.628	594.33
655.961	483.6
656.293	494.9
656.626	506.2
656.959	522.02
657.291	508.46
657.624	501.68
657.956	522.02
658.289	488.12
658.621	540.1
658.954	528.8
659.286	544.62
659.618	515.24
659.95	440.67
660.283	569.48
660.615	485.86
660.947	499.42
661.279	490.38
661.611	436.15
661.943	546.88
662.275	519.76
662.607	483.6
662.939	472.3
663.27	499.42
663.602	474.56
663.934	442.93
664.266	454.23
664.597	503.94
664.929	490.38
665.26	483.6
665.592	472.3
665.923	508.46
666.255	512.98
666.586	542.36
666.917	440.67
667.248	415.81
667.58	429.37
667.911	522.02
668.242	472.3
668.573	424.85
668.904	490.38
669.235	384.17
669.566	442.93
669.897	402.25
670.228	413.55
670.558	427.11
670.889	379.65
671.22	422.59
671.551	445.19
671.881	411.29
672.212	456.49
672.542	411.29
672.873	368.35
673.203	463.26
673.533	395.47
673.864	442.93
674.194	397.73
674.524	447.45
674.855	413.55
675.185	438.41
675.515	411.29
675.845	345.75
676.175	433.89
676.505	390.95
676.835	359.31
677.165	409.03
677.494	379.65
677.824	447.45
678.154	463.26
678.484	479.08
678.813	381.91
679.143	433.89
679.472	438.41
679.802	447.45
680.131	413.55
680.461	384.17
680.79	454.23
681.119	298.3
681.449	445.19
681.778	341.23
682.107	338.97
682.436	415.81
682.765	415.81
683.094	415.81
683.423	381.91
683.752	350.27
684.081	336.71
684.41	422.59
684.739	409.03
685.067	370.61
685.396	404.51
685.725	395.47
686.053	372.87
686.382	372.87
686.711	323.16
687.039	320.9
687.367	404.51
687.696	377.39
688.024	357.05
688.352	390.95
688.681	413.55
689.009	359.31
689.337	338.97
689.665	357.05
689.993	336.71
690.321	289.26
690.649	377.39
690.977	395.47
691.305	302.82
691.633	366.09
691.961	293.78
692.288	350.27
692.616	343.49
692.944	411.29
693.271	318.64
693.599	354.79
693.926	381.91
694.254	329.93
694.581	320.9
694.908	363.83
695.236	348.01
695.563	372.87
695.89	368.35
696.217	341.23
696.544	375.13
696.871	289.26
697.198	348.01
697.525	433.89
697.852	296.04
698.179	298.3
698.506	327.68
698.833	332.19
699.16	316.38
699.486	232.76
699.813	302.82
700.139	354.79
700.466	345.75
700.793	336.71
701.119	316.38
701.445	257.62
701.772	379.65
702.098	302.82
702.424	293.78
702.75	404.51
703.077	296.04
703.403	244.06
703.729	368.35
704.055	314.12
704.381	345.75
704.707	366.09
705.033	273.44
705.358	323.16
705.684	268.92
706.01	338.97
706.336	314.12
706.661	316.38
706.987	228.24
707.312	275.7
707.638	327.68
707.963	302.82
708.289	291.52
708.614	354.79
708.939	316.38
709.265	388.69
709.59	345.75
709.915	357.05
710.24	354.79
710.565	314.12
710.89	305.08
711.215	361.57
711.54	302.82
711.865	262.14
712.19	323.16
712.515	415.81
712.839	305.08
713.164	300.56
713.489	282.48
713.813	318.64
714.138	409.03
714.462	296.04
714.787	287
715.111	271.18
715.435	307.34
715.76	316.38
716.084	289.26
716.408	329.93
716.732	314.12
717.056	298.3
717.381	185.31
717.705	307.34
718.028	266.66
718.352	255.36
718.676	379.65
719	354.79
719.324	329.93
719.648	314.12
719.971	348.01
720.295	329.93
720.618	361.57
720.942	343.49
721.265	305.08
721.589	291.52
721.912	259.88
722.236	338.97
722.559	325.42
722.882	298.3
723.205	244.06
723.528	320.9
723.851	246.32
724.174	273.44
724.497	287
724.82	307.34
725.143	305.08
725.466	311.86
725.789	280.22
726.112	289.26
726.434	280.22
726.757	352.53
727.08	318.64
727.402	284.74
727.725	239.54
728.047	332.19
728.37	298.3
728.692	273.44
729.014	289.26
729.336	305.08
729.659	259.88
729.981	259.88
730.303	275.7
730.625	250.84
730.947	348.01
731.269	345.75
731.591	273.44
731.913	314.12
732.235	291.52
732.556	284.74
732.878	232.76
733.2	287
733.521	332.19
733.843	277.96
734.164	300.56
734.486	318.64
734.807	271.18
735.129	282.48
735.45	235.02
735.771	307.34
736.092	259.88
736.414	296.04
736.735	293.78
737.056	232.76
737.377	214.68
737.698	309.6
738.019	302.82
738.34	311.86
738.66	293.78
738.981	273.44
739.302	221.46
739.623	289.26
739.943	277.96
740.264	334.45
740.584	314.12
740.905	255.36
741.225	307.34
741.546	275.7
741.866	305.08
742.186	264.4
742.507	275.7
742.827	300.56
743.147	264.4
743.467	253.1
743.787	275.7
744.107	266.66
744.427	223.72
744.747	255.36
745.067	264.4
745.386	296.04
745.706	257.62
746.026	266.66
746.346	262.14
746.665	280.22
746.985	271.18
747.304	275.7
747.624	368.35
747.943	277.96
748.262	345.75
748.582	273.44
748.901	289.26
749.22	264.4
749.539	241.8
749.858	257.62
750.177	244.06
750.496	284.74
750.815	307.34
751.134	237.28
751.453	237.28
751.772	257.62
752.09	187.57
752.409	277.96
752.728	282.48
753.046	232.76
753.365	232.76
753.683	198.86
754.002	275.7
754.32	307.34
754.639	253.1
754.957	284.74
755.275	318.64
755.593	275.7
755.911	250.84
756.23	293.78
756.548	323.16
756.866	264.4
757.183	284.74
757.501	273.44
757.819	280.22
758.137	284.74
758.455	246.32
758.772	291.52
759.09	300.56
759.408	273.44
759.725	246.32
760.043	291.52
760.36	336.71
760.677	248.58
760.995	284.74
761.312	214.68
761.629	298.3
761.946	311.86
762.264	284.74
762.581	237.28
762.898	248.58
763.215	250.84
763.532	223.72
763.848	305.08
764.165	291.52
764.482	259.88
764.799	329.93
765.115	309.6
765.432	201.12
765.749	268.92
766.065	289.26
766.382	244.06
766.698	293.78
767.014	216.94
767.331	370.61
767.647	198.86
767.963	232.76
768.279	273.44
768.595	198.86
768.911	230.5
769.227	268.92
769.543	300.56
769.859	237.28
770.175	255.36
770.491	289.26
770.807	284.74
771.122	237.28
771.438	302.82
771.754	232.76
772.069	273.44
772.385	228.24
772.7	198.86
773.016	291.52
773.331	232.76
773.646	187.57
773.961	223.72
774.277	280.22
774.592	239.54
774.907	266.66
775.222	248.58
775.537	248.58
775.852	216.94
776.167	289.26
776.482	248.58
776.796	309.6
777.111	275.7
777.426	314.12
777.74	314.12
778.055	257.62
778.369	271.18
778.684	305.08
778.998	291.52
779.313	221.46
779.627	273.44
779.941	280.22
780.255	246.32
780.57	293.78
780.884	296.04
781.198	275.7
781.512	300.56
781.826	241.8
782.14	219.2
782.453	271.18
782.767	237.28
783.081	253.1
783.395	264.4
783.708	277.96
784.022	298.3
784.335	235.02
784.649	228.24
784.962	241.8
785.276	253.1
785.589	232.76
785.902	262.14
786.216	250.84
786.529	323.16
786.842	280.22
787.155	311.86
787.468	223.72
787.781	336.71
788.094	268.92
788.407	275.7
788.72	298.3
789.032	282.48
789.345	280.22
789.658	314.12
789.97	289.26
790.283	246.32
790.595	271.18
790.908	277.96
791.22	282.48
791.532	280.22
791.845	225.98
792.157	264.4
792.469	259.88
792.781	293.78
793.093	284.74
793.405	253.1
793.717	293.78
794.029	241.8
794.341	266.66
794.653	277.96
794.965	293.78
795.276	264.4
795.588	246.32
795.9	305.08
796.211	275.7
796.523	307.34
796.834	205.64
797.146	262.14
797.457	250.84
797.768	185.31
798.08	214.68
798.391	225.98
798.702	246.32
799.013	271.18
799.324	253.1
799.635	264.4
799.946	305.08
800.257	230.5
800.568	237.28
800.878	296.04
801.189	307.34
801.5	291.52
801.81	309.6
802.121	307.34
802.431	318.64
802.742	296.04
803.052	250.84
803.363	262.14
803.673	280.22
803.983	259.88
804.293	266.66
804.603	268.92
804.913	230.5
805.224	307.34
805.533	257.62
805.843	291.52
806.153	282.48
806.463	262.14
806.773	273.44
807.083	250.84
807.392	291.52
807.702	230.5
808.011	332.19
808.321	246.32
808.63	268.92
808.94	235.02
809.249	212.42
809.558	291.52
809.868	246.32
810.177	216.94
810.486	230.5
810.795	287
811.104	246.32
811.413	307.34
811.722	237.28
812.031	255.36
812.339	189.83
812.648	228.24
812.957	307.34
813.266	248.58
813.574	228.24
813.883	282.48
814.191	228.24
814.5	291.52
814.808	298.3
815.116	307.34
815.424	271.18
815.733	275.7
816.041	280.22
816.349	230.5
816.657	282.48
816.965	201.12
817.273	257.62
817.581	262.14
817.889	268.92
818.196	277.96
818.504	216.94
818.812	235.02
819.12	264.4
819.427	296.04
819.735	246.32
820.042	259.88
820.349	284.74
820.657	239.54
820.964	221.46
821.271	210.16
821.579	248.58
821.886	250.84
822.193	275.7
822.5	275.7
822.807	262.14
823.114	264.4
823.421	259.88
823.727	273.44
824.034	248.58
824.341	282.48
824.648	271.18
824.954	192.09
825.261	248.58
825.567	257.62
825.874	241.8
826.18	275.7
826.486	248.58
826.793	289.26
827.099	241.8
827.405	255.36
827.711	225.98
828.017	253.1
828.323	311.86
828.629	239.54
828.935	277.96
829.241	257.62
829.547	253.1
829.852	291.52
830.158	244.06
830.464	311.86
830.769	273.44
831.075	320.9
831.38	237.28
831.686	325.42
831.991	180.79
832.296	221.46
832.601	284.74
832.907	235.02
833.212	289.26
833.517	268.92
833.822	246.32
834.127	257.62
834.432	244.06
834.737	241.8
835.041	180.79
835.346	253.1
835.651	305.08
835.956	235.02
836.26	266.66
836.565	268.92
836.869	332.19
837.174	275.7
837.478	250.84
837.782	300.56
838.087	309.6
838.391	174.01
838.695	237.28
838.999	266.66
839.303	210.16
839.607	216.94
839.911	228.24
840.215	239.54
840.519	219.2
840.822	271.18
841.126	273.44
841.43	271.18
841.733	271.18
842.037	277.96
842.34	250.84
842.644	282.48
842.947	228.24
843.251	244.06
843.554	284.74
843.857	257.62
844.16	189.83
844.463	187.57
844.766	259.88
845.069	244.06
845.372	264.4
845.675	273.44
845.978	250.84
846.281	223.72
846.583	212.42
846.886	246.32
847.189	198.86
847.491	221.46
847.794	289.26
848.096	221.46
848.399	259.88
848.701	230.5
849.003	210.16
849.305	259.88
849.608	262.14
849.91	244.06
850.212	271.18
850.514	235.02
850.816	268.92
851.118	336.71
851.419	257.62
851.721	185.31
852.023	248.58
852.325	259.88
852.626	246.32
852.928	298.3
853.229	287
853.531	271.18
853.832	253.1
854.133	237.28
854.435	237.28
854.736	185.31
855.037	237.28
855.338	255.36
855.639	268.92
855.94	246.32
856.241	284.74
856.542	284.74
856.843	323.16
857.144	259.88
857.444	264.4
857.745	289.26
858.046	262.14
858.346	210.16
858.647	305.08
858.947	255.36
859.247	174.01
859.548	232.76
859.848	192.09
860.148	221.46
860.448	228.24
860.749	216.94
861.049	268.92
861.349	244.06
861.648	257.62
861.948	248.58
862.248	268.92
862.548	293.78
862.848	244.06
863.147	280.22
863.447	216.94
863.746	293.78
864.046	212.42
864.345	201.12
864.645	246.32
864.944	201.12
865.243	198.86
865.542	207.9
865.842	282.48
866.141	248.58
866.44	298.3
866.739	257.62
867.038	201.12
867.337	262.14
867.635	277.96
867.934	275.7
868.233	219.2
868.531	259.88
868.83	230.5
869.129	228.24
869.427	253.1
869.725	289.26
870.024	244.06
870.322	250.84
870.62	214.68
870.918	271.18
871.217	268.92
871.515	320.9
871.813	309.6
872.111	291.52
872.409	293.78
872.706	225.98
873.004	253.1
873.302	219.2
873.6	343.49
873.897	216.94
874.195	262.14
874.492	246.32
874.79	194.35
875.087	280.22
875.384	282.48
875.682	343.49
875.979	244.06
876.276	271.18
876.573	228.24
876.87	228.24
877.167	228.24
