Data from PL_2polymer_F8BT_MEHPPV_USB2H096331_0443.txt Node
Date: Tue Dec 15 16:28:26 CET 2020
User: spadmin
Spectrometer: USB2+H09633
Trigger mode: 0
Integration Time (sec): 1.000000E-2
Scans to average: 1
Electric dark correction enabled: true
Nonlinearity correction enabled: false
Boxcar width: 0
XAxis mode: Wavelengths
Number of Pixels in Spectrum: 2048
>>>>>Begin Spectral Data<<<<<
174.027	-78.39
174.405	-78.39
174.783	-78.39
175.162	-39.97
175.54	-107.77
175.918	-132.62
176.296	-150.7
176.674	-89.69
177.052	-121.32
177.43	-51.27
177.808	-73.87
178.186	-76.13
178.564	7.49
178.942	59.46
179.32	45.9
179.698	-10.59
180.076	43.64
180.453	68.5
180.831	97.88
181.209	52.68
181.587	111.44
181.965	86.58
182.342	118.22
182.72	127.26
183.098	210.87
183.475	222.17
183.853	199.57
184.231	260.59
184.608	289.96
184.986	262.85
185.363	292.22
185.741	269.63
186.118	251.55
186.496	378.1
186.873	389.4
187.251	305.78
187.628	312.56
188.006	357.76
188.383	283.18
188.76	332.9
189.138	321.6
189.515	378.1
189.892	283.18
190.27	310.3
190.647	364.54
191.024	258.33
191.401	289.96
191.778	328.38
192.155	362.28
192.533	326.12
192.91	335.16
193.287	328.38
193.664	350.98
194.041	260.59
194.418	360.02
194.795	296.74
195.172	330.64
195.549	339.68
195.926	353.24
196.302	335.16
196.679	319.34
197.056	312.56
197.433	296.74
197.81	299
198.187	260.59
198.563	360.02
198.94	305.78
199.317	299
199.693	317.08
200.07	332.9
200.447	405.22
200.823	292.22
201.2	384.88
201.576	344.2
201.953	294.48
202.329	305.78
202.706	287.7
203.082	341.94
203.459	308.04
203.835	423.29
204.212	319.34
204.588	274.15
204.964	289.96
205.341	308.04
205.717	258.33
206.093	355.5
206.469	326.12
206.846	294.48
207.222	341.94
207.598	341.94
207.974	364.54
208.35	330.64
208.726	362.28
209.102	308.04
209.479	346.46
209.855	305.78
210.231	335.16
210.607	355.5
210.982	326.12
211.358	310.3
211.734	278.66
212.11	326.12
212.486	308.04
212.862	416.51
213.238	344.2
213.614	369.06
213.989	335.16
214.365	378.1
214.741	373.58
215.116	319.34
215.492	299
215.868	283.18
216.243	339.68
216.619	353.24
216.995	260.59
217.37	335.16
217.746	344.2
218.121	249.29
218.497	283.18
218.872	350.98
219.247	312.56
219.623	308.04
219.998	305.78
220.374	335.16
220.749	414.25
221.124	299
221.499	346.46
221.875	317.08
222.25	339.68
222.625	346.46
223	369.06
223.376	294.48
223.751	330.64
224.126	303.52
224.501	337.42
224.876	328.38
225.251	280.92
225.626	294.48
226.001	305.78
226.376	326.12
226.751	308.04
227.126	355.5
227.501	323.86
227.875	312.56
228.25	337.42
228.625	328.38
229	355.5
229.375	344.2
229.749	323.86
230.124	396.18
230.499	369.06
230.873	337.42
231.248	350.98
231.623	414.25
231.997	337.42
232.372	369.06
232.746	357.76
233.121	348.72
233.495	301.26
233.87	330.64
234.244	360.02
234.619	332.9
234.993	348.72
235.367	353.24
235.742	362.28
236.116	364.54
236.49	373.58
236.865	319.34
237.239	328.38
237.613	425.55
237.987	375.84
238.361	344.2
238.736	348.72
239.11	371.32
239.484	335.16
239.858	425.55
240.232	393.92
240.606	430.07
240.98	321.6
241.354	380.36
241.728	321.6
242.102	353.24
242.475	391.66
242.849	355.5
243.223	378.1
243.597	353.24
243.971	296.74
244.344	355.5
244.718	289.96
245.092	423.29
245.466	339.68
245.839	308.04
246.213	411.99
246.586	321.6
246.96	364.54
247.334	357.76
247.707	328.38
248.081	346.46
248.454	402.96
248.828	314.82
249.201	373.58
249.574	366.8
249.948	389.4
250.321	364.54
250.694	375.84
251.068	346.46
251.441	389.4
251.814	375.84
252.187	366.8
252.561	353.24
252.934	425.55
253.307	366.8
253.68	389.4
254.053	375.84
254.426	405.22
254.799	414.25
255.172	380.36
255.545	373.58
255.918	326.12
256.291	328.38
256.664	402.96
257.037	432.33
257.41	353.24
257.782	330.64
258.155	391.66
258.528	371.32
258.901	348.72
259.273	348.72
259.646	350.98
260.019	389.4
260.391	369.06
260.764	378.1
261.137	411.99
261.509	337.42
261.882	468.49
262.254	393.92
262.627	366.8
262.999	407.48
263.372	301.26
263.744	436.85
264.116	414.25
264.489	421.03
264.861	310.3
265.233	391.66
265.606	339.68
265.978	418.77
266.35	450.41
266.722	407.48
267.094	371.32
267.467	396.18
267.839	384.88
268.211	339.68
268.583	335.16
268.955	387.14
269.327	416.51
269.699	445.89
270.071	418.77
270.443	425.55
270.815	430.07
271.186	439.11
271.558	402.96
271.93	430.07
272.302	344.2
272.674	380.36
273.045	479.79
273.417	348.72
273.789	421.03
274.16	393.92
274.532	400.7
274.904	423.29
275.275	407.48
275.647	407.48
276.018	357.76
276.39	371.32
276.761	350.98
277.133	393.92
277.504	396.18
277.875	432.33
278.247	391.66
278.618	389.4
278.989	341.94
279.361	432.33
279.732	402.96
280.103	384.88
280.474	463.97
280.846	461.71
281.217	414.25
281.588	398.44
281.959	414.25
282.33	421.03
282.701	411.99
283.072	439.11
283.443	396.18
283.814	378.1
284.185	473.01
284.556	402.96
284.927	448.15
285.297	396.18
285.668	414.25
286.039	416.51
286.41	445.89
286.781	411.99
287.151	439.11
287.522	436.85
287.893	371.32
288.263	445.89
288.634	414.25
289.004	463.97
289.375	393.92
289.745	427.81
290.116	450.41
290.486	407.48
290.857	360.02
291.227	482.05
291.598	391.66
291.968	468.49
292.338	486.57
292.709	445.89
293.079	450.41
293.449	421.03
293.819	450.41
294.189	434.59
294.56	416.51
294.93	427.81
295.3	448.15
295.67	421.03
296.04	454.93
296.41	416.51
296.78	409.73
297.15	416.51
297.52	473.01
297.89	452.67
298.259	477.53
298.629	466.23
298.999	461.71
299.369	448.15
299.739	425.55
300.108	400.7
300.478	497.87
300.848	439.11
301.217	441.37
301.587	432.33
301.957	421.03
302.326	454.93
302.696	459.45
303.065	454.93
303.435	450.41
303.804	445.89
304.174	473.01
304.543	479.79
304.912	491.09
305.282	475.27
305.651	495.61
306.02	443.63
306.39	445.89
306.759	509.17
307.128	466.23
307.497	452.67
307.866	479.79
308.235	466.23
308.604	421.03
308.974	500.13
309.343	411.99
309.712	509.17
310.08	457.19
310.449	504.65
310.818	531.77
311.187	488.83
311.556	479.79
311.925	527.25
312.294	430.07
312.662	461.71
313.031	479.79
313.4	552.1
313.769	531.77
314.137	427.81
314.506	491.09
314.874	488.83
315.243	457.19
315.612	524.99
315.98	500.13
316.349	468.49
316.717	482.05
317.085	513.69
317.454	396.18
317.822	522.73
318.191	468.49
318.559	473.01
318.927	484.31
319.295	479.79
319.664	502.39
320.032	443.63
320.4	470.75
320.768	484.31
321.136	497.87
321.504	595.04
321.872	576.96
322.24	466.23
322.608	520.47
322.976	506.91
323.344	482.05
323.712	430.07
324.08	502.39
324.448	454.93
324.816	475.27
325.183	463.97
325.551	506.91
325.919	527.25
326.287	520.47
326.654	509.17
327.022	534.03
327.389	506.91
327.757	531.77
328.125	497.87
328.492	549.84
328.86	500.13
329.227	538.55
329.594	509.17
329.962	547.58
330.329	513.69
330.697	475.27
331.064	635.72
331.431	536.29
331.798	534.03
332.166	543.06
332.533	599.56
332.9	506.91
333.267	518.21
333.634	570.18
334.001	518.21
334.368	570.18
334.735	561.14
335.102	552.1
335.469	556.62
335.836	570.18
336.203	522.73
336.57	549.84
336.937	524.99
337.304	570.18
337.67	552.1
338.037	590.52
338.404	604.08
338.771	588.26
339.137	486.57
339.504	561.14
339.87	572.44
340.237	549.84
340.604	531.77
340.97	581.48
341.337	570.18
341.703	558.88
342.069	538.55
342.436	595.04
342.802	685.43
343.169	698.99
343.535	572.44
343.901	552.1
344.267	626.68
344.634	592.78
345	567.92
345.366	680.91
345.732	660.58
346.098	680.91
346.464	626.68
346.83	710.29
347.196	669.62
347.562	647.02
347.928	642.5
348.294	619.9
348.66	674.13
349.026	649.28
349.392	683.17
349.757	635.72
350.123	728.37
350.489	714.81
350.855	719.33
351.22	694.47
351.586	710.29
351.951	665.1
352.317	687.69
352.683	735.15
353.048	669.62
353.414	658.32
353.779	721.59
354.144	662.84
354.51	735.15
354.875	737.41
355.24	667.36
355.606	732.89
355.971	739.67
356.336	746.45
356.701	730.63
357.067	746.45
357.432	750.97
357.797	710.29
358.162	841.36
358.527	737.41
358.892	798.43
359.257	746.45
359.622	741.93
359.987	843.62
360.352	771.31
360.717	805.2
361.082	821.02
361.446	848.14
361.811	861.7
362.176	848.14
362.541	909.16
362.905	934.01
363.27	863.96
363.635	913.68
363.999	931.76
364.364	945.31
364.728	965.65
365.093	886.56
365.457	936.27
365.822	891.08
366.186	915.94
366.55	1004.07
366.915	902.38
367.279	963.39
367.643	1051.53
368.008	1001.81
368.372	1026.67
368.736	1067.34
369.1	1024.41
369.464	1078.64
369.828	1121.58
370.192	1146.44
370.556	1150.96
370.92	1110.28
371.284	1173.56
371.648	1157.74
372.012	1101.24
372.376	1284.29
372.74	1311.41
373.104	1437.96
373.468	1449.26
373.831	1498.97
374.195	1571.29
374.559	1523.83
374.922	1519.31
375.286	1539.65
375.65	1600.66
376.013	1600.66
376.377	1702.36
376.74	1846.99
377.104	1815.35
377.467	1980.32
377.83	2070.71
378.194	2118.16
378.557	2195
378.92	2276.35
379.284	2504.6
379.647	2662.78
380.01	2909.1
380.373	3065.03
380.736	3128.31
381.1	3553.16
381.463	3575.75
381.826	3959.92
382.189	4063.88
382.552	4518.1
382.915	4922.61
383.278	5227.69
383.64	5864.96
384.003	6133.88
384.366	6725.95
384.729	7431.02
385.092	7821.97
385.454	8725.9
385.817	9374.47
386.18	10285.18
386.542	11288.54
386.905	12459.14
387.268	13744.98
387.63	15392.39
387.993	16303.1
388.355	17597.98
388.718	19643.13
389.08	21484.89
389.442	23224.95
389.805	25233.94
390.167	26974.01
390.529	30108.39
390.892	33846.14
391.254	35486.78
391.616	38334.16
391.978	42718.23
392.34	46614.17
392.702	48238.99
393.064	51743.98
393.426	53798.16
393.788	55617.32
394.15	57248.92
394.512	59016.1
394.874	60871.42
395.236	62719.96
395.598	64383.19
395.96	65074.7
396.321	65074.7
396.683	65074.7
397.045	65074.7
397.406	65074.7
397.768	65074.7
398.13	65074.7
398.491	65074.7
398.853	65074.7
399.214	65074.7
399.576	65074.7
399.937	65074.7
400.299	65074.7
400.66	65074.7
401.021	65074.7
401.383	65074.7
401.744	65074.7
402.105	65074.7
402.466	65074.7
402.827	65074.7
403.189	65074.7
403.55	65074.7
403.911	65074.7
404.272	65074.7
404.633	65074.7
404.994	65074.7
405.355	65074.7
405.716	65074.7
406.077	65074.7
406.437	65074.7
406.798	65074.7
407.159	65074.7
407.52	65074.7
407.88	65074.7
408.241	65074.7
408.602	65074.7
408.962	65074.7
409.323	65074.7
409.684	65074.7
410.044	65074.7
410.405	65074.7
410.765	65074.7
411.125	65074.7
411.486	65074.7
411.846	65074.7
412.206	65074.7
412.567	65074.7
412.927	65074.7
413.287	65074.7
413.647	65074.7
414.007	65074.7
414.368	65074.7
414.728	65074.7
415.088	65074.7
415.448	65074.7
415.808	65074.7
416.168	65074.7
416.528	65074.7
416.887	65074.7
417.247	65074.7
417.607	65074.7
417.967	65074.7
418.327	65074.7
418.686	65074.7
419.046	65074.7
419.406	65074.7
419.765	65074.7
420.125	65074.7
420.484	65074.7
420.844	65074.7
421.203	65074.7
421.563	64432.91
421.922	64315.4
422.282	62408.1
422.641	60896.28
423	59732.47
423.36	58704.25
423.719	56805.99
424.078	54697.57
424.437	52971.06
424.796	51025.35
425.155	49915.78
425.515	47172.35
425.874	46055.99
426.233	41974.74
426.592	39780.45
426.95	39165.78
427.309	36501.44
427.668	35387.35
428.027	32503.81
428.386	31613.43
428.745	29145.7
429.103	27093.78
429.462	26309.62
429.821	23891.6
430.179	23374.1
430.538	22318.76
430.897	21846.46
431.255	20393.39
431.614	19421.66
431.972	18590.05
432.33	17686.12
432.689	17503.07
433.047	16334.74
433.405	15509.9
433.764	14784.5
434.122	14628.57
434.48	13611.65
434.838	12816.19
435.197	12474.95
435.555	12056.89
435.913	11304.36
436.271	10811.72
436.629	10499.87
436.987	10045.64
437.345	9424.19
437.703	9324.75
438.061	8642.29
438.418	8271.68
438.776	7785.81
439.134	7840.05
439.492	7354.19
439.849	7094.3
440.207	6843.46
440.565	6373.42
440.922	6219.75
441.28	5609.6
441.637	5738.41
441.995	5419.77
442.352	5064.98
442.71	4827.7
443.067	4809.62
443.425	4558.78
443.782	4244.66
444.139	4314.72
444.496	4156.53
444.854	4050.32
445.211	3923.77
445.568	3663.89
445.925	3503.44
446.282	3354.29
446.639	3367.85
446.996	3336.21
447.353	3300.05
447.71	3101.19
448.067	3277.46
448.424	2938.48
448.781	2949.78
449.137	2787.07
449.494	2608.55
449.851	2520.41
450.208	2457.14
450.564	2310.25
450.921	2235.68
451.278	2115.9
451.634	2120.42
451.991	2147.54
452.347	2246.97
452.704	2036.81
453.06	2005.17
453.416	1862.8
453.773	1754.33
454.129	1740.77
454.485	1652.64
454.841	1691.06
455.198	1663.94
455.554	1451.52
455.91	1514.79
456.266	1465.07
456.622	1575.81
456.978	1370.16
457.334	1345.3
457.69	1331.74
458.046	1261.69
458.402	1259.43
458.758	1196.15
459.114	1187.12
459.469	1130.62
459.825	1067.34
460.181	1146.44
460.536	1117.06
460.892	1053.79
461.248	988.25
461.603	1008.59
461.959	961.13
462.314	924.98
462.67	983.73
463.025	911.42
463.38	1006.33
463.736	956.61
464.091	877.52
464.446	909.16
464.802	924.98
465.157	879.78
465.512	852.66
465.867	859.44
466.222	915.94
466.577	897.86
466.932	757.75
467.287	805.2
467.642	760.01
467.997	798.43
468.352	741.93
468.707	811.98
469.062	769.05
469.417	766.79
469.771	726.11
470.126	701.25
470.481	730.63
470.835	771.31
471.19	807.46
471.544	753.23
471.899	698.99
472.253	635.72
472.608	633.46
472.962	667.36
473.317	698.99
473.671	680.91
474.025	658.32
474.38	680.91
474.734	687.69
475.088	680.91
475.442	678.65
475.796	633.46
476.15	574.7
476.504	705.77
476.858	624.42
477.212	565.66
477.566	619.9
477.92	671.87
478.274	610.86
478.628	626.68
478.982	653.8
479.336	647.02
479.689	615.38
480.043	653.8
480.397	606.34
480.75	540.8
481.104	536.29
481.457	531.77
481.811	588.26
482.164	588.26
482.518	534.03
482.871	610.86
483.225	567.92
483.578	592.78
483.931	644.76
484.284	581.48
484.638	619.9
484.991	513.69
485.344	552.1
485.697	531.77
486.05	531.77
486.403	556.62
486.756	493.35
487.109	565.66
487.462	565.66
487.815	567.92
488.168	484.31
488.52	665.1
488.873	613.12
489.226	601.82
489.579	545.32
489.931	543.06
490.284	561.14
490.637	527.25
490.989	567.92
491.342	567.92
491.694	592.78
492.047	547.58
492.399	563.4
492.751	576.96
493.104	565.66
493.456	529.51
493.808	518.21
494.16	592.78
494.513	549.84
494.865	547.58
495.217	579.22
495.569	572.44
495.921	595.04
496.273	538.55
496.625	565.66
496.977	495.61
497.329	579.22
497.68	617.64
498.032	586
498.384	606.34
498.736	534.03
499.087	592.78
499.439	622.16
499.791	592.78
500.142	626.68
500.494	671.87
500.845	606.34
501.197	572.44
501.548	583.74
501.9	644.76
502.251	606.34
502.602	601.82
502.954	624.42
503.305	624.42
503.656	583.74
504.007	579.22
504.358	680.91
504.709	637.98
505.061	583.74
505.412	576.96
505.763	613.12
506.113	669.62
506.464	633.46
506.815	694.47
507.166	685.43
507.517	696.73
507.868	732.89
508.218	665.1
508.569	653.8
508.92	726.11
509.27	802.94
509.621	762.27
509.971	719.33
510.322	728.37
510.672	710.29
511.023	753.23
511.373	811.98
511.723	811.98
512.074	857.18
512.424	750.97
512.774	811.98
513.124	863.96
513.475	859.44
513.825	909.16
514.175	809.72
514.525	900.12
514.875	848.14
515.225	897.86
515.575	938.53
515.924	1010.85
516.274	931.76
516.624	943.05
516.974	1022.15
517.324	958.87
517.673	1035.71
518.023	1031.19
518.373	1019.89
518.722	1126.1
519.072	1019.89
519.421	1089.94
519.771	1058.31
520.12	1074.12
520.469	1022.15
520.819	1049.27
521.168	1101.24
521.517	1121.58
521.867	1216.49
522.216	1218.75
522.565	1128.36
522.914	1189.38
523.263	1184.86
523.612	1202.93
523.961	1245.87
524.31	1259.43
524.659	1162.26
525.008	1193.9
525.357	1202.93
525.705	1243.61
526.054	1306.89
526.403	1266.21
526.752	1243.61
527.1	1334
527.449	1340.78
527.797	1304.63
528.146	1196.15
528.495	1340.78
528.843	1320.45
529.191	1343.04
529.54	1306.89
529.888	1361.12
530.236	1367.9
530.585	1327.22
530.933	1349.82
531.281	1322.71
531.629	1352.08
531.977	1370.16
532.325	1361.12
532.673	1381.46
533.021	1442.48
533.369	1379.2
533.717	1324.97
534.065	1417.62
534.413	1465.07
534.761	1431.18
535.108	1390.5
535.456	1358.86
535.804	1413.1
536.151	1406.32
536.499	1410.84
536.847	1510.27
537.194	1370.16
537.542	1440.22
537.889	1404.06
538.236	1424.4
538.584	1365.64
538.931	1349.82
539.278	1406.32
539.626	1374.68
539.973	1483.15
540.32	1336.26
540.667	1422.14
541.014	1447
541.361	1419.88
541.708	1485.41
542.055	1408.58
542.402	1442.48
542.749	1447
543.096	1383.72
543.443	1440.22
543.789	1505.75
544.136	1379.2
544.483	1483.15
544.83	1354.34
545.176	1487.67
545.523	1408.58
545.869	1286.55
546.216	1376.94
546.562	1465.07
546.909	1302.37
547.255	1426.66
547.601	1343.04
547.948	1447
548.294	1399.54
548.64	1404.06
548.986	1442.48
549.332	1431.18
549.678	1374.68
550.025	1352.08
550.371	1404.06
550.717	1379.2
551.062	1372.42
551.408	1415.36
551.754	1415.36
552.1	1363.38
552.446	1433.44
552.792	1415.36
553.137	1456.04
553.483	1431.18
553.828	1480.89
554.174	1413.1
554.52	1492.19
554.865	1331.74
555.211	1408.58
555.556	1478.63
555.901	1498.97
556.247	1469.59
556.592	1458.29
556.937	1406.32
557.282	1517.05
557.628	1392.76
557.973	1483.15
558.318	1492.19
558.663	1410.84
559.008	1388.24
559.353	1537.39
559.698	1440.22
560.043	1451.52
560.388	1537.39
560.732	1401.8
561.077	1517.05
561.422	1548.69
561.766	1541.91
562.111	1596.14
562.456	1575.81
562.8	1537.39
563.145	1494.45
563.489	1422.14
563.834	1663.94
564.178	1532.87
564.523	1607.44
564.867	1526.09
565.211	1578.07
565.555	1573.55
565.9	1530.61
566.244	1668.46
566.588	1496.71
566.932	1532.87
567.276	1505.75
567.62	1652.64
567.964	1593.88
568.308	1654.9
568.652	1627.78
568.996	1682.02
569.339	1727.21
569.683	1657.16
570.027	1650.38
570.371	1641.34
570.714	1713.66
571.058	1652.64
571.401	1641.34
571.745	1672.98
572.088	1630.04
572.432	1772.41
572.775	1740.77
573.118	1711.4
573.462	1609.7
573.805	1636.82
574.148	1630.04
574.491	1668.46
574.835	1661.68
575.178	1598.4
575.521	1697.84
575.864	1688.8
576.207	1607.44
576.55	1675.24
576.892	1706.88
577.235	1772.41
577.578	1691.06
577.921	1602.92
578.264	1630.04
578.606	1670.72
578.949	1659.42
579.292	1614.22
579.634	1614.22
579.977	1623.26
580.319	1686.54
580.662	1650.38
581.004	1580.33
581.346	1539.65
581.689	1611.96
582.031	1555.47
582.373	1505.75
582.715	1616.48
583.057	1584.85
583.4	1546.43
583.742	1480.89
584.084	1582.59
584.426	1535.13
584.768	1553.21
585.109	1505.75
585.451	1526.09
585.793	1501.23
586.135	1541.91
586.477	1501.23
586.818	1410.84
587.16	1379.2
587.502	1428.92
587.843	1417.62
588.185	1388.24
588.526	1338.52
588.868	1354.34
589.209	1390.5
589.55	1415.36
589.892	1361.12
590.233	1297.85
590.574	1324.97
590.915	1349.82
591.257	1309.15
591.598	1268.47
591.939	1263.95
592.28	1284.29
592.621	1327.22
592.962	1297.85
593.303	1313.67
593.643	1196.15
593.984	1263.95
594.325	1270.73
594.666	1245.87
595.006	1232.31
595.347	1198.41
595.688	1250.39
596.028	1087.68
596.369	1241.35
596.709	1178.08
597.05	1171.3
597.39	1144.18
597.73	1198.41
598.071	1160
598.411	1137.4
598.751	1126.1
599.091	1137.4
599.431	1112.54
599.772	1056.05
600.112	1108.02
600.452	1148.7
600.792	1047.01
601.132	1098.98
601.471	990.51
601.811	976.95
602.151	1089.94
602.491	1108.02
602.831	972.43
603.17	995.03
603.51	976.95
603.849	1013.11
604.189	1008.59
604.528	967.91
604.868	963.39
605.207	1004.07
605.547	940.79
605.886	970.17
606.225	918.2
606.565	929.5
606.904	956.61
607.243	868.48
607.582	949.83
607.921	866.22
608.26	868.48
608.599	893.34
608.938	958.87
609.277	952.09
609.616	879.78
609.955	861.7
610.293	848.14
610.632	873
610.971	902.38
611.309	877.52
611.648	852.66
611.987	877.52
612.325	814.24
612.664	882.04
613.002	861.7
613.34	825.54
613.679	845.88
614.017	866.22
614.355	827.8
614.694	918.2
615.032	909.16
615.37	823.28
615.708	796.17
616.046	906.9
616.384	839.1
616.722	841.36
617.06	814.24
617.398	866.22
617.736	775.83
618.073	807.46
618.411	891.08
618.749	789.39
619.086	879.78
619.424	832.32
619.762	809.72
620.099	834.58
620.437	811.98
620.774	791.65
621.112	897.86
621.449	821.02
621.786	741.93
622.123	852.66
622.461	843.62
622.798	836.84
623.135	863.96
623.472	755.49
623.809	800.69
624.146	877.52
624.483	868.48
624.82	821.02
625.157	821.02
625.494	800.69
625.83	762.27
626.167	739.67
626.504	755.49
626.841	719.33
627.177	746.45
627.514	737.41
627.85	748.71
628.187	839.1
628.523	796.17
628.86	769.05
629.196	746.45
629.532	778.09
629.869	766.79
630.205	796.17
630.541	705.77
630.877	760.01
631.213	750.97
631.549	762.27
631.885	789.39
632.221	753.23
632.557	775.83
632.893	649.28
633.229	613.12
633.564	778.09
633.9	712.55
634.236	683.17
634.572	710.29
634.907	683.17
635.243	732.89
635.578	674.13
635.914	665.1
636.249	708.03
636.585	719.33
636.92	764.53
637.255	631.2
637.59	665.1
637.926	662.84
638.261	735.15
638.596	694.47
638.931	651.54
639.266	712.55
639.601	694.47
639.936	658.32
640.271	637.98
640.606	696.73
640.94	676.39
641.275	626.68
641.61	588.26
641.945	626.68
642.279	610.86
642.614	642.5
642.948	610.86
643.283	680.91
643.617	574.7
643.952	524.99
644.286	615.38
644.62	656.06
644.955	545.32
645.289	610.86
645.623	572.44
645.957	622.16
646.291	613.12
646.625	624.42
646.959	590.52
647.293	572.44
647.627	653.8
647.961	615.38
648.295	540.8
648.629	588.26
648.962	538.55
649.296	513.69
649.63	572.44
649.963	651.54
650.297	545.32
650.63	635.72
650.964	495.61
651.297	590.52
651.631	506.91
651.964	529.51
652.297	500.13
652.631	538.55
652.964	511.43
653.297	477.53
653.63	554.36
653.963	461.71
654.296	545.32
654.629	515.95
654.962	547.58
655.295	563.4
655.628	524.99
655.961	463.97
656.293	518.21
656.626	536.29
656.959	540.8
657.291	534.03
657.624	493.35
657.956	461.71
658.289	493.35
658.621	421.03
658.954	457.19
659.286	477.53
659.618	511.43
659.95	468.49
660.283	491.09
660.615	461.71
660.947	475.27
661.279	443.63
661.611	475.27
661.943	459.45
662.275	522.73
662.607	473.01
662.939	488.83
663.27	434.59
663.602	448.15
663.934	423.29
664.266	448.15
664.597	373.58
664.929	432.33
665.26	369.06
665.592	450.41
665.923	463.97
666.255	416.51
666.586	486.57
666.917	418.77
667.248	475.27
667.58	459.45
667.911	341.94
668.242	459.45
668.573	414.25
668.904	400.7
669.235	436.85
669.566	484.31
669.897	461.71
670.228	414.25
670.558	495.61
670.889	416.51
671.22	425.55
671.551	430.07
671.881	371.32
672.212	382.62
672.542	396.18
672.873	382.62
673.203	382.62
673.533	504.65
673.864	402.96
674.194	457.19
674.524	427.81
674.855	448.15
675.185	405.22
675.515	423.29
675.845	384.88
676.175	421.03
676.505	378.1
676.835	371.32
677.165	375.84
677.494	362.28
677.824	396.18
678.154	414.25
678.484	393.92
678.813	389.4
679.143	448.15
679.472	421.03
679.802	384.88
680.131	398.44
680.461	355.5
680.79	348.72
681.119	380.36
681.449	378.1
681.778	398.44
682.107	459.45
682.436	357.76
682.765	405.22
683.094	355.5
683.423	407.48
683.752	414.25
684.081	369.06
684.41	355.5
684.739	296.74
685.067	391.66
685.396	393.92
685.725	387.14
686.053	425.55
686.382	387.14
686.711	319.34
687.039	421.03
687.367	337.42
687.696	382.62
688.024	434.59
688.352	382.62
688.681	353.24
689.009	346.46
689.337	348.72
689.665	296.74
689.993	321.6
690.321	364.54
690.649	398.44
690.977	400.7
691.305	321.6
691.633	382.62
691.961	314.82
692.288	355.5
692.616	389.4
692.944	344.2
693.271	380.36
693.599	375.84
693.926	382.62
694.254	292.22
694.581	344.2
694.908	350.98
695.236	396.18
695.563	353.24
695.89	369.06
696.217	330.64
696.544	369.06
696.871	389.4
697.198	278.66
697.525	341.94
697.852	391.66
698.179	362.28
698.506	344.2
698.833	258.33
699.16	364.54
699.486	402.96
699.813	305.78
700.139	332.9
700.466	332.9
700.793	310.3
701.119	348.72
701.445	321.6
701.772	310.3
702.098	360.02
702.424	380.36
702.75	337.42
703.077	355.5
703.403	260.59
703.729	326.12
704.055	357.76
704.381	308.04
704.707	321.6
705.033	319.34
705.358	289.96
705.684	258.33
706.01	258.33
706.336	276.41
706.661	283.18
706.987	308.04
707.312	323.86
707.638	355.5
707.963	292.22
708.289	299
708.614	321.6
708.939	312.56
709.265	380.36
709.59	285.44
709.915	314.82
710.24	393.92
710.565	310.3
710.89	323.86
711.215	384.88
711.54	416.51
711.865	308.04
712.19	271.89
712.515	314.82
712.839	357.76
713.164	289.96
713.489	312.56
713.813	283.18
714.138	371.32
714.462	346.46
714.787	326.12
715.111	369.06
715.435	256.07
715.76	269.63
716.084	289.96
716.408	278.66
716.732	323.86
717.056	337.42
717.381	262.85
717.705	294.48
718.028	285.44
718.352	308.04
718.676	278.66
719	303.52
719.324	303.52
719.648	353.24
719.971	323.86
720.295	260.59
720.618	285.44
720.942	276.41
721.265	330.64
721.589	330.64
721.912	289.96
722.236	346.46
722.559	323.86
722.882	357.76
723.205	303.52
723.528	305.78
723.851	305.78
724.174	366.8
724.497	353.24
724.82	280.92
725.143	271.89
725.466	348.72
725.789	312.56
726.112	335.16
726.434	294.48
726.757	240.25
727.08	301.26
727.402	317.08
727.725	344.2
728.047	253.81
728.37	276.41
728.692	305.78
729.014	344.2
729.336	289.96
729.659	274.15
729.981	299
730.303	251.55
730.625	296.74
730.947	249.29
731.269	323.86
731.591	247.03
731.913	253.81
732.235	332.9
732.556	280.92
732.878	301.26
733.2	339.68
733.521	265.11
733.843	280.92
734.164	296.74
734.486	317.08
734.807	360.02
735.129	278.66
735.45	283.18
735.771	274.15
736.092	285.44
736.414	276.41
736.735	219.91
737.056	314.82
737.377	319.34
737.698	287.7
738.019	249.29
738.34	283.18
738.66	353.24
738.981	271.89
739.302	308.04
739.623	269.63
739.943	332.9
740.264	251.55
740.584	274.15
740.905	233.47
741.225	357.76
741.546	294.48
741.866	274.15
742.186	308.04
742.507	258.33
742.827	283.18
743.147	276.41
743.467	321.6
743.787	317.08
744.107	276.41
744.427	299
744.747	274.15
745.067	265.11
745.386	253.81
745.706	224.43
746.026	267.37
746.346	337.42
746.665	231.21
746.985	296.74
747.304	321.6
747.624	237.99
747.943	357.76
748.262	314.82
748.582	271.89
748.901	308.04
749.22	296.74
749.539	271.89
749.858	355.5
750.177	299
750.496	292.22
750.815	332.9
751.134	296.74
751.453	317.08
751.772	289.96
752.09	308.04
752.409	314.82
752.728	219.91
753.046	271.89
753.365	265.11
753.683	222.17
754.002	267.37
754.32	323.86
754.639	296.74
754.957	319.34
755.275	280.92
755.593	276.41
755.911	253.81
756.23	260.59
756.548	285.44
756.866	294.48
757.183	314.82
757.501	301.26
757.819	237.99
758.137	233.47
758.455	287.7
758.772	321.6
759.09	285.44
759.408	240.25
759.725	258.33
760.043	341.94
760.36	278.66
760.677	287.7
760.995	260.59
761.312	287.7
761.629	355.5
761.946	308.04
762.264	308.04
762.581	285.44
762.898	305.78
763.215	292.22
763.532	353.24
763.848	296.74
764.165	292.22
764.482	294.48
764.799	237.99
765.115	312.56
765.432	274.15
765.749	247.03
766.065	224.43
766.382	262.85
766.698	292.22
767.014	299
767.331	310.3
767.647	231.21
767.963	285.44
768.279	262.85
768.595	237.99
768.911	305.78
769.227	269.63
769.543	341.94
769.859	233.47
770.175	283.18
770.491	267.37
770.807	280.92
771.122	314.82
771.438	289.96
771.754	278.66
772.069	262.85
772.385	310.3
772.7	280.92
773.016	235.73
773.331	326.12
773.646	339.68
773.961	312.56
774.277	260.59
774.592	285.44
774.907	314.82
775.222	285.44
775.537	247.03
775.852	249.29
776.167	242.51
776.482	308.04
776.796	278.66
777.111	233.47
777.426	276.41
777.74	287.7
778.055	274.15
778.369	260.59
778.684	258.33
778.998	271.89
779.313	260.59
779.627	210.87
779.941	323.86
780.255	237.99
780.57	299
780.884	231.21
781.198	301.26
781.512	292.22
781.826	299
782.14	283.18
782.453	348.72
782.767	283.18
783.081	280.92
783.395	242.51
783.708	278.66
784.022	267.37
784.335	319.34
784.649	283.18
784.962	339.68
785.276	301.26
785.589	310.3
785.902	260.59
786.216	267.37
786.529	249.29
786.842	296.74
787.155	339.68
787.468	280.92
787.781	289.96
788.094	260.59
788.407	233.47
788.72	274.15
789.032	258.33
789.345	310.3
789.658	267.37
789.97	305.78
790.283	274.15
790.595	314.82
790.908	253.81
791.22	296.74
791.532	305.78
791.845	289.96
792.157	247.03
792.469	299
792.781	301.26
793.093	271.89
793.405	233.47
793.717	301.26
794.029	224.43
794.341	287.7
794.653	289.96
794.965	269.63
795.276	269.63
795.588	244.77
795.9	219.91
796.211	253.81
796.523	292.22
796.834	314.82
797.146	276.41
797.457	283.18
797.768	305.78
798.08	283.18
798.391	283.18
798.702	294.48
799.013	280.92
799.324	292.22
799.635	319.34
799.946	301.26
800.257	247.03
800.568	280.92
800.878	287.7
801.189	260.59
801.5	299
801.81	271.89
802.121	224.43
802.431	285.44
802.742	283.18
803.052	296.74
803.363	283.18
803.673	267.37
803.983	285.44
804.293	192.79
804.603	292.22
804.913	278.66
805.224	247.03
805.533	280.92
805.843	319.34
806.153	265.11
806.463	260.59
806.773	213.13
807.083	278.66
807.392	310.3
807.702	267.37
808.011	280.92
808.321	296.74
808.63	301.26
808.94	267.37
809.249	303.52
809.558	260.59
809.868	299
810.177	231.21
810.486	289.96
810.795	285.44
811.104	269.63
811.413	237.99
811.722	253.81
812.031	292.22
812.339	253.81
812.648	249.29
812.957	167.93
813.266	267.37
813.574	289.96
813.883	312.56
814.191	280.92
814.5	289.96
814.808	326.12
815.116	289.96
815.424	274.15
815.733	305.78
816.041	265.11
816.349	242.51
816.657	244.77
816.965	274.15
817.273	274.15
817.581	233.47
817.889	262.85
818.196	276.41
818.504	213.13
818.812	213.13
819.12	314.82
819.427	364.54
819.735	271.89
820.042	256.07
820.349	287.7
820.657	251.55
820.964	247.03
821.271	256.07
821.579	308.04
821.886	276.41
822.193	258.33
822.5	280.92
822.807	258.33
823.114	190.53
823.421	305.78
823.727	231.21
824.034	237.99
824.341	265.11
824.648	332.9
824.954	226.69
825.261	215.39
825.567	253.81
825.874	253.81
826.18	287.7
826.486	276.41
826.793	258.33
827.099	271.89
827.405	312.56
827.711	197.31
828.017	267.37
828.323	249.29
828.629	165.67
828.935	276.41
829.241	276.41
829.547	237.99
829.852	258.33
830.158	249.29
830.464	296.74
830.769	308.04
831.075	303.52
831.38	289.96
831.686	244.77
831.991	283.18
832.296	296.74
832.601	267.37
832.907	244.77
833.212	296.74
833.517	285.44
833.822	237.99
834.127	321.6
834.432	249.29
834.737	265.11
835.041	265.11
835.346	271.89
835.651	346.46
835.956	224.43
836.26	296.74
836.565	244.77
836.869	299
837.174	226.69
837.478	206.35
837.782	265.11
838.087	267.37
838.391	249.29
838.695	226.69
838.999	283.18
839.303	233.47
839.607	310.3
839.911	294.48
840.215	305.78
840.519	305.78
840.822	244.77
841.126	301.26
841.43	276.41
841.733	283.18
842.037	305.78
842.34	222.17
842.644	231.21
842.947	328.38
843.251	317.08
843.554	285.44
843.857	224.43
844.16	256.07
844.463	335.16
844.766	260.59
845.069	326.12
845.372	258.33
845.675	210.87
845.978	206.35
846.281	231.21
846.583	242.51
846.886	278.66
847.189	305.78
847.491	265.11
847.794	299
848.096	303.52
848.399	195.05
848.701	260.59
849.003	244.77
849.305	247.03
849.608	332.9
849.91	267.37
850.212	237.99
850.514	190.53
850.816	269.63
851.118	294.48
851.419	276.41
851.721	249.29
852.023	271.89
852.325	360.02
852.626	278.66
852.928	310.3
853.229	262.85
853.531	308.04
853.832	360.02
854.133	253.81
854.435	265.11
854.736	251.55
855.037	276.41
855.338	285.44
855.639	348.72
855.94	305.78
856.241	283.18
856.542	240.25
856.843	213.13
857.144	251.55
857.444	305.78
857.745	269.63
858.046	287.7
858.346	258.33
858.647	289.96
858.947	235.73
859.247	312.56
859.548	256.07
859.848	274.15
860.148	274.15
860.448	294.48
860.749	244.77
861.049	280.92
861.349	262.85
861.648	235.73
861.948	301.26
862.248	287.7
862.548	242.51
862.848	260.59
863.147	276.41
863.447	269.63
863.746	256.07
864.046	308.04
864.345	292.22
864.645	258.33
864.944	294.48
865.243	265.11
865.542	247.03
865.842	240.25
866.141	235.73
866.44	274.15
866.739	360.02
867.038	267.37
867.337	289.96
867.635	210.87
867.934	199.57
868.233	251.55
868.531	235.73
868.83	287.7
869.129	233.47
869.427	206.35
869.725	249.29
870.024	301.26
870.322	267.37
870.62	321.6
870.918	312.56
871.217	317.08
871.515	231.21
871.813	326.12
872.111	253.81
872.409	292.22
872.706	237.99
873.004	269.63
873.302	296.74
873.6	292.22
873.897	299
874.195	285.44
874.492	237.99
874.79	308.04
875.087	323.86
875.384	222.17
875.682	237.99
875.979	269.63
876.276	256.07
876.573	283.18
876.87	283.18
877.167	283.18
