Data from PL_2polymer_F8BT_MEHPPV_USB2H096331_0187.txt Node
Date: Tue Dec 15 16:28:23 CET 2020
User: spadmin
Spectrometer: USB2+H09633
Trigger mode: 0
Integration Time (sec): 1.000000E-2
Scans to average: 1
Electric dark correction enabled: true
Nonlinearity correction enabled: false
Boxcar width: 0
XAxis mode: Wavelengths
Number of Pixels in Spectrum: 2048
>>>>>Begin Spectral Data<<<<<
174.027	-73.73
174.405	-73.73
174.783	-73.73
175.162	-42.09
175.54	-132.48
175.918	-109.88
176.296	-69.21
176.674	-114.4
177.052	-100.84
177.43	-57.91
177.808	-75.99
178.186	-53.39
178.564	-44.35
178.942	-48.87
179.32	-35.31
179.698	68.64
180.076	86.72
180.453	55.08
180.831	75.42
181.209	147.74
181.587	98.02
181.965	68.64
182.342	201.97
182.72	159.04
183.098	251.69
183.475	283.33
183.853	238.13
184.231	233.61
184.608	283.33
184.986	342.08
185.363	265.25
185.741	222.31
186.118	276.55
186.496	262.99
186.873	262.99
187.251	314.96
187.628	312.7
188.006	342.08
188.383	328.52
188.76	342.08
189.138	308.18
189.515	333.04
189.892	364.68
190.27	292.37
190.647	287.85
191.024	362.42
191.401	296.88
191.778	353.38
192.155	256.21
192.533	337.56
192.91	276.55
193.287	287.85
193.664	321.74
194.041	276.55
194.418	339.82
194.795	328.52
195.172	324
195.549	312.7
195.926	326.26
196.302	265.25
196.679	301.4
197.056	326.26
197.433	287.85
197.81	344.34
198.187	317.22
198.563	339.82
198.94	348.86
199.317	337.56
199.693	324
200.07	369.2
200.447	353.38
200.823	324
201.2	333.04
201.576	337.56
201.953	317.22
202.329	314.96
202.706	364.68
203.082	281.07
203.459	346.6
203.835	294.63
204.212	276.55
204.588	335.3
204.964	296.88
205.341	326.26
205.717	285.59
206.093	342.08
206.469	296.88
206.846	310.44
207.222	292.37
207.598	319.48
207.974	328.52
208.35	326.26
208.726	328.52
209.102	303.66
209.479	290.11
209.855	314.96
210.231	337.56
210.607	274.29
210.982	321.74
211.358	299.14
211.734	328.52
212.11	369.2
212.486	324
212.862	335.3
213.238	326.26
213.614	355.64
213.989	335.3
214.365	310.44
214.741	330.78
215.116	317.22
215.492	321.74
215.868	281.07
216.243	308.18
216.619	308.18
216.995	296.88
217.37	321.74
217.746	310.44
218.121	364.68
218.497	380.5
218.872	278.81
219.247	256.21
219.623	272.03
219.998	242.65
220.374	355.64
220.749	366.94
221.124	353.38
221.499	283.33
221.875	278.81
222.25	351.12
222.625	378.24
223	326.26
223.376	269.77
223.751	303.66
224.126	312.7
224.501	276.55
224.876	357.9
225.251	328.52
225.626	328.52
226.001	346.6
226.376	303.66
226.751	283.33
227.126	378.24
227.501	265.25
227.875	321.74
228.25	373.72
228.625	357.9
229	317.22
229.375	360.16
229.749	344.34
230.124	362.42
230.499	353.38
230.873	333.04
231.248	351.12
231.623	387.28
231.997	360.16
232.372	319.48
232.746	296.88
233.121	294.63
233.495	355.64
233.87	333.04
234.244	400.84
234.619	328.52
234.993	353.38
235.367	407.62
235.742	409.88
236.116	391.8
236.49	355.64
236.865	362.42
237.239	326.26
237.613	351.12
237.987	355.64
238.361	333.04
238.736	339.82
239.11	364.68
239.484	373.72
239.858	351.12
240.232	382.76
240.606	380.5
240.98	418.92
241.354	380.5
241.728	355.64
242.102	351.12
242.475	346.6
242.849	342.08
243.223	362.42
243.597	337.56
243.971	351.12
244.344	398.58
244.718	373.72
245.092	312.7
245.466	405.36
245.839	337.56
246.213	337.56
246.586	324
246.96	389.54
247.334	292.37
247.707	348.86
248.081	371.46
248.454	324
248.828	366.94
249.201	423.44
249.574	430.21
249.948	382.76
250.321	353.38
250.694	324
251.068	364.68
251.441	364.68
251.814	394.06
252.187	425.7
252.561	394.06
252.934	326.26
253.307	348.86
253.68	346.6
254.053	409.88
254.426	355.64
254.799	394.06
255.172	371.46
255.545	378.24
255.918	351.12
256.291	446.03
256.664	362.42
257.037	389.54
257.41	412.14
257.782	371.46
258.155	299.14
258.528	328.52
258.901	342.08
259.273	366.94
259.646	398.58
260.019	427.95
260.391	475.41
260.764	375.98
261.137	387.28
261.509	364.68
261.882	441.51
262.254	373.72
262.627	416.66
262.999	366.94
263.372	342.08
263.744	357.9
264.116	380.5
264.489	409.88
264.861	423.44
265.233	385.02
265.606	346.6
265.978	380.5
266.35	412.14
266.722	398.58
267.094	464.11
267.467	380.5
267.839	400.84
268.211	414.4
268.583	364.68
268.955	335.3
269.327	353.38
269.699	414.4
270.071	385.02
270.443	394.06
270.815	364.68
271.186	348.86
271.558	414.4
271.93	421.18
272.302	409.88
272.674	360.16
273.045	371.46
273.417	423.44
273.789	403.1
274.16	432.47
274.532	369.2
274.904	348.86
275.275	441.51
275.647	432.47
276.018	443.77
276.39	382.76
276.761	333.04
277.133	409.88
277.504	412.14
277.875	416.66
278.247	396.32
278.618	389.54
278.989	459.59
279.361	378.24
279.732	427.95
280.103	450.55
280.474	432.47
280.846	421.18
281.217	450.55
281.588	421.18
281.959	418.92
282.33	434.73
282.701	455.07
283.072	375.98
283.443	529.65
283.814	418.92
284.185	385.02
284.556	436.99
284.927	398.58
285.297	461.85
285.668	464.11
286.039	457.33
286.41	357.9
286.781	371.46
287.151	436.99
287.522	464.11
287.893	441.51
288.263	493.49
288.634	412.14
289.004	355.64
289.375	421.18
289.745	414.4
290.116	434.73
290.486	360.16
290.857	405.36
291.227	380.5
291.598	396.32
291.968	407.62
292.338	466.37
292.709	500.27
293.079	425.7
293.449	455.07
293.819	416.66
294.189	405.36
294.56	421.18
294.93	432.47
295.3	423.44
295.67	466.37
296.04	436.99
296.41	389.54
296.78	470.89
297.15	430.21
297.52	407.62
297.89	391.8
298.259	486.71
298.629	418.92
298.999	416.66
299.369	434.73
299.739	504.79
300.108	414.4
300.478	441.51
300.848	434.73
301.217	500.27
301.587	423.44
301.957	466.37
302.326	452.81
302.696	396.32
303.065	443.77
303.435	434.73
303.804	416.66
304.174	507.05
304.543	452.81
304.912	382.76
305.282	500.27
305.651	461.85
306.02	400.84
306.39	373.72
306.759	409.88
307.128	450.55
307.497	504.79
307.866	488.97
308.235	452.81
308.604	439.25
308.974	493.49
309.343	479.93
309.712	500.27
310.08	500.27
310.449	565.8
310.818	498.01
311.187	495.75
311.556	491.23
311.925	403.1
312.294	495.75
312.662	509.31
313.031	540.95
313.4	491.23
313.769	482.19
314.137	488.97
314.506	457.33
314.874	531.91
315.243	446.03
315.612	446.03
315.98	482.19
316.349	482.19
316.717	477.67
317.085	502.53
317.454	595.18
317.822	495.75
318.191	455.07
318.559	518.35
318.927	507.05
319.295	477.67
319.664	488.97
320.032	579.36
320.4	500.27
320.768	516.09
321.136	495.75
321.504	491.23
321.872	511.57
322.24	554.51
322.608	482.19
322.976	493.49
323.344	484.45
323.712	549.99
324.08	534.17
324.448	493.49
324.816	531.91
325.183	466.37
325.551	475.41
325.919	547.73
326.287	536.43
326.654	536.43
327.022	536.43
327.389	509.31
327.757	466.37
328.125	475.41
328.492	507.05
328.86	516.09
329.227	581.62
329.594	556.77
329.962	559.02
330.329	479.93
330.697	568.06
331.064	543.21
331.431	547.73
331.798	563.54
332.166	568.06
332.533	552.25
332.9	518.35
333.267	507.05
333.634	635.86
334.001	522.87
334.368	579.36
334.735	540.95
335.102	581.62
335.469	538.69
335.836	559.02
336.203	615.52
336.57	554.51
336.937	601.96
337.304	590.66
337.67	577.1
338.037	595.18
338.404	579.36
338.771	588.4
339.137	672.02
339.504	642.64
339.87	651.68
340.237	649.42
340.604	638.12
340.97	620.04
341.337	604.22
341.703	615.52
342.069	660.72
342.436	597.44
342.802	624.56
343.169	620.04
343.535	620.04
343.901	672.02
344.267	658.46
344.634	629.08
345	552.25
345.366	651.68
345.732	656.2
346.098	579.36
346.464	631.34
346.83	640.38
347.196	653.94
347.562	665.24
347.928	647.16
348.294	672.02
348.66	644.9
349.026	613.26
349.392	665.24
349.757	642.64
350.123	699.13
350.489	669.76
350.855	685.58
351.22	751.11
351.586	683.32
351.951	703.65
352.317	647.16
352.683	690.09
353.048	712.69
353.414	685.58
353.779	726.25
354.144	717.21
354.51	708.17
354.875	764.67
355.24	708.17
355.606	678.8
355.971	730.77
356.336	753.37
356.701	766.93
357.067	690.09
357.432	751.11
357.797	705.91
358.162	676.54
358.527	771.45
358.892	780.49
359.257	859.58
359.622	857.32
359.987	816.65
360.352	789.53
360.717	913.82
361.082	757.89
361.446	762.41
361.811	757.89
362.176	834.72
362.541	864.1
362.905	870.88
363.27	909.3
363.635	988.39
363.999	1051.67
364.364	927.38
364.728	934.16
365.093	920.6
365.457	963.53
365.822	918.34
366.186	884.44
366.55	1020.03
366.915	1051.67
367.279	1090.08
367.643	920.6
368.008	988.39
368.372	1024.55
368.736	1020.03
369.1	1056.19
369.464	1090.08
369.828	990.65
370.192	1130.76
370.556	1155.62
370.92	1101.38
371.284	1205.34
371.648	1243.75
372.012	1189.52
372.376	1223.41
372.74	1302.51
373.104	1395.16
373.468	1433.58
373.831	1442.62
374.195	1433.58
374.559	1503.63
374.922	1501.37
375.286	1605.33
375.65	1600.81
376.013	1627.92
376.377	1697.98
376.74	1709.28
377.104	1890.06
377.467	1876.5
377.83	2021.13
378.194	2179.32
378.557	2357.85
378.92	2328.47
379.284	2396.26
379.647	2705.86
380.01	2719.42
380.373	2931.84
380.736	3083.25
381.1	3465.16
381.463	3700.19
381.826	3885.49
382.189	4129.55
382.552	4518.24
382.915	4649.31
383.278	5180.37
383.64	5770.19
384.003	6208.59
384.366	6753.21
384.729	7293.31
385.092	7788.21
385.454	8628.87
385.817	9397.21
386.18	10450.29
386.542	11349.7
386.905	12816.33
387.268	13686.36
387.63	15304.4
387.993	16224.15
388.355	17611.68
388.718	19665.87
389.08	21541.52
389.442	23130.18
389.805	25220.52
390.167	27003.53
390.529	30171.81
390.892	33864.36
391.254	35466.58
391.616	38065.38
391.978	42239.28
392.34	46544.26
392.702	48099.02
393.064	51459.38
393.426	54114.68
393.788	55429.9
394.15	57084.09
394.512	59013.99
394.874	60670.44
395.236	62394.69
395.598	64358.48
395.96	65077.1
396.321	65077.1
396.683	65077.1
397.045	65077.1
397.406	65077.1
397.768	65077.1
398.13	65077.1
398.491	65077.1
398.853	65077.1
399.214	65077.1
399.576	65077.1
399.937	65077.1
400.299	65077.1
400.66	65077.1
401.021	65077.1
401.383	65077.1
401.744	65077.1
402.105	65077.1
402.466	65077.1
402.827	65077.1
403.189	65077.1
403.55	65077.1
403.911	65077.1
404.272	65077.1
404.633	65077.1
404.994	65077.1
405.355	65077.1
405.716	65077.1
406.077	65077.1
406.437	65077.1
406.798	65077.1
407.159	65077.1
407.52	65077.1
407.88	65077.1
408.241	65077.1
408.602	65077.1
408.962	65077.1
409.323	65077.1
409.684	65077.1
410.044	65077.1
410.405	65077.1
410.765	65077.1
411.125	65077.1
411.486	65077.1
411.846	65077.1
412.206	65077.1
412.567	65077.1
412.927	65077.1
413.287	65077.1
413.647	65077.1
414.007	65077.1
414.368	65077.1
414.728	65077.1
415.088	65077.1
415.448	65077.1
415.808	65077.1
416.168	65077.1
416.528	65077.1
416.887	65077.1
417.247	65077.1
417.607	65077.1
417.967	65077.1
418.327	65077.1
418.686	65077.1
419.046	65077.1
419.406	65077.1
419.765	65077.1
420.125	65077.1
420.484	65077.1
420.844	65077.1
421.203	65077.1
421.563	64412.71
421.922	64057.92
422.282	62209.38
422.641	61029.75
423	59574.42
423.36	58711.17
423.719	56498.8
424.078	54657.04
424.437	52611.89
424.796	51041.31
425.155	49506.89
425.515	46869.67
425.874	45913.76
426.233	41751.16
426.592	39179.48
426.95	38191.93
427.309	36203.29
427.668	35432.68
428.027	32119.78
428.386	31622.61
428.745	28800.09
429.103	27048.72
429.462	25525.6
429.821	24131.29
430.179	22967.48
430.538	22246.59
430.897	21717.79
431.255	20131.39
431.614	19103.17
431.972	18725.78
432.33	17720.16
432.689	17331.47
433.047	16217.37
433.405	15598.18
433.764	14540.58
434.122	14280.7
434.48	13365.47
434.838	12825.37
435.197	12346.29
435.555	11894.32
435.913	11189.25
436.271	10947.45
436.629	10337.3
436.987	9869.51
437.345	9225.46
437.703	9202.87
438.061	8576.89
438.418	8136.23
438.776	7772.39
439.134	7643.58
439.492	7313.65
439.849	6888.8
440.207	6628.92
440.565	6346.44
440.922	5783.75
441.28	5668.5
441.637	5571.32
441.995	5266.25
442.352	5135.18
442.71	4836.88
443.067	4793.94
443.425	4536.32
443.782	4235.76
444.139	4423.33
444.496	4068.54
444.854	3912.61
445.211	3849.33
445.568	3815.44
445.925	3598.49
446.282	3367.99
446.639	3318.27
446.996	3189.46
447.353	3336.35
447.71	3245.96
448.067	3160.09
448.424	2870.83
448.781	2827.89
449.137	2699.08
449.494	2552.19
449.851	2577.05
450.208	2412.08
450.564	2450.5
450.921	2213.22
451.278	2120.57
451.634	2195.14
451.991	2190.62
452.347	2129.61
452.704	2032.43
453.06	2000.79
453.416	1772.55
453.773	1693.46
454.129	1806.45
454.485	1697.98
454.841	1682.16
455.198	1580.47
455.554	1542.05
455.91	1510.41
456.266	1449.4
456.622	1483.29
456.978	1399.68
457.334	1352.22
457.69	1307.03
458.046	1248.27
458.402	1227.93
458.758	1223.41
459.114	1166.92
459.469	1146.58
459.825	1074.27
460.181	1110.42
460.536	1105.9
460.892	1099.12
461.248	1092.34
461.603	961.27
461.959	963.53
462.314	1042.63
462.67	882.18
463.025	959.01
463.38	947.72
463.736	920.6
464.091	956.75
464.446	927.38
464.802	821.16
465.157	911.56
465.512	846.02
465.867	891.22
466.222	785.01
466.577	787.27
466.932	789.53
467.287	764.67
467.642	848.28
467.997	794.05
468.352	812.13
468.707	692.35
469.062	739.81
469.417	814.39
469.771	753.37
470.126	726.25
470.481	764.67
470.835	773.71
471.19	685.58
471.544	757.89
471.899	703.65
472.253	604.22
472.608	687.84
472.962	676.54
473.317	667.5
473.671	635.86
474.025	690.09
474.38	651.68
474.734	620.04
475.088	556.77
475.442	635.86
475.796	669.76
476.15	622.3
476.504	572.58
476.858	658.46
477.212	669.76
477.566	599.7
477.92	658.46
478.274	721.73
478.628	662.98
478.982	597.44
479.336	640.38
479.689	622.3
480.043	577.1
480.397	586.14
480.75	606.48
481.104	570.32
481.457	547.73
481.811	644.9
482.164	516.09
482.518	620.04
482.871	563.54
483.225	606.48
483.578	649.42
483.931	595.18
484.284	540.95
484.638	620.04
484.991	561.28
485.344	531.91
485.697	540.95
486.05	538.69
486.403	556.77
486.756	536.43
487.109	586.14
487.462	527.39
487.815	574.84
488.168	509.31
488.52	574.84
488.873	540.95
489.226	574.84
489.579	577.1
489.931	572.58
490.284	577.1
490.637	592.92
490.989	581.62
491.342	522.87
491.694	635.86
492.047	527.39
492.399	502.53
492.751	606.48
493.104	561.28
493.456	536.43
493.808	491.23
494.16	572.58
494.513	529.65
494.865	568.06
495.217	500.27
495.569	595.18
495.921	527.39
496.273	563.54
496.625	547.73
496.977	543.21
497.329	554.51
497.68	529.65
498.032	518.35
498.384	633.6
498.736	622.3
499.087	635.86
499.439	640.38
499.791	617.78
500.142	640.38
500.494	608.74
500.845	588.4
501.197	597.44
501.548	613.26
501.9	653.94
502.251	604.22
502.602	640.38
502.954	620.04
503.305	606.48
503.656	737.55
504.007	690.09
504.358	572.58
504.709	683.32
505.061	694.61
505.412	735.29
505.763	764.67
506.113	667.5
506.464	692.35
506.815	744.33
507.166	653.94
507.517	708.17
507.868	696.87
508.218	742.07
508.569	789.53
508.92	726.25
509.27	733.03
509.621	789.53
509.971	735.29
510.322	834.72
510.672	848.28
511.023	805.35
511.373	891.22
511.723	857.32
512.074	857.32
512.424	807.61
512.774	929.64
513.124	809.87
513.475	965.79
513.825	904.78
514.175	925.12
514.525	1042.63
514.875	1042.63
515.225	992.91
515.575	974.83
515.924	979.35
516.274	1069.75
516.624	1047.15
516.974	990.65
517.324	1128.5
517.673	1108.16
518.023	1114.94
518.373	1031.33
518.722	1239.23
519.072	1203.08
519.421	1144.32
519.771	1137.54
520.12	1164.66
520.469	1185
520.819	1160.14
521.168	1236.97
521.517	1218.89
521.867	1239.23
522.216	1212.12
522.565	1230.19
522.914	1311.55
523.263	1392.9
523.612	1331.89
523.961	1327.37
524.31	1297.99
524.659	1404.2
525.008	1347.7
525.357	1347.7
525.705	1374.82
526.054	1449.4
526.403	1424.54
526.752	1490.07
527.1	1451.66
527.449	1420.02
527.797	1485.55
528.146	1444.88
528.495	1537.53
528.843	1490.07
529.191	1530.75
529.54	1517.19
529.888	1589.51
530.236	1499.11
530.585	1462.96
530.933	1512.67
531.281	1453.92
531.629	1535.27
531.977	1546.57
532.325	1584.99
532.673	1535.27
533.021	1555.61
533.369	1508.15
533.717	1582.73
534.065	1598.55
534.413	1589.51
534.761	1526.23
535.108	1562.39
535.456	1584.99
535.804	1582.73
536.151	1564.65
536.499	1546.57
536.847	1499.11
537.194	1548.83
537.542	1634.7
537.889	1596.29
538.236	1605.33
538.584	1612.1
538.931	1587.25
539.278	1562.39
539.626	1621.14
539.973	1503.63
540.32	1616.62
540.667	1666.34
541.014	1537.53
541.361	1657.3
541.708	1557.87
542.055	1636.96
542.402	1564.65
542.749	1612.1
543.096	1542.05
543.443	1551.09
543.789	1560.13
544.136	1612.1
544.483	1603.07
544.83	1609.84
545.176	1578.21
545.523	1625.66
545.869	1598.55
546.216	1560.13
546.562	1548.83
546.909	1594.03
547.255	1627.92
547.601	1499.11
547.948	1575.95
548.294	1607.58
548.64	1616.62
548.986	1533.01
549.332	1627.92
549.678	1594.03
550.025	1575.95
550.371	1584.99
550.717	1562.39
551.062	1639.22
551.408	1652.78
551.754	1578.21
552.1	1564.65
552.446	1627.92
552.792	1668.6
553.137	1589.51
553.483	1657.3
553.828	1569.17
554.174	1643.74
554.52	1605.33
554.865	1603.07
555.211	1747.69
555.556	1643.74
555.901	1713.8
556.247	1682.16
556.592	1722.84
556.937	1691.2
557.282	1738.65
557.628	1729.62
557.973	1720.58
558.318	1729.62
558.663	1792.89
559.008	1761.25
559.353	1709.28
559.698	1772.55
560.043	1772.55
560.388	1758.99
560.732	1758.99
561.077	1720.58
561.422	1700.24
561.766	1763.51
562.111	1851.65
562.456	1736.4
562.8	1831.31
563.145	1804.19
563.489	1756.73
563.834	1842.61
564.178	1765.77
564.523	1820.01
564.867	1788.37
565.211	1774.81
565.555	1987.24
565.9	1901.36
566.244	1946.56
566.588	1919.44
566.932	1910.4
567.276	1876.5
567.62	1842.61
567.964	1871.98
568.308	1885.54
568.652	2014.35
568.996	1953.34
569.339	1887.8
569.683	1851.65
570.027	2018.87
570.371	2005.31
570.714	1935.26
571.058	1939.78
571.401	1942.04
571.745	2034.69
572.088	2005.31
572.432	1998.54
572.775	2100.23
573.118	1899.1
573.462	1989.5
573.805	2005.31
574.148	1966.9
574.491	1928.48
574.835	1923.96
575.178	1912.66
575.521	1917.18
575.864	1946.56
576.207	1987.24
576.55	1973.68
576.892	1975.94
577.235	2009.83
577.578	1991.76
577.921	2005.31
578.264	1912.66
578.606	1912.66
578.949	2025.65
579.292	1964.64
579.634	1860.69
579.977	1933
580.319	1905.88
580.662	1946.56
581.004	1930.74
581.346	1978.2
581.689	1939.78
582.031	1813.23
582.373	1883.28
582.715	1840.35
583.057	1806.45
583.4	1878.76
583.742	1700.24
584.084	1795.15
584.426	1790.63
584.768	1693.46
585.109	1768.03
585.451	1831.31
585.793	1700.24
586.135	1779.33
586.477	1720.58
586.818	1682.16
587.16	1666.34
587.502	1664.08
587.843	1670.86
588.185	1580.47
588.526	1646
588.868	1630.18
589.209	1693.46
589.55	1598.55
589.892	1591.77
590.233	1657.3
590.574	1580.47
590.915	1655.04
591.257	1630.18
591.598	1537.53
591.939	1544.31
592.28	1451.66
592.621	1435.84
592.962	1467.48
593.303	1449.4
593.643	1508.15
593.984	1404.2
594.325	1537.53
594.666	1435.84
595.006	1433.58
595.347	1363.52
595.688	1365.78
596.028	1440.36
596.369	1388.38
596.709	1469.74
597.05	1284.43
597.39	1340.93
597.73	1338.67
598.071	1327.37
598.411	1334.15
598.751	1234.71
599.091	1291.21
599.431	1259.57
599.772	1255.05
600.112	1275.39
600.452	1297.99
600.792	1214.37
601.132	1182.74
601.471	1191.78
601.811	1182.74
602.151	1117.2
602.491	1133.02
602.831	1130.76
603.17	1209.86
603.51	1191.78
603.849	1103.64
604.189	1099.12
604.528	1198.56
604.868	1223.41
605.207	1128.5
605.547	1142.06
605.886	1137.54
606.225	1083.3
606.565	1062.97
606.904	1013.25
607.243	1142.06
607.582	1020.03
607.921	1087.82
608.26	1078.79
608.599	1038.11
608.938	900.26
609.277	1020.03
609.616	1058.45
609.955	1017.77
610.293	1020.03
610.632	1004.21
610.971	1042.63
611.309	902.52
611.648	997.43
611.987	1001.95
612.325	1078.79
612.664	974.83
613.002	1022.29
613.34	1033.59
613.679	988.39
614.017	1035.85
614.355	1015.51
614.694	927.38
615.032	945.46
615.37	954.49
615.708	961.27
616.046	909.3
616.384	990.65
616.722	945.46
617.06	931.9
617.398	893.48
617.736	972.57
618.073	1004.21
618.411	945.46
618.749	947.72
619.086	1022.29
619.424	965.79
619.762	929.64
620.099	974.83
620.437	886.7
620.774	877.66
621.112	934.16
621.449	850.54
621.786	877.66
622.123	884.44
622.461	925.12
622.798	927.38
623.135	999.69
623.472	981.61
623.809	936.42
624.146	1004.21
624.483	839.24
624.82	970.31
625.157	943.2
625.494	825.68
625.83	922.86
626.167	929.64
626.504	909.3
626.841	873.14
627.177	922.86
627.514	809.87
627.85	922.86
628.187	848.28
628.523	884.44
628.86	898
629.196	891.22
629.532	857.32
629.869	821.16
630.205	846.02
630.541	848.28
630.877	943.2
631.213	846.02
631.549	850.54
631.885	789.53
632.221	911.56
632.557	873.14
632.893	825.68
633.229	735.29
633.564	703.65
633.9	818.91
634.236	760.15
634.572	805.35
634.907	898
635.243	760.15
635.578	827.94
635.914	809.87
636.249	839.24
636.585	778.23
636.92	839.24
637.255	766.93
637.59	778.23
637.926	687.84
638.261	818.91
638.596	766.93
638.931	773.71
639.266	791.79
639.601	775.97
639.936	773.71
640.271	766.93
640.606	787.27
640.94	737.55
641.275	699.13
641.61	748.85
641.945	753.37
642.279	809.87
642.614	705.91
642.948	733.03
643.283	791.79
643.617	762.41
643.952	719.47
644.286	685.58
644.62	787.27
644.955	622.3
645.289	692.35
645.623	660.72
645.957	681.06
646.291	647.16
646.625	676.54
646.959	633.6
647.293	572.58
647.627	629.08
647.961	613.26
648.295	597.44
648.629	572.58
648.962	556.77
649.296	667.5
649.63	597.44
649.963	586.14
650.297	642.64
650.63	588.4
650.964	667.5
651.297	563.54
651.631	522.87
651.964	599.7
652.297	608.74
652.631	672.02
652.964	568.06
653.297	590.66
653.63	611
653.963	631.34
654.296	640.38
654.629	507.05
654.962	572.58
655.295	586.14
655.628	565.8
655.961	538.69
656.293	468.63
656.626	509.31
656.959	509.31
657.291	577.1
657.624	536.43
657.956	504.79
658.289	525.13
658.621	572.58
658.954	529.65
659.286	570.32
659.618	522.87
659.95	554.51
660.283	531.91
660.615	504.79
660.947	488.97
661.279	504.79
661.611	531.91
661.943	597.44
662.275	488.97
662.607	518.35
662.939	531.91
663.27	525.13
663.602	450.55
663.934	516.09
664.266	536.43
664.597	493.49
664.929	520.61
665.26	434.73
665.592	423.44
665.923	446.03
666.255	452.81
666.586	488.97
666.917	466.37
667.248	446.03
667.58	457.33
667.911	477.67
668.242	455.07
668.573	455.07
668.904	441.51
669.235	450.55
669.566	427.95
669.897	400.84
670.228	427.95
670.558	516.09
670.889	484.45
671.22	407.62
671.551	427.95
671.881	436.99
672.212	452.81
672.542	405.36
672.873	405.36
673.203	416.66
673.533	403.1
673.864	432.47
674.194	416.66
674.524	475.41
674.855	423.44
675.185	448.29
675.515	423.44
675.845	464.11
676.175	459.59
676.505	432.47
676.835	394.06
677.165	452.81
677.494	421.18
677.824	416.66
678.154	398.58
678.484	459.59
678.813	446.03
679.143	498.01
679.472	353.38
679.802	396.32
680.131	378.24
680.461	378.24
680.79	387.28
681.119	378.24
681.449	495.75
681.778	400.84
682.107	394.06
682.436	434.73
682.765	421.18
683.094	348.86
683.423	398.58
683.752	375.98
684.081	432.47
684.41	439.25
684.739	457.33
685.067	357.9
685.396	423.44
685.725	457.33
686.053	375.98
686.382	409.88
686.711	360.16
687.039	414.4
687.367	414.4
687.696	346.6
688.024	461.85
688.352	414.4
688.681	400.84
689.009	387.28
689.337	441.51
689.665	403.1
689.993	355.64
690.321	346.6
690.649	378.24
690.977	371.46
691.305	355.64
691.633	355.64
691.961	351.12
692.288	360.16
692.616	450.55
692.944	378.24
693.271	378.24
693.599	333.04
693.926	342.08
694.254	337.56
694.581	464.11
694.908	373.72
695.236	319.48
695.563	314.96
695.89	355.64
696.217	391.8
696.544	403.1
696.871	333.04
697.198	387.28
697.525	366.94
697.852	416.66
698.179	378.24
698.506	396.32
698.833	355.64
699.16	369.2
699.486	351.12
699.813	360.16
700.139	319.48
700.466	362.42
700.793	394.06
701.119	353.38
701.445	317.22
701.772	414.4
702.098	387.28
702.424	418.92
702.75	382.76
703.077	355.64
703.403	342.08
703.729	312.7
704.055	308.18
704.381	328.52
704.707	348.86
705.033	346.6
705.358	330.78
705.684	382.76
706.01	326.26
706.336	391.8
706.661	355.64
706.987	355.64
707.312	333.04
707.638	317.22
707.963	319.48
708.289	314.96
708.614	342.08
708.939	344.34
709.265	353.38
709.59	364.68
709.915	333.04
710.24	366.94
710.565	274.29
710.89	314.96
711.215	333.04
711.54	357.9
711.865	290.11
712.19	296.88
712.515	290.11
712.839	305.92
713.164	265.25
713.489	310.44
713.813	299.14
714.138	321.74
714.462	324
714.787	333.04
715.111	287.85
715.435	348.86
715.76	348.86
716.084	283.33
716.408	385.02
716.732	269.77
717.056	335.3
717.381	351.12
717.705	276.55
718.028	333.04
718.352	328.52
718.676	314.96
719	283.33
719.324	308.18
719.648	355.64
719.971	305.92
720.295	312.7
720.618	222.31
720.942	256.21
721.265	364.68
721.589	312.7
721.912	262.99
722.236	319.48
722.559	344.34
722.882	328.52
723.205	360.16
723.528	244.91
723.851	321.74
724.174	314.96
724.497	342.08
724.82	269.77
725.143	283.33
725.466	351.12
725.789	346.6
726.112	333.04
726.434	290.11
726.757	290.11
727.08	308.18
727.402	312.7
727.725	303.66
728.047	324
728.37	294.63
728.692	281.07
729.014	342.08
729.336	287.85
729.659	319.48
729.981	310.44
730.303	308.18
730.625	278.81
730.947	344.34
731.269	272.03
731.591	249.43
731.913	294.63
732.235	308.18
732.556	256.21
732.878	330.78
733.2	308.18
733.521	274.29
733.843	299.14
734.164	314.96
734.486	249.43
734.807	344.34
735.129	262.99
735.45	337.56
735.771	229.09
736.092	362.42
736.414	373.72
736.735	299.14
737.056	287.85
737.377	305.92
737.698	328.52
738.019	281.07
738.34	378.24
738.66	339.82
738.981	240.39
739.302	355.64
739.623	319.48
739.943	357.9
740.264	296.88
740.584	247.17
740.905	299.14
741.225	330.78
741.546	292.37
741.866	262.99
742.186	262.99
742.507	339.82
742.827	299.14
743.147	301.4
743.467	220.05
743.787	285.59
744.107	260.73
744.427	301.4
744.747	258.47
745.067	301.4
745.386	314.96
745.706	201.97
746.026	314.96
746.346	285.59
746.665	328.52
746.985	283.33
747.304	287.85
747.624	283.33
747.943	299.14
748.262	294.63
748.582	251.69
748.901	278.81
749.22	317.22
749.539	283.33
749.858	333.04
750.177	274.29
750.496	283.33
750.815	294.63
751.134	328.52
751.453	292.37
751.772	301.4
752.09	272.03
752.409	292.37
752.728	301.4
753.046	265.25
753.365	260.73
753.683	346.6
754.002	296.88
754.32	310.44
754.639	287.85
754.957	301.4
755.275	312.7
755.593	294.63
755.911	251.69
756.23	231.35
756.548	256.21
756.866	269.77
757.183	317.22
757.501	319.48
757.819	294.63
758.137	256.21
758.455	274.29
758.772	305.92
759.09	299.14
759.408	253.95
759.725	251.69
760.043	287.85
760.36	242.65
760.677	231.35
760.995	391.8
761.312	301.4
761.629	308.18
761.946	269.77
762.264	305.92
762.581	285.59
762.898	296.88
763.215	299.14
763.532	265.25
763.848	247.17
764.165	314.96
764.482	312.7
764.799	272.03
765.115	326.26
765.432	299.14
765.749	267.51
766.065	220.05
766.382	308.18
766.698	281.07
767.014	312.7
767.331	256.21
767.647	319.48
767.963	290.11
768.279	353.38
768.595	330.78
768.911	265.25
769.227	285.59
769.543	312.7
769.859	335.3
770.175	301.4
770.491	292.37
770.807	308.18
771.122	242.65
771.438	314.96
771.754	355.64
772.069	321.74
772.385	328.52
772.7	224.57
773.016	258.47
773.331	310.44
773.646	292.37
773.961	265.25
774.277	240.39
774.592	260.73
774.907	272.03
775.222	265.25
775.537	262.99
775.852	274.29
776.167	287.85
776.482	260.73
776.796	326.26
777.111	292.37
777.426	244.91
777.74	348.86
778.055	296.88
778.369	308.18
778.684	317.22
778.998	274.29
779.313	328.52
779.627	269.77
779.941	278.81
780.255	326.26
780.57	240.39
780.884	278.81
781.198	364.68
781.512	278.81
781.826	283.33
782.14	287.85
782.453	283.33
782.767	285.59
783.081	247.17
783.395	310.44
783.708	283.33
784.022	303.66
784.335	247.17
784.649	206.49
784.962	308.18
785.276	222.31
785.589	231.35
785.902	369.2
786.216	328.52
786.529	278.81
786.842	260.73
787.155	272.03
787.468	260.73
787.781	256.21
788.094	201.97
788.407	285.59
788.72	249.43
789.032	253.95
789.345	226.83
789.658	303.66
789.97	224.57
790.283	265.25
790.595	240.39
790.908	292.37
791.22	290.11
791.532	308.18
791.845	319.48
792.157	290.11
792.469	312.7
792.781	256.21
793.093	290.11
793.405	299.14
793.717	256.21
794.029	183.89
794.341	251.69
794.653	224.57
794.965	324
795.276	310.44
795.588	213.27
795.9	319.48
796.211	362.42
796.523	258.47
796.834	290.11
797.146	290.11
797.457	335.3
797.768	258.47
798.08	233.61
798.391	226.83
798.702	276.55
799.013	292.37
799.324	283.33
799.635	369.2
799.946	310.44
800.257	274.29
800.568	269.77
800.878	217.79
801.189	213.27
801.5	278.81
801.81	317.22
802.121	233.61
802.431	240.39
802.742	231.35
803.052	324
803.363	247.17
803.673	285.59
803.983	269.77
804.293	362.42
804.603	292.37
804.913	222.31
805.224	317.22
805.533	339.82
805.843	272.03
806.153	303.66
806.463	224.57
806.773	235.87
807.083	299.14
807.392	269.77
807.702	292.37
808.011	305.92
808.321	260.73
808.63	262.99
808.94	201.97
809.249	276.55
809.558	272.03
809.868	211.01
810.177	262.99
810.486	276.55
810.795	258.47
811.104	299.14
811.413	267.51
811.722	285.59
812.031	276.55
812.339	247.17
812.648	285.59
812.957	299.14
813.266	308.18
813.574	278.81
813.883	204.23
814.191	272.03
814.5	253.95
814.808	287.85
815.116	290.11
815.424	285.59
815.733	294.63
816.041	249.43
816.349	321.74
816.657	292.37
816.965	211.01
817.273	308.18
817.581	235.87
817.889	292.37
818.196	267.51
818.504	287.85
818.812	208.75
819.12	296.88
819.427	303.66
819.735	222.31
820.042	251.69
820.349	299.14
820.657	317.22
820.964	272.03
821.271	305.92
821.579	305.92
821.886	337.56
822.193	281.07
822.5	260.73
822.807	301.4
823.114	276.55
823.421	242.65
823.727	229.09
824.034	314.96
824.341	229.09
824.648	276.55
824.954	258.47
825.261	222.31
825.567	278.81
825.874	281.07
826.18	294.63
826.486	226.83
826.793	333.04
827.099	269.77
827.405	267.51
827.711	217.79
828.017	294.63
828.323	244.91
828.629	312.7
828.935	240.39
829.241	301.4
829.547	312.7
829.852	301.4
830.158	267.51
830.464	208.75
830.769	281.07
831.075	240.39
831.38	267.51
831.686	299.14
831.991	276.55
832.296	231.35
832.601	317.22
832.907	262.99
833.212	310.44
833.517	308.18
833.822	242.65
834.127	226.83
834.432	267.51
834.737	256.21
835.041	233.61
835.346	290.11
835.651	233.61
835.956	208.75
836.26	235.87
836.565	299.14
836.869	253.95
837.174	267.51
837.478	319.48
837.782	285.59
838.087	233.61
838.391	267.51
838.695	292.37
838.999	233.61
839.303	211.01
839.607	294.63
839.911	249.43
840.215	231.35
840.519	389.54
840.822	299.14
841.126	224.57
841.43	276.55
841.733	258.47
842.037	294.63
842.34	267.51
842.644	321.74
842.947	310.44
843.251	283.33
843.554	235.87
843.857	233.61
844.16	242.65
844.463	238.13
844.766	242.65
845.069	217.79
845.372	224.57
845.675	269.77
845.978	333.04
846.281	290.11
846.583	290.11
846.886	285.59
847.189	324
847.491	247.17
847.794	283.33
848.096	201.97
848.399	224.57
848.701	269.77
849.003	244.91
849.305	290.11
849.608	319.48
849.91	213.27
850.212	310.44
850.514	262.99
850.816	269.77
851.118	292.37
851.419	199.71
851.721	272.03
852.023	231.35
852.325	265.25
852.626	258.47
852.928	222.31
853.229	229.09
853.531	206.49
853.832	294.63
854.133	242.65
854.435	247.17
854.736	244.91
855.037	215.53
855.338	283.33
855.639	312.7
855.94	274.29
856.241	242.65
856.542	265.25
856.843	285.59
857.144	233.61
857.444	242.65
857.745	355.64
858.046	217.79
858.346	262.99
858.647	251.69
858.947	278.81
859.247	269.77
859.548	274.29
859.848	283.33
860.148	308.18
860.448	265.25
860.749	337.56
861.049	303.66
861.349	305.92
861.648	305.92
861.948	267.51
862.248	265.25
862.548	283.33
862.848	296.88
863.147	283.33
863.447	301.4
863.746	258.47
864.046	240.39
864.345	294.63
864.645	247.17
864.944	265.25
865.243	278.81
865.542	269.77
865.842	256.21
866.141	305.92
866.44	342.08
866.739	238.13
867.038	283.33
867.337	240.39
867.635	294.63
867.934	290.11
868.233	258.47
868.531	312.7
868.83	256.21
869.129	267.51
869.427	258.47
869.725	220.05
870.024	314.96
870.322	244.91
870.62	272.03
870.918	319.48
871.217	283.33
871.515	215.53
871.813	215.53
872.111	251.69
872.409	299.14
872.706	308.18
873.004	308.18
873.302	274.29
873.6	312.7
873.897	240.39
874.195	262.99
874.492	235.87
874.79	231.35
875.087	290.11
875.384	269.77
875.682	233.61
875.979	319.48
876.276	249.43
876.573	262.99
876.87	262.99
877.167	262.99
