Data from PL_2polymer_F8BT_MEHPPV_USB2H096331_0288.txt Node
Date: Tue Dec 15 16:28:24 CET 2020
User: spadmin
Spectrometer: USB2+H09633
Trigger mode: 0
Integration Time (sec): 1.000000E-2
Scans to average: 1
Electric dark correction enabled: true
Nonlinearity correction enabled: false
Boxcar width: 0
XAxis mode: Wavelengths
Number of Pixels in Spectrum: 2048
>>>>>Begin Spectral Data<<<<<
174.027	-113.42
174.405	-113.42
174.783	-113.42
175.162	-120.19
175.54	-117.93
175.918	-93.08
176.296	-77.26
176.674	-81.78
177.052	-142.79
177.43	-75
177.808	-75
178.186	-47.88
178.564	-11.72
178.942	-56.92
179.32	22.17
179.698	10.88
180.076	99.01
180.453	101.27
180.831	47.03
181.209	56.07
181.587	83.19
181.965	148.72
182.342	117.09
182.72	191.66
183.098	261.72
183.475	216.52
183.853	227.82
184.231	268.5
184.608	227.82
184.986	245.9
185.363	250.42
185.741	302.39
186.118	275.28
186.496	268.5
186.873	268.5
187.251	266.24
187.628	268.5
188.006	293.35
188.383	318.21
188.76	266.24
189.138	352.11
189.515	390.53
189.892	343.07
190.27	248.16
190.647	356.63
191.024	266.24
191.401	374.71
191.778	334.03
192.155	315.95
192.533	297.87
192.91	343.07
193.287	252.68
193.664	338.55
194.041	334.03
194.418	302.39
194.795	302.39
195.172	315.95
195.549	329.51
195.926	295.61
196.302	311.43
196.679	277.54
197.056	270.76
197.433	243.64
197.81	340.81
198.187	261.72
198.563	268.5
198.94	334.03
199.317	306.91
199.693	282.05
200.07	297.87
200.447	236.86
200.823	300.13
201.2	349.85
201.576	311.43
201.953	318.21
202.329	313.69
202.706	311.43
203.082	266.24
203.459	324.99
203.835	250.42
204.212	300.13
204.588	304.65
204.964	313.69
205.341	221.04
205.717	273.02
206.093	227.82
206.469	218.78
206.846	282.05
207.222	279.79
207.598	318.21
207.974	275.28
208.35	331.77
208.726	243.64
209.102	279.79
209.479	324.99
209.855	327.25
210.231	343.07
210.607	300.13
210.982	277.54
211.358	291.09
211.734	347.59
212.11	241.38
212.486	273.02
212.862	331.77
213.238	306.91
213.614	275.28
213.989	300.13
214.365	282.05
214.741	320.47
215.116	257.2
215.492	349.85
215.868	334.03
216.243	286.57
216.619	340.81
216.995	261.72
217.37	354.37
217.746	304.65
218.121	291.09
218.497	318.21
218.872	304.65
219.247	331.77
219.623	322.73
219.998	417.64
220.374	347.59
220.749	388.27
221.124	286.57
221.499	315.95
221.875	374.71
222.25	277.54
222.625	239.12
223	356.63
223.376	293.35
223.751	347.59
224.126	295.61
224.501	367.93
224.876	354.37
225.251	306.91
225.626	334.03
226.001	354.37
226.376	300.13
226.751	372.45
227.126	329.51
227.501	347.59
227.875	388.27
228.25	286.57
228.625	417.64
229	338.55
229.375	356.63
229.749	397.31
230.124	354.37
230.499	306.91
230.873	374.71
231.248	363.41
231.623	282.05
231.997	352.11
232.372	410.86
232.746	327.25
233.121	315.95
233.495	365.67
233.87	361.15
234.244	311.43
234.619	318.21
234.993	352.11
235.367	404.09
235.742	433.46
236.116	376.97
236.49	356.63
236.865	334.03
237.239	349.85
237.613	376.97
237.987	361.15
238.361	361.15
238.736	349.85
239.11	392.79
239.484	334.03
239.858	279.79
240.232	354.37
240.606	408.61
240.98	381.49
241.354	322.73
241.728	320.47
242.102	336.29
242.475	397.31
242.849	329.51
243.223	331.77
243.597	252.68
243.971	324.99
244.344	293.35
244.718	343.07
245.092	354.37
245.466	404.09
245.839	320.47
246.213	336.29
246.586	345.33
246.96	345.33
247.334	343.07
247.707	340.81
248.081	347.59
248.454	322.73
248.828	349.85
249.201	356.63
249.574	338.55
249.948	334.03
250.321	388.27
250.694	300.13
251.068	352.11
251.441	343.07
251.814	406.35
252.187	340.81
252.561	297.87
252.934	361.15
253.307	383.75
253.68	408.61
254.053	320.47
254.426	386.01
254.799	390.53
255.172	415.38
255.545	410.86
255.918	383.75
256.291	395.05
256.664	343.07
257.037	361.15
257.41	410.86
257.782	401.83
258.155	388.27
258.528	300.13
258.901	367.93
259.273	338.55
259.646	343.07
260.019	345.33
260.391	392.79
260.764	347.59
261.137	401.83
261.509	386.01
261.882	374.71
262.254	315.95
262.627	397.31
262.999	345.33
263.372	404.09
263.744	397.31
264.116	354.37
264.489	331.77
264.861	347.59
265.233	386.01
265.606	343.07
265.978	415.38
266.35	444.76
266.722	404.09
267.094	379.23
267.467	426.68
267.839	390.53
268.211	374.71
268.583	381.49
268.955	300.13
269.327	320.47
269.699	410.86
270.071	340.81
270.443	437.98
270.815	347.59
271.186	345.33
271.558	327.25
271.93	404.09
272.302	437.98
272.674	390.53
273.045	388.27
273.417	390.53
273.789	367.93
274.16	399.57
274.532	410.86
274.904	365.67
275.275	440.24
275.647	424.42
276.018	426.68
276.39	401.83
276.761	379.23
277.133	433.46
277.504	392.79
277.875	395.05
278.247	428.94
278.618	437.98
278.989	392.79
279.361	406.35
279.732	345.33
280.103	469.62
280.474	401.83
280.846	315.95
281.217	374.71
281.588	406.35
281.959	410.86
282.33	379.23
282.701	361.15
283.072	406.35
283.443	397.31
283.814	410.86
284.185	386.01
284.556	376.97
284.927	428.94
285.297	370.19
285.668	376.97
286.039	435.72
286.41	395.05
286.781	386.01
287.151	386.01
287.522	419.9
287.893	449.28
288.263	363.41
288.634	390.53
289.004	415.38
289.375	444.76
289.745	410.86
290.116	447.02
290.486	365.67
290.857	449.28
291.227	431.2
291.598	453.8
291.968	410.86
292.338	390.53
292.709	476.4
293.079	433.46
293.449	496.74
293.819	431.2
294.189	458.32
294.56	363.41
294.93	419.9
295.3	336.29
295.67	453.8
296.04	424.42
296.41	442.5
296.78	406.35
297.15	483.18
297.52	431.2
297.89	451.54
298.259	419.9
298.629	395.05
298.999	419.9
299.369	415.38
299.739	469.62
300.108	424.42
300.478	492.22
300.848	460.58
301.217	483.18
301.587	356.63
301.957	503.52
302.326	492.22
302.696	469.62
303.065	462.84
303.435	408.61
303.804	474.14
304.174	456.06
304.543	444.76
304.912	401.83
305.282	444.76
305.651	474.14
306.02	440.24
306.39	492.22
306.759	426.68
307.128	476.4
307.497	496.74
307.866	428.94
308.235	428.94
308.604	471.88
308.974	489.96
309.343	399.57
309.712	442.5
310.08	508.04
310.449	487.7
310.818	492.22
311.187	458.32
311.556	433.46
311.925	514.82
312.294	469.62
312.662	476.4
313.031	512.56
313.4	517.08
313.769	471.88
314.137	478.66
314.506	584.87
314.874	485.44
315.243	447.02
315.612	442.5
315.98	496.74
316.349	419.9
316.717	483.18
317.085	476.4
317.454	453.8
317.822	449.28
318.191	489.96
318.559	462.84
318.927	401.83
319.295	480.92
319.664	499
320.032	415.38
320.4	440.24
320.768	519.34
321.136	539.68
321.504	467.36
321.872	449.28
322.24	460.58
322.608	492.22
322.976	494.48
323.344	526.12
323.712	467.36
324.08	508.04
324.448	487.7
324.816	476.4
325.183	453.8
325.551	512.56
325.919	519.34
326.287	489.96
326.654	587.13
327.022	471.88
327.389	553.23
327.757	453.8
328.125	535.16
328.492	469.62
328.86	584.87
329.227	505.78
329.594	503.52
329.962	519.34
330.329	553.23
330.697	519.34
331.064	510.3
331.431	512.56
331.798	580.35
332.166	555.49
332.533	670.75
332.9	519.34
333.267	550.97
333.634	494.48
334.001	532.9
334.368	537.42
334.735	560.01
335.102	580.35
335.469	564.53
335.836	553.23
336.203	569.05
336.57	557.75
336.937	539.68
337.304	517.08
337.67	546.45
338.037	521.6
338.404	600.69
338.771	650.41
339.137	523.86
339.504	537.42
339.87	569.05
340.237	600.69
340.604	616.51
340.97	623.29
341.337	641.37
341.703	639.11
342.069	575.83
342.436	593.91
342.802	521.6
343.169	650.41
343.535	566.79
343.901	596.17
344.267	587.13
344.634	602.95
345	668.49
345.366	623.29
345.732	598.43
346.098	600.69
346.464	636.85
346.83	607.47
347.196	602.95
347.562	591.65
347.928	580.35
348.294	584.87
348.66	609.73
349.026	602.95
349.392	677.52
349.757	663.97
350.123	589.39
350.489	657.19
350.855	614.25
351.22	666.23
351.586	727.24
351.951	700.12
352.317	749.84
352.683	670.75
353.048	657.19
353.414	747.58
353.779	668.49
354.144	709.16
354.51	767.92
354.875	706.9
355.24	711.42
355.606	693.34
355.971	720.46
356.336	752.1
356.701	767.92
357.067	722.72
357.432	715.94
357.797	749.84
358.162	813.11
358.527	767.92
358.892	837.97
359.257	774.7
359.622	749.84
359.987	734.02
360.352	828.93
360.717	752.1
361.082	860.57
361.446	790.52
361.811	810.85
362.176	858.31
362.541	837.97
362.905	883.17
363.27	867.35
363.635	849.27
363.999	905.77
364.364	833.45
364.728	939.66
365.093	912.55
365.457	944.18
365.822	896.73
366.186	962.26
366.55	1034.58
366.915	923.85
367.279	935.14
367.643	978.08
368.008	1018.76
368.372	1007.46
368.736	1068.47
369.1	1007.46
369.464	1043.62
369.828	1086.55
370.192	1115.93
370.556	1176.95
370.92	1199.54
371.284	1174.69
371.648	1206.32
372.012	1280.9
372.376	1369.03
372.74	1326.1
373.104	1305.76
373.468	1418.75
373.831	1366.77
374.195	1411.97
374.559	1493.32
374.922	1497.84
375.286	1558.86
375.65	1585.98
376.013	1728.34
376.377	1708.01
376.74	1802.92
377.104	1836.82
377.467	1906.87
377.83	1997.26
378.194	2074.1
378.557	2211.95
378.92	2451.49
379.284	2422.11
379.647	2555.44
380.01	2831.14
380.373	3011.93
380.736	3140.74
381.1	3556.54
381.463	3739.59
381.826	3952.01
382.189	4300.03
382.552	4605.1
382.915	4810.75
383.278	5194.92
383.64	5818.63
384.003	6243.48
384.366	6652.51
384.729	7515.76
385.092	7886.37
385.454	8541.72
385.817	9560.91
386.18	10424.16
386.542	11371.03
386.905	12641.05
387.268	13739.33
387.63	15375.44
387.993	16414.96
388.355	17949.39
388.718	19700.75
389.08	21486.02
389.442	23664.49
389.805	25605.68
390.167	27397.73
390.529	30382.96
390.892	33989.64
391.254	35528.59
391.616	38633.59
391.978	42527.27
392.34	46942.97
392.702	48707.9
393.064	52246.79
393.426	54081.77
393.788	55539.36
394.15	57363.04
394.512	59252.26
394.874	61078.2
395.236	62558.38
395.598	64519.91
395.96	65060.01
396.321	65060.01
396.683	65060.01
397.045	65060.01
397.406	65060.01
397.768	65060.01
398.13	65060.01
398.491	65060.01
398.853	65060.01
399.214	65060.01
399.576	65060.01
399.937	65060.01
400.299	65060.01
400.66	65060.01
401.021	65060.01
401.383	65060.01
401.744	65060.01
402.105	65060.01
402.466	65060.01
402.827	65060.01
403.189	65060.01
403.55	65060.01
403.911	65060.01
404.272	65060.01
404.633	65060.01
404.994	65060.01
405.355	65060.01
405.716	65060.01
406.077	65060.01
406.437	65060.01
406.798	65060.01
407.159	65060.01
407.52	65060.01
407.88	65060.01
408.241	65060.01
408.602	65060.01
408.962	65060.01
409.323	65060.01
409.684	65060.01
410.044	65060.01
410.405	65060.01
410.765	65060.01
411.125	65060.01
411.486	65060.01
411.846	65060.01
412.206	65060.01
412.567	65060.01
412.927	65060.01
413.287	65060.01
413.647	65060.01
414.007	65060.01
414.368	65060.01
414.728	65060.01
415.088	65060.01
415.448	65060.01
415.808	65060.01
416.168	65060.01
416.528	65060.01
416.887	65060.01
417.247	65060.01
417.607	65060.01
417.967	65060.01
418.327	65060.01
418.686	65060.01
419.046	65060.01
419.406	65060.01
419.765	65060.01
420.125	65060.01
420.484	65060.01
420.844	65060.01
421.203	65060.01
421.563	64632.91
421.922	64339.13
422.282	62538.04
422.641	61012.66
423	59853.37
423.36	58949.44
423.719	57128.02
424.078	55109.99
424.437	53225.3
424.796	51666.01
425.155	50199.39
425.515	47528.27
425.874	46651.46
426.233	42567.95
426.592	40018.86
426.95	38427.94
427.309	37090.13
427.668	35731.97
428.027	33051.81
428.386	32190.82
428.745	29192.03
429.103	27196.6
429.462	26369.5
429.821	24455.43
430.179	23750.36
430.538	22466.78
430.897	21985.44
431.255	20869.08
431.614	19522.23
431.972	18796.82
432.33	18037.52
432.689	17576.52
433.047	16609.31
433.405	15529.11
433.764	14887.32
434.122	14455.69
434.48	13547.24
434.838	13097.54
435.197	12591.34
435.555	12351.79
435.913	11504.36
436.271	11047.87
436.629	10532.63
436.987	9893.1
437.345	9601.58
437.703	9348.48
438.061	8869.4
438.418	8487.49
438.776	7945.13
439.134	7725.93
439.492	7373.39
439.849	7136.11
440.207	6618.61
440.565	6417.49
440.922	6076.25
441.28	5714.68
441.637	5515.82
441.995	5448.02
442.352	5339.55
442.71	4869.5
443.067	4740.69
443.425	4532.79
443.782	4367.82
444.139	4442.4
444.496	4112.46
444.854	4060.49
445.211	3870.66
445.568	3870.66
445.925	3429.99
446.282	3382.54
446.639	3326.04
446.996	3283.11
447.353	3165.59
447.71	3201.75
448.067	3154.3
448.424	3002.89
448.781	2801.76
449.137	2677.47
449.494	2632.28
449.851	2666.17
450.208	2471.83
450.564	2279.74
450.921	2284.26
451.278	2309.12
451.634	2306.86
451.991	2076.36
452.347	2141.89
452.704	2004.04
453.06	1961.11
453.416	1780.32
453.773	1773.54
454.129	1793.88
454.485	1635.69
454.841	1631.17
455.198	1475.24
455.554	1500.1
455.91	1522.7
456.266	1669.59
456.622	1475.24
456.978	1335.13
457.334	1448.13
457.69	1323.84
458.046	1213.1
458.402	1265.08
458.758	1213.1
459.114	1118.19
459.469	1172.43
459.825	1154.35
460.181	1079.77
460.536	1061.7
460.892	1082.03
461.248	1079.77
461.603	1023.28
461.959	964.52
462.314	950.96
462.67	862.83
463.025	964.52
463.38	1009.72
463.736	908.03
464.091	865.09
464.446	898.99
464.802	842.49
465.157	795.04
465.512	856.05
465.867	874.13
466.222	795.04
466.577	862.83
466.932	833.45
467.287	756.62
467.642	810.85
467.997	743.06
468.352	862.83
468.707	824.41
469.062	743.06
469.417	704.64
469.771	754.36
470.126	718.2
470.481	645.89
470.835	661.71
471.19	752.1
471.544	670.75
471.899	711.42
472.253	700.12
472.608	663.97
472.962	697.86
473.317	623.29
473.671	659.45
474.025	709.16
474.38	621.03
474.734	627.81
475.088	636.85
475.442	575.83
475.796	679.78
476.15	600.69
476.504	679.78
476.858	650.41
477.212	607.47
477.566	627.81
477.92	505.78
478.274	663.97
478.628	614.25
478.982	564.53
479.336	530.64
479.689	569.05
480.043	571.31
480.397	569.05
480.75	535.16
481.104	611.99
481.457	582.61
481.811	532.9
482.164	571.31
482.518	526.12
482.871	598.43
483.225	560.01
483.578	505.78
483.931	557.75
484.284	578.09
484.638	514.82
484.991	607.47
485.344	517.08
485.697	539.68
486.05	593.91
486.403	571.31
486.756	474.14
487.109	530.64
487.462	571.31
487.815	564.53
488.168	503.52
488.52	566.79
488.873	494.48
489.226	489.96
489.579	541.93
489.931	485.44
490.284	584.87
490.637	474.14
490.989	437.98
491.342	471.88
491.694	474.14
492.047	548.71
492.399	578.09
492.751	550.97
493.104	480.92
493.456	499
493.808	426.68
494.16	492.22
494.513	492.22
494.865	474.14
495.217	467.36
495.569	476.4
495.921	435.72
496.273	460.58
496.625	560.01
496.977	476.4
497.329	388.27
497.68	428.94
498.032	469.62
498.384	471.88
498.736	458.32
499.087	458.32
499.439	440.24
499.791	401.83
500.142	462.84
500.494	505.78
500.845	512.56
501.197	483.18
501.548	437.98
501.9	517.08
502.251	560.01
502.602	474.14
502.954	460.58
503.305	422.16
503.656	553.23
504.007	474.14
504.358	447.02
504.709	451.54
505.061	489.96
505.412	437.98
505.763	413.12
506.113	381.49
506.464	494.48
506.815	449.28
507.166	451.54
507.517	422.16
507.868	367.93
508.218	492.22
508.569	474.14
508.92	478.66
509.27	460.58
509.621	469.62
509.971	442.5
510.322	505.78
510.672	471.88
511.023	424.42
511.373	487.7
511.723	544.19
512.074	546.45
512.424	469.62
512.774	440.24
513.124	501.26
513.475	487.7
513.825	451.54
514.175	510.3
514.525	469.62
514.875	514.82
515.225	465.1
515.575	343.07
515.924	471.88
516.274	440.24
516.624	413.12
516.974	460.58
517.324	476.4
517.673	480.92
518.023	471.88
518.373	505.78
518.722	469.62
519.072	523.86
519.421	483.18
519.771	492.22
520.12	487.7
520.469	419.9
520.819	449.28
521.168	413.12
521.517	496.74
521.867	499
522.216	550.97
522.565	521.6
522.914	539.68
523.263	462.84
523.612	460.58
523.961	422.16
524.31	435.72
524.659	528.38
525.008	451.54
525.357	408.61
525.705	480.92
526.054	517.08
526.403	489.96
526.752	413.12
527.1	499
527.449	489.96
527.797	426.68
528.146	514.82
528.495	467.36
528.843	444.76
529.191	541.93
529.54	474.14
529.888	422.16
530.236	474.14
530.585	489.96
530.933	480.92
531.281	462.84
531.629	451.54
531.977	462.84
532.325	408.61
532.673	410.86
533.021	508.04
533.369	442.5
533.717	415.38
534.065	451.54
534.413	390.53
534.761	435.72
535.108	487.7
535.456	487.7
535.804	426.68
536.151	503.52
536.499	456.06
536.847	404.09
537.194	435.72
537.542	451.54
537.889	395.05
538.236	397.31
538.584	453.8
538.931	431.2
539.278	453.8
539.626	444.76
539.973	422.16
540.32	505.78
540.667	462.84
541.014	386.01
541.361	428.94
541.708	449.28
542.055	424.42
542.402	467.36
542.749	374.71
543.096	406.35
543.443	451.54
543.789	444.76
544.136	413.12
544.483	417.64
544.83	395.05
545.176	352.11
545.523	437.98
545.869	433.46
546.216	361.15
546.562	483.18
546.909	388.27
547.255	431.2
547.601	417.64
547.948	444.76
548.294	397.31
548.64	404.09
548.986	428.94
549.332	413.12
549.678	365.67
550.025	401.83
550.371	304.65
550.717	379.23
551.062	374.71
551.408	370.19
551.754	365.67
552.1	370.19
552.446	401.83
552.792	349.85
553.137	447.02
553.483	390.53
553.828	417.64
554.174	367.93
554.52	395.05
554.865	460.58
555.211	435.72
555.556	370.19
555.901	399.57
556.247	426.68
556.592	388.27
556.937	424.42
557.282	392.79
557.628	379.23
557.973	376.97
558.318	383.75
558.663	415.38
559.008	408.61
559.353	345.33
559.698	408.61
560.043	399.57
560.388	349.85
560.732	417.64
561.077	370.19
561.422	428.94
561.766	392.79
562.111	334.03
562.456	343.07
562.8	408.61
563.145	410.86
563.489	352.11
563.834	458.32
564.178	291.09
564.523	345.33
564.867	358.89
565.211	428.94
565.555	381.49
565.9	358.89
566.244	415.38
566.588	356.63
566.932	354.37
567.276	302.39
567.62	422.16
567.964	406.35
568.308	331.77
568.652	440.24
568.996	419.9
569.339	404.09
569.683	392.79
570.027	315.95
570.371	379.23
570.714	415.38
571.058	297.87
571.401	383.75
571.745	306.91
572.088	340.81
572.432	415.38
572.775	309.17
573.118	356.63
573.462	392.79
573.805	313.69
574.148	349.85
574.491	329.51
574.835	422.16
575.178	297.87
575.521	358.89
575.864	367.93
576.207	397.31
576.55	404.09
576.892	327.25
577.235	338.55
577.578	365.67
577.921	376.97
578.264	365.67
578.606	334.03
578.949	374.71
579.292	386.01
579.634	367.93
579.977	340.81
580.319	345.33
580.662	381.49
581.004	361.15
581.346	404.09
581.689	367.93
582.031	345.33
582.373	356.63
582.715	334.03
583.057	336.29
583.4	383.75
583.742	347.59
584.084	273.02
584.426	354.37
584.768	361.15
585.109	239.12
585.451	334.03
585.793	315.95
586.135	352.11
586.477	230.08
586.818	374.71
587.16	329.51
587.502	324.99
587.843	381.49
588.185	340.81
588.526	329.51
588.868	343.07
589.209	372.45
589.55	313.69
589.892	234.6
590.233	291.09
590.574	331.77
590.915	302.39
591.257	324.99
591.598	349.85
591.939	340.81
592.28	322.73
592.621	324.99
592.962	383.75
593.303	324.99
593.643	320.47
593.984	295.61
594.325	275.28
594.666	293.35
595.006	266.24
595.347	322.73
595.688	315.95
596.028	309.17
596.369	297.87
596.709	286.57
597.05	374.71
597.39	284.31
597.73	268.5
598.071	282.05
598.411	318.21
598.751	324.99
599.091	275.28
599.431	300.13
599.772	286.57
600.112	329.51
600.452	284.31
600.792	318.21
601.132	315.95
601.471	293.35
601.811	349.85
602.151	300.13
602.491	376.97
602.831	336.29
603.17	322.73
603.51	331.77
603.849	329.51
604.189	327.25
604.528	266.24
604.868	284.31
605.207	284.31
605.547	306.91
605.886	347.59
606.225	306.91
606.565	275.28
606.904	282.05
607.243	329.51
607.582	297.87
607.921	291.09
608.26	291.09
608.599	309.17
608.938	270.76
609.277	338.55
609.616	313.69
609.955	293.35
610.293	304.65
610.632	336.29
610.971	295.61
611.309	270.76
611.648	306.91
611.987	311.43
612.325	324.99
612.664	309.17
613.002	295.61
613.34	273.02
613.679	268.5
614.017	322.73
614.355	286.57
614.694	336.29
615.032	236.86
615.37	338.55
615.708	343.07
616.046	370.19
616.384	306.91
616.722	230.08
617.06	263.98
617.398	338.55
617.736	277.54
618.073	315.95
618.411	331.77
618.749	302.39
619.086	338.55
619.424	288.83
619.762	315.95
620.099	259.46
620.437	343.07
620.774	288.83
621.112	345.33
621.449	318.21
621.786	245.9
622.123	291.09
622.461	352.11
622.798	327.25
623.135	230.08
623.472	291.09
623.809	282.05
624.146	268.5
624.483	311.43
624.82	295.61
625.157	327.25
625.494	291.09
625.83	304.65
626.167	315.95
626.504	284.31
626.841	261.72
627.177	331.77
627.514	334.03
627.85	252.68
628.187	334.03
628.523	334.03
628.86	286.57
629.196	277.54
629.532	270.76
629.869	302.39
630.205	295.61
630.541	277.54
630.877	354.37
631.213	367.93
631.549	309.17
631.885	293.35
632.221	252.68
632.557	311.43
632.893	291.09
633.229	306.91
633.564	200.7
633.9	286.57
634.236	300.13
634.572	334.03
634.907	295.61
635.243	266.24
635.578	279.79
635.914	291.09
636.249	327.25
636.585	311.43
636.92	259.46
637.255	306.91
637.59	297.87
637.926	309.17
638.261	295.61
638.596	266.24
638.931	243.64
639.266	295.61
639.601	300.13
639.936	304.65
640.271	252.68
640.606	273.02
640.94	311.43
641.275	282.05
641.61	291.09
641.945	234.6
642.279	239.12
642.614	284.31
642.948	345.33
643.283	295.61
643.617	327.25
643.952	284.31
644.286	291.09
644.62	248.16
644.955	221.04
645.289	284.31
645.623	270.76
645.957	297.87
646.291	245.9
646.625	284.31
646.959	252.68
647.293	266.24
647.627	295.61
647.961	304.65
648.295	320.47
648.629	293.35
648.962	306.91
649.296	257.2
649.63	248.16
649.963	198.44
650.297	252.68
650.63	286.57
650.964	291.09
651.297	334.03
651.631	297.87
651.964	282.05
652.297	275.28
652.631	275.28
652.964	282.05
653.297	302.39
653.63	295.61
653.963	236.86
654.296	286.57
654.629	266.24
654.962	243.64
655.295	270.76
655.628	279.79
655.961	300.13
656.293	259.46
656.626	270.76
656.959	293.35
657.291	284.31
657.624	275.28
657.956	277.54
658.289	345.33
658.621	279.79
658.954	252.68
659.286	254.94
659.618	313.69
659.95	302.39
660.283	286.57
660.615	300.13
660.947	309.17
661.279	311.43
661.611	232.34
661.943	254.94
662.275	284.31
662.607	273.02
662.939	304.65
663.27	286.57
663.602	365.67
663.934	259.46
664.266	334.03
664.597	241.38
664.929	300.13
665.26	279.79
665.592	263.98
665.923	263.98
666.255	266.24
666.586	212
666.917	311.43
667.248	270.76
667.58	288.83
667.911	275.28
668.242	268.5
668.573	241.38
668.904	236.86
669.235	254.94
669.566	261.72
669.897	306.91
670.228	288.83
670.558	254.94
670.889	291.09
671.22	268.5
671.551	327.25
671.881	352.11
672.212	259.46
672.542	293.35
672.873	245.9
673.203	313.69
673.533	257.2
673.864	261.72
674.194	241.38
674.524	243.64
674.855	270.76
675.185	268.5
675.515	241.38
675.845	297.87
676.175	358.89
676.505	275.28
676.835	234.6
677.165	193.92
677.494	347.59
677.824	218.78
678.154	297.87
678.484	259.46
678.813	324.99
679.143	304.65
679.472	300.13
679.802	196.18
680.131	293.35
680.461	230.08
680.79	254.94
681.119	252.68
681.449	304.65
681.778	320.47
682.107	236.86
682.436	263.98
682.765	304.65
683.094	300.13
683.423	263.98
683.752	302.39
684.081	218.78
684.41	261.72
684.739	286.57
685.067	216.52
685.396	232.34
685.725	273.02
686.053	230.08
686.382	282.05
686.711	297.87
687.039	354.37
687.367	284.31
687.696	297.87
688.024	266.24
688.352	270.76
688.681	273.02
689.009	241.38
689.337	343.07
689.665	259.46
689.993	291.09
690.321	277.54
690.649	221.04
690.977	266.24
691.305	300.13
691.633	259.46
691.961	248.16
692.288	261.72
692.616	266.24
692.944	288.83
693.271	263.98
693.599	234.6
693.926	261.72
694.254	266.24
694.581	329.51
694.908	261.72
695.236	218.78
695.563	275.28
695.89	286.57
696.217	315.95
696.544	277.54
696.871	347.59
697.198	234.6
697.525	270.76
697.852	239.12
698.179	268.5
698.506	212
698.833	270.76
699.16	252.68
699.486	268.5
699.813	257.2
700.139	293.35
700.466	277.54
700.793	347.59
701.119	250.42
701.445	209.74
701.772	266.24
702.098	225.56
702.424	261.72
702.75	252.68
703.077	284.31
703.403	227.82
703.729	250.42
704.055	311.43
704.381	230.08
704.707	263.98
705.033	297.87
705.358	234.6
705.684	277.54
706.01	291.09
706.336	250.42
706.661	286.57
706.987	261.72
707.312	268.5
707.638	166.8
707.963	239.12
708.289	232.34
708.614	306.91
708.939	266.24
709.265	230.08
709.59	241.38
709.915	243.64
710.24	288.83
710.565	261.72
710.89	218.78
711.215	225.56
711.54	261.72
711.865	212
712.19	221.04
712.515	234.6
712.839	261.72
713.164	239.12
713.489	288.83
713.813	182.62
714.138	225.56
714.462	187.14
714.787	300.13
715.111	282.05
715.435	261.72
715.76	261.72
716.084	266.24
716.408	275.28
716.732	270.76
717.056	241.38
717.381	245.9
717.705	227.82
718.028	225.56
718.352	261.72
718.676	261.72
719	218.78
719.324	286.57
719.648	254.94
719.971	282.05
720.295	259.46
720.618	291.09
720.942	270.76
721.265	270.76
721.589	218.78
721.912	293.35
722.236	230.08
722.559	286.57
722.882	234.6
723.205	268.5
723.528	277.54
723.851	241.38
724.174	250.42
724.497	225.56
724.82	245.9
725.143	236.86
725.466	266.24
725.789	318.21
726.112	291.09
726.434	273.02
726.757	261.72
727.08	311.43
727.402	200.7
727.725	200.7
728.047	243.64
728.37	184.88
728.692	288.83
729.014	259.46
729.336	243.64
729.659	245.9
729.981	270.76
730.303	268.5
730.625	236.86
730.947	263.98
731.269	202.96
731.591	232.34
731.913	234.6
732.235	221.04
732.556	293.35
732.878	313.69
733.2	252.68
733.521	252.68
733.843	245.9
734.164	189.4
734.486	315.95
734.807	261.72
735.129	284.31
735.45	261.72
735.771	221.04
736.092	270.76
736.414	254.94
736.735	279.79
737.056	218.78
737.377	230.08
737.698	263.98
738.019	214.26
738.34	230.08
738.66	239.12
738.981	223.3
739.302	216.52
739.623	243.64
739.943	223.3
740.264	243.64
740.584	261.72
740.905	205.22
741.225	245.9
741.546	279.79
741.866	225.56
742.186	268.5
742.507	207.48
742.827	221.04
743.147	198.44
743.467	227.82
743.787	216.52
744.107	243.64
744.427	302.39
744.747	239.12
745.067	225.56
745.386	257.2
745.706	221.04
746.026	225.56
746.346	354.37
746.665	257.2
746.985	277.54
747.304	225.56
747.624	236.86
747.943	248.16
748.262	297.87
748.582	273.02
748.901	286.57
749.22	250.42
749.539	268.5
749.858	277.54
750.177	193.92
750.496	248.16
750.815	160.02
751.134	297.87
751.453	239.12
751.772	257.2
752.09	257.2
752.409	232.34
752.728	252.68
753.046	263.98
753.365	241.38
753.683	291.09
754.002	300.13
754.32	245.9
754.639	148.72
754.957	245.9
755.275	259.46
755.593	223.3
755.911	250.42
756.23	270.76
756.548	225.56
756.866	275.28
757.183	254.94
757.501	277.54
757.819	254.94
758.137	241.38
758.455	214.26
758.772	234.6
759.09	252.68
759.408	227.82
759.725	300.13
760.043	273.02
760.36	236.86
760.677	282.05
760.995	193.92
761.312	207.48
761.629	279.79
761.946	214.26
762.264	223.3
762.581	302.39
762.898	275.28
763.215	297.87
763.532	275.28
763.848	273.02
764.165	241.38
764.482	306.91
764.799	200.7
765.115	225.56
765.432	248.16
765.749	245.9
766.065	302.39
766.382	318.21
766.698	252.68
767.014	230.08
767.331	288.83
767.647	320.47
767.963	263.98
768.279	318.21
768.595	252.68
768.911	263.98
769.227	223.3
769.543	273.02
769.859	232.34
770.175	236.86
770.491	297.87
770.807	291.09
771.122	232.34
771.438	347.59
771.754	236.86
772.069	241.38
772.385	223.3
772.7	297.87
773.016	223.3
773.331	275.28
773.646	288.83
773.961	241.38
774.277	254.94
774.592	320.47
774.907	241.38
775.222	304.65
775.537	252.68
775.852	214.26
776.167	232.34
776.482	259.46
776.796	322.73
777.111	218.78
777.426	263.98
777.74	291.09
778.055	221.04
778.369	291.09
778.684	241.38
778.998	288.83
779.313	327.25
779.627	295.61
779.941	236.86
780.255	227.82
780.57	223.3
780.884	202.96
781.198	193.92
781.512	236.86
781.826	248.16
782.14	236.86
782.453	239.12
782.767	252.68
783.081	273.02
783.395	243.64
783.708	270.76
784.022	270.76
784.335	263.98
784.649	254.94
784.962	209.74
785.276	257.2
785.589	257.2
785.902	216.52
786.216	243.64
786.529	162.28
786.842	207.48
787.155	248.16
787.468	252.68
787.781	331.77
788.094	236.86
788.407	234.6
788.72	250.42
789.032	254.94
789.345	279.79
789.658	259.46
789.97	223.3
790.283	202.96
790.595	248.16
790.908	257.2
791.22	241.38
791.532	320.47
791.845	252.68
792.157	187.14
792.469	243.64
792.781	277.54
793.093	277.54
793.405	273.02
793.717	207.48
794.029	236.86
794.341	241.38
794.653	261.72
794.965	261.72
795.276	234.6
795.588	273.02
795.9	284.31
796.211	286.57
796.523	259.46
796.834	261.72
797.146	207.48
797.457	200.7
797.768	275.28
798.08	259.46
798.391	254.94
798.702	273.02
799.013	221.04
799.324	184.88
799.635	268.5
799.946	252.68
800.257	291.09
800.568	225.56
800.878	254.94
801.189	263.98
801.5	236.86
801.81	234.6
802.121	257.2
802.431	259.46
802.742	239.12
803.052	221.04
803.363	284.31
803.673	221.04
803.983	304.65
804.293	252.68
804.603	202.96
804.913	223.3
805.224	266.24
805.533	227.82
805.843	266.24
806.153	279.79
806.463	245.9
806.773	214.26
807.083	225.56
807.392	279.79
807.702	209.74
808.011	261.72
808.321	261.72
808.63	216.52
808.94	277.54
809.249	234.6
809.558	214.26
809.868	257.2
810.177	261.72
810.486	230.08
810.795	252.68
811.104	288.83
811.413	223.3
811.722	313.69
812.031	261.72
812.339	268.5
812.648	236.86
812.957	254.94
813.266	311.43
813.574	358.89
813.883	297.87
814.191	286.57
814.5	302.39
814.808	261.72
815.116	254.94
815.424	279.79
815.733	297.87
816.041	291.09
816.349	263.98
816.657	227.82
816.965	291.09
817.273	245.9
817.581	295.61
817.889	277.54
818.196	293.35
818.504	327.25
818.812	266.24
819.12	248.16
819.427	293.35
819.735	230.08
820.042	311.43
820.349	250.42
820.657	254.94
820.964	293.35
821.271	250.42
821.579	236.86
821.886	259.46
822.193	302.39
822.5	356.63
822.807	275.28
823.114	196.18
823.421	306.91
823.727	212
824.034	268.5
824.341	279.79
824.648	302.39
824.954	234.6
825.261	248.16
825.567	248.16
825.874	250.42
826.18	202.96
826.486	241.38
826.793	243.64
827.099	318.21
827.405	270.76
827.711	275.28
828.017	252.68
828.323	202.96
828.629	259.46
828.935	270.76
829.241	270.76
829.547	248.16
829.852	212
830.158	243.64
830.464	300.13
830.769	250.42
831.075	263.98
831.38	227.82
831.686	245.9
831.991	239.12
832.296	252.68
832.601	273.02
832.907	254.94
833.212	286.57
833.517	245.9
833.822	270.76
834.127	243.64
834.432	257.2
834.737	293.35
835.041	230.08
835.346	254.94
835.651	313.69
835.956	254.94
836.26	243.64
836.565	243.64
836.869	225.56
837.174	232.34
837.478	196.18
837.782	257.2
838.087	257.2
838.391	254.94
838.695	263.98
838.999	261.72
839.303	284.31
839.607	259.46
839.911	273.02
840.215	250.42
840.519	223.3
840.822	232.34
841.126	214.26
841.43	266.24
841.733	248.16
842.037	245.9
842.34	252.68
842.644	232.34
842.947	180.36
843.251	223.3
843.554	212
843.857	254.94
844.16	261.72
844.463	268.5
844.766	212
845.069	257.2
845.372	275.28
845.675	297.87
845.978	286.57
846.281	245.9
846.583	214.26
846.886	198.44
847.189	273.02
847.491	293.35
847.794	254.94
848.096	239.12
848.399	196.18
848.701	216.52
849.003	254.94
849.305	297.87
849.608	266.24
849.91	207.48
850.212	248.16
850.514	178.1
850.816	218.78
851.118	349.85
851.419	295.61
851.721	309.17
852.023	293.35
852.325	198.44
852.626	245.9
852.928	196.18
853.229	277.54
853.531	236.86
853.832	261.72
854.133	187.14
854.435	250.42
854.736	254.94
855.037	225.56
855.338	191.66
855.639	320.47
855.94	254.94
856.241	268.5
856.542	257.2
856.843	286.57
857.144	225.56
857.444	268.5
857.745	191.66
858.046	182.62
858.346	216.52
858.647	327.25
858.947	216.52
859.247	230.08
859.548	309.17
859.848	295.61
860.148	295.61
860.448	309.17
860.749	243.64
861.049	212
861.349	193.92
861.648	245.9
861.948	243.64
862.248	282.05
862.548	248.16
862.848	239.12
863.147	232.34
863.447	306.91
863.746	286.57
864.046	345.33
864.345	263.98
864.645	207.48
864.944	254.94
865.243	216.52
865.542	284.31
865.842	252.68
866.141	209.74
866.44	286.57
866.739	259.46
867.038	234.6
867.337	218.78
867.635	261.72
867.934	338.55
868.233	250.42
868.531	293.35
868.83	279.79
869.129	245.9
869.427	254.94
869.725	243.64
870.024	241.38
870.322	245.9
870.62	320.47
870.918	239.12
871.217	313.69
871.515	309.17
871.813	236.86
872.111	243.64
872.409	209.74
872.706	230.08
873.004	239.12
873.302	327.25
873.6	270.76
873.897	268.5
874.195	239.12
874.492	295.61
874.79	250.42
875.087	243.64
875.384	293.35
875.682	273.02
875.979	234.6
876.276	243.64
876.573	254.94
876.87	254.94
877.167	254.94
