Data from PL_2polymer_F8BT_MEHPPV_USB2H096331_0194.txt Node
Date: Tue Dec 15 16:28:23 CET 2020
User: spadmin
Spectrometer: USB2+H09633
Trigger mode: 0
Integration Time (sec): 1.000000E-2
Scans to average: 1
Electric dark correction enabled: true
Nonlinearity correction enabled: false
Boxcar width: 0
XAxis mode: Wavelengths
Number of Pixels in Spectrum: 2048
>>>>>Begin Spectral Data<<<<<
174.027	-66.24
174.405	-66.24
174.783	-66.24
175.162	-134.04
175.54	-143.08
175.918	-113.7
176.296	-102.4
176.674	-93.36
177.052	-115.96
177.43	-97.88
177.808	-54.94
178.186	-54.94
178.564	8.33
178.942	-21.04
179.32	53.53
179.698	10.59
180.076	49.01
180.453	-2.97
180.831	85.17
181.209	67.09
181.587	168.78
181.965	100.99
182.342	216.24
182.72	171.04
183.098	243.36
183.475	234.32
183.853	265.95
184.231	189.12
184.608	274.99
184.986	159.74
185.363	406.06
185.741	349.57
186.118	354.09
186.496	302.11
186.873	329.23
187.251	338.27
187.628	363.13
188.006	320.19
188.383	349.57
188.76	295.33
189.138	331.49
189.515	347.31
189.892	338.27
190.27	324.71
190.647	358.61
191.024	374.43
191.401	306.63
191.778	299.85
192.155	302.11
192.533	302.11
192.91	324.71
193.287	358.61
193.664	295.33
194.041	351.83
194.418	336.01
194.795	351.83
195.172	236.58
195.549	315.67
195.926	367.65
196.302	297.59
196.679	263.69
197.056	331.49
197.433	369.91
197.81	304.37
198.187	261.43
198.563	320.19
198.94	331.49
199.317	304.37
199.693	279.51
200.07	281.77
200.447	277.25
200.823	297.59
201.2	331.49
201.576	308.89
201.953	302.11
202.329	250.13
202.706	385.72
203.082	284.03
203.459	297.59
203.835	326.97
204.212	340.53
204.588	247.87
204.964	232.06
205.341	392.5
205.717	360.87
206.093	306.63
206.469	308.89
206.846	279.51
207.222	261.43
207.598	360.87
207.974	345.05
208.35	281.77
208.726	268.21
209.102	342.79
209.479	365.39
209.855	286.29
210.231	394.76
210.607	356.35
210.982	288.55
211.358	349.57
211.734	322.45
212.11	286.29
212.486	331.49
212.862	329.23
213.238	336.01
213.614	376.69
213.989	313.41
214.365	360.87
214.741	345.05
215.116	313.41
215.492	367.65
215.868	338.27
216.243	281.77
216.619	329.23
216.995	279.51
217.37	306.63
217.746	336.01
218.121	326.97
218.497	340.53
218.872	326.97
219.247	383.46
219.623	313.41
219.998	374.43
220.374	365.39
220.749	349.57
221.124	383.46
221.499	329.23
221.875	351.83
222.25	394.76
222.625	245.62
223	326.97
223.376	313.41
223.751	293.07
224.126	385.72
224.501	369.91
224.876	331.49
225.251	358.61
225.626	374.43
226.001	340.53
226.376	313.41
226.751	390.24
227.126	365.39
227.501	358.61
227.875	302.11
228.25	338.27
228.625	326.97
229	406.06
229.375	376.69
229.749	317.93
230.124	349.57
230.499	417.36
230.873	347.31
231.248	315.67
231.623	374.43
231.997	372.17
232.372	338.27
232.746	383.46
233.121	408.32
233.495	419.62
233.87	326.97
234.244	399.28
234.619	421.88
234.993	320.19
235.367	320.19
235.742	401.54
236.116	317.93
236.49	381.2
236.865	331.49
237.239	340.53
237.613	336.01
237.987	408.32
238.361	369.91
238.736	387.98
239.11	387.98
239.484	354.09
239.858	331.49
240.232	415.1
240.606	387.98
240.98	381.2
241.354	308.89
241.728	367.65
242.102	374.43
242.475	387.98
242.849	392.5
243.223	313.41
243.597	383.46
243.971	342.79
244.344	354.09
244.718	315.67
245.092	329.23
245.466	299.85
245.839	320.19
246.213	347.31
246.586	354.09
246.96	372.17
247.334	331.49
247.707	401.54
248.081	331.49
248.454	392.5
248.828	385.72
249.201	326.97
249.574	358.61
249.948	390.24
250.321	385.72
250.694	360.87
251.068	320.19
251.441	351.83
251.814	399.28
252.187	408.32
252.561	360.87
252.934	376.69
253.307	367.65
253.68	378.94
254.053	403.8
254.426	326.97
254.799	428.66
255.172	322.45
255.545	455.78
255.918	290.81
256.291	374.43
256.664	342.79
257.037	417.36
257.41	401.54
257.782	433.18
258.155	406.06
258.528	342.79
258.901	417.36
259.273	372.17
259.646	358.61
260.019	372.17
260.391	340.53
260.764	381.2
261.137	428.66
261.509	394.76
261.882	385.72
262.254	390.24
262.627	281.77
262.999	403.8
263.372	437.7
263.744	399.28
264.116	378.94
264.489	378.94
264.861	363.13
265.233	378.94
265.606	410.58
265.978	372.17
266.35	401.54
266.722	428.66
267.094	394.76
267.467	383.46
267.839	494.2
268.211	360.87
268.583	354.09
268.955	354.09
269.327	326.97
269.699	354.09
270.071	399.28
270.443	356.35
270.815	381.2
271.186	426.4
271.558	372.17
271.93	392.5
272.302	363.13
272.674	428.66
273.045	354.09
273.417	417.36
273.789	372.17
274.16	412.84
274.532	410.58
274.904	376.69
275.275	376.69
275.647	369.91
276.018	317.93
276.39	381.2
276.761	437.7
277.133	408.32
277.504	473.86
277.875	387.98
278.247	439.96
278.618	408.32
278.989	446.74
279.361	449
279.732	439.96
280.103	435.44
280.474	406.06
280.846	397.02
281.217	471.6
281.588	403.8
281.959	401.54
282.33	424.14
282.701	392.5
283.072	417.36
283.443	430.92
283.814	480.64
284.185	367.65
284.556	401.54
284.927	451.26
285.297	421.88
285.668	412.84
286.039	455.78
286.41	381.2
286.781	415.1
287.151	381.2
287.522	354.09
287.893	372.17
288.263	433.18
288.634	412.84
289.004	419.62
289.375	412.84
289.745	363.13
290.116	408.32
290.486	453.52
290.857	444.48
291.227	469.34
291.598	401.54
291.968	435.44
292.338	482.9
292.709	491.94
293.079	410.58
293.449	394.76
293.819	415.1
294.189	433.18
294.56	491.94
294.93	449
295.3	419.62
295.67	383.46
296.04	460.3
296.41	439.96
296.78	428.66
297.15	437.7
297.52	471.6
297.89	458.04
298.259	430.92
298.629	446.74
298.999	417.36
299.369	471.6
299.739	433.18
300.108	516.79
300.478	453.52
300.848	444.48
301.217	476.12
301.587	473.86
301.957	419.62
302.326	478.38
302.696	424.14
303.065	358.61
303.435	430.92
303.804	446.74
304.174	458.04
304.543	433.18
304.912	417.36
305.282	383.46
305.651	444.48
306.02	419.62
306.39	469.34
306.759	503.24
307.128	485.16
307.497	412.84
307.866	455.78
308.235	417.36
308.604	548.43
308.974	500.98
309.343	476.12
309.712	512.27
310.08	537.13
310.449	539.39
310.818	507.76
311.187	410.58
311.556	500.98
311.925	471.6
312.294	471.6
312.662	478.38
313.031	510.01
313.4	557.47
313.769	487.42
314.137	498.72
314.506	424.14
314.874	480.64
315.243	430.92
315.612	482.9
315.98	485.16
316.349	498.72
316.717	489.68
317.085	462.56
317.454	498.72
317.822	521.31
318.191	552.95
318.559	460.3
318.927	482.9
319.295	442.22
319.664	478.38
320.032	530.35
320.4	410.58
320.768	525.83
321.136	521.31
321.504	512.27
321.872	555.21
322.24	537.13
322.608	525.83
322.976	482.9
323.344	525.83
323.712	537.13
324.08	543.91
324.448	507.76
324.816	471.6
325.183	516.79
325.551	444.48
325.919	534.87
326.287	516.79
326.654	555.21
327.022	539.39
327.389	564.25
327.757	543.91
328.125	505.5
328.492	523.57
328.86	539.39
329.227	521.31
329.594	507.76
329.962	519.05
330.329	539.39
330.697	532.61
331.064	611.71
331.431	561.99
331.798	541.65
332.166	611.71
332.533	654.64
332.9	485.16
333.267	559.73
333.634	503.24
334.001	577.81
334.368	534.87
334.735	552.95
335.102	571.03
335.469	582.33
335.836	557.47
336.203	611.71
336.57	530.35
336.937	580.07
337.304	559.73
337.67	532.61
338.037	548.43
338.404	616.23
338.771	620.75
339.137	643.34
339.504	582.33
339.87	571.03
340.237	613.97
340.604	584.59
340.97	632.05
341.337	638.83
341.703	679.5
342.069	575.55
342.436	623.01
342.802	609.45
343.169	611.71
343.535	652.38
343.901	593.63
344.267	604.93
344.634	643.34
345	650.12
345.366	634.31
345.732	616.23
346.098	629.79
346.464	645.6
346.83	704.36
347.196	627.53
347.562	645.6
347.928	679.5
348.294	564.25
348.66	627.53
349.026	661.42
349.392	670.46
349.757	638.83
350.123	645.6
350.489	738.26
350.855	647.86
351.22	720.18
351.586	720.18
351.951	699.84
352.317	636.57
352.683	787.97
353.048	652.38
353.414	677.24
353.779	704.36
354.144	722.44
354.51	751.82
354.875	790.23
355.24	817.35
355.606	736
355.971	706.62
356.336	736
356.701	806.05
357.067	797.01
357.432	785.71
357.797	765.38
358.162	747.3
358.527	810.57
358.892	835.43
359.257	806.05
359.622	756.34
359.987	781.19
360.352	785.71
360.717	819.61
361.082	787.97
361.446	785.71
361.811	792.49
362.176	880.63
362.541	855.77
362.905	941.64
363.27	964.24
363.635	986.84
363.999	851.25
364.364	898.71
364.728	1034.29
365.093	968.76
365.457	937.12
365.822	941.64
366.186	998.14
366.55	1029.78
366.915	980.06
367.279	964.24
367.643	984.58
368.008	1047.85
368.372	1054.63
368.736	989.1
369.1	1056.89
369.464	1108.87
369.828	1104.35
370.192	1140.51
370.556	1151.81
370.92	1149.55
371.284	1206.04
371.648	1174.4
372.012	1194.74
372.376	1289.66
372.74	1384.57
373.104	1400.39
373.468	1364.23
373.831	1452.36
374.195	1468.18
374.559	1513.38
374.922	1508.86
375.286	1504.34
375.65	1619.59
376.013	1811.68
376.377	1646.71
376.74	1768.74
377.104	1804.9
377.467	1972.12
377.83	1969.86
378.194	2155.17
378.557	2311.1
378.92	2279.46
379.284	2514.48
379.647	2650.07
380.01	2851.2
380.373	2819.56
380.736	3163.05
381.1	3413.89
381.463	3666.99
381.826	3924.61
382.189	4254.55
382.552	4514.43
382.915	4860.18
383.278	5187.86
383.64	5874.85
384.003	6279.35
384.366	6758.44
384.729	7278.2
385.092	8057.84
385.454	8665.73
385.817	9416
386.18	10469.08
386.542	11639.67
386.905	12446.42
387.268	13777.46
387.63	15271.21
387.993	16064.41
388.355	18077.91
388.718	19422.51
389.08	21212.3
389.442	23424.67
389.805	25731.95
390.167	27431.34
390.529	30561.2
390.892	33946.42
391.254	36063.88
391.616	38398.28
391.978	42762.01
392.34	47010.49
392.702	48549.43
393.064	51701.89
393.426	53871.32
393.788	55871.27
394.15	57109.66
394.512	59251.97
394.874	60983
395.236	62833.8
395.598	64562.57
395.96	65075.55
396.321	65075.55
396.683	65075.55
397.045	65075.55
397.406	65075.55
397.768	65075.55
398.13	65075.55
398.491	65075.55
398.853	65075.55
399.214	65075.55
399.576	65075.55
399.937	65075.55
400.299	65075.55
400.66	65075.55
401.021	65075.55
401.383	65075.55
401.744	65075.55
402.105	65075.55
402.466	65075.55
402.827	65075.55
403.189	65075.55
403.55	65075.55
403.911	65075.55
404.272	65075.55
404.633	65075.55
404.994	65075.55
405.355	65075.55
405.716	65075.55
406.077	65075.55
406.437	65075.55
406.798	65075.55
407.159	65075.55
407.52	65075.55
407.88	65075.55
408.241	65075.55
408.602	65075.55
408.962	65075.55
409.323	65075.55
409.684	65075.55
410.044	65075.55
410.405	65075.55
410.765	65075.55
411.125	65075.55
411.486	65075.55
411.846	65075.55
412.206	65075.55
412.567	65075.55
412.927	65075.55
413.287	65075.55
413.647	65075.55
414.007	65075.55
414.368	65075.55
414.728	65075.55
415.088	65075.55
415.448	65075.55
415.808	65075.55
416.168	65075.55
416.528	65075.55
416.887	65075.55
417.247	65075.55
417.607	65075.55
417.967	65075.55
418.327	65075.55
418.686	65075.55
419.046	65075.55
419.406	65075.55
419.765	65075.55
420.125	65075.55
420.484	65075.55
420.844	65075.55
421.203	65075.55
421.563	64587.43
421.922	64241.67
422.282	62576.18
422.641	61161.53
423	59853.09
423.36	58951.42
423.719	57109.66
424.078	54682.6
424.437	52899.6
424.796	51451.05
425.155	50043.18
425.515	47738.15
425.874	46239.89
426.233	42366.54
426.592	39869.43
426.95	39408.43
427.309	36757.65
427.668	35806.26
428.027	33144.19
428.386	32186.02
428.745	29004.18
429.103	27526.25
429.462	26122.9
429.821	24536.5
430.179	23553.48
430.538	22330.91
430.897	22093.63
431.255	20590.84
431.614	19673.35
431.972	18762.64
432.33	17863.23
432.689	17623.69
433.047	16127.68
433.405	15339
433.764	14975.17
434.122	14430.55
434.48	13594.42
434.838	12846.41
435.197	12469.02
435.555	12093.89
435.913	11309.73
436.271	10880.36
436.629	10710.88
436.987	10014.85
437.345	9467.97
437.703	9330.12
438.061	8812.62
438.418	8290.6
438.776	7929.03
439.134	7759.54
439.492	7266.9
439.849	6977.64
440.207	6636.41
440.565	6448.84
440.922	6028.51
441.28	5831.91
441.637	5560.73
441.995	5529.09
442.352	5097.46
442.71	4973.17
443.067	4878.26
443.425	4559.63
443.782	4372.06
444.139	4252.29
444.496	4017.27
444.854	4021.79
445.211	3841
445.568	3859.08
445.925	3373.22
446.282	3418.41
446.639	3427.45
446.996	3244.41
447.353	3389.04
447.71	3149.49
448.067	3212.77
448.424	2984.53
448.781	2810.52
449.137	2844.42
449.494	2589.06
449.851	2550.64
450.208	2469.29
450.564	2324.66
450.921	2204.89
451.278	2213.92
451.634	2245.56
451.991	2078.34
452.347	2155.17
452.704	1872.69
453.06	1897.55
453.416	1924.67
453.773	1829.75
454.129	1682.87
454.485	1705.46
454.841	1669.31
455.198	1569.87
455.554	1463.66
455.91	1549.54
456.266	1533.72
456.622	1497.56
456.978	1481.74
457.334	1429.76
457.69	1212.82
458.046	1237.68
458.402	1230.9
458.758	1237.68
459.114	1233.16
459.469	1178.92
459.825	1079.49
460.181	1108.87
460.536	1090.79
460.892	1111.13
461.248	1113.39
461.603	1007.18
461.959	980.06
462.314	993.62
462.67	1013.96
463.025	1007.18
463.38	916.78
463.736	894.19
464.091	964.24
464.446	810.57
464.802	792.49
465.157	916.78
465.512	837.69
465.867	817.35
466.222	878.37
466.577	882.89
466.932	715.66
467.287	803.79
467.642	758.6
467.997	790.23
468.352	885.15
468.707	736
469.062	711.14
469.417	747.3
469.771	693.06
470.126	758.6
470.481	711.14
470.835	634.31
471.19	704.36
471.544	641.08
471.899	620.75
472.253	695.32
472.608	659.16
472.962	668.2
473.317	632.05
473.671	711.14
474.025	681.76
474.38	577.81
474.734	681.76
475.088	548.43
475.442	638.83
475.796	645.6
476.15	665.94
476.504	713.4
476.858	625.27
477.212	620.75
477.566	751.82
477.92	602.67
478.274	623.01
478.628	589.11
478.982	616.23
479.336	575.55
479.689	620.75
480.043	634.31
480.397	632.05
480.75	663.68
481.104	598.15
481.457	602.67
481.811	582.33
482.164	487.42
482.518	613.97
482.871	534.87
483.225	623.01
483.578	595.89
483.931	602.67
484.284	557.47
484.638	534.87
484.991	469.34
485.344	568.77
485.697	632.05
486.05	496.46
486.403	598.15
486.756	559.73
487.109	629.79
487.462	557.47
487.815	598.15
488.168	571.03
488.52	591.37
488.873	625.27
489.226	582.33
489.579	458.04
489.931	537.13
490.284	604.93
490.637	575.55
490.989	503.24
491.342	598.15
491.694	525.83
492.047	521.31
492.399	519.05
492.751	564.25
493.104	534.87
493.456	528.09
493.808	539.39
494.16	537.13
494.513	568.77
494.865	582.33
495.217	507.76
495.569	510.01
495.921	494.2
496.273	571.03
496.625	525.83
496.977	580.07
497.329	528.09
497.68	458.04
498.032	552.95
498.384	564.25
498.736	604.93
499.087	580.07
499.439	573.29
499.791	537.13
500.142	523.57
500.494	557.47
500.845	593.63
501.197	555.21
501.548	537.13
501.9	604.93
502.251	620.75
502.602	616.23
502.954	661.42
503.305	589.11
503.656	577.81
504.007	641.08
504.358	618.49
504.709	686.28
505.061	647.86
505.412	650.12
505.763	668.2
506.113	616.23
506.464	654.64
506.815	715.66
507.166	695.32
507.517	729.22
507.868	724.7
508.218	697.58
508.569	720.18
508.92	729.22
509.27	731.48
509.621	742.78
509.971	774.41
510.322	706.62
510.672	778.93
511.023	826.39
511.373	794.75
511.723	864.81
512.074	778.93
512.424	808.31
512.774	925.82
513.124	846.73
513.475	824.13
513.825	794.75
514.175	846.73
514.525	828.65
514.875	887.41
515.225	932.6
515.575	941.64
515.924	939.38
516.274	932.6
516.624	919.04
516.974	925.82
517.324	1038.81
517.673	1034.29
518.023	934.86
518.373	952.94
518.722	1013.96
519.072	1013.96
519.421	1113.39
519.771	1043.33
520.12	1068.19
520.469	1045.59
520.819	1108.87
521.168	1106.61
521.517	1108.87
521.867	1129.21
522.216	1178.92
522.565	1230.9
522.914	1154.07
523.263	1165.36
523.612	1124.69
523.961	1176.66
524.31	1199.26
524.659	1230.9
525.008	1269.32
525.357	1169.88
525.705	1285.14
526.054	1187.96
526.403	1332.59
526.752	1251.24
527.1	1260.28
527.449	1334.85
527.797	1294.18
528.146	1325.81
528.495	1287.4
528.843	1352.93
529.191	1285.14
529.54	1328.07
529.888	1407.17
530.236	1352.93
530.585	1366.49
530.933	1296.43
531.281	1291.92
531.629	1323.55
531.977	1316.77
532.325	1366.49
532.673	1289.66
533.021	1312.25
533.369	1237.68
533.717	1350.67
534.065	1400.39
534.413	1341.63
534.761	1321.29
535.108	1350.67
535.456	1413.95
535.804	1343.89
536.151	1427.5
536.499	1443.32
536.847	1427.5
537.194	1348.41
537.542	1398.13
537.889	1339.37
538.236	1339.37
538.584	1334.85
538.931	1411.69
539.278	1368.75
539.626	1334.85
539.973	1398.13
540.32	1377.79
540.667	1409.43
541.014	1425.25
541.361	1373.27
541.708	1470.44
542.055	1407.17
542.402	1341.63
542.749	1427.5
543.096	1398.13
543.443	1398.13
543.789	1332.59
544.136	1366.49
544.483	1382.31
544.83	1420.73
545.176	1373.27
545.523	1377.79
545.869	1384.57
546.216	1422.99
546.562	1343.89
546.909	1409.43
547.255	1330.33
547.601	1341.63
547.948	1352.93
548.294	1380.05
548.64	1323.55
548.986	1393.61
549.332	1418.47
549.678	1450.1
550.025	1350.67
550.371	1422.99
550.717	1350.67
551.062	1280.62
551.408	1468.18
551.754	1328.07
552.1	1337.11
552.446	1368.75
552.792	1382.31
553.137	1438.8
553.483	1461.4
553.828	1395.87
554.174	1384.57
554.52	1441.06
554.865	1511.12
555.211	1404.91
555.556	1386.83
555.901	1411.69
556.247	1429.76
556.592	1413.95
556.937	1359.71
557.282	1420.73
557.628	1535.98
557.973	1506.6
558.318	1377.79
558.663	1404.91
559.008	1386.83
559.353	1450.1
559.698	1556.32
560.043	1418.47
560.388	1493.04
560.732	1479.48
561.077	1404.91
561.422	1366.49
561.766	1508.86
562.111	1450.1
562.456	1470.44
562.8	1450.1
563.145	1612.81
563.489	1506.6
563.834	1456.88
564.178	1502.08
564.523	1456.88
564.867	1488.52
565.211	1572.13
565.555	1554.06
565.9	1558.57
566.244	1524.68
566.588	1596.99
566.932	1560.83
567.276	1596.99
567.62	1486.26
567.964	1535.98
568.308	1590.21
568.652	1606.03
568.996	1646.71
569.339	1540.5
569.683	1535.98
570.027	1565.35
570.371	1662.53
570.714	1533.72
571.058	1633.15
571.401	1533.72
571.745	1669.31
572.088	1599.25
572.432	1696.42
572.775	1664.79
573.118	1574.39
573.462	1508.86
573.805	1658.01
574.148	1592.47
574.491	1590.21
574.835	1648.97
575.178	1687.39
575.521	1660.27
575.864	1628.63
576.207	1551.8
576.55	1490.78
576.892	1585.69
577.235	1567.61
577.578	1563.09
577.921	1646.71
578.264	1596.99
578.606	1680.61
578.949	1554.06
579.292	1628.63
579.634	1596.99
579.977	1698.68
580.319	1587.95
580.662	1554.06
581.004	1508.86
581.346	1515.64
581.689	1517.9
582.031	1554.06
582.373	1565.35
582.715	1529.2
583.057	1504.34
583.4	1477.22
583.742	1438.8
584.084	1432.02
584.426	1418.47
584.768	1312.25
585.109	1535.98
585.451	1432.02
585.793	1395.87
586.135	1450.1
586.477	1418.47
586.818	1400.39
587.16	1375.53
587.502	1391.35
587.843	1375.53
588.185	1382.31
588.526	1377.79
588.868	1384.57
589.209	1271.58
589.55	1289.66
589.892	1276.1
590.233	1264.8
590.574	1319.03
590.915	1244.46
591.257	1192.48
591.598	1251.24
591.939	1210.56
592.28	1206.04
592.621	1269.32
592.962	1215.08
593.303	1126.95
593.643	1307.73
593.984	1122.43
594.325	1203.78
594.666	1176.66
595.006	1106.61
595.347	1070.45
595.688	1131.47
596.028	1165.36
596.369	1135.99
596.709	1081.75
597.05	1072.71
597.39	1149.55
597.73	1097.57
598.071	1034.29
598.411	1086.27
598.751	1126.95
599.091	995.88
599.431	1070.45
599.772	1027.52
600.112	1011.7
600.452	982.32
600.792	1054.63
601.132	1052.37
601.471	977.8
601.811	991.36
602.151	1027.52
602.491	995.88
602.831	986.84
603.17	955.2
603.51	961.98
603.849	925.82
604.189	921.3
604.528	1016.22
604.868	934.86
605.207	934.86
605.547	950.68
605.886	905.48
606.225	948.42
606.565	973.28
606.904	950.68
607.243	905.48
607.582	950.68
607.921	858.03
608.26	900.97
608.599	932.6
608.938	835.43
609.277	828.65
609.616	792.49
609.955	882.89
610.293	839.95
610.632	903.22
610.971	934.86
611.309	835.43
611.648	835.43
611.987	862.55
612.325	846.73
612.664	799.27
613.002	887.41
613.34	919.04
613.679	774.41
614.017	819.61
614.355	803.79
614.694	885.15
615.032	819.61
615.37	855.77
615.708	833.17
616.046	815.09
616.384	769.9
616.722	763.12
617.06	869.33
617.398	869.33
617.736	817.35
618.073	751.82
618.411	733.74
618.749	815.09
619.086	754.08
619.424	736
619.762	715.66
620.099	792.49
620.437	760.86
620.774	803.79
621.112	790.23
621.449	826.39
621.786	826.39
622.123	839.95
622.461	767.64
622.798	797.01
623.135	792.49
623.472	819.61
623.809	776.67
624.146	751.82
624.483	749.56
624.82	781.19
625.157	790.23
625.494	760.86
625.83	733.74
626.167	747.3
626.504	679.5
626.841	817.35
627.177	801.53
627.514	742.78
627.85	799.27
628.187	738.26
628.523	745.04
628.86	781.19
629.196	772.15
629.532	801.53
629.869	742.78
630.205	799.27
630.541	729.22
630.877	668.2
631.213	693.06
631.549	713.4
631.885	672.72
632.221	720.18
632.557	702.1
632.893	659.16
633.229	715.66
633.564	717.92
633.9	711.14
634.236	693.06
634.572	684.02
634.907	643.34
635.243	652.38
635.578	726.96
635.914	652.38
636.249	661.42
636.585	693.06
636.92	679.5
637.255	681.76
637.59	586.85
637.926	670.46
638.261	654.64
638.596	580.07
638.931	620.75
639.266	693.06
639.601	656.9
639.936	647.86
640.271	656.9
640.606	674.98
640.94	679.5
641.275	595.89
641.61	679.5
641.945	613.97
642.279	598.15
642.614	548.43
642.948	571.03
643.283	557.47
643.617	602.67
643.952	566.51
644.286	663.68
644.62	609.45
644.955	586.85
645.289	568.77
645.623	557.47
645.957	568.77
646.291	589.11
646.625	627.53
646.959	568.77
647.293	451.26
647.627	530.35
647.961	589.11
648.295	519.05
648.629	620.75
648.962	534.87
649.296	521.31
649.63	521.31
649.963	525.83
650.297	539.39
650.63	550.69
650.964	561.99
651.297	528.09
651.631	507.76
651.964	503.24
652.297	539.39
652.631	555.21
652.964	550.69
653.297	503.24
653.63	550.69
653.963	530.35
654.296	469.34
654.629	480.64
654.962	550.69
655.295	458.04
655.628	491.94
655.961	543.91
656.293	507.76
656.626	455.78
656.959	548.43
657.291	494.2
657.624	487.42
657.956	498.72
658.289	449
658.621	464.82
658.954	496.46
659.286	469.34
659.618	451.26
659.95	410.58
660.283	503.24
660.615	473.86
660.947	403.8
661.279	451.26
661.611	415.1
661.943	510.01
662.275	460.3
662.607	424.14
662.939	439.96
663.27	473.86
663.602	421.88
663.934	485.16
664.266	458.04
664.597	421.88
664.929	408.32
665.26	369.91
665.592	444.48
665.923	451.26
666.255	437.7
666.586	444.48
666.917	503.24
667.248	385.72
667.58	462.56
667.911	374.43
668.242	453.52
668.573	426.4
668.904	500.98
669.235	385.72
669.566	433.18
669.897	367.65
670.228	324.71
670.558	403.8
670.889	424.14
671.22	444.48
671.551	403.8
671.881	473.86
672.212	412.84
672.542	397.02
672.873	345.05
673.203	451.26
673.533	491.94
673.864	446.74
674.194	455.78
674.524	460.3
674.855	430.92
675.185	381.2
675.515	408.32
675.845	385.72
676.175	453.52
676.505	345.05
676.835	437.7
677.165	365.39
677.494	333.75
677.824	401.54
678.154	315.67
678.484	320.19
678.813	317.93
679.143	383.46
679.472	376.69
679.802	412.84
680.131	340.53
680.461	385.72
680.79	329.23
681.119	345.05
681.449	329.23
681.778	392.5
682.107	387.98
682.436	394.76
682.765	403.8
683.094	383.46
683.423	326.97
683.752	324.71
684.081	342.79
684.41	385.72
684.739	376.69
685.067	367.65
685.396	369.91
685.725	345.05
686.053	403.8
686.382	385.72
686.711	322.45
687.039	315.67
687.367	356.35
687.696	331.49
688.024	397.02
688.352	342.79
688.681	408.32
689.009	369.91
689.337	372.17
689.665	360.87
689.993	354.09
690.321	313.41
690.649	338.27
690.977	401.54
691.305	381.2
691.633	345.05
691.961	345.05
692.288	401.54
692.616	211.72
692.944	308.89
693.271	417.36
693.599	329.23
693.926	426.4
694.254	383.46
694.581	378.94
694.908	392.5
695.236	397.02
695.563	439.96
695.89	277.25
696.217	279.51
696.544	338.27
696.871	308.89
697.198	313.41
697.525	308.89
697.852	333.75
698.179	394.76
698.506	317.93
698.833	297.59
699.16	347.31
699.486	340.53
699.813	342.79
700.139	360.87
700.466	331.49
700.793	333.75
701.119	340.53
701.445	295.33
701.772	326.97
702.098	281.77
702.424	383.46
702.75	369.91
703.077	295.33
703.403	354.09
703.729	331.49
704.055	304.37
704.381	315.67
704.707	315.67
705.033	336.01
705.358	313.41
705.684	351.83
706.01	302.11
706.336	338.27
706.661	306.63
706.987	369.91
707.312	376.69
707.638	417.36
707.963	311.15
708.289	320.19
708.614	297.59
708.939	268.21
709.265	238.84
709.59	347.31
709.915	313.41
710.24	311.15
710.565	369.91
710.89	304.37
711.215	288.55
711.54	331.49
711.865	299.85
712.19	302.11
712.515	272.73
712.839	320.19
713.164	286.29
713.489	272.73
713.813	324.71
714.138	281.77
714.462	281.77
714.787	241.1
715.111	320.19
715.435	351.83
715.76	333.75
716.084	308.89
716.408	238.84
716.732	320.19
717.056	320.19
717.381	302.11
717.705	304.37
718.028	351.83
718.352	324.71
718.676	333.75
719	317.93
719.324	378.94
719.648	263.69
719.971	245.62
720.295	313.41
720.618	311.15
720.942	297.59
721.265	279.51
721.589	342.79
721.912	308.89
722.236	333.75
722.559	284.03
722.882	311.15
723.205	306.63
723.528	263.69
723.851	338.27
724.174	286.29
724.497	347.31
724.82	306.63
725.143	360.87
725.466	304.37
725.789	302.11
726.112	306.63
726.434	288.55
726.757	204.94
727.08	308.89
727.402	250.13
727.725	272.73
728.047	279.51
728.37	336.01
728.692	322.45
729.014	299.85
729.336	302.11
729.659	336.01
729.981	254.65
730.303	293.07
730.625	270.47
730.947	313.41
731.269	297.59
731.591	338.27
731.913	245.62
732.235	315.67
732.556	306.63
732.878	279.51
733.2	279.51
733.521	274.99
733.843	311.15
734.164	317.93
734.486	270.47
734.807	281.77
735.129	277.25
735.45	295.33
735.771	320.19
736.092	317.93
736.414	338.27
736.735	281.77
737.056	326.97
737.377	268.21
737.698	261.43
738.019	326.97
738.34	306.63
738.66	295.33
738.981	311.15
739.302	288.55
739.623	281.77
739.943	254.65
740.264	326.97
740.584	295.33
740.905	313.41
741.225	274.99
741.546	259.17
741.866	374.43
742.186	268.21
742.507	270.47
742.827	268.21
743.147	247.87
743.467	256.91
743.787	299.85
744.107	317.93
744.427	302.11
744.747	286.29
745.067	317.93
745.386	351.83
745.706	306.63
746.026	277.25
746.346	331.49
746.665	340.53
746.985	261.43
747.304	263.69
747.624	317.93
747.943	218.5
748.262	354.09
748.582	281.77
748.901	286.29
749.22	238.84
749.539	241.1
749.858	286.29
750.177	270.47
750.496	288.55
750.815	299.85
751.134	365.39
751.453	279.51
751.772	216.24
752.09	254.65
752.409	351.83
752.728	288.55
753.046	313.41
753.365	322.45
753.683	284.03
754.002	236.58
754.32	241.1
754.639	243.36
754.957	293.07
755.275	302.11
755.593	243.36
755.911	315.67
756.23	241.1
756.548	263.69
756.866	297.59
757.183	281.77
757.501	232.06
757.819	263.69
758.137	259.17
758.455	261.43
758.772	274.99
759.09	274.99
759.408	234.32
759.725	315.67
760.043	252.39
760.36	281.77
760.677	204.94
760.995	299.85
761.312	304.37
761.629	326.97
761.946	245.62
762.264	311.15
762.581	286.29
762.898	299.85
763.215	284.03
763.532	268.21
763.848	256.91
764.165	304.37
764.482	223.02
764.799	232.06
765.115	272.73
765.432	277.25
765.749	288.55
766.065	302.11
766.382	308.89
766.698	293.07
767.014	347.31
767.331	227.54
767.647	245.62
767.963	288.55
768.279	252.39
768.595	227.54
768.911	317.93
769.227	290.81
769.543	259.17
769.859	272.73
770.175	191.38
770.491	281.77
770.807	313.41
771.122	232.06
771.438	252.39
771.754	204.94
772.069	336.01
772.385	322.45
772.7	272.73
773.016	216.24
773.331	245.62
773.646	322.45
773.961	277.25
774.277	227.54
774.592	250.13
774.907	299.85
775.222	324.71
775.537	306.63
775.852	241.1
776.167	293.07
776.482	326.97
776.796	256.91
777.111	308.89
777.426	299.85
777.74	302.11
778.055	268.21
778.369	268.21
778.684	281.77
778.998	274.99
779.313	254.65
779.627	252.39
779.941	322.45
780.255	268.21
780.57	293.07
780.884	311.15
781.198	254.65
781.512	227.54
781.826	299.85
782.14	227.54
782.453	220.76
782.767	290.81
783.081	238.84
783.395	311.15
783.708	261.43
784.022	263.69
784.335	216.24
784.649	236.58
784.962	322.45
785.276	308.89
785.589	324.71
785.902	293.07
786.216	281.77
786.529	297.59
786.842	304.37
787.155	270.47
787.468	295.33
787.781	204.94
788.094	241.1
788.407	281.77
788.72	259.17
789.032	234.32
789.345	204.94
789.658	281.77
789.97	213.98
790.283	254.65
790.595	245.62
790.908	306.63
791.22	290.81
791.532	250.13
791.845	270.47
792.157	322.45
792.469	168.78
792.781	286.29
793.093	290.81
793.405	286.29
793.717	261.43
794.029	297.59
794.341	272.73
794.653	245.62
794.965	232.06
795.276	254.65
795.588	286.29
795.9	272.73
796.211	279.51
796.523	213.98
796.834	198.16
797.146	200.42
797.457	213.98
797.768	293.07
798.08	272.73
798.391	261.43
798.702	261.43
799.013	293.07
799.324	245.62
799.635	313.41
799.946	333.75
800.257	304.37
800.568	272.73
800.878	286.29
801.189	270.47
801.5	272.73
801.81	256.91
802.121	207.2
802.431	268.21
802.742	254.65
803.052	284.03
803.363	245.62
803.673	259.17
803.983	225.28
804.293	297.59
804.603	281.77
804.913	286.29
805.224	306.63
805.533	182.34
805.843	277.25
806.153	250.13
806.463	227.54
806.773	311.15
807.083	286.29
807.392	299.85
807.702	324.71
808.011	290.81
808.321	263.69
808.63	338.27
808.94	227.54
809.249	360.87
809.558	299.85
809.868	272.73
810.177	295.33
810.486	274.99
810.795	299.85
811.104	236.58
811.413	272.73
811.722	263.69
812.031	329.23
812.339	270.47
812.648	259.17
812.957	279.51
813.266	331.49
813.574	263.69
813.883	302.11
814.191	284.03
814.5	288.55
814.808	284.03
815.116	243.36
815.424	250.13
815.733	315.67
816.041	220.76
816.349	268.21
816.657	268.21
816.965	252.39
817.273	250.13
817.581	274.99
817.889	311.15
818.196	313.41
818.504	204.94
818.812	213.98
819.12	186.86
819.427	333.75
819.735	329.23
820.042	295.33
820.349	229.8
820.657	270.47
820.964	272.73
821.271	213.98
821.579	329.23
821.886	268.21
822.193	290.81
822.5	247.87
822.807	256.91
823.114	277.25
823.421	256.91
823.727	356.35
824.034	268.21
824.341	302.11
824.648	263.69
824.954	295.33
825.261	306.63
825.567	290.81
825.874	372.17
826.18	261.43
826.486	263.69
826.793	272.73
827.099	247.87
827.405	331.49
827.711	299.85
828.017	234.32
828.323	279.51
828.629	245.62
828.935	299.85
829.241	272.73
829.547	302.11
829.852	270.47
830.158	261.43
830.464	331.49
830.769	277.25
831.075	322.45
831.38	247.87
831.686	259.17
831.991	263.69
832.296	227.54
832.601	254.65
832.907	317.93
833.212	207.2
833.517	279.51
833.822	180.08
834.127	279.51
834.432	256.91
834.737	220.76
835.041	265.95
835.346	243.36
835.651	293.07
835.956	320.19
836.26	211.72
836.565	295.33
836.869	313.41
837.174	281.77
837.478	286.29
837.782	288.55
838.087	295.33
838.391	252.39
838.695	270.47
838.999	302.11
839.303	250.13
839.607	261.43
839.911	252.39
840.215	247.87
840.519	295.33
840.822	270.47
841.126	277.25
841.43	288.55
841.733	308.89
842.037	225.28
842.34	281.77
842.644	184.6
842.947	293.07
843.251	272.73
843.554	256.91
843.857	277.25
844.16	236.58
844.463	250.13
844.766	261.43
845.069	299.85
845.372	277.25
845.675	317.93
845.978	277.25
846.281	245.62
846.583	229.8
846.886	220.76
847.189	311.15
847.491	333.75
847.794	254.65
848.096	261.43
848.399	279.51
848.701	277.25
849.003	277.25
849.305	272.73
849.608	302.11
849.91	247.87
850.212	213.98
850.514	284.03
850.816	245.62
851.118	229.8
851.419	245.62
851.721	311.15
852.023	290.81
852.325	306.63
852.626	308.89
852.928	293.07
853.229	302.11
853.531	259.17
853.832	290.81
854.133	277.25
854.435	198.16
854.736	232.06
855.037	284.03
855.338	254.65
855.639	315.67
855.94	236.58
856.241	259.17
856.542	232.06
856.843	254.65
857.144	315.67
857.444	281.77
857.745	238.84
858.046	270.47
858.346	268.21
858.647	290.81
858.947	238.84
859.247	270.47
859.548	220.76
859.848	317.93
860.148	333.75
860.448	243.36
860.749	202.68
861.049	252.39
861.349	274.99
861.648	241.1
861.948	259.17
862.248	308.89
862.548	308.89
862.848	284.03
863.147	250.13
863.447	304.37
863.746	263.69
864.046	290.81
864.345	225.28
864.645	270.47
864.944	274.99
865.243	272.73
865.542	286.29
865.842	317.93
866.141	326.97
866.44	245.62
866.739	315.67
867.038	241.1
867.337	261.43
867.635	369.91
867.934	297.59
868.233	252.39
868.531	295.33
868.83	290.81
869.129	247.87
869.427	250.13
869.725	302.11
870.024	241.1
870.322	270.47
870.62	254.65
870.918	277.25
871.217	326.97
871.515	286.29
871.813	263.69
872.111	293.07
872.409	308.89
872.706	252.39
873.004	270.47
873.302	293.07
873.6	277.25
873.897	259.17
874.195	247.87
874.492	265.95
874.79	243.36
875.087	302.11
875.384	211.72
875.682	297.59
875.979	288.55
876.276	295.33
876.573	254.65
876.87	254.65
877.167	254.65
