Data from PL_2polymer_F8BT_MEHPPV_USB2H096331_0128.txt Node
Date: Tue Dec 15 16:28:23 CET 2020
User: spadmin
Spectrometer: USB2+H09633
Trigger mode: 0
Integration Time (sec): 1.000000E-2
Scans to average: 1
Electric dark correction enabled: true
Nonlinearity correction enabled: false
Boxcar width: 0
XAxis mode: Wavelengths
Number of Pixels in Spectrum: 2048
>>>>>Begin Spectral Data<<<<<
174.027	-95.2
174.405	-95.2
174.783	-95.2
175.162	-45.48
175.54	-140.39
175.918	-111.01
176.296	-104.23
176.674	-50
177.052	-120.05
177.43	-70.34
177.808	-101.97
178.186	-81.64
178.564	-81.64
178.942	-9.32
179.32	38.13
179.698	81.07
180.076	20.06
180.453	33.61
180.831	49.43
181.209	114.97
181.587	146.61
181.965	135.31
182.342	103.67
182.72	119.49
183.098	182.76
183.475	241.52
183.853	178.24
184.231	300.27
184.608	257.34
184.986	227.96
185.363	286.72
185.741	196.32
186.118	327.39
186.496	340.95
186.873	325.13
187.251	327.39
187.628	313.83
188.006	282.2
188.383	356.77
188.76	395.19
189.138	293.5
189.515	334.17
189.892	336.43
190.27	370.33
190.647	325.13
191.024	275.42
191.401	334.17
191.778	298.01
192.155	248.3
192.533	331.91
192.91	307.05
193.287	322.87
193.664	270.9
194.041	307.05
194.418	372.59
194.795	334.17
195.172	320.61
195.549	284.46
195.926	313.83
196.302	309.31
196.679	295.75
197.056	286.72
197.433	390.67
197.81	300.27
198.187	311.57
198.563	320.61
198.94	356.77
199.317	243.78
199.693	361.29
200.07	325.13
200.447	248.3
200.823	329.65
201.2	237
201.576	325.13
201.953	300.27
202.329	279.94
202.706	311.57
203.082	363.55
203.459	356.77
203.835	266.38
204.212	359.03
204.588	237
204.964	307.05
205.341	327.39
205.717	264.12
206.093	259.6
206.469	311.57
206.846	302.53
207.222	298.01
207.598	273.16
207.974	365.81
208.35	302.53
208.726	284.46
209.102	298.01
209.479	275.42
209.855	379.37
210.231	279.94
210.607	266.38
210.982	288.98
211.358	284.46
211.734	345.47
212.11	304.79
212.486	316.09
212.862	302.53
213.238	273.16
213.614	241.52
213.989	334.17
214.365	268.64
214.741	322.87
215.116	286.72
215.492	349.99
215.868	316.09
216.243	309.31
216.619	347.73
216.995	338.69
217.37	336.43
217.746	349.99
218.121	322.87
218.497	331.91
218.872	336.43
219.247	322.87
219.623	370.33
219.998	322.87
220.374	334.17
220.749	277.68
221.124	277.68
221.499	336.43
221.875	349.99
222.25	347.73
222.625	329.65
223	399.71
223.376	261.86
223.751	345.47
224.126	345.47
224.501	338.69
224.876	329.65
225.251	356.77
225.626	331.91
226.001	316.09
226.376	345.47
226.751	298.01
227.126	304.79
227.501	257.34
227.875	365.81
228.25	345.47
228.625	372.59
229	347.73
229.375	293.5
229.749	349.99
230.124	343.21
230.499	266.38
230.873	320.61
231.248	327.39
231.623	311.57
231.997	368.07
232.372	334.17
232.746	349.99
233.121	363.55
233.495	352.25
233.87	415.53
234.244	411.01
234.619	352.25
234.993	320.61
235.367	422.31
235.742	388.41
236.116	320.61
236.49	307.05
236.865	329.65
237.239	359.03
237.613	302.53
237.987	352.25
238.361	345.47
238.736	316.09
239.11	377.11
239.484	365.81
239.858	318.35
240.232	340.95
240.606	377.11
240.98	377.11
241.354	302.53
241.728	338.69
242.102	329.65
242.475	277.68
242.849	381.63
243.223	338.69
243.597	386.15
243.971	411.01
244.344	401.97
244.718	352.25
245.092	322.87
245.466	372.59
245.839	390.67
246.213	383.89
246.586	399.71
246.96	408.75
247.334	343.21
247.707	259.6
248.081	334.17
248.454	388.41
248.828	374.85
249.201	399.71
249.574	316.09
249.948	374.85
250.321	345.47
250.694	313.83
251.068	374.85
251.441	411.01
251.814	334.17
252.187	370.33
252.561	368.07
252.934	372.59
253.307	383.89
253.68	327.39
254.053	401.97
254.426	365.81
254.799	338.69
255.172	349.99
255.545	392.93
255.918	417.79
256.291	381.63
256.664	354.51
257.037	359.03
257.41	422.31
257.782	363.55
258.155	354.51
258.528	372.59
258.901	295.75
259.273	368.07
259.646	383.89
260.019	408.75
260.391	307.05
260.764	406.49
261.137	352.25
261.509	392.93
261.882	298.01
262.254	392.93
262.627	334.17
262.999	365.81
263.372	334.17
263.744	354.51
264.116	379.37
264.489	411.01
264.861	395.19
265.233	383.89
265.606	325.13
265.978	340.95
266.35	352.25
266.722	442.64
267.094	325.13
267.467	361.29
267.839	307.05
268.211	363.55
268.583	336.43
268.955	345.47
269.327	327.39
269.699	374.85
270.071	349.99
270.443	365.81
270.815	395.19
271.186	347.73
271.558	399.71
271.93	383.89
272.302	365.81
272.674	354.51
273.045	345.47
273.417	390.67
273.789	383.89
274.16	322.87
274.532	370.33
274.904	345.47
275.275	370.33
275.647	411.01
276.018	372.59
276.39	372.59
276.761	401.97
277.133	420.05
277.504	372.59
277.875	395.19
278.247	381.63
278.618	469.76
278.989	485.58
279.361	390.67
279.732	368.07
280.103	417.79
280.474	377.11
280.846	451.68
281.217	334.17
281.588	422.31
281.959	415.53
282.33	411.01
282.701	368.07
283.072	401.97
283.443	401.97
283.814	449.42
284.185	343.21
284.556	361.29
284.927	476.54
285.297	420.05
285.668	474.28
286.039	420.05
286.41	404.23
286.781	372.59
287.151	460.72
287.522	395.19
287.893	401.97
288.263	370.33
288.634	451.68
289.004	383.89
289.375	370.33
289.745	429.08
290.116	397.45
290.486	397.45
290.857	431.34
291.227	395.19
291.598	420.05
291.968	399.71
292.338	451.68
292.709	424.57
293.079	354.51
293.449	447.16
293.819	313.83
294.189	449.42
294.56	404.23
294.93	483.32
295.3	422.31
295.67	390.67
296.04	444.9
296.41	404.23
296.78	481.06
297.15	438.12
297.52	444.9
297.89	417.79
298.259	374.85
298.629	379.37
298.999	492.36
299.369	449.42
299.739	460.72
300.108	388.41
300.478	499.14
300.848	386.15
301.217	420.05
301.587	478.8
301.957	435.86
302.326	526.26
302.696	429.08
303.065	526.26
303.435	467.5
303.804	456.2
304.174	456.2
304.543	442.64
304.912	440.38
305.282	435.86
305.651	478.8
306.02	435.86
306.39	472.02
306.759	510.44
307.128	487.84
307.497	472.02
307.866	447.16
308.235	440.38
308.604	408.75
308.974	478.8
309.343	469.76
309.712	492.36
310.08	460.72
310.449	514.96
310.818	467.5
311.187	492.36
311.556	460.72
311.925	444.9
312.294	535.3
312.662	514.96
313.031	453.94
313.4	383.89
313.769	512.7
314.137	503.66
314.506	485.58
314.874	467.5
315.243	467.5
315.612	478.8
315.98	537.56
316.349	472.02
316.717	517.22
317.085	485.58
317.454	440.38
317.822	476.54
318.191	472.02
318.559	505.92
318.927	422.31
319.295	519.48
319.664	460.72
320.032	440.38
320.4	519.48
320.768	453.94
321.136	469.76
321.504	451.68
321.872	546.6
322.24	530.78
322.608	517.22
322.976	492.36
323.344	539.82
323.712	460.72
324.08	476.54
324.448	505.92
324.816	517.22
325.183	505.92
325.551	481.06
325.919	501.4
326.287	496.88
326.654	524
327.022	501.4
327.389	451.68
327.757	514.96
328.125	533.04
328.492	594.05
328.86	469.76
329.227	433.6
329.594	528.52
329.962	503.66
330.329	505.92
330.697	524
331.064	537.56
331.431	530.78
331.798	557.89
332.166	490.1
332.533	542.08
332.9	573.71
333.267	517.22
333.634	544.34
334.001	555.64
334.368	618.91
334.735	636.99
335.102	562.41
335.469	562.41
335.836	514.96
336.203	560.15
336.57	555.64
336.937	521.74
337.304	483.32
337.67	589.53
338.037	524
338.404	524
338.771	607.61
339.137	591.79
339.504	535.3
339.87	603.09
340.237	573.71
340.604	616.65
340.97	605.35
341.337	641.51
341.703	537.56
342.069	594.05
342.436	596.31
342.802	587.27
343.169	573.71
343.535	643.77
343.901	603.09
344.267	533.04
344.634	564.67
345	636.99
345.366	646.03
345.732	526.26
346.098	557.89
346.464	614.39
346.83	618.91
347.196	596.31
347.562	673.15
347.928	691.22
348.294	650.55
348.66	659.59
349.026	643.77
349.392	600.83
349.757	607.61
350.123	668.63
350.489	636.99
350.855	655.07
351.22	677.67
351.586	661.85
351.951	589.53
352.317	731.9
352.683	704.78
353.048	659.59
353.414	664.11
353.779	652.81
354.144	707.04
354.51	720.6
354.875	731.9
355.24	702.52
355.606	609.87
355.971	693.48
356.336	716.08
356.701	729.64
357.067	797.44
357.432	716.08
357.797	722.86
358.162	743.2
358.527	759.02
358.892	835.85
359.257	790.66
359.622	725.12
359.987	781.62
360.352	763.54
360.717	835.85
361.082	702.52
361.446	813.26
361.811	824.55
362.176	777.1
362.541	899.13
362.905	912.69
363.27	935.29
363.635	874.27
363.999	894.61
364.364	896.87
364.728	975.96
365.093	874.27
365.457	908.17
365.822	908.17
366.186	966.92
366.55	980.48
366.915	921.73
367.279	998.56
367.643	944.33
368.008	989.52
368.372	1023.42
368.736	937.55
369.1	1018.9
369.464	1064.1
369.828	1145.45
370.192	1073.14
370.556	1097.99
370.92	1122.85
371.284	1086.69
371.648	1154.49
372.012	1247.14
372.376	1308.16
372.74	1249.4
373.104	1380.47
373.468	1473.13
373.831	1491.2
374.195	1516.06
374.559	1459.57
374.922	1509.28
375.286	1522.84
375.65	1556.74
376.013	1669.73
376.377	1730.75
376.74	1775.94
377.104	1744.3
377.467	1949.95
377.83	1943.17
378.194	2243.73
378.557	2171.41
378.92	2252.77
379.284	2569.14
379.647	2722.81
380.01	2768.01
380.373	3007.55
380.736	3095.68
381.1	3590.58
381.463	3717.13
381.826	3965.71
382.189	4205.26
382.552	4560.05
382.915	4862.87
383.278	5240.26
383.64	5750.98
384.003	6241.36
384.366	6650.39
384.729	7402.91
385.092	7933.97
385.454	8763.33
385.817	9414.16
386.18	10290.97
386.542	11391.51
386.905	12489.78
387.268	13780.15
387.63	15287.45
387.993	16085.17
388.355	17829.76
388.718	19861.34
389.08	21330.23
389.442	23452.21
389.805	25271.37
390.167	27273.58
390.529	30622.64
390.892	33836.12
391.254	35691.43
391.616	38297.02
391.978	42344.37
392.34	47019.95
392.702	48111.45
393.064	51930.56
393.426	54242.36
393.788	55657.01
394.15	57209.51
394.512	59229.8
394.874	61039.92
395.236	62685.07
395.598	64450
395.96	65064.67
396.321	65064.67
396.683	65064.67
397.045	65064.67
397.406	65064.67
397.768	65064.67
398.13	65064.67
398.491	65064.67
398.853	65064.67
399.214	65064.67
399.576	65064.67
399.937	65064.67
400.299	65064.67
400.66	65064.67
401.021	65064.67
401.383	65064.67
401.744	65064.67
402.105	65064.67
402.466	65064.67
402.827	65064.67
403.189	65064.67
403.55	65064.67
403.911	65064.67
404.272	65064.67
404.633	65064.67
404.994	65064.67
405.355	65064.67
405.716	65064.67
406.077	65064.67
406.437	65064.67
406.798	65064.67
407.159	65064.67
407.52	65064.67
407.88	65064.67
408.241	65064.67
408.602	65064.67
408.962	65064.67
409.323	65064.67
409.684	65064.67
410.044	65064.67
410.405	65064.67
410.765	65064.67
411.125	65064.67
411.486	65064.67
411.846	65064.67
412.206	65064.67
412.567	65064.67
412.927	65064.67
413.287	65064.67
413.647	65064.67
414.007	65064.67
414.368	65064.67
414.728	65064.67
415.088	65064.67
415.448	65064.67
415.808	65064.67
416.168	65064.67
416.528	65064.67
416.887	65064.67
417.247	65064.67
417.607	65064.67
417.967	65064.67
418.327	65064.67
418.686	65064.67
419.046	65064.67
419.406	65064.67
419.765	65064.67
420.125	65064.67
420.484	65064.67
420.844	65064.67
421.203	65064.67
421.563	64429.66
421.922	64382.21
422.282	62325.76
422.641	60832.02
423	59787.98
423.36	58967.66
423.719	56680.71
424.078	54899.97
424.437	53069.51
424.796	51286.5
425.155	49853.77
425.515	47508.07
425.874	46188.33
426.233	41781.67
426.592	39564.78
426.95	38882.31
427.309	36683.5
427.668	35711.77
428.027	32523.16
428.386	32245.2
428.745	29189.91
429.103	27273.58
429.462	25983.22
429.821	24604.72
430.179	23327.92
430.538	22509.86
430.897	21974.28
431.255	20790.13
431.614	19459.09
431.972	18665.89
432.33	17752.92
432.689	17795.86
433.047	16561.99
433.405	15273.89
433.764	14623.06
434.122	14360.92
434.48	13493.15
434.838	12916.89
435.197	12469.45
435.555	11947.43
435.913	11472.86
436.271	11009.6
436.629	10537.29
436.987	9979.12
437.345	9355.4
437.703	9140.72
438.061	8688.75
438.418	8164.47
438.776	7906.85
439.134	7811.94
439.492	7430.03
439.849	7027.78
440.207	6657.17
440.565	6471.86
440.922	6060.58
441.28	5642.51
441.637	5583.75
441.995	5292.23
442.352	5120.49
442.71	4838.01
443.067	4828.97
443.425	4587.17
443.782	4469.66
444.139	4327.29
444.496	3886.62
444.854	4092.27
445.211	3789.45
445.568	3852.72
445.925	3445.95
446.282	3427.88
446.639	3290.03
446.996	3262.91
447.353	3229.01
447.71	3183.81
448.067	3276.47
448.424	3039.19
448.781	2874.22
449.137	2720.55
449.494	2566.88
449.851	2625.64
450.208	2453.89
450.564	2288.92
450.921	2200.79
451.278	2252.77
451.634	2277.62
451.991	2065.2
452.347	2121.7
452.704	2020
453.06	1866.34
453.416	1805.32
453.773	1821.14
454.129	1753.34
454.485	1644.87
454.841	1644.87
455.198	1631.31
455.554	1500.24
455.91	1522.84
456.266	1380.47
456.622	1500.24
456.978	1421.15
457.334	1269.74
457.69	1190.65
458.046	1215.5
458.402	1238.1
458.758	1247.14
459.114	1179.35
459.469	1136.41
459.825	1122.85
460.181	1061.84
460.536	1102.51
460.892	971.44
461.248	1097.99
461.603	1007.6
461.959	994.04
462.314	957.88
462.67	998.56
463.025	896.87
463.38	910.43
463.736	912.69
464.091	933.03
464.446	903.65
464.802	937.55
465.157	858.45
465.512	894.61
465.867	872.01
466.222	867.49
466.577	822.29
466.932	849.41
467.287	808.74
467.642	799.7
467.997	725.12
468.352	849.41
468.707	745.46
469.062	749.98
469.417	783.88
469.771	781.62
470.126	752.24
470.481	664.11
470.835	704.78
471.19	788.4
471.544	695.74
471.899	727.38
472.253	686.71
472.608	738.68
472.962	632.47
473.317	670.89
473.671	664.11
474.025	594.05
474.38	659.59
474.734	725.12
475.088	657.33
475.442	639.25
475.796	623.43
476.15	713.82
476.504	571.45
476.858	562.41
477.212	609.87
477.566	578.23
477.92	530.78
478.274	596.31
478.628	582.75
478.982	596.31
479.336	627.95
479.689	641.51
480.043	564.67
480.397	555.64
480.75	634.73
481.104	548.86
481.457	555.64
481.811	551.12
482.164	501.4
482.518	553.38
482.871	621.17
483.225	616.65
483.578	585.01
483.931	607.61
484.284	557.89
484.638	542.08
484.991	591.79
485.344	562.41
485.697	517.22
486.05	519.48
486.403	487.84
486.756	530.78
487.109	564.67
487.462	537.56
487.815	553.38
488.168	603.09
488.52	557.89
488.873	496.88
489.226	548.86
489.579	474.28
489.931	485.58
490.284	605.35
490.637	580.49
490.989	544.34
491.342	528.52
491.694	553.38
492.047	476.54
492.399	476.54
492.751	528.52
493.104	524
493.456	526.26
493.808	528.52
494.16	578.23
494.513	505.92
494.865	517.22
495.217	571.45
495.569	546.6
495.921	539.82
496.273	569.19
496.625	528.52
496.977	551.12
497.329	494.62
497.68	535.3
498.032	476.54
498.384	573.71
498.736	542.08
499.087	573.71
499.439	587.27
499.791	503.66
500.142	530.78
500.494	589.53
500.845	496.88
501.197	553.38
501.548	594.05
501.9	566.93
502.251	537.56
502.602	591.79
502.954	630.21
503.305	578.23
503.656	526.26
504.007	600.83
504.358	562.41
504.709	566.93
505.061	632.47
505.412	664.11
505.763	580.49
506.113	634.73
506.464	709.3
506.815	612.13
507.166	641.51
507.517	682.19
507.868	691.22
508.218	661.85
508.569	695.74
508.92	698
509.27	734.16
509.621	731.9
509.971	745.46
510.322	718.34
510.672	851.67
511.023	700.26
511.373	725.12
511.723	768.06
512.074	822.29
512.424	781.62
512.774	770.32
513.124	783.88
513.475	858.45
513.825	860.71
514.175	856.19
514.525	820.03
514.875	869.75
515.225	899.13
515.575	901.39
515.924	969.18
516.274	867.49
516.624	872.01
516.974	903.65
517.324	912.69
517.673	914.95
518.023	973.7
518.373	975.96
518.722	973.7
519.072	966.92
519.421	944.33
519.771	1003.08
520.12	991.78
520.469	1070.88
520.819	1057.32
521.168	1088.95
521.517	1052.8
521.867	1009.86
522.216	1070.88
522.565	1086.69
522.914	1165.79
523.263	1125.11
523.612	1192.91
523.961	1107.03
524.31	1149.97
524.659	1195.17
525.008	1233.58
525.357	1183.87
525.705	1192.91
526.054	1226.8
526.403	1210.99
526.752	1192.91
527.1	1172.57
527.449	1172.57
527.797	1253.92
528.146	1258.44
528.495	1292.34
528.843	1292.34
529.191	1258.44
529.54	1328.5
529.888	1231.32
530.236	1301.38
530.585	1403.07
530.933	1247.14
531.281	1373.69
531.629	1296.86
531.977	1344.31
532.325	1294.6
532.673	1357.87
533.021	1292.34
533.369	1183.87
533.717	1274.26
534.065	1278.78
534.413	1362.39
534.761	1351.09
535.108	1235.84
535.456	1348.83
535.804	1335.28
536.151	1294.6
536.499	1369.17
536.847	1348.83
537.194	1314.94
537.542	1296.86
537.889	1389.51
538.236	1351.09
538.584	1249.4
538.931	1333.02
539.278	1296.86
539.626	1344.31
539.973	1380.47
540.32	1452.79
540.667	1353.35
541.014	1303.64
541.361	1360.13
541.708	1339.8
542.055	1342.06
542.402	1353.35
542.749	1333.02
543.096	1362.39
543.443	1333.02
543.789	1378.21
544.136	1403.07
544.483	1360.13
544.83	1378.21
545.176	1391.77
545.523	1283.3
545.869	1330.76
546.216	1342.06
546.562	1303.64
546.909	1314.94
547.255	1369.17
547.601	1312.68
547.948	1373.69
548.294	1380.47
548.64	1348.83
548.986	1348.83
549.332	1384.99
549.678	1360.13
550.025	1292.34
550.371	1355.61
550.717	1412.11
551.062	1391.77
551.408	1305.9
551.754	1387.25
552.1	1253.92
552.446	1351.09
552.792	1281.04
553.137	1434.71
553.483	1409.85
553.828	1328.5
554.174	1305.9
554.52	1348.83
554.865	1326.24
555.211	1281.04
555.556	1321.72
555.901	1362.39
556.247	1486.68
556.592	1391.77
556.937	1468.61
557.282	1400.81
557.628	1500.24
557.973	1450.53
558.318	1353.35
558.663	1475.38
559.008	1502.5
559.353	1488.94
559.698	1366.91
560.043	1529.62
560.388	1450.53
560.732	1389.51
561.077	1421.15
561.422	1301.38
561.766	1479.9
562.111	1484.42
562.456	1545.44
562.8	1522.84
563.145	1536.4
563.489	1556.74
563.834	1479.9
564.178	1495.72
564.523	1559
564.867	1572.56
565.211	1543.18
565.555	1425.67
565.9	1522.84
566.244	1479.9
566.588	1491.2
566.932	1529.62
567.276	1561.26
567.62	1522.84
567.964	1579.34
568.308	1604.2
568.652	1590.64
568.996	1624.53
569.339	1620.01
569.683	1495.72
570.027	1644.87
570.371	1644.87
570.714	1662.95
571.058	1581.6
571.401	1638.09
571.745	1459.57
572.088	1599.68
572.432	1559
572.775	1597.42
573.118	1699.11
573.462	1592.9
573.805	1690.07
574.148	1549.96
574.491	1538.66
574.835	1660.69
575.178	1658.43
575.521	1631.31
575.864	1579.34
576.207	1651.65
576.55	1610.97
576.892	1613.23
577.235	1565.78
577.578	1581.6
577.921	1554.48
578.264	1525.1
578.606	1644.87
578.949	1660.69
579.292	1601.94
579.634	1568.04
579.977	1568.04
580.319	1644.87
580.662	1507.02
581.004	1549.96
581.346	1579.34
581.689	1586.12
582.031	1504.76
582.373	1531.88
582.715	1540.92
583.057	1538.66
583.4	1446.01
583.742	1394.03
584.084	1520.58
584.426	1572.56
584.768	1430.19
585.109	1464.09
585.451	1464.09
585.793	1364.65
586.135	1375.95
586.477	1394.03
586.818	1394.03
587.16	1342.06
587.502	1394.03
587.843	1328.5
588.185	1360.13
588.526	1448.27
588.868	1425.67
589.209	1292.34
589.55	1285.56
589.892	1314.94
590.233	1364.65
590.574	1272
590.915	1321.72
591.257	1262.96
591.598	1290.08
591.939	1305.9
592.28	1174.83
592.621	1287.82
592.962	1181.61
593.303	1201.95
593.643	1276.52
593.984	1113.81
594.325	1206.47
594.666	1226.8
595.006	1140.93
595.347	1129.63
595.688	1222.28
596.028	1091.21
596.369	1125.11
596.709	1152.23
597.05	1093.47
597.39	1070.88
597.73	1097.99
598.071	1027.94
598.411	1116.07
598.751	1003.08
599.091	1073.14
599.431	1057.32
599.772	942.07
600.112	982.74
600.452	1012.12
600.792	971.44
601.132	1018.9
601.471	928.51
601.811	994.04
602.151	1014.38
602.491	946.59
602.831	998.56
603.17	1005.34
603.51	978.22
603.849	962.4
604.189	890.09
604.528	955.62
604.868	928.51
605.207	894.61
605.547	982.74
605.886	942.07
606.225	933.03
606.565	996.3
606.904	921.73
607.243	933.03
607.582	881.05
607.921	878.79
608.26	844.89
608.599	797.44
608.938	858.45
609.277	899.13
609.616	865.23
609.955	856.19
610.293	890.09
610.632	955.62
610.971	813.26
611.309	844.89
611.648	851.67
611.987	811
612.325	808.74
612.664	844.89
613.002	820.03
613.34	858.45
613.679	772.58
614.017	842.63
614.355	792.92
614.694	795.18
615.032	858.45
615.37	833.59
615.708	797.44
616.046	799.7
616.384	799.7
616.722	752.24
617.06	833.59
617.398	813.26
617.736	811
618.073	763.54
618.411	824.55
618.749	824.55
619.086	894.61
619.424	745.46
619.762	822.29
620.099	817.78
620.437	756.76
620.774	756.76
621.112	736.42
621.449	774.84
621.786	826.81
622.123	840.37
622.461	833.59
622.798	700.26
623.135	754.5
623.472	716.08
623.809	779.36
624.146	797.44
624.483	745.46
624.82	808.74
625.157	797.44
625.494	811
625.83	752.24
626.167	777.1
626.504	729.64
626.841	772.58
627.177	822.29
627.514	759.02
627.85	698
628.187	688.96
628.523	801.96
628.86	820.03
629.196	786.14
629.532	754.5
629.869	707.04
630.205	652.81
630.541	725.12
630.877	627.95
631.213	729.64
631.549	661.85
631.885	747.72
632.221	691.22
632.557	688.96
632.893	684.45
633.229	768.06
633.564	695.74
633.9	709.3
634.236	709.3
634.572	673.15
634.907	702.52
635.243	634.73
635.578	725.12
635.914	698
636.249	643.77
636.585	646.03
636.92	661.85
637.255	684.45
637.59	709.3
637.926	711.56
638.261	632.47
638.596	607.61
638.931	582.75
639.266	677.67
639.601	711.56
639.936	591.79
640.271	594.05
640.606	555.64
640.94	623.43
641.275	641.51
641.61	607.61
641.945	598.57
642.279	569.19
642.614	600.83
642.948	546.6
643.283	614.39
643.617	652.81
643.952	616.65
644.286	589.53
644.62	636.99
644.955	542.08
645.289	517.22
645.623	564.67
645.957	566.93
646.291	560.15
646.625	564.67
646.959	530.78
647.293	585.01
647.627	560.15
647.961	539.82
648.295	499.14
648.629	496.88
648.962	508.18
649.296	492.36
649.63	524
649.963	474.28
650.297	553.38
650.63	596.31
650.964	551.12
651.297	510.44
651.631	524
651.964	501.4
652.297	546.6
652.631	508.18
652.964	438.12
653.297	499.14
653.63	458.46
653.963	397.45
654.296	514.96
654.629	460.72
654.962	490.1
655.295	585.01
655.628	483.32
655.961	505.92
656.293	490.1
656.626	524
656.959	512.7
657.291	539.82
657.624	492.36
657.956	433.6
658.289	469.76
658.621	440.38
658.954	433.6
659.286	435.86
659.618	451.68
659.95	555.64
660.283	444.9
660.615	485.58
660.947	483.32
661.279	483.32
661.611	433.6
661.943	404.23
662.275	447.16
662.607	426.82
662.939	517.22
663.27	483.32
663.602	426.82
663.934	444.9
664.266	462.98
664.597	374.85
664.929	368.07
665.26	503.66
665.592	386.15
665.923	438.12
666.255	422.31
666.586	431.34
666.917	438.12
667.248	415.53
667.58	370.33
667.911	438.12
668.242	433.6
668.573	433.6
668.904	383.89
669.235	411.01
669.566	438.12
669.897	413.27
670.228	435.86
670.558	411.01
670.889	474.28
671.22	433.6
671.551	395.19
671.881	444.9
672.212	429.08
672.542	395.19
672.873	433.6
673.203	386.15
673.533	345.47
673.864	422.31
674.194	374.85
674.524	467.5
674.855	388.41
675.185	392.93
675.515	411.01
675.845	408.75
676.175	392.93
676.505	431.34
676.835	343.21
677.165	374.85
677.494	390.67
677.824	347.73
678.154	372.59
678.484	381.63
678.813	413.27
679.143	354.51
679.472	273.16
679.802	365.81
680.131	368.07
680.461	411.01
680.79	368.07
681.119	338.69
681.449	374.85
681.778	411.01
682.107	377.11
682.436	404.23
682.765	379.37
683.094	320.61
683.423	442.64
683.752	295.75
684.081	381.63
684.41	343.21
684.739	300.27
685.067	359.03
685.396	311.57
685.725	365.81
686.053	334.17
686.382	363.55
686.711	307.05
687.039	383.89
687.367	420.05
687.696	431.34
688.024	374.85
688.352	318.35
688.681	374.85
689.009	329.65
689.337	404.23
689.665	381.63
689.993	343.21
690.321	343.21
690.649	338.69
690.977	354.51
691.305	377.11
691.633	383.89
691.961	340.95
692.288	388.41
692.616	327.39
692.944	336.43
693.271	313.83
693.599	266.38
693.926	264.12
694.254	338.69
694.581	268.64
694.908	302.53
695.236	352.25
695.563	365.81
695.89	313.83
696.217	370.33
696.544	327.39
696.871	329.65
697.198	313.83
697.525	300.27
697.852	322.87
698.179	304.79
698.506	334.17
698.833	352.25
699.16	365.81
699.486	320.61
699.813	388.41
700.139	322.87
700.466	282.2
700.793	302.53
701.119	356.77
701.445	300.27
701.772	352.25
702.098	363.55
702.424	252.82
702.75	304.79
703.077	304.79
703.403	329.65
703.729	298.01
704.055	316.09
704.381	291.24
704.707	359.03
705.033	311.57
705.358	361.29
705.684	340.95
706.01	354.51
706.336	255.08
706.661	227.96
706.987	390.67
707.312	327.39
707.638	379.37
707.963	361.29
708.289	307.05
708.614	284.46
708.939	354.51
709.265	293.5
709.59	286.72
709.915	363.55
710.24	349.99
710.565	338.69
710.89	365.81
711.215	298.01
711.54	266.38
711.865	288.98
712.19	277.68
712.515	313.83
712.839	270.9
713.164	313.83
713.489	311.57
713.813	275.42
714.138	295.75
714.462	311.57
714.787	320.61
715.111	273.16
715.435	300.27
715.76	255.08
716.084	302.53
716.408	304.79
716.732	257.34
717.056	291.24
717.381	237
717.705	293.5
718.028	257.34
718.352	313.83
718.676	327.39
719	277.68
719.324	322.87
719.648	293.5
719.971	331.91
720.295	311.57
720.618	320.61
720.942	295.75
721.265	293.5
721.589	318.35
721.912	232.48
722.236	270.9
722.559	365.81
722.882	316.09
723.205	340.95
723.528	286.72
723.851	365.81
724.174	318.35
724.497	227.96
724.82	298.01
725.143	264.12
725.466	354.51
725.789	277.68
726.112	270.9
726.434	275.42
726.757	329.65
727.08	232.48
727.402	282.2
727.725	286.72
728.047	300.27
728.37	320.61
728.692	248.3
729.014	252.82
729.336	259.6
729.659	340.95
729.981	252.82
730.303	261.86
730.625	293.5
730.947	300.27
731.269	277.68
731.591	295.75
731.913	311.57
732.235	288.98
732.556	237
732.878	257.34
733.2	288.98
733.521	268.64
733.843	270.9
734.164	261.86
734.486	279.94
734.807	277.68
735.129	336.43
735.45	298.01
735.771	298.01
736.092	241.52
736.414	243.78
736.735	291.24
737.056	259.6
737.377	293.5
737.698	307.05
738.019	304.79
738.34	277.68
738.66	239.26
738.981	239.26
739.302	279.94
739.623	270.9
739.943	266.38
740.264	325.13
740.584	270.9
740.905	232.48
741.225	298.01
741.546	316.09
741.866	221.18
742.186	300.27
742.507	302.53
742.827	293.5
743.147	250.56
743.467	261.86
743.787	270.9
744.107	293.5
744.427	302.53
744.747	302.53
745.067	257.34
745.386	327.39
745.706	255.08
746.026	270.9
746.346	313.83
746.665	273.16
746.985	227.96
747.304	288.98
747.624	239.26
747.943	286.72
748.262	273.16
748.582	239.26
748.901	284.46
749.22	248.3
749.539	313.83
749.858	282.2
750.177	275.42
750.496	322.87
750.815	322.87
751.134	273.16
751.453	248.3
751.772	248.3
752.09	338.69
752.409	261.86
752.728	286.72
753.046	318.35
753.365	293.5
753.683	243.78
754.002	255.08
754.32	232.48
754.639	325.13
754.957	264.12
755.275	277.68
755.593	250.56
755.911	365.81
756.23	268.64
756.548	282.2
756.866	275.42
757.183	237
757.501	237
757.819	252.82
758.137	266.38
758.455	286.72
758.772	241.52
759.09	313.83
759.408	343.21
759.725	279.94
760.043	313.83
760.36	279.94
760.677	203.1
760.995	279.94
761.312	286.72
761.629	239.26
761.946	295.75
762.264	318.35
762.581	291.24
762.898	214.4
763.215	261.86
763.532	264.12
763.848	250.56
764.165	185.02
764.482	252.82
764.799	239.26
765.115	288.98
765.432	255.08
765.749	282.2
766.065	218.92
766.382	277.68
766.698	300.27
767.014	261.86
767.331	293.5
767.647	241.52
767.963	282.2
768.279	252.82
768.595	338.69
768.911	227.96
769.227	318.35
769.543	327.39
769.859	277.68
770.175	329.65
770.491	270.9
770.807	273.16
771.122	239.26
771.438	250.56
771.754	237
772.069	291.24
772.385	318.35
772.7	266.38
773.016	223.44
773.331	282.2
773.646	250.56
773.961	277.68
774.277	264.12
774.592	286.72
774.907	318.35
775.222	295.75
775.537	268.64
775.852	230.22
776.167	252.82
776.482	264.12
776.796	270.9
777.111	237
777.426	298.01
777.74	252.82
778.055	300.27
778.369	302.53
778.684	327.39
778.998	223.44
779.313	227.96
779.627	288.98
779.941	284.46
780.255	298.01
780.57	293.5
780.884	191.8
781.198	279.94
781.512	241.52
781.826	270.9
782.14	255.08
782.453	205.36
782.767	311.57
783.081	340.95
783.395	250.56
783.708	261.86
784.022	214.4
784.335	273.16
784.649	273.16
784.962	232.48
785.276	255.08
785.589	239.26
785.902	223.44
786.216	277.68
786.529	209.88
786.842	221.18
787.155	277.68
787.468	171.46
787.781	286.72
788.094	268.64
788.407	234.74
788.72	277.68
789.032	248.3
789.345	232.48
789.658	248.3
789.97	266.38
790.283	300.27
790.595	261.86
790.908	266.38
791.22	218.92
791.532	187.28
791.845	291.24
792.157	307.05
792.469	349.99
792.781	293.5
793.093	261.86
793.405	246.04
793.717	250.56
794.029	209.88
794.341	257.34
794.653	246.04
794.965	266.38
795.276	200.84
795.588	295.75
795.9	214.4
796.211	234.74
796.523	198.58
796.834	205.36
797.146	277.68
797.457	288.98
797.768	264.12
798.08	252.82
798.391	277.68
798.702	252.82
799.013	243.78
799.324	298.01
799.635	275.42
799.946	270.9
800.257	279.94
800.568	223.44
800.878	255.08
801.189	270.9
801.5	284.46
801.81	243.78
802.121	221.18
802.431	304.79
802.742	282.2
803.052	250.56
803.363	264.12
803.673	298.01
803.983	180.5
804.293	178.24
804.603	237
804.913	239.26
805.224	277.68
805.533	257.34
805.843	264.12
806.153	243.78
806.463	264.12
806.773	300.27
807.083	279.94
807.392	250.56
807.702	225.7
808.011	311.57
808.321	248.3
808.63	288.98
808.94	216.66
809.249	279.94
809.558	311.57
809.868	284.46
810.177	279.94
810.486	230.22
810.795	302.53
811.104	243.78
811.413	291.24
811.722	237
812.031	216.66
812.339	212.14
812.648	218.92
812.957	291.24
813.266	216.66
813.574	196.32
813.883	273.16
814.191	239.26
814.5	316.09
814.808	223.44
815.116	279.94
815.424	237
815.733	214.4
816.041	302.53
816.349	203.1
816.657	279.94
816.965	266.38
817.273	286.72
817.581	270.9
817.889	288.98
818.196	234.74
818.504	279.94
818.812	298.01
819.12	246.04
819.427	250.56
819.735	277.68
820.042	250.56
820.349	304.79
820.657	232.48
820.964	246.04
821.271	334.17
821.579	243.78
821.886	216.66
822.193	266.38
822.5	288.98
822.807	273.16
823.114	227.96
823.421	266.38
823.727	237
824.034	250.56
824.341	230.22
824.648	218.92
824.954	284.46
825.261	257.34
825.567	307.05
825.874	209.88
826.18	288.98
826.486	307.05
826.793	298.01
827.099	216.66
827.405	320.61
827.711	255.08
828.017	277.68
828.323	207.62
828.629	218.92
828.935	268.64
829.241	302.53
829.547	331.91
829.852	277.68
830.158	246.04
830.464	295.75
830.769	268.64
831.075	286.72
831.38	307.05
831.686	252.82
831.991	275.42
832.296	307.05
832.601	243.78
832.907	218.92
833.212	309.31
833.517	212.14
833.822	162.43
834.127	255.08
834.432	264.12
834.737	304.79
835.041	291.24
835.346	259.6
835.651	277.68
835.956	252.82
836.26	264.12
836.565	232.48
836.869	248.3
837.174	248.3
837.478	261.86
837.782	252.82
838.087	234.74
838.391	291.24
838.695	257.34
838.999	230.22
839.303	288.98
839.607	223.44
839.911	223.44
840.215	352.25
840.519	257.34
840.822	268.64
841.126	268.64
841.43	185.02
841.733	257.34
842.037	248.3
842.34	273.16
842.644	191.8
842.947	221.18
843.251	255.08
843.554	239.26
843.857	237
844.16	261.86
844.463	257.34
844.766	275.42
845.069	230.22
845.372	255.08
845.675	243.78
845.978	257.34
846.281	252.82
846.583	309.31
846.886	309.31
847.189	282.2
847.491	196.32
847.794	237
848.096	259.6
848.399	243.78
848.701	291.24
849.003	302.53
849.305	293.5
849.608	261.86
849.91	275.42
850.212	279.94
850.514	286.72
850.816	338.69
851.118	282.2
851.419	259.6
851.721	338.69
852.023	246.04
852.325	302.53
852.626	248.3
852.928	241.52
853.229	311.57
853.531	180.5
853.832	241.52
854.133	270.9
854.435	223.44
854.736	259.6
855.037	252.82
855.338	250.56
855.639	288.98
855.94	304.79
856.241	264.12
856.542	338.69
856.843	221.18
857.144	246.04
857.444	300.27
857.745	309.31
858.046	237
858.346	275.42
858.647	273.16
858.947	237
859.247	275.42
859.548	302.53
859.848	264.12
860.148	259.6
860.448	302.53
860.749	246.04
861.049	189.54
861.349	282.2
861.648	286.72
861.948	241.52
862.248	237
862.548	250.56
862.848	243.78
863.147	270.9
863.447	237
863.746	298.01
864.046	250.56
864.345	279.94
864.645	279.94
864.944	268.64
865.243	246.04
865.542	284.46
865.842	175.98
866.141	248.3
866.44	257.34
866.739	266.38
867.038	259.6
867.337	248.3
867.635	246.04
867.934	234.74
868.233	329.65
868.531	307.05
868.83	302.53
869.129	261.86
869.427	207.62
869.725	255.08
870.024	295.75
870.322	279.94
870.62	187.28
870.918	232.48
871.217	307.05
871.515	259.6
871.813	311.57
872.111	293.5
872.409	279.94
872.706	266.38
873.004	291.24
873.302	311.57
873.6	273.16
873.897	293.5
874.195	266.38
874.492	214.4
874.79	284.46
875.087	250.56
875.384	311.57
875.682	279.94
875.979	291.24
876.276	212.14
876.573	252.82
876.87	252.82
877.167	252.82
