Data from PL_2polymer_F8BT_MEHPPV_USB2H096331_0258.txt Node
Date: Tue Dec 15 16:28:24 CET 2020
User: spadmin
Spectrometer: USB2+H09633
Trigger mode: 0
Integration Time (sec): 1.000000E-2
Scans to average: 1
Electric dark correction enabled: true
Nonlinearity correction enabled: false
Boxcar width: 0
XAxis mode: Wavelengths
Number of Pixels in Spectrum: 2048
>>>>>Begin Spectral Data<<<<<
174.027	-85.87
174.405	-85.87
174.783	-85.87
175.162	-135.59
175.54	-72.31
175.918	-115.25
176.296	-40.68
176.674	-40.68
177.052	-101.69
177.43	-40.68
177.808	-49.72
178.186	-85.87
178.564	-11.3
178.942	-4.52
179.32	-29.38
179.698	49.72
180.076	11.3
180.453	38.42
180.831	18.08
181.209	94.91
181.587	94.91
181.965	97.17
182.342	149.15
182.72	212.42
183.098	210.16
183.475	230.5
183.853	239.54
184.231	268.92
184.608	244.06
184.986	289.26
185.363	307.34
185.741	239.54
186.118	305.08
186.496	309.6
186.873	293.78
187.251	314.12
187.628	348.01
188.006	311.86
188.383	316.38
188.76	336.71
189.138	246.32
189.515	336.71
189.892	354.79
190.27	413.55
190.647	307.34
191.024	323.16
191.401	381.91
191.778	363.83
192.155	320.9
192.533	334.45
192.91	316.38
193.287	341.23
193.664	375.13
194.041	345.75
194.418	381.91
194.795	372.87
195.172	354.79
195.549	244.06
195.926	264.4
196.302	237.28
196.679	320.9
197.056	318.64
197.433	282.48
197.81	266.66
198.187	298.3
198.563	298.3
198.94	262.14
199.317	343.49
199.693	277.96
200.07	320.9
200.447	307.34
200.823	289.26
201.2	284.74
201.576	305.08
201.953	277.96
202.329	246.32
202.706	291.52
203.082	314.12
203.459	345.75
203.835	341.23
204.212	320.9
204.588	318.64
204.964	381.91
205.341	334.45
205.717	352.53
206.093	298.3
206.469	386.43
206.846	314.12
207.222	332.19
207.598	329.93
207.974	418.07
208.35	325.42
208.726	293.78
209.102	323.16
209.479	309.6
209.855	277.96
210.231	332.19
210.607	291.52
210.982	275.7
211.358	332.19
211.734	287
212.11	271.18
212.486	232.76
212.862	343.49
213.238	320.9
213.614	345.75
213.989	352.53
214.365	341.23
214.741	327.67
215.116	255.36
215.492	336.71
215.868	325.42
216.243	343.49
216.619	305.08
216.995	298.3
217.37	275.7
217.746	409.03
218.121	289.26
218.497	343.49
218.872	320.9
219.247	327.67
219.623	325.42
219.998	359.31
220.374	348.01
220.749	404.51
221.124	300.56
221.499	273.44
221.875	289.26
222.25	307.34
222.625	264.4
223	399.99
223.376	359.31
223.751	366.09
224.126	343.49
224.501	291.52
224.876	336.71
225.251	368.35
225.626	343.49
226.001	277.96
226.376	341.23
226.751	305.08
227.126	327.67
227.501	350.27
227.875	293.78
228.25	350.27
228.625	359.31
229	341.23
229.375	325.42
229.749	379.65
230.124	289.26
230.499	393.21
230.873	336.71
231.248	327.67
231.623	359.31
231.997	318.64
232.372	338.97
232.746	395.47
233.121	390.95
233.495	397.73
233.87	399.99
234.244	323.16
234.619	411.29
234.993	320.9
235.367	354.79
235.742	354.79
236.116	357.05
236.49	305.08
236.865	384.17
237.239	411.29
237.613	348.01
237.987	381.91
238.361	332.19
238.736	318.64
239.11	291.52
239.484	307.34
239.858	336.71
240.232	338.97
240.606	381.91
240.98	354.79
241.354	363.83
241.728	271.18
242.102	332.19
242.475	388.69
242.849	354.79
243.223	402.25
243.597	399.99
243.971	357.05
244.344	363.83
244.718	397.73
245.092	338.97
245.466	250.84
245.839	415.81
246.213	357.05
246.586	404.51
246.96	332.19
247.334	354.79
247.707	372.87
248.081	332.19
248.454	366.09
248.828	397.73
249.201	363.83
249.574	368.35
249.948	305.08
250.321	341.23
250.694	375.13
251.068	327.67
251.441	368.35
251.814	447.45
252.187	370.61
252.561	366.09
252.934	345.75
253.307	377.39
253.68	370.61
254.053	377.39
254.426	418.07
254.799	381.91
255.172	411.29
255.545	393.21
255.918	348.01
256.291	431.63
256.664	350.27
257.037	327.67
257.41	388.69
257.782	336.71
258.155	390.95
258.528	397.73
258.901	413.55
259.273	418.07
259.646	334.45
260.019	354.79
260.391	359.31
260.764	361.57
261.137	413.55
261.509	451.97
261.882	316.38
262.254	393.21
262.627	350.27
262.999	354.79
263.372	345.75
263.744	366.09
264.116	393.21
264.489	377.39
264.861	393.21
265.233	377.39
265.606	366.09
265.978	375.13
266.35	424.85
266.722	431.63
267.094	393.21
267.467	375.13
267.839	363.83
268.211	363.83
268.583	393.21
268.955	406.77
269.327	390.95
269.699	375.13
270.071	429.37
270.443	368.35
270.815	334.45
271.186	386.43
271.558	393.21
271.93	311.86
272.302	357.05
272.674	454.23
273.045	418.07
273.417	429.37
273.789	433.89
274.16	395.47
274.532	395.47
274.904	427.11
275.275	427.11
275.647	472.3
276.018	402.25
276.39	300.56
276.761	323.16
277.133	386.43
277.504	357.05
277.875	388.69
278.247	424.85
278.618	427.11
278.989	429.37
279.361	474.56
279.732	436.15
280.103	447.45
280.474	429.37
280.846	418.07
281.217	413.55
281.588	411.29
281.959	422.59
282.33	366.09
282.701	429.37
283.072	393.21
283.443	429.37
283.814	427.11
284.185	411.29
284.556	422.59
284.927	422.59
285.297	363.83
285.668	384.17
286.039	415.81
286.41	395.47
286.781	445.19
287.151	377.39
287.522	474.56
287.893	422.59
288.263	404.51
288.634	363.83
289.004	377.39
289.375	431.63
289.745	388.69
290.116	449.71
290.486	447.45
290.857	411.29
291.227	451.97
291.598	431.63
291.968	413.55
292.338	415.81
292.709	449.71
293.079	427.11
293.449	415.81
293.819	438.41
294.189	474.56
294.56	399.99
294.93	445.19
295.3	413.55
295.67	422.59
296.04	447.45
296.41	470.04
296.78	399.99
297.15	467.78
297.52	485.86
297.89	440.67
298.259	429.37
298.629	440.67
298.999	463.26
299.369	420.33
299.739	490.38
300.108	474.56
300.478	474.56
300.848	427.11
301.217	461
301.587	415.81
301.957	449.71
302.326	427.11
302.696	406.77
303.065	461
303.435	442.93
303.804	458.74
304.174	472.3
304.543	458.74
304.912	499.42
305.282	472.3
305.651	465.52
306.02	422.59
306.39	472.3
306.759	397.73
307.128	474.56
307.497	451.97
307.866	546.88
308.235	488.12
308.604	341.23
308.974	440.67
309.343	445.19
309.712	445.19
310.08	472.3
310.449	458.74
310.818	492.64
311.187	481.34
311.556	522.02
311.925	479.08
312.294	449.71
312.662	474.56
313.031	494.9
313.4	562.7
313.769	476.82
314.137	512.98
314.506	488.12
314.874	497.16
315.243	463.26
315.612	494.9
315.98	522.02
316.349	533.32
316.717	522.02
317.085	481.34
317.454	515.24
317.822	461
318.191	515.24
318.559	524.28
318.927	488.12
319.295	542.36
319.664	429.37
320.032	472.3
320.4	512.98
320.768	476.82
321.136	517.5
321.504	447.45
321.872	485.86
322.24	479.08
322.608	492.64
322.976	451.97
323.344	567.22
323.712	544.62
324.08	551.4
324.448	433.89
324.816	540.1
325.183	517.5
325.551	474.56
325.919	497.16
326.287	533.32
326.654	494.9
327.022	497.16
327.389	528.8
327.757	519.76
328.125	549.14
328.492	506.2
328.86	551.4
329.227	517.5
329.594	537.84
329.962	531.06
330.329	601.11
330.697	542.36
331.064	596.59
331.431	492.64
331.798	616.93
332.166	531.06
332.533	639.53
332.9	535.58
333.267	574
333.634	585.3
334.001	571.74
334.368	537.84
334.735	555.92
335.102	515.24
335.469	603.37
335.836	546.88
336.203	524.28
336.57	562.7
336.937	571.74
337.304	605.63
337.67	639.53
338.037	655.35
338.404	580.78
338.771	551.4
339.137	632.75
339.504	662.13
339.87	549.14
340.237	610.15
340.604	512.98
340.97	598.85
341.337	657.61
341.703	655.35
342.069	677.95
342.436	555.92
342.802	576.26
343.169	650.83
343.535	680.21
343.901	598.85
344.267	637.27
344.634	632.75
345	614.67
345.366	594.33
345.732	564.96
346.098	607.89
346.464	594.33
346.83	659.87
347.196	677.95
347.562	677.95
347.928	623.71
348.294	673.43
348.66	625.97
349.026	720.88
349.392	664.39
349.757	736.7
350.123	653.09
350.489	610.15
350.855	680.21
351.22	666.65
351.586	671.17
351.951	705.07
352.317	680.21
352.683	743.48
353.048	698.29
353.414	632.75
353.779	684.73
354.144	727.66
354.51	673.43
354.875	729.92
355.24	702.81
355.606	720.88
355.971	698.29
356.336	729.92
356.701	768.34
357.067	815.8
357.432	766.08
357.797	707.33
358.162	723.14
358.527	729.92
358.892	811.28
359.257	820.32
359.622	833.88
359.987	842.92
360.352	727.66
360.717	799.98
361.082	811.28
361.446	845.18
361.811	784.16
362.176	802.24
362.541	811.28
362.905	937.83
363.27	863.25
363.635	863.25
363.999	883.59
364.364	890.37
364.728	847.44
365.093	998.84
365.457	872.29
365.822	924.27
366.186	998.84
366.55	1021.44
366.915	951.39
367.279	967.21
367.643	971.73
368.008	951.39
368.372	1014.66
368.736	1023.7
369.1	1109.58
369.464	1127.65
369.828	1091.5
370.192	1145.73
370.556	1123.13
370.92	1093.76
371.284	1222.57
371.648	1154.77
372.012	1247.42
372.376	1263.24
372.74	1303.92
373.104	1387.53
373.468	1439.51
373.831	1498.27
374.195	1457.59
374.559	1509.56
374.922	1541.2
375.286	1586.4
375.65	1613.52
376.013	1690.35
376.377	1631.6
376.74	1758.15
377.104	1819.16
377.467	2006.73
377.83	1988.65
378.194	2085.82
378.557	2160.4
378.92	2277.91
379.284	2488.07
379.647	2607.84
380.01	2750.21
380.373	2906.14
380.736	3082.4
381.1	3407.82
381.463	3581.83
381.826	3884.64
382.189	4090.29
382.552	4445.08
382.915	4738.86
383.278	5294.78
383.64	5712.84
384.003	6268.76
384.366	6684.57
384.729	7278.9
385.092	7868.72
385.454	8526.33
385.817	9330.83
386.18	10270.92
386.542	11224.56
386.905	12580.46
387.268	13570.26
387.63	15093.39
387.993	15961.16
388.355	17798.4
388.718	19301.19
389.08	21323.73
389.442	23009.56
389.805	24851.32
390.167	26844.49
390.529	29877.18
390.892	33802.5
391.254	35467.99
391.616	37985.44
391.978	42423.74
392.34	45921.96
392.702	48211.16
393.064	51266.45
393.426	53411.02
393.788	55526.22
394.15	57200.76
394.512	58995.06
394.874	60784.84
395.236	62432.26
395.598	64292.09
395.96	65076.25
396.321	65076.25
396.683	65076.25
397.045	65076.25
397.406	65076.25
397.768	65076.25
398.13	65076.25
398.491	65076.25
398.853	65076.25
399.214	65076.25
399.576	65076.25
399.937	65076.25
400.299	65076.25
400.66	65076.25
401.021	65076.25
401.383	65076.25
401.744	65076.25
402.105	65076.25
402.466	65076.25
402.827	65076.25
403.189	65076.25
403.55	65076.25
403.911	65076.25
404.272	65076.25
404.633	65076.25
404.994	65076.25
405.355	65076.25
405.716	65076.25
406.077	65076.25
406.437	65076.25
406.798	65076.25
407.159	65076.25
407.52	65076.25
407.88	65076.25
408.241	65076.25
408.602	65076.25
408.962	65076.25
409.323	65076.25
409.684	65076.25
410.044	65076.25
410.405	65076.25
410.765	65076.25
411.125	65076.25
411.486	65076.25
411.846	65076.25
412.206	65076.25
412.567	65076.25
412.927	65076.25
413.287	65076.25
413.647	65076.25
414.007	65076.25
414.368	65076.25
414.728	65076.25
415.088	65076.25
415.448	65076.25
415.808	65076.25
416.168	65076.25
416.528	65076.25
416.887	65076.25
417.247	65076.25
417.607	65076.25
417.967	65076.25
418.327	65076.25
418.686	65076.25
419.046	65076.25
419.406	65076.25
419.765	65076.25
420.125	65076.25
420.484	65076.25
420.844	65076.25
421.203	65076.25
421.563	64262.72
421.922	64057.07
422.282	62088.76
422.641	60637.95
423	59383.75
423.36	58520.5
423.719	56387.22
424.078	54244.9
424.437	52540.99
424.796	50861.94
425.155	49499.26
425.515	46943.4
425.874	45354.74
426.233	41440.72
426.592	39160.55
426.95	38236.28
427.309	36371.92
427.668	34918.86
428.027	32155.09
428.386	31050.03
428.745	28268.18
429.103	26760.88
429.462	25495.37
429.821	24008.41
430.179	23377.92
430.538	22128.23
430.897	21448.02
431.255	20349.75
431.614	18962.21
431.972	18259.41
432.33	17411.97
432.689	17348.7
433.047	16049.3
433.405	14960.06
433.764	14643.68
434.122	14266.29
434.48	13534.11
434.838	12494.59
435.197	12410.97
435.555	11911.55
435.913	11156.77
436.271	10948.86
436.629	10282.22
436.987	9934.2
437.345	9511.61
437.703	9168.12
438.061	8661.92
438.418	8212.21
438.776	7825.78
439.134	7769.29
439.492	7274.38
439.849	6917.33
440.207	6526.38
440.565	6424.69
440.922	5963.68
441.28	5719.62
441.637	5432.63
441.995	5294.78
442.352	4951.28
442.71	4856.37
443.067	4704.96
443.425	4485.76
443.782	4320.79
444.139	3929.84
444.496	3929.84
444.854	3999.89
445.211	3710.64
445.568	3712.9
445.925	3432.68
446.282	3349.06
446.639	3249.63
446.996	3141.16
447.353	3283.53
447.71	3249.63
448.067	2998.79
448.424	3010.09
448.781	2738.91
449.137	2664.34
449.494	2567.16
449.851	2528.75
450.208	2388.64
450.564	2298.24
450.921	2135.54
451.278	2094.86
451.634	2194.29
451.991	2051.92
452.347	1997.69
452.704	2040.62
453.06	1857.58
453.416	1805.6
453.773	1776.22
454.129	1611.26
454.485	1640.63
454.841	1721.99
455.198	1615.78
455.554	1507.3
455.91	1563.8
456.266	1570.58
456.622	1486.97
456.978	1342.34
457.334	1301.66
457.69	1281.32
458.046	1335.56
458.402	1265.5
458.758	1195.45
459.114	1107.32
459.469	1206.75
459.825	1105.06
460.181	1035
460.536	1120.87
460.892	987.54
461.248	960.43
461.603	1016.92
461.959	971.73
462.314	976.25
462.67	1007.88
463.025	1007.88
463.38	883.59
463.736	885.85
464.091	944.61
464.446	833.88
464.802	924.27
465.157	915.23
465.512	874.55
465.867	824.84
466.222	809.02
466.577	822.58
466.932	752.52
467.287	813.54
467.642	750.26
467.997	806.76
468.352	795.46
468.707	809.02
469.062	772.86
469.417	754.78
469.771	696.03
470.126	761.56
470.481	727.66
470.835	677.95
471.19	786.42
471.544	732.18
471.899	662.13
472.253	594.33
472.608	689.25
472.962	673.43
473.317	702.81
473.671	711.85
474.025	625.97
474.38	664.39
474.734	659.87
475.088	707.33
475.442	619.19
475.796	680.21
476.15	635.01
476.504	677.95
476.858	675.69
477.212	601.11
477.566	551.4
477.92	700.55
478.274	589.81
478.628	553.66
478.982	603.37
479.336	553.66
479.689	621.45
480.043	551.4
480.397	601.11
480.75	616.93
481.104	549.14
481.457	639.53
481.811	583.04
482.164	594.33
482.518	560.44
482.871	592.07
483.225	668.91
483.578	531.06
483.931	564.96
484.284	546.88
484.638	528.8
484.991	583.04
485.344	574
485.697	569.48
486.05	621.45
486.403	619.19
486.756	567.22
487.109	524.28
487.462	526.54
487.815	508.46
488.168	463.26
488.52	479.08
488.873	558.18
489.226	501.68
489.579	571.74
489.931	574
490.284	589.81
490.637	560.44
490.989	571.74
491.342	531.06
491.694	610.15
492.047	535.58
492.399	485.86
492.751	506.2
493.104	519.76
493.456	574
493.808	576.26
494.16	531.06
494.513	526.54
494.865	560.44
495.217	564.96
495.569	535.58
495.921	580.78
496.273	479.08
496.625	551.4
496.977	564.96
497.329	503.94
497.68	526.54
498.032	546.88
498.384	506.2
498.736	605.63
499.087	614.67
499.439	585.3
499.791	531.06
500.142	614.67
500.494	596.59
500.845	596.59
501.197	564.96
501.548	605.63
501.9	641.79
502.251	574
502.602	632.75
502.954	648.57
503.305	673.43
503.656	732.18
504.007	675.69
504.358	648.57
504.709	677.95
505.061	772.86
505.412	741.22
505.763	684.73
506.113	659.87
506.464	748
506.815	790.94
507.166	748
507.517	768.34
507.868	752.52
508.218	824.84
508.569	727.66
508.92	811.28
509.27	876.81
509.621	668.91
509.971	779.64
510.322	788.68
510.672	822.58
511.023	863.25
511.373	829.36
511.723	937.83
512.074	901.67
512.424	924.27
512.774	894.89
513.124	935.57
513.475	924.27
513.825	1014.66
514.175	973.99
514.525	1001.1
514.875	976.25
515.225	1053.08
515.575	978.51
515.924	1062.12
516.274	1041.78
516.624	1066.64
516.974	1044.04
517.324	1166.07
517.673	1111.84
518.023	1166.07
518.373	1129.91
518.722	1238.39
519.072	1127.65
519.421	1195.45
519.771	1109.58
520.12	1312.96
520.469	1267.76
520.819	1308.44
521.168	1396.57
521.517	1306.18
521.867	1362.68
522.216	1290.36
522.565	1260.98
522.914	1333.3
523.263	1450.81
523.612	1464.37
523.961	1486.97
524.31	1414.65
524.659	1466.63
525.008	1477.93
525.357	1380.75
525.705	1410.13
526.054	1557.02
526.403	1475.67
526.752	1505.05
527.1	1496.01
527.449	1430.47
527.797	1459.85
528.146	1590.92
528.495	1597.7
528.843	1509.56
529.191	1595.44
529.54	1568.32
529.888	1491.49
530.236	1536.68
530.585	1566.06
530.933	1529.9
531.281	1471.15
531.629	1627.08
531.977	1554.76
532.325	1611.26
532.673	1575.1
533.021	1599.96
533.369	1613.52
533.717	1575.1
534.065	1697.13
534.413	1568.32
534.761	1724.25
535.108	1640.63
535.456	1654.19
535.804	1609
536.151	1618.04
536.499	1647.41
536.847	1663.23
537.194	1710.69
537.542	1649.67
537.889	1665.49
538.236	1538.94
538.584	1586.4
538.931	1613.52
539.278	1663.23
539.626	1708.43
539.973	1719.73
540.32	1679.05
540.667	1665.49
541.014	1642.89
541.361	1737.81
541.708	1692.61
542.055	1674.53
542.402	1656.45
542.749	1778.48
543.096	1656.45
543.443	1676.79
543.789	1672.27
544.136	1660.97
544.483	1670.01
544.83	1638.38
545.176	1670.01
545.523	1685.83
545.869	1710.69
546.216	1615.78
546.562	1690.35
546.909	1656.45
547.255	1642.89
547.601	1613.52
547.948	1688.09
548.294	1694.87
548.64	1663.23
548.986	1636.12
549.332	1712.95
549.678	1683.57
550.025	1679.05
550.371	1753.63
550.717	1753.63
551.062	1731.03
551.408	1776.22
551.754	1694.87
552.1	1762.67
552.446	1651.93
552.792	1683.57
553.137	1667.75
553.483	1726.51
553.828	1638.38
554.174	1769.45
554.52	1773.96
554.865	1699.39
555.211	1753.63
555.556	1737.81
555.901	1728.77
556.247	1742.33
556.592	1862.1
556.937	1828.2
557.282	1760.41
557.628	1728.77
557.973	1819.16
558.318	1796.56
558.663	1850.8
559.008	1816.9
559.353	1923.11
559.698	1846.28
560.043	1839.5
560.388	1871.14
560.732	1853.06
561.077	1934.41
561.422	1875.66
561.766	1871.14
562.111	1999.95
562.456	2022.55
562.8	1923.11
563.145	1959.27
563.489	1984.13
563.834	2018.03
564.178	1911.81
564.523	1963.79
564.867	2011.25
565.211	1909.55
565.555	1952.49
565.9	1981.87
566.244	2051.92
566.588	2115.2
566.932	2022.55
567.276	2112.94
567.62	2006.73
567.964	2081.3
568.308	2072.26
568.652	2112.94
568.996	1988.65
569.339	2164.91
569.683	2015.77
570.027	2140.06
570.371	2106.16
570.714	2063.22
571.058	2054.18
571.401	2189.77
571.745	2194.29
572.088	2126.5
572.432	2212.37
572.775	2225.93
573.118	2182.99
573.462	2185.25
573.805	2223.67
574.148	2151.36
574.491	2092.6
574.835	2092.6
575.178	2103.9
575.521	2162.65
575.864	2185.25
576.207	2325.36
576.55	2192.03
576.892	2205.59
577.235	2180.73
577.578	2126.5
577.921	2192.03
578.264	2124.24
578.606	2180.73
578.949	2232.71
579.292	2133.28
579.634	2155.88
579.977	2092.6
580.319	2124.24
580.662	2180.73
581.004	2002.21
581.346	2131.02
581.689	2173.95
582.031	2135.54
582.373	2117.46
582.715	2047.4
583.057	2067.74
583.4	1941.19
583.742	2081.3
584.084	1984.13
584.426	1981.87
584.768	2013.51
585.109	2079.04
585.451	2006.73
585.793	1950.23
586.135	1873.4
586.477	1986.39
586.818	1986.39
587.16	1850.8
587.502	1909.55
587.843	1905.03
588.185	1905.03
588.526	1850.8
588.868	1907.29
589.209	1891.48
589.55	1807.86
589.892	1798.82
590.233	1762.67
590.574	1862.1
590.915	1667.75
591.257	1760.41
591.598	1609
591.939	1656.45
592.28	1670.01
592.621	1595.44
592.962	1697.13
593.303	1554.76
593.643	1701.65
593.984	1572.84
594.325	1694.87
594.666	1534.42
595.006	1568.32
595.347	1520.86
595.688	1482.45
596.028	1509.56
596.369	1516.34
596.709	1486.97
597.05	1502.79
597.39	1430.47
597.73	1462.11
598.071	1446.29
598.411	1380.75
598.751	1383.01
599.091	1344.6
599.431	1373.98
599.772	1398.83
600.112	1376.23
600.452	1383.01
600.792	1425.95
601.132	1385.27
601.471	1263.24
601.811	1326.52
602.151	1274.54
602.491	1337.82
602.831	1328.78
603.17	1199.97
603.51	1256.46
603.849	1199.97
604.189	1283.58
604.528	1258.72
604.868	1260.98
605.207	1263.24
605.547	1179.63
605.886	1297.14
606.225	1238.39
606.565	1163.81
606.904	1224.83
607.243	1184.15
607.582	1105.06
607.921	1199.97
608.26	1086.98
608.599	1157.03
608.938	1091.5
609.277	1107.32
609.616	1089.24
609.955	1125.39
610.293	1041.78
610.632	1077.94
610.971	1145.73
611.309	1147.99
611.648	1127.65
611.987	1127.65
612.325	1068.9
612.664	1019.18
613.002	1114.09
613.34	1125.39
613.679	1093.76
614.017	1039.52
614.355	1028.22
614.694	994.32
615.032	980.77
615.37	1082.46
615.708	1114.09
616.046	1046.3
616.384	1102.8
616.722	1062.12
617.06	1032.74
617.398	1073.42
617.736	1035
618.073	1039.52
618.411	1082.46
618.749	1012.4
619.086	1075.68
619.424	1048.56
619.762	960.43
620.099	1048.56
620.437	1041.78
620.774	987.54
621.112	980.77
621.449	1030.48
621.786	1089.24
622.123	1044.04
622.461	1077.94
622.798	998.84
623.135	1003.36
623.472	1001.1
623.809	1003.36
624.146	951.39
624.483	915.23
624.82	944.61
625.157	992.06
625.494	989.8
625.83	1014.66
626.167	973.99
626.504	903.93
626.841	960.43
627.177	953.65
627.514	1007.88
627.85	964.95
628.187	976.25
628.523	976.25
628.86	946.87
629.196	960.43
629.532	926.53
629.869	946.87
630.205	928.79
630.541	935.57
630.877	892.63
631.213	946.87
631.549	969.47
631.885	940.09
632.221	940.09
632.557	910.71
632.893	1007.88
633.229	933.31
633.564	870.03
633.9	912.97
634.236	854.21
634.572	926.53
634.907	874.55
635.243	924.27
635.578	865.51
635.914	833.88
636.249	795.46
636.585	874.55
636.92	953.65
637.255	865.51
637.59	750.26
637.926	818.06
638.261	883.59
638.596	894.89
638.931	797.72
639.266	838.4
639.601	815.8
639.936	858.73
640.271	761.56
640.606	777.38
640.94	772.86
641.275	775.12
641.61	770.6
641.945	847.44
642.279	824.84
642.614	723.14
642.948	838.4
643.283	736.7
643.617	752.52
643.952	795.46
644.286	854.21
644.62	759.3
644.955	754.78
645.289	725.4
645.623	707.33
645.957	686.99
646.291	698.29
646.625	680.21
646.959	714.11
647.293	655.35
647.627	675.69
647.961	700.55
648.295	705.07
648.629	766.08
648.962	666.65
649.296	680.21
649.63	689.25
649.963	689.25
650.297	625.97
650.63	569.48
650.964	592.07
651.297	623.71
651.631	646.31
651.964	673.43
652.297	639.53
652.631	659.87
652.964	625.97
653.297	603.37
653.63	601.11
653.963	646.31
654.296	596.59
654.629	639.53
654.962	594.33
655.295	619.19
655.628	542.36
655.961	576.26
656.293	578.52
656.626	574
656.959	635.01
657.291	623.71
657.624	553.66
657.956	526.54
658.289	567.22
658.621	596.59
658.954	571.74
659.286	594.33
659.618	587.56
659.95	528.8
660.283	546.88
660.615	576.26
660.947	544.62
661.279	533.32
661.611	499.42
661.943	567.22
662.275	549.14
662.607	528.8
662.939	553.66
663.27	526.54
663.602	571.74
663.934	555.92
664.266	506.2
664.597	528.8
664.929	526.54
665.26	463.26
665.592	427.11
665.923	512.98
666.255	429.37
666.586	508.46
666.917	474.56
667.248	544.62
667.58	522.02
667.911	497.16
668.242	506.2
668.573	429.37
668.904	483.6
669.235	492.64
669.566	463.26
669.897	492.64
670.228	418.07
670.558	454.23
670.889	508.46
671.22	449.71
671.551	438.41
671.881	449.71
672.212	422.59
672.542	492.64
672.873	479.08
673.203	442.93
673.533	451.97
673.864	442.93
674.194	467.78
674.524	526.54
674.855	429.37
675.185	445.19
675.515	433.89
675.845	377.39
676.175	463.26
676.505	474.56
676.835	461
677.165	488.12
677.494	481.34
677.824	447.45
678.154	470.04
678.484	431.63
678.813	442.93
679.143	476.82
679.472	463.26
679.802	413.55
680.131	411.29
680.461	488.12
680.79	465.52
681.119	440.67
681.449	512.98
681.778	451.97
682.107	395.47
682.436	334.45
682.765	447.45
683.094	332.19
683.423	390.95
683.752	467.78
684.081	384.17
684.41	490.38
684.739	427.11
685.067	420.33
685.396	456.49
685.725	375.13
686.053	404.51
686.382	422.59
686.711	422.59
687.039	361.57
687.367	395.47
687.696	409.03
688.024	431.63
688.352	427.11
688.681	431.63
689.009	343.49
689.337	366.09
689.665	399.99
689.993	404.51
690.321	366.09
690.649	345.75
690.977	431.63
691.305	345.75
691.633	366.09
691.961	388.69
692.288	384.17
692.616	323.16
692.944	368.35
693.271	397.73
693.599	413.55
693.926	390.95
694.254	379.65
694.581	377.39
694.908	388.69
695.236	409.03
695.563	348.01
695.89	456.49
696.217	341.23
696.544	316.38
696.871	379.65
697.198	338.97
697.525	368.35
697.852	404.51
698.179	363.83
698.506	343.49
698.833	456.49
699.16	409.03
699.486	402.25
699.813	375.13
700.139	388.69
700.466	386.43
700.793	368.35
701.119	361.57
701.445	354.79
701.772	366.09
702.098	424.85
702.424	345.75
702.75	368.35
703.077	386.43
703.403	354.79
703.729	298.3
704.055	352.53
704.381	282.48
704.707	352.53
705.033	307.34
705.358	327.67
705.684	323.16
706.01	271.18
706.336	334.45
706.661	345.75
706.987	370.61
707.312	284.74
707.638	393.21
707.963	332.19
708.289	359.31
708.614	309.6
708.939	345.75
709.265	329.93
709.59	318.64
709.915	345.75
710.24	361.57
710.565	314.12
710.89	370.61
711.215	338.97
711.54	293.78
711.865	323.16
712.19	372.87
712.515	300.56
712.839	375.13
713.164	307.34
713.489	336.71
713.813	268.92
714.138	329.93
714.462	300.56
714.787	287
715.111	409.03
715.435	302.82
715.76	316.38
716.084	341.23
716.408	275.7
716.732	277.96
717.056	334.45
717.381	323.16
717.705	307.34
718.028	350.27
718.352	357.05
718.676	293.78
719	345.75
719.324	334.45
719.648	323.16
719.971	241.8
720.295	298.3
720.618	255.36
720.942	287
721.265	329.93
721.589	329.93
721.912	384.17
722.236	363.83
722.559	345.75
722.882	359.31
723.205	332.19
723.528	287
723.851	336.71
724.174	323.16
724.497	366.09
724.82	384.17
725.143	239.54
725.466	266.66
725.789	318.64
726.112	309.6
726.434	296.04
726.757	327.67
727.08	336.71
727.402	293.78
727.725	357.05
728.047	264.4
728.37	345.75
728.692	246.32
729.014	293.78
729.336	366.09
729.659	318.64
729.981	336.71
730.303	323.16
730.625	239.54
730.947	350.27
731.269	289.26
731.591	264.4
731.913	296.04
732.235	264.4
732.556	341.23
732.878	253.1
733.2	300.56
733.521	298.3
733.843	300.56
734.164	323.16
734.486	323.16
734.807	336.71
735.129	325.42
735.45	277.96
735.771	277.96
736.092	327.67
736.414	332.19
736.735	325.42
737.056	298.3
737.377	363.83
737.698	332.19
738.019	296.04
738.34	302.82
738.66	289.26
738.981	262.14
739.302	239.54
739.623	271.18
739.943	377.39
740.264	314.12
740.584	282.48
740.905	293.78
741.225	397.73
741.546	268.92
741.866	246.32
742.186	289.26
742.507	323.16
742.827	284.74
743.147	300.56
743.467	287
743.787	228.24
744.107	248.58
744.427	275.7
744.747	223.72
745.067	275.7
745.386	287
745.706	316.38
746.026	300.56
746.346	225.98
746.665	235.02
746.985	381.91
747.304	255.36
747.624	257.62
747.943	255.36
748.262	280.22
748.582	239.54
748.901	311.86
749.22	291.52
749.539	390.95
749.858	262.14
750.177	268.92
750.496	323.16
750.815	325.42
751.134	239.54
751.453	311.86
751.772	264.4
752.09	259.88
752.409	230.5
752.728	273.44
753.046	275.7
753.365	273.44
753.683	309.6
754.002	287
754.32	216.94
754.639	293.78
754.957	336.71
755.275	282.48
755.593	293.78
755.911	284.74
756.23	273.44
756.548	259.88
756.866	271.18
757.183	262.14
757.501	298.3
757.819	225.98
758.137	311.86
758.455	352.53
758.772	287
759.09	300.56
759.408	264.4
759.725	318.64
760.043	287
760.36	282.48
760.677	314.12
760.995	264.4
761.312	264.4
761.629	309.6
761.946	354.79
762.264	289.26
762.581	305.08
762.898	316.38
763.215	268.92
763.532	237.28
763.848	257.62
764.165	259.88
764.482	237.28
764.799	266.66
765.115	318.64
765.432	284.74
765.749	250.84
766.065	275.7
766.382	280.22
766.698	262.14
767.014	332.19
767.331	280.22
767.647	264.4
767.963	259.88
768.279	307.34
768.595	352.53
768.911	298.3
769.227	302.82
769.543	314.12
769.859	314.12
770.175	280.22
770.491	307.34
770.807	228.24
771.122	248.58
771.438	296.04
771.754	345.75
772.069	307.34
772.385	309.6
772.7	345.75
773.016	284.74
773.331	296.04
773.646	287
773.961	298.3
774.277	280.22
774.592	302.82
774.907	244.06
775.222	309.6
775.537	282.48
775.852	287
776.167	280.22
776.482	302.82
776.796	314.12
777.111	239.54
777.426	266.66
777.74	259.88
778.055	302.82
778.369	266.66
778.684	277.96
778.998	327.67
779.313	275.7
779.627	296.04
779.941	284.74
780.255	379.65
780.57	287
780.884	291.52
781.198	277.96
781.512	293.78
781.826	282.48
782.14	273.44
782.453	302.82
782.767	271.18
783.081	235.02
783.395	212.42
783.708	253.1
784.022	259.88
784.335	284.74
784.649	264.4
784.962	277.96
785.276	323.16
785.589	318.64
785.902	302.82
786.216	332.19
786.529	259.88
786.842	253.1
787.155	241.8
787.468	225.98
787.781	264.4
788.094	307.34
788.407	237.28
788.72	266.66
789.032	271.18
789.345	232.76
789.658	327.67
789.97	314.12
790.283	293.78
790.595	228.24
790.908	277.96
791.22	257.62
791.532	250.84
791.845	268.92
792.157	216.94
792.469	300.56
792.781	271.18
793.093	311.86
793.405	273.44
793.717	244.06
794.029	257.62
794.341	287
794.653	277.96
794.965	287
795.276	275.7
795.588	323.16
795.9	239.54
796.211	300.56
796.523	298.3
796.834	320.9
797.146	264.4
797.457	275.7
797.768	284.74
798.08	275.7
798.391	296.04
798.702	311.86
799.013	253.1
799.324	268.92
799.635	219.2
799.946	300.56
800.257	275.7
800.568	359.31
800.878	300.56
801.189	325.42
801.5	255.36
801.81	327.67
802.121	289.26
802.431	268.92
802.742	293.78
803.052	268.92
803.363	259.88
803.673	219.2
803.983	284.74
804.293	262.14
804.603	282.48
804.913	314.12
805.224	318.64
805.533	255.36
805.843	203.38
806.153	255.36
806.463	230.5
806.773	293.78
807.083	284.74
807.392	212.42
807.702	266.66
808.011	289.26
808.321	262.14
808.63	287
808.94	221.46
809.249	241.8
809.558	244.06
809.868	248.58
810.177	275.7
810.486	293.78
810.795	196.6
811.104	296.04
811.413	280.22
811.722	264.4
812.031	314.12
812.339	262.14
812.648	314.12
812.957	305.08
813.266	291.52
813.574	235.02
813.883	264.4
814.191	253.1
814.5	250.84
814.808	241.8
815.116	302.82
815.424	275.7
815.733	284.74
816.041	255.36
816.349	237.28
816.657	259.88
816.965	253.1
817.273	289.26
817.581	264.4
817.889	305.08
818.196	280.22
818.504	343.49
818.812	302.82
819.12	264.4
819.427	264.4
819.735	329.93
820.042	262.14
820.349	302.82
820.657	327.67
820.964	275.7
821.271	237.28
821.579	259.88
821.886	318.64
822.193	287
822.5	225.98
822.807	273.44
823.114	250.84
823.421	289.26
823.727	266.66
824.034	198.86
824.341	271.18
824.648	287
824.954	327.67
825.261	230.5
825.567	282.48
825.874	284.74
826.18	237.28
826.486	259.88
826.793	298.3
827.099	219.2
827.405	282.48
827.711	257.62
828.017	318.64
828.323	287
828.629	237.28
828.935	239.54
829.241	268.92
829.547	277.96
829.852	309.6
830.158	343.49
830.464	305.08
830.769	350.27
831.075	282.48
831.38	298.3
831.686	268.92
831.991	307.34
832.296	259.88
832.601	232.76
832.907	284.74
833.212	296.04
833.517	345.75
833.822	287
834.127	164.97
834.432	284.74
834.737	210.16
835.041	325.42
835.346	259.88
835.651	235.02
835.956	327.67
836.26	318.64
836.565	255.36
836.869	264.4
837.174	334.45
837.478	253.1
837.782	250.84
838.087	280.22
838.391	257.62
838.695	248.58
838.999	230.5
839.303	219.2
839.607	246.32
839.911	273.44
840.215	287
840.519	296.04
840.822	291.52
841.126	241.8
841.43	228.24
841.733	255.36
842.037	253.1
842.34	203.38
842.644	221.46
842.947	253.1
843.251	264.4
843.554	244.06
843.857	239.54
844.16	266.66
844.463	207.9
844.766	225.98
845.069	262.14
845.372	314.12
845.675	271.18
845.978	296.04
846.281	282.48
846.583	268.92
846.886	271.18
847.189	216.94
847.491	259.88
847.794	307.34
848.096	237.28
848.399	271.18
848.701	287
849.003	264.4
849.305	250.84
849.608	277.96
849.91	316.38
850.212	277.96
850.514	214.68
850.816	259.88
851.118	212.42
851.419	230.5
851.721	268.92
852.023	266.66
852.325	323.16
852.626	237.28
852.928	277.96
853.229	255.36
853.531	318.64
853.832	307.34
854.133	248.58
854.435	221.46
854.736	244.06
855.037	271.18
855.338	311.86
855.639	257.62
855.94	262.14
856.241	287
856.542	266.66
856.843	162.71
857.144	253.1
857.444	237.28
857.745	305.08
858.046	214.68
858.346	262.14
858.647	284.74
858.947	348.01
859.247	314.12
859.548	266.66
859.848	316.38
860.148	363.83
860.448	268.92
860.749	264.4
861.049	273.44
861.349	311.86
861.648	241.8
861.948	257.62
862.248	214.68
862.548	287
862.848	214.68
863.147	298.3
863.447	314.12
863.746	253.1
864.046	266.66
864.345	282.48
864.645	293.78
864.944	293.78
865.243	282.48
865.542	343.49
865.842	280.22
866.141	277.96
866.44	244.06
866.739	221.46
867.038	268.92
867.337	329.93
867.635	259.88
867.934	282.48
868.233	246.32
868.531	309.6
868.83	275.7
869.129	316.38
869.427	298.3
869.725	253.1
870.024	264.4
870.322	266.66
870.62	309.6
870.918	253.1
871.217	259.88
871.515	253.1
871.813	262.14
872.111	255.36
872.409	223.72
872.706	296.04
873.004	271.18
873.302	235.02
873.6	302.82
873.897	250.84
874.195	253.1
874.492	289.26
874.79	244.06
875.087	203.38
875.384	280.22
875.682	266.66
875.979	253.1
876.276	246.32
876.573	284.74
876.87	284.74
877.167	284.74
