Data from PL_2polymer_F8BT_MEHPPV_USB2H096331_0492.txt Node
Date: Tue Dec 15 16:16:17 CET 2020
User: spadmin
Spectrometer: USB2+H09633
Trigger mode: 0
Integration Time (sec): 1.000000E-2
Scans to average: 1
Electric dark correction enabled: true
Nonlinearity correction enabled: false
Boxcar width: 0
XAxis mode: Wavelengths
Number of Pixels in Spectrum: 2048
>>>>>Begin Spectral Data<<<<<
174.027	-77.12
174.405	-77.12
174.783	-77.12
175.162	-92.94
175.54	-104.23
175.918	-104.23
176.296	-111.01
176.674	-92.94
177.052	-124.57
177.43	-151.69
177.808	-27.4
178.186	-56.78
178.564	44.91
178.942	17.8
179.32	-36.44
179.698	-22.88
180.076	6.5
180.453	51.69
180.831	130.79
181.209	103.67
181.587	99.15
181.965	169.2
182.342	108.19
182.72	157.91
183.098	234.74
183.475	221.18
183.853	164.68
184.231	252.82
184.608	200.84
184.986	270.9
185.363	279.94
185.741	304.79
186.118	322.87
186.496	307.05
186.873	359.03
187.251	300.27
187.628	340.95
188.006	365.81
188.383	383.89
188.76	311.57
189.138	282.2
189.515	345.47
189.892	345.47
190.27	298.01
190.647	288.98
191.024	449.42
191.401	302.53
191.778	320.61
192.155	392.93
192.533	327.39
192.91	338.69
193.287	329.65
193.664	288.98
194.041	291.24
194.418	352.25
194.795	327.39
195.172	311.57
195.549	273.16
195.926	288.98
196.302	327.39
196.679	304.79
197.056	340.95
197.433	313.83
197.81	349.99
198.187	275.42
198.563	365.81
198.94	356.77
199.317	279.94
199.693	313.83
200.07	415.53
200.447	288.98
200.823	313.83
201.2	307.05
201.576	325.13
201.953	230.22
202.329	309.31
202.706	279.94
203.082	302.53
203.459	345.47
203.835	336.43
204.212	345.47
204.588	359.03
204.964	340.95
205.341	349.99
205.717	349.99
206.093	261.86
206.469	331.91
206.846	275.42
207.222	266.38
207.598	241.52
207.974	368.07
208.35	356.77
208.726	273.16
209.102	359.03
209.479	320.61
209.855	370.33
210.231	322.87
210.607	318.35
210.982	282.2
211.358	374.85
211.734	246.04
212.11	316.09
212.486	345.47
212.862	359.03
213.238	311.57
213.614	320.61
213.989	320.61
214.365	363.55
214.741	368.07
215.116	345.47
215.492	390.67
215.868	270.9
216.243	386.15
216.619	311.57
216.995	404.23
217.37	313.83
217.746	377.11
218.121	320.61
218.497	334.17
218.872	313.83
219.247	334.17
219.623	302.53
219.998	338.69
220.374	347.73
220.749	338.69
221.124	334.17
221.499	374.85
221.875	331.91
222.25	291.24
222.625	411.01
223	429.08
223.376	300.27
223.751	395.19
224.126	365.81
224.501	340.95
224.876	343.21
225.251	352.25
225.626	395.19
226.001	395.19
226.376	379.37
226.751	327.39
227.126	397.45
227.501	291.24
227.875	298.01
228.25	288.98
228.625	433.6
229	352.25
229.375	320.61
229.749	338.69
230.124	359.03
230.499	293.5
230.873	298.01
231.248	347.73
231.623	311.57
231.997	363.55
232.372	352.25
232.746	334.17
233.121	390.67
233.495	490.1
233.87	406.49
234.244	399.71
234.619	356.77
234.993	413.27
235.367	399.71
235.742	365.81
236.116	316.09
236.49	318.35
236.865	363.55
237.239	309.31
237.613	388.41
237.987	356.77
238.361	386.15
238.736	345.47
239.11	320.61
239.484	365.81
239.858	390.67
240.232	433.6
240.606	349.99
240.98	361.29
241.354	368.07
241.728	345.47
242.102	374.85
242.475	363.55
242.849	343.21
243.223	397.45
243.597	365.81
243.971	392.93
244.344	388.41
244.718	386.15
245.092	359.03
245.466	377.11
245.839	386.15
246.213	395.19
246.586	345.47
246.96	395.19
247.334	363.55
247.707	316.09
248.081	311.57
248.454	349.99
248.828	347.73
249.201	374.85
249.574	370.33
249.948	352.25
250.321	365.81
250.694	322.87
251.068	300.27
251.441	356.77
251.814	361.29
252.187	368.07
252.561	422.31
252.934	381.63
253.307	372.59
253.68	401.97
254.053	381.63
254.426	370.33
254.799	406.49
255.172	349.99
255.545	388.41
255.918	318.35
256.291	465.24
256.664	343.21
257.037	379.37
257.41	336.43
257.782	388.41
258.155	352.25
258.528	386.15
258.901	399.71
259.273	447.16
259.646	429.08
260.019	404.23
260.391	413.27
260.764	401.97
261.137	433.6
261.509	429.08
261.882	390.67
262.254	404.23
262.627	372.59
262.999	374.85
263.372	399.71
263.744	379.37
264.116	388.41
264.489	413.27
264.861	424.57
265.233	440.38
265.606	411.01
265.978	401.97
266.35	392.93
266.722	386.15
267.094	406.49
267.467	478.8
267.839	381.63
268.211	311.57
268.583	433.6
268.955	429.08
269.327	379.37
269.699	379.37
270.071	388.41
270.443	381.63
270.815	415.53
271.186	417.79
271.558	383.89
271.93	368.07
272.302	347.73
272.674	438.12
273.045	392.93
273.417	404.23
273.789	349.99
274.16	408.75
274.532	365.81
274.904	431.34
275.275	429.08
275.647	426.82
276.018	431.34
276.39	442.64
276.761	359.03
277.133	433.6
277.504	417.79
277.875	474.28
278.247	429.08
278.618	347.73
278.989	365.81
279.361	399.71
279.732	474.28
280.103	449.42
280.474	390.67
280.846	404.23
281.217	478.8
281.588	424.57
281.959	478.8
282.33	363.55
282.701	433.6
283.072	374.85
283.443	408.75
283.814	508.18
284.185	444.9
284.556	474.28
284.927	401.97
285.297	478.8
285.668	467.5
286.039	483.32
286.41	406.49
286.781	372.59
287.151	413.27
287.522	476.54
287.893	374.85
288.263	406.49
288.634	408.75
289.004	397.45
289.375	404.23
289.745	415.53
290.116	420.05
290.486	397.45
290.857	424.57
291.227	451.68
291.598	483.32
291.968	392.93
292.338	429.08
292.709	499.14
293.079	496.88
293.449	453.94
293.819	404.23
294.189	438.12
294.56	467.5
294.93	433.6
295.3	383.89
295.67	469.76
296.04	433.6
296.41	429.08
296.78	444.9
297.15	503.66
297.52	415.53
297.89	465.24
298.259	481.06
298.629	388.41
298.999	505.92
299.369	431.34
299.739	447.16
300.108	426.82
300.478	465.24
300.848	456.2
301.217	501.4
301.587	483.32
301.957	424.57
302.326	444.9
302.696	472.02
303.065	483.32
303.435	458.46
303.804	487.84
304.174	399.71
304.543	438.12
304.912	424.57
305.282	458.46
305.651	503.66
306.02	444.9
306.39	476.54
306.759	472.02
307.128	456.2
307.497	476.54
307.866	505.92
308.235	431.34
308.604	460.72
308.974	456.2
309.343	503.66
309.712	476.54
310.08	499.14
310.449	492.36
310.818	487.84
311.187	505.92
311.556	483.32
311.925	490.1
312.294	447.16
312.662	551.12
313.031	458.46
313.4	456.2
313.769	499.14
314.137	483.32
314.506	560.15
314.874	575.97
315.243	442.64
315.612	530.78
315.98	535.3
316.349	512.7
316.717	462.98
317.085	519.48
317.454	490.1
317.822	453.94
318.191	431.34
318.559	478.8
318.927	537.56
319.295	530.78
319.664	551.12
320.032	524
320.4	557.89
320.768	444.9
321.136	510.44
321.504	510.44
321.872	571.45
322.24	458.46
322.608	505.92
322.976	533.04
323.344	469.76
323.712	505.92
324.08	539.82
324.448	510.44
324.816	485.58
325.183	496.88
325.551	533.04
325.919	564.67
326.287	526.26
326.654	494.62
327.022	490.1
327.389	537.56
327.757	508.18
328.125	458.46
328.492	517.22
328.86	526.26
329.227	632.47
329.594	492.36
329.962	490.1
330.329	508.18
330.697	530.78
331.064	512.7
331.431	575.97
331.798	481.06
332.166	557.89
332.533	632.47
332.9	510.44
333.267	596.31
333.634	451.68
334.001	569.19
334.368	557.89
334.735	571.45
335.102	600.83
335.469	542.08
335.836	546.6
336.203	598.57
336.57	553.38
336.937	553.38
337.304	582.75
337.67	609.87
338.037	596.31
338.404	510.44
338.771	691.22
339.137	625.69
339.504	566.93
339.87	594.05
340.237	632.47
340.604	648.29
340.97	679.93
341.337	616.65
341.703	675.41
342.069	589.53
342.436	578.23
342.802	596.31
343.169	562.41
343.535	585.01
343.901	643.77
344.267	521.74
344.634	528.52
345	661.85
345.366	598.57
345.732	571.45
346.098	643.77
346.464	657.33
346.83	682.19
347.196	646.03
347.562	664.11
347.928	591.79
348.294	616.65
348.66	639.25
349.026	707.04
349.392	718.34
349.757	729.64
350.123	684.45
350.489	695.74
350.855	661.85
351.22	693.48
351.586	675.41
351.951	636.99
352.317	621.17
352.683	704.78
353.048	716.08
353.414	641.51
353.779	713.82
354.144	754.5
354.51	704.78
354.875	686.71
355.24	754.5
355.606	759.02
355.971	754.5
356.336	743.2
356.701	684.45
357.067	754.5
357.432	749.98
357.797	749.98
358.162	792.92
358.527	783.88
358.892	813.26
359.257	842.63
359.622	745.46
359.987	770.32
360.352	847.15
360.717	885.57
361.082	831.33
361.446	829.07
361.811	824.55
362.176	926.25
362.541	847.15
362.905	928.51
363.27	890.09
363.635	935.29
363.999	908.17
364.364	955.62
364.728	917.21
365.093	969.18
365.457	892.35
365.822	876.53
366.186	928.51
366.55	1034.72
366.915	1064.1
367.279	1113.81
367.643	994.04
368.008	1064.1
368.372	1091.21
368.736	1018.9
369.1	996.3
369.464	1079.92
369.828	1100.25
370.192	1116.07
370.556	1125.11
370.92	1183.87
371.284	1174.83
371.648	1224.54
372.012	1215.5
372.376	1287.82
372.74	1319.46
373.104	1364.65
373.468	1488.94
373.831	1536.4
374.195	1468.61
374.559	1527.36
374.922	1531.88
375.286	1588.38
375.65	1568.04
376.013	1617.75
376.377	1773.68
376.74	1764.64
377.104	1848.26
377.467	2001.92
377.83	2013.22
378.194	2203.05
378.557	2415.47
378.92	2356.72
379.284	2575.92
379.647	2801.9
380.01	2772.53
380.373	2939.75
380.736	3258.39
381.1	3504.71
381.463	3665.16
381.826	4078.71
382.189	4178.14
382.552	4508.07
382.915	4702.42
383.278	5091.11
383.64	5755.5
384.003	6336.27
384.366	6706.89
384.729	7452.63
385.092	7839.06
385.454	8722.65
385.817	9289.87
386.18	10252.56
386.542	11296.6
386.905	12618.59
387.268	13969.97
387.63	15459.2
387.993	16458.04
388.355	17983.43
388.718	19746.09
389.08	21183.34
389.442	23581.02
389.805	25585.49
390.167	27402.39
390.529	30631.68
390.892	34179.61
391.254	35766.01
391.616	37987.42
391.978	42430.24
392.34	46762.33
392.702	48730.64
393.064	52075.18
393.426	53736.16
393.788	55837.8
394.15	57329.28
394.512	59055.79
394.874	61046.7
395.236	62669.26
395.598	64605.93
395.96	65078.23
396.321	65078.23
396.683	65078.23
397.045	65078.23
397.406	65078.23
397.768	65078.23
398.13	65078.23
398.491	65078.23
398.853	65078.23
399.214	65078.23
399.576	65078.23
399.937	65078.23
400.299	65078.23
400.66	65078.23
401.021	65078.23
401.383	65078.23
401.744	65078.23
402.105	65078.23
402.466	65078.23
402.827	65078.23
403.189	65078.23
403.55	65078.23
403.911	65078.23
404.272	65078.23
404.633	65078.23
404.994	65078.23
405.355	65078.23
405.716	65078.23
406.077	65078.23
406.437	65078.23
406.798	65078.23
407.159	65078.23
407.52	65078.23
407.88	65078.23
408.241	65078.23
408.602	65078.23
408.962	65078.23
409.323	65078.23
409.684	65078.23
410.044	65078.23
410.405	65078.23
410.765	65078.23
411.125	65078.23
411.486	65078.23
411.846	65078.23
412.206	65078.23
412.567	65078.23
412.927	65078.23
413.287	65078.23
413.647	65078.23
414.007	65078.23
414.368	65078.23
414.728	65078.23
415.088	65078.23
415.448	65078.23
415.808	65078.23
416.168	65078.23
416.528	65078.23
416.887	65078.23
417.247	65078.23
417.607	65078.23
417.967	65078.23
418.327	65078.23
418.686	65078.23
419.046	65078.23
419.406	65078.23
419.765	65078.23
420.125	65078.23
420.484	65078.23
420.844	65078.23
421.203	65078.23
421.563	64626.27
421.922	64266.95
422.282	62574.34
422.641	61331.44
423	59776.68
423.36	58875.01
423.719	57040.03
424.078	54895.45
424.437	53159.9
424.796	51616.44
425.155	50154.33
425.515	47363.44
425.874	46213.19
426.233	42093.53
426.592	39783.98
426.95	38880.05
427.309	36473.33
427.668	36001.03
428.027	33058.74
428.386	31564.99
428.745	29131.15
429.103	27445.32
429.462	26276.99
429.821	24595.68
430.179	23646.55
430.538	22686.13
430.897	22091.79
431.255	20573.19
431.614	19610.5
431.972	18948.37
432.33	17978.91
432.689	17813.94
433.047	16598.15
433.405	15463.72
433.764	14914.58
434.122	14496.51
434.48	13560.94
434.838	13115.76
435.197	12534.98
435.555	12168.89
435.913	11746.3
436.271	11090.95
436.629	10580.23
436.987	10157.64
437.345	9466.14
437.703	9330.55
438.061	8962.19
438.418	8442.43
438.776	8123.8
439.134	7891.04
439.492	7502.35
439.849	6862.81
440.207	6720.44
440.565	6374.69
440.922	6089.95
441.28	5626.69
441.637	5674.14
441.995	5323.87
442.352	5145.34
442.71	4932.92
443.067	4788.29
443.425	4600.73
443.782	4451.58
444.139	4284.35
444.496	4171.36
444.854	3873.06
445.211	3710.35
445.568	3778.15
445.925	3502.45
446.282	3398.5
446.639	3434.66
446.996	3299.07
447.353	3267.43
447.71	3219.97
448.067	3163.48
448.424	2966.87
448.781	2944.27
449.137	2835.8
449.494	2580.44
449.851	2514.91
450.208	2381.58
450.564	2345.42
450.921	2200.79
451.278	2239.21
451.634	2284.4
451.991	2291.18
452.347	2209.83
452.704	2040.34
453.06	1997.41
453.416	1868.59
453.773	1809.84
454.129	1884.41
454.485	1717.19
454.841	1635.83
455.198	1642.61
455.554	1536.4
455.91	1484.42
456.266	1601.94
456.622	1464.09
456.978	1430.19
457.334	1323.98
457.69	1285.56
458.046	1231.32
458.402	1262.96
458.758	1179.35
459.114	1224.54
459.469	1210.99
459.825	1095.73
460.181	1107.03
460.536	1097.99
460.892	1057.32
461.248	975.96
461.603	1073.14
461.959	1014.38
462.314	1061.84
462.67	1036.98
463.025	951.1
463.38	926.25
463.736	881.05
464.091	926.25
464.446	917.21
464.802	833.59
465.157	910.43
465.512	826.81
465.867	878.79
466.222	801.96
466.577	752.24
466.932	822.29
467.287	749.98
467.642	856.19
467.997	811
468.352	872.01
468.707	788.4
469.062	716.08
469.417	774.84
469.771	731.9
470.126	765.8
470.481	673.15
470.835	691.22
471.19	664.11
471.544	736.42
471.899	709.3
472.253	738.68
472.608	736.42
472.962	691.22
473.317	655.07
473.671	659.59
474.025	693.48
474.38	765.8
474.734	713.82
475.088	609.87
475.442	668.63
475.796	580.49
476.15	618.91
476.504	666.37
476.858	666.37
477.212	609.87
477.566	648.29
477.92	621.17
478.274	614.39
478.628	630.21
478.982	657.33
479.336	539.82
479.689	582.75
480.043	589.53
480.397	569.19
480.75	630.21
481.104	646.03
481.457	560.15
481.811	598.57
482.164	652.81
482.518	618.91
482.871	609.87
483.225	634.73
483.578	526.26
483.931	650.55
484.284	578.23
484.638	573.71
484.991	650.55
485.344	551.12
485.697	571.45
486.05	557.89
486.403	600.83
486.756	562.41
487.109	542.08
487.462	585.01
487.815	533.04
488.168	569.19
488.52	544.34
488.873	582.75
489.226	612.13
489.579	535.3
489.931	587.27
490.284	476.54
490.637	533.04
490.989	616.65
491.342	496.88
491.694	557.89
492.047	591.79
492.399	582.75
492.751	510.44
493.104	490.1
493.456	508.18
493.808	496.88
494.16	483.32
494.513	535.3
494.865	492.36
495.217	458.46
495.569	514.96
495.921	456.2
496.273	508.18
496.625	485.58
496.977	539.82
497.329	510.44
497.68	499.14
498.032	469.76
498.384	499.14
498.736	548.86
499.087	503.66
499.439	499.14
499.791	562.41
500.142	600.83
500.494	458.46
500.845	472.02
501.197	505.92
501.548	490.1
501.9	548.86
502.251	501.4
502.602	481.06
502.954	483.32
503.305	555.64
503.656	490.1
504.007	487.84
504.358	535.3
504.709	501.4
505.061	496.88
505.412	476.54
505.763	555.64
506.113	539.82
506.464	533.04
506.815	487.84
507.166	519.48
507.517	535.3
507.868	512.7
508.218	453.94
508.569	508.18
508.92	555.64
509.27	467.5
509.621	501.4
509.971	528.52
510.322	496.88
510.672	487.84
511.023	524
511.373	614.39
511.723	524
512.074	557.89
512.424	526.26
512.774	569.19
513.124	519.48
513.475	575.97
513.825	580.49
514.175	551.12
514.525	539.82
514.875	555.64
515.225	560.15
515.575	557.89
515.924	562.41
516.274	519.48
516.624	539.82
516.974	524
517.324	591.79
517.673	621.17
518.023	587.27
518.373	623.43
518.722	632.47
519.072	569.19
519.421	560.15
519.771	646.03
520.12	569.19
520.469	623.43
520.819	646.03
521.168	684.45
521.517	578.23
521.867	630.21
522.216	664.11
522.565	625.69
522.914	564.67
523.263	605.35
523.612	544.34
523.961	591.79
524.31	632.47
524.659	650.55
525.008	643.77
525.357	648.29
525.705	542.08
526.054	603.09
526.403	569.19
526.752	616.65
527.1	630.21
527.449	659.59
527.797	569.19
528.146	621.17
528.495	700.26
528.843	682.19
529.191	657.33
529.54	668.63
529.888	655.07
530.236	582.75
530.585	713.82
530.933	646.03
531.281	661.85
531.629	639.25
531.977	618.91
532.325	666.37
532.673	666.37
533.021	634.73
533.369	684.45
533.717	684.45
534.065	618.91
534.413	646.03
534.761	641.51
535.108	636.99
535.456	639.25
535.804	677.67
536.151	614.39
536.499	607.61
536.847	614.39
537.194	673.15
537.542	639.25
537.889	591.79
538.236	650.55
538.584	571.45
538.931	600.83
539.278	564.67
539.626	682.19
539.973	657.33
540.32	693.48
540.667	632.47
541.014	675.41
541.361	650.55
541.708	618.91
542.055	652.81
542.402	621.17
542.749	591.79
543.096	607.61
543.443	646.03
543.789	648.29
544.136	677.67
544.483	594.05
544.83	623.43
545.176	636.99
545.523	600.83
545.869	571.45
546.216	641.51
546.562	539.82
546.909	625.69
547.255	542.08
547.601	639.25
547.948	625.69
548.294	569.19
548.64	585.01
548.986	589.53
549.332	609.87
549.678	578.23
550.025	596.31
550.371	587.27
550.717	614.39
551.062	675.41
551.408	648.29
551.754	530.78
552.1	621.17
552.446	630.21
552.792	530.78
553.137	609.87
553.483	596.31
553.828	632.47
554.174	668.63
554.52	618.91
554.865	612.13
555.211	598.57
555.556	627.95
555.901	618.91
556.247	659.59
556.592	713.82
556.937	659.59
557.282	682.19
557.628	630.21
557.973	575.97
558.318	609.87
558.663	623.43
559.008	605.35
559.353	677.67
559.698	641.51
560.043	605.35
560.388	627.95
560.732	618.91
561.077	659.59
561.422	614.39
561.766	666.37
562.111	682.19
562.456	639.25
562.8	582.75
563.145	594.05
563.489	616.65
563.834	698
564.178	621.17
564.523	634.73
564.867	623.43
565.211	605.35
565.555	652.81
565.9	603.09
566.244	641.51
566.588	693.48
566.932	686.71
567.276	596.31
567.62	734.16
567.964	636.99
568.308	650.55
568.652	677.67
568.996	650.55
569.339	718.34
569.683	691.22
570.027	801.96
570.371	709.3
570.714	673.15
571.058	648.29
571.401	659.59
571.745	655.07
572.088	605.35
572.432	652.81
572.775	713.82
573.118	641.51
573.462	707.04
573.805	679.93
574.148	720.6
574.491	718.34
574.835	711.56
575.178	720.6
575.521	646.03
575.864	630.21
576.207	627.95
576.55	607.61
576.892	698
577.235	634.73
577.578	686.71
577.921	718.34
578.264	736.42
578.606	657.33
578.949	641.51
579.292	621.17
579.634	646.03
579.977	621.17
580.319	623.43
580.662	718.34
581.004	646.03
581.346	675.41
581.689	659.59
582.031	632.47
582.373	639.25
582.715	636.99
583.057	609.87
583.4	693.48
583.742	623.43
584.084	650.55
584.426	630.21
584.768	621.17
585.109	605.35
585.451	614.39
585.793	612.13
586.135	618.91
586.477	578.23
586.818	686.71
587.16	589.53
587.502	612.13
587.843	616.65
588.185	533.04
588.526	659.59
588.868	564.67
589.209	600.83
589.55	609.87
589.892	605.35
590.233	596.31
590.574	571.45
590.915	544.34
591.257	585.01
591.598	544.34
591.939	544.34
592.28	530.78
592.621	566.93
592.962	609.87
593.303	528.52
593.643	517.22
593.984	542.08
594.325	587.27
594.666	582.75
595.006	544.34
595.347	546.6
595.688	524
596.028	618.91
596.369	609.87
596.709	596.31
597.05	524
597.39	517.22
597.73	481.06
598.071	467.5
598.411	542.08
598.751	460.72
599.091	517.22
599.431	517.22
599.772	508.18
600.112	546.6
600.452	474.28
600.792	533.04
601.132	449.42
601.471	546.6
601.811	478.8
602.151	496.88
602.491	517.22
602.831	462.98
603.17	526.26
603.51	526.26
603.849	519.48
604.189	440.38
604.528	481.06
604.868	386.15
605.207	476.54
605.547	544.34
605.886	485.58
606.225	399.71
606.565	433.6
606.904	496.88
607.243	487.84
607.582	487.84
607.921	460.72
608.26	447.16
608.599	438.12
608.938	462.98
609.277	462.98
609.616	492.36
609.955	462.98
610.293	481.06
610.632	426.82
610.971	537.56
611.309	517.22
611.648	417.79
611.987	472.02
612.325	499.14
612.664	472.02
613.002	472.02
613.34	451.68
613.679	413.27
614.017	444.9
614.355	460.72
614.694	483.32
615.032	431.34
615.37	397.45
615.708	469.76
616.046	462.98
616.384	438.12
616.722	420.05
617.06	451.68
617.398	444.9
617.736	485.58
618.073	413.27
618.411	438.12
618.749	411.01
619.086	478.8
619.424	438.12
619.762	490.1
620.099	460.72
620.437	426.82
620.774	429.08
621.112	456.2
621.449	476.54
621.786	458.46
622.123	476.54
622.461	435.86
622.798	458.46
623.135	417.79
623.472	372.59
623.809	496.88
624.146	456.2
624.483	474.28
624.82	424.57
625.157	397.45
625.494	435.86
625.83	411.01
626.167	420.05
626.504	499.14
626.841	435.86
627.177	431.34
627.514	395.19
627.85	460.72
628.187	388.41
628.523	431.34
628.86	413.27
629.196	392.93
629.532	413.27
629.869	395.19
630.205	424.57
630.541	365.81
630.877	374.85
631.213	383.89
631.549	413.27
631.885	372.59
632.221	368.07
632.557	401.97
632.893	433.6
633.229	399.71
633.564	395.19
633.9	390.67
634.236	377.11
634.572	433.6
634.907	404.23
635.243	451.68
635.578	411.01
635.914	374.85
636.249	356.77
636.585	386.15
636.92	438.12
637.255	336.43
637.59	417.79
637.926	435.86
638.261	413.27
638.596	359.03
638.931	359.03
639.266	363.55
639.601	404.23
639.936	462.98
640.271	469.76
640.606	401.97
640.94	453.94
641.275	381.63
641.61	417.79
641.945	397.45
642.279	383.89
642.614	345.47
642.948	386.15
643.283	397.45
643.617	417.79
643.952	401.97
644.286	356.77
644.62	372.59
644.955	379.37
645.289	349.99
645.623	338.69
645.957	424.57
646.291	365.81
646.625	404.23
646.959	345.47
647.293	365.81
647.627	329.65
647.961	411.01
648.295	372.59
648.629	449.42
648.962	340.95
649.296	411.01
649.63	390.67
649.963	359.03
650.297	338.69
650.63	331.91
650.964	298.01
651.297	359.03
651.631	395.19
651.964	343.21
652.297	372.59
652.631	331.91
652.964	338.69
653.297	349.99
653.63	361.29
653.963	349.99
654.296	313.83
654.629	349.99
654.962	309.31
655.295	361.29
655.628	383.89
655.961	336.43
656.293	377.11
656.626	302.53
656.959	363.55
657.291	372.59
657.624	390.67
657.956	381.63
658.289	302.53
658.621	356.77
658.954	300.27
659.286	338.69
659.618	361.29
659.95	336.43
660.283	279.94
660.615	313.83
660.947	316.09
661.279	316.09
661.611	390.67
661.943	372.59
662.275	325.13
662.607	336.43
662.939	361.29
663.27	327.39
663.602	316.09
663.934	345.47
664.266	307.05
664.597	255.08
664.929	325.13
665.26	334.17
665.592	379.37
665.923	300.27
666.255	307.05
666.586	320.61
666.917	320.61
667.248	307.05
667.58	284.46
667.911	316.09
668.242	334.17
668.573	250.56
668.904	279.94
669.235	334.17
669.566	347.73
669.897	309.31
670.228	313.83
670.558	273.16
670.889	322.87
671.22	304.79
671.551	302.53
671.881	316.09
672.212	309.31
672.542	302.53
672.873	349.99
673.203	340.95
673.533	232.48
673.864	325.13
674.194	279.94
674.524	345.47
674.855	390.67
675.185	277.68
675.515	343.21
675.845	320.61
676.175	334.17
676.505	356.77
676.835	327.39
677.165	365.81
677.494	313.83
677.824	230.22
678.154	354.51
678.484	320.61
678.813	273.16
679.143	322.87
679.472	338.69
679.802	273.16
680.131	392.93
680.461	275.42
680.79	386.15
681.119	356.77
681.449	277.68
681.778	316.09
682.107	352.25
682.436	309.31
682.765	243.78
683.094	325.13
683.423	331.91
683.752	248.3
684.081	286.72
684.41	252.82
684.739	284.46
685.067	316.09
685.396	329.65
685.725	316.09
686.053	277.68
686.382	318.35
686.711	377.11
687.039	311.57
687.367	316.09
687.696	313.83
688.024	359.03
688.352	266.38
688.681	286.72
689.009	239.26
689.337	307.05
689.665	275.42
689.993	288.98
690.321	329.65
690.649	291.24
690.977	282.2
691.305	291.24
691.633	232.48
691.961	316.09
692.288	343.21
692.616	286.72
692.944	313.83
693.271	343.21
693.599	347.73
693.926	331.91
694.254	257.34
694.581	345.47
694.908	259.6
695.236	302.53
695.563	291.24
695.89	279.94
696.217	255.08
696.544	340.95
696.871	307.05
697.198	298.01
697.525	275.42
697.852	288.98
698.179	325.13
698.506	309.31
698.833	225.7
699.16	302.53
699.486	343.21
699.813	279.94
700.139	298.01
700.466	311.57
700.793	322.87
701.119	343.21
701.445	291.24
701.772	298.01
702.098	279.94
702.424	340.95
702.75	298.01
703.077	261.86
703.403	307.05
703.729	277.68
704.055	318.35
704.381	359.03
704.707	316.09
705.033	304.79
705.358	363.55
705.684	302.53
706.01	298.01
706.336	293.5
706.661	268.64
706.987	300.27
707.312	316.09
707.638	293.5
707.963	209.88
708.289	298.01
708.614	298.01
708.939	248.3
709.265	282.2
709.59	282.2
709.915	239.26
710.24	275.42
710.565	309.31
710.89	307.05
711.215	246.04
711.54	325.13
711.865	327.39
712.19	334.17
712.515	304.79
712.839	264.12
713.164	309.31
713.489	318.35
713.813	327.39
714.138	227.96
714.462	286.72
714.787	221.18
715.111	261.86
715.435	316.09
715.76	234.74
716.084	338.69
716.408	275.42
716.732	309.31
717.056	300.27
717.381	313.83
717.705	313.83
718.028	250.56
718.352	234.74
718.676	243.78
719	349.99
719.324	288.98
719.648	234.74
719.971	318.35
720.295	255.08
720.618	248.3
720.942	320.61
721.265	273.16
721.589	286.72
721.912	300.27
722.236	275.42
722.559	223.44
722.882	284.46
723.205	295.75
723.528	212.14
723.851	345.47
724.174	266.38
724.497	320.61
724.82	338.69
725.143	273.16
725.466	288.98
725.789	266.38
726.112	304.79
726.434	252.82
726.757	279.94
727.08	309.31
727.402	230.22
727.725	273.16
728.047	261.86
728.37	252.82
728.692	255.08
729.014	279.94
729.336	298.01
729.659	304.79
729.981	248.3
730.303	329.65
730.625	270.9
730.947	282.2
731.269	338.69
731.591	261.86
731.913	212.14
732.235	286.72
732.556	318.35
732.878	295.75
733.2	309.31
733.521	279.94
733.843	282.2
734.164	279.94
734.486	293.5
734.807	336.43
735.129	300.27
735.45	261.86
735.771	252.82
736.092	250.56
736.414	241.52
736.735	322.87
737.056	241.52
737.377	250.56
737.698	273.16
738.019	225.7
738.34	293.5
738.66	239.26
738.981	282.2
739.302	248.3
739.623	273.16
739.943	255.08
740.264	273.16
740.584	295.75
740.905	304.79
741.225	273.16
741.546	270.9
741.866	338.69
742.186	279.94
742.507	282.2
742.827	325.13
743.147	293.5
743.467	282.2
743.787	275.42
744.107	237
744.427	234.74
744.747	261.86
745.067	288.98
745.386	255.08
745.706	243.78
746.026	282.2
746.346	331.91
746.665	227.96
746.985	286.72
747.304	246.04
747.624	304.79
747.943	246.04
748.262	343.21
748.582	334.17
748.901	374.85
749.22	331.91
749.539	327.39
749.858	295.75
750.177	307.05
750.496	359.03
750.815	282.2
751.134	282.2
751.453	284.46
751.772	255.08
752.09	216.66
752.409	291.24
752.728	255.08
753.046	291.24
753.365	270.9
753.683	295.75
754.002	252.82
754.32	273.16
754.639	248.3
754.957	322.87
755.275	302.53
755.593	279.94
755.911	282.2
756.23	252.82
756.548	270.9
756.866	363.55
757.183	261.86
757.501	232.48
757.819	300.27
758.137	234.74
758.455	270.9
758.772	318.35
759.09	241.52
759.408	257.34
759.725	284.46
760.043	286.72
760.36	365.81
760.677	318.35
760.995	246.04
761.312	250.56
761.629	298.01
761.946	241.52
762.264	277.68
762.581	248.3
762.898	257.34
763.215	268.64
763.532	304.79
763.848	295.75
764.165	286.72
764.482	259.6
764.799	243.78
765.115	345.47
765.432	316.09
765.749	216.66
766.065	207.62
766.382	295.75
766.698	277.68
767.014	347.73
767.331	261.86
767.647	291.24
767.963	293.5
768.279	234.74
768.595	248.3
768.911	329.65
769.227	291.24
769.543	270.9
769.859	309.31
770.175	293.5
770.491	279.94
770.807	230.22
771.122	209.88
771.438	304.79
771.754	268.64
772.069	227.96
772.385	268.64
772.7	288.98
773.016	304.79
773.331	302.53
773.646	252.82
773.961	261.86
774.277	225.7
774.592	261.86
774.907	325.13
775.222	304.79
775.537	311.57
775.852	237
776.167	311.57
776.482	316.09
776.796	304.79
777.111	273.16
777.426	298.01
777.74	300.27
778.055	340.95
778.369	243.78
778.684	250.56
778.998	311.57
779.313	320.61
779.627	304.79
779.941	327.39
780.255	298.01
780.57	325.13
780.884	234.74
781.198	250.56
781.512	252.82
781.826	279.94
782.14	237
782.453	284.46
782.767	313.83
783.081	293.5
783.395	288.98
783.708	295.75
784.022	218.92
784.335	259.6
784.649	277.68
784.962	273.16
785.276	230.22
785.589	250.56
785.902	311.57
786.216	207.62
786.529	225.7
786.842	304.79
787.155	273.16
787.468	230.22
787.781	243.78
788.094	246.04
788.407	295.75
788.72	275.42
789.032	255.08
789.345	279.94
789.658	257.34
789.97	291.24
790.283	268.64
790.595	248.3
790.908	284.46
791.22	241.52
791.532	261.86
791.845	270.9
792.157	279.94
792.469	284.46
792.781	200.84
793.093	257.34
793.405	295.75
793.717	293.5
794.029	246.04
794.341	336.43
794.653	255.08
794.965	300.27
795.276	329.65
795.588	282.2
795.9	288.98
796.211	284.46
796.523	261.86
796.834	273.16
797.146	239.26
797.457	232.48
797.768	300.27
798.08	284.46
798.391	288.98
798.702	307.05
799.013	298.01
799.324	300.27
799.635	246.04
799.946	268.64
800.257	275.42
800.568	209.88
800.878	300.27
801.189	237
801.5	300.27
801.81	288.98
802.121	207.62
802.431	300.27
802.742	261.86
803.052	270.9
803.363	255.08
803.673	302.53
803.983	295.75
804.293	295.75
804.603	304.79
804.913	237
805.224	252.82
805.533	259.6
805.843	259.6
806.153	209.88
806.463	250.56
806.773	275.42
807.083	322.87
807.392	318.35
807.702	246.04
808.011	241.52
808.321	291.24
808.63	307.05
808.94	311.57
809.249	284.46
809.558	275.42
809.868	282.2
810.177	275.42
810.486	250.56
810.795	268.64
811.104	279.94
811.413	275.42
811.722	257.34
812.031	286.72
812.339	259.6
812.648	309.31
812.957	209.88
813.266	171.46
813.574	273.16
813.883	239.26
814.191	318.35
814.5	259.6
814.808	300.27
815.116	282.2
815.424	259.6
815.733	322.87
816.041	266.38
816.349	261.86
816.657	279.94
816.965	275.42
817.273	243.78
817.581	277.68
817.889	295.75
818.196	295.75
818.504	205.36
818.812	307.05
819.12	307.05
819.427	264.12
819.735	298.01
820.042	214.4
820.349	279.94
820.657	295.75
820.964	264.12
821.271	311.57
821.579	205.36
821.886	275.42
822.193	250.56
822.5	311.57
822.807	250.56
823.114	261.86
823.421	252.82
823.727	275.42
824.034	250.56
824.341	252.82
824.648	293.5
824.954	203.1
825.261	259.6
825.567	261.86
825.874	288.98
826.18	295.75
826.486	275.42
826.793	334.17
827.099	338.69
827.405	291.24
827.711	243.78
828.017	223.44
828.323	282.2
828.629	334.17
828.935	279.94
829.241	309.31
829.547	275.42
829.852	316.09
830.158	234.74
830.464	261.86
830.769	270.9
831.075	318.35
831.38	334.17
831.686	331.91
831.991	338.69
832.296	214.4
832.601	246.04
832.907	282.2
833.212	196.32
833.517	234.74
833.822	266.38
834.127	266.38
834.432	239.26
834.737	304.79
835.041	282.2
835.346	266.38
835.651	273.16
835.956	309.31
836.26	227.96
836.565	273.16
836.869	293.5
837.174	298.01
837.478	250.56
837.782	284.46
838.087	302.53
838.391	273.16
838.695	275.42
838.999	248.3
839.303	237
839.607	239.26
839.911	273.16
840.215	196.32
840.519	309.31
840.822	336.43
841.126	198.58
841.43	298.01
841.733	288.98
842.037	239.26
842.34	266.38
842.644	327.39
842.947	291.24
843.251	207.62
843.554	273.16
843.857	257.34
844.16	273.16
844.463	257.34
844.766	331.91
845.069	354.51
845.372	309.31
845.675	282.2
845.978	286.72
846.281	302.53
846.583	293.5
846.886	232.48
847.189	227.96
847.491	284.46
847.794	279.94
848.096	302.53
848.399	320.61
848.701	248.3
849.003	223.44
849.305	300.27
849.608	275.42
849.91	259.6
850.212	252.82
850.514	307.05
850.816	322.87
851.118	291.24
851.419	279.94
851.721	284.46
852.023	318.35
852.325	255.08
852.626	252.82
852.928	279.94
853.229	203.1
853.531	270.9
853.832	284.46
854.133	331.91
854.435	250.56
854.736	239.26
855.037	322.87
855.338	325.13
855.639	311.57
855.94	257.34
856.241	225.7
856.542	275.42
856.843	261.86
857.144	223.44
857.444	293.5
857.745	304.79
858.046	325.13
858.346	266.38
858.647	359.03
858.947	200.84
859.247	302.53
859.548	340.95
859.848	277.68
860.148	250.56
860.448	275.42
860.749	243.78
861.049	277.68
861.349	270.9
861.648	264.12
861.948	237
862.248	298.01
862.548	273.16
862.848	237
863.147	203.1
863.447	230.22
863.746	304.79
864.046	250.56
864.345	250.56
864.645	286.72
864.944	282.2
865.243	264.12
865.542	246.04
865.842	243.78
866.141	279.94
866.44	329.65
866.739	198.58
867.038	311.57
867.337	273.16
867.635	266.38
867.934	304.79
868.233	291.24
868.531	277.68
868.83	334.17
869.129	261.86
869.427	286.72
869.725	261.86
870.024	300.27
870.322	300.27
870.62	277.68
870.918	298.01
871.217	225.7
871.515	270.9
871.813	311.57
872.111	279.94
872.409	252.82
872.706	282.2
873.004	279.94
873.302	234.74
873.6	250.56
873.897	284.46
874.195	261.86
874.492	246.04
874.79	225.7
875.087	311.57
875.384	261.86
875.682	284.46
875.979	259.6
876.276	302.53
876.573	318.35
876.87	318.35
877.167	318.35
