Data from PL_2polymer_F8BT_MEHPPV_USB2H096331_0426.txt Node
Date: Tue Dec 15 16:16:17 CET 2020
User: spadmin
Spectrometer: USB2+H09633
Trigger mode: 0
Integration Time (sec): 1.000000E-2
Scans to average: 1
Electric dark correction enabled: true
Nonlinearity correction enabled: false
Boxcar width: 0
XAxis mode: Wavelengths
Number of Pixels in Spectrum: 2048
>>>>>Begin Spectral Data<<<<<
174.027	-83.19
174.405	-83.19
174.783	-83.19
175.162	-101.27
175.54	-157.76
175.918	-164.54
176.296	-105.79
176.674	-78.67
177.052	-99.01
177.43	-60.59
177.808	-31.21
178.186	-4.1
178.564	16.24
178.942	-31.21
179.32	-17.65
179.698	45.62
180.076	11.72
180.453	52.4
180.831	45.62
181.209	59.18
181.587	122.45
181.965	75
182.342	149.57
182.72	187.99
183.098	255.78
183.475	228.67
183.853	246.74
184.231	271.6
184.608	296.46
184.986	235.45
185.363	278.38
185.741	294.2
186.118	321.32
186.496	341.66
186.873	305.5
187.251	373.3
187.628	375.56
188.006	264.82
188.383	328.1
188.76	325.84
189.138	355.22
189.515	352.96
189.892	300.98
190.27	350.7
190.647	339.4
191.024	377.81
191.401	316.8
191.778	328.1
192.155	316.8
192.533	314.54
192.91	350.7
193.287	260.3
193.664	298.72
194.041	291.94
194.418	305.5
194.795	337.14
195.172	305.5
195.549	305.5
195.926	280.64
196.302	282.9
196.679	330.36
197.056	362
197.433	323.58
197.81	343.92
198.187	217.37
198.563	334.88
198.94	300.98
199.317	294.2
199.693	269.34
200.07	291.94
200.447	285.16
200.823	314.54
201.2	323.58
201.576	242.23
201.953	325.84
202.329	321.32
202.706	244.49
203.082	296.46
203.459	319.06
203.835	339.4
204.212	316.8
204.588	289.68
204.964	382.33
205.341	323.58
205.717	314.54
206.093	298.72
206.469	352.96
206.846	287.42
207.222	343.92
207.598	350.7
207.974	328.1
208.35	305.5
208.726	294.2
209.102	319.06
209.479	303.24
209.855	267.08
210.231	294.2
210.607	273.86
210.982	278.38
211.358	287.42
211.734	273.86
212.11	384.59
212.486	296.46
212.862	416.23
213.238	321.32
213.614	280.64
213.989	371.04
214.365	307.76
214.741	339.4
215.116	341.66
215.492	366.52
215.868	350.7
216.243	352.96
216.619	262.56
216.995	339.4
217.37	253.52
217.746	291.94
218.121	294.2
218.497	267.08
218.872	291.94
219.247	300.98
219.623	300.98
219.998	364.26
220.374	300.98
220.749	368.78
221.124	346.18
221.499	355.22
221.875	339.4
222.25	357.48
222.625	389.11
223	346.18
223.376	420.75
223.751	314.54
224.126	305.5
224.501	271.6
224.876	337.14
225.251	325.84
225.626	332.62
226.001	332.62
226.376	355.22
226.751	312.28
227.126	357.48
227.501	271.6
227.875	366.52
228.25	438.83
228.625	393.63
229	364.26
229.375	337.14
229.749	325.84
230.124	362
230.499	271.6
230.873	380.07
231.248	375.56
231.623	375.56
231.997	310.02
232.372	334.88
232.746	323.58
233.121	321.32
233.495	325.84
233.87	350.7
234.244	359.74
234.619	341.66
234.993	384.59
235.367	395.89
235.742	380.07
236.116	382.33
236.49	355.22
236.865	289.68
237.239	359.74
237.613	352.96
237.987	355.22
238.361	300.98
238.736	307.76
239.11	291.94
239.484	402.67
239.858	355.22
240.232	343.92
240.606	362
240.98	386.85
241.354	337.14
241.728	395.89
242.102	386.85
242.475	355.22
242.849	249
243.223	276.12
243.597	323.58
243.971	447.87
244.344	395.89
244.718	314.54
245.092	296.46
245.466	368.78
245.839	323.58
246.213	346.18
246.586	334.88
246.96	382.33
247.334	366.52
247.707	409.45
248.081	325.84
248.454	425.27
248.828	343.92
249.201	420.75
249.574	398.15
249.948	384.59
250.321	398.15
250.694	402.67
251.068	321.32
251.441	352.96
251.814	398.15
252.187	432.05
252.561	432.05
252.934	447.87
253.307	332.62
253.68	391.37
254.053	352.96
254.426	420.75
254.799	285.16
255.172	359.74
255.545	355.22
255.918	348.44
256.291	474.99
256.664	325.84
257.037	298.72
257.41	366.52
257.782	375.56
258.155	334.88
258.528	413.97
258.901	386.85
259.273	395.89
259.646	352.96
260.019	425.27
260.391	314.54
260.764	391.37
261.137	389.11
261.509	407.19
261.882	427.53
262.254	418.49
262.627	389.11
262.999	366.52
263.372	416.23
263.744	429.79
264.116	364.26
264.489	371.04
264.861	386.85
265.233	409.45
265.606	357.48
265.978	436.57
266.35	368.78
266.722	441.09
267.094	357.48
267.467	380.07
267.839	384.59
268.211	312.28
268.583	409.45
268.955	404.93
269.327	398.15
269.699	352.96
270.071	384.59
270.443	377.81
270.815	425.27
271.186	348.44
271.558	366.52
271.93	346.18
272.302	441.09
272.674	423.01
273.045	398.15
273.417	395.89
273.789	447.87
274.16	477.25
274.532	495.33
274.904	416.23
275.275	413.97
275.647	429.79
276.018	398.15
276.39	371.04
276.761	416.23
277.133	420.75
277.504	407.19
277.875	407.19
278.247	407.19
278.618	375.56
278.989	364.26
279.361	398.15
279.732	465.95
280.103	398.15
280.474	409.45
280.846	420.75
281.217	425.27
281.588	398.15
281.959	382.33
282.33	371.04
282.701	443.35
283.072	350.7
283.443	423.01
283.814	380.07
284.185	447.87
284.556	368.78
284.927	391.37
285.297	407.19
285.668	402.67
286.039	438.83
286.41	432.05
286.781	450.13
287.151	443.35
287.522	348.44
287.893	400.41
288.263	436.57
288.634	499.85
289.004	393.63
289.375	384.59
289.745	382.33
290.116	450.13
290.486	459.17
290.857	420.75
291.227	429.79
291.598	459.17
291.968	391.37
292.338	416.23
292.709	402.67
293.079	330.36
293.449	434.31
293.819	443.35
294.189	366.52
294.56	474.99
294.93	391.37
295.3	411.71
295.67	375.56
296.04	438.83
296.41	452.39
296.78	411.71
297.15	463.69
297.52	407.19
297.89	459.17
298.259	463.69
298.629	429.79
298.999	479.51
299.369	520.18
299.739	423.01
300.108	407.19
300.478	474.99
300.848	434.31
301.217	418.49
301.587	506.63
301.957	386.85
302.326	429.79
302.696	499.85
303.065	493.07
303.435	418.49
303.804	493.07
304.174	470.47
304.543	542.78
304.912	461.43
305.282	463.69
305.651	445.61
306.02	499.85
306.39	515.66
306.759	445.61
307.128	438.83
307.497	395.89
307.866	463.69
308.235	529.22
308.604	454.65
308.974	515.66
309.343	436.57
309.712	470.47
310.08	434.31
310.449	493.07
310.818	436.57
311.187	470.47
311.556	465.95
311.925	465.95
312.294	443.35
312.662	438.83
313.031	465.95
313.4	495.33
313.769	497.59
314.137	511.14
314.506	495.33
314.874	461.43
315.243	504.37
315.612	443.35
315.98	429.79
316.349	454.65
316.717	484.03
317.085	508.88
317.454	391.37
317.822	445.61
318.191	554.08
318.559	474.99
318.927	456.91
319.295	472.73
319.664	511.14
320.032	461.43
320.4	542.78
320.768	486.29
321.136	497.59
321.504	533.74
321.872	461.43
322.24	474.99
322.608	445.61
322.976	540.52
323.344	495.33
323.712	545.04
324.08	468.21
324.448	484.03
324.816	488.55
325.183	465.95
325.551	481.77
325.919	515.66
326.287	520.18
326.654	569.9
327.022	565.38
327.389	486.29
327.757	529.22
328.125	520.18
328.492	459.17
328.86	488.55
329.227	493.07
329.594	459.17
329.962	554.08
330.329	536
330.697	504.37
331.064	461.43
331.431	515.66
331.798	590.24
332.166	569.9
332.533	484.03
332.9	477.25
333.267	583.46
333.634	558.6
334.001	567.64
334.368	569.9
334.735	549.56
335.102	542.78
335.469	558.6
335.836	547.3
336.203	569.9
336.57	551.82
336.937	653.51
337.304	617.36
337.67	540.52
338.037	633.18
338.404	594.76
338.771	572.16
339.137	599.28
339.504	660.29
339.87	581.2
340.237	551.82
340.604	576.68
340.97	599.28
341.337	624.14
341.703	587.98
342.069	617.36
342.436	621.88
342.802	639.95
343.169	608.32
343.535	615.1
343.901	612.84
344.267	628.66
344.634	565.38
345	597.02
345.366	685.15
345.732	608.32
346.098	601.54
346.464	755.21
346.83	642.21
347.196	549.56
347.562	594.76
347.928	630.92
348.294	635.44
348.66	606.06
349.026	576.68
349.392	637.7
349.757	678.37
350.123	639.95
350.489	606.06
350.855	671.59
351.22	703.23
351.586	691.93
351.951	705.49
352.317	678.37
352.683	691.93
353.048	696.45
353.414	732.61
353.779	685.15
354.144	687.41
354.51	714.53
354.875	694.19
355.24	719.05
355.606	757.47
355.971	710.01
356.336	768.77
356.701	773.28
357.067	773.28
357.432	750.69
357.797	786.84
358.162	737.13
358.527	732.61
358.892	761.99
359.257	800.4
359.622	786.84
359.987	773.28
360.352	854.64
360.717	807.18
361.082	829.78
361.446	859.16
361.811	838.82
362.176	768.77
362.541	868.2
362.905	843.34
363.27	933.73
363.635	987.97
363.999	899.84
364.364	965.37
364.728	886.28
365.093	899.84
365.457	920.17
365.822	983.45
366.186	1046.72
366.55	956.33
366.915	969.89
367.279	938.25
367.643	897.58
368.008	1098.7
368.372	1001.53
368.736	1012.83
369.1	983.45
369.464	997.01
369.828	1073.84
370.192	1116.78
370.556	1114.52
370.92	1184.57
371.284	1177.79
371.648	1204.91
372.012	1250.11
372.376	1340.5
372.74	1263.67
373.104	1385.7
373.468	1462.53
373.831	1392.48
374.195	1528.07
374.559	1546.15
374.922	1487.39
375.286	1530.33
375.65	1686.26
376.013	1726.93
376.377	1733.71
376.74	1833.14
377.104	1858
377.467	1925.8
377.83	1980.03
378.194	2086.24
378.557	2217.31
378.92	2463.64
379.284	2502.05
379.647	2657.98
380.01	2798.09
380.373	2933.68
380.736	3186.78
381.1	3546.09
381.463	3631.97
381.826	3955.12
382.189	4167.55
382.552	4497.48
382.915	4852.27
383.278	5353.96
383.64	5769.76
384.003	6334.72
384.366	6881.6
384.729	7701.92
385.092	7986.65
385.454	8745.96
385.817	9527.86
386.18	10542.52
386.542	11573
386.905	12768.45
387.268	13948.08
387.63	15507.36
387.993	16458.75
388.355	17972.83
388.718	20069.95
389.08	21385.17
389.442	23437.1
389.805	25861.89
390.167	27276.54
390.529	30783.8
390.892	34022.13
391.254	35958.8
391.616	38885.28
391.978	42749.58
392.34	46966.42
392.702	48358.47
393.064	51919.96
393.426	54087.14
393.788	55942.46
394.15	57594.39
394.512	59357.06
394.874	61162.66
395.236	62810.07
395.598	64830.36
395.96	65069.9
396.321	65069.9
396.683	65069.9
397.045	65069.9
397.406	65069.9
397.768	65069.9
398.13	65069.9
398.491	65069.9
398.853	65069.9
399.214	65069.9
399.576	65069.9
399.937	65069.9
400.299	65069.9
400.66	65069.9
401.021	65069.9
401.383	65069.9
401.744	65069.9
402.105	65069.9
402.466	65069.9
402.827	65069.9
403.189	65069.9
403.55	65069.9
403.911	65069.9
404.272	65069.9
404.633	65069.9
404.994	65069.9
405.355	65069.9
405.716	65069.9
406.077	65069.9
406.437	65069.9
406.798	65069.9
407.159	65069.9
407.52	65069.9
407.88	65069.9
408.241	65069.9
408.602	65069.9
408.962	65069.9
409.323	65069.9
409.684	65069.9
410.044	65069.9
410.405	65069.9
410.765	65069.9
411.125	65069.9
411.486	65069.9
411.846	65069.9
412.206	65069.9
412.567	65069.9
412.927	65069.9
413.287	65069.9
413.647	65069.9
414.007	65069.9
414.368	65069.9
414.728	65069.9
415.088	65069.9
415.448	65069.9
415.808	65069.9
416.168	65069.9
416.528	65069.9
416.887	65069.9
417.247	65069.9
417.607	65069.9
417.967	65069.9
418.327	65069.9
418.686	65069.9
419.046	65069.9
419.406	65069.9
419.765	65069.9
420.125	65069.9
420.484	65069.9
420.844	65069.9
421.203	65069.9
421.563	64676.69
421.922	64410.03
422.282	62638.32
422.641	61142.32
423	59996.59
423.36	59029.38
423.719	57029.43
424.078	55133.44
424.437	53348.17
424.796	51840.87
425.155	50035.27
425.515	47542.68
425.874	46521.23
426.233	42397.05
426.592	40342.87
426.95	39296.57
427.309	36733.92
427.668	35717
428.027	32991.65
428.386	32257.2
428.745	29018.87
429.103	27710.43
429.462	26304.82
429.821	24587.35
430.179	23507.15
430.538	23075.52
430.897	22203.23
431.255	20743.38
431.614	19579.57
431.972	18619.14
432.33	18067.75
432.689	17773.97
433.047	16512.98
433.405	15674.59
433.764	14763.88
434.122	14476.88
434.48	13855.43
434.838	13091.6
435.197	12540.21
435.555	12266.77
435.913	11539.1
436.271	11046.46
436.629	10574.16
436.987	10352.69
437.345	9620.51
437.703	9154.99
438.061	8877.03
438.418	8293.99
438.776	7900.78
439.134	7781.01
439.492	7512.09
439.849	7073.68
440.207	6838.66
440.565	6350.54
440.922	6126.82
441.28	5898.57
441.637	5539.26
441.995	5344.92
442.352	5211.59
442.71	4865.83
443.067	4795.78
443.425	4666.97
443.782	4361.89
444.139	4321.21
444.496	4099.75
444.854	3970.94
445.211	3844.39
445.568	3794.67
445.925	3541.57
446.282	3430.84
446.639	3365.31
446.996	3152.88
447.353	3213.9
447.71	3213.9
448.067	3225.2
448.424	2940.46
448.781	2983.4
449.137	2802.61
449.494	2639.9
449.851	2526.91
450.208	2450.08
450.564	2407.14
450.921	2305.45
451.278	2319.01
451.634	2316.75
451.991	2081.72
452.347	2129.18
452.704	2086.24
453.06	2097.54
453.416	1835.4
453.773	1792.47
454.129	1738.23
454.485	1722.41
454.841	1643.32
455.198	1561.96
455.554	1543.89
455.91	1532.59
456.266	1528.07
456.622	1491.91
456.978	1462.53
457.334	1363.1
457.69	1279.49
458.046	1340.5
458.402	1254.63
458.758	1053.5
459.114	1141.64
459.469	1177.79
459.825	1119.04
460.181	1060.28
460.536	1064.8
460.892	1123.56
461.248	990.23
461.603	1024.13
461.959	978.93
462.314	983.45
462.67	917.91
463.025	926.95
463.38	954.07
463.736	895.32
464.091	935.99
464.446	890.8
464.802	895.32
465.157	874.98
465.512	904.35
465.867	913.39
466.222	847.86
466.577	789.1
466.932	841.08
467.287	838.82
467.642	750.69
467.997	712.27
468.352	843.34
468.707	798.14
469.062	739.39
469.417	768.77
469.771	678.37
470.126	633.18
470.481	732.61
470.835	662.55
471.19	728.09
471.544	730.35
471.899	703.23
472.253	732.61
472.608	723.57
472.962	639.95
473.317	662.55
473.671	716.79
474.025	671.59
474.38	696.45
474.734	630.92
475.088	687.41
475.442	601.54
475.796	676.11
476.15	700.97
476.504	655.77
476.858	560.86
477.212	639.95
477.566	508.88
477.92	608.32
478.274	594.76
478.628	599.28
478.982	572.16
479.336	660.29
479.689	615.1
480.043	606.06
480.397	619.62
480.75	630.92
481.104	644.47
481.457	574.42
481.811	572.16
482.164	563.12
482.518	545.04
482.871	606.06
483.225	572.16
483.578	569.9
483.931	587.98
484.284	563.12
484.638	648.99
484.991	479.51
485.344	558.6
485.697	592.5
486.05	578.94
486.403	574.42
486.756	461.43
487.109	538.26
487.462	587.98
487.815	599.28
488.168	490.81
488.52	583.46
488.873	479.51
489.226	511.14
489.579	511.14
489.931	502.11
490.284	517.92
490.637	538.26
490.989	506.63
491.342	438.83
491.694	461.43
492.047	486.29
492.399	538.26
492.751	531.48
493.104	502.11
493.456	526.96
493.808	565.38
494.16	470.47
494.513	481.77
494.865	540.52
495.217	443.35
495.569	506.63
495.921	533.74
496.273	452.39
496.625	529.22
496.977	502.11
497.329	452.39
497.68	511.14
498.032	468.21
498.384	493.07
498.736	511.14
499.087	484.03
499.439	452.39
499.791	447.87
500.142	497.59
500.494	497.59
500.845	508.88
501.197	497.59
501.548	493.07
501.9	474.99
502.251	540.52
502.602	454.65
502.954	508.88
503.305	463.69
503.656	486.29
504.007	470.47
504.358	427.53
504.709	454.65
505.061	479.51
505.412	461.43
505.763	425.27
506.113	413.97
506.464	400.41
506.815	461.43
507.166	486.29
507.517	450.13
507.868	517.92
508.218	495.33
508.569	470.47
508.92	436.57
509.27	425.27
509.621	526.96
509.971	452.39
510.322	436.57
510.672	447.87
511.023	479.51
511.373	497.59
511.723	486.29
512.074	407.19
512.424	554.08
512.774	517.92
513.124	454.65
513.475	486.29
513.825	484.03
514.175	558.6
514.525	497.59
514.875	499.85
515.225	486.29
515.575	515.66
515.924	477.25
516.274	472.73
516.624	484.03
516.974	495.33
517.324	563.12
517.673	474.99
518.023	438.83
518.373	538.26
518.722	456.91
519.072	479.51
519.421	549.56
519.771	474.99
520.12	472.73
520.469	522.44
520.819	497.59
521.168	547.3
521.517	504.37
521.867	499.85
522.216	493.07
522.565	517.92
522.914	542.78
523.263	511.14
523.612	504.37
523.961	486.29
524.31	481.77
524.659	502.11
525.008	416.23
525.357	515.66
525.705	463.69
526.054	542.78
526.403	470.47
526.752	538.26
527.1	441.09
527.449	488.55
527.797	432.05
528.146	484.03
528.495	502.11
528.843	484.03
529.191	477.25
529.54	531.48
529.888	452.39
530.236	472.73
530.585	456.91
530.933	531.48
531.281	502.11
531.629	474.99
531.977	538.26
532.325	513.4
532.673	511.14
533.021	486.29
533.369	488.55
533.717	495.33
534.065	477.25
534.413	497.59
534.761	522.44
535.108	452.39
535.456	463.69
535.804	488.55
536.151	425.27
536.499	474.99
536.847	400.41
537.194	554.08
537.542	504.37
537.889	436.57
538.236	495.33
538.584	456.91
538.931	502.11
539.278	484.03
539.626	531.48
539.973	481.77
540.32	434.31
540.667	434.31
541.014	497.59
541.361	441.09
541.708	407.19
542.055	418.49
542.402	389.11
542.749	454.65
543.096	447.87
543.443	493.07
543.789	506.63
544.136	459.17
544.483	459.17
544.83	477.25
545.176	434.31
545.523	443.35
545.869	493.07
546.216	420.75
546.562	418.49
546.909	377.81
547.255	438.83
547.601	407.19
547.948	447.87
548.294	432.05
548.64	441.09
548.986	418.49
549.332	456.91
549.678	398.15
550.025	470.47
550.371	411.71
550.717	420.75
551.062	423.01
551.408	479.51
551.754	334.88
552.1	407.19
552.446	409.45
552.792	445.61
553.137	454.65
553.483	465.95
553.828	436.57
554.174	429.79
554.52	443.35
554.865	423.01
555.211	427.53
555.556	400.41
555.901	377.81
556.247	411.71
556.592	432.05
556.937	481.77
557.282	474.99
557.628	461.43
557.973	413.97
558.318	434.31
558.663	450.13
559.008	420.75
559.353	411.71
559.698	497.59
560.043	447.87
560.388	416.23
560.732	411.71
561.077	368.78
561.422	520.18
561.766	411.71
562.111	432.05
562.456	362
562.8	472.73
563.145	330.36
563.489	402.67
563.834	380.07
564.178	427.53
564.523	463.69
564.867	409.45
565.211	393.63
565.555	407.19
565.9	339.4
566.244	411.71
566.588	352.96
566.932	416.23
567.276	380.07
567.62	441.09
567.964	384.59
568.308	452.39
568.652	434.31
568.996	450.13
569.339	429.79
569.683	450.13
570.027	377.81
570.371	400.41
570.714	411.71
571.058	398.15
571.401	454.65
571.745	447.87
572.088	402.67
572.432	407.19
572.775	359.74
573.118	413.97
573.462	402.67
573.805	382.33
574.148	407.19
574.491	432.05
574.835	416.23
575.178	380.07
575.521	402.67
575.864	395.89
576.207	409.45
576.55	359.74
576.892	362
577.235	409.45
577.578	375.56
577.921	364.26
578.264	375.56
578.606	411.71
578.949	425.27
579.292	407.19
579.634	418.49
579.977	357.48
580.319	411.71
580.662	357.48
581.004	355.22
581.346	402.67
581.689	343.92
582.031	357.48
582.373	407.19
582.715	366.52
583.057	285.16
583.4	362
583.742	316.8
584.084	373.3
584.426	402.67
584.768	461.43
585.109	402.67
585.451	377.81
585.793	364.26
586.135	346.18
586.477	382.33
586.818	341.66
587.16	352.96
587.502	380.07
587.843	377.81
588.185	395.89
588.526	319.06
588.868	319.06
589.209	443.35
589.55	366.52
589.892	434.31
590.233	328.1
590.574	373.3
590.915	330.36
591.257	325.84
591.598	341.66
591.939	393.63
592.28	423.01
592.621	355.22
592.962	325.84
593.303	343.92
593.643	355.22
593.984	282.9
594.325	416.23
594.666	371.04
595.006	323.58
595.347	334.88
595.688	307.76
596.028	416.23
596.369	312.28
596.709	362
597.05	380.07
597.39	307.76
597.73	291.94
598.071	368.78
598.411	332.62
598.751	323.58
599.091	298.72
599.431	278.38
599.772	380.07
600.112	339.4
600.452	310.02
600.792	310.02
601.132	334.88
601.471	373.3
601.811	386.85
602.151	321.32
602.491	355.22
602.831	307.76
603.17	382.33
603.51	289.68
603.849	352.96
604.189	300.98
604.528	359.74
604.868	357.48
605.207	328.1
605.547	296.46
605.886	357.48
606.225	334.88
606.565	298.72
606.904	375.56
607.243	330.36
607.582	291.94
607.921	319.06
608.26	352.96
608.599	411.71
608.938	328.1
609.277	337.14
609.616	300.98
609.955	328.1
610.293	371.04
610.632	368.78
610.971	359.74
611.309	371.04
611.648	368.78
611.987	282.9
612.325	330.36
612.664	242.23
613.002	352.96
613.34	282.9
613.679	352.96
614.017	416.23
614.355	341.66
614.694	319.06
615.032	334.88
615.37	352.96
615.708	319.06
616.046	352.96
616.384	380.07
616.722	323.58
617.06	305.5
617.398	364.26
617.736	386.85
618.073	343.92
618.411	384.59
618.749	323.58
619.086	368.78
619.424	357.48
619.762	300.98
620.099	371.04
620.437	312.28
620.774	357.48
621.112	337.14
621.449	362
621.786	352.96
622.123	321.32
622.461	319.06
622.798	307.76
623.135	307.76
623.472	400.41
623.809	330.36
624.146	314.54
624.483	380.07
624.82	314.54
625.157	328.1
625.494	348.44
625.83	296.46
626.167	276.12
626.504	321.32
626.841	300.98
627.177	362
627.514	294.2
627.85	282.9
628.187	319.06
628.523	285.16
628.86	350.7
629.196	269.34
629.532	307.76
629.869	298.72
630.205	328.1
630.541	377.81
630.877	332.62
631.213	307.76
631.549	337.14
631.885	334.88
632.221	348.44
632.557	296.46
632.893	285.16
633.229	321.32
633.564	285.16
633.9	321.32
634.236	303.24
634.572	339.4
634.907	319.06
635.243	355.22
635.578	321.32
635.914	371.04
636.249	310.02
636.585	377.81
636.92	328.1
637.255	350.7
637.59	294.2
637.926	296.46
638.261	287.42
638.596	260.3
638.931	366.52
639.266	316.8
639.601	339.4
639.936	280.64
640.271	296.46
640.606	312.28
640.94	371.04
641.275	289.68
641.61	303.24
641.945	314.54
642.279	251.26
642.614	359.74
642.948	364.26
643.283	303.24
643.617	269.34
643.952	289.68
644.286	364.26
644.62	316.8
644.955	307.76
645.289	287.42
645.623	343.92
645.957	289.68
646.291	267.08
646.625	303.24
646.959	325.84
647.293	310.02
647.627	289.68
647.961	246.74
648.295	310.02
648.629	294.2
648.962	375.56
649.296	287.42
649.63	280.64
649.963	255.78
650.297	348.44
650.63	377.81
650.964	298.72
651.297	244.49
651.631	294.2
651.964	332.62
652.297	303.24
652.631	242.23
652.964	255.78
653.297	258.04
653.63	262.56
653.963	319.06
654.296	276.12
654.629	253.52
654.962	321.32
655.295	314.54
655.628	355.22
655.961	330.36
656.293	305.5
656.626	282.9
656.959	312.28
657.291	285.16
657.624	228.67
657.956	264.82
658.289	316.8
658.621	210.59
658.954	328.1
659.286	253.52
659.618	255.78
659.95	278.38
660.283	280.64
660.615	332.62
660.947	305.5
661.279	300.98
661.611	235.45
661.943	321.32
662.275	348.44
662.607	246.74
662.939	237.71
663.27	291.94
663.602	334.88
663.934	264.82
664.266	287.42
664.597	260.3
664.929	271.6
665.26	303.24
665.592	287.42
665.923	332.62
666.255	339.4
666.586	282.9
666.917	235.45
667.248	271.6
667.58	296.46
667.911	332.62
668.242	244.49
668.573	194.77
668.904	239.97
669.235	206.07
669.566	312.28
669.897	264.82
670.228	267.08
670.558	271.6
670.889	305.5
671.22	253.52
671.551	310.02
671.881	330.36
672.212	271.6
672.542	328.1
672.873	296.46
673.203	260.3
673.533	332.62
673.864	221.89
674.194	278.38
674.524	362
674.855	273.86
675.185	341.66
675.515	233.19
675.845	280.64
676.175	332.62
676.505	328.1
676.835	334.88
677.165	208.33
677.494	294.2
677.824	319.06
678.154	271.6
678.484	289.68
678.813	300.98
679.143	233.19
679.472	276.12
679.802	280.64
680.131	269.34
680.461	187.99
680.79	255.78
681.119	296.46
681.449	280.64
681.778	273.86
682.107	233.19
682.436	303.24
682.765	280.64
683.094	258.04
683.423	242.23
683.752	267.08
684.081	352.96
684.41	291.94
684.739	291.94
685.067	287.42
685.396	271.6
685.725	237.71
686.053	316.8
686.382	312.28
686.711	296.46
687.039	323.58
687.367	312.28
687.696	255.78
688.024	303.24
688.352	310.02
688.681	316.8
689.009	294.2
689.337	300.98
689.665	287.42
689.993	332.62
690.321	215.11
690.649	258.04
690.977	307.76
691.305	287.42
691.633	303.24
691.961	305.5
692.288	219.63
692.616	251.26
692.944	260.3
693.271	285.16
693.599	262.56
693.926	251.26
694.254	273.86
694.581	300.98
694.908	303.24
695.236	282.9
695.563	325.84
695.89	319.06
696.217	319.06
696.544	192.51
696.871	350.7
697.198	244.49
697.525	230.93
697.852	258.04
698.179	228.67
698.506	323.58
698.833	296.46
699.16	355.22
699.486	325.84
699.813	321.32
700.139	303.24
700.466	273.86
700.793	312.28
701.119	262.56
701.445	217.37
701.772	262.56
702.098	303.24
702.424	294.2
702.75	310.02
703.077	278.38
703.403	262.56
703.729	319.06
704.055	258.04
704.381	282.9
704.707	242.23
705.033	269.34
705.358	276.12
705.684	239.97
706.01	310.02
706.336	341.66
706.661	341.66
706.987	314.54
707.312	230.93
707.638	271.6
707.963	294.2
708.289	280.64
708.614	264.82
708.939	325.84
709.265	217.37
709.59	314.54
709.915	289.68
710.24	221.89
710.565	244.49
710.89	246.74
711.215	291.94
711.54	273.86
711.865	285.16
712.19	343.92
712.515	289.68
712.839	346.18
713.164	285.16
713.489	316.8
713.813	269.34
714.138	217.37
714.462	201.55
714.787	276.12
715.111	251.26
715.435	339.4
715.76	258.04
716.084	262.56
716.408	287.42
716.732	273.86
717.056	289.68
717.381	276.12
717.705	282.9
718.028	307.76
718.352	237.71
718.676	269.34
719	285.16
719.324	221.89
719.648	328.1
719.971	294.2
720.295	276.12
720.618	255.78
720.942	350.7
721.265	258.04
721.589	316.8
721.912	226.41
722.236	323.58
722.559	208.33
722.882	255.78
723.205	316.8
723.528	251.26
723.851	366.52
724.174	321.32
724.497	255.78
724.82	249
725.143	276.12
725.466	267.08
725.789	312.28
726.112	262.56
726.434	269.34
726.757	235.45
727.08	285.16
727.402	305.5
727.725	287.42
728.047	246.74
728.37	201.55
728.692	280.64
729.014	328.1
729.336	251.26
729.659	260.3
729.981	273.86
730.303	285.16
730.625	258.04
730.947	282.9
731.269	260.3
731.591	276.12
731.913	298.72
732.235	296.46
732.556	312.28
732.878	312.28
733.2	278.38
733.521	291.94
733.843	269.34
734.164	285.16
734.486	260.3
734.807	296.46
735.129	260.3
735.45	271.6
735.771	271.6
736.092	228.67
736.414	226.41
736.735	278.38
737.056	217.37
737.377	267.08
737.698	282.9
738.019	341.66
738.34	282.9
738.66	237.71
738.981	278.38
739.302	332.62
739.623	246.74
739.943	273.86
740.264	255.78
740.584	267.08
740.905	228.67
741.225	230.93
741.546	269.34
741.866	249
742.186	314.54
742.507	253.52
742.827	282.9
743.147	255.78
743.467	260.3
743.787	267.08
744.107	255.78
744.427	215.11
744.747	291.94
745.067	287.42
745.386	271.6
745.706	280.64
746.026	251.26
746.346	310.02
746.665	237.71
746.985	260.3
747.304	294.2
747.624	271.6
747.943	253.52
748.262	296.46
748.582	242.23
748.901	253.52
749.22	314.54
749.539	190.25
749.858	291.94
750.177	314.54
750.496	319.06
750.815	260.3
751.134	169.91
751.453	310.02
751.772	269.34
752.09	296.46
752.409	258.04
752.728	246.74
753.046	276.12
753.365	285.16
753.683	253.52
754.002	253.52
754.32	262.56
754.639	260.3
754.957	307.76
755.275	215.11
755.593	312.28
755.911	239.97
756.23	276.12
756.548	273.86
756.866	282.9
757.183	289.68
757.501	239.97
757.819	273.86
758.137	271.6
758.455	224.15
758.772	300.98
759.09	296.46
759.408	226.41
759.725	267.08
760.043	332.62
760.36	237.71
760.677	251.26
760.995	246.74
761.312	269.34
761.629	242.23
761.946	237.71
762.264	239.97
762.581	262.56
762.898	316.8
763.215	264.82
763.532	276.12
763.848	258.04
764.165	267.08
764.482	276.12
764.799	228.67
765.115	201.55
765.432	289.68
765.749	352.96
766.065	291.94
766.382	253.52
766.698	239.97
767.014	246.74
767.331	224.15
767.647	237.71
767.963	219.63
768.279	271.6
768.595	278.38
768.911	305.5
769.227	285.16
769.543	244.49
769.859	280.64
770.175	305.5
770.491	289.68
770.807	251.26
771.122	355.22
771.438	246.74
771.754	251.26
772.069	294.2
772.385	242.23
772.7	289.68
773.016	291.94
773.331	215.11
773.646	255.78
773.961	282.9
774.277	260.3
774.592	260.3
774.907	217.37
775.222	294.2
775.537	242.23
775.852	276.12
776.167	276.12
776.482	289.68
776.796	350.7
777.111	239.97
777.426	210.59
777.74	276.12
778.055	219.63
778.369	237.71
778.684	255.78
778.998	239.97
779.313	298.72
779.627	276.12
779.941	242.23
780.255	321.32
780.57	291.94
780.884	269.34
781.198	305.5
781.512	278.38
781.826	233.19
782.14	253.52
782.453	264.82
782.767	303.24
783.081	239.97
783.395	316.8
783.708	251.26
784.022	255.78
784.335	224.15
784.649	253.52
784.962	172.17
785.276	260.3
785.589	233.19
785.902	294.2
786.216	350.7
786.529	267.08
786.842	260.3
787.155	206.07
787.468	278.38
787.781	278.38
788.094	321.32
788.407	285.16
788.72	244.49
789.032	260.3
789.345	262.56
789.658	264.82
789.97	262.56
790.283	267.08
790.595	258.04
790.908	276.12
791.22	285.16
791.532	249
791.845	282.9
792.157	287.42
792.469	242.23
792.781	208.33
793.093	249
793.405	280.64
793.717	242.23
794.029	264.82
794.341	246.74
794.653	280.64
794.965	285.16
795.276	305.5
795.588	289.68
795.9	296.46
796.211	246.74
796.523	307.76
796.834	325.84
797.146	289.68
797.457	273.86
797.768	285.16
798.08	278.38
798.391	267.08
798.702	251.26
799.013	359.74
799.324	291.94
799.635	316.8
799.946	258.04
800.257	289.68
800.568	233.19
800.878	339.4
801.189	267.08
801.5	294.2
801.81	244.49
802.121	201.55
802.431	219.63
802.742	249
803.052	269.34
803.363	325.84
803.673	235.45
803.983	208.33
804.293	312.28
804.603	267.08
804.913	217.37
805.224	260.3
805.533	321.32
805.843	210.59
806.153	255.78
806.463	253.52
806.773	242.23
807.083	300.98
807.392	255.78
807.702	352.96
808.011	197.03
808.321	233.19
808.63	303.24
808.94	233.19
809.249	262.56
809.558	230.93
809.868	217.37
810.177	282.9
810.486	267.08
810.795	291.94
811.104	280.64
811.413	239.97
811.722	307.76
812.031	291.94
812.339	251.26
812.648	253.52
812.957	251.26
813.266	235.45
813.574	251.26
813.883	260.3
814.191	294.2
814.5	294.2
814.808	303.24
815.116	210.59
815.424	291.94
815.733	325.84
816.041	212.85
816.349	242.23
816.657	255.78
816.965	212.85
817.273	323.58
817.581	258.04
817.889	287.42
818.196	203.81
818.504	280.64
818.812	262.56
819.12	187.99
819.427	269.34
819.735	242.23
820.042	291.94
820.349	242.23
820.657	264.82
820.964	244.49
821.271	244.49
821.579	276.12
821.886	334.88
822.193	264.82
822.5	246.74
822.807	271.6
823.114	296.46
823.421	282.9
823.727	235.45
824.034	289.68
824.341	246.74
824.648	319.06
824.954	219.63
825.261	246.74
825.567	269.34
825.874	291.94
826.18	242.23
826.486	249
826.793	174.43
827.099	255.78
827.405	282.9
827.711	249
828.017	287.42
828.323	287.42
828.629	298.72
828.935	262.56
829.241	273.86
829.547	291.94
829.852	230.93
830.158	249
830.464	233.19
830.769	237.71
831.075	328.1
831.38	332.62
831.686	255.78
831.991	273.86
832.296	246.74
832.601	300.98
832.907	276.12
833.212	226.41
833.517	262.56
833.822	230.93
834.127	280.64
834.432	269.34
834.737	285.16
835.041	165.39
835.346	285.16
835.651	235.45
835.956	185.73
836.26	300.98
836.565	253.52
836.869	228.67
837.174	300.98
837.478	289.68
837.782	276.12
838.087	303.24
838.391	253.52
838.695	312.28
838.999	267.08
839.303	307.76
839.607	244.49
839.911	276.12
840.215	226.41
840.519	310.02
840.822	255.78
841.126	203.81
841.43	233.19
841.733	339.4
842.037	208.33
842.34	244.49
842.644	285.16
842.947	251.26
843.251	203.81
843.554	242.23
843.857	244.49
844.16	174.43
844.463	251.26
844.766	242.23
845.069	276.12
845.372	287.42
845.675	264.82
845.978	206.07
846.281	228.67
846.583	239.97
846.886	208.33
847.189	230.93
847.491	264.82
847.794	262.56
848.096	219.63
848.399	346.18
848.701	242.23
849.003	271.6
849.305	332.62
849.608	296.46
849.91	328.1
850.212	269.34
850.514	298.72
850.816	273.86
851.118	296.46
851.419	271.6
851.721	215.11
852.023	219.63
852.325	255.78
852.626	208.33
852.928	285.16
853.229	276.12
853.531	267.08
853.832	253.52
854.133	249
854.435	276.12
854.736	262.56
855.037	253.52
855.338	226.41
855.639	271.6
855.94	271.6
856.241	230.93
856.542	321.32
856.843	310.02
857.144	282.9
857.444	251.26
857.745	325.84
858.046	325.84
858.346	294.2
858.647	264.82
858.947	224.15
859.247	273.86
859.548	190.25
859.848	300.98
860.148	305.5
860.448	294.2
860.749	303.24
861.049	230.93
861.349	255.78
861.648	260.3
861.948	197.03
862.248	264.82
862.548	255.78
862.848	165.39
863.147	239.97
863.447	244.49
863.746	280.64
864.046	307.76
864.345	287.42
864.645	235.45
864.944	237.71
865.243	221.89
865.542	249
865.842	303.24
866.141	230.93
866.44	291.94
866.739	228.67
867.038	303.24
867.337	298.72
867.635	217.37
867.934	307.76
868.233	239.97
868.531	273.86
868.83	217.37
869.129	226.41
869.427	271.6
869.725	316.8
870.024	269.34
870.322	296.46
870.62	255.78
870.918	278.38
871.217	278.38
871.515	276.12
871.813	307.76
872.111	260.3
872.409	307.76
872.706	296.46
873.004	278.38
873.302	206.07
873.6	258.04
873.897	289.68
874.195	310.02
874.492	291.94
874.79	271.6
875.087	258.04
875.384	230.93
875.682	285.16
875.979	258.04
876.276	271.6
876.573	303.24
876.87	303.24
877.167	303.24
