Data from PL_2polymer_F8BT_MEHPPV_USB2H096331_0247.txt Node
Date: Tue Dec 15 16:16:15 CET 2020
User: spadmin
Spectrometer: USB2+H09633
Trigger mode: 0
Integration Time (sec): 1.000000E-2
Scans to average: 1
Electric dark correction enabled: true
Nonlinearity correction enabled: false
Boxcar width: 0
XAxis mode: Wavelengths
Number of Pixels in Spectrum: 2048
>>>>>Begin Spectral Data<<<<<
174.027	-98.16
174.405	-98.16
174.783	-98.16
175.162	-163.7
175.54	-116.24
175.918	-127.54
176.296	-57.48
176.674	-89.12
177.052	-25.85
177.43	-127.54
177.808	-91.38
178.186	-23.59
178.564	-100.42
178.942	17.09
179.32	12.57
179.698	-7.77
180.076	3.53
180.453	50.99
180.831	98.44
181.209	93.92
181.587	121.04
181.965	125.56
182.342	121.04
182.72	173.02
183.098	215.95
183.475	197.88
183.853	170.76
184.231	267.93
184.608	197.88
184.986	337.99
185.363	213.69
185.741	387.7
186.118	304.09
186.496	267.93
186.873	276.97
187.251	414.82
187.628	304.09
188.006	263.41
188.383	238.55
188.76	313.13
189.138	283.75
189.515	319.91
189.892	331.21
190.27	322.17
190.647	313.13
191.024	245.33
191.401	324.43
191.778	328.95
192.155	394.48
192.533	335.73
192.91	344.76
193.287	281.49
193.664	340.25
194.041	335.73
194.418	288.27
194.795	288.27
195.172	310.87
195.549	234.03
195.926	265.67
196.302	270.19
196.679	261.15
197.056	349.28
197.433	286.01
197.81	252.11
198.187	222.73
198.563	317.65
198.94	283.75
199.317	308.61
199.693	337.99
200.07	288.27
200.447	317.65
200.823	261.15
201.2	362.84
201.576	308.61
201.953	315.39
202.329	222.73
202.706	276.97
203.082	358.32
203.459	279.23
203.835	283.75
204.212	286.01
204.588	335.73
204.964	349.28
205.341	252.11
205.717	290.53
206.093	279.23
206.469	288.27
206.846	310.87
207.222	290.53
207.598	317.65
207.974	274.71
208.35	301.83
208.726	290.53
209.102	310.87
209.479	254.37
209.855	365.1
210.231	333.47
210.607	240.81
210.982	295.05
211.358	324.43
211.734	351.54
212.11	263.41
212.486	290.53
212.862	267.93
213.238	258.89
213.614	299.57
213.989	238.55
214.365	306.35
214.741	288.27
215.116	310.87
215.492	292.79
215.868	328.95
216.243	333.47
216.619	304.09
216.995	288.27
217.37	283.75
217.746	340.25
218.121	308.61
218.497	267.93
218.872	333.47
219.247	310.87
219.623	265.67
219.998	308.61
220.374	337.99
220.749	304.09
221.124	301.83
221.499	319.91
221.875	344.76
222.25	374.14
222.625	340.25
223	254.37
223.376	281.49
223.751	331.21
224.126	304.09
224.501	292.79
224.876	385.44
225.251	367.36
225.626	340.25
226.001	360.58
226.376	265.67
226.751	387.7
227.126	333.47
227.501	342.51
227.875	328.95
228.25	299.57
228.625	301.83
229	340.25
229.375	367.36
229.749	326.69
230.124	340.25
230.499	319.91
230.873	356.06
231.248	326.69
231.623	351.54
231.997	274.71
232.372	360.58
232.746	319.91
233.121	387.7
233.495	405.78
233.87	374.14
234.244	342.51
234.619	340.25
234.993	274.71
235.367	288.27
235.742	351.54
236.116	351.54
236.49	376.4
236.865	410.3
237.239	313.13
237.613	319.91
237.987	324.43
238.361	308.61
238.736	466.8
239.11	349.28
239.484	347.02
239.858	331.21
240.232	335.73
240.606	340.25
240.98	319.91
241.354	313.13
241.728	313.13
242.102	356.06
242.475	369.62
242.849	385.44
243.223	349.28
243.597	385.44
243.971	340.25
244.344	349.28
244.718	362.84
245.092	319.91
245.466	380.92
245.839	356.06
246.213	281.49
246.586	335.73
246.96	340.25
247.334	333.47
247.707	412.56
248.081	286.01
248.454	399
248.828	308.61
249.201	353.8
249.574	319.91
249.948	319.91
250.321	376.4
250.694	369.62
251.068	326.69
251.441	335.73
251.814	385.44
252.187	351.54
252.561	306.35
252.934	362.84
253.307	417.08
253.68	337.99
254.053	358.32
254.426	367.36
254.799	358.32
255.172	394.48
255.545	367.36
255.918	374.14
256.291	403.52
256.664	351.54
257.037	360.58
257.41	376.4
257.782	306.35
258.155	322.17
258.528	358.32
258.901	351.54
259.273	322.17
259.646	380.92
260.019	324.43
260.391	333.47
260.764	380.92
261.137	369.62
261.509	362.84
261.882	403.52
262.254	344.76
262.627	344.76
262.999	374.14
263.372	337.99
263.744	360.58
264.116	283.75
264.489	351.54
264.861	308.61
265.233	324.43
265.606	401.26
265.978	297.31
266.35	360.58
266.722	419.34
267.094	396.74
267.467	347.02
267.839	421.6
268.211	367.36
268.583	378.66
268.955	408.04
269.327	290.53
269.699	414.82
270.071	340.25
270.443	396.74
270.815	281.49
271.186	360.58
271.558	408.04
271.93	399
272.302	331.21
272.674	419.34
273.045	365.1
273.417	383.18
273.789	369.62
274.16	362.84
274.532	417.08
274.904	371.88
275.275	365.1
275.647	340.25
276.018	403.52
276.39	308.61
276.761	450.98
277.133	358.32
277.504	450.98
277.875	369.62
278.247	423.86
278.618	337.99
278.989	417.08
279.361	392.22
279.732	426.12
280.103	439.68
280.474	356.06
280.846	414.82
281.217	392.22
281.588	417.08
281.959	387.7
282.33	383.18
282.701	478.09
283.072	408.04
283.443	435.16
283.814	419.34
284.185	342.51
284.556	347.02
284.927	371.88
285.297	419.34
285.668	376.4
286.039	389.96
286.41	423.86
286.781	399
287.151	421.6
287.522	335.73
287.893	383.18
288.263	421.6
288.634	426.12
289.004	369.62
289.375	342.51
289.745	342.51
290.116	374.14
290.486	421.6
290.857	380.92
291.227	347.02
291.598	405.78
291.968	394.48
292.338	428.38
292.709	462.28
293.079	428.38
293.449	374.14
293.819	389.96
294.189	453.24
294.56	469.06
294.93	414.82
295.3	426.12
295.67	349.28
296.04	337.99
296.41	446.46
296.78	380.92
297.15	466.8
297.52	430.64
297.89	430.64
298.259	487.13
298.629	480.35
298.999	344.76
299.369	432.9
299.739	412.56
300.108	428.38
300.478	432.9
300.848	367.36
301.217	385.44
301.587	493.91
301.957	394.48
302.326	444.2
302.696	432.9
303.065	514.25
303.435	417.08
303.804	475.83
304.174	428.38
304.543	435.16
304.912	446.46
305.282	464.54
305.651	450.98
306.02	525.55
306.39	448.72
306.759	471.32
307.128	446.46
307.497	462.28
307.866	462.28
308.235	414.82
308.604	403.52
308.974	385.44
309.343	432.9
309.712	421.6
310.08	430.64
310.449	435.16
310.818	475.83
311.187	469.06
311.556	412.56
311.925	399
312.294	475.83
312.662	448.72
313.031	507.47
313.4	444.2
313.769	466.8
314.137	496.17
314.506	493.91
314.874	482.61
315.243	441.94
315.612	496.17
315.98	464.54
316.349	457.76
316.717	489.39
317.085	498.43
317.454	493.91
317.822	566.23
318.191	516.51
318.559	509.73
318.927	505.21
319.295	457.76
319.664	507.47
320.032	480.35
320.4	491.65
320.768	498.43
321.136	448.72
321.504	448.72
321.872	534.59
322.24	482.61
322.608	507.47
322.976	484.87
323.344	539.11
323.712	532.33
324.08	502.95
324.448	489.39
324.816	464.54
325.183	426.12
325.551	464.54
325.919	450.98
326.287	480.35
326.654	471.32
327.022	539.11
327.389	536.85
327.757	527.81
328.125	516.51
328.492	469.06
328.86	532.33
329.227	536.85
329.594	484.87
329.962	523.29
330.329	518.77
330.697	509.73
331.064	482.61
331.431	491.65
331.798	557.19
332.166	554.93
332.533	591.09
332.9	487.13
333.267	534.59
333.634	498.43
334.001	516.51
334.368	518.77
334.735	536.85
335.102	539.11
335.469	593.35
335.836	575.27
336.203	491.65
336.57	550.41
336.937	604.65
337.304	622.72
337.67	482.61
338.037	527.81
338.404	554.93
338.771	568.49
339.137	597.87
339.504	552.67
339.87	521.03
340.237	527.81
340.604	591.09
340.97	638.54
341.337	627.24
341.703	577.53
342.069	563.97
342.436	582.05
342.802	570.75
343.169	661.14
343.535	645.32
343.901	563.97
344.267	541.37
344.634	600.13
345	627.24
345.366	609.16
345.732	597.87
346.098	634.02
346.464	588.83
346.83	634.02
347.196	618.2
347.562	525.55
347.928	638.54
348.294	706.34
348.66	604.65
349.026	609.16
349.392	591.09
349.757	640.8
350.123	634.02
350.489	638.54
350.855	713.12
351.22	624.98
351.586	638.54
351.951	686
352.317	665.66
352.683	615.94
353.048	629.5
353.414	726.68
353.779	670.18
354.144	692.78
354.51	740.23
354.875	740.23
355.24	686
355.606	801.25
355.971	692.78
356.336	715.38
356.701	699.56
357.067	717.64
357.432	805.77
357.797	728.94
358.162	638.54
358.527	753.79
358.892	810.29
359.257	767.35
359.622	762.83
359.987	776.39
360.352	821.59
360.717	805.77
361.082	740.23
361.446	830.63
361.811	823.85
362.176	839.67
362.541	828.37
362.905	896.16
363.27	860.01
363.635	869.04
363.999	914.24
364.364	921.02
364.728	905.2
365.093	889.38
365.457	961.7
365.822	1013.67
366.186	860.01
366.55	921.02
366.915	988.82
367.279	1013.67
367.643	1022.71
368.008	1013.67
368.372	970.74
368.736	977.52
369.1	1006.89
369.464	1095.03
369.828	1119.89
370.192	1101.81
370.556	1140.22
370.92	1140.22
371.284	1083.73
371.648	1203.5
372.012	1219.32
372.376	1239.66
372.74	1244.18
373.104	1327.79
373.468	1467.9
373.831	1431.74
374.195	1447.56
374.559	1497.28
374.922	1501.8
375.286	1497.28
375.65	1556.03
376.013	1662.24
376.377	1653.21
376.74	1822.69
377.104	1858.85
377.467	2003.48
377.83	1937.94
378.194	2132.29
378.557	2125.51
378.92	2306.3
379.284	2387.65
379.647	2600.07
380.01	2841.87
380.373	2916.45
380.736	3160.51
381.1	3490.44
381.463	3589.88
381.826	4030.54
382.189	4229.41
382.552	4548.04
382.915	4932.21
383.278	5135.6
383.64	5763.83
384.003	6136.7
384.366	6649.68
384.729	7413.51
385.092	7824.79
385.454	8439.47
385.817	9379.56
386.18	10328.68
386.542	11436
386.905	12480.04
387.268	13738.76
387.63	15237.03
387.993	16226.83
388.355	17840.35
388.718	19614.31
389.08	21419.92
389.442	23227.78
389.805	25907.93
390.167	26936.16
390.529	30312.34
390.892	33794.73
391.254	35616.15
391.616	38307.61
391.978	42481.51
392.34	46438.47
392.702	48522.03
393.064	51667.71
393.426	53785.17
393.788	55606.59
394.15	57222.37
394.512	59016.67
394.874	61007.58
395.236	62704.71
395.598	64566.81
395.96	65052.67
396.321	65052.67
396.683	65052.67
397.045	65052.67
397.406	65052.67
397.768	65052.67
398.13	65052.67
398.491	65052.67
398.853	65052.67
399.214	65052.67
399.576	65052.67
399.937	65052.67
400.299	65052.67
400.66	65052.67
401.021	65052.67
401.383	65052.67
401.744	65052.67
402.105	65052.67
402.466	65052.67
402.827	65052.67
403.189	65052.67
403.55	65052.67
403.911	65052.67
404.272	65052.67
404.633	65052.67
404.994	65052.67
405.355	65052.67
405.716	65052.67
406.077	65052.67
406.437	65052.67
406.798	65052.67
407.159	65052.67
407.52	65052.67
407.88	65052.67
408.241	65052.67
408.602	65052.67
408.962	65052.67
409.323	65052.67
409.684	65052.67
410.044	65052.67
410.405	65052.67
410.765	65052.67
411.125	65052.67
411.486	65052.67
411.846	65052.67
412.206	65052.67
412.567	65052.67
412.927	65052.67
413.287	65052.67
413.647	65052.67
414.007	65052.67
414.368	65052.67
414.728	65052.67
415.088	65052.67
415.448	65052.67
415.808	65052.67
416.168	65052.67
416.528	65052.67
416.887	65052.67
417.247	65052.67
417.607	65052.67
417.967	65052.67
418.327	65052.67
418.686	65052.67
419.046	65052.67
419.406	65052.67
419.765	65052.67
420.125	65052.67
420.484	65052.67
420.844	65052.67
421.203	65052.67
421.563	64282.07
421.922	64169.08
422.282	62383.81
422.641	60878.77
423	59631.34
423.36	58716.11
423.719	56598.65
424.078	54610
424.437	52415.71
424.796	51127.61
425.155	49731.04
425.515	47459.91
425.874	46117.57
426.233	42036.32
426.592	39469.16
426.95	38562.97
427.309	36427.43
427.668	35476.04
428.027	32425.28
428.386	32219.63
428.745	28775.66
429.103	27259.31
429.462	25785.9
429.821	23962.22
430.179	23333.99
430.538	22418.76
430.897	21535.17
431.255	20631.24
431.614	19241.44
431.972	18710.38
432.33	17996.28
432.689	17501.38
433.047	16170.34
433.405	15325.16
433.764	14667.55
434.122	14303.72
434.48	13585.09
434.838	12721.84
435.197	12353.49
435.555	12071.01
435.913	11381.76
436.271	10907.2
436.629	10346.76
436.987	10055.24
437.345	9295.94
437.703	9210.07
438.061	8638.33
438.418	8319.7
438.776	7808.98
439.134	7768.3
439.492	7232.72
439.849	6986.4
440.207	6717.48
440.565	6421.44
440.922	6127.66
441.28	5578.53
441.637	5537.85
441.995	5413.56
442.352	5203.39
442.71	4954.81
443.067	4807.92
443.425	4437.31
443.782	4371.78
444.139	4161.61
444.496	3996.65
444.854	4035.06
445.211	3734.51
445.568	3754.84
445.925	3391.01
446.282	3413.61
446.639	3289.32
446.996	3158.25
447.353	3354.86
447.71	3189.89
448.067	3052.04
448.424	2893.85
448.781	2864.47
449.137	2577.47
449.494	2652.05
449.851	2633.97
450.208	2401.21
450.564	2211.38
450.921	2240.76
451.278	2188.78
451.634	2315.33
451.991	2123.25
452.347	2105.17
452.704	2017.04
453.06	1946.98
453.416	1876.93
453.773	1673.54
454.129	1741.34
454.485	1673.54
454.841	1637.39
455.198	1605.75
455.554	1422.7
455.91	1533.43
456.266	1551.51
456.622	1393.32
456.978	1361.69
457.334	1266.77
457.69	1212.54
458.046	1239.66
458.402	1212.54
458.758	1185.42
459.114	1095.03
459.469	1135.7
459.825	943.62
460.181	1040.79
460.536	1074.69
460.892	948.14
461.248	1006.89
461.603	1049.83
461.959	1004.63
462.314	1013.67
462.67	925.54
463.025	977.52
463.38	916.5
463.736	878.08
464.091	871.3
464.446	832.89
464.802	930.06
465.157	891.64
465.512	878.08
465.867	860.01
466.222	882.6
466.577	846.45
466.932	828.37
467.287	758.31
467.642	701.82
467.997	810.29
468.352	747.01
468.707	724.42
469.062	737.97
469.417	731.2
469.771	697.3
470.126	719.9
470.481	747.01
470.835	661.14
471.19	710.86
471.544	692.78
471.899	643.06
472.253	719.9
472.608	708.6
472.962	724.42
473.317	640.8
473.671	661.14
474.025	622.72
474.38	620.46
474.734	600.13
475.088	679.22
475.442	577.53
475.796	688.26
476.15	640.8
476.504	629.5
476.858	618.2
477.212	568.49
477.566	661.14
477.92	561.71
478.274	652.1
478.628	611.42
478.982	523.29
479.336	600.13
479.689	663.4
480.043	507.47
480.397	552.67
480.75	636.28
481.104	588.83
481.457	604.65
481.811	570.75
482.164	573.01
482.518	577.53
482.871	561.71
483.225	604.65
483.578	541.37
483.931	559.45
484.284	604.65
484.638	586.57
484.991	505.21
485.344	536.85
485.697	489.39
486.05	471.32
486.403	573.01
486.756	570.75
487.109	527.81
487.462	550.41
487.815	548.15
488.168	550.41
488.52	543.63
488.873	550.41
489.226	575.27
489.579	559.45
489.931	545.89
490.284	509.73
490.637	502.95
490.989	527.81
491.342	509.73
491.694	532.33
492.047	557.19
492.399	532.33
492.751	591.09
493.104	514.25
493.456	493.91
493.808	491.65
494.16	525.55
494.513	536.85
494.865	466.8
495.217	518.77
495.569	548.15
495.921	469.06
496.273	469.06
496.625	525.55
496.977	507.47
497.329	613.68
497.68	455.5
498.032	527.81
498.384	491.65
498.736	489.39
499.087	561.71
499.439	539.11
499.791	559.45
500.142	548.15
500.494	496.17
500.845	582.05
501.197	588.83
501.548	634.02
501.9	568.49
502.251	543.63
502.602	566.23
502.954	568.49
503.305	532.33
503.656	516.51
504.007	527.81
504.358	541.37
504.709	505.21
505.061	518.77
505.412	586.57
505.763	613.68
506.113	627.24
506.464	600.13
506.815	708.6
507.166	643.06
507.517	588.83
507.868	656.62
508.218	634.02
508.569	600.13
508.92	624.98
509.27	735.72
509.621	681.48
509.971	704.08
510.322	638.54
510.672	706.34
511.023	686
511.373	640.8
511.723	744.75
512.074	715.38
512.424	771.87
512.774	726.68
513.124	758.31
513.475	740.23
513.825	758.31
514.175	710.86
514.525	769.61
514.875	798.99
515.225	832.89
515.575	844.19
515.924	765.09
516.274	857.75
516.624	830.63
516.974	826.11
517.324	902.94
517.673	844.19
518.023	860.01
518.373	882.6
518.722	1013.67
519.072	941.36
519.421	984.3
519.771	948.14
520.12	1036.27
520.469	936.84
520.819	930.06
521.168	945.88
521.517	991.08
521.867	1013.67
522.216	997.86
522.565	954.92
522.914	1047.57
523.263	993.34
523.612	982.04
523.961	1015.93
524.31	1006.89
524.659	1020.45
525.008	1101.81
525.357	1099.55
525.705	1099.55
526.054	1090.51
526.403	1106.33
526.752	1085.99
527.1	1101.81
527.449	1176.38
527.797	1124.41
528.146	1083.73
528.495	1232.88
528.843	1165.08
529.191	1067.91
529.54	1151.52
529.888	1226.1
530.236	1187.68
530.585	1171.86
530.933	1160.56
531.281	1174.12
531.629	1149.26
531.977	1183.16
532.325	1183.16
532.673	1095.03
533.021	1226.1
533.369	1137.96
533.717	1174.12
534.065	1137.96
534.413	1194.46
534.761	1124.41
535.108	1117.63
535.456	1187.68
535.804	1314.23
536.151	1266.77
536.499	1284.85
536.847	1244.18
537.194	1266.77
537.542	1201.24
537.889	1246.44
538.236	1189.94
538.584	1151.52
538.931	1162.82
539.278	1149.26
539.626	1223.84
539.973	1153.78
540.32	1228.36
540.667	1262.25
541.014	1230.62
541.361	1151.52
541.708	1135.7
542.055	1189.94
542.402	1217.06
542.749	1174.12
543.096	1192.2
543.443	1156.04
543.789	1221.58
544.136	1226.1
544.483	1174.12
544.83	1307.45
545.176	1153.78
545.523	1314.23
545.869	1266.77
546.216	1142.48
546.562	1257.74
546.909	1239.66
547.255	1293.89
547.601	1350.39
547.948	1228.36
548.294	1253.22
548.64	1230.62
548.986	1230.62
549.332	1316.49
549.678	1205.76
550.025	1273.55
550.371	1228.36
550.717	1248.7
551.062	1232.88
551.408	1205.76
551.754	1309.71
552.1	1246.44
552.446	1287.11
552.792	1217.06
553.137	1318.75
553.483	1307.45
553.828	1325.53
554.174	1363.95
554.52	1316.49
554.865	1264.51
555.211	1323.27
555.556	1309.71
555.901	1406.88
556.247	1334.57
556.592	1352.65
556.937	1343.61
557.282	1391.07
557.628	1334.57
557.973	1406.88
558.318	1318.75
558.663	1264.51
559.008	1382.03
559.353	1404.62
559.698	1314.23
560.043	1483.72
560.388	1472.42
560.732	1479.2
561.077	1411.4
561.422	1409.14
561.766	1341.35
562.111	1501.8
562.456	1510.84
562.8	1598.97
563.145	1603.49
563.489	1483.72
563.834	1506.32
564.178	1495.02
564.523	1560.55
564.867	1601.23
565.211	1517.62
565.555	1544.73
565.9	1574.11
566.244	1522.14
566.588	1592.19
566.932	1666.76
567.276	1546.99
567.62	1641.91
567.964	1684.84
568.308	1639.65
568.652	1734.56
568.996	1768.46
569.339	1657.72
569.683	1693.88
570.027	1648.69
570.371	1727.78
570.714	1666.76
571.058	1691.62
571.401	1727.78
571.745	1718.74
572.088	1718.74
572.432	1748.12
572.775	1689.36
573.118	1861.11
573.462	1772.98
573.805	1779.76
574.148	1723.26
574.491	1635.13
574.835	1766.2
575.178	1741.34
575.521	1727.78
575.864	1913.09
576.207	1829.47
576.55	1669.02
576.892	1782.02
577.235	1734.56
577.578	1680.32
577.921	1813.65
578.264	1761.68
578.606	1892.75
578.949	1779.76
579.292	1818.17
579.634	1707.44
579.977	1772.98
580.319	1843.03
580.662	1809.13
581.004	1782.02
581.346	1745.86
581.689	1777.5
582.031	1829.47
582.373	1739.08
582.715	1745.86
583.057	1802.35
583.4	1714.22
583.742	1650.95
584.084	1779.76
584.426	1608.01
584.768	1626.09
585.109	1698.4
585.451	1612.53
585.793	1623.83
586.135	1628.35
586.477	1610.27
586.818	1659.98
587.16	1562.81
587.502	1678.06
587.843	1598.97
588.185	1479.2
588.526	1515.36
588.868	1549.25
589.209	1510.84
589.55	1610.27
589.892	1483.72
590.233	1526.65
590.574	1501.8
590.915	1447.56
591.257	1499.54
591.598	1544.73
591.939	1327.79
592.28	1517.62
592.621	1400.1
592.962	1409.14
593.303	1368.47
593.643	1330.05
593.984	1427.22
594.325	1314.23
594.666	1345.87
595.006	1271.29
595.347	1296.15
595.688	1214.8
596.028	1147
596.369	1262.25
596.709	1271.29
597.05	1203.5
597.39	1160.56
597.73	1174.12
598.071	1237.4
598.411	1178.64
598.751	1147
599.091	1214.8
599.431	1104.07
599.772	1083.73
600.112	1149.26
600.452	1167.34
600.792	1067.91
601.132	1074.69
601.471	1085.99
601.811	1099.55
602.151	1140.22
602.491	1020.45
602.831	1034.01
603.17	1178.64
603.51	1106.33
603.849	1022.71
604.189	1074.69
604.528	1004.63
604.868	1090.51
605.207	1036.27
605.547	997.86
605.886	991.08
606.225	973
606.565	1074.69
606.904	1031.75
607.243	934.58
607.582	997.86
607.921	975.26
608.26	905.2
608.599	1029.49
608.938	902.94
609.277	959.44
609.616	963.96
609.955	882.6
610.293	952.66
610.632	1011.41
610.971	932.32
611.309	882.6
611.648	909.72
611.987	1000.11
612.325	787.69
612.664	1000.11
613.002	927.8
613.34	893.9
613.679	844.19
614.017	911.98
614.355	905.2
614.694	925.54
615.032	936.84
615.37	891.64
615.708	923.28
616.046	801.25
616.384	848.71
616.722	900.68
617.06	862.27
617.398	907.46
617.736	850.97
618.073	853.23
618.411	812.55
618.749	909.72
619.086	882.6
619.424	884.86
619.762	742.49
620.099	823.85
620.437	810.29
620.774	817.07
621.112	857.75
621.449	889.38
621.786	789.95
622.123	916.5
622.461	848.71
622.798	884.86
623.135	896.16
623.472	850.97
623.809	850.97
624.146	776.39
624.483	923.28
624.82	869.04
625.157	778.65
625.494	830.63
625.83	792.21
626.167	826.11
626.504	860.01
626.841	855.49
627.177	810.29
627.514	832.89
627.85	814.81
628.187	900.68
628.523	855.49
628.86	889.38
629.196	839.67
629.532	812.55
629.869	765.09
630.205	760.57
630.541	801.25
630.877	828.37
631.213	776.39
631.549	715.38
631.885	785.43
632.221	798.99
632.557	850.97
632.893	771.87
633.229	760.57
633.564	846.45
633.9	710.86
634.236	647.58
634.572	787.69
634.907	808.03
635.243	792.21
635.578	753.79
635.914	753.79
636.249	837.41
636.585	785.43
636.92	749.27
637.255	751.53
637.59	713.12
637.926	692.78
638.261	649.84
638.596	778.65
638.931	710.86
639.266	796.73
639.601	683.74
639.936	724.42
640.271	744.75
640.606	735.72
640.94	683.74
641.275	701.82
641.61	640.8
641.945	719.9
642.279	658.88
642.614	663.4
642.948	667.92
643.283	670.18
643.617	674.7
643.952	708.6
644.286	600.13
644.62	573.01
644.955	690.52
645.289	577.53
645.623	595.61
645.957	613.68
646.291	634.02
646.625	563.97
646.959	568.49
647.293	584.31
647.627	661.14
647.961	609.16
648.295	597.87
648.629	658.88
648.962	559.45
649.296	613.68
649.63	688.26
649.963	593.35
650.297	566.23
650.63	638.54
650.964	609.16
651.297	588.83
651.631	593.35
651.964	554.93
652.297	518.77
652.631	573.01
652.964	570.75
653.297	606.9
653.63	595.61
653.963	552.67
654.296	552.67
654.629	579.79
654.962	489.39
655.295	600.13
655.628	554.93
655.961	527.81
656.293	545.89
656.626	439.68
656.959	523.29
657.291	516.51
657.624	536.85
657.956	509.73
658.289	480.35
658.621	444.2
658.954	496.17
659.286	462.28
659.618	455.5
659.95	545.89
660.283	550.41
660.615	534.59
660.947	446.46
661.279	450.98
661.611	457.76
661.943	466.8
662.275	448.72
662.607	473.58
662.939	403.52
663.27	480.35
663.602	435.16
663.934	426.12
664.266	466.8
664.597	430.64
664.929	521.03
665.26	466.8
665.592	396.74
665.923	432.9
666.255	444.2
666.586	446.46
666.917	448.72
667.248	462.28
667.58	446.46
667.911	446.46
668.242	389.96
668.573	410.3
668.904	446.46
669.235	401.26
669.566	362.84
669.897	421.6
670.228	421.6
670.558	376.4
670.889	516.51
671.22	401.26
671.551	423.86
671.881	347.02
672.212	471.32
672.542	432.9
672.873	448.72
673.203	430.64
673.533	426.12
673.864	423.86
674.194	347.02
674.524	460.02
674.855	448.72
675.185	462.28
675.515	396.74
675.845	389.96
676.175	394.48
676.505	374.14
676.835	387.7
677.165	408.04
677.494	360.58
677.824	414.82
678.154	356.06
678.484	380.92
678.813	448.72
679.143	385.44
679.472	453.24
679.802	360.58
680.131	408.04
680.461	403.52
680.79	326.69
681.119	392.22
681.449	292.79
681.778	417.08
682.107	412.56
682.436	385.44
682.765	387.7
683.094	326.69
683.423	428.38
683.752	435.16
684.081	374.14
684.41	426.12
684.739	324.43
685.067	399
685.396	326.69
685.725	387.7
686.053	396.74
686.382	349.28
686.711	317.65
687.039	349.28
687.367	313.13
687.696	333.47
688.024	367.36
688.352	412.56
688.681	324.43
689.009	319.91
689.337	310.87
689.665	324.43
689.993	358.32
690.321	360.58
690.649	408.04
690.977	385.44
691.305	263.41
691.633	328.95
691.961	362.84
692.288	349.28
692.616	389.96
692.944	319.91
693.271	342.51
693.599	281.49
693.926	376.4
694.254	319.91
694.581	394.48
694.908	347.02
695.236	335.73
695.563	351.54
695.89	349.28
696.217	326.69
696.544	313.13
696.871	376.4
697.198	202.4
697.525	319.91
697.852	331.21
698.179	326.69
698.506	392.22
698.833	310.87
699.16	317.65
699.486	385.44
699.813	335.73
700.139	342.51
700.466	358.32
700.793	365.1
701.119	288.27
701.445	299.57
701.772	263.41
702.098	297.31
702.424	247.59
702.75	256.63
703.077	308.61
703.403	331.21
703.729	344.76
704.055	324.43
704.381	306.35
704.707	353.8
705.033	383.18
705.358	414.82
705.684	288.27
706.01	299.57
706.336	351.54
706.661	347.02
706.987	308.61
707.312	313.13
707.638	283.75
707.963	365.1
708.289	308.61
708.614	342.51
708.939	337.99
709.265	306.35
709.59	299.57
709.915	331.21
710.24	353.8
710.565	310.87
710.89	301.83
711.215	331.21
711.54	286.01
711.865	367.36
712.19	310.87
712.515	279.23
712.839	351.54
713.164	304.09
713.489	344.76
713.813	258.89
714.138	254.37
714.462	263.41
714.787	313.13
715.111	265.67
715.435	270.19
715.76	383.18
716.084	308.61
716.408	297.31
716.732	272.45
717.056	301.83
717.381	301.83
717.705	279.23
718.028	290.53
718.352	227.25
718.676	340.25
719	299.57
719.324	283.75
719.648	279.23
719.971	267.93
720.295	297.31
720.618	290.53
720.942	344.76
721.265	270.19
721.589	317.65
721.912	326.69
722.236	243.07
722.559	340.25
722.882	304.09
723.205	238.55
723.528	349.28
723.851	328.95
724.174	313.13
724.497	328.95
724.82	333.47
725.143	247.59
725.466	279.23
725.789	308.61
726.112	274.71
726.434	279.23
726.757	279.23
727.08	245.33
727.402	313.13
727.725	279.23
728.047	252.11
728.37	288.27
728.692	274.71
729.014	324.43
729.336	331.21
729.659	276.97
729.981	224.99
730.303	234.03
730.625	254.37
730.947	299.57
731.269	279.23
731.591	313.13
731.913	306.35
732.235	322.17
732.556	297.31
732.878	258.89
733.2	274.71
733.521	261.15
733.843	270.19
734.164	342.51
734.486	290.53
734.807	333.47
735.129	236.29
735.45	263.41
735.771	356.06
736.092	267.93
736.414	371.88
736.735	317.65
737.056	286.01
737.377	324.43
737.698	326.69
738.019	286.01
738.34	276.97
738.66	342.51
738.981	261.15
739.302	236.29
739.623	267.93
739.943	263.41
740.264	295.05
740.584	261.15
740.905	218.21
741.225	317.65
741.546	315.39
741.866	315.39
742.186	281.49
742.507	304.09
742.827	267.93
743.147	290.53
743.467	249.85
743.787	258.89
744.107	337.99
744.427	256.63
744.747	240.81
745.067	272.45
745.386	258.89
745.706	276.97
746.026	292.79
746.346	362.84
746.665	272.45
746.985	245.33
747.304	224.99
747.624	306.35
747.943	229.51
748.262	301.83
748.582	220.47
748.901	292.79
749.22	281.49
749.539	245.33
749.858	324.43
750.177	249.85
750.496	220.47
750.815	215.95
751.134	220.47
751.453	263.41
751.772	324.43
752.09	267.93
752.409	252.11
752.728	272.45
753.046	211.44
753.365	306.35
753.683	276.97
754.002	295.05
754.32	297.31
754.639	213.69
754.957	276.97
755.275	195.62
755.593	347.02
755.911	263.41
756.23	315.39
756.548	258.89
756.866	340.25
757.183	220.47
757.501	243.07
757.819	263.41
758.137	249.85
758.455	299.57
758.772	265.67
759.09	263.41
759.408	317.65
759.725	270.19
760.043	240.81
760.36	276.97
760.677	283.75
760.995	292.79
761.312	276.97
761.629	306.35
761.946	304.09
762.264	281.49
762.581	347.02
762.898	247.59
763.215	270.19
763.532	213.69
763.848	249.85
764.165	272.45
764.482	247.59
764.799	243.07
765.115	245.33
765.432	218.21
765.749	283.75
766.065	297.31
766.382	200.14
766.698	240.81
767.014	240.81
767.331	295.05
767.647	231.77
767.963	261.15
768.279	249.85
768.595	254.37
768.911	274.71
769.227	222.73
769.543	231.77
769.859	286.01
770.175	206.92
770.491	245.33
770.807	292.79
771.122	256.63
771.438	261.15
771.754	310.87
772.069	188.84
772.385	304.09
772.7	276.97
773.016	270.19
773.331	191.1
773.646	231.77
773.961	231.77
774.277	267.93
774.592	292.79
774.907	222.73
775.222	256.63
775.537	222.73
775.852	281.49
776.167	254.37
776.482	234.03
776.796	258.89
777.111	249.85
777.426	243.07
777.74	258.89
778.055	326.69
778.369	263.41
778.684	279.23
778.998	272.45
779.313	288.27
779.627	317.65
779.941	209.18
780.255	213.69
780.57	220.47
780.884	236.29
781.198	258.89
781.512	204.66
781.826	220.47
782.14	319.91
782.453	344.76
782.767	231.77
783.081	209.18
783.395	267.93
783.708	229.51
784.022	243.07
784.335	182.06
784.649	272.45
784.962	272.45
785.276	222.73
785.589	245.33
785.902	249.85
786.216	254.37
786.529	290.53
786.842	206.92
787.155	206.92
787.468	281.49
787.781	270.19
788.094	243.07
788.407	213.69
788.72	256.63
789.032	222.73
789.345	313.13
789.658	290.53
789.97	209.18
790.283	310.87
790.595	224.99
790.908	258.89
791.22	249.85
791.532	231.77
791.845	349.28
792.157	270.19
792.469	276.97
792.781	247.59
793.093	286.01
793.405	261.15
793.717	254.37
794.029	292.79
794.341	308.61
794.653	245.33
794.965	209.18
795.276	290.53
795.588	261.15
795.9	349.28
796.211	295.05
796.523	297.31
796.834	263.41
797.146	263.41
797.457	240.81
797.768	258.89
798.08	202.4
798.391	202.4
798.702	290.53
799.013	218.21
799.324	267.93
799.635	200.14
799.946	231.77
800.257	218.21
800.568	288.27
800.878	227.25
801.189	222.73
801.5	265.67
801.81	290.53
802.121	326.69
802.431	229.51
802.742	263.41
803.052	295.05
803.363	274.71
803.673	292.79
803.983	272.45
804.293	252.11
804.603	313.13
804.913	304.09
805.224	267.93
805.533	213.69
805.843	182.06
806.153	272.45
806.463	234.03
806.773	261.15
807.083	222.73
807.392	238.55
807.702	267.93
808.011	274.71
808.321	340.25
808.63	247.59
808.94	272.45
809.249	240.81
809.558	243.07
809.868	215.95
810.177	238.55
810.486	238.55
810.795	245.33
811.104	243.07
811.413	240.81
811.722	211.44
812.031	213.69
812.339	258.89
812.648	249.85
812.957	265.67
813.266	276.97
813.574	295.05
813.883	322.17
814.191	191.1
814.5	220.47
814.808	229.51
815.116	202.4
815.424	222.73
815.733	267.93
816.041	249.85
816.349	243.07
816.657	270.19
816.965	263.41
817.273	215.95
817.581	281.49
817.889	279.23
818.196	279.23
818.504	227.25
818.812	211.44
819.12	267.93
819.427	274.71
819.735	186.58
820.042	258.89
820.349	258.89
820.657	270.19
820.964	224.99
821.271	240.81
821.579	267.93
821.886	304.09
822.193	238.55
822.5	236.29
822.807	249.85
823.114	267.93
823.421	170.76
823.727	279.23
824.034	218.21
824.341	281.49
824.648	254.37
824.954	227.25
825.261	218.21
825.567	182.06
825.874	265.67
826.18	270.19
826.486	252.11
826.793	297.31
827.099	252.11
827.405	261.15
827.711	173.02
828.017	288.27
828.323	267.93
828.629	238.55
828.935	247.59
829.241	213.69
829.547	224.99
829.852	319.91
830.158	288.27
830.464	245.33
830.769	229.51
831.075	274.71
831.38	238.55
831.686	247.59
831.991	265.67
832.296	206.92
832.601	211.44
832.907	240.81
833.212	267.93
833.517	252.11
833.822	249.85
834.127	283.75
834.432	297.31
834.737	272.45
835.041	270.19
835.346	234.03
835.651	238.55
835.956	243.07
836.26	220.47
836.565	218.21
836.869	231.77
837.174	286.01
837.478	256.63
837.782	276.97
838.087	281.49
838.391	276.97
838.695	258.89
838.999	245.33
839.303	206.92
839.607	292.79
839.911	252.11
840.215	220.47
840.519	168.5
840.822	243.07
841.126	254.37
841.43	258.89
841.733	240.81
842.037	245.33
842.34	206.92
842.644	283.75
842.947	308.61
843.251	272.45
843.554	308.61
843.857	231.77
844.16	227.25
844.463	301.83
844.766	267.93
845.069	252.11
845.372	249.85
845.675	270.19
845.978	234.03
846.281	276.97
846.583	211.44
846.886	202.4
847.189	301.83
847.491	247.59
847.794	272.45
848.096	290.53
848.399	229.51
848.701	238.55
849.003	335.73
849.305	245.33
849.608	240.81
849.91	184.32
850.212	247.59
850.514	258.89
850.816	243.07
851.118	209.18
851.419	267.93
851.721	247.59
852.023	191.1
852.325	267.93
852.626	288.27
852.928	202.4
853.229	276.97
853.531	202.4
853.832	274.71
854.133	245.33
854.435	258.89
854.736	295.05
855.037	286.01
855.338	227.25
855.639	245.33
855.94	267.93
856.241	240.81
856.542	290.53
856.843	236.29
857.144	270.19
857.444	218.21
857.745	213.69
858.046	308.61
858.346	204.66
858.647	202.4
858.947	193.36
859.247	270.19
859.548	261.15
859.848	258.89
860.148	265.67
860.448	319.91
860.749	297.31
861.049	245.33
861.349	236.29
861.648	243.07
861.948	258.89
862.248	267.93
862.548	308.61
862.848	254.37
863.147	234.03
863.447	249.85
863.746	276.97
864.046	263.41
864.345	249.85
864.645	231.77
864.944	261.15
865.243	281.49
865.542	261.15
865.842	265.67
866.141	256.63
866.44	238.55
866.739	245.33
867.038	249.85
867.337	177.54
867.635	286.01
867.934	292.79
868.233	276.97
868.531	197.88
868.83	283.75
869.129	218.21
869.427	247.59
869.725	247.59
870.024	276.97
870.322	236.29
870.62	290.53
870.918	249.85
871.217	211.44
871.515	215.95
871.813	231.77
872.111	209.18
872.409	227.25
872.706	245.33
873.004	200.14
873.302	265.67
873.6	234.03
873.897	249.85
874.195	220.47
874.492	200.14
874.79	274.71
875.087	263.41
875.384	213.69
875.682	292.79
875.979	258.89
876.276	238.55
876.573	270.19
876.87	270.19
877.167	270.19
