Data from PL_2polymer_F8BT_MEHPPV_USB2H096331_0208.txt Node
Date: Tue Dec 15 16:16:14 CET 2020
User: spadmin
Spectrometer: USB2+H09633
Trigger mode: 0
Integration Time (sec): 1.000000E-2
Scans to average: 1
Electric dark correction enabled: true
Nonlinearity correction enabled: false
Boxcar width: 0
XAxis mode: Wavelengths
Number of Pixels in Spectrum: 2048
>>>>>Begin Spectral Data<<<<<
174.027	-95.48
174.405	-95.48
174.783	-95.48
175.162	-79.66
175.54	-124.86
175.918	-120.34
176.296	-88.7
176.674	-75.14
177.052	-86.44
177.43	-25.42
177.808	-48.02
178.186	-25.42
178.564	-29.94
178.942	-18.64
179.32	-29.94
179.698	-20.9
180.076	31.07
180.453	42.37
180.831	8.47
181.209	105.65
181.587	132.76
181.965	128.25
182.342	157.62
182.72	159.88
183.098	216.38
183.475	236.72
183.853	193.78
184.231	295.47
184.608	227.68
184.986	284.17
185.363	322.59
185.741	259.32
186.118	279.65
186.496	295.47
186.873	340.67
187.251	338.41
187.628	354.23
188.006	340.67
188.383	358.75
188.76	385.87
189.138	309.03
189.515	336.15
189.892	254.8
190.27	327.11
190.647	354.23
191.024	370.05
191.401	403.94
191.778	318.07
192.155	297.73
192.533	336.15
192.91	361.01
193.287	338.41
193.664	306.77
194.041	361.01
194.418	329.37
194.795	342.93
195.172	241.24
195.549	313.55
195.926	290.95
196.302	281.91
196.679	329.37
197.056	345.19
197.433	297.73
197.81	313.55
198.187	281.91
198.563	327.11
198.94	272.87
199.317	345.19
199.693	311.29
200.07	320.33
200.447	248.02
200.823	342.93
201.2	286.43
201.576	329.37
201.953	277.39
202.329	304.51
202.706	320.33
203.082	347.45
203.459	313.55
203.835	363.27
204.212	277.39
204.588	275.13
204.964	365.53
205.341	272.87
205.717	284.17
206.093	284.17
206.469	268.35
206.846	327.11
207.222	333.89
207.598	329.37
207.974	309.03
208.35	286.43
208.726	245.76
209.102	202.82
209.479	248.02
209.855	315.81
210.231	304.51
210.607	309.03
210.982	254.8
211.358	263.83
211.734	279.65
212.11	311.29
212.486	304.51
212.862	275.13
213.238	268.35
213.614	327.11
213.989	320.33
214.365	306.77
214.741	281.91
215.116	329.37
215.492	196.04
215.868	340.67
216.243	261.58
216.619	270.61
216.995	263.83
217.37	293.21
217.746	304.51
218.121	263.83
218.497	313.55
218.872	363.27
219.247	347.45
219.623	313.55
219.998	329.37
220.374	331.63
220.749	295.47
221.124	315.81
221.499	313.55
221.875	324.85
222.25	340.67
222.625	381.35
223	320.33
223.376	304.51
223.751	336.15
224.126	322.59
224.501	320.33
224.876	252.54
225.251	374.57
225.626	311.29
226.001	336.15
226.376	304.51
226.751	345.19
227.126	313.55
227.501	327.11
227.875	338.41
228.25	336.15
228.625	333.89
229	347.45
229.375	243.5
229.749	327.11
230.124	324.85
230.499	270.61
230.873	349.71
231.248	322.59
231.623	313.55
231.997	320.33
232.372	390.39
232.746	293.21
233.121	315.81
233.495	313.55
233.87	356.49
234.244	399.42
234.619	336.15
234.993	354.23
235.367	356.49
235.742	354.23
236.116	304.51
236.49	379.09
236.865	313.55
237.239	358.75
237.613	351.97
237.987	342.93
238.361	318.07
238.736	385.87
239.11	311.29
239.484	327.11
239.858	410.72
240.232	394.9
240.606	336.15
240.98	318.07
241.354	306.77
241.728	345.19
242.102	388.13
242.475	304.51
242.849	349.71
243.223	361.01
243.597	379.09
243.971	322.59
244.344	354.23
244.718	345.19
245.092	354.23
245.466	347.45
245.839	336.15
246.213	342.93
246.586	331.63
246.96	422.02
247.334	354.23
247.707	367.79
248.081	365.53
248.454	383.61
248.828	345.19
249.201	363.27
249.574	367.79
249.948	349.71
250.321	336.15
250.694	381.35
251.068	403.94
251.441	385.87
251.814	394.9
252.187	351.97
252.561	318.07
252.934	399.42
253.307	437.84
253.68	408.46
254.053	363.27
254.426	372.31
254.799	340.67
255.172	367.79
255.545	397.16
255.918	345.19
256.291	345.19
256.664	406.2
257.037	410.72
257.41	428.8
257.782	397.16
258.155	347.45
258.528	415.24
258.901	422.02
259.273	309.03
259.646	349.71
260.019	381.35
260.391	374.57
260.764	376.83
261.137	419.76
261.509	361.01
261.882	358.75
262.254	388.13
262.627	399.42
262.999	399.42
263.372	419.76
263.744	367.79
264.116	361.01
264.489	358.75
264.861	356.49
265.233	397.16
265.606	399.42
265.978	361.01
266.35	336.15
266.722	347.45
267.094	383.61
267.467	358.75
267.839	379.09
268.211	367.79
268.583	444.62
268.955	367.79
269.327	390.39
269.699	331.63
270.071	415.24
270.443	383.61
270.815	372.31
271.186	428.8
271.558	376.83
271.93	401.68
272.302	417.5
272.674	354.23
273.045	392.65
273.417	392.65
273.789	394.9
274.16	383.61
274.532	390.39
274.904	408.46
275.275	363.27
275.647	367.79
276.018	397.16
276.39	449.14
276.761	449.14
277.133	358.75
277.504	370.05
277.875	392.65
278.247	392.65
278.618	397.16
278.989	437.84
279.361	361.01
279.732	365.53
280.103	446.88
280.474	399.42
280.846	403.94
281.217	412.98
281.588	340.67
281.959	417.5
282.33	399.42
282.701	383.61
283.072	372.31
283.443	399.42
283.814	422.02
284.185	406.2
284.556	435.58
284.927	417.5
285.297	388.13
285.668	428.8
286.039	408.46
286.41	394.9
286.781	385.87
287.151	403.94
287.522	455.92
287.893	424.28
288.263	383.61
288.634	383.61
289.004	408.46
289.375	408.46
289.745	485.3
290.116	372.31
290.486	403.94
290.857	437.84
291.227	442.36
291.598	381.35
291.968	367.79
292.338	435.58
292.709	440.1
293.079	390.39
293.449	394.9
293.819	408.46
294.189	446.88
294.56	374.57
294.93	379.09
295.3	426.54
295.67	408.46
296.04	394.9
296.41	507.9
296.78	415.24
297.15	388.13
297.52	374.57
297.89	383.61
298.259	446.88
298.629	431.06
298.999	476.26
299.369	431.06
299.739	422.02
300.108	478.52
300.478	367.79
300.848	422.02
301.217	408.46
301.587	403.94
301.957	478.52
302.326	460.44
302.696	458.18
303.065	442.36
303.435	494.34
303.804	455.92
304.174	460.44
304.543	399.42
304.912	428.8
305.282	525.97
305.651	474
306.02	494.34
306.39	417.5
306.759	433.32
307.128	494.34
307.497	514.68
307.866	417.5
308.235	451.4
308.604	437.84
308.974	485.3
309.343	455.92
309.712	449.14
310.08	512.42
310.449	503.38
310.818	412.98
311.187	471.74
311.556	426.54
311.925	474
312.294	514.68
312.662	478.52
313.031	449.14
313.4	487.56
313.769	507.9
314.137	435.58
314.506	451.4
314.874	485.3
315.243	541.79
315.612	431.06
315.98	494.34
316.349	415.24
316.717	458.18
317.085	471.74
317.454	464.96
317.822	537.27
318.191	433.32
318.559	453.66
318.927	539.53
319.295	512.42
319.664	544.05
320.032	467.22
320.4	530.49
320.768	458.18
321.136	505.64
321.504	458.18
321.872	532.75
322.24	568.91
322.608	458.18
322.976	496.6
323.344	483.04
323.712	521.46
324.08	514.68
324.448	476.26
324.816	553.09
325.183	496.6
325.551	483.04
325.919	530.49
326.287	510.16
326.654	546.31
327.022	444.62
327.389	489.82
327.757	460.44
328.125	471.74
328.492	505.64
328.86	498.86
329.227	544.05
329.594	519.2
329.962	539.53
330.329	562.13
330.697	408.46
331.064	503.38
331.431	564.39
331.798	532.75
332.166	523.72
332.533	584.73
332.9	516.94
333.267	571.17
333.634	598.29
334.001	586.99
334.368	586.99
334.735	564.39
335.102	607.33
335.469	636.71
335.836	555.35
336.203	582.47
336.57	571.17
336.937	505.64
337.304	582.47
337.67	553.09
338.037	548.57
338.404	568.91
338.771	605.07
339.137	614.11
339.504	584.73
339.87	645.75
340.237	584.73
340.604	582.47
340.97	641.23
341.337	636.71
341.703	657.04
342.069	600.55
342.436	614.11
342.802	566.65
343.169	652.53
343.535	600.55
343.901	580.21
344.267	586.99
344.634	625.41
345	650.27
345.366	652.53
345.732	593.77
346.098	618.63
346.464	625.41
346.83	546.31
347.196	641.23
347.562	618.63
347.928	663.82
348.294	607.33
348.66	562.13
349.026	672.86
349.392	557.61
349.757	618.63
350.123	695.46
350.489	648.01
350.855	643.49
351.22	699.98
351.586	699.98
351.951	711.28
352.317	697.72
352.683	663.82
353.048	702.24
353.414	668.34
353.779	709.02
354.144	690.94
354.51	675.12
354.875	706.76
355.24	657.04
355.606	663.82
355.971	704.5
356.336	709.02
356.701	711.28
357.067	731.62
357.432	681.9
357.797	722.58
358.162	774.56
358.527	751.96
358.892	873.99
359.257	758.74
359.622	763.26
359.987	783.6
360.352	767.78
360.717	806.19
361.082	837.83
361.446	828.79
361.811	742.92
362.176	749.7
362.541	824.27
362.905	862.69
363.27	867.21
363.635	808.45
363.999	948.56
364.364	781.34
364.728	862.69
365.093	948.56
365.457	1023.14
365.822	935
366.186	921.44
366.55	953.08
366.915	962.12
367.279	989.24
367.643	948.56
368.008	993.76
368.372	1000.54
368.736	1045.74
369.1	1081.89
369.464	1054.77
369.828	1075.11
370.192	1104.49
370.556	1147.43
370.92	1093.19
371.284	1201.66
371.648	1138.39
372.012	1253.64
372.376	1346.29
372.74	1276.24
373.104	1337.25
373.468	1441.21
373.831	1472.84
374.195	1479.62
374.559	1384.71
374.922	1434.43
375.286	1554.2
375.65	1603.91
376.013	1703.35
376.377	1768.88
376.74	1721.42
377.104	1789.22
377.467	2017.46
377.83	2035.54
378.194	2297.68
378.557	2327.06
378.92	2473.95
379.284	2419.71
379.647	2573.38
380.01	2702.19
380.373	3054.72
380.736	3088.62
381.1	3493.13
381.463	3644.54
381.826	3951.87
382.189	4279.55
382.552	4661.46
382.915	4821.91
383.278	5328.11
383.64	5777.81
384.003	6358.59
384.366	6668.19
384.729	7465.91
385.092	7854.6
385.454	8652.31
385.817	9563.03
386.18	10620.62
386.542	11660.15
386.905	12677.07
387.268	13935.79
387.63	15330.11
387.993	16532.33
388.355	18236.24
388.718	19797.78
389.08	21827.11
389.442	23623.67
389.805	25720.79
390.167	27650.69
390.529	30848.34
390.892	34217.74
391.254	36339.72
391.616	38698.98
391.978	43008.47
392.34	46951.87
392.702	48531.49
393.064	51943.83
393.426	54271.45
393.788	56083.84
394.15	57726.73
394.512	59435.16
394.874	61231.72
395.236	62894.96
395.598	64822.59
395.96	65057.61
396.321	65057.61
396.683	65057.61
397.045	65057.61
397.406	65057.61
397.768	65057.61
398.13	65057.61
398.491	65057.61
398.853	65057.61
399.214	65057.61
399.576	65057.61
399.937	65057.61
400.299	65057.61
400.66	65057.61
401.021	65057.61
401.383	65057.61
401.744	65057.61
402.105	65057.61
402.466	65057.61
402.827	65057.61
403.189	65057.61
403.55	65057.61
403.911	65057.61
404.272	65057.61
404.633	65057.61
404.994	65057.61
405.355	65057.61
405.716	65057.61
406.077	65057.61
406.437	65057.61
406.798	65057.61
407.159	65057.61
407.52	65057.61
407.88	65057.61
408.241	65057.61
408.602	65057.61
408.962	65057.61
409.323	65057.61
409.684	65057.61
410.044	65057.61
410.405	65057.61
410.765	65057.61
411.125	65057.61
411.486	65057.61
411.846	65057.61
412.206	65057.61
412.567	65057.61
412.927	65057.61
413.287	65057.61
413.647	65057.61
414.007	65057.61
414.368	65057.61
414.728	65057.61
415.088	65057.61
415.448	65057.61
415.808	65057.61
416.168	65057.61
416.528	65057.61
416.887	65057.61
417.247	65057.61
417.607	65057.61
417.967	65057.61
418.327	65057.61
418.686	65057.61
419.046	65057.61
419.406	65057.61
419.765	65057.61
420.125	65057.61
420.484	65057.61
420.844	65057.61
421.203	65057.61
421.563	64813.55
421.922	64494.91
422.282	62741.29
422.641	61351.49
423	59995.6
423.36	59048.73
423.719	57159.51
424.078	55157.31
424.437	52933.64
424.796	51738.19
425.155	50350.65
425.515	47607.22
425.874	46685.21
426.233	42287.59
426.592	40138.49
426.95	39824.38
427.309	36308.08
427.668	36059.5
428.027	32997.44
428.386	32407.62
428.745	29094.72
429.103	27368.21
429.462	26278.97
429.821	24769.41
430.179	23546.84
430.538	22902.79
430.897	22163.82
431.255	20706.24
431.614	19266.73
431.972	18823.8
432.33	17750.38
432.689	17632.87
433.047	16383.19
433.405	15488.29
433.764	14930.12
434.122	14658.94
434.48	13727.89
434.838	13122.25
435.197	12575.38
435.555	12356.17
435.913	11411.56
436.271	11009.32
436.629	10426.28
436.987	9865.84
437.345	9660.2
437.703	9443.25
438.061	8826.32
438.418	8369.84
438.776	7951.77
439.134	7872.67
439.492	7276.08
439.849	7029.76
440.207	6573.27
440.565	6550.68
440.922	6078.37
441.28	5832.05
441.637	5795.89
441.995	5305.51
442.352	5065.97
442.71	4894.22
443.067	4824.17
443.425	4595.92
443.782	4347.34
444.139	4383.5
444.496	4105.54
444.854	3893.12
445.211	3786.91
445.568	3791.43
445.925	3563.18
446.282	3502.17
446.639	3346.24
446.996	3199.35
447.353	3382.4
447.71	3228.73
448.067	3221.95
448.424	2907.83
448.781	2831
449.137	2713.49
449.494	2677.33
449.851	2661.51
450.208	2412.93
450.564	2372.25
450.921	2216.33
451.278	2146.27
451.634	2225.37
451.991	2125.93
452.347	2044.58
452.704	2051.36
453.06	1927.07
453.416	1922.55
453.773	1800.52
454.129	1755.32
454.485	1619.73
454.841	1723.68
455.198	1621.99
455.554	1520.3
455.91	1574.53
456.266	1576.79
456.622	1518.04
456.978	1481.88
457.334	1312.39
457.69	1348.55
458.046	1319.17
458.402	1303.36
458.758	1147.43
459.114	1165.51
459.469	1163.25
459.825	1061.55
460.181	1183.58
460.536	993.76
460.892	1154.21
461.248	1032.18
461.603	996.02
461.959	973.42
462.314	1014.1
462.67	998.28
463.025	928.22
463.38	914.67
463.736	822.01
464.091	892.07
464.446	923.7
464.802	858.17
465.157	860.43
465.512	781.34
465.867	871.73
466.222	901.11
466.577	833.31
466.932	828.79
467.287	790.37
467.642	783.6
467.997	828.79
468.352	803.93
468.707	690.94
469.062	722.58
469.417	729.36
469.771	765.52
470.126	690.94
470.481	742.92
470.835	747.44
471.19	731.62
471.544	614.11
471.899	729.36
472.253	709.02
472.608	625.41
472.962	584.73
473.317	627.67
473.671	648.01
474.025	727.1
474.38	715.8
474.734	702.24
475.088	596.03
475.442	645.75
475.796	713.54
476.15	586.99
476.504	557.61
476.858	625.41
477.212	614.11
477.566	580.21
477.92	620.89
478.274	605.07
478.628	566.65
478.982	598.29
479.336	530.49
479.689	530.49
480.043	620.89
480.397	541.79
480.75	593.77
481.104	528.23
481.457	648.01
481.811	586.99
482.164	593.77
482.518	582.47
482.871	564.39
483.225	562.13
483.578	607.33
483.931	591.51
484.284	557.61
484.638	559.87
484.991	591.51
485.344	566.65
485.697	553.09
486.05	550.83
486.403	609.59
486.756	544.05
487.109	559.87
487.462	489.82
487.815	539.53
488.168	618.63
488.52	505.64
488.873	553.09
489.226	611.85
489.579	564.39
489.931	557.61
490.284	523.72
490.637	541.79
490.989	505.64
491.342	562.13
491.694	510.16
492.047	460.44
492.399	566.65
492.751	460.44
493.104	532.75
493.456	478.52
493.808	496.6
494.16	586.99
494.513	521.46
494.865	505.64
495.217	521.46
495.569	505.64
495.921	539.53
496.273	483.04
496.625	516.94
496.977	485.3
497.329	553.09
497.68	512.42
498.032	530.49
498.384	564.39
498.736	546.31
499.087	501.12
499.439	548.57
499.791	478.52
500.142	492.08
500.494	503.38
500.845	469.48
501.197	555.35
501.548	507.9
501.9	550.83
502.251	510.16
502.602	564.39
502.954	593.77
503.305	537.27
503.656	584.73
504.007	546.31
504.358	478.52
504.709	521.46
505.061	568.91
505.412	546.31
505.763	505.64
506.113	645.75
506.464	586.99
506.815	591.51
507.166	575.69
507.517	636.71
507.868	670.6
508.218	686.42
508.569	598.29
508.92	661.56
509.27	573.43
509.621	525.97
509.971	589.25
510.322	607.33
510.672	602.81
511.023	638.97
511.373	648.01
511.723	629.93
512.074	688.68
512.424	661.56
512.774	686.42
513.124	620.89
513.475	699.98
513.825	650.27
514.175	699.98
514.525	722.58
514.875	697.72
515.225	738.4
515.575	745.18
515.924	679.64
516.274	715.8
516.624	686.42
516.974	790.37
517.324	806.19
517.673	826.53
518.023	722.58
518.373	722.58
518.722	742.92
519.072	736.14
519.421	810.71
519.771	815.23
520.12	871.73
520.469	871.73
520.819	842.35
521.168	860.43
521.517	873.99
521.867	812.97
522.216	828.79
522.565	855.91
522.914	831.05
523.263	844.61
523.612	907.89
523.961	835.57
524.31	867.21
524.659	905.63
525.008	858.17
525.357	898.85
525.705	907.89
526.054	991.5
526.403	959.86
526.752	937.26
527.1	948.56
527.449	959.86
527.797	950.82
528.146	928.22
528.495	1018.62
528.843	968.9
529.191	996.02
529.54	1018.62
529.888	916.93
530.236	955.34
530.585	910.15
530.933	948.56
531.281	932.74
531.629	1025.4
531.977	973.42
532.325	989.24
532.673	998.28
533.021	930.48
533.369	946.3
533.717	971.16
534.065	1077.37
534.413	1009.58
534.761	1106.75
535.108	986.98
535.456	946.3
535.804	957.6
536.151	955.34
536.499	996.02
536.847	982.46
537.194	982.46
537.542	959.86
537.889	1025.4
538.236	962.12
538.584	986.98
538.931	1029.92
539.278	1106.75
539.626	1020.88
539.973	1025.4
540.32	1054.77
540.667	993.76
541.014	1045.74
541.361	984.72
541.708	1104.49
542.055	982.46
542.402	996.02
542.749	1032.18
543.096	1009.58
543.443	950.82
543.789	1020.88
544.136	996.02
544.483	1066.07
544.83	1023.14
545.176	932.74
545.523	1009.58
545.869	1054.77
546.216	998.28
546.562	1000.54
546.909	1043.48
547.255	962.12
547.601	932.74
547.948	973.42
548.294	996.02
548.64	984.72
548.986	966.64
549.332	998.28
549.678	1061.55
550.025	1020.88
550.371	1023.14
550.717	982.46
551.062	1014.1
551.408	1045.74
551.754	1016.36
552.1	1054.77
552.446	962.12
552.792	1036.7
553.137	998.28
553.483	1014.1
553.828	1018.62
554.174	986.98
554.52	1050.25
554.865	930.48
555.211	980.2
555.556	1038.96
555.901	1038.96
556.247	953.08
556.592	1036.7
556.937	1016.36
557.282	1018.62
557.628	1063.81
557.973	1023.14
558.318	1038.96
558.663	1054.77
559.008	1081.89
559.353	1084.15
559.698	1048
560.043	1104.49
560.388	1095.45
560.732	1036.7
561.077	1057.03
561.422	1068.33
561.766	1036.7
562.111	1054.77
562.456	1149.69
562.8	1131.61
563.145	1185.84
563.489	1129.35
563.834	1050.25
564.178	1167.77
564.523	1124.83
564.867	1102.23
565.211	1118.05
565.555	1149.69
565.9	1147.43
566.244	1118.05
566.588	1127.09
566.932	1167.77
567.276	1163.25
567.62	1194.88
567.964	1203.92
568.308	1160.99
568.652	1222
568.996	1183.58
569.339	1244.6
569.683	1154.21
570.027	1235.56
570.371	1194.88
570.714	1122.57
571.058	1118.05
571.401	1203.92
571.745	1203.92
572.088	1183.58
572.432	1222
572.775	1174.55
573.118	1136.13
573.462	1251.38
573.805	1199.4
574.148	1192.62
574.491	1226.52
574.835	1226.52
575.178	1251.38
575.521	1165.51
575.864	1206.18
576.207	1185.84
576.55	1212.96
576.892	1228.78
577.235	1158.73
577.578	1197.14
577.921	1181.32
578.264	1194.88
578.606	1251.38
578.949	1208.44
579.292	1217.48
579.634	1158.73
579.977	1151.95
580.319	1170.03
580.662	1070.59
581.004	1106.75
581.346	1179.07
581.689	1188.1
582.031	1167.77
582.373	1172.29
582.715	1165.51
583.057	1149.69
583.4	1099.97
583.742	1212.96
584.084	1172.29
584.426	1088.67
584.768	1099.97
585.109	1140.65
585.451	1156.47
585.793	1160.99
586.135	1176.81
586.477	1016.36
586.818	1075.11
587.16	1104.49
587.502	1059.29
587.843	1106.75
588.185	1061.55
588.526	1041.22
588.868	1029.92
589.209	993.76
589.55	1020.88
589.892	1045.74
590.233	957.6
590.574	1011.84
590.915	1011.84
591.257	996.02
591.598	964.38
591.939	1036.7
592.28	1038.96
592.621	950.82
592.962	939.52
593.303	986.98
593.643	1018.62
593.984	932.74
594.325	950.82
594.666	957.6
595.006	901.11
595.347	853.65
595.688	912.41
596.028	916.93
596.369	846.87
596.709	901.11
597.05	864.95
597.39	849.13
597.73	842.35
598.071	846.87
598.411	806.19
598.751	819.75
599.091	806.19
599.431	803.93
599.772	790.37
600.112	751.96
600.452	799.41
600.792	801.67
601.132	819.75
601.471	763.26
601.811	772.3
602.151	815.23
602.491	772.3
602.831	797.15
603.17	754.22
603.51	733.88
603.849	806.19
604.189	722.58
604.528	776.82
604.868	740.66
605.207	731.62
605.547	733.88
605.886	733.88
606.225	781.34
606.565	718.06
606.904	715.8
607.243	761
607.582	675.12
607.921	684.16
608.26	706.76
608.599	650.27
608.938	666.08
609.277	627.67
609.616	747.44
609.955	654.79
610.293	788.11
610.632	699.98
610.971	605.07
611.309	740.66
611.648	648.01
611.987	627.67
612.325	629.93
612.664	706.76
613.002	632.19
613.34	704.5
613.679	666.08
614.017	643.49
614.355	702.24
614.694	629.93
615.032	627.67
615.37	632.19
615.708	688.68
616.046	648.01
616.384	663.82
616.722	636.71
617.06	663.82
617.398	657.04
617.736	636.71
618.073	686.42
618.411	645.75
618.749	668.34
619.086	654.79
619.424	607.33
619.762	625.41
620.099	627.67
620.437	620.89
620.774	623.15
621.112	661.56
621.449	672.86
621.786	562.13
622.123	629.93
622.461	553.09
622.798	609.59
623.135	675.12
623.472	605.07
623.809	577.95
624.146	544.05
624.483	638.97
624.82	634.45
625.157	684.16
625.494	641.23
625.83	636.71
626.167	652.53
626.504	609.59
626.841	679.64
627.177	677.38
627.514	634.45
627.85	688.68
628.187	605.07
628.523	620.89
628.86	623.15
629.196	557.61
629.532	539.53
629.869	539.53
630.205	591.51
630.541	629.93
630.877	618.63
631.213	575.69
631.549	623.15
631.885	553.09
632.221	575.69
632.557	616.37
632.893	593.77
633.229	562.13
633.564	566.65
633.9	600.55
634.236	516.94
634.572	521.46
634.907	521.46
635.243	544.05
635.578	580.21
635.914	514.68
636.249	591.51
636.585	584.73
636.92	562.13
637.255	589.25
637.59	478.52
637.926	557.61
638.261	557.61
638.596	568.91
638.931	480.78
639.266	530.49
639.601	501.12
639.936	523.72
640.271	521.46
640.606	566.65
640.94	478.52
641.275	559.87
641.61	548.57
641.945	474
642.279	586.99
642.614	541.79
642.948	559.87
643.283	586.99
643.617	480.78
643.952	467.22
644.286	494.34
644.62	525.97
644.955	507.9
645.289	544.05
645.623	437.84
645.957	507.9
646.291	485.3
646.625	462.7
646.959	431.06
647.293	530.49
647.627	419.76
647.961	408.46
648.295	544.05
648.629	496.6
648.962	453.66
649.296	503.38
649.63	433.32
649.963	442.36
650.297	401.68
650.63	433.32
650.964	433.32
651.297	455.92
651.631	469.48
651.964	455.92
652.297	467.22
652.631	419.76
652.964	492.08
653.297	446.88
653.63	403.94
653.963	392.65
654.296	476.26
654.629	449.14
654.962	501.12
655.295	392.65
655.628	383.61
655.961	437.84
656.293	458.18
656.626	408.46
656.959	351.97
657.291	401.68
657.624	462.7
657.956	347.45
658.289	324.85
658.621	329.37
658.954	374.57
659.286	408.46
659.618	435.58
659.95	444.62
660.283	367.79
660.615	354.23
660.947	372.31
661.279	399.42
661.611	383.61
661.943	428.8
662.275	403.94
662.607	415.24
662.939	417.5
663.27	412.98
663.602	403.94
663.934	417.5
664.266	412.98
664.597	351.97
664.929	379.09
665.26	361.01
665.592	354.23
665.923	309.03
666.255	372.31
666.586	320.33
666.917	385.87
667.248	392.65
667.58	408.46
667.911	433.32
668.242	367.79
668.573	403.94
668.904	354.23
669.235	440.1
669.566	304.51
669.897	367.79
670.228	333.89
670.558	349.71
670.889	399.42
671.22	288.69
671.551	288.69
671.881	374.57
672.212	379.09
672.542	327.11
672.873	315.81
673.203	336.15
673.533	340.67
673.864	354.23
674.194	345.19
674.524	374.57
674.855	399.42
675.185	336.15
675.515	383.61
675.845	338.41
676.175	372.31
676.505	399.42
676.835	342.93
677.165	408.46
677.494	333.89
677.824	315.81
678.154	412.98
678.484	372.31
678.813	347.45
679.143	340.67
679.472	290.95
679.802	356.49
680.131	347.45
680.461	331.63
680.79	345.19
681.119	356.49
681.449	306.77
681.778	361.01
682.107	336.15
682.436	379.09
682.765	302.25
683.094	336.15
683.423	257.06
683.752	363.27
684.081	358.75
684.41	297.73
684.739	299.99
685.067	331.63
685.396	370.05
685.725	356.49
686.053	288.69
686.382	306.77
686.711	315.81
687.039	288.69
687.367	293.21
687.696	299.99
688.024	336.15
688.352	424.28
688.681	279.65
689.009	340.67
689.337	290.95
689.665	381.35
689.993	315.81
690.321	302.25
690.649	290.95
690.977	311.29
691.305	336.15
691.633	372.31
691.961	232.2
692.288	309.03
692.616	286.43
692.944	263.83
693.271	331.63
693.599	261.58
693.926	351.97
694.254	324.85
694.581	302.25
694.908	324.85
695.236	313.55
695.563	318.07
695.89	356.49
696.217	318.07
696.544	322.59
696.871	238.98
697.198	318.07
697.525	324.85
697.852	288.69
698.179	281.91
698.506	329.37
698.833	281.91
699.16	290.95
699.486	347.45
699.813	254.8
700.139	268.35
700.466	320.33
700.793	358.75
701.119	270.61
701.445	313.55
701.772	351.97
702.098	333.89
702.424	279.65
702.75	268.35
703.077	254.8
703.403	318.07
703.729	229.94
704.055	286.43
704.381	347.45
704.707	320.33
705.033	290.95
705.358	295.47
705.684	245.76
706.01	290.95
706.336	290.95
706.661	322.59
706.987	338.41
707.312	272.87
707.638	304.51
707.963	272.87
708.289	320.33
708.614	333.89
708.939	302.25
709.265	238.98
709.59	306.77
709.915	225.42
710.24	268.35
710.565	275.13
710.89	313.55
711.215	270.61
711.54	286.43
711.865	299.99
712.19	338.41
712.515	302.25
712.839	290.95
713.164	290.95
713.489	245.76
713.813	268.35
714.138	270.61
714.462	356.49
714.787	297.73
715.111	257.06
715.435	318.07
715.76	266.09
716.084	277.39
716.408	281.91
716.732	315.81
717.056	322.59
717.381	327.11
717.705	295.47
718.028	257.06
718.352	331.63
718.676	250.28
719	243.5
719.324	263.83
719.648	342.93
719.971	313.55
720.295	315.81
720.618	288.69
720.942	214.12
721.265	268.35
721.589	277.39
721.912	313.55
722.236	338.41
722.559	270.61
722.882	338.41
723.205	257.06
723.528	261.58
723.851	293.21
724.174	313.55
724.497	281.91
724.82	295.47
725.143	311.29
725.466	275.13
725.789	329.37
726.112	263.83
726.434	304.51
726.757	302.25
727.08	279.65
727.402	202.82
727.725	209.6
728.047	266.09
728.37	272.87
728.692	227.68
729.014	318.07
729.336	248.02
729.659	347.45
729.981	250.28
730.303	232.2
730.625	295.47
730.947	193.78
731.269	309.03
731.591	293.21
731.913	297.73
732.235	275.13
732.556	223.16
732.878	259.32
733.2	266.09
733.521	322.59
733.843	286.43
734.164	311.29
734.486	288.69
734.807	225.42
735.129	281.91
735.45	171.18
735.771	232.2
736.092	290.95
736.414	293.21
736.735	245.76
737.056	281.91
737.377	214.12
737.698	347.45
738.019	250.28
738.34	286.43
738.66	266.09
738.981	306.77
739.302	252.54
739.623	331.63
739.943	290.95
740.264	257.06
740.584	284.17
740.905	279.65
741.225	236.72
741.546	245.76
741.866	295.47
742.186	313.55
742.507	277.39
742.827	243.5
743.147	225.42
743.467	275.13
743.787	238.98
744.107	268.35
744.427	187
744.747	259.32
745.067	324.85
745.386	248.02
745.706	223.16
746.026	245.76
746.346	243.5
746.665	248.02
746.985	272.87
747.304	268.35
747.624	238.98
747.943	196.04
748.262	288.69
748.582	245.76
748.901	277.39
749.22	272.87
749.539	261.58
749.858	248.02
750.177	284.17
750.496	284.17
750.815	261.58
751.134	318.07
751.453	293.21
751.772	277.39
752.09	295.47
752.409	286.43
752.728	263.83
753.046	275.13
753.365	263.83
753.683	320.33
754.002	293.21
754.32	309.03
754.639	324.85
754.957	288.69
755.275	266.09
755.593	209.6
755.911	223.16
756.23	196.04
756.548	245.76
756.866	272.87
757.183	243.5
757.501	214.12
757.819	295.47
758.137	281.91
758.455	277.39
758.772	311.29
759.09	198.3
759.408	268.35
759.725	286.43
760.043	268.35
760.36	279.65
760.677	284.17
760.995	227.68
761.312	290.95
761.629	225.42
761.946	284.17
762.264	290.95
762.581	236.72
762.898	286.43
763.215	266.09
763.532	290.95
763.848	263.83
764.165	302.25
764.482	250.28
764.799	250.28
765.115	211.86
765.432	279.65
765.749	259.32
766.065	313.55
766.382	254.8
766.698	191.52
767.014	252.54
767.331	302.25
767.647	261.58
767.963	266.09
768.279	225.42
768.595	250.28
768.911	281.91
769.227	297.73
769.543	238.98
769.859	211.86
770.175	184.74
770.491	252.54
770.807	259.32
771.122	229.94
771.438	309.03
771.754	272.87
772.069	290.95
772.385	295.47
772.7	254.8
773.016	277.39
773.331	241.24
773.646	281.91
773.961	266.09
774.277	354.23
774.592	220.9
774.907	257.06
775.222	232.2
775.537	270.61
775.852	243.5
776.167	241.24
776.482	286.43
776.796	277.39
777.111	281.91
777.426	272.87
777.74	223.16
778.055	236.72
778.369	290.95
778.684	250.28
778.998	220.9
779.313	322.59
779.627	220.9
779.941	272.87
780.255	245.76
780.57	243.5
780.884	336.15
781.198	196.04
781.512	266.09
781.826	320.33
782.14	281.91
782.453	286.43
782.767	259.32
783.081	259.32
783.395	207.34
783.708	311.29
784.022	261.58
784.335	293.21
784.649	304.51
784.962	259.32
785.276	182.48
785.589	311.29
785.902	295.47
786.216	257.06
786.529	290.95
786.842	275.13
787.155	225.42
787.468	214.12
787.781	216.38
788.094	250.28
788.407	245.76
788.72	259.32
789.032	304.51
789.345	202.82
789.658	248.02
789.97	254.8
790.283	288.69
790.595	268.35
790.908	309.03
791.22	290.95
791.532	311.29
791.845	315.81
792.157	320.33
792.469	281.91
792.781	286.43
793.093	293.21
793.405	270.61
793.717	272.87
794.029	236.72
794.341	290.95
794.653	302.25
794.965	313.55
795.276	329.37
795.588	290.95
795.9	232.2
796.211	304.51
796.523	257.06
796.834	218.64
797.146	284.17
797.457	311.29
797.768	227.68
798.08	279.65
798.391	236.72
798.702	279.65
799.013	252.54
799.324	254.8
799.635	198.3
799.946	241.24
800.257	290.95
800.568	275.13
800.878	252.54
801.189	295.47
801.5	227.68
801.81	211.86
802.121	232.2
802.431	293.21
802.742	361.01
803.052	252.54
803.363	252.54
803.673	270.61
803.983	245.76
804.293	272.87
804.603	277.39
804.913	257.06
805.224	250.28
805.533	284.17
805.843	214.12
806.153	293.21
806.463	290.95
806.773	318.07
807.083	293.21
807.392	259.32
807.702	223.16
808.011	259.32
808.321	299.99
808.63	232.2
808.94	252.54
809.249	295.47
809.558	272.87
809.868	241.24
810.177	284.17
810.486	263.83
810.795	270.61
811.104	270.61
811.413	209.6
811.722	243.5
812.031	318.07
812.339	261.58
812.648	327.11
812.957	257.06
813.266	277.39
813.574	272.87
813.883	245.76
814.191	220.9
814.5	257.06
814.808	318.07
815.116	279.65
815.424	218.64
815.733	225.42
816.041	279.65
816.349	290.95
816.657	238.98
816.965	293.21
817.273	234.46
817.581	322.59
817.889	252.54
818.196	338.41
818.504	243.5
818.812	293.21
819.12	268.35
819.427	216.38
819.735	302.25
820.042	331.63
820.349	193.78
820.657	229.94
820.964	322.59
821.271	245.76
821.579	250.28
821.886	257.06
822.193	322.59
822.5	302.25
822.807	281.91
823.114	295.47
823.421	250.28
823.727	205.08
824.034	261.58
824.341	302.25
824.648	259.32
824.954	293.21
825.261	252.54
825.567	266.09
825.874	290.95
826.18	252.54
826.486	205.08
826.793	293.21
827.099	189.26
827.405	234.46
827.711	263.83
828.017	281.91
828.323	223.16
828.629	275.13
828.935	200.56
829.241	288.69
829.547	284.17
829.852	205.08
830.158	257.06
830.464	193.78
830.769	211.86
831.075	236.72
831.38	286.43
831.686	263.83
831.991	223.16
832.296	313.55
832.601	286.43
832.907	306.77
833.212	248.02
833.517	234.46
833.822	236.72
834.127	211.86
834.432	279.65
834.737	225.42
835.041	272.87
835.346	238.98
835.651	284.17
835.956	299.99
836.26	232.2
836.565	272.87
836.869	288.69
837.174	318.07
837.478	250.28
837.782	223.16
838.087	250.28
838.391	272.87
838.695	229.94
838.999	250.28
839.303	209.6
839.607	261.58
839.911	302.25
840.215	227.68
840.519	272.87
840.822	361.01
841.126	238.98
841.43	182.48
841.733	263.83
842.037	227.68
842.34	243.5
842.644	275.13
842.947	272.87
843.251	248.02
843.554	248.02
843.857	277.39
844.16	261.58
844.463	196.04
844.766	257.06
845.069	279.65
845.372	218.64
845.675	177.96
845.978	327.11
846.281	304.51
846.583	207.34
846.886	261.58
847.189	275.13
847.491	227.68
847.794	259.32
848.096	302.25
848.399	223.16
848.701	238.98
849.003	254.8
849.305	261.58
849.608	248.02
849.91	309.03
850.212	243.5
850.514	234.46
850.816	214.12
851.118	331.63
851.419	187
851.721	223.16
852.023	250.28
852.325	261.58
852.626	241.24
852.928	290.95
853.229	286.43
853.531	299.99
853.832	200.56
854.133	263.83
854.435	238.98
854.736	248.02
855.037	234.46
855.338	191.52
855.639	259.32
855.94	295.47
856.241	250.28
856.542	232.2
856.843	245.76
857.144	266.09
857.444	277.39
857.745	272.87
858.046	218.64
858.346	284.17
858.647	225.42
858.947	243.5
859.247	277.39
859.548	220.9
859.848	207.34
860.148	263.83
860.448	243.5
860.749	268.35
861.049	306.77
861.349	254.8
861.648	295.47
861.948	236.72
862.248	281.91
862.548	270.61
862.848	214.12
863.147	223.16
863.447	182.48
863.746	245.76
864.046	232.2
864.345	275.13
864.645	202.82
864.944	234.46
865.243	279.65
865.542	302.25
865.842	354.23
866.141	263.83
866.44	257.06
866.739	304.51
867.038	277.39
867.337	259.32
867.635	288.69
867.934	254.8
868.233	245.76
868.531	250.28
868.83	229.94
869.129	270.61
869.427	263.83
869.725	270.61
870.024	281.91
870.322	261.58
870.62	168.92
870.918	200.56
871.217	270.61
871.515	238.98
871.813	279.65
872.111	302.25
872.409	261.58
872.706	331.63
873.004	238.98
873.302	223.16
873.6	250.28
873.897	277.39
874.195	254.8
874.492	259.32
874.79	254.8
875.087	313.55
875.384	313.55
875.682	250.28
875.979	252.54
876.276	207.34
876.573	266.09
876.87	266.09
877.167	266.09
