Data from PL_2polymer_F8BT_MEHPPV_USB2H096331_0424.txt Node
Date: Tue Dec 15 16:32:08 CET 2020
User: spadmin
Spectrometer: USB2+H09633
Trigger mode: 0
Integration Time (sec): 1.000000E-2
Scans to average: 1
Electric dark correction enabled: true
Nonlinearity correction enabled: false
Boxcar width: 0
XAxis mode: Wavelengths
Number of Pixels in Spectrum: 2048
>>>>>Begin Spectral Data<<<<<
174.027	-43.5
174.405	-43.5
174.783	-43.5
175.162	-151.97
175.54	-52.54
175.918	-81.92
176.296	-131.63
176.674	-70.62
177.052	-90.96
177.43	-68.36
177.808	10.73
178.186	-70.62
178.564	-75.14
178.942	-20.9
179.32	-43.5
179.698	26.55
180.076	6.21
180.453	101.13
180.831	67.23
181.209	135.02
181.587	101.13
181.965	123.73
182.342	198.3
182.72	205.08
183.098	209.6
183.475	286.43
183.853	284.17
184.231	266.09
184.608	257.06
184.986	286.43
185.363	324.85
185.741	318.07
186.118	347.45
186.496	333.89
186.873	324.85
187.251	309.03
187.628	331.63
188.006	340.67
188.383	354.23
188.76	370.05
189.138	336.15
189.515	333.89
189.892	361.01
190.27	333.89
190.647	417.5
191.024	361.01
191.401	297.73
191.778	356.49
192.155	340.67
192.533	351.97
192.91	372.31
193.287	342.93
193.664	288.69
194.041	268.35
194.418	306.77
194.795	263.83
195.172	281.91
195.549	250.28
195.926	338.41
196.302	288.69
196.679	336.15
197.056	248.02
197.433	313.55
197.81	336.15
198.187	290.95
198.563	327.11
198.94	288.69
199.317	370.05
199.693	315.81
200.07	345.19
200.447	367.79
200.823	372.31
201.2	272.87
201.576	336.15
201.953	333.89
202.329	354.23
202.706	315.81
203.082	297.73
203.459	354.23
203.835	347.45
204.212	318.07
204.588	295.47
204.964	318.07
205.341	288.69
205.717	263.83
206.093	290.95
206.469	358.75
206.846	293.21
207.222	257.06
207.598	299.99
207.974	327.11
208.35	293.21
208.726	349.71
209.102	354.23
209.479	347.45
209.855	356.49
210.231	356.49
210.607	297.73
210.982	288.69
211.358	299.99
211.734	365.53
212.11	281.91
212.486	351.97
212.862	315.81
213.238	315.81
213.614	412.98
213.989	333.89
214.365	354.23
214.741	304.51
215.116	277.39
215.492	329.37
215.868	322.59
216.243	306.77
216.619	367.79
216.995	318.07
217.37	290.95
217.746	318.07
218.121	266.09
218.497	259.32
218.872	293.21
219.247	358.75
219.623	315.81
219.998	383.61
220.374	361.01
220.749	286.43
221.124	345.19
221.499	313.55
221.875	345.19
222.25	288.69
222.625	347.45
223	304.51
223.376	281.91
223.751	322.59
224.126	329.37
224.501	385.87
224.876	397.16
225.251	333.89
225.626	365.53
226.001	327.11
226.376	315.81
226.751	297.73
227.126	349.71
227.501	354.23
227.875	367.79
228.25	422.02
228.625	327.11
229	367.79
229.375	327.11
229.749	367.79
230.124	345.19
230.499	340.67
230.873	351.97
231.248	336.15
231.623	390.39
231.997	372.31
232.372	408.46
232.746	431.06
233.121	381.35
233.495	363.27
233.87	358.75
234.244	426.54
234.619	351.97
234.993	349.71
235.367	376.83
235.742	370.05
236.116	374.57
236.49	340.67
236.865	342.93
237.239	331.63
237.613	320.33
237.987	365.53
238.361	358.75
238.736	383.61
239.11	331.63
239.484	342.93
239.858	327.11
240.232	394.9
240.606	342.93
240.98	385.87
241.354	347.45
241.728	318.07
242.102	374.57
242.475	408.46
242.849	351.97
243.223	354.23
243.597	379.09
243.971	358.75
244.344	345.19
244.718	363.27
245.092	390.39
245.466	358.75
245.839	412.98
246.213	313.55
246.586	363.27
246.96	408.46
247.334	367.79
247.707	417.5
248.081	351.97
248.454	385.87
248.828	340.67
249.201	385.87
249.574	428.8
249.948	424.28
250.321	394.9
250.694	385.87
251.068	374.57
251.441	372.31
251.814	365.53
252.187	394.9
252.561	428.8
252.934	347.45
253.307	342.93
253.68	376.83
254.053	422.02
254.426	431.06
254.799	361.01
255.172	383.61
255.545	394.9
255.918	397.16
256.291	370.05
256.664	376.83
257.037	313.55
257.41	406.2
257.782	444.62
258.155	356.49
258.528	399.42
258.901	462.7
259.273	376.83
259.646	358.75
260.019	453.66
260.391	419.76
260.764	403.94
261.137	376.83
261.509	340.67
261.882	408.46
262.254	440.1
262.627	372.31
262.999	406.2
263.372	372.31
263.744	329.37
264.116	356.49
264.489	415.24
264.861	379.09
265.233	390.39
265.606	385.87
265.978	381.35
266.35	442.36
266.722	460.44
267.094	338.41
267.467	394.9
267.839	363.27
268.211	403.94
268.583	446.88
268.955	381.35
269.327	412.98
269.699	345.19
270.071	428.8
270.443	422.02
270.815	412.98
271.186	455.92
271.558	401.68
271.93	349.71
272.302	394.9
272.674	424.28
273.045	437.84
273.417	394.9
273.789	347.45
274.16	417.5
274.532	480.78
274.904	374.57
275.275	367.79
275.647	385.87
276.018	390.39
276.39	435.58
276.761	390.39
277.133	388.13
277.504	397.16
277.875	381.35
278.247	390.39
278.618	351.97
278.989	408.46
279.361	469.48
279.732	487.56
280.103	370.05
280.474	458.18
280.846	440.1
281.217	464.96
281.588	422.02
281.959	446.88
282.33	437.84
282.701	464.96
283.072	460.44
283.443	437.84
283.814	440.1
284.185	433.32
284.556	442.36
284.927	383.61
285.297	428.8
285.668	431.06
286.039	449.14
286.41	437.84
286.781	446.88
287.151	363.27
287.522	410.72
287.893	406.2
288.263	494.34
288.634	471.74
289.004	444.62
289.375	471.74
289.745	453.66
290.116	401.68
290.486	462.7
290.857	403.94
291.227	401.68
291.598	412.98
291.968	417.5
292.338	394.9
292.709	412.98
293.079	419.76
293.449	397.16
293.819	412.98
294.189	528.23
294.56	446.88
294.93	449.14
295.3	444.62
295.67	516.94
296.04	406.2
296.41	521.46
296.78	458.18
297.15	516.94
297.52	485.3
297.89	476.26
298.259	505.64
298.629	471.74
298.999	426.54
299.369	442.36
299.739	428.8
300.108	487.56
300.478	494.34
300.848	415.24
301.217	428.8
301.587	462.7
301.957	451.4
302.326	483.04
302.696	469.48
303.065	492.08
303.435	469.48
303.804	460.44
304.174	494.34
304.543	564.39
304.912	505.64
305.282	494.34
305.651	519.2
306.02	471.74
306.39	525.97
306.759	458.18
307.128	449.14
307.497	503.38
307.866	412.98
308.235	503.38
308.604	469.48
308.974	498.86
309.343	455.92
309.712	494.34
310.08	462.7
310.449	462.7
310.818	496.6
311.187	469.48
311.556	462.7
311.925	485.3
312.294	471.74
312.662	487.56
313.031	507.9
313.4	478.52
313.769	474
314.137	437.84
314.506	519.2
314.874	460.44
315.243	519.2
315.612	494.34
315.98	446.88
316.349	596.03
316.717	530.49
317.085	584.73
317.454	505.64
317.822	602.81
318.191	480.78
318.559	485.3
318.927	455.92
319.295	553.09
319.664	546.31
320.032	467.22
320.4	507.9
320.768	510.16
321.136	440.1
321.504	446.88
321.872	480.78
322.24	462.7
322.608	525.97
322.976	521.46
323.344	532.75
323.712	537.27
324.08	462.7
324.448	611.85
324.816	487.56
325.183	584.73
325.551	539.53
325.919	555.35
326.287	467.22
326.654	467.22
327.022	489.82
327.389	532.75
327.757	467.22
328.125	503.38
328.492	582.47
328.86	512.42
329.227	492.08
329.594	496.6
329.962	514.68
330.329	487.56
330.697	464.96
331.064	596.03
331.431	580.21
331.798	523.72
332.166	548.57
332.533	654.79
332.9	596.03
333.267	548.57
333.634	525.97
334.001	654.79
334.368	598.29
334.735	568.91
335.102	582.47
335.469	544.05
335.836	580.21
336.203	553.09
336.57	584.73
336.937	602.81
337.304	562.13
337.67	620.89
338.037	568.91
338.404	648.01
338.771	602.81
339.137	620.89
339.504	598.29
339.87	575.69
340.237	652.53
340.604	675.12
340.97	629.93
341.337	643.49
341.703	625.41
342.069	550.83
342.436	596.03
342.802	591.51
343.169	652.53
343.535	618.63
343.901	605.07
344.267	562.13
344.634	641.23
345	546.31
345.366	627.67
345.732	616.37
346.098	589.25
346.464	731.62
346.83	736.14
347.196	751.96
347.562	643.49
347.928	589.25
348.294	677.38
348.66	650.27
349.026	663.82
349.392	625.41
349.757	648.01
350.123	715.8
350.489	679.64
350.855	702.24
351.22	702.24
351.586	767.78
351.951	745.18
352.317	715.8
352.683	697.72
353.048	659.3
353.414	702.24
353.779	648.01
354.144	754.22
354.51	731.62
354.875	715.8
355.24	697.72
355.606	810.71
355.971	751.96
356.336	770.04
356.701	828.79
357.067	797.15
357.432	711.28
357.797	846.87
358.162	803.93
358.527	740.66
358.892	788.11
359.257	799.41
359.622	824.27
359.987	842.35
360.352	840.09
360.717	873.99
361.082	853.65
361.446	873.99
361.811	849.13
362.176	869.47
362.541	892.07
362.905	937.26
363.27	849.13
363.635	860.43
363.999	869.47
364.364	955.34
364.728	892.07
365.093	932.74
365.457	916.93
365.822	986.98
366.186	946.3
366.55	959.86
366.915	1025.4
367.279	964.38
367.643	1016.36
368.008	1104.49
368.372	1113.53
368.736	991.5
369.1	1086.41
369.464	1029.92
369.828	1081.89
370.192	1147.43
370.556	1179.07
370.92	1215.22
371.284	1199.4
371.648	1237.82
372.012	1210.7
372.376	1353.07
372.74	1366.63
373.104	1346.29
373.468	1463.8
373.831	1495.44
374.195	1434.43
374.559	1481.88
374.922	1538.38
375.286	1594.87
375.65	1680.75
376.013	1721.42
376.377	1737.24
376.74	1818.6
377.104	1750.8
377.467	1879.61
377.83	2019.72
378.194	2186.95
378.557	2252.48
378.92	2480.73
379.284	2564.34
379.647	2672.81
380.01	2873.94
380.373	2855.86
380.736	3061.5
381.1	3603.86
381.463	3664.88
381.826	4044.53
382.189	4302.15
382.552	4575.59
382.915	4957.5
383.278	5429.8
383.64	5804.93
384.003	6313.39
384.366	6815.08
384.729	7567.6
385.092	8053.46
385.454	8636.5
385.817	9590.14
386.18	10692.94
386.542	11298.57
386.905	12744.86
387.268	14021.67
387.63	15339.14
387.993	16541.37
388.355	18211.39
388.718	19910.78
389.08	21637.28
389.442	23625.93
389.805	25867.68
390.167	27463.12
390.529	30495.81
390.892	34631.29
391.254	36258.37
391.616	38970.16
391.978	43198.3
392.34	47403.84
392.702	48728.1
393.064	52059.08
393.426	54056.77
393.788	56072.54
394.15	57688.31
394.512	59286.01
394.874	61114.21
395.236	62931.11
395.598	64689.26
395.96	65080.21
396.321	65080.21
396.683	65080.21
397.045	65080.21
397.406	65080.21
397.768	65080.21
398.13	65080.21
398.491	65080.21
398.853	65080.21
399.214	65080.21
399.576	65080.21
399.937	65080.21
400.299	65080.21
400.66	65080.21
401.021	65080.21
401.383	65080.21
401.744	65080.21
402.105	65080.21
402.466	65080.21
402.827	65080.21
403.189	65080.21
403.55	65080.21
403.911	65080.21
404.272	65080.21
404.633	65080.21
404.994	65080.21
405.355	65080.21
405.716	65080.21
406.077	65080.21
406.437	65080.21
406.798	65080.21
407.159	65080.21
407.52	65080.21
407.88	65080.21
408.241	65080.21
408.602	65080.21
408.962	65080.21
409.323	65080.21
409.684	65080.21
410.044	65080.21
410.405	65080.21
410.765	65080.21
411.125	65080.21
411.486	65080.21
411.846	65080.21
412.206	65080.21
412.567	65080.21
412.927	65080.21
413.287	65080.21
413.647	65080.21
414.007	65080.21
414.368	65080.21
414.728	65080.21
415.088	65080.21
415.448	65080.21
415.808	65080.21
416.168	65080.21
416.528	65080.21
416.887	65080.21
417.247	65080.21
417.607	65080.21
417.967	65080.21
418.327	65080.21
418.686	65080.21
419.046	65080.21
419.406	65080.21
419.765	65080.21
420.125	65080.21
420.484	65080.21
420.844	65080.21
421.203	65080.21
421.563	64960.44
421.922	64332.21
422.282	62741.29
422.641	61473.52
423	60034.01
423.36	59358.33
423.719	57231.83
424.078	55218.32
424.437	53351.7
424.796	52020.67
425.155	50703.19
425.515	48117.94
425.874	47091.98
426.233	42570.07
426.592	40260.52
426.95	39440.21
427.309	36940.84
427.668	36299.05
428.027	33162.4
428.386	32287.85
428.745	29682.27
429.103	27621.31
429.462	26575.01
429.821	24489.19
430.179	24147.95
430.538	22945.72
430.897	22274.56
431.255	20536.75
431.614	19714.17
431.972	19033.96
432.33	18035.12
432.689	18080.32
433.047	16778.65
433.405	15556.09
433.764	15013.73
434.122	14606.96
434.48	13617.16
434.838	13251.06
435.197	12661.25
435.555	12353.91
435.913	11560.71
436.271	11018.35
436.629	10634.18
436.987	9938.16
437.345	9569.8
437.703	9312.18
438.061	8995.81
438.418	8537.06
438.776	8071.54
439.134	7920.13
439.492	7581.16
439.849	7093.03
440.207	6715.64
440.565	6394.75
440.922	6076.11
441.28	5886.29
441.637	5707.76
441.995	5452.4
442.352	5267.09
442.71	4912.3
443.067	4855.8
443.425	4638.86
443.782	4485.19
444.139	4469.37
444.496	4159.78
444.854	4182.38
445.211	3886.34
445.568	3841.14
445.925	3615.16
446.282	3540.58
446.639	3366.58
446.996	3321.38
447.353	3472.79
447.71	3203.87
448.067	3127.04
448.424	2964.33
448.781	2959.81
449.137	2668.29
449.494	2577.9
449.851	2681.85
450.208	2455.87
450.564	2464.91
450.921	2284.12
451.278	2250.22
451.634	2363.21
451.991	2216.33
452.347	2153.05
452.704	1976.78
453.06	1863.79
453.416	1872.83
453.773	1809.56
454.129	1800.52
454.485	1807.3
454.841	1762.1
455.198	1603.91
455.554	1558.72
455.91	1583.57
456.266	1621.99
456.622	1527.08
456.978	1434.43
457.334	1355.33
457.69	1321.43
458.046	1305.62
458.402	1325.95
458.758	1145.17
459.114	1240.08
459.469	1179.07
459.825	1127.09
460.181	1122.57
460.536	1174.55
460.892	1106.75
461.248	1066.07
461.603	1027.66
461.959	980.2
462.314	921.44
462.67	975.68
463.025	946.3
463.38	984.72
463.736	939.52
464.091	986.98
464.446	959.86
464.802	932.74
465.157	873.99
465.512	855.91
465.867	885.29
466.222	894.33
466.577	862.69
466.932	853.65
467.287	822.01
467.642	806.19
467.997	776.82
468.352	785.86
468.707	758.74
469.062	718.06
469.417	727.1
469.771	747.44
470.126	679.64
470.481	677.38
470.835	761
471.19	704.5
471.544	672.86
471.899	711.28
472.253	677.38
472.608	747.44
472.962	670.6
473.317	720.32
473.671	670.6
474.025	672.86
474.38	706.76
474.734	661.56
475.088	684.16
475.442	629.93
475.796	609.59
476.15	629.93
476.504	670.6
476.858	711.28
477.212	663.82
477.566	709.02
477.92	623.15
478.274	600.55
478.628	636.71
478.982	577.95
479.336	661.56
479.689	602.81
480.043	589.25
480.397	661.56
480.75	679.64
481.104	609.59
481.457	620.89
481.811	657.04
482.164	566.65
482.518	571.17
482.871	559.87
483.225	566.65
483.578	611.85
483.931	530.49
484.284	557.61
484.638	607.33
484.991	577.95
485.344	525.97
485.697	605.07
486.05	562.13
486.403	557.61
486.756	521.46
487.109	535.01
487.462	539.53
487.815	528.23
488.168	580.21
488.52	611.85
488.873	643.49
489.226	514.68
489.579	539.53
489.931	478.52
490.284	562.13
490.637	605.07
490.989	541.79
491.342	521.46
491.694	530.49
492.047	564.39
492.399	618.63
492.751	544.05
493.104	577.95
493.456	535.01
493.808	582.47
494.16	562.13
494.513	535.01
494.865	553.09
495.217	541.79
495.569	512.42
495.921	525.97
496.273	548.57
496.625	548.57
496.977	568.91
497.329	514.68
497.68	577.95
498.032	503.38
498.384	532.75
498.736	512.42
499.087	559.87
499.439	555.35
499.791	541.79
500.142	514.68
500.494	544.05
500.845	589.25
501.197	600.55
501.548	596.03
501.9	582.47
502.251	555.35
502.602	600.55
502.954	530.49
503.305	638.97
503.656	512.42
504.007	516.94
504.358	657.04
504.709	580.21
505.061	618.63
505.412	521.46
505.763	586.99
506.113	589.25
506.464	575.69
506.815	636.71
507.166	629.93
507.517	607.33
507.868	675.12
508.218	661.56
508.569	675.12
508.92	672.86
509.27	663.82
509.621	645.75
509.971	620.89
510.322	643.49
510.672	729.36
511.023	693.2
511.373	740.66
511.723	686.42
512.074	677.38
512.424	699.98
512.774	731.62
513.124	699.98
513.475	722.58
513.825	731.62
514.175	722.58
514.525	763.26
514.875	794.89
515.225	788.11
515.575	797.15
515.924	889.81
516.274	862.69
516.624	774.56
516.974	776.82
517.324	835.57
517.673	797.15
518.023	901.11
518.373	862.69
518.722	862.69
519.072	840.09
519.421	883.03
519.771	907.89
520.12	944.04
520.469	957.6
520.819	948.56
521.168	1018.62
521.517	955.34
521.867	923.7
522.216	975.68
522.565	962.12
522.914	944.04
523.263	930.48
523.612	955.34
523.961	953.08
524.31	1005.06
524.659	1005.06
525.008	1018.62
525.357	1086.41
525.705	1038.96
526.054	1052.51
526.403	1054.77
526.752	1061.55
527.1	1048
527.449	1059.29
527.797	1063.81
528.146	1057.03
528.495	1129.35
528.843	1072.85
529.191	1036.7
529.54	1070.59
529.888	1084.15
530.236	1118.05
530.585	1016.36
530.933	1079.63
531.281	1068.33
531.629	1099.97
531.977	1167.77
532.325	1079.63
532.673	1147.43
533.021	1136.13
533.369	1192.62
533.717	1104.49
534.065	1090.93
534.413	1136.13
534.761	1142.91
535.108	1124.83
535.456	1156.47
535.804	1201.66
536.151	1054.77
536.499	1192.62
536.847	1208.44
537.194	1235.56
537.542	1176.81
537.889	1194.88
538.236	1084.15
538.584	1224.26
538.931	1149.69
539.278	1149.69
539.626	1029.92
539.973	1099.97
540.32	1068.33
540.667	1113.53
541.014	1181.32
541.361	1231.04
541.708	1183.58
542.055	1156.47
542.402	1179.07
542.749	1163.25
543.096	1154.21
543.443	1124.83
543.789	1138.39
544.136	1140.65
544.483	1118.05
544.83	1154.21
545.176	1147.43
545.523	1129.35
545.869	1093.19
546.216	1185.84
546.562	1172.29
546.909	1142.91
547.255	1210.7
547.601	1160.99
547.948	1199.4
548.294	1199.4
548.64	1059.29
548.986	1093.19
549.332	1244.6
549.678	1181.32
550.025	1133.87
550.371	1111.27
550.717	1190.36
551.062	1172.29
551.408	1133.87
551.754	1054.77
552.1	1095.45
552.446	1179.07
552.792	1199.4
553.137	1210.7
553.483	1206.18
553.828	1176.81
554.174	1199.4
554.52	1249.12
554.865	1190.36
555.211	1208.44
555.556	1174.55
555.901	1206.18
556.247	1215.22
556.592	1197.14
556.937	1276.24
557.282	1273.98
557.628	1203.92
557.973	1242.34
558.318	1249.12
558.663	1235.56
559.008	1174.55
559.353	1206.18
559.698	1289.8
560.043	1235.56
560.388	1156.47
560.732	1226.52
561.077	1319.17
561.422	1271.72
561.766	1251.38
562.111	1276.24
562.456	1233.3
562.8	1208.44
563.145	1319.17
563.489	1208.44
563.834	1244.6
564.178	1233.3
564.523	1194.88
564.867	1339.51
565.211	1278.5
565.555	1296.58
565.9	1262.68
566.244	1228.78
566.588	1321.43
566.932	1285.28
567.276	1278.5
567.62	1298.84
567.964	1391.49
568.308	1359.85
568.652	1301.1
568.996	1310.14
569.339	1312.39
569.683	1341.77
570.027	1310.14
570.371	1325.95
570.714	1393.75
571.058	1368.89
571.401	1271.72
571.745	1307.88
572.088	1409.57
572.432	1359.85
572.775	1344.03
573.118	1328.21
573.462	1222
573.805	1355.33
574.148	1400.53
574.491	1332.73
574.835	1391.49
575.178	1382.45
575.521	1344.03
575.864	1264.94
576.207	1357.59
576.55	1310.14
576.892	1389.23
577.235	1289.8
577.578	1332.73
577.921	1355.33
578.264	1323.69
578.606	1285.28
578.949	1334.99
579.292	1341.77
579.634	1226.52
579.977	1283.02
580.319	1314.65
580.662	1296.58
581.004	1228.78
581.346	1332.73
581.689	1278.5
582.031	1273.98
582.373	1267.2
582.715	1260.42
583.057	1267.2
583.4	1267.2
583.742	1246.86
584.084	1285.28
584.426	1231.04
584.768	1192.62
585.109	1262.68
585.451	1231.04
585.793	1199.4
586.135	1219.74
586.477	1176.81
586.818	1174.55
587.16	1124.83
587.502	1215.22
587.843	1122.57
588.185	1097.71
588.526	1081.89
588.868	1111.27
589.209	1158.73
589.55	1115.79
589.892	1113.53
590.233	1079.63
590.574	1131.61
590.915	1163.25
591.257	1079.63
591.598	1054.77
591.939	1068.33
592.28	1043.48
592.621	1061.55
592.962	1018.62
593.303	1054.77
593.643	1077.37
593.984	1086.41
594.325	1075.11
594.666	982.46
595.006	939.52
595.347	1000.54
595.688	968.9
596.028	1070.59
596.369	1061.55
596.709	971.16
597.05	903.37
597.39	993.76
597.73	932.74
598.071	887.55
598.411	860.43
598.751	889.81
599.091	928.22
599.431	901.11
599.772	873.99
600.112	980.2
600.452	939.52
600.792	867.21
601.132	921.44
601.471	851.39
601.811	905.63
602.151	901.11
602.491	853.65
602.831	898.85
603.17	817.49
603.51	855.91
603.849	817.49
604.189	801.67
604.528	858.17
604.868	828.79
605.207	837.83
605.547	883.03
605.886	783.6
606.225	860.43
606.565	815.23
606.904	824.27
607.243	842.35
607.582	788.11
607.921	799.41
608.26	878.51
608.599	740.66
608.938	754.22
609.277	833.31
609.616	738.4
609.955	774.56
610.293	781.34
610.632	724.84
610.971	812.97
611.309	704.5
611.648	661.56
611.987	815.23
612.325	779.08
612.664	812.97
613.002	822.01
613.34	738.4
613.679	727.1
614.017	727.1
614.355	761
614.694	790.37
615.032	770.04
615.37	720.32
615.708	738.4
616.046	754.22
616.384	684.16
616.722	702.24
617.06	822.01
617.398	776.82
617.736	718.06
618.073	666.08
618.411	666.08
618.749	727.1
619.086	738.4
619.424	688.68
619.762	693.2
620.099	670.6
620.437	738.4
620.774	666.08
621.112	706.76
621.449	697.72
621.786	749.7
622.123	810.71
622.461	670.6
622.798	657.04
623.135	648.01
623.472	711.28
623.809	711.28
624.146	693.2
624.483	733.88
624.82	654.79
625.157	709.02
625.494	652.53
625.83	618.63
626.167	670.6
626.504	670.6
626.841	575.69
627.177	697.72
627.514	629.93
627.85	709.02
628.187	681.9
628.523	679.64
628.86	593.77
629.196	690.94
629.532	586.99
629.869	620.89
630.205	702.24
630.541	632.19
630.877	650.27
631.213	650.27
631.549	688.68
631.885	697.72
632.221	643.49
632.557	589.25
632.893	618.63
633.229	616.37
633.564	650.27
633.9	611.85
634.236	629.93
634.572	575.69
634.907	591.51
635.243	566.65
635.578	553.09
635.914	643.49
636.249	629.93
636.585	537.27
636.92	614.11
637.255	584.73
637.59	566.65
637.926	541.79
638.261	650.27
638.596	568.91
638.931	523.72
639.266	557.61
639.601	532.75
639.936	607.33
640.271	562.13
640.606	548.57
640.94	616.37
641.275	600.55
641.61	535.01
641.945	559.87
642.279	525.97
642.614	573.43
642.948	523.72
643.283	586.99
643.617	532.75
643.952	512.42
644.286	550.83
644.62	505.64
644.955	464.96
645.289	620.89
645.623	580.21
645.957	505.64
646.291	571.17
646.625	528.23
646.959	460.44
647.293	557.61
647.627	535.01
647.961	510.16
648.295	544.05
648.629	501.12
648.962	582.47
649.296	496.6
649.63	503.38
649.963	510.16
650.297	525.97
650.63	501.12
650.964	498.86
651.297	431.06
651.631	514.68
651.964	521.46
652.297	442.36
652.631	510.16
652.964	555.35
653.297	478.52
653.63	437.84
653.963	424.28
654.296	476.26
654.629	480.78
654.962	464.96
655.295	492.08
655.628	494.34
655.961	406.2
656.293	419.76
656.626	485.3
656.959	474
657.291	469.48
657.624	453.66
657.956	399.42
658.289	403.94
658.621	444.62
658.954	428.8
659.286	433.32
659.618	399.42
659.95	408.46
660.283	417.5
660.615	408.46
660.947	467.22
661.279	433.32
661.611	374.57
661.943	451.4
662.275	446.88
662.607	361.01
662.939	372.31
663.27	442.36
663.602	435.58
663.934	444.62
664.266	419.76
664.597	442.36
664.929	449.14
665.26	367.79
665.592	383.61
665.923	401.68
666.255	376.83
666.586	417.5
666.917	406.2
667.248	403.94
667.58	351.97
667.911	458.18
668.242	381.35
668.573	451.4
668.904	354.23
669.235	315.81
669.566	406.2
669.897	361.01
670.228	417.5
670.558	347.45
670.889	390.39
671.22	365.53
671.551	388.13
671.881	388.13
672.212	370.05
672.542	406.2
672.873	363.27
673.203	329.37
673.533	446.88
673.864	333.89
674.194	315.81
674.524	345.19
674.855	412.98
675.185	381.35
675.515	376.83
675.845	408.46
676.175	417.5
676.505	388.13
676.835	397.16
677.165	417.5
677.494	354.23
677.824	340.67
678.154	340.67
678.484	471.74
678.813	340.67
679.143	385.87
679.472	313.55
679.802	419.76
680.131	290.95
680.461	306.77
680.79	403.94
681.119	374.57
681.449	394.9
681.778	340.67
682.107	372.31
682.436	372.31
682.765	354.23
683.094	392.65
683.423	331.63
683.752	318.07
684.081	342.93
684.41	329.37
684.739	428.8
685.067	304.51
685.396	399.42
685.725	365.53
686.053	367.79
686.382	385.87
686.711	297.73
687.039	376.83
687.367	372.31
687.696	324.85
688.024	338.41
688.352	315.81
688.681	327.11
689.009	338.41
689.337	338.41
689.665	361.01
689.993	358.75
690.321	324.85
690.649	333.89
690.977	320.33
691.305	349.71
691.633	361.01
691.961	322.59
692.288	349.71
692.616	284.17
692.944	340.67
693.271	358.75
693.599	390.39
693.926	306.77
694.254	367.79
694.581	331.63
694.908	336.15
695.236	293.21
695.563	327.11
695.89	363.27
696.217	361.01
696.544	295.47
696.871	347.45
697.198	354.23
697.525	304.51
697.852	361.01
698.179	351.97
698.506	304.51
698.833	309.03
699.16	309.03
699.486	361.01
699.813	288.69
700.139	333.89
700.466	422.02
700.793	327.11
701.119	345.19
701.445	329.37
701.772	297.73
702.098	363.27
702.424	299.99
702.75	349.71
703.077	347.45
703.403	320.33
703.729	279.65
704.055	367.79
704.381	277.39
704.707	299.99
705.033	318.07
705.358	327.11
705.684	295.47
706.01	318.07
706.336	327.11
706.661	361.01
706.987	306.77
707.312	342.93
707.638	304.51
707.963	327.11
708.289	288.69
708.614	236.72
708.939	363.27
709.265	329.37
709.59	379.09
709.915	367.79
710.24	349.71
710.565	320.33
710.89	309.03
711.215	336.15
711.54	288.69
711.865	309.03
712.19	302.25
712.515	311.29
712.839	268.35
713.164	345.19
713.489	302.25
713.813	394.9
714.138	288.69
714.462	272.87
714.787	293.21
715.111	263.83
715.435	299.99
715.76	324.85
716.084	361.01
716.408	288.69
716.732	315.81
717.056	275.13
717.381	293.21
717.705	281.91
718.028	361.01
718.352	288.69
718.676	324.85
719	349.71
719.324	324.85
719.648	370.05
719.971	295.47
720.295	374.57
720.618	331.63
720.942	345.19
721.265	329.37
721.589	263.83
721.912	250.28
722.236	313.55
722.559	365.53
722.882	320.33
723.205	320.33
723.528	290.95
723.851	218.64
724.174	290.95
724.497	311.29
724.82	342.93
725.143	250.28
725.466	268.35
725.789	329.37
726.112	320.33
726.434	275.13
726.757	272.87
727.08	336.15
727.402	320.33
727.725	281.91
728.047	322.59
728.37	318.07
728.692	263.83
729.014	250.28
729.336	257.06
729.659	281.91
729.981	342.93
730.303	299.99
730.625	288.69
730.947	345.19
731.269	349.71
731.591	322.59
731.913	270.61
732.235	259.32
732.556	299.99
732.878	275.13
733.2	304.51
733.521	322.59
733.843	272.87
734.164	304.51
734.486	284.17
734.807	261.58
735.129	302.25
735.45	268.35
735.771	358.75
736.092	345.19
736.414	288.69
736.735	306.77
737.056	214.12
737.377	266.09
737.698	288.69
738.019	320.33
738.34	351.97
738.66	232.2
738.981	320.33
739.302	318.07
739.623	345.19
739.943	225.42
740.264	302.25
740.584	333.89
740.905	297.73
741.225	279.65
741.546	351.97
741.866	259.32
742.186	232.2
742.507	309.03
742.827	288.69
743.147	263.83
743.467	284.17
743.787	270.61
744.107	309.03
744.427	327.11
744.747	336.15
745.067	272.87
745.386	290.95
745.706	288.69
746.026	232.2
746.346	318.07
746.665	245.76
746.985	245.76
747.304	277.39
747.624	279.65
747.943	306.77
748.262	266.09
748.582	259.32
748.901	288.69
749.22	313.55
749.539	318.07
749.858	232.2
750.177	207.34
750.496	270.61
750.815	284.17
751.134	311.29
751.453	218.64
751.772	266.09
752.09	286.43
752.409	345.19
752.728	293.21
753.046	254.8
753.365	324.85
753.683	268.35
754.002	234.46
754.32	229.94
754.639	290.95
754.957	313.55
755.275	327.11
755.593	232.2
755.911	232.2
756.23	275.13
756.548	304.51
756.866	214.12
757.183	315.81
757.501	232.2
757.819	266.09
758.137	250.28
758.455	223.16
758.772	270.61
759.09	281.91
759.408	266.09
759.725	340.67
760.043	347.45
760.36	313.55
760.677	290.95
760.995	218.64
761.312	327.11
761.629	324.85
761.946	329.37
762.264	318.07
762.581	313.55
762.898	248.02
763.215	218.64
763.532	243.5
763.848	266.09
764.165	236.72
764.482	200.56
764.799	311.29
765.115	259.32
765.432	286.43
765.749	261.58
766.065	277.39
766.382	313.55
766.698	272.87
767.014	272.87
767.331	277.39
767.647	229.94
767.963	304.51
768.279	315.81
768.595	313.55
768.911	281.91
769.227	320.33
769.543	272.87
769.859	313.55
770.175	293.21
770.491	272.87
770.807	293.21
771.122	322.59
771.438	333.89
771.754	257.06
772.069	315.81
772.385	248.02
772.7	268.35
773.016	299.99
773.331	263.83
773.646	227.68
773.961	259.32
774.277	281.91
774.592	302.25
774.907	313.55
775.222	268.35
775.537	304.51
775.852	220.9
776.167	236.72
776.482	327.11
776.796	331.63
777.111	281.91
777.426	275.13
777.74	279.65
778.055	324.85
778.369	275.13
778.684	245.76
778.998	290.95
779.313	295.47
779.627	297.73
779.941	238.98
780.255	363.27
780.57	322.59
780.884	327.11
781.198	297.73
781.512	254.8
781.826	245.76
782.14	295.47
782.453	299.99
782.767	272.87
783.081	236.72
783.395	272.87
783.708	268.35
784.022	333.89
784.335	336.15
784.649	279.65
784.962	257.06
785.276	286.43
785.589	293.21
785.902	248.02
786.216	268.35
786.529	293.21
786.842	261.58
787.155	290.95
787.468	218.64
787.781	288.69
788.094	266.09
788.407	232.2
788.72	227.68
789.032	286.43
789.345	295.47
789.658	263.83
789.97	254.8
790.283	313.55
790.595	245.76
790.908	254.8
791.22	286.43
791.532	281.91
791.845	324.85
792.157	263.83
792.469	340.67
792.781	309.03
793.093	367.79
793.405	286.43
793.717	216.38
794.029	338.41
794.341	257.06
794.653	277.39
794.965	225.42
795.276	286.43
795.588	313.55
795.9	225.42
796.211	268.35
796.523	250.28
796.834	263.83
797.146	220.9
797.457	252.54
797.768	333.89
798.08	223.16
798.391	281.91
798.702	257.06
799.013	254.8
799.324	241.24
799.635	234.46
799.946	263.83
800.257	191.52
800.568	309.03
800.878	284.17
801.189	257.06
801.5	295.47
801.81	261.58
802.121	277.39
802.431	297.73
802.742	234.46
803.052	254.8
803.363	275.13
803.673	257.06
803.983	257.06
804.293	241.24
804.603	257.06
804.913	234.46
805.224	304.51
805.533	320.33
805.843	288.69
806.153	243.5
806.463	254.8
806.773	311.29
807.083	288.69
807.392	257.06
807.702	259.32
808.011	245.76
808.321	252.54
808.63	252.54
808.94	349.71
809.249	309.03
809.558	299.99
809.868	284.17
810.177	306.77
810.486	266.09
810.795	299.99
811.104	225.42
811.413	272.87
811.722	295.47
812.031	250.28
812.339	270.61
812.648	288.69
812.957	263.83
813.266	329.37
813.574	261.58
813.883	279.65
814.191	261.58
814.5	266.09
814.808	299.99
815.116	311.29
815.424	340.67
815.733	290.95
816.041	306.77
816.349	309.03
816.657	241.24
816.965	220.9
817.273	252.54
817.581	297.73
817.889	333.89
818.196	313.55
818.504	299.99
818.812	297.73
819.12	259.32
819.427	286.43
819.735	315.81
820.042	293.21
820.349	259.32
820.657	297.73
820.964	281.91
821.271	275.13
821.579	248.02
821.886	207.34
822.193	315.81
822.5	304.51
822.807	232.2
823.114	266.09
823.421	313.55
823.727	268.35
824.034	331.63
824.341	214.12
824.648	243.5
824.954	232.2
825.261	223.16
825.567	313.55
825.874	266.09
826.18	306.77
826.486	270.61
826.793	261.58
827.099	279.65
827.405	252.54
827.711	250.28
828.017	211.86
828.323	295.47
828.629	257.06
828.935	290.95
829.241	225.42
829.547	268.35
829.852	299.99
830.158	259.32
830.464	270.61
830.769	234.46
831.075	279.65
831.38	266.09
831.686	318.07
831.991	245.76
832.296	241.24
832.601	290.95
832.907	248.02
833.212	290.95
833.517	279.65
833.822	243.5
834.127	327.11
834.432	270.61
834.737	284.17
835.041	243.5
835.346	198.3
835.651	261.58
835.956	315.81
836.26	245.76
836.565	318.07
836.869	342.93
837.174	263.83
837.478	266.09
837.782	241.24
838.087	223.16
838.391	284.17
838.695	313.55
838.999	236.72
839.303	304.51
839.607	241.24
839.911	288.69
840.215	241.24
840.519	236.72
840.822	333.89
841.126	347.45
841.43	275.13
841.733	245.76
842.037	268.35
842.34	266.09
842.644	257.06
842.947	329.37
843.251	336.15
843.554	266.09
843.857	297.73
844.16	159.88
844.463	225.42
844.766	286.43
845.069	232.2
845.372	220.9
845.675	315.81
845.978	275.13
846.281	299.99
846.583	243.5
846.886	299.99
847.189	381.35
847.491	266.09
847.794	261.58
848.096	200.56
848.399	306.77
848.701	275.13
849.003	318.07
849.305	286.43
849.608	214.12
849.91	266.09
850.212	259.32
850.514	229.94
850.816	286.43
851.118	327.11
851.419	248.02
851.721	261.58
852.023	223.16
852.325	252.54
852.626	241.24
852.928	236.72
853.229	248.02
853.531	293.21
853.832	279.65
854.133	248.02
854.435	223.16
854.736	288.69
855.037	288.69
855.338	297.73
855.639	288.69
855.94	196.04
856.241	232.2
856.542	272.87
856.843	254.8
857.144	257.06
857.444	207.34
857.745	313.55
858.046	245.76
858.346	284.17
858.647	295.47
858.947	238.98
859.247	268.35
859.548	220.9
859.848	232.2
860.148	290.95
860.448	257.06
860.749	284.17
861.049	345.19
861.349	261.58
861.648	275.13
861.948	214.12
862.248	261.58
862.548	245.76
862.848	229.94
863.147	288.69
863.447	254.8
863.746	270.61
864.046	286.43
864.345	309.03
864.645	304.51
864.944	299.99
865.243	261.58
865.542	279.65
865.842	268.35
866.141	245.76
866.44	216.38
866.739	272.87
867.038	263.83
867.337	225.42
867.635	309.03
867.934	200.56
868.233	248.02
868.531	277.39
868.83	272.87
869.129	304.51
869.427	196.04
869.725	320.33
870.024	263.83
870.322	327.11
870.62	306.77
870.918	272.87
871.217	277.39
871.515	241.24
871.813	243.5
872.111	241.24
872.409	254.8
872.706	238.98
873.004	270.61
873.302	309.03
873.6	277.39
873.897	270.61
874.195	293.21
874.492	275.13
874.79	320.33
875.087	286.43
875.384	284.17
875.682	232.2
875.979	252.54
876.276	293.21
876.573	214.12
876.87	214.12
877.167	214.12
