Data from PL_2polymer_F8BT_MEHPPV_USB2H096331_0237.txt Node
Date: Tue Dec 15 16:32:06 CET 2020
User: spadmin
Spectrometer: USB2+H09633
Trigger mode: 0
Integration Time (sec): 1.000000E-2
Scans to average: 1
Electric dark correction enabled: true
Nonlinearity correction enabled: false
Boxcar width: 0
XAxis mode: Wavelengths
Number of Pixels in Spectrum: 2048
>>>>>Begin Spectral Data<<<<<
174.027	-113.7
174.405	-113.7
174.783	-113.7
175.162	-93.36
175.54	-88.84
175.918	-140.82
176.296	-97.88
176.674	-145.34
177.052	-84.32
177.43	-63.98
177.808	-68.5
178.186	-88.84
178.564	-0.71
178.942	46.75
179.32	-18.78
179.698	-9.75
180.076	67.09
180.453	60.31
180.831	85.17
181.209	69.35
181.587	152.96
181.965	96.47
182.342	162
182.72	218.5
183.098	227.54
183.475	238.84
183.853	218.5
184.231	345.05
184.608	315.67
184.986	245.62
185.363	263.69
185.741	290.81
186.118	313.41
186.496	225.28
186.873	290.81
187.251	349.57
187.628	304.37
188.006	401.54
188.383	322.45
188.76	227.54
189.138	299.85
189.515	365.39
189.892	302.11
190.27	284.03
190.647	322.45
191.024	349.57
191.401	349.57
191.778	340.53
192.155	331.49
192.533	315.67
192.91	358.61
193.287	311.15
193.664	383.46
194.041	290.81
194.418	322.45
194.795	247.87
195.172	331.49
195.549	281.77
195.926	340.53
196.302	306.63
196.679	261.43
197.056	336.01
197.433	288.55
197.81	293.07
198.187	313.41
198.563	299.85
198.94	279.51
199.317	250.13
199.693	272.73
200.07	326.97
200.447	356.35
200.823	288.55
201.2	295.33
201.576	347.31
201.953	238.84
202.329	268.21
202.706	304.37
203.082	340.53
203.459	381.2
203.835	329.23
204.212	340.53
204.588	376.69
204.964	297.59
205.341	320.19
205.717	299.85
206.093	259.17
206.469	274.99
206.846	331.49
207.222	360.87
207.598	324.71
207.974	304.37
208.35	363.13
208.726	259.17
209.102	356.35
209.479	317.93
209.855	329.23
210.231	302.11
210.607	277.25
210.982	311.15
211.358	315.67
211.734	372.17
212.11	277.25
212.486	333.75
212.862	270.47
213.238	326.97
213.614	293.07
213.989	313.41
214.365	268.21
214.741	304.37
215.116	277.25
215.492	340.53
215.868	302.11
216.243	295.33
216.619	284.03
216.995	360.87
217.37	277.25
217.746	288.55
218.121	326.97
218.497	306.63
218.872	286.29
219.247	331.49
219.623	261.43
219.998	320.19
220.374	329.23
220.749	304.37
221.124	302.11
221.499	315.67
221.875	295.33
222.25	419.62
222.625	340.53
223	297.59
223.376	295.33
223.751	265.95
224.126	306.63
224.501	333.75
224.876	356.35
225.251	338.27
225.626	383.46
226.001	324.71
226.376	351.83
226.751	390.24
227.126	295.33
227.501	315.67
227.875	299.85
228.25	351.83
228.625	347.31
229	369.91
229.375	297.59
229.749	340.53
230.124	381.2
230.499	286.29
230.873	351.83
231.248	331.49
231.623	322.45
231.997	277.25
232.372	313.41
232.746	369.91
233.121	372.17
233.495	369.91
233.87	340.53
234.244	387.98
234.619	401.54
234.993	308.89
235.367	331.49
235.742	311.15
236.116	374.43
236.49	369.91
236.865	381.2
237.239	311.15
237.613	360.87
237.987	302.11
238.361	406.06
238.736	351.83
239.11	349.57
239.484	308.89
239.858	349.57
240.232	378.94
240.606	342.79
240.98	299.85
241.354	369.91
241.728	354.09
242.102	365.39
242.475	365.39
242.849	320.19
243.223	302.11
243.597	374.43
243.971	351.83
244.344	392.5
244.718	385.72
245.092	358.61
245.466	428.66
245.839	360.87
246.213	326.97
246.586	336.01
246.96	374.43
247.334	345.05
247.707	401.54
248.081	333.75
248.454	349.57
248.828	376.69
249.201	360.87
249.574	408.32
249.948	381.2
250.321	460.3
250.694	349.57
251.068	376.69
251.441	399.28
251.814	351.83
252.187	360.87
252.561	369.91
252.934	349.57
253.307	401.54
253.68	408.32
254.053	403.8
254.426	399.28
254.799	367.65
255.172	419.62
255.545	410.58
255.918	408.32
256.291	347.31
256.664	356.35
257.037	415.1
257.41	342.79
257.782	419.62
258.155	417.36
258.528	376.69
258.901	376.69
259.273	306.63
259.646	358.61
260.019	430.92
260.391	394.76
260.764	369.91
261.137	410.58
261.509	374.43
261.882	387.98
262.254	349.57
262.627	467.08
262.999	419.62
263.372	426.4
263.744	376.69
264.116	403.8
264.489	360.87
264.861	342.79
265.233	378.94
265.606	387.98
265.978	392.5
266.35	358.61
266.722	397.02
267.094	342.79
267.467	415.1
267.839	426.4
268.211	367.65
268.583	394.76
268.955	412.84
269.327	358.61
269.699	383.46
270.071	397.02
270.443	383.46
270.815	410.58
271.186	392.5
271.558	342.79
271.93	326.97
272.302	331.49
272.674	367.65
273.045	372.17
273.417	383.46
273.789	381.2
274.16	421.88
274.532	397.02
274.904	356.35
275.275	385.72
275.647	399.28
276.018	363.13
276.39	351.83
276.761	426.4
277.133	412.84
277.504	376.69
277.875	403.8
278.247	442.22
278.618	480.64
278.989	444.48
279.361	415.1
279.732	453.52
280.103	433.18
280.474	437.7
280.846	365.39
281.217	469.34
281.588	408.32
281.959	430.92
282.33	437.7
282.701	397.02
283.072	485.16
283.443	433.18
283.814	473.86
284.185	435.44
284.556	494.2
284.927	397.02
285.297	467.08
285.668	433.18
286.039	401.54
286.41	381.2
286.781	376.69
287.151	401.54
287.522	397.02
287.893	401.54
288.263	451.26
288.634	403.8
289.004	421.88
289.375	399.28
289.745	462.56
290.116	394.76
290.486	478.38
290.857	439.96
291.227	464.82
291.598	426.4
291.968	451.26
292.338	401.54
292.709	360.87
293.079	417.36
293.449	424.14
293.819	415.1
294.189	446.74
294.56	406.06
294.93	387.98
295.3	406.06
295.67	354.09
296.04	390.24
296.41	363.13
296.78	421.88
297.15	437.7
297.52	376.69
297.89	455.78
298.259	476.12
298.629	446.74
298.999	387.98
299.369	442.22
299.739	390.24
300.108	421.88
300.478	369.91
300.848	442.22
301.217	424.14
301.587	473.86
301.957	462.56
302.326	455.78
302.696	541.65
303.065	437.7
303.435	439.96
303.804	462.56
304.174	539.39
304.543	451.26
304.912	430.92
305.282	458.04
305.651	430.92
306.02	399.28
306.39	449
306.759	573.29
307.128	439.96
307.497	439.96
307.866	482.9
308.235	510.01
308.604	494.2
308.974	491.94
309.343	480.64
309.712	437.7
310.08	478.38
310.449	451.26
310.818	516.79
311.187	446.74
311.556	489.68
311.925	505.5
312.294	453.52
312.662	453.52
313.031	464.82
313.4	449
313.769	507.76
314.137	496.46
314.506	507.76
314.874	541.65
315.243	625.27
315.612	557.47
315.98	550.69
316.349	525.83
316.717	453.52
317.085	487.42
317.454	469.34
317.822	521.31
318.191	458.04
318.559	505.5
318.927	478.38
319.295	507.76
319.664	471.6
320.032	464.82
320.4	458.04
320.768	494.2
321.136	510.01
321.504	469.34
321.872	503.24
322.24	498.72
322.608	555.21
322.976	503.24
323.344	478.38
323.712	503.24
324.08	514.53
324.448	446.74
324.816	514.53
325.183	458.04
325.551	489.68
325.919	528.09
326.287	473.86
326.654	455.78
327.022	519.05
327.389	467.08
327.757	498.72
328.125	514.53
328.492	503.24
328.86	462.56
329.227	510.01
329.594	462.56
329.962	543.91
330.329	537.13
330.697	510.01
331.064	580.07
331.431	417.36
331.798	512.27
332.166	561.99
332.533	602.67
332.9	537.13
333.267	546.17
333.634	670.46
334.001	519.05
334.368	519.05
334.735	496.46
335.102	577.81
335.469	559.73
335.836	620.75
336.203	555.21
336.57	561.99
336.937	623.01
337.304	537.13
337.67	589.11
338.037	604.93
338.404	566.51
338.771	638.83
339.137	607.19
339.504	618.49
339.87	663.68
340.237	602.67
340.604	609.45
340.97	586.85
341.337	616.23
341.703	514.53
342.069	618.49
342.436	607.19
342.802	521.31
343.169	577.81
343.535	546.17
343.901	595.89
344.267	593.63
344.634	636.57
345	620.75
345.366	616.23
345.732	641.08
346.098	643.34
346.464	613.97
346.83	641.08
347.196	663.68
347.562	647.86
347.928	695.32
348.294	688.54
348.66	602.67
349.026	661.42
349.392	695.32
349.757	623.01
350.123	609.45
350.489	647.86
350.855	690.8
351.22	618.49
351.586	632.05
351.951	672.72
352.317	645.6
352.683	722.44
353.048	684.02
353.414	652.38
353.779	722.44
354.144	713.4
354.51	690.8
354.875	767.64
355.24	697.58
355.606	661.42
355.971	760.86
356.336	665.94
356.701	792.49
357.067	672.72
357.432	760.86
357.797	828.65
358.162	731.48
358.527	815.09
358.892	848.99
359.257	726.96
359.622	763.12
359.987	846.73
360.352	851.25
360.717	747.3
361.082	776.67
361.446	887.41
361.811	878.37
362.176	846.73
362.541	824.13
362.905	869.33
363.27	896.45
363.635	925.82
363.999	891.93
364.364	887.41
364.728	912.26
365.093	1009.44
365.457	948.42
365.822	946.16
366.186	971.02
366.55	869.33
366.915	991.36
367.279	957.46
367.643	966.5
368.008	1009.44
368.372	977.8
368.736	1011.7
369.1	1034.29
369.464	1034.29
369.828	1027.52
370.192	1113.39
370.556	1160.85
370.92	1104.35
371.284	1183.44
371.648	1185.7
372.012	1269.32
372.376	1305.47
372.74	1262.54
373.104	1422.99
373.468	1538.24
373.831	1459.14
374.195	1411.69
374.559	1551.8
374.922	1513.38
375.286	1547.28
375.65	1739.36
376.013	1728.06
376.377	1723.54
376.74	1775.52
377.104	1780.04
377.467	1958.56
377.83	2189.07
378.194	2180.03
378.557	2204.89
378.92	2288.5
379.284	2473.81
379.647	2616.17
380.01	2747.24
380.373	2930.29
380.736	3090.74
381.1	3459.09
381.463	3662.47
381.826	3944.95
382.189	4195.79
382.552	4464.71
382.915	4900.86
383.278	5208.2
383.64	5795.75
384.003	6082.75
384.366	6661.27
384.729	7429.61
385.092	7822.82
385.454	8493.99
385.817	9348.2
386.18	10225.01
386.542	11483.74
386.905	12353.77
387.268	13544.7
387.63	15264.43
387.993	16175.14
388.355	17867.75
388.718	19225.91
389.08	20988.57
389.442	23248.4
389.805	25295.8
390.167	27112.71
390.529	30371.38
390.892	33813.09
391.254	35584.8
391.616	37883.04
391.978	42809.47
392.34	46104.3
392.702	47749.45
393.064	51340.32
393.426	53914.26
393.788	55283.72
394.15	56913.05
394.512	58998.87
394.874	60668.89
395.236	62589.74
395.598	64275.57
395.96	65075.55
396.321	65075.55
396.683	65075.55
397.045	65075.55
397.406	65075.55
397.768	65075.55
398.13	65075.55
398.491	65075.55
398.853	65075.55
399.214	65075.55
399.576	65075.55
399.937	65075.55
400.299	65075.55
400.66	65075.55
401.021	65075.55
401.383	65075.55
401.744	65075.55
402.105	65075.55
402.466	65075.55
402.827	65075.55
403.189	65075.55
403.55	65075.55
403.911	65075.55
404.272	65075.55
404.633	65075.55
404.994	65075.55
405.355	65075.55
405.716	65075.55
406.077	65075.55
406.437	65075.55
406.798	65075.55
407.159	65075.55
407.52	65075.55
407.88	65075.55
408.241	65075.55
408.602	65075.55
408.962	65075.55
409.323	65075.55
409.684	65075.55
410.044	65075.55
410.405	65075.55
410.765	65075.55
411.125	65075.55
411.486	65075.55
411.846	65075.55
412.206	65075.55
412.567	65075.55
412.927	65075.55
413.287	65075.55
413.647	65075.55
414.007	65075.55
414.368	65075.55
414.728	65075.55
415.088	65075.55
415.448	65075.55
415.808	65075.55
416.168	65075.55
416.528	65075.55
416.887	65075.55
417.247	65075.55
417.607	65075.55
417.967	65075.55
418.327	65075.55
418.686	65075.55
419.046	65075.55
419.406	65075.55
419.765	65075.55
420.125	65075.55
420.484	65075.55
420.844	65075.55
421.203	65075.55
421.563	64298.17
421.922	64171.62
422.282	62388.61
422.641	60856.45
423	59566.09
423.36	58630.52
423.719	56578.6
424.078	54415.94
424.437	52580.96
424.796	51105.29
425.155	49835.27
425.515	46938.17
425.874	46077.18
426.233	41916.84
426.592	39132.73
426.95	38495.46
427.309	36152.02
427.668	35498.93
428.027	32348.73
428.386	31648.18
428.745	28807.58
429.103	27232.48
429.462	25903.7
429.821	23987.36
430.179	23094.73
430.538	22337.69
430.897	22190.8
431.255	20364.86
431.614	18893.71
431.972	18529.88
432.33	17675.67
432.689	17562.67
433.047	16118.64
433.405	15056.53
433.764	14609.08
434.122	14529.99
434.48	13522.1
434.838	12864.49
435.197	12274.68
435.555	12082.59
435.913	11284.87
436.271	11113.13
436.629	10306.37
436.987	10136.88
437.345	9603.56
437.703	9264.59
438.061	8559.52
438.418	8112.07
438.776	7831.86
439.134	7669.15
439.492	7486.1
439.849	7047.7
440.207	6568.61
440.565	6437.54
440.922	6121.17
441.28	5678.24
441.637	5538.13
441.995	5323.45
442.352	5163
442.71	4785.61
443.067	4878.26
443.425	4351.72
443.782	4311.04
444.139	4313.3
444.496	4100.88
444.854	4001.45
445.211	3660.21
445.568	3741.57
445.925	3479.43
446.282	3402.59
446.639	3260.23
446.996	3262.48
447.353	3242.15
447.71	3124.64
448.067	3196.95
448.424	2998.09
448.781	2767.58
449.137	2839.9
449.494	2498.66
449.851	2464.77
450.208	2448.95
450.564	2304.32
450.921	2155.17
451.278	2112.23
451.634	2265.9
451.991	2125.79
452.347	2209.41
452.704	2067.04
453.06	1960.82
453.416	1786.82
453.773	1813.94
454.129	1698.68
454.485	1635.41
454.841	1628.63
455.198	1447.84
455.554	1526.94
455.91	1474.96
456.266	1490.78
456.622	1391.35
456.978	1427.5
457.334	1321.29
457.69	1314.51
458.046	1271.58
458.402	1282.88
458.758	1149.55
459.114	1185.7
459.469	1199.26
459.825	1108.87
460.181	1090.79
460.536	1056.89
460.892	1025.26
461.248	1054.63
461.603	975.54
461.959	957.46
462.314	948.42
462.67	984.58
463.025	891.93
463.38	980.06
463.736	878.37
464.091	905.48
464.446	882.89
464.802	955.2
465.157	873.85
465.512	835.43
465.867	864.81
466.222	794.75
466.577	817.35
466.932	810.57
467.287	765.38
467.642	765.38
467.997	787.97
468.352	706.62
468.707	792.49
469.062	808.31
469.417	790.23
469.771	810.57
470.126	620.75
470.481	726.96
470.835	745.04
471.19	663.68
471.544	699.84
471.899	661.42
472.253	672.72
472.608	715.66
472.962	647.86
473.317	677.24
473.671	681.76
474.025	684.02
474.38	708.88
474.734	686.28
475.088	611.71
475.442	704.36
475.796	650.12
476.15	636.57
476.504	661.42
476.858	695.32
477.212	604.93
477.566	604.93
477.92	577.81
478.274	611.71
478.628	589.11
478.982	634.31
479.336	659.16
479.689	623.01
480.043	571.03
480.397	618.49
480.75	613.97
481.104	609.45
481.457	598.15
481.811	609.45
482.164	584.59
482.518	627.53
482.871	618.49
483.225	604.93
483.578	616.23
483.931	523.57
484.284	623.01
484.638	632.05
484.991	652.38
485.344	532.61
485.697	638.83
486.05	566.51
486.403	559.73
486.756	528.09
487.109	559.73
487.462	600.41
487.815	604.93
488.168	618.49
488.52	607.19
488.873	550.69
489.226	541.65
489.579	539.39
489.931	568.77
490.284	568.77
490.637	627.53
490.989	512.27
491.342	571.03
491.694	530.35
492.047	566.51
492.399	539.39
492.751	575.55
493.104	534.87
493.456	530.35
493.808	571.03
494.16	491.94
494.513	519.05
494.865	589.11
495.217	580.07
495.569	525.83
495.921	552.95
496.273	512.27
496.625	537.13
496.977	521.31
497.329	566.51
497.68	546.17
498.032	478.38
498.384	510.01
498.736	573.29
499.087	458.04
499.439	503.24
499.791	546.17
500.142	584.59
500.494	496.46
500.845	548.43
501.197	514.53
501.548	503.24
501.9	611.71
502.251	561.99
502.602	534.87
502.954	494.2
503.305	586.85
503.656	541.65
504.007	571.03
504.358	627.53
504.709	577.81
505.061	487.42
505.412	589.11
505.763	539.39
506.113	584.59
506.464	566.51
506.815	632.05
507.166	580.07
507.517	571.03
507.868	670.46
508.218	611.71
508.569	557.47
508.92	591.37
509.27	593.63
509.621	546.17
509.971	580.07
510.322	604.93
510.672	557.47
511.023	589.11
511.373	665.94
511.723	684.02
512.074	532.61
512.424	586.85
512.774	618.49
513.124	618.49
513.475	611.71
513.825	595.89
514.175	715.66
514.525	602.67
514.875	661.42
515.225	720.18
515.575	645.6
515.924	632.05
516.274	742.78
516.624	695.32
516.974	672.72
517.324	754.08
517.673	589.11
518.023	699.84
518.373	702.1
518.722	661.42
519.072	742.78
519.421	778.93
519.771	765.38
520.12	720.18
520.469	767.64
520.819	726.96
521.168	767.64
521.517	620.75
521.867	711.14
522.216	722.44
522.565	778.93
522.914	799.27
523.263	756.34
523.612	729.22
523.961	767.64
524.31	763.12
524.659	803.79
525.008	733.74
525.357	801.53
525.705	806.05
526.054	833.17
526.403	853.51
526.752	797.01
527.1	839.95
527.449	778.93
527.797	767.64
528.146	776.67
528.495	790.23
528.843	839.95
529.191	801.53
529.54	812.83
529.888	898.71
530.236	772.15
530.585	812.83
530.933	785.71
531.281	812.83
531.629	907.74
531.977	767.64
532.325	806.05
532.673	824.13
533.021	826.39
533.369	864.81
533.717	810.57
534.065	819.61
534.413	851.25
534.761	808.31
535.108	860.29
535.456	821.87
535.804	815.09
536.151	794.75
536.499	799.27
536.847	905.48
537.194	808.31
537.542	810.57
537.889	839.95
538.236	873.85
538.584	835.43
538.931	826.39
539.278	837.69
539.626	939.38
539.973	824.13
540.32	801.53
540.667	787.97
541.014	858.03
541.361	781.19
541.708	785.71
542.055	812.83
542.402	801.53
542.749	864.81
543.096	790.23
543.443	776.67
543.789	806.05
544.136	828.65
544.483	810.57
544.83	862.55
545.176	785.71
545.523	797.01
545.869	839.95
546.216	830.91
546.562	810.57
546.909	817.35
547.255	794.75
547.601	891.93
547.948	817.35
548.294	801.53
548.64	797.01
548.986	783.45
549.332	806.05
549.678	765.38
550.025	851.25
550.371	763.12
550.717	869.33
551.062	803.79
551.408	778.93
551.754	835.43
552.1	819.61
552.446	749.56
552.792	819.61
553.137	819.61
553.483	876.11
553.828	815.09
554.174	889.67
554.52	837.69
554.865	794.75
555.211	812.83
555.556	869.33
555.901	833.17
556.247	830.91
556.592	810.57
556.937	787.97
557.282	738.26
557.628	858.03
557.973	882.89
558.318	785.71
558.663	756.34
559.008	853.51
559.353	844.47
559.698	835.43
560.043	867.07
560.388	837.69
560.732	833.17
561.077	878.37
561.422	896.45
561.766	919.04
562.111	842.21
562.456	860.29
562.8	860.29
563.145	855.77
563.489	844.47
563.834	848.99
564.178	785.71
564.523	862.55
564.867	842.21
565.211	900.97
565.555	869.33
565.9	889.67
566.244	876.11
566.588	975.54
566.932	919.04
567.276	910
567.62	880.63
567.964	939.38
568.308	876.11
568.652	932.6
568.996	968.76
569.339	968.76
569.683	971.02
570.027	898.71
570.371	824.13
570.714	876.11
571.058	844.47
571.401	867.07
571.745	873.85
572.088	885.15
572.432	932.6
572.775	928.08
573.118	943.9
573.462	961.98
573.805	928.08
574.148	977.8
574.491	950.68
574.835	961.98
575.178	1000.4
575.521	907.74
575.864	941.64
576.207	991.36
576.55	921.3
576.892	959.72
577.235	921.3
577.578	869.33
577.921	862.55
578.264	943.9
578.606	869.33
578.949	916.78
579.292	896.45
579.634	882.89
579.977	806.05
580.319	919.04
580.662	882.89
581.004	869.33
581.346	824.13
581.689	853.51
582.031	871.59
582.373	851.25
582.715	873.85
583.057	896.45
583.4	894.19
583.742	871.59
584.084	842.21
584.426	830.91
584.768	828.65
585.109	837.69
585.451	898.71
585.793	787.97
586.135	842.21
586.477	824.13
586.818	740.52
587.16	772.15
587.502	760.86
587.843	819.61
588.185	769.9
588.526	792.49
588.868	853.51
589.209	891.93
589.55	833.17
589.892	717.92
590.233	794.75
590.574	733.74
590.915	837.69
591.257	842.21
591.598	742.78
591.939	819.61
592.28	731.48
592.621	708.88
592.962	697.58
593.303	672.72
593.643	679.5
593.984	699.84
594.325	772.15
594.666	708.88
595.006	702.1
595.347	711.14
595.688	704.36
596.028	661.42
596.369	659.16
596.709	706.62
597.05	711.14
597.39	740.52
597.73	650.12
598.071	668.2
598.411	661.42
598.751	654.64
599.091	625.27
599.431	738.26
599.772	632.05
600.112	663.68
600.452	663.68
600.792	602.67
601.132	665.94
601.471	677.24
601.811	654.64
602.151	602.67
602.491	586.85
602.831	659.16
603.17	543.91
603.51	629.79
603.849	557.47
604.189	654.64
604.528	604.93
604.868	638.83
605.207	602.67
605.547	600.41
605.886	539.39
606.225	589.11
606.565	577.81
606.904	559.73
607.243	519.05
607.582	582.33
607.921	575.55
608.26	641.08
608.599	611.71
608.938	575.55
609.277	577.81
609.616	516.79
609.955	589.11
610.293	521.31
610.632	559.73
610.971	584.59
611.309	532.61
611.648	514.53
611.987	546.17
612.325	593.63
612.664	604.93
613.002	546.17
613.34	476.12
613.679	575.55
614.017	543.91
614.355	500.98
614.694	507.76
615.032	629.79
615.37	580.07
615.708	557.47
616.046	618.49
616.384	537.13
616.722	516.79
617.06	519.05
617.398	561.99
617.736	564.25
618.073	505.5
618.411	546.17
618.749	523.57
619.086	561.99
619.424	577.81
619.762	589.11
620.099	505.5
620.437	494.2
620.774	564.25
621.112	507.76
621.449	532.61
621.786	566.51
622.123	541.65
622.461	566.51
622.798	512.27
623.135	530.35
623.472	503.24
623.809	546.17
624.146	582.33
624.483	550.69
624.82	496.46
625.157	494.2
625.494	550.69
625.83	480.64
626.167	458.04
626.504	512.27
626.841	464.82
627.177	453.52
627.514	591.37
627.85	476.12
628.187	523.57
628.523	519.05
628.86	458.04
629.196	482.9
629.532	537.13
629.869	510.01
630.205	471.6
630.541	410.58
630.877	503.24
631.213	559.73
631.549	467.08
631.885	541.65
632.221	482.9
632.557	473.86
632.893	453.52
633.229	458.04
633.564	467.08
633.9	469.34
634.236	539.39
634.572	510.01
634.907	442.22
635.243	478.38
635.578	453.52
635.914	530.35
636.249	485.16
636.585	487.42
636.92	489.68
637.255	528.09
637.59	505.5
637.926	473.86
638.261	449
638.596	494.2
638.931	383.46
639.266	415.1
639.601	496.46
639.936	462.56
640.271	467.08
640.606	451.26
640.94	453.52
641.275	460.3
641.61	498.72
641.945	444.48
642.279	442.22
642.614	521.31
642.948	435.44
643.283	458.04
643.617	433.18
643.952	451.26
644.286	428.66
644.62	491.94
644.955	453.52
645.289	372.17
645.623	462.56
645.957	439.96
646.291	480.64
646.625	437.7
646.959	403.8
647.293	417.36
647.627	406.06
647.961	399.28
648.295	426.4
648.629	369.91
648.962	383.46
649.296	412.84
649.63	369.91
649.963	390.24
650.297	374.43
650.63	476.12
650.964	412.84
651.297	433.18
651.631	403.8
651.964	426.4
652.297	342.79
652.631	397.02
652.964	363.13
653.297	412.84
653.63	358.61
653.963	419.62
654.296	347.31
654.629	329.23
654.962	417.36
655.295	390.24
655.628	430.92
655.961	446.74
656.293	430.92
656.626	367.65
656.959	426.4
657.291	381.2
657.624	351.83
657.956	363.13
658.289	374.43
658.621	417.36
658.954	424.14
659.286	399.28
659.618	365.39
659.95	372.17
660.283	315.67
660.615	326.97
660.947	304.37
661.279	401.54
661.611	331.49
661.943	322.45
662.275	356.35
662.607	331.49
662.939	383.46
663.27	367.65
663.602	311.15
663.934	340.53
664.266	446.74
664.597	349.57
664.929	354.09
665.26	329.23
665.592	446.74
665.923	313.41
666.255	331.49
666.586	331.49
666.917	342.79
667.248	428.66
667.58	297.59
667.911	322.45
668.242	306.63
668.573	394.76
668.904	315.67
669.235	295.33
669.566	374.43
669.897	297.59
670.228	351.83
670.558	367.65
670.889	336.01
671.22	313.41
671.551	290.81
671.881	338.27
672.212	338.27
672.542	322.45
672.873	297.59
673.203	304.37
673.533	358.61
673.864	381.2
674.194	372.17
674.524	372.17
674.855	306.63
675.185	399.28
675.515	358.61
675.845	367.65
676.175	372.17
676.505	313.41
676.835	322.45
677.165	394.76
677.494	385.72
677.824	340.53
678.154	376.69
678.484	338.27
678.813	299.85
679.143	317.93
679.472	347.31
679.802	313.41
680.131	329.23
680.461	340.53
680.79	329.23
681.119	360.87
681.449	320.19
681.778	288.55
682.107	311.15
682.436	263.69
682.765	394.76
683.094	250.13
683.423	331.49
683.752	272.73
684.081	365.39
684.41	367.65
684.739	338.27
685.067	367.65
685.396	365.39
685.725	315.67
686.053	349.57
686.382	336.01
686.711	315.67
687.039	333.75
687.367	299.85
687.696	354.09
688.024	277.25
688.352	297.59
688.681	313.41
689.009	349.57
689.337	349.57
689.665	340.53
689.993	317.93
690.321	277.25
690.649	295.33
690.977	363.13
691.305	336.01
691.633	274.99
691.961	299.85
692.288	336.01
692.616	338.27
692.944	338.27
693.271	223.02
693.599	311.15
693.926	320.19
694.254	376.69
694.581	378.94
694.908	272.73
695.236	342.79
695.563	331.49
695.89	349.57
696.217	263.69
696.544	279.51
696.871	336.01
697.198	272.73
697.525	277.25
697.852	245.62
698.179	281.77
698.506	288.55
698.833	272.73
699.16	326.97
699.486	329.23
699.813	313.41
700.139	293.07
700.466	363.13
700.793	315.67
701.119	279.51
701.445	299.85
701.772	311.15
702.098	345.05
702.424	277.25
702.75	281.77
703.077	299.85
703.403	281.77
703.729	324.71
704.055	329.23
704.381	342.79
704.707	338.27
705.033	306.63
705.358	290.81
705.684	293.07
706.01	313.41
706.336	274.99
706.661	290.81
706.987	295.33
707.312	329.23
707.638	313.41
707.963	306.63
708.289	252.39
708.614	213.98
708.939	286.29
709.265	259.17
709.59	324.71
709.915	279.51
710.24	252.39
710.565	331.49
710.89	363.13
711.215	286.29
711.54	329.23
711.865	304.37
712.19	299.85
712.515	329.23
712.839	293.07
713.164	302.11
713.489	232.06
713.813	311.15
714.138	306.63
714.462	304.37
714.787	331.49
715.111	270.47
715.435	349.57
715.76	338.27
716.084	304.37
716.408	313.41
716.732	263.69
717.056	308.89
717.381	331.49
717.705	311.15
718.028	243.36
718.352	256.91
718.676	261.43
719	340.53
719.324	308.89
719.648	263.69
719.971	378.94
720.295	195.9
720.618	250.13
720.942	313.41
721.265	306.63
721.589	326.97
721.912	241.1
722.236	306.63
722.559	286.29
722.882	263.69
723.205	290.81
723.528	268.21
723.851	317.93
724.174	256.91
724.497	270.47
724.82	347.31
725.143	238.84
725.466	302.11
725.789	279.51
726.112	329.23
726.434	268.21
726.757	270.47
727.08	317.93
727.402	284.03
727.725	297.59
728.047	290.81
728.37	336.01
728.692	302.11
729.014	290.81
729.336	250.13
729.659	218.5
729.981	254.65
730.303	256.91
730.625	274.99
730.947	265.95
731.269	259.17
731.591	232.06
731.913	342.79
732.235	263.69
732.556	284.03
732.878	304.37
733.2	326.97
733.521	281.77
733.843	259.17
734.164	277.25
734.486	281.77
734.807	297.59
735.129	317.93
735.45	360.87
735.771	293.07
736.092	229.8
736.414	268.21
736.735	270.47
737.056	288.55
737.377	311.15
737.698	252.39
738.019	277.25
738.34	252.39
738.66	279.51
738.981	245.62
739.302	241.1
739.623	290.81
739.943	367.65
740.264	360.87
740.584	272.73
740.905	216.24
741.225	200.42
741.546	358.61
741.866	304.37
742.186	238.84
742.507	263.69
742.827	254.65
743.147	272.73
743.467	329.23
743.787	297.59
744.107	288.55
744.427	277.25
744.747	241.1
745.067	288.55
745.386	270.47
745.706	286.29
746.026	354.09
746.346	338.27
746.665	315.67
746.985	306.63
747.304	238.84
747.624	270.47
747.943	279.51
748.262	299.85
748.582	277.25
748.901	320.19
749.22	259.17
749.539	293.07
749.858	274.99
750.177	302.11
750.496	261.43
750.815	277.25
751.134	347.31
751.453	227.54
751.772	277.25
752.09	270.47
752.409	286.29
752.728	293.07
753.046	263.69
753.365	247.87
753.683	306.63
754.002	254.65
754.32	329.23
754.639	317.93
754.957	272.73
755.275	311.15
755.593	243.36
755.911	329.23
756.23	306.63
756.548	245.62
756.866	263.69
757.183	268.21
757.501	311.15
757.819	329.23
758.137	290.81
758.455	204.94
758.772	284.03
759.09	297.59
759.408	288.55
759.725	263.69
760.043	338.27
760.36	324.71
760.677	279.51
760.995	256.91
761.312	295.33
761.629	268.21
761.946	277.25
762.264	236.58
762.581	238.84
762.898	236.58
763.215	218.5
763.532	218.5
763.848	281.77
764.165	286.29
764.482	256.91
764.799	286.29
765.115	238.84
765.432	295.33
765.749	306.63
766.065	270.47
766.382	272.73
766.698	256.91
767.014	295.33
767.331	324.71
767.647	261.43
767.963	320.19
768.279	202.68
768.595	349.57
768.911	204.94
769.227	308.89
769.543	306.63
769.859	245.62
770.175	281.77
770.491	326.97
770.807	245.62
771.122	195.9
771.438	232.06
771.754	256.91
772.069	295.33
772.385	254.65
772.7	252.39
773.016	302.11
773.331	220.76
773.646	247.87
773.961	243.36
774.277	290.81
774.592	281.77
774.907	288.55
775.222	302.11
775.537	333.75
775.852	317.93
776.167	286.29
776.482	263.69
776.796	349.57
777.111	340.53
777.426	241.1
777.74	277.25
778.055	345.05
778.369	216.24
778.684	272.73
778.998	284.03
779.313	250.13
779.627	268.21
779.941	213.98
780.255	229.8
780.57	232.06
780.884	290.81
781.198	259.17
781.512	232.06
781.826	241.1
782.14	243.36
782.453	286.29
782.767	256.91
783.081	270.47
783.395	254.65
783.708	311.15
784.022	200.42
784.335	209.46
784.649	290.81
784.962	274.99
785.276	286.29
785.589	270.47
785.902	259.17
786.216	317.93
786.529	297.59
786.842	290.81
787.155	265.95
787.468	274.99
787.781	227.54
788.094	241.1
788.407	288.55
788.72	256.91
789.032	320.19
789.345	236.58
789.658	295.33
789.97	268.21
790.283	297.59
790.595	263.69
790.908	308.89
791.22	322.45
791.532	286.29
791.845	295.33
792.157	256.91
792.469	308.89
792.781	247.87
793.093	184.6
793.405	277.25
793.717	293.07
794.029	288.55
794.341	234.32
794.653	268.21
794.965	256.91
795.276	256.91
795.588	293.07
795.9	241.1
796.211	254.65
796.523	277.25
796.834	261.43
797.146	317.93
797.457	288.55
797.768	277.25
798.08	313.41
798.391	270.47
798.702	284.03
799.013	256.91
799.324	286.29
799.635	331.49
799.946	286.29
800.257	281.77
800.568	254.65
800.878	279.51
801.189	259.17
801.5	265.95
801.81	254.65
802.121	245.62
802.431	254.65
802.742	268.21
803.052	247.87
803.363	295.33
803.673	209.46
803.983	220.76
804.293	189.12
804.603	265.95
804.913	286.29
805.224	268.21
805.533	223.02
805.843	247.87
806.153	268.21
806.463	317.93
806.773	250.13
807.083	277.25
807.392	288.55
807.702	263.69
808.011	279.51
808.321	227.54
808.63	265.95
808.94	326.97
809.249	297.59
809.558	256.91
809.868	234.32
810.177	308.89
810.486	293.07
810.795	243.36
811.104	218.5
811.413	347.31
811.722	295.33
812.031	295.33
812.339	290.81
812.648	270.47
812.957	270.47
813.266	308.89
813.574	365.39
813.883	329.23
814.191	299.85
814.5	232.06
814.808	254.65
815.116	326.97
815.424	200.42
815.733	218.5
816.041	245.62
816.349	265.95
816.657	288.55
816.965	322.45
817.273	326.97
817.581	297.59
817.889	293.07
818.196	277.25
818.504	261.43
818.812	254.65
819.12	243.36
819.427	281.77
819.735	290.81
820.042	284.03
820.349	238.84
820.657	274.99
820.964	302.11
821.271	295.33
821.579	263.69
821.886	281.77
822.193	299.85
822.5	313.41
822.807	306.63
823.114	281.77
823.421	290.81
823.727	336.01
824.034	302.11
824.341	216.24
824.648	265.95
824.954	252.39
825.261	247.87
825.567	356.35
825.874	277.25
826.18	322.45
826.486	277.25
826.793	256.91
827.099	286.29
827.405	252.39
827.711	286.29
828.017	207.2
828.323	261.43
828.629	256.91
828.935	243.36
829.241	295.33
829.547	250.13
829.852	195.9
830.158	299.85
830.464	320.19
830.769	295.33
831.075	265.95
831.38	263.69
831.686	200.42
831.991	295.33
832.296	198.16
832.601	213.98
832.907	272.73
833.212	247.87
833.517	268.21
833.822	281.77
834.127	299.85
834.432	286.29
834.737	293.07
835.041	270.47
835.346	281.77
835.651	245.62
835.956	284.03
836.26	315.67
836.565	259.17
836.869	265.95
837.174	274.99
837.478	234.32
837.782	204.94
838.087	245.62
838.391	274.99
838.695	326.97
838.999	263.69
839.303	284.03
839.607	261.43
839.911	324.71
840.215	293.07
840.519	322.45
840.822	293.07
841.126	261.43
841.43	347.31
841.733	234.32
842.037	263.69
842.34	265.95
842.644	293.07
842.947	227.54
843.251	281.77
843.554	295.33
843.857	274.99
844.16	263.69
844.463	232.06
844.766	288.55
845.069	241.1
845.372	241.1
845.675	265.95
845.978	211.72
846.281	336.01
846.583	281.77
846.886	252.39
847.189	274.99
847.491	288.55
847.794	277.25
848.096	265.95
848.399	198.16
848.701	333.75
849.003	317.93
849.305	263.69
849.608	265.95
849.91	268.21
850.212	220.76
850.514	261.43
850.816	272.73
851.118	254.65
851.419	304.37
851.721	299.85
852.023	252.39
852.325	245.62
852.626	277.25
852.928	241.1
853.229	254.65
853.531	313.41
853.832	254.65
854.133	256.91
854.435	293.07
854.736	320.19
855.037	272.73
855.338	263.69
855.639	256.91
855.94	270.47
856.241	261.43
856.542	211.72
856.843	345.05
857.144	261.43
857.444	247.87
857.745	263.69
858.046	236.58
858.346	272.73
858.647	338.27
858.947	279.51
859.247	254.65
859.548	286.29
859.848	238.84
860.148	288.55
860.448	302.11
860.749	297.59
861.049	302.11
861.349	288.55
861.648	245.62
861.948	324.71
862.248	284.03
862.548	254.65
862.848	216.24
863.147	261.43
863.447	265.95
863.746	333.75
864.046	277.25
864.345	177.82
864.645	265.95
864.944	259.17
865.243	254.65
865.542	261.43
865.842	265.95
866.141	236.58
866.44	252.39
866.739	295.33
867.038	315.67
867.337	324.71
867.635	340.53
867.934	234.32
868.233	247.87
868.531	247.87
868.83	261.43
869.129	299.85
869.427	220.76
869.725	265.95
870.024	236.58
870.322	209.46
870.62	302.11
870.918	284.03
871.217	324.71
871.515	297.59
871.813	241.1
872.111	265.95
872.409	290.81
872.706	171.04
873.004	270.47
873.302	265.95
873.6	293.07
873.897	229.8
874.195	259.17
874.492	261.43
874.79	261.43
875.087	227.54
875.384	299.85
875.682	229.8
875.979	288.55
876.276	313.41
876.573	286.29
876.87	286.29
877.167	286.29
