Data from PL_2polymer_F8BT_MEHPPV_USB2H096331_0179.txt Node
Date: Tue Dec 15 16:32:06 CET 2020
User: spadmin
Spectrometer: USB2+H09633
Trigger mode: 0
Integration Time (sec): 1.000000E-2
Scans to average: 1
Electric dark correction enabled: true
Nonlinearity correction enabled: false
Boxcar width: 0
XAxis mode: Wavelengths
Number of Pixels in Spectrum: 2048
>>>>>Begin Spectral Data<<<<<
174.027	-94.49
174.405	-94.49
174.783	-94.49
175.162	-76.41
175.54	-92.23
175.918	-78.67
176.296	-110.31
176.674	-28.95
177.052	-114.83
177.43	-105.79
177.808	-53.81
178.186	41.1
178.564	-8.62
178.942	-28.95
179.32	-1.84
179.698	20.76
180.076	16.24
180.453	7.2
180.831	23.02
181.209	65.96
181.587	120.19
181.965	158.61
182.342	122.45
182.72	156.35
183.098	208.33
183.475	226.41
183.853	215.11
184.231	212.85
184.608	280.64
184.986	239.97
185.363	249
185.741	330.36
186.118	289.68
186.496	278.38
186.873	328.1
187.251	307.76
187.628	314.54
188.006	262.56
188.383	316.8
188.76	373.3
189.138	332.62
189.515	280.64
189.892	339.4
190.27	395.89
190.647	305.5
191.024	395.89
191.401	362
191.778	357.48
192.155	273.86
192.533	224.15
192.91	328.1
193.287	375.56
193.664	319.06
194.041	355.22
194.418	319.06
194.795	319.06
195.172	343.92
195.549	310.02
195.926	267.08
196.302	373.3
196.679	337.14
197.056	278.38
197.433	319.06
197.81	337.14
198.187	328.1
198.563	330.36
198.94	310.02
199.317	282.9
199.693	271.6
200.07	305.5
200.447	359.74
200.823	269.34
201.2	352.96
201.576	262.56
201.953	334.88
202.329	273.86
202.706	285.16
203.082	282.9
203.459	314.54
203.835	273.86
204.212	291.94
204.588	296.46
204.964	280.64
205.341	262.56
205.717	278.38
206.093	303.24
206.469	289.68
206.846	305.5
207.222	352.96
207.598	328.1
207.974	300.98
208.35	291.94
208.726	224.15
209.102	328.1
209.479	319.06
209.855	294.2
210.231	332.62
210.607	269.34
210.982	319.06
211.358	246.74
211.734	298.72
212.11	330.36
212.486	321.32
212.862	325.84
213.238	380.07
213.614	307.76
213.989	332.62
214.365	328.1
214.741	380.07
215.116	300.98
215.492	296.46
215.868	384.59
216.243	375.56
216.619	389.11
216.995	307.76
217.37	389.11
217.746	337.14
218.121	364.26
218.497	332.62
218.872	339.4
219.247	262.56
219.623	319.06
219.998	352.96
220.374	307.76
220.749	362
221.124	325.84
221.499	409.45
221.875	316.8
222.25	341.66
222.625	346.18
223	316.8
223.376	321.32
223.751	357.48
224.126	325.84
224.501	377.81
224.876	323.58
225.251	321.32
225.626	348.44
226.001	366.52
226.376	325.84
226.751	296.46
227.126	291.94
227.501	359.74
227.875	389.11
228.25	350.7
228.625	380.07
229	294.2
229.375	285.16
229.749	325.84
230.124	296.46
230.499	368.78
230.873	325.84
231.248	346.18
231.623	350.7
231.997	346.18
232.372	407.19
232.746	343.92
233.121	411.71
233.495	393.63
233.87	346.18
234.244	352.96
234.619	341.66
234.993	321.32
235.367	395.89
235.742	300.98
236.116	264.82
236.49	334.88
236.865	314.54
237.239	339.4
237.613	332.62
237.987	330.36
238.361	325.84
238.736	334.88
239.11	343.92
239.484	350.7
239.858	413.97
240.232	334.88
240.606	350.7
240.98	289.68
241.354	404.93
241.728	382.33
242.102	282.9
242.475	368.78
242.849	373.3
243.223	343.92
243.597	346.18
243.971	371.04
244.344	264.82
244.718	389.11
245.092	280.64
245.466	334.88
245.839	357.48
246.213	330.36
246.586	391.37
246.96	282.9
247.334	346.18
247.707	321.32
248.081	393.63
248.454	393.63
248.828	375.56
249.201	343.92
249.574	359.74
249.948	386.85
250.321	362
250.694	328.1
251.068	341.66
251.441	352.96
251.814	382.33
252.187	255.78
252.561	375.56
252.934	398.15
253.307	346.18
253.68	407.19
254.053	368.78
254.426	316.8
254.799	350.7
255.172	380.07
255.545	398.15
255.918	366.52
256.291	380.07
256.664	319.06
257.037	377.81
257.41	404.93
257.782	373.3
258.155	328.1
258.528	398.15
258.901	398.15
259.273	395.89
259.646	389.11
260.019	404.93
260.391	386.85
260.764	348.44
261.137	291.94
261.509	377.81
261.882	425.27
262.254	359.74
262.627	346.18
262.999	310.02
263.372	321.32
263.744	377.81
264.116	404.93
264.489	350.7
264.861	432.05
265.233	282.9
265.606	398.15
265.978	384.59
266.35	343.92
266.722	348.44
267.094	371.04
267.467	364.26
267.839	377.81
268.211	411.71
268.583	407.19
268.955	411.71
269.327	400.41
269.699	454.65
270.071	411.71
270.443	452.39
270.815	389.11
271.186	382.33
271.558	413.97
271.93	413.97
272.302	400.41
272.674	409.45
273.045	371.04
273.417	407.19
273.789	404.93
274.16	389.11
274.532	420.75
274.904	382.33
275.275	314.54
275.647	373.3
276.018	418.49
276.39	454.65
276.761	438.83
277.133	373.3
277.504	386.85
277.875	350.7
278.247	423.01
278.618	454.65
278.989	314.54
279.361	418.49
279.732	391.37
280.103	463.69
280.474	298.72
280.846	425.27
281.217	432.05
281.588	463.69
281.959	355.22
282.33	413.97
282.701	470.47
283.072	432.05
283.443	409.45
283.814	339.4
284.185	413.97
284.556	404.93
284.927	382.33
285.297	334.88
285.668	416.23
286.039	402.67
286.41	391.37
286.781	391.37
287.151	443.35
287.522	423.01
287.893	450.13
288.263	497.59
288.634	456.91
289.004	456.91
289.375	497.59
289.745	371.04
290.116	418.49
290.486	413.97
290.857	445.61
291.227	395.89
291.598	407.19
291.968	445.61
292.338	481.77
292.709	502.11
293.079	411.71
293.449	377.81
293.819	393.63
294.189	402.67
294.56	450.13
294.93	375.56
295.3	420.75
295.67	438.83
296.04	395.89
296.41	373.3
296.78	366.52
297.15	425.27
297.52	515.66
297.89	450.13
298.259	461.43
298.629	486.29
298.999	395.89
299.369	377.81
299.739	423.01
300.108	429.79
300.478	395.89
300.848	454.65
301.217	409.45
301.587	384.59
301.957	423.01
302.326	438.83
302.696	470.47
303.065	418.49
303.435	511.14
303.804	529.22
304.174	479.51
304.543	436.57
304.912	447.87
305.282	445.61
305.651	447.87
306.02	486.29
306.39	445.61
306.759	441.09
307.128	463.69
307.497	481.77
307.866	425.27
308.235	443.35
308.604	524.7
308.974	481.77
309.343	450.13
309.712	447.87
310.08	436.57
310.449	470.47
310.818	520.18
311.187	434.31
311.556	434.31
311.925	520.18
312.294	416.23
312.662	556.34
313.031	490.81
313.4	513.4
313.769	490.81
314.137	398.15
314.506	486.29
314.874	479.51
315.243	517.92
315.612	506.63
315.98	504.37
316.349	472.73
316.717	502.11
317.085	511.14
317.454	425.27
317.822	459.17
318.191	447.87
318.559	427.53
318.927	404.93
319.295	572.16
319.664	495.33
320.032	499.85
320.4	504.37
320.768	520.18
321.136	563.12
321.504	445.61
321.872	497.59
322.24	558.6
322.608	499.85
322.976	558.6
323.344	508.88
323.712	479.51
324.08	495.33
324.448	454.65
324.816	524.7
325.183	502.11
325.551	445.61
325.919	517.92
326.287	488.55
326.654	454.65
327.022	531.48
327.389	468.21
327.757	513.4
328.125	551.82
328.492	445.61
328.86	499.85
329.227	522.44
329.594	488.55
329.962	515.66
330.329	499.85
330.697	556.34
331.064	531.48
331.431	493.07
331.798	581.2
332.166	549.56
332.533	547.3
332.9	538.26
333.267	635.44
333.634	585.72
334.001	565.38
334.368	608.32
334.735	597.02
335.102	490.81
335.469	569.9
335.836	601.54
336.203	511.14
336.57	497.59
336.937	554.08
337.304	538.26
337.67	508.88
338.037	497.59
338.404	529.22
338.771	635.44
339.137	610.58
339.504	542.78
339.87	597.02
340.237	587.98
340.604	608.32
340.97	660.29
341.337	644.47
341.703	673.85
342.069	578.94
342.436	648.99
342.802	617.36
343.169	628.66
343.535	529.22
343.901	671.59
344.267	601.54
344.634	630.92
345	610.58
345.366	545.04
345.732	617.36
346.098	583.46
346.464	601.54
346.83	651.25
347.196	597.02
347.562	653.51
347.928	594.76
348.294	606.06
348.66	630.92
349.026	705.49
349.392	648.99
349.757	646.73
350.123	673.85
350.489	639.95
350.855	723.57
351.22	725.83
351.586	572.16
351.951	705.49
352.317	691.93
352.683	680.63
353.048	723.57
353.414	755.21
353.779	710.01
354.144	766.51
354.51	689.67
354.875	635.44
355.24	680.63
355.606	714.53
355.971	743.91
356.336	750.69
356.701	775.54
357.067	737.13
357.432	712.27
357.797	743.91
358.162	703.23
358.527	741.65
358.892	771.02
359.257	829.78
359.622	804.92
359.987	798.14
360.352	800.4
360.717	730.35
361.082	811.7
361.446	838.82
361.811	884.02
362.176	856.9
362.541	843.34
362.905	908.87
363.27	856.9
363.635	906.61
363.999	906.61
364.364	947.29
364.728	956.33
365.093	978.93
365.457	899.84
365.822	922.43
366.186	899.84
366.55	1033.16
366.915	856.9
367.279	1026.39
367.643	1051.24
368.008	1055.76
368.372	976.67
368.736	926.95
369.1	985.71
369.464	1030.91
369.828	1141.64
370.192	1039.94
370.556	1161.98
370.92	1134.86
371.284	1134.86
371.648	1193.61
372.012	1270.45
372.376	1243.33
372.74	1313.38
373.104	1349.54
373.468	1433.15
373.831	1453.49
374.195	1552.93
374.559	1505.47
374.922	1602.64
375.286	1491.91
375.65	1643.32
376.013	1598.12
376.377	1674.96
376.74	1769.87
377.104	1855.74
377.467	1977.77
377.83	2120.14
378.194	2072.69
378.557	2255.73
378.92	2307.71
379.284	2488.49
379.647	2673.8
380.01	2746.11
380.373	2861.37
380.736	3116.73
381.1	3494.12
381.463	3600.33
381.826	3896.37
382.189	4117.83
382.552	4529.12
382.915	4813.86
383.278	5344.92
383.64	5640.95
384.003	6233.03
384.366	6653.36
384.729	7288.37
385.092	7927.9
385.454	8445.4
385.817	9306.39
386.18	10522.18
386.542	11337.98
386.905	12463.37
387.268	13627.18
387.63	15306.24
387.993	16126.55
388.355	17807.87
388.718	19746.8
389.08	21674.43
389.442	23251.79
389.805	25206.54
390.167	27292.36
390.529	30327.31
390.892	33800.66
391.254	35771.23
391.616	38686.41
391.978	42695.35
392.34	46751.74
392.702	48161.87
393.064	51691.72
393.426	53693.93
393.788	55691.61
394.15	57033.95
394.512	58896.05
394.874	60801.08
395.236	62538.89
395.598	64457.49
395.96	65072.16
396.321	65072.16
396.683	65072.16
397.045	65072.16
397.406	65072.16
397.768	65072.16
398.13	65072.16
398.491	65072.16
398.853	65072.16
399.214	65072.16
399.576	65072.16
399.937	65072.16
400.299	65072.16
400.66	65072.16
401.021	65072.16
401.383	65072.16
401.744	65072.16
402.105	65072.16
402.466	65072.16
402.827	65072.16
403.189	65072.16
403.55	65072.16
403.911	65072.16
404.272	65072.16
404.633	65072.16
404.994	65072.16
405.355	65072.16
405.716	65072.16
406.077	65072.16
406.437	65072.16
406.798	65072.16
407.159	65072.16
407.52	65072.16
407.88	65072.16
408.241	65072.16
408.602	65072.16
408.962	65072.16
409.323	65072.16
409.684	65072.16
410.044	65072.16
410.405	65072.16
410.765	65072.16
411.125	65072.16
411.486	65072.16
411.846	65072.16
412.206	65072.16
412.567	65072.16
412.927	65072.16
413.287	65072.16
413.647	65072.16
414.007	65072.16
414.368	65072.16
414.728	65072.16
415.088	65072.16
415.448	65072.16
415.808	65072.16
416.168	65072.16
416.528	65072.16
416.887	65072.16
417.247	65072.16
417.607	65072.16
417.967	65072.16
418.327	65072.16
418.686	65072.16
419.046	65072.16
419.406	65072.16
419.765	65072.16
420.125	65072.16
420.484	65072.16
420.844	65072.16
421.203	65072.16
421.563	64423.59
421.922	64371.61
422.282	62326.47
422.641	61085.82
423	59768.34
423.36	58570.64
423.719	56568.43
424.078	54688.25
424.437	52880.39
424.796	51307.55
425.155	49917.76
425.515	47590.13
425.874	45897.52
426.233	42021.92
426.592	39608.42
426.95	38864.94
427.309	35994.96
427.668	35669.54
428.027	32372.45
428.386	31696.77
428.745	28874.24
429.103	27213.27
429.462	25954.54
429.821	24239.33
430.179	22863.1
430.538	22490.23
430.897	21886.85
431.255	20648.47
431.614	19290.31
431.972	18503.89
432.33	17744.59
432.689	17222.57
433.047	16449.71
433.405	15315.28
433.764	14723.2
434.122	14268.98
434.48	13466.74
434.838	12833.98
435.197	12300.67
435.555	12147
435.913	11356.06
436.271	10845.34
436.629	10445.35
436.987	10040.84
437.345	9523.34
437.703	9272.5
438.061	8874.77
438.418	8158.4
438.776	7871.4
439.134	7588.92
439.492	7213.79
439.849	6854.48
440.207	6752.79
440.565	6280.48
440.922	6034.16
441.28	5634.17
441.637	5697.45
441.995	5392.37
442.352	5118.93
442.71	4836.45
443.067	4811.6
443.425	4463.58
443.782	4472.62
444.139	4332.51
444.496	3982.24
444.854	3955.12
445.211	3729.14
445.568	3744.96
445.925	3399.2
446.282	3270.39
446.639	3324.63
446.996	3415.02
447.353	3288.47
447.71	3268.13
448.067	3170.96
448.424	2996.96
448.781	2798.09
449.137	2782.27
449.494	2603.75
449.851	2483.97
450.208	2493.01
450.564	2370.98
450.921	2210.54
451.278	2257.99
451.634	2183.42
451.991	2007.15
452.347	2086.24
452.704	1939.36
453.06	1957.43
453.416	1855.74
453.773	1833.14
454.129	1713.37
454.485	1702.07
454.841	1693.03
455.198	1654.62
455.554	1600.38
455.91	1528.07
456.266	1412.82
456.622	1487.39
456.978	1315.64
457.334	1397
457.69	1333.72
458.046	1261.41
458.402	1241.07
458.758	1141.64
459.114	1146.16
459.469	1130.34
459.825	1134.86
460.181	1207.17
460.536	1137.12
460.892	1078.36
461.248	1010.57
461.603	999.27
461.959	997.01
462.314	956.33
462.67	1015.09
463.025	1060.28
463.38	978.93
463.736	863.68
464.091	929.21
464.446	784.58
464.802	877.24
465.157	836.56
465.512	823
465.867	818.48
466.222	773.28
466.577	884.02
466.932	784.58
467.287	791.36
467.642	737.13
467.997	807.18
468.352	800.4
468.707	807.18
469.062	725.83
469.417	746.17
469.771	759.73
470.126	705.49
470.481	689.67
470.835	710.01
471.19	669.33
471.544	739.39
471.899	635.44
472.253	689.67
472.608	698.71
472.962	646.73
473.317	678.37
473.671	630.92
474.025	646.73
474.38	658.03
474.734	630.92
475.088	619.62
475.442	644.47
475.796	606.06
476.15	653.51
476.504	664.81
476.858	639.95
477.212	660.29
477.566	658.03
477.92	610.58
478.274	619.62
478.628	646.73
478.982	574.42
479.336	660.29
479.689	635.44
480.043	648.99
480.397	606.06
480.75	576.68
481.104	612.84
481.457	621.88
481.811	484.03
482.164	581.2
482.518	667.07
482.871	610.58
483.225	612.84
483.578	594.76
483.931	597.02
484.284	554.08
484.638	597.02
484.991	547.3
485.344	542.78
485.697	551.82
486.05	626.4
486.403	551.82
486.756	547.3
487.109	551.82
487.462	545.04
487.815	572.16
488.168	599.28
488.52	635.44
488.873	545.04
489.226	585.72
489.579	551.82
489.931	592.5
490.284	524.7
490.637	515.66
490.989	578.94
491.342	565.38
491.694	572.16
492.047	542.78
492.399	560.86
492.751	515.66
493.104	506.63
493.456	572.16
493.808	522.44
494.16	612.84
494.513	558.6
494.865	545.04
495.217	511.14
495.569	517.92
495.921	529.22
496.273	504.37
496.625	490.81
496.977	502.11
497.329	526.96
497.68	536
498.032	524.7
498.384	599.28
498.736	481.77
499.087	529.22
499.439	531.48
499.791	567.64
500.142	540.52
500.494	484.03
500.845	549.56
501.197	529.22
501.548	520.18
501.9	572.16
502.251	515.66
502.602	520.18
502.954	506.63
503.305	567.64
503.656	572.16
504.007	495.33
504.358	533.74
504.709	583.46
505.061	517.92
505.412	545.04
505.763	513.4
506.113	484.03
506.464	542.78
506.815	572.16
507.166	533.74
507.517	526.96
507.868	581.2
508.218	576.68
508.569	515.66
508.92	554.08
509.27	542.78
509.621	526.96
509.971	506.63
510.322	554.08
510.672	576.68
511.023	538.26
511.373	536
511.723	529.22
512.074	599.28
512.424	511.14
512.774	513.4
513.124	538.26
513.475	648.99
513.825	549.56
514.175	554.08
514.525	545.04
514.875	603.8
515.225	499.85
515.575	581.2
515.924	560.86
516.274	542.78
516.624	520.18
516.974	556.34
517.324	560.86
517.673	551.82
518.023	583.46
518.373	581.2
518.722	583.46
519.072	615.1
519.421	560.86
519.771	569.9
520.12	603.8
520.469	601.54
520.819	597.02
521.168	606.06
521.517	594.76
521.867	621.88
522.216	576.68
522.565	565.38
522.914	522.44
523.263	549.56
523.612	615.1
523.961	612.84
524.31	560.86
524.659	590.24
525.008	549.56
525.357	565.38
525.705	619.62
526.054	551.82
526.403	549.56
526.752	499.85
527.1	630.92
527.449	639.95
527.797	612.84
528.146	667.07
528.495	574.42
528.843	599.28
529.191	606.06
529.54	601.54
529.888	633.18
530.236	583.46
530.585	621.88
530.933	628.66
531.281	583.46
531.629	615.1
531.977	520.18
532.325	524.7
532.673	626.4
533.021	619.62
533.369	549.56
533.717	630.92
534.065	533.74
534.413	648.99
534.761	563.12
535.108	601.54
535.456	612.84
535.804	520.18
536.151	599.28
536.499	599.28
536.847	536
537.194	601.54
537.542	545.04
537.889	511.14
538.236	486.29
538.584	565.38
538.931	590.24
539.278	529.22
539.626	547.3
539.973	585.72
540.32	599.28
540.667	569.9
541.014	612.84
541.361	567.64
541.708	615.1
542.055	517.92
542.402	572.16
542.749	551.82
543.096	533.74
543.443	526.96
543.789	590.24
544.136	536
544.483	490.81
544.83	558.6
545.176	585.72
545.523	608.32
545.869	567.64
546.216	558.6
546.562	563.12
546.909	536
547.255	531.48
547.601	529.22
547.948	504.37
548.294	540.52
548.64	542.78
548.986	549.56
549.332	484.03
549.678	538.26
550.025	536
550.371	515.66
550.717	551.82
551.062	563.12
551.408	479.51
551.754	599.28
552.1	443.35
552.446	490.81
552.792	432.05
553.137	445.61
553.483	484.03
553.828	540.52
554.174	515.66
554.52	524.7
554.865	536
555.211	495.33
555.556	506.63
555.901	533.74
556.247	513.4
556.592	547.3
556.937	522.44
557.282	560.86
557.628	495.33
557.973	517.92
558.318	493.07
558.663	497.59
559.008	472.73
559.353	477.25
559.698	409.45
560.043	463.69
560.388	497.59
560.732	506.63
561.077	472.73
561.422	481.77
561.766	481.77
562.111	499.85
562.456	454.65
562.8	511.14
563.145	472.73
563.489	515.66
563.834	484.03
564.178	504.37
564.523	474.99
564.867	484.03
565.211	497.59
565.555	477.25
565.9	506.63
566.244	459.17
566.588	547.3
566.932	452.39
567.276	497.59
567.62	479.51
567.964	465.95
568.308	441.09
568.652	450.13
568.996	441.09
569.339	432.05
569.683	508.88
570.027	470.47
570.371	465.95
570.714	470.47
571.058	488.55
571.401	425.27
571.745	445.61
572.088	454.65
572.432	454.65
572.775	423.01
573.118	504.37
573.462	472.73
573.805	395.89
574.148	465.95
574.491	445.61
574.835	470.47
575.178	384.59
575.521	429.79
575.864	380.07
576.207	463.69
576.55	450.13
576.892	407.19
577.235	472.73
577.578	418.49
577.921	443.35
578.264	427.53
578.606	484.03
578.949	441.09
579.292	382.33
579.634	384.59
579.977	418.49
580.319	425.27
580.662	400.41
581.004	456.91
581.346	384.59
581.689	418.49
582.031	416.23
582.373	418.49
582.715	337.14
583.057	436.57
583.4	391.37
583.742	434.31
584.084	463.69
584.426	371.04
584.768	375.56
585.109	389.11
585.451	395.89
585.793	461.43
586.135	382.33
586.477	398.15
586.818	432.05
587.16	429.79
587.502	391.37
587.843	407.19
588.185	382.33
588.526	395.89
588.868	364.26
589.209	443.35
589.55	438.83
589.892	504.37
590.233	393.63
590.574	418.49
590.915	343.92
591.257	386.85
591.598	393.63
591.939	382.33
592.28	384.59
592.621	380.07
592.962	377.81
593.303	382.33
593.643	389.11
593.984	393.63
594.325	411.71
594.666	436.57
595.006	382.33
595.347	355.22
595.688	323.58
596.028	384.59
596.369	334.88
596.709	348.44
597.05	377.81
597.39	352.96
597.73	366.52
598.071	386.85
598.411	357.48
598.751	346.18
599.091	366.52
599.431	377.81
599.772	341.66
600.112	346.18
600.452	398.15
600.792	332.62
601.132	404.93
601.471	362
601.811	323.58
602.151	359.74
602.491	319.06
602.831	402.67
603.17	380.07
603.51	300.98
603.849	454.65
604.189	375.56
604.528	366.52
604.868	364.26
605.207	352.96
605.547	366.52
605.886	316.8
606.225	314.54
606.565	260.3
606.904	296.46
607.243	343.92
607.582	267.08
607.921	355.22
608.26	287.42
608.599	380.07
608.938	395.89
609.277	375.56
609.616	323.58
609.955	366.52
610.293	362
610.632	382.33
610.971	404.93
611.309	402.67
611.648	305.5
611.987	278.38
612.325	375.56
612.664	391.37
613.002	364.26
613.34	357.48
613.679	380.07
614.017	371.04
614.355	382.33
614.694	307.76
615.032	319.06
615.37	303.24
615.708	334.88
616.046	330.36
616.384	334.88
616.722	296.46
617.06	337.14
617.398	323.58
617.736	357.48
618.073	298.72
618.411	364.26
618.749	393.63
619.086	350.7
619.424	400.41
619.762	291.94
620.099	337.14
620.437	330.36
620.774	305.5
621.112	352.96
621.449	316.8
621.786	328.1
622.123	300.98
622.461	438.83
622.798	332.62
623.135	296.46
623.472	291.94
623.809	334.88
624.146	373.3
624.483	420.75
624.82	246.74
625.157	303.24
625.494	337.14
625.83	346.18
626.167	355.22
626.504	330.36
626.841	298.72
627.177	303.24
627.514	346.18
627.85	332.62
628.187	280.64
628.523	346.18
628.86	350.7
629.196	400.41
629.532	294.2
629.869	300.98
630.205	294.2
630.541	355.22
630.877	359.74
631.213	314.54
631.549	267.08
631.885	384.59
632.221	323.58
632.557	328.1
632.893	269.34
633.229	314.54
633.564	282.9
633.9	368.78
634.236	316.8
634.572	328.1
634.907	334.88
635.243	303.24
635.578	366.52
635.914	343.92
636.249	314.54
636.585	339.4
636.92	316.8
637.255	300.98
637.59	325.84
637.926	348.44
638.261	310.02
638.596	249
638.931	294.2
639.266	323.58
639.601	300.98
639.936	289.68
640.271	300.98
640.606	364.26
640.94	287.42
641.275	323.58
641.61	377.81
641.945	298.72
642.279	300.98
642.614	291.94
642.948	307.76
643.283	303.24
643.617	377.81
643.952	319.06
644.286	291.94
644.62	328.1
644.955	305.5
645.289	296.46
645.623	316.8
645.957	310.02
646.291	271.6
646.625	314.54
646.959	339.4
647.293	294.2
647.627	269.34
647.961	314.54
648.295	287.42
648.629	364.26
648.962	208.33
649.296	278.38
649.63	323.58
649.963	310.02
650.297	278.38
650.63	291.94
650.964	364.26
651.297	278.38
651.631	251.26
651.964	334.88
652.297	276.12
652.631	267.08
652.964	264.82
653.297	246.74
653.63	273.86
653.963	269.34
654.296	316.8
654.629	251.26
654.962	307.76
655.295	291.94
655.628	332.62
655.961	287.42
656.293	323.58
656.626	298.72
656.959	323.58
657.291	312.28
657.624	280.64
657.956	352.96
658.289	246.74
658.621	285.16
658.954	267.08
659.286	305.5
659.618	287.42
659.95	312.28
660.283	316.8
660.615	368.78
660.947	310.02
661.279	262.56
661.611	226.41
661.943	267.08
662.275	249
662.607	264.82
662.939	337.14
663.27	294.2
663.602	289.68
663.934	276.12
664.266	303.24
664.597	343.92
664.929	262.56
665.26	260.3
665.592	255.78
665.923	282.9
666.255	251.26
666.586	346.18
666.917	341.66
667.248	323.58
667.58	282.9
667.911	310.02
668.242	310.02
668.573	269.34
668.904	352.96
669.235	280.64
669.566	325.84
669.897	273.86
670.228	305.5
670.558	278.38
670.889	271.6
671.22	319.06
671.551	282.9
671.881	303.24
672.212	228.67
672.542	280.64
672.873	389.11
673.203	285.16
673.533	323.58
673.864	210.59
674.194	282.9
674.524	307.76
674.855	298.72
675.185	341.66
675.515	305.5
675.845	246.74
676.175	339.4
676.505	251.26
676.835	303.24
677.165	267.08
677.494	282.9
677.824	271.6
678.154	276.12
678.484	235.45
678.813	307.76
679.143	285.16
679.472	296.46
679.802	260.3
680.131	287.42
680.461	321.32
680.79	300.98
681.119	269.34
681.449	228.67
681.778	289.68
682.107	253.52
682.436	260.3
682.765	339.4
683.094	246.74
683.423	233.19
683.752	260.3
684.081	291.94
684.41	303.24
684.739	316.8
685.067	246.74
685.396	307.76
685.725	289.68
686.053	305.5
686.382	269.34
686.711	237.71
687.039	332.62
687.367	321.32
687.696	305.5
688.024	230.93
688.352	323.58
688.681	278.38
689.009	278.38
689.337	280.64
689.665	291.94
689.993	271.6
690.321	197.03
690.649	280.64
690.977	258.04
691.305	291.94
691.633	314.54
691.961	224.15
692.288	251.26
692.616	244.49
692.944	280.64
693.271	264.82
693.599	285.16
693.926	307.76
694.254	287.42
694.581	273.86
694.908	260.3
695.236	325.84
695.563	278.38
695.89	235.45
696.217	330.36
696.544	305.5
696.871	235.45
697.198	267.08
697.525	260.3
697.852	203.81
698.179	269.34
698.506	258.04
698.833	269.34
699.16	307.76
699.486	300.98
699.813	307.76
700.139	289.68
700.466	291.94
700.793	253.52
701.119	258.04
701.445	242.23
701.772	280.64
702.098	271.6
702.424	237.71
702.75	359.74
703.077	276.12
703.403	206.07
703.729	307.76
704.055	280.64
704.381	258.04
704.707	314.54
705.033	282.9
705.358	307.76
705.684	334.88
706.01	316.8
706.336	273.86
706.661	276.12
706.987	316.8
707.312	197.03
707.638	262.56
707.963	251.26
708.289	296.46
708.614	294.2
708.939	224.15
709.265	264.82
709.59	305.5
709.915	233.19
710.24	291.94
710.565	233.19
710.89	298.72
711.215	208.33
711.54	341.66
711.865	291.94
712.19	242.23
712.515	262.56
712.839	267.08
713.164	255.78
713.489	249
713.813	310.02
714.138	343.92
714.462	289.68
714.787	228.67
715.111	305.5
715.435	197.03
715.76	219.63
716.084	285.16
716.408	246.74
716.732	287.42
717.056	312.28
717.381	278.38
717.705	303.24
718.028	273.86
718.352	187.99
718.676	264.82
719	273.86
719.324	328.1
719.648	303.24
719.971	271.6
720.295	258.04
720.618	289.68
720.942	215.11
721.265	219.63
721.589	183.47
721.912	237.71
722.236	258.04
722.559	226.41
722.882	258.04
723.205	273.86
723.528	221.89
723.851	303.24
724.174	230.93
724.497	244.49
724.82	217.37
725.143	249
725.466	260.3
725.789	355.22
726.112	262.56
726.434	339.4
726.757	319.06
727.08	285.16
727.402	224.15
727.725	215.11
728.047	267.08
728.37	287.42
728.692	291.94
729.014	228.67
729.336	224.15
729.659	285.16
729.981	246.74
730.303	246.74
730.625	350.7
730.947	255.78
731.269	253.52
731.591	312.28
731.913	212.85
732.235	289.68
732.556	267.08
732.878	291.94
733.2	264.82
733.521	258.04
733.843	228.67
734.164	187.99
734.486	280.64
734.807	251.26
735.129	237.71
735.45	316.8
735.771	255.78
736.092	300.98
736.414	280.64
736.735	262.56
737.056	253.52
737.377	235.45
737.698	253.52
738.019	321.32
738.34	239.97
738.66	267.08
738.981	267.08
739.302	267.08
739.623	271.6
739.943	258.04
740.264	321.32
740.584	289.68
740.905	296.46
741.225	296.46
741.546	296.46
741.866	253.52
742.186	249
742.507	230.93
742.827	319.06
743.147	174.43
743.467	310.02
743.787	271.6
744.107	280.64
744.427	280.64
744.747	228.67
745.067	307.76
745.386	273.86
745.706	319.06
746.026	271.6
746.346	235.45
746.665	221.89
746.985	296.46
747.304	280.64
747.624	233.19
747.943	206.07
748.262	291.94
748.582	249
748.901	269.34
749.22	276.12
749.539	267.08
749.858	296.46
750.177	287.42
750.496	260.3
750.815	212.85
751.134	294.2
751.453	282.9
751.772	352.96
752.09	271.6
752.409	235.45
752.728	226.41
753.046	273.86
753.365	269.34
753.683	319.06
754.002	246.74
754.32	273.86
754.639	262.56
754.957	258.04
755.275	251.26
755.593	314.54
755.911	237.71
756.23	285.16
756.548	244.49
756.866	296.46
757.183	264.82
757.501	291.94
757.819	253.52
758.137	183.47
758.455	298.72
758.772	242.23
759.09	273.86
759.408	300.98
759.725	208.33
760.043	183.47
760.36	239.97
760.677	230.93
760.995	334.88
761.312	221.89
761.629	267.08
761.946	267.08
762.264	253.52
762.581	199.29
762.898	287.42
763.215	235.45
763.532	221.89
763.848	285.16
764.165	291.94
764.482	298.72
764.799	253.52
765.115	242.23
765.432	251.26
765.749	296.46
766.065	280.64
766.382	269.34
766.698	296.46
767.014	224.15
767.331	258.04
767.647	285.16
767.963	233.19
768.279	316.8
768.595	219.63
768.911	291.94
769.227	339.4
769.543	255.78
769.859	258.04
770.175	244.49
770.491	285.16
770.807	264.82
771.122	325.84
771.438	237.71
771.754	271.6
772.069	282.9
772.385	246.74
772.7	278.38
773.016	242.23
773.331	264.82
773.646	280.64
773.961	328.1
774.277	269.34
774.592	282.9
774.907	307.76
775.222	276.12
775.537	239.97
775.852	249
776.167	289.68
776.482	258.04
776.796	343.92
777.111	267.08
777.426	294.2
777.74	319.06
778.055	255.78
778.369	237.71
778.684	258.04
778.998	305.5
779.313	282.9
779.627	267.08
779.941	244.49
780.255	269.34
780.57	273.86
780.884	239.97
781.198	269.34
781.512	178.95
781.826	291.94
782.14	219.63
782.453	260.3
782.767	341.66
783.081	246.74
783.395	237.71
783.708	273.86
784.022	242.23
784.335	291.94
784.649	230.93
784.962	269.34
785.276	296.46
785.589	206.07
785.902	239.97
786.216	246.74
786.529	255.78
786.842	251.26
787.155	253.52
787.468	249
787.781	269.34
788.094	310.02
788.407	282.9
788.72	269.34
789.032	230.93
789.345	255.78
789.658	282.9
789.97	253.52
790.283	255.78
790.595	239.97
790.908	251.26
791.22	316.8
791.532	242.23
791.845	219.63
792.157	255.78
792.469	226.41
792.781	328.1
793.093	282.9
793.405	255.78
793.717	319.06
794.029	258.04
794.341	219.63
794.653	276.12
794.965	287.42
795.276	264.82
795.588	269.34
795.9	285.16
796.211	341.66
796.523	255.78
796.834	251.26
797.146	312.28
797.457	237.71
797.768	194.77
798.08	300.98
798.391	264.82
798.702	267.08
799.013	276.12
799.324	246.74
799.635	289.68
799.946	287.42
800.257	291.94
800.568	258.04
800.878	242.23
801.189	224.15
801.5	239.97
801.81	269.34
802.121	267.08
802.431	242.23
802.742	273.86
803.052	255.78
803.363	269.34
803.673	282.9
803.983	337.14
804.293	276.12
804.603	314.54
804.913	314.54
805.224	221.89
805.533	312.28
805.843	242.23
806.153	217.37
806.463	267.08
806.773	271.6
807.083	228.67
807.392	300.98
807.702	310.02
808.011	294.2
808.321	289.68
808.63	287.42
808.94	312.28
809.249	244.49
809.558	267.08
809.868	230.93
810.177	192.51
810.486	278.38
810.795	239.97
811.104	276.12
811.413	239.97
811.722	237.71
812.031	255.78
812.339	237.71
812.648	276.12
812.957	273.86
813.266	264.82
813.574	269.34
813.883	291.94
814.191	201.55
814.5	242.23
814.808	239.97
815.116	325.84
815.424	251.26
815.733	300.98
816.041	260.3
816.349	303.24
816.657	285.16
816.965	314.54
817.273	321.32
817.581	253.52
817.889	343.92
818.196	224.15
818.504	271.6
818.812	273.86
819.12	258.04
819.427	262.56
819.735	255.78
820.042	271.6
820.349	300.98
820.657	330.36
820.964	328.1
821.271	233.19
821.579	298.72
821.886	328.1
822.193	235.45
822.5	296.46
822.807	337.14
823.114	260.3
823.421	174.43
823.727	239.97
824.034	264.82
824.341	359.74
824.648	221.89
824.954	291.94
825.261	323.58
825.567	294.2
825.874	296.46
826.18	294.2
826.486	260.3
826.793	287.42
827.099	310.02
827.405	276.12
827.711	332.62
828.017	273.86
828.323	285.16
828.629	239.97
828.935	224.15
829.241	294.2
829.547	215.11
829.852	282.9
830.158	285.16
830.464	244.49
830.769	235.45
831.075	228.67
831.38	190.25
831.686	258.04
831.991	296.46
832.296	294.2
832.601	235.45
832.907	319.06
833.212	296.46
833.517	264.82
833.822	289.68
834.127	273.86
834.432	251.26
834.737	303.24
835.041	294.2
835.346	298.72
835.651	294.2
835.956	332.62
836.26	273.86
836.565	264.82
836.869	237.71
837.174	260.3
837.478	246.74
837.782	321.32
838.087	282.9
838.391	246.74
838.695	271.6
838.999	305.5
839.303	221.89
839.607	219.63
839.911	260.3
840.215	249
840.519	255.78
840.822	273.86
841.126	282.9
841.43	258.04
841.733	262.56
842.037	187.99
842.34	271.6
842.644	285.16
842.947	289.68
843.251	337.14
843.554	258.04
843.857	251.26
844.16	219.63
844.463	244.49
844.766	294.2
845.069	244.49
845.372	280.64
845.675	251.26
845.978	244.49
846.281	235.45
846.583	314.54
846.886	237.71
847.189	215.11
847.491	289.68
847.794	269.34
848.096	262.56
848.399	298.72
848.701	192.51
849.003	264.82
849.305	285.16
849.608	300.98
849.91	296.46
850.212	307.76
850.514	235.45
850.816	280.64
851.118	278.38
851.419	291.94
851.721	298.72
852.023	269.34
852.325	300.98
852.626	235.45
852.928	316.8
853.229	249
853.531	285.16
853.832	339.4
854.133	305.5
854.435	316.8
854.736	278.38
855.037	339.4
855.338	291.94
855.639	203.81
855.94	264.82
856.241	228.67
856.542	328.1
856.843	226.41
857.144	280.64
857.444	215.11
857.745	273.86
858.046	239.97
858.346	246.74
858.647	224.15
858.947	242.23
859.247	242.23
859.548	251.26
859.848	255.78
860.148	269.34
860.448	237.71
860.749	235.45
861.049	251.26
861.349	237.71
861.648	276.12
861.948	258.04
862.248	321.32
862.548	224.15
862.848	246.74
863.147	282.9
863.447	271.6
863.746	328.1
864.046	249
864.345	258.04
864.645	264.82
864.944	282.9
865.243	239.97
865.542	294.2
865.842	269.34
866.141	260.3
866.44	230.93
866.739	303.24
867.038	273.86
867.337	346.18
867.635	323.58
867.934	215.11
868.233	244.49
868.531	260.3
868.83	185.73
869.129	291.94
869.427	334.88
869.725	262.56
870.024	230.93
870.322	255.78
870.62	273.86
870.918	285.16
871.217	289.68
871.515	239.97
871.813	278.38
872.111	319.06
872.409	267.08
872.706	224.15
873.004	262.56
873.302	296.46
873.6	285.16
873.897	269.34
874.195	291.94
874.492	294.2
874.79	269.34
875.087	289.68
875.384	267.08
875.682	230.93
875.979	278.38
876.276	264.82
876.573	206.07
876.87	206.07
877.167	206.07
