Data from PL_2polymer_F8BT_MEHPPV_USB2H096331_0437.txt Node
Date: Tue Dec 15 16:32:08 CET 2020
User: spadmin
Spectrometer: USB2+H09633
Trigger mode: 0
Integration Time (sec): 1.000000E-2
Scans to average: 1
Electric dark correction enabled: true
Nonlinearity correction enabled: false
Boxcar width: 0
XAxis mode: Wavelengths
Number of Pixels in Spectrum: 2048
>>>>>Begin Spectral Data<<<<<
174.027	-49.86
174.405	-49.86
174.783	-49.86
175.162	-81.5
175.54	-104.09
175.918	-90.53
176.296	-90.53
176.674	-90.53
177.052	-58.9
177.43	-160.59
177.808	-34.04
178.186	-18.22
178.564	-88.27
178.942	-40.82
179.32	26.98
179.698	-13.7
180.076	85.73
180.453	69.91
180.831	142.23
181.209	49.57
181.587	112.85
181.965	108.33
182.342	124.15
182.72	153.53
183.098	214.54
183.475	210.02
183.853	323.01
184.231	295.9
184.608	264.26
184.986	232.62
185.363	284.6
185.741	304.94
186.118	295.9
186.496	384.03
186.873	282.34
187.251	304.94
187.628	282.34
188.006	302.68
188.383	365.95
188.76	323.01
189.138	318.49
189.515	336.57
189.892	343.35
190.27	338.83
190.647	318.49
191.024	338.83
191.401	379.51
191.778	329.79
192.155	354.65
192.533	359.17
192.91	395.33
193.287	266.52
193.664	336.57
194.041	356.91
194.418	298.16
194.795	300.42
195.172	327.53
195.549	318.49
195.926	320.75
196.302	345.61
196.679	286.86
197.056	271.04
197.433	291.38
197.81	300.42
198.187	271.04
198.563	248.44
198.94	345.61
199.317	266.52
199.693	374.99
200.07	363.69
200.447	359.17
200.823	284.6
201.2	334.31
201.576	368.21
201.953	399.85
202.329	307.2
202.706	354.65
203.082	289.12
203.459	298.16
203.835	302.68
204.212	252.96
204.588	280.08
204.964	313.97
205.341	300.42
205.717	320.75
206.093	379.51
206.469	347.87
206.846	259.74
207.222	255.22
207.598	277.82
207.974	282.34
208.35	327.53
208.726	307.2
209.102	334.31
209.479	241.66
209.855	286.86
210.231	268.78
210.607	363.69
210.982	295.9
211.358	248.44
211.734	323.01
212.11	363.69
212.486	293.64
212.862	345.61
213.238	327.53
213.614	295.9
213.989	329.79
214.365	332.05
214.741	298.16
215.116	359.17
215.492	313.97
215.868	332.05
216.243	356.91
216.619	311.71
216.995	354.65
217.37	286.86
217.746	320.75
218.121	384.03
218.497	356.91
218.872	347.87
219.247	336.57
219.623	311.71
219.998	295.9
220.374	347.87
220.749	316.23
221.124	334.31
221.499	313.97
221.875	343.35
222.25	309.46
222.625	356.91
223	318.49
223.376	377.25
223.751	320.75
224.126	341.09
224.501	277.82
224.876	350.13
225.251	384.03
225.626	341.09
226.001	327.53
226.376	361.43
226.751	336.57
227.126	325.27
227.501	372.73
227.875	354.65
228.25	347.87
228.625	334.31
229	323.01
229.375	327.53
229.749	332.05
230.124	359.17
230.499	329.79
230.873	345.61
231.248	374.99
231.623	365.95
231.997	341.09
232.372	384.03
232.746	384.03
233.121	329.79
233.495	300.42
233.87	368.21
234.244	311.71
234.619	374.99
234.993	327.53
235.367	338.83
235.742	295.9
236.116	381.77
236.49	329.79
236.865	356.91
237.239	336.57
237.613	325.27
237.987	386.29
238.361	429.23
238.736	402.11
239.11	379.51
239.484	417.93
239.858	413.41
240.232	390.81
240.606	413.41
240.98	293.64
241.354	368.21
241.728	300.42
242.102	436.01
242.475	359.17
242.849	341.09
243.223	374.99
243.597	422.45
243.971	313.97
244.344	329.79
244.718	411.15
245.092	406.63
245.466	388.55
245.839	341.09
246.213	390.81
246.586	395.33
246.96	323.01
247.334	277.82
247.707	399.85
248.081	325.27
248.454	363.69
248.828	374.99
249.201	307.2
249.574	356.91
249.948	406.63
250.321	334.31
250.694	388.55
251.068	370.47
251.441	395.33
251.814	338.83
252.187	390.81
252.561	316.23
252.934	343.35
253.307	354.65
253.68	338.83
254.053	406.63
254.426	438.27
254.799	372.73
255.172	359.17
255.545	338.83
255.918	374.99
256.291	345.61
256.664	374.99
257.037	404.37
257.41	323.01
257.782	370.47
258.155	329.79
258.528	386.29
258.901	395.33
259.273	467.64
259.646	390.81
260.019	354.65
260.391	417.93
260.764	397.59
261.137	440.53
261.509	388.55
261.882	381.77
262.254	345.61
262.627	408.89
262.999	411.15
263.372	365.95
263.744	381.77
264.116	413.41
264.489	442.78
264.861	336.57
265.233	424.71
265.606	436.01
265.978	404.37
266.35	422.45
266.722	377.25
267.094	363.69
267.467	370.47
267.839	399.85
268.211	377.25
268.583	395.33
268.955	420.19
269.327	386.29
269.699	420.19
270.071	478.94
270.443	374.99
270.815	368.21
271.186	327.53
271.558	404.37
271.93	370.47
272.302	341.09
272.674	368.21
273.045	374.99
273.417	381.77
273.789	424.71
274.16	413.41
274.532	370.47
274.904	388.55
275.275	327.53
275.647	390.81
276.018	350.13
276.39	393.07
276.761	415.67
277.133	415.67
277.504	384.03
277.875	449.56
278.247	406.63
278.618	503.8
278.989	384.03
279.361	388.55
279.732	431.49
280.103	347.87
280.474	393.07
280.846	465.38
281.217	431.49
281.588	415.67
281.959	417.93
282.33	399.85
282.701	395.33
283.072	368.21
283.443	372.73
283.814	402.11
284.185	469.9
284.556	431.49
284.927	436.01
285.297	413.41
285.668	442.78
286.039	469.9
286.41	438.27
286.781	397.59
287.151	370.47
287.522	440.53
287.893	478.94
288.263	490.24
288.634	363.69
289.004	408.89
289.375	402.11
289.745	472.16
290.116	438.27
290.486	406.63
290.857	433.75
291.227	456.34
291.598	413.41
291.968	413.41
292.338	431.49
292.709	384.03
293.079	415.67
293.449	460.86
293.819	433.75
294.189	508.32
294.56	451.82
294.93	436.01
295.3	451.82
295.67	433.75
296.04	454.08
296.41	472.16
296.78	429.23
297.15	426.97
297.52	460.86
297.89	404.37
298.259	447.3
298.629	445.04
298.999	494.76
299.369	417.93
299.739	492.5
300.108	433.75
300.478	454.08
300.848	454.08
301.217	456.34
301.587	445.04
301.957	445.04
302.326	494.76
302.696	424.71
303.065	478.94
303.435	476.68
303.804	442.78
304.174	460.86
304.543	487.98
304.912	420.19
305.282	485.72
305.651	438.27
306.02	542.22
306.39	467.64
306.759	445.04
307.128	431.49
307.497	440.53
307.866	365.95
308.235	512.84
308.604	442.78
308.974	499.28
309.343	497.02
309.712	476.68
310.08	426.97
310.449	474.42
310.818	506.06
311.187	472.16
311.556	467.64
311.925	506.06
312.294	478.94
312.662	447.3
313.031	517.36
313.4	515.1
313.769	571.6
314.137	465.38
314.506	476.68
314.874	476.68
315.243	411.15
315.612	497.02
315.98	472.16
316.349	501.54
316.717	460.86
317.085	499.28
317.454	483.46
317.822	426.97
318.191	497.02
318.559	528.66
318.927	481.2
319.295	533.18
319.664	519.62
320.032	528.66
320.4	456.34
320.768	546.74
321.136	562.56
321.504	451.82
321.872	487.98
322.24	506.06
322.608	485.72
322.976	463.12
323.344	463.12
323.712	546.74
324.08	576.11
324.448	497.02
324.816	535.44
325.183	537.7
325.551	417.93
325.919	465.38
326.287	533.18
326.654	517.36
327.022	451.82
327.389	447.3
327.757	492.5
328.125	533.18
328.492	558.04
328.86	549
329.227	508.32
329.594	535.44
329.962	558.04
330.329	483.46
330.697	551.26
331.064	549
331.431	497.02
331.798	524.14
332.166	535.44
332.533	632.61
332.9	582.89
333.267	546.74
333.634	539.96
334.001	530.92
334.368	519.62
334.735	555.78
335.102	594.19
335.469	587.41
335.836	555.78
336.203	625.83
336.57	555.78
336.937	582.89
337.304	625.83
337.67	582.89
338.037	646.17
338.404	533.18
338.771	594.19
339.137	537.7
339.504	553.52
339.87	632.61
340.237	621.31
340.604	610.01
340.97	612.27
341.337	571.6
341.703	558.04
342.069	591.93
342.436	560.3
342.802	562.56
343.169	637.13
343.535	542.22
343.901	632.61
344.267	643.91
344.634	695.89
345	680.07
345.366	661.99
345.732	689.11
346.098	605.49
346.464	652.95
346.83	643.91
347.196	549
347.562	661.99
347.928	632.61
348.294	628.09
348.66	630.35
349.026	648.43
349.392	682.33
349.757	621.31
350.123	657.47
350.489	650.69
350.855	677.81
351.22	707.18
351.586	684.59
351.951	655.21
352.317	682.33
352.683	727.52
353.048	709.44
353.414	704.92
353.779	671.03
354.144	707.18
354.51	743.34
354.875	655.21
355.24	790.8
355.606	691.37
355.971	741.08
356.336	734.3
356.701	799.84
357.067	752.38
357.432	772.72
357.797	743.34
358.162	756.9
358.527	772.72
358.892	686.85
359.257	826.96
359.622	840.51
359.987	768.2
360.352	781.76
360.717	772.72
361.082	765.94
361.446	763.68
361.811	883.45
362.176	845.03
362.541	919.61
362.905	883.45
363.27	831.48
363.635	933.17
363.999	973.84
364.364	890.23
364.728	835.99
365.093	919.61
365.457	1021.3
365.822	978.36
366.186	953.51
366.55	964.81
366.915	985.14
367.279	996.44
367.643	967.06
368.008	973.84
368.372	1057.46
368.736	1050.68
369.1	1066.5
369.464	1102.65
369.828	1003.22
370.192	1154.63
370.556	1125.25
370.92	1127.51
371.284	1186.27
371.648	1269.88
372.012	1188.53
372.376	1321.86
372.74	1378.35
373.104	1416.77
373.468	1477.79
373.831	1446.15
374.195	1448.41
374.559	1536.54
374.922	1541.06
375.286	1513.94
375.65	1696.99
376.013	1663.09
376.377	1635.97
376.74	1807.72
377.104	1907.15
377.467	1900.37
377.83	2078.9
378.194	2135.4
378.557	2117.32
378.92	2383.98
379.284	2578.32
379.647	2585.1
380.01	2831.42
380.373	2858.54
380.736	3193
381.1	3599.76
381.463	3669.82
381.826	3850.6
382.189	4209.92
382.552	4449.46
382.915	4896.91
383.278	5342.09
383.64	5920.61
384.003	6227.94
384.366	6768.04
384.729	7622.26
385.092	8087.78
385.454	8625.62
385.817	9513.73
386.18	10435.74
386.542	11504.64
386.905	12663.93
387.268	13814.18
387.63	15066.13
387.993	16410.73
388.355	18205.03
388.718	19897.64
389.08	21465.96
389.442	23138.23
389.805	25522.35
390.167	27205.92
390.529	30261.21
390.892	33754.9
391.254	36037.33
391.616	38640.65
391.978	42602.13
392.34	46604.28
392.702	48111.59
393.064	51874.2
393.426	53998.44
393.788	55930.59
394.15	57345.24
394.512	59266.1
394.874	60757.58
395.236	62807.25
395.598	64626.41
395.96	65073.85
396.321	65073.85
396.683	65073.85
397.045	65073.85
397.406	65073.85
397.768	65073.85
398.13	65073.85
398.491	65073.85
398.853	65073.85
399.214	65073.85
399.576	65073.85
399.937	65073.85
400.299	65073.85
400.66	65073.85
401.021	65073.85
401.383	65073.85
401.744	65073.85
402.105	65073.85
402.466	65073.85
402.827	65073.85
403.189	65073.85
403.55	65073.85
403.911	65073.85
404.272	65073.85
404.633	65073.85
404.994	65073.85
405.355	65073.85
405.716	65073.85
406.077	65073.85
406.437	65073.85
406.798	65073.85
407.159	65073.85
407.52	65073.85
407.88	65073.85
408.241	65073.85
408.602	65073.85
408.962	65073.85
409.323	65073.85
409.684	65073.85
410.044	65073.85
410.405	65073.85
410.765	65073.85
411.125	65073.85
411.486	65073.85
411.846	65073.85
412.206	65073.85
412.567	65073.85
412.927	65073.85
413.287	65073.85
413.647	65073.85
414.007	65073.85
414.368	65073.85
414.728	65073.85
415.088	65073.85
415.448	65073.85
415.808	65073.85
416.168	65073.85
416.528	65073.85
416.887	65073.85
417.247	65073.85
417.607	65073.85
417.967	65073.85
418.327	65073.85
418.686	65073.85
419.046	65073.85
419.406	65073.85
419.765	65073.85
420.125	65073.85
420.484	65073.85
420.844	65073.85
421.203	65073.85
421.563	64531.5
421.922	64364.27
422.282	62380.14
422.641	61089.78
423	59666.09
423.36	58924.86
423.719	56929.44
424.078	54972.42
424.437	53076.43
424.796	51614.32
425.155	49890.07
425.515	47668.66
425.874	46502.59
426.233	42186.32
426.592	39723.11
426.95	38846.29
427.309	36579.69
427.668	35775.19
428.027	32991.08
428.386	32010.32
428.745	29106.44
429.103	27325.69
429.462	25807.09
429.821	24412.78
430.179	23246.71
430.538	22650.11
430.897	22051.26
431.255	20586.89
431.614	19447.93
431.972	18910.1
432.33	17730.47
432.689	17588.1
433.047	16410.73
433.405	15554.25
433.764	14727.16
434.122	14498.91
434.48	13283.13
434.838	13120.42
435.197	12440.21
435.555	12103.5
435.913	11416.51
436.271	10808.61
436.629	10492.24
436.987	9798.47
437.345	9570.23
437.703	9351.03
438.061	8810.93
438.418	8135.24
438.776	7897.96
439.134	7794
439.492	7432.43
439.849	6966.91
440.207	6618.89
440.565	6302.52
440.922	6101.39
441.28	5692.36
441.637	5683.33
441.995	5222.32
442.352	5296.89
442.71	5023.46
443.067	4779.39
443.425	4578.27
443.782	4352.29
444.139	4293.53
444.496	4108.23
444.854	4060.77
445.211	3821.23
445.568	3717.28
445.925	3595.24
446.282	3428.02
446.639	3543.27
446.996	3301.47
447.353	3378.3
447.71	3269.83
448.067	3168.14
448.424	2962.49
448.781	2752.33
449.137	2655.16
449.494	2560.24
449.851	2582.84
450.208	2417.87
450.564	2377.2
450.921	2169.29
451.278	2182.85
451.634	2307.14
451.991	2191.89
452.347	2058.56
452.704	1993.03
453.06	1945.57
453.416	1855.18
453.773	1780.6
454.129	1692.47
454.485	1620.16
454.841	1748.97
455.198	1660.83
455.554	1534.28
455.91	1554.62
456.266	1493.6
456.622	1360.27
456.978	1387.39
457.334	1387.39
457.69	1324.12
458.046	1256.32
458.402	1276.66
458.758	1190.79
459.114	1240.5
459.469	1165.93
459.825	1138.81
460.181	1066.5
460.536	1091.36
460.892	1046.16
461.248	1134.29
461.603	1034.86
461.959	1023.56
462.314	1003.22
462.67	994.18
463.025	890.23
463.38	976.1
463.736	971.58
464.091	901.53
464.446	876.67
464.802	885.71
465.157	865.37
465.512	847.29
465.867	817.92
466.222	824.7
466.577	826.96
466.932	833.74
467.287	903.79
467.642	799.84
467.997	765.94
468.352	808.88
468.707	734.3
469.062	840.51
469.417	847.29
469.771	727.52
470.126	788.54
470.481	704.92
470.835	738.82
471.19	713.96
471.544	689.11
471.899	686.85
472.253	734.3
472.608	718.48
472.962	718.48
473.317	560.3
473.671	657.47
474.025	657.47
474.38	666.51
474.734	736.56
475.088	668.77
475.442	648.43
475.796	619.05
476.15	673.29
476.504	605.49
476.858	610.01
477.212	589.67
477.566	646.17
477.92	587.41
478.274	650.69
478.628	578.37
478.982	567.08
479.336	619.05
479.689	567.08
480.043	600.97
480.397	598.71
480.75	539.96
481.104	564.82
481.457	551.26
481.811	594.19
482.164	535.44
482.518	551.26
482.871	578.37
483.225	598.71
483.578	573.85
483.931	546.74
484.284	610.01
484.638	571.6
484.991	539.96
485.344	594.19
485.697	549
486.05	641.65
486.403	573.85
486.756	632.61
487.109	607.75
487.462	490.24
487.815	533.18
488.168	596.45
488.52	607.75
488.873	512.84
489.226	510.58
489.579	549
489.931	476.68
490.284	478.94
490.637	544.48
490.989	539.96
491.342	478.94
491.694	564.82
492.047	499.28
492.399	503.8
492.751	492.5
493.104	494.76
493.456	576.11
493.808	508.32
494.16	510.58
494.513	485.72
494.865	528.66
495.217	526.4
495.569	558.04
495.921	492.5
496.273	596.45
496.625	512.84
496.977	492.5
497.329	519.62
497.68	623.57
498.032	528.66
498.384	445.04
498.736	501.54
499.087	589.67
499.439	506.06
499.791	567.08
500.142	594.19
500.494	603.23
500.845	542.22
501.197	569.34
501.548	596.45
501.9	596.45
502.251	610.01
502.602	598.71
502.954	573.85
503.305	501.54
503.656	528.66
504.007	587.41
504.358	619.05
504.709	587.41
505.061	600.97
505.412	596.45
505.763	623.57
506.113	598.71
506.464	655.21
506.815	689.11
507.166	700.41
507.517	652.95
507.868	675.55
508.218	639.39
508.569	591.93
508.92	664.25
509.27	747.86
509.621	691.37
509.971	695.89
510.322	761.42
510.672	718.48
511.023	718.48
511.373	729.78
511.723	770.46
512.074	779.5
512.424	704.92
512.774	695.89
513.124	874.41
513.475	774.98
513.825	802.1
514.175	806.62
514.525	863.11
514.875	813.4
515.225	835.99
515.575	883.45
515.924	835.99
516.274	865.37
516.624	971.58
516.974	894.75
517.324	854.07
517.673	835.99
518.023	894.75
518.373	908.31
518.722	919.61
519.072	1032.6
519.421	969.32
519.771	980.62
520.12	985.14
520.469	967.06
520.819	1019.04
521.168	1021.3
521.517	973.84
521.867	1052.94
522.216	1082.32
522.565	1118.47
522.914	1086.84
523.263	1159.15
523.612	1132.03
523.961	1052.94
524.31	1025.82
524.659	1220.17
525.008	1136.55
525.357	1089.1
525.705	1095.88
526.054	1064.24
526.403	1204.35
526.752	1118.47
527.1	1181.75
527.449	1102.65
527.797	1143.33
528.146	1195.31
528.495	1272.14
528.843	1170.45
529.191	1276.66
529.54	1190.79
529.888	1333.16
530.236	1245.02
530.585	1258.58
530.933	1256.32
531.281	1283.44
531.629	1303.78
531.977	1330.9
532.325	1315.08
532.673	1326.38
533.021	1385.13
533.369	1254.06
533.717	1285.7
534.065	1211.13
534.413	1326.38
534.761	1339.94
535.108	1297
535.456	1265.36
535.804	1290.22
536.151	1276.66
536.499	1373.83
536.847	1321.86
537.194	1315.08
537.542	1382.87
537.889	1281.18
538.236	1188.53
538.584	1308.3
538.931	1360.27
539.278	1287.96
539.626	1409.99
539.973	1382.87
540.32	1358.02
540.667	1339.94
541.014	1369.31
541.361	1260.84
541.708	1333.16
542.055	1335.42
542.402	1317.34
542.749	1398.69
543.096	1294.74
543.443	1382.87
543.789	1328.64
544.136	1299.26
544.483	1301.52
544.83	1328.64
545.176	1301.52
545.523	1315.08
545.869	1222.43
546.216	1308.3
546.562	1333.16
546.909	1367.05
547.255	1290.22
547.601	1348.98
547.948	1294.74
548.294	1330.9
548.64	1294.74
548.986	1367.05
549.332	1321.86
549.678	1409.99
550.025	1326.38
550.371	1301.52
550.717	1278.92
551.062	1297
551.408	1339.94
551.754	1382.87
552.1	1373.83
552.446	1387.39
552.792	1344.46
553.137	1301.52
553.483	1387.39
553.828	1348.98
554.174	1362.53
554.52	1312.82
554.865	1353.5
555.211	1290.22
555.556	1369.31
555.901	1348.98
556.247	1371.57
556.592	1312.82
556.937	1439.37
557.282	1382.87
557.628	1432.59
557.973	1396.43
558.318	1382.87
558.663	1471.01
559.008	1455.19
559.353	1344.46
559.698	1459.71
560.043	1396.43
560.388	1441.63
560.732	1428.07
561.077	1387.39
561.422	1500.38
561.766	1403.21
562.111	1446.15
562.456	1430.33
562.8	1353.5
563.145	1373.83
563.489	1554.62
563.834	1482.31
564.178	1358.02
564.523	1394.17
564.867	1443.89
565.211	1439.37
565.555	1464.23
565.9	1412.25
566.244	1495.86
566.588	1480.05
566.932	1439.37
567.276	1545.58
567.62	1491.34
567.964	1509.42
568.308	1511.68
568.652	1516.2
568.996	1502.64
569.339	1556.88
569.683	1538.8
570.027	1538.8
570.371	1500.38
570.714	1570.44
571.058	1511.68
571.401	1588.52
571.745	1507.16
572.088	1543.32
572.432	1541.06
572.775	1599.82
573.118	1617.9
573.462	1498.12
573.805	1491.34
574.148	1547.84
574.491	1480.05
574.835	1545.58
575.178	1466.49
575.521	1464.23
575.864	1550.1
576.207	1538.8
576.55	1529.76
576.892	1541.06
577.235	1480.05
577.578	1504.9
577.921	1504.9
578.264	1461.97
578.606	1547.84
578.949	1484.57
579.292	1482.31
579.634	1570.44
579.977	1471.01
580.319	1502.64
580.662	1437.11
581.004	1491.34
581.346	1425.81
581.689	1489.09
582.031	1409.99
582.373	1396.43
582.715	1489.09
583.057	1376.09
583.4	1466.49
583.742	1475.53
584.084	1330.9
584.426	1423.55
584.768	1389.65
585.109	1461.97
585.451	1355.76
585.793	1364.79
586.135	1335.42
586.477	1351.24
586.818	1407.73
587.16	1312.82
587.502	1355.76
587.843	1290.22
588.185	1287.96
588.526	1265.36
588.868	1328.64
589.209	1321.86
589.55	1283.44
589.892	1263.1
590.233	1226.95
590.574	1174.97
590.915	1127.51
591.257	1211.13
591.598	1156.89
591.939	1272.14
592.28	1231.46
592.621	1215.65
592.962	1177.23
593.303	1109.43
593.643	1174.97
593.984	1152.37
594.325	1102.65
594.666	1204.35
595.006	1104.91
595.347	1122.99
595.688	1066.5
596.028	1073.28
596.369	1057.46
596.709	1080.06
597.05	953.51
597.39	1039.38
597.73	1143.33
598.071	1057.46
598.411	1014.52
598.751	901.53
599.091	973.84
599.431	1043.9
599.772	1086.84
600.112	1082.32
600.452	964.81
600.792	980.62
601.132	1055.2
601.471	973.84
601.811	980.62
602.151	890.23
602.491	976.1
602.831	962.55
603.17	978.36
603.51	881.19
603.849	924.13
604.189	985.14
604.528	994.18
604.868	921.87
605.207	928.65
605.547	878.93
605.886	892.49
606.225	894.75
606.565	926.39
606.904	840.51
607.243	858.59
607.582	903.79
607.921	912.83
608.26	872.15
608.599	808.88
608.938	842.77
609.277	824.7
609.616	793.06
609.955	799.84
610.293	892.49
610.632	831.48
610.971	869.89
611.309	826.96
611.648	784.02
611.987	856.33
612.325	802.1
612.664	854.07
613.002	930.91
613.34	842.77
613.679	854.07
614.017	774.98
614.355	833.74
614.694	802.1
615.032	806.62
615.37	799.84
615.708	784.02
616.046	833.74
616.384	869.89
616.722	811.14
617.06	808.88
617.398	779.5
617.736	774.98
618.073	795.32
618.411	833.74
618.749	824.7
619.086	815.66
619.424	802.1
619.762	815.66
620.099	777.24
620.437	874.41
620.774	804.36
621.112	752.38
621.449	822.44
621.786	813.4
622.123	704.92
622.461	770.46
622.798	741.08
623.135	802.1
623.472	784.02
623.809	754.64
624.146	763.68
624.483	698.15
624.82	795.32
625.157	695.89
625.494	738.82
625.83	799.84
626.167	643.91
626.504	754.64
626.841	747.86
627.177	786.28
627.514	779.5
627.85	736.56
628.187	680.07
628.523	765.94
628.86	734.3
629.196	716.22
629.532	729.78
629.869	614.53
630.205	682.33
630.541	677.81
630.877	693.63
631.213	700.41
631.549	591.93
631.885	765.94
632.221	610.01
632.557	729.78
632.893	671.03
633.229	657.47
633.564	689.11
633.9	713.96
634.236	571.6
634.572	702.67
634.907	680.07
635.243	646.17
635.578	680.07
635.914	650.69
636.249	675.55
636.585	576.11
636.92	637.13
637.255	544.48
637.59	634.87
637.926	695.89
638.261	616.79
638.596	603.23
638.931	646.17
639.266	614.53
639.601	643.91
639.936	628.09
640.271	625.83
640.606	641.65
640.94	634.87
641.275	668.77
641.61	598.71
641.945	596.45
642.279	533.18
642.614	600.97
642.948	612.27
643.283	576.11
643.617	648.43
643.952	576.11
644.286	492.5
644.62	555.78
644.955	605.49
645.289	571.6
645.623	551.26
645.957	528.66
646.291	589.67
646.625	567.08
646.959	490.24
647.293	560.3
647.627	569.34
647.961	476.68
648.295	573.85
648.629	558.04
648.962	517.36
649.296	490.24
649.63	521.88
649.963	560.3
650.297	465.38
650.63	535.44
650.964	472.16
651.297	519.62
651.631	544.48
651.964	503.8
652.297	490.24
652.631	535.44
652.964	499.28
653.297	422.45
653.63	472.16
653.963	494.76
654.296	485.72
654.629	546.74
654.962	542.22
655.295	510.58
655.628	510.58
655.961	454.08
656.293	483.46
656.626	497.02
656.959	472.16
657.291	456.34
657.624	429.23
657.956	485.72
658.289	519.62
658.621	476.68
658.954	406.63
659.286	442.78
659.618	494.76
659.95	528.66
660.283	499.28
660.615	436.01
660.947	478.94
661.279	465.38
661.611	463.12
661.943	384.03
662.275	451.82
662.607	490.24
662.939	429.23
663.27	377.25
663.602	449.56
663.934	451.82
664.266	451.82
664.597	458.6
664.929	420.19
665.26	368.21
665.592	426.97
665.923	374.99
666.255	402.11
666.586	431.49
666.917	451.82
667.248	436.01
667.58	399.85
667.911	417.93
668.242	329.79
668.573	372.73
668.904	406.63
669.235	381.77
669.566	343.35
669.897	393.07
670.228	429.23
670.558	422.45
670.889	424.71
671.22	415.67
671.551	402.11
671.881	426.97
672.212	388.55
672.542	386.29
672.873	365.95
673.203	395.33
673.533	454.08
673.864	456.34
674.194	426.97
674.524	404.37
674.855	411.15
675.185	417.93
675.515	352.39
675.845	411.15
676.175	442.78
676.505	404.37
676.835	386.29
677.165	440.53
677.494	347.87
677.824	316.23
678.154	365.95
678.484	372.73
678.813	341.09
679.143	395.33
679.472	395.33
679.802	329.79
680.131	404.37
680.461	384.03
680.79	354.65
681.119	429.23
681.449	390.81
681.778	368.21
682.107	386.29
682.436	341.09
682.765	388.55
683.094	402.11
683.423	347.87
683.752	408.89
684.081	372.73
684.41	386.29
684.739	304.94
685.067	320.75
685.396	363.69
685.725	359.17
686.053	311.71
686.382	372.73
686.711	352.39
687.039	325.27
687.367	372.73
687.696	399.85
688.024	356.91
688.352	397.59
688.681	282.34
689.009	341.09
689.337	311.71
689.665	334.31
689.993	361.43
690.321	363.69
690.649	384.03
690.977	359.17
691.305	363.69
691.633	275.56
691.961	347.87
692.288	268.78
692.616	359.17
692.944	354.65
693.271	327.53
693.599	300.42
693.926	347.87
694.254	352.39
694.581	304.94
694.908	395.33
695.236	374.99
695.563	282.34
695.89	386.29
696.217	309.46
696.544	345.61
696.871	307.2
697.198	293.64
697.525	282.34
697.852	399.85
698.179	374.99
698.506	264.26
698.833	404.37
699.16	309.46
699.486	311.71
699.813	402.11
700.139	341.09
700.466	298.16
700.793	243.92
701.119	295.9
701.445	334.31
701.772	361.43
702.098	302.68
702.424	307.2
702.75	379.51
703.077	329.79
703.403	295.9
703.729	343.35
704.055	334.31
704.381	307.2
704.707	350.13
705.033	266.52
705.358	293.64
705.684	329.79
706.01	370.47
706.336	302.68
706.661	377.25
706.987	336.57
707.312	352.39
707.638	309.46
707.963	325.27
708.289	291.38
708.614	336.57
708.939	316.23
709.265	370.47
709.59	309.46
709.915	374.99
710.24	289.12
710.565	277.82
710.89	266.52
711.215	246.18
711.54	323.01
711.865	275.56
712.19	325.27
712.515	327.53
712.839	361.43
713.164	295.9
713.489	307.2
713.813	320.75
714.138	284.6
714.462	280.08
714.787	363.69
715.111	255.22
715.435	234.88
715.76	329.79
716.084	341.09
716.408	327.53
716.732	255.22
717.056	239.4
717.381	234.88
717.705	286.86
718.028	327.53
718.352	250.7
718.676	311.71
719	347.87
719.324	277.82
719.648	271.04
719.971	293.64
720.295	243.92
720.618	280.08
720.942	246.18
721.265	298.16
721.589	323.01
721.912	307.2
722.236	334.31
722.559	264.26
722.882	309.46
723.205	284.6
723.528	275.56
723.851	284.6
724.174	243.92
724.497	282.34
724.82	275.56
725.143	255.22
725.466	275.56
725.789	280.08
726.112	311.71
726.434	300.42
726.757	271.04
727.08	266.52
727.402	304.94
727.725	293.64
728.047	257.48
728.37	329.79
728.692	259.74
729.014	327.53
729.336	291.38
729.659	302.68
729.981	259.74
730.303	289.12
730.625	232.62
730.947	289.12
731.269	311.71
731.591	343.35
731.913	223.58
732.235	271.04
732.556	311.71
732.878	334.31
733.2	255.22
733.521	219.06
733.843	257.48
734.164	309.46
734.486	243.92
734.807	298.16
735.129	316.23
735.45	275.56
735.771	282.34
736.092	309.46
736.414	309.46
736.735	228.1
737.056	277.82
737.377	280.08
737.698	295.9
738.019	284.6
738.34	323.01
738.66	243.92
738.981	313.97
739.302	343.35
739.623	336.57
739.943	275.56
740.264	252.96
740.584	266.52
740.905	309.46
741.225	302.68
741.546	284.6
741.866	313.97
742.186	268.78
742.507	257.48
742.827	313.97
743.147	289.12
743.467	304.94
743.787	259.74
744.107	304.94
744.427	277.82
744.747	262
745.067	289.12
745.386	320.75
745.706	248.44
746.026	237.14
746.346	323.01
746.665	307.2
746.985	221.32
747.304	248.44
747.624	264.26
747.943	268.78
748.262	291.38
748.582	262
748.901	311.71
749.22	304.94
749.539	316.23
749.858	268.78
750.177	365.95
750.496	302.68
750.815	293.64
751.134	302.68
751.453	347.87
751.772	241.66
752.09	311.71
752.409	262
752.728	271.04
753.046	266.52
753.365	291.38
753.683	286.86
754.002	275.56
754.32	234.88
754.639	280.08
754.957	345.61
755.275	273.3
755.593	275.56
755.911	271.04
756.23	271.04
756.548	225.84
756.866	320.75
757.183	280.08
757.501	300.42
757.819	284.6
758.137	243.92
758.455	298.16
758.772	219.06
759.09	234.88
759.408	250.7
759.725	323.01
760.043	250.7
760.36	300.42
760.677	282.34
760.995	237.14
761.312	257.48
761.629	298.16
761.946	300.42
762.264	316.23
762.581	332.05
762.898	307.2
763.215	286.86
763.532	250.7
763.848	336.57
764.165	282.34
764.482	345.61
764.799	325.27
765.115	286.86
765.432	241.66
765.749	271.04
766.065	262
766.382	277.82
766.698	255.22
767.014	311.71
767.331	259.74
767.647	325.27
767.963	280.08
768.279	325.27
768.595	257.48
768.911	248.44
769.227	241.66
769.543	232.62
769.859	241.66
770.175	203.24
770.491	257.48
770.807	325.27
771.122	311.71
771.438	191.94
771.754	271.04
772.069	234.88
772.385	316.23
772.7	295.9
773.016	257.48
773.331	309.46
773.646	282.34
773.961	239.4
774.277	268.78
774.592	275.56
774.907	304.94
775.222	293.64
775.537	304.94
775.852	289.12
776.167	232.62
776.482	309.46
776.796	271.04
777.111	225.84
777.426	264.26
777.74	266.52
778.055	248.44
778.369	295.9
778.684	271.04
778.998	259.74
779.313	282.34
779.627	257.48
779.941	275.56
780.255	282.34
780.57	304.94
780.884	293.64
781.198	293.64
781.512	214.54
781.826	221.32
782.14	223.58
782.453	289.12
782.767	320.75
783.081	271.04
783.395	246.18
783.708	273.3
784.022	289.12
784.335	268.78
784.649	257.48
784.962	248.44
785.276	250.7
785.589	248.44
785.902	230.36
786.216	259.74
786.529	239.4
786.842	255.22
787.155	264.26
787.468	264.26
787.781	289.12
788.094	250.7
788.407	248.44
788.72	200.98
789.032	291.38
789.345	271.04
789.658	250.7
789.97	248.44
790.283	257.48
790.595	241.66
790.908	320.75
791.22	334.31
791.532	295.9
791.845	259.74
792.157	286.86
792.469	316.23
792.781	271.04
793.093	257.48
793.405	311.71
793.717	268.78
794.029	221.32
794.341	291.38
794.653	252.96
794.965	280.08
795.276	286.86
795.588	259.74
795.9	280.08
796.211	259.74
796.523	304.94
796.834	291.38
797.146	282.34
797.457	291.38
797.768	332.05
798.08	304.94
798.391	241.66
798.702	239.4
799.013	320.75
799.324	259.74
799.635	243.92
799.946	252.96
800.257	311.71
800.568	246.18
800.878	239.4
801.189	250.7
801.5	248.44
801.81	302.68
802.121	250.7
802.431	228.1
802.742	246.18
803.052	300.42
803.363	257.48
803.673	323.01
803.983	313.97
804.293	309.46
804.603	262
804.913	302.68
805.224	268.78
805.533	264.26
805.843	243.92
806.153	300.42
806.463	266.52
806.773	230.36
807.083	191.94
807.392	246.18
807.702	243.92
808.011	252.96
808.321	295.9
808.63	259.74
808.94	266.52
809.249	275.56
809.558	252.96
809.868	237.14
810.177	241.66
810.486	284.6
810.795	286.86
811.104	320.75
811.413	268.78
811.722	275.56
812.031	298.16
812.339	257.48
812.648	239.4
812.957	230.36
813.266	216.8
813.574	257.48
813.883	291.38
814.191	234.88
814.5	187.42
814.808	273.3
815.116	216.8
815.424	273.3
815.733	259.74
816.041	232.62
816.349	323.01
816.657	275.56
816.965	239.4
817.273	255.22
817.581	255.22
817.889	295.9
818.196	216.8
818.504	289.12
818.812	259.74
819.12	255.22
819.427	302.68
819.735	286.86
820.042	210.02
820.349	255.22
820.657	196.46
820.964	259.74
821.271	259.74
821.579	262
821.886	266.52
822.193	230.36
822.5	246.18
822.807	252.96
823.114	259.74
823.421	293.64
823.727	205.5
824.034	264.26
824.341	248.44
824.648	243.92
824.954	356.91
825.261	219.06
825.567	327.53
825.874	264.26
826.18	241.66
826.486	318.49
826.793	284.6
827.099	318.49
827.405	239.4
827.711	232.62
828.017	250.7
828.323	320.75
828.629	250.7
828.935	228.1
829.241	228.1
829.547	225.84
829.852	194.2
830.158	304.94
830.464	223.58
830.769	277.82
831.075	275.56
831.38	234.88
831.686	266.52
831.991	262
832.296	320.75
832.601	291.38
832.907	228.1
833.212	241.66
833.517	282.34
833.822	246.18
834.127	289.12
834.432	316.23
834.737	300.42
835.041	266.52
835.346	232.62
835.651	275.56
835.956	323.01
836.26	327.53
836.565	259.74
836.869	300.42
837.174	284.6
837.478	230.36
837.782	230.36
838.087	291.38
838.391	266.52
838.695	273.3
838.999	264.26
839.303	250.7
839.607	237.14
839.911	257.48
840.215	191.94
840.519	268.78
840.822	289.12
841.126	286.86
841.43	282.34
841.733	284.6
842.037	259.74
842.34	271.04
842.644	271.04
842.947	205.5
843.251	323.01
843.554	311.71
843.857	293.64
844.16	230.36
844.463	259.74
844.766	311.71
845.069	228.1
845.372	219.06
845.675	237.14
845.978	293.64
846.281	284.6
846.583	257.48
846.886	293.64
847.189	250.7
847.491	293.64
847.794	325.27
848.096	250.7
848.399	275.56
848.701	262
849.003	257.48
849.305	250.7
849.608	284.6
849.91	293.64
850.212	246.18
850.514	214.54
850.816	257.48
851.118	237.14
851.419	221.32
851.721	350.13
852.023	250.7
852.325	291.38
852.626	304.94
852.928	300.42
853.229	286.86
853.531	223.58
853.832	257.48
854.133	232.62
854.435	275.56
854.736	275.56
855.037	338.83
855.338	241.66
855.639	271.04
855.94	291.38
856.241	257.48
856.542	275.56
856.843	298.16
857.144	275.56
857.444	280.08
857.745	277.82
858.046	257.48
858.346	234.88
858.647	214.54
858.947	232.62
859.247	243.92
859.548	232.62
859.848	289.12
860.148	196.46
860.448	271.04
860.749	300.42
861.049	289.12
861.349	307.2
861.648	284.6
861.948	203.24
862.248	246.18
862.548	230.36
862.848	300.42
863.147	316.23
863.447	311.71
863.746	289.12
864.046	311.71
864.345	221.32
864.645	280.08
864.944	255.22
865.243	237.14
865.542	291.38
865.842	347.87
866.141	284.6
866.44	241.66
866.739	243.92
867.038	295.9
867.337	248.44
867.635	298.16
867.934	289.12
868.233	280.08
868.531	286.86
868.83	255.22
869.129	255.22
869.427	307.2
869.725	277.82
870.024	275.56
870.322	225.84
870.62	266.52
870.918	239.4
871.217	307.2
871.515	293.64
871.813	284.6
872.111	266.52
872.409	255.22
872.706	298.16
873.004	282.34
873.302	212.28
873.6	262
873.897	264.26
874.195	282.34
874.492	277.82
874.79	291.38
875.087	291.38
875.384	228.1
875.682	219.06
875.979	286.86
876.276	293.64
876.573	334.31
876.87	334.31
877.167	334.31
