Data from PL_2polymer_F8BT_MEHPPV_USB2H096331_0414.txt Node
Date: Tue Dec 15 16:32:08 CET 2020
User: spadmin
Spectrometer: USB2+H09633
Trigger mode: 0
Integration Time (sec): 1.000000E-2
Scans to average: 1
Electric dark correction enabled: true
Nonlinearity correction enabled: false
Boxcar width: 0
XAxis mode: Wavelengths
Number of Pixels in Spectrum: 2048
>>>>>Begin Spectral Data<<<<<
174.027	-125
174.405	-125
174.783	-125
175.162	-154.37
175.54	-149.85
175.918	-134.04
176.296	-84.32
176.674	-106.92
177.052	-95.62
177.43	-115.96
177.808	-91.1
178.186	-57.2
178.564	-57.2
178.942	12.85
179.32	33.19
179.698	30.93
180.076	64.83
180.453	71.61
180.831	105.51
181.209	116.8
181.587	69.35
181.965	103.25
182.342	116.8
182.72	243.36
183.098	209.46
183.475	265.95
183.853	173.3
184.231	279.51
184.608	263.69
184.986	261.43
185.363	281.77
185.741	326.97
186.118	286.29
186.496	317.93
186.873	308.89
187.251	263.69
187.628	338.27
188.006	324.71
188.383	308.89
188.76	317.93
189.138	313.41
189.515	306.63
189.892	320.19
190.27	340.53
190.647	329.23
191.024	279.51
191.401	268.21
191.778	270.47
192.155	311.15
192.533	331.49
192.91	302.11
193.287	333.75
193.664	250.13
194.041	324.71
194.418	265.95
194.795	299.85
195.172	241.1
195.549	320.19
195.926	381.2
196.302	351.83
196.679	223.02
197.056	295.33
197.433	315.67
197.81	340.53
198.187	363.13
198.563	223.02
198.94	284.03
199.317	347.31
199.693	288.55
200.07	227.54
200.447	279.51
200.823	284.03
201.2	279.51
201.576	313.41
201.953	347.31
202.329	315.67
202.706	299.85
203.082	261.43
203.459	284.03
203.835	324.71
204.212	288.55
204.588	286.29
204.964	329.23
205.341	317.93
205.717	329.23
206.093	286.29
206.469	315.67
206.846	261.43
207.222	306.63
207.598	263.69
207.974	358.61
208.35	320.19
208.726	295.33
209.102	313.41
209.479	313.41
209.855	308.89
210.231	356.35
210.607	290.81
210.982	322.45
211.358	340.53
211.734	250.13
212.11	306.63
212.486	274.99
212.862	313.41
213.238	256.91
213.614	272.73
213.989	299.85
214.365	306.63
214.741	297.59
215.116	313.41
215.492	313.41
215.868	354.09
216.243	369.91
216.619	324.71
216.995	313.41
217.37	277.25
217.746	295.33
218.121	349.57
218.497	279.51
218.872	288.55
219.247	313.41
219.623	392.5
219.998	356.35
220.374	345.05
220.749	331.49
221.124	297.59
221.499	315.67
221.875	385.72
222.25	261.43
222.625	331.49
223	320.19
223.376	313.41
223.751	378.94
224.126	297.59
224.501	329.23
224.876	435.44
225.251	360.87
225.626	360.87
226.001	340.53
226.376	331.49
226.751	295.33
227.126	336.01
227.501	356.35
227.875	308.89
228.25	372.17
228.625	311.15
229	354.09
229.375	259.17
229.749	304.37
230.124	372.17
230.499	279.51
230.873	331.49
231.248	354.09
231.623	306.63
231.997	394.76
232.372	284.03
232.746	247.87
233.121	347.31
233.495	351.83
233.87	354.09
234.244	351.83
234.619	363.13
234.993	268.21
235.367	356.35
235.742	347.31
236.116	340.53
236.49	408.32
236.865	302.11
237.239	311.15
237.613	304.37
237.987	308.89
238.361	299.85
238.736	326.97
239.11	369.91
239.484	399.28
239.858	349.57
240.232	326.97
240.606	297.59
240.98	295.33
241.354	376.69
241.728	333.75
242.102	329.23
242.475	381.2
242.849	401.54
243.223	372.17
243.597	347.31
243.971	324.71
244.344	347.31
244.718	360.87
245.092	293.07
245.466	369.91
245.839	308.89
246.213	302.11
246.586	349.57
246.96	317.93
247.334	374.43
247.707	378.94
248.081	329.23
248.454	336.01
248.828	313.41
249.201	415.1
249.574	378.94
249.948	308.89
250.321	333.75
250.694	329.23
251.068	313.41
251.441	326.97
251.814	322.45
252.187	360.87
252.561	367.65
252.934	336.01
253.307	308.89
253.68	378.94
254.053	358.61
254.426	383.46
254.799	308.89
255.172	408.32
255.545	360.87
255.918	347.31
256.291	376.69
256.664	403.8
257.037	394.76
257.41	342.79
257.782	374.43
258.155	288.55
258.528	347.31
258.901	358.61
259.273	394.76
259.646	403.8
260.019	385.72
260.391	399.28
260.764	369.91
261.137	363.13
261.509	333.75
261.882	358.61
262.254	378.94
262.627	455.78
262.999	444.48
263.372	424.14
263.744	354.09
264.116	403.8
264.489	326.97
264.861	331.49
265.233	444.48
265.606	333.75
265.978	408.32
266.35	363.13
266.722	336.01
267.094	378.94
267.467	345.05
267.839	381.2
268.211	385.72
268.583	345.05
268.955	297.59
269.327	403.8
269.699	358.61
270.071	372.17
270.443	338.27
270.815	317.93
271.186	412.84
271.558	356.35
271.93	336.01
272.302	458.04
272.674	424.14
273.045	408.32
273.417	358.61
273.789	363.13
274.16	351.83
274.532	392.5
274.904	412.84
275.275	390.24
275.647	406.06
276.018	415.1
276.39	385.72
276.761	424.14
277.133	401.54
277.504	336.01
277.875	365.39
278.247	392.5
278.618	442.22
278.989	421.88
279.361	446.74
279.732	367.65
280.103	442.22
280.474	372.17
280.846	415.1
281.217	394.76
281.588	369.91
281.959	338.27
282.33	338.27
282.701	496.46
283.072	383.46
283.443	419.62
283.814	467.08
284.185	406.06
284.556	367.65
284.927	372.17
285.297	439.96
285.668	345.05
286.039	453.52
286.41	410.58
286.781	374.43
287.151	392.5
287.522	444.48
287.893	401.54
288.263	439.96
288.634	453.52
289.004	358.61
289.375	415.1
289.745	469.34
290.116	435.44
290.486	381.2
290.857	399.28
291.227	435.44
291.598	374.43
291.968	401.54
292.338	372.17
292.709	408.32
293.079	381.2
293.449	356.35
293.819	383.46
294.189	408.32
294.56	464.82
294.93	401.54
295.3	419.62
295.67	406.06
296.04	383.46
296.41	453.52
296.78	387.98
297.15	442.22
297.52	503.24
297.89	365.39
298.259	437.7
298.629	419.62
298.999	480.64
299.369	365.39
299.739	455.78
300.108	487.42
300.478	442.22
300.848	426.4
301.217	442.22
301.587	381.2
301.957	406.06
302.326	471.6
302.696	360.87
303.065	491.94
303.435	464.82
303.804	417.36
304.174	435.44
304.543	419.62
304.912	469.34
305.282	449
305.651	444.48
306.02	507.76
306.39	451.26
306.759	444.48
307.128	449
307.497	537.13
307.866	489.68
308.235	451.26
308.604	473.86
308.974	421.88
309.343	435.44
309.712	439.96
310.08	505.5
310.449	539.39
310.818	417.36
311.187	451.26
311.556	503.24
311.925	455.78
312.294	471.6
312.662	469.34
313.031	451.26
313.4	480.64
313.769	406.06
314.137	494.2
314.506	514.53
314.874	503.24
315.243	451.26
315.612	505.5
315.98	451.26
316.349	507.76
316.717	575.55
317.085	510.01
317.454	491.94
317.822	469.34
318.191	516.79
318.559	485.16
318.927	469.34
319.295	491.94
319.664	428.66
320.032	464.82
320.4	419.62
320.768	453.52
321.136	500.98
321.504	498.72
321.872	444.48
322.24	453.52
322.608	555.21
322.976	460.3
323.344	478.38
323.712	417.36
324.08	523.57
324.448	534.87
324.816	521.31
325.183	485.16
325.551	505.5
325.919	485.16
326.287	455.78
326.654	528.09
327.022	500.98
327.389	561.99
327.757	516.79
328.125	491.94
328.492	473.86
328.86	530.35
329.227	467.08
329.594	469.34
329.962	496.46
330.329	521.31
330.697	546.17
331.064	487.42
331.431	485.16
331.798	471.6
332.166	500.98
332.533	580.07
332.9	566.51
333.267	543.91
333.634	561.99
334.001	512.27
334.368	519.05
334.735	512.27
335.102	494.2
335.469	548.43
335.836	491.94
336.203	616.23
336.57	589.11
336.937	498.72
337.304	627.53
337.67	537.13
338.037	573.29
338.404	539.39
338.771	589.11
339.137	609.45
339.504	656.9
339.87	537.13
340.237	600.41
340.604	632.05
340.97	593.63
341.337	589.11
341.703	589.11
342.069	573.29
342.436	534.87
342.802	580.07
343.169	647.86
343.535	571.03
343.901	591.37
344.267	638.83
344.634	627.53
345	613.97
345.366	552.95
345.732	580.07
346.098	652.38
346.464	650.12
346.83	611.71
347.196	632.05
347.562	670.46
347.928	684.02
348.294	656.9
348.66	607.19
349.026	645.6
349.392	693.06
349.757	632.05
350.123	742.78
350.489	699.84
350.855	717.92
351.22	690.8
351.586	618.49
351.951	697.58
352.317	629.79
352.683	591.37
353.048	724.7
353.414	645.6
353.779	659.16
354.144	641.08
354.51	760.86
354.875	724.7
355.24	693.06
355.606	616.23
355.971	706.62
356.336	690.8
356.701	681.76
357.067	690.8
357.432	713.4
357.797	686.28
358.162	754.08
358.527	736
358.892	763.12
359.257	760.86
359.622	803.79
359.987	812.83
360.352	867.07
360.717	839.95
361.082	812.83
361.446	819.61
361.811	722.44
362.176	751.82
362.541	812.83
362.905	925.82
363.27	833.17
363.635	973.28
363.999	900.97
364.364	885.15
364.728	937.12
365.093	871.59
365.457	966.5
365.822	998.14
366.186	898.71
366.55	930.34
366.915	991.36
367.279	1038.81
367.643	966.5
368.008	1020.74
368.372	1068.19
368.736	957.46
369.1	1140.51
369.464	1102.09
369.828	1099.83
370.192	1007.18
370.556	1068.19
370.92	1167.62
371.284	1104.35
371.648	1260.28
372.012	1253.5
372.376	1300.95
372.74	1323.55
373.104	1325.81
373.468	1375.53
373.831	1522.42
374.195	1554.06
374.559	1468.18
374.922	1502.08
375.286	1592.47
375.65	1626.37
376.013	1707.72
376.377	1716.76
376.74	1852.35
377.104	1827.49
377.467	1940.49
377.83	2064.78
378.194	2200.37
378.557	2274.94
378.92	2297.54
379.284	2491.88
379.647	2611.65
380.01	2769.84
380.373	2923.51
380.736	3050.06
381.1	3400.33
381.463	3721.23
381.826	3953.99
382.189	4096.36
382.552	4399.18
382.915	4794.65
383.278	5228.53
383.64	5770.89
384.003	6139.25
384.366	6814.93
384.729	7244.3
385.092	7913.21
385.454	8663.47
385.817	9327.86
386.18	10457.78
386.542	11804.63
386.905	12405.75
387.268	13583.12
387.63	15221.49
387.993	16642.92
388.355	18059.84
388.718	19621.38
389.08	21234.89
389.442	23429.19
389.805	25307.1
390.167	27347.73
390.529	30122.8
390.892	33675.24
391.254	35537.34
391.616	38052.53
391.978	42741.67
392.34	46413.89
392.702	48350.56
393.064	51787.76
393.426	53566.25
393.788	55853.19
394.15	57014.74
394.512	59037.29
394.874	60847.41
395.236	62610.08
395.598	64424.72
395.96	65061.99
396.321	65061.99
396.683	65061.99
397.045	65061.99
397.406	65061.99
397.768	65061.99
398.13	65061.99
398.491	65061.99
398.853	65061.99
399.214	65061.99
399.576	65061.99
399.937	65061.99
400.299	65061.99
400.66	65061.99
401.021	65061.99
401.383	65061.99
401.744	65061.99
402.105	65061.99
402.466	65061.99
402.827	65061.99
403.189	65061.99
403.55	65061.99
403.911	65061.99
404.272	65061.99
404.633	65061.99
404.994	65061.99
405.355	65061.99
405.716	65061.99
406.077	65061.99
406.437	65061.99
406.798	65061.99
407.159	65061.99
407.52	65061.99
407.88	65061.99
408.241	65061.99
408.602	65061.99
408.962	65061.99
409.323	65061.99
409.684	65061.99
410.044	65061.99
410.405	65061.99
410.765	65061.99
411.125	65061.99
411.486	65061.99
411.846	65061.99
412.206	65061.99
412.567	65061.99
412.927	65061.99
413.287	65061.99
413.647	65061.99
414.007	65061.99
414.368	65061.99
414.728	65061.99
415.088	65061.99
415.448	65061.99
415.808	65061.99
416.168	65061.99
416.528	65061.99
416.887	65061.99
417.247	65061.99
417.607	65061.99
417.967	65061.99
418.327	65061.99
418.686	65061.99
419.046	65061.99
419.406	65061.99
419.765	65061.99
420.125	65061.99
420.484	65061.99
420.844	65061.99
421.203	65061.99
421.563	64560.31
421.922	64182.92
422.282	62460.93
422.641	61059.84
423	59780.77
423.36	58635.04
423.719	56761.64
424.078	54772.99
424.437	52838.58
424.796	51435.23
425.155	49993.46
425.515	47265.85
425.874	46332.54
426.233	41932.65
426.592	39724.8
426.95	38597.15
427.309	36635.62
427.668	35462.77
428.027	32895.6
428.386	31770.21
428.745	28940.91
429.103	26884.46
429.462	25960.19
429.821	24034.82
430.179	23454.04
430.538	22193.06
430.897	21833.75
431.255	20581.8
431.614	19239.47
431.972	18437.23
432.33	17711.82
432.689	17404.49
433.047	16227.12
433.405	15341.26
433.764	14735.63
434.122	14428.29
434.48	13544.7
434.838	12837.37
435.197	12593.31
435.555	12014.8
435.913	11558.31
436.271	10830.65
436.629	10512.01
436.987	10145.92
437.345	9495.09
437.703	9262.33
438.061	8667.99
438.418	8044.28
438.776	7816.04
439.134	7734.68
439.492	7323.4
439.849	6869.17
440.207	6475.96
440.565	6342.63
440.922	6048.85
441.28	5687.28
441.637	5506.49
441.995	5422.88
442.352	5138.14
442.71	4783.35
443.067	4828.55
443.425	4577.7
443.782	4338.16
444.139	4277.15
444.496	4137.04
444.854	4082.8
445.211	3965.29
445.568	3789.02
445.925	3461.35
446.282	3456.83
446.639	3285.08
446.996	3260.23
447.353	3359.66
447.71	3201.47
448.067	2993.57
448.424	2830.86
448.781	2824.08
449.137	2799.22
449.494	2693.01
449.851	2478.32
450.208	2464.77
450.564	2342.74
450.921	2177.77
451.278	2189.07
451.634	2340.48
451.991	2109.97
452.347	2096.41
452.704	2039.92
453.06	1886.25
453.416	1836.53
453.773	1691.9
454.129	1804.9
454.485	1642.19
454.841	1685.13
455.198	1606.03
455.554	1477.22
455.91	1567.61
456.266	1529.2
456.622	1393.61
456.978	1468.18
457.334	1312.25
457.69	1267.06
458.046	1269.32
458.402	1271.58
458.758	1208.3
459.114	1133.73
459.469	1126.95
459.825	1104.35
460.181	1145.03
460.536	1072.71
460.892	1088.53
461.248	1009.44
461.603	946.16
461.959	1025.26
462.314	1038.81
462.67	982.32
463.025	964.24
463.38	980.06
463.736	934.86
464.091	905.48
464.446	851.25
464.802	878.37
465.157	833.17
465.512	815.09
465.867	878.37
466.222	821.87
466.577	781.19
466.932	830.91
467.287	749.56
467.642	797.01
467.997	799.27
468.352	758.6
468.707	824.13
469.062	769.9
469.417	684.02
469.771	686.28
470.126	679.5
470.481	650.12
470.835	708.88
471.19	595.89
471.544	706.62
471.899	686.28
472.253	679.5
472.608	656.9
472.962	641.08
473.317	638.83
473.671	629.79
474.025	706.62
474.38	679.5
474.734	643.34
475.088	625.27
475.442	607.19
475.796	695.32
476.15	690.8
476.504	665.94
476.858	582.33
477.212	668.2
477.566	548.43
477.92	609.45
478.274	584.59
478.628	636.57
478.982	534.87
479.336	656.9
479.689	704.36
480.043	625.27
480.397	586.85
480.75	595.89
481.104	652.38
481.457	546.17
481.811	539.39
482.164	539.39
482.518	584.59
482.871	604.93
483.225	566.51
483.578	575.55
483.931	625.27
484.284	552.95
484.638	620.75
484.991	491.94
485.344	564.25
485.697	577.81
486.05	561.99
486.403	537.13
486.756	586.85
487.109	620.75
487.462	489.68
487.815	530.35
488.168	616.23
488.52	512.27
488.873	467.08
489.226	528.09
489.579	582.33
489.931	543.91
490.284	525.83
490.637	528.09
490.989	494.2
491.342	546.17
491.694	519.05
492.047	503.24
492.399	580.07
492.751	478.38
493.104	460.3
493.456	494.2
493.808	505.5
494.16	541.65
494.513	543.91
494.865	496.46
495.217	498.72
495.569	503.24
495.921	541.65
496.273	498.72
496.625	519.05
496.977	539.39
497.329	500.98
497.68	546.17
498.032	500.98
498.384	473.86
498.736	530.35
499.087	491.94
499.439	532.61
499.791	387.98
500.142	552.95
500.494	500.98
500.845	498.72
501.197	516.79
501.548	546.17
501.9	503.24
502.251	598.15
502.602	487.42
502.954	487.42
503.305	528.09
503.656	494.2
504.007	500.98
504.358	532.61
504.709	528.09
505.061	534.87
505.412	519.05
505.763	539.39
506.113	455.78
506.464	494.2
506.815	541.65
507.166	510.01
507.517	498.72
507.868	460.3
508.218	537.13
508.569	537.13
508.92	555.21
509.27	496.46
509.621	521.31
509.971	500.98
510.322	514.53
510.672	552.95
511.023	512.27
511.373	496.46
511.723	550.69
512.074	516.79
512.424	521.31
512.774	489.68
513.124	503.24
513.475	498.72
513.825	552.95
514.175	539.39
514.525	491.94
514.875	584.59
515.225	530.35
515.575	550.69
515.924	591.37
516.274	555.21
516.624	473.86
516.974	519.05
517.324	521.31
517.673	510.01
518.023	561.99
518.373	530.35
518.722	516.79
519.072	539.39
519.421	595.89
519.771	503.24
520.12	541.65
520.469	534.87
520.819	548.43
521.168	580.07
521.517	537.13
521.867	577.81
522.216	623.01
522.565	512.27
522.914	582.33
523.263	539.39
523.612	528.09
523.961	534.87
524.31	580.07
524.659	528.09
525.008	550.69
525.357	537.13
525.705	566.51
526.054	566.51
526.403	528.09
526.752	571.03
527.1	521.31
527.449	571.03
527.797	634.31
528.146	568.77
528.495	591.37
528.843	607.19
529.191	561.99
529.54	514.53
529.888	591.37
530.236	591.37
530.585	593.63
530.933	510.01
531.281	523.57
531.629	552.95
531.977	496.46
532.325	550.69
532.673	487.42
533.021	460.3
533.369	600.41
533.717	555.21
534.065	620.75
534.413	568.77
534.761	523.57
535.108	593.63
535.456	532.61
535.804	584.59
536.151	523.57
536.499	500.98
536.847	561.99
537.194	586.85
537.542	507.76
537.889	534.87
538.236	552.95
538.584	532.61
538.931	507.76
539.278	557.47
539.626	550.69
539.973	530.35
540.32	523.57
540.667	476.12
541.014	510.01
541.361	537.13
541.708	514.53
542.055	584.59
542.402	444.48
542.749	487.42
543.096	489.68
543.443	514.53
543.789	507.76
544.136	462.56
544.483	519.05
544.83	525.83
545.176	514.53
545.523	498.72
545.869	469.34
546.216	503.24
546.562	541.65
546.909	487.42
547.255	548.43
547.601	480.64
547.948	539.39
548.294	473.86
548.64	462.56
548.986	464.82
549.332	453.52
549.678	453.52
550.025	532.61
550.371	455.78
550.717	462.56
551.062	480.64
551.408	507.76
551.754	541.65
552.1	467.08
552.446	439.96
552.792	534.87
553.137	449
553.483	426.4
553.828	455.78
554.174	525.83
554.52	455.78
554.865	512.27
555.211	460.3
555.556	406.06
555.901	503.24
556.247	426.4
556.592	523.57
556.937	471.6
557.282	473.86
557.628	471.6
557.973	458.04
558.318	453.52
558.663	433.18
559.008	480.64
559.353	473.86
559.698	439.96
560.043	494.2
560.388	417.36
560.732	419.62
561.077	406.06
561.422	446.74
561.766	399.28
562.111	478.38
562.456	453.52
562.8	433.18
563.145	430.92
563.489	469.34
563.834	444.48
564.178	455.78
564.523	417.36
564.867	433.18
565.211	387.98
565.555	419.62
565.9	387.98
566.244	446.74
566.588	449
566.932	394.76
567.276	417.36
567.62	467.08
567.964	476.12
568.308	439.96
568.652	462.56
568.996	505.5
569.339	408.32
569.683	435.44
570.027	349.57
570.371	399.28
570.714	464.82
571.058	408.32
571.401	358.61
571.745	460.3
572.088	419.62
572.432	446.74
572.775	387.98
573.118	408.32
573.462	430.92
573.805	426.4
574.148	426.4
574.491	467.08
574.835	403.8
575.178	439.96
575.521	369.91
575.864	437.7
576.207	426.4
576.55	401.54
576.892	415.1
577.235	433.18
577.578	410.58
577.921	430.92
578.264	433.18
578.606	378.94
578.949	363.13
579.292	390.24
579.634	408.32
579.977	433.18
580.319	419.62
580.662	390.24
581.004	469.34
581.346	378.94
581.689	430.92
582.031	376.69
582.373	455.78
582.715	446.74
583.057	458.04
583.4	354.09
583.742	410.58
584.084	415.1
584.426	439.96
584.768	369.91
585.109	387.98
585.451	385.72
585.793	467.08
586.135	415.1
586.477	442.22
586.818	421.88
587.16	340.53
587.502	392.5
587.843	408.32
588.185	363.13
588.526	358.61
588.868	410.58
589.209	399.28
589.55	358.61
589.892	356.35
590.233	487.42
590.574	383.46
590.915	356.35
591.257	345.05
591.598	363.13
591.939	430.92
592.28	408.32
592.621	401.54
592.962	354.09
593.303	331.49
593.643	399.28
593.984	381.2
594.325	376.69
594.666	394.76
595.006	360.87
595.347	329.23
595.688	331.49
596.028	399.28
596.369	392.5
596.709	326.97
597.05	406.06
597.39	356.35
597.73	367.65
598.071	390.24
598.411	349.57
598.751	313.41
599.091	293.07
599.431	365.39
599.772	304.37
600.112	347.31
600.452	369.91
600.792	455.78
601.132	306.63
601.471	372.17
601.811	356.35
602.151	302.11
602.491	358.61
602.831	354.09
603.17	317.93
603.51	374.43
603.849	358.61
604.189	401.54
604.528	360.87
604.868	331.49
605.207	306.63
605.547	315.67
605.886	363.13
606.225	369.91
606.565	324.71
606.904	360.87
607.243	378.94
607.582	336.01
607.921	295.33
608.26	315.67
608.599	430.92
608.938	331.49
609.277	297.59
609.616	299.85
609.955	336.01
610.293	320.19
610.632	376.69
610.971	351.83
611.309	284.03
611.648	326.97
611.987	313.41
612.325	381.2
612.664	308.89
613.002	326.97
613.34	329.23
613.679	349.57
614.017	372.17
614.355	311.15
614.694	297.59
615.032	288.55
615.37	295.33
615.708	333.75
616.046	358.61
616.384	376.69
616.722	367.65
617.06	356.35
617.398	340.53
617.736	326.97
618.073	338.27
618.411	293.07
618.749	347.31
619.086	394.76
619.424	324.71
619.762	284.03
620.099	345.05
620.437	322.45
620.774	311.15
621.112	329.23
621.449	317.93
621.786	286.29
622.123	322.45
622.461	351.83
622.798	293.07
623.135	331.49
623.472	351.83
623.809	338.27
624.146	293.07
624.483	299.85
624.82	358.61
625.157	311.15
625.494	304.37
625.83	313.41
626.167	223.02
626.504	399.28
626.841	322.45
627.177	358.61
627.514	403.8
627.85	333.75
628.187	268.21
628.523	293.07
628.86	385.72
629.196	347.31
629.532	333.75
629.869	304.37
630.205	299.85
630.541	281.77
630.877	345.05
631.213	329.23
631.549	354.09
631.885	369.91
632.221	268.21
632.557	324.71
632.893	277.25
633.229	315.67
633.564	268.21
633.9	356.35
634.236	311.15
634.572	308.89
634.907	351.83
635.243	288.55
635.578	329.23
635.914	311.15
636.249	295.33
636.585	322.45
636.92	317.93
637.255	274.99
637.59	308.89
637.926	274.99
638.261	311.15
638.596	245.62
638.931	250.13
639.266	311.15
639.601	293.07
639.936	306.63
640.271	326.97
640.606	261.43
640.94	313.41
641.275	293.07
641.61	293.07
641.945	245.62
642.279	311.15
642.614	263.69
642.948	295.33
643.283	302.11
643.617	272.73
643.952	313.41
644.286	284.03
644.62	263.69
644.955	293.07
645.289	336.01
645.623	299.85
645.957	272.73
646.291	286.29
646.625	299.85
646.959	311.15
647.293	313.41
647.627	293.07
647.961	367.65
648.295	340.53
648.629	320.19
648.962	229.8
649.296	252.39
649.63	272.73
649.963	372.17
650.297	256.91
650.63	297.59
650.964	322.45
651.297	367.65
651.631	268.21
651.964	302.11
652.297	329.23
652.631	265.95
652.964	336.01
653.297	336.01
653.63	297.59
653.963	317.93
654.296	272.73
654.629	238.84
654.962	254.65
655.295	347.31
655.628	304.37
655.961	286.29
656.293	236.58
656.626	331.49
656.959	336.01
657.291	295.33
657.624	286.29
657.956	247.87
658.289	288.55
658.621	317.93
658.954	306.63
659.286	302.11
659.618	272.73
659.95	256.91
660.283	259.17
660.615	286.29
660.947	317.93
661.279	324.71
661.611	356.35
661.943	322.45
662.275	268.21
662.607	236.58
662.939	322.45
663.27	263.69
663.602	279.51
663.934	297.59
664.266	308.89
664.597	284.03
664.929	308.89
665.26	293.07
665.592	254.65
665.923	254.65
666.255	320.19
666.586	293.07
666.917	313.41
667.248	272.73
667.58	277.25
667.911	261.43
668.242	293.07
668.573	254.65
668.904	268.21
669.235	252.39
669.566	263.69
669.897	306.63
670.228	272.73
670.558	297.59
670.889	256.91
671.22	279.51
671.551	302.11
671.881	261.43
672.212	268.21
672.542	277.25
672.873	268.21
673.203	218.5
673.533	295.33
673.864	272.73
674.194	274.99
674.524	297.59
674.855	302.11
675.185	284.03
675.515	290.81
675.845	288.55
676.175	336.01
676.505	265.95
676.835	286.29
677.165	286.29
677.494	297.59
677.824	311.15
678.154	293.07
678.484	277.25
678.813	281.77
679.143	250.13
679.472	204.94
679.802	288.55
680.131	336.01
680.461	241.1
680.79	288.55
681.119	329.23
681.449	315.67
681.778	247.87
682.107	288.55
682.436	225.28
682.765	336.01
683.094	277.25
683.423	284.03
683.752	295.33
684.081	259.17
684.41	256.91
684.739	290.81
685.067	220.76
685.396	263.69
685.725	218.5
686.053	293.07
686.382	272.73
686.711	322.45
687.039	265.95
687.367	227.54
687.696	345.05
688.024	247.87
688.352	252.39
688.681	286.29
689.009	284.03
689.337	265.95
689.665	272.73
689.993	286.29
690.321	256.91
690.649	234.32
690.977	256.91
691.305	270.47
691.633	238.84
691.961	252.39
692.288	315.67
692.616	263.69
692.944	270.47
693.271	254.65
693.599	204.94
693.926	232.06
694.254	250.13
694.581	256.91
694.908	277.25
695.236	247.87
695.563	254.65
695.89	277.25
696.217	241.1
696.544	286.29
696.871	263.69
697.198	272.73
697.525	259.17
697.852	354.09
698.179	254.65
698.506	311.15
698.833	272.73
699.16	297.59
699.486	295.33
699.813	304.37
700.139	317.93
700.466	265.95
700.793	315.67
701.119	293.07
701.445	256.91
701.772	213.98
702.098	277.25
702.424	308.89
702.75	315.67
703.077	333.75
703.403	297.59
703.729	288.55
704.055	252.39
704.381	288.55
704.707	304.37
705.033	213.98
705.358	265.95
705.684	277.25
706.01	308.89
706.336	243.36
706.661	223.02
706.987	281.77
707.312	241.1
707.638	227.54
707.963	308.89
708.289	247.87
708.614	252.39
708.939	304.37
709.265	229.8
709.59	263.69
709.915	288.55
710.24	360.87
710.565	247.87
710.89	299.85
711.215	236.58
711.54	297.59
711.865	247.87
712.19	293.07
712.515	345.05
712.839	229.8
713.164	254.65
713.489	295.33
713.813	245.62
714.138	274.99
714.462	216.24
714.787	279.51
715.111	243.36
715.435	277.25
715.76	243.36
716.084	256.91
716.408	229.8
716.732	227.54
717.056	290.81
717.381	247.87
717.705	284.03
718.028	272.73
718.352	299.85
718.676	302.11
719	191.38
719.324	295.33
719.648	202.68
719.971	272.73
720.295	241.1
720.618	245.62
720.942	268.21
721.265	279.51
721.589	286.29
721.912	229.8
722.236	186.86
722.559	256.91
722.882	270.47
723.205	166.52
723.528	304.37
723.851	218.5
724.174	279.51
724.497	259.17
724.82	213.98
725.143	313.41
725.466	236.58
725.789	189.12
726.112	200.42
726.434	286.29
726.757	247.87
727.08	286.29
727.402	281.77
727.725	279.51
728.047	238.84
728.37	195.9
728.692	329.23
729.014	236.58
729.336	270.47
729.659	259.17
729.981	254.65
730.303	223.02
730.625	308.89
730.947	211.72
731.269	358.61
731.591	250.13
731.913	225.28
732.235	290.81
732.556	272.73
732.878	241.1
733.2	270.47
733.521	284.03
733.843	345.05
734.164	204.94
734.486	259.17
734.807	272.73
735.129	261.43
735.45	263.69
735.771	284.03
736.092	281.77
736.414	232.06
736.735	308.89
737.056	227.54
737.377	297.59
737.698	254.65
738.019	250.13
738.34	247.87
738.66	297.59
738.981	216.24
739.302	207.2
739.623	247.87
739.943	295.33
740.264	290.81
740.584	245.62
740.905	270.47
741.225	261.43
741.546	247.87
741.866	200.42
742.186	347.31
742.507	308.89
742.827	315.67
743.147	202.68
743.467	220.76
743.787	288.55
744.107	274.99
744.427	236.58
744.747	216.24
745.067	232.06
745.386	241.1
745.706	241.1
746.026	270.47
746.346	272.73
746.665	315.67
746.985	274.99
747.304	302.11
747.624	250.13
747.943	247.87
748.262	290.81
748.582	227.54
748.901	293.07
749.22	220.76
749.539	238.84
749.858	274.99
750.177	245.62
750.496	336.01
750.815	234.32
751.134	290.81
751.453	293.07
751.772	245.62
752.09	259.17
752.409	340.53
752.728	270.47
753.046	227.54
753.365	315.67
753.683	268.21
754.002	259.17
754.32	286.29
754.639	229.8
754.957	247.87
755.275	250.13
755.593	241.1
755.911	333.75
756.23	182.34
756.548	263.69
756.866	227.54
757.183	245.62
757.501	245.62
757.819	290.81
758.137	302.11
758.455	295.33
758.772	308.89
759.09	295.33
759.408	268.21
759.725	254.65
760.043	229.8
760.36	293.07
760.677	274.99
760.995	254.65
761.312	274.99
761.629	236.58
761.946	250.13
762.264	263.69
762.581	247.87
762.898	241.1
763.215	286.29
763.532	265.95
763.848	213.98
764.165	315.67
764.482	272.73
764.799	308.89
765.115	234.32
765.432	211.72
765.749	272.73
766.065	261.43
766.382	263.69
766.698	213.98
767.014	263.69
767.331	259.17
767.647	304.37
767.963	238.84
768.279	238.84
768.595	281.77
768.911	290.81
769.227	245.62
769.543	225.28
769.859	297.59
770.175	245.62
770.491	277.25
770.807	281.77
771.122	243.36
771.438	272.73
771.754	279.51
772.069	322.45
772.385	252.39
772.7	243.36
773.016	245.62
773.331	324.71
773.646	227.54
773.961	265.95
774.277	263.69
774.592	268.21
774.907	223.02
775.222	216.24
775.537	259.17
775.852	279.51
776.167	213.98
776.482	198.16
776.796	252.39
777.111	326.97
777.426	265.95
777.74	340.53
778.055	252.39
778.369	297.59
778.684	218.5
778.998	250.13
779.313	209.46
779.627	252.39
779.941	232.06
780.255	236.58
780.57	277.25
780.884	281.77
781.198	256.91
781.512	317.93
781.826	254.65
782.14	259.17
782.453	209.46
782.767	229.8
783.081	227.54
783.395	263.69
783.708	279.51
784.022	265.95
784.335	274.99
784.649	254.65
784.962	252.39
785.276	252.39
785.589	308.89
785.902	254.65
786.216	232.06
786.529	297.59
786.842	259.17
787.155	252.39
787.468	342.79
787.781	250.13
788.094	220.76
788.407	150.7
788.72	268.21
789.032	329.23
789.345	274.99
789.658	261.43
789.97	270.47
790.283	252.39
790.595	247.87
790.908	293.07
791.22	234.32
791.532	302.11
791.845	277.25
792.157	288.55
792.469	232.06
792.781	268.21
793.093	308.89
793.405	281.77
793.717	254.65
794.029	227.54
794.341	270.47
794.653	270.47
794.965	247.87
795.276	241.1
795.588	293.07
795.9	261.43
796.211	256.91
796.523	288.55
796.834	241.1
797.146	225.28
797.457	234.32
797.768	202.68
798.08	243.36
798.391	182.34
798.702	320.19
799.013	284.03
799.324	311.15
799.635	252.39
799.946	317.93
800.257	250.13
800.568	252.39
800.878	241.1
801.189	247.87
801.5	265.95
801.81	200.42
802.121	272.73
802.431	234.32
802.742	295.33
803.052	272.73
803.363	286.29
803.673	284.03
803.983	265.95
804.293	227.54
804.603	211.72
804.913	340.53
805.224	261.43
805.533	171.04
805.843	250.13
806.153	243.36
806.463	241.1
806.773	270.47
807.083	193.64
807.392	254.65
807.702	236.58
808.011	261.43
808.321	281.77
808.63	232.06
808.94	238.84
809.249	250.13
809.558	238.84
809.868	252.39
810.177	220.76
810.486	252.39
810.795	218.5
811.104	198.16
811.413	277.25
811.722	200.42
812.031	238.84
812.339	193.64
812.648	236.58
812.957	216.24
813.266	268.21
813.574	250.13
813.883	299.85
814.191	268.21
814.5	265.95
814.808	299.85
815.116	213.98
815.424	238.84
815.733	202.68
816.041	279.51
816.349	220.76
816.657	256.91
816.965	270.47
817.273	227.54
817.581	270.47
817.889	186.86
818.196	277.25
818.504	288.55
818.812	254.65
819.12	236.58
819.427	277.25
819.735	184.6
820.042	256.91
820.349	223.02
820.657	200.42
820.964	238.84
821.271	295.33
821.579	324.71
821.886	331.49
822.193	279.51
822.5	234.32
822.807	232.06
823.114	254.65
823.421	272.73
823.727	252.39
824.034	225.28
824.341	247.87
824.648	204.94
824.954	263.69
825.261	238.84
825.567	259.17
825.874	288.55
826.18	317.93
826.486	252.39
826.793	274.99
827.099	216.24
827.405	281.77
827.711	238.84
828.017	279.51
828.323	277.25
828.629	261.43
828.935	223.02
829.241	313.41
829.547	250.13
829.852	195.9
830.158	270.47
830.464	317.93
830.769	198.16
831.075	207.2
831.38	227.54
831.686	252.39
831.991	302.11
832.296	272.73
832.601	236.58
832.907	236.58
833.212	236.58
833.517	252.39
833.822	207.2
834.127	236.58
834.432	268.21
834.737	274.99
835.041	148.44
835.346	268.21
835.651	317.93
835.956	220.76
836.26	252.39
836.565	250.13
836.869	277.25
837.174	270.47
837.478	279.51
837.782	223.02
838.087	265.95
838.391	270.47
838.695	250.13
838.999	243.36
839.303	308.89
839.607	274.99
839.911	247.87
840.215	281.77
840.519	277.25
840.822	274.99
841.126	272.73
841.43	299.85
841.733	306.63
842.037	252.39
842.34	225.28
842.644	259.17
842.947	254.65
843.251	247.87
843.554	213.98
843.857	256.91
844.16	241.1
844.463	320.19
844.766	295.33
845.069	263.69
845.372	193.64
845.675	238.84
845.978	322.45
846.281	218.5
846.583	247.87
846.886	223.02
847.189	252.39
847.491	336.01
847.794	277.25
848.096	245.62
848.399	268.21
848.701	304.37
849.003	216.24
849.305	245.62
849.608	281.77
849.91	290.81
850.212	263.69
850.514	261.43
850.816	254.65
851.118	259.17
851.419	299.85
851.721	220.76
852.023	268.21
852.325	270.47
852.626	279.51
852.928	274.99
853.229	284.03
853.531	311.15
853.832	254.65
854.133	274.99
854.435	218.5
854.736	218.5
855.037	290.81
855.338	247.87
855.639	252.39
855.94	252.39
856.241	263.69
856.542	354.09
856.843	265.95
857.144	281.77
857.444	277.25
857.745	232.06
858.046	229.8
858.346	272.73
858.647	324.71
858.947	252.39
859.247	265.95
859.548	213.98
859.848	265.95
860.148	279.51
860.448	268.21
860.749	227.54
861.049	227.54
861.349	254.65
861.648	288.55
861.948	241.1
862.248	245.62
862.548	243.36
862.848	254.65
863.147	232.06
863.447	184.6
863.746	241.1
864.046	290.81
864.345	243.36
864.645	288.55
864.944	261.43
865.243	290.81
865.542	252.39
865.842	213.98
866.141	268.21
866.44	245.62
866.739	234.32
867.038	223.02
867.337	211.72
867.635	175.56
867.934	281.77
868.233	277.25
868.531	229.8
868.83	315.67
869.129	284.03
869.427	270.47
869.725	297.59
870.024	290.81
870.322	254.65
870.62	232.06
870.918	250.13
871.217	256.91
871.515	288.55
871.813	198.16
872.111	268.21
872.409	211.72
872.706	238.84
873.004	216.24
873.302	218.5
873.6	254.65
873.897	311.15
874.195	256.91
874.492	281.77
874.79	250.13
875.087	302.11
875.384	265.95
875.682	290.81
875.979	252.39
876.276	218.5
876.573	198.16
876.87	198.16
877.167	198.16
