Data from PL_2polymer_F8BT_MEHPPV_USB2H096331_0334.txt Node
Date: Tue Dec 15 16:32:07 CET 2020
User: spadmin
Spectrometer: USB2+H09633
Trigger mode: 0
Integration Time (sec): 1.000000E-2
Scans to average: 1
Electric dark correction enabled: true
Nonlinearity correction enabled: false
Boxcar width: 0
XAxis mode: Wavelengths
Number of Pixels in Spectrum: 2048
>>>>>Begin Spectral Data<<<<<
174.027	-131.35
174.405	-131.35
174.783	-131.35
175.162	-149.43
175.54	-133.61
175.918	-129.09
176.296	-115.53
176.674	-133.61
177.052	-59.04
177.43	-97.46
177.808	-22.88
178.186	-59.04
178.564	-34.18
178.942	22.32
179.32	40.39
179.698	-47.74
180.076	58.47
180.453	53.95
180.831	83.33
181.209	119.49
181.587	58.47
181.965	133.05
182.342	144.35
182.72	166.94
183.098	185.02
183.475	223.44
183.853	295.75
184.231	246.04
184.608	264.12
184.986	212.14
185.363	295.75
185.741	286.72
186.118	284.46
186.496	300.27
186.873	237
187.251	246.04
187.628	259.6
188.006	352.25
188.383	345.47
188.76	404.23
189.138	370.33
189.515	313.83
189.892	309.31
190.27	340.95
190.647	386.15
191.024	343.21
191.401	307.05
191.778	318.35
192.155	313.83
192.533	288.98
192.91	343.21
193.287	361.29
193.664	293.5
194.041	230.22
194.418	422.31
194.795	325.13
195.172	356.77
195.549	259.6
195.926	279.94
196.302	291.24
196.679	300.27
197.056	345.47
197.433	331.91
197.81	286.72
198.187	345.47
198.563	313.83
198.94	336.43
199.317	334.17
199.693	304.79
200.07	255.08
200.447	336.43
200.823	340.95
201.2	349.99
201.576	268.64
201.953	232.48
202.329	291.24
202.706	243.78
203.082	334.17
203.459	316.09
203.835	302.53
204.212	286.72
204.588	311.57
204.964	325.13
205.341	259.6
205.717	352.25
206.093	304.79
206.469	354.51
206.846	322.87
207.222	347.73
207.598	327.39
207.974	277.68
208.35	340.95
208.726	356.77
209.102	304.79
209.479	275.42
209.855	331.91
210.231	325.13
210.607	282.2
210.982	311.57
211.358	325.13
211.734	259.6
212.11	300.27
212.486	277.68
212.862	322.87
213.238	392.93
213.614	390.67
213.989	320.61
214.365	295.75
214.741	302.53
215.116	318.35
215.492	320.61
215.868	334.17
216.243	322.87
216.619	377.11
216.995	345.47
217.37	334.17
217.746	322.87
218.121	286.72
218.497	327.39
218.872	327.39
219.247	345.47
219.623	392.93
219.998	336.43
220.374	264.12
220.749	377.11
221.124	327.39
221.499	347.73
221.875	302.53
222.25	374.85
222.625	295.75
223	311.57
223.376	370.33
223.751	411.01
224.126	343.21
224.501	302.53
224.876	284.46
225.251	354.51
225.626	381.63
226.001	327.39
226.376	304.79
226.751	340.95
227.126	302.53
227.501	417.79
227.875	325.13
228.25	300.27
228.625	277.68
229	322.87
229.375	309.31
229.749	331.91
230.124	368.07
230.499	345.47
230.873	354.51
231.248	340.95
231.623	388.41
231.997	359.03
232.372	354.51
232.746	340.95
233.121	343.21
233.495	318.35
233.87	331.91
234.244	300.27
234.619	408.75
234.993	399.71
235.367	383.89
235.742	411.01
236.116	347.73
236.49	413.27
236.865	368.07
237.239	411.01
237.613	311.57
237.987	316.09
238.361	282.2
238.736	354.51
239.11	379.37
239.484	349.99
239.858	356.77
240.232	349.99
240.606	420.05
240.98	399.71
241.354	411.01
241.728	343.21
242.102	288.98
242.475	372.59
242.849	322.87
243.223	377.11
243.597	386.15
243.971	345.47
244.344	383.89
244.718	386.15
245.092	381.63
245.466	329.65
245.839	386.15
246.213	349.99
246.586	349.99
246.96	329.65
247.334	372.59
247.707	433.6
248.081	359.03
248.454	359.03
248.828	397.45
249.201	331.91
249.574	413.27
249.948	345.47
250.321	354.51
250.694	406.49
251.068	386.15
251.441	379.37
251.814	388.41
252.187	361.29
252.561	420.05
252.934	411.01
253.307	413.27
253.68	349.99
254.053	377.11
254.426	361.29
254.799	435.86
255.172	392.93
255.545	370.33
255.918	401.97
256.291	365.81
256.664	368.07
257.037	377.11
257.41	379.37
257.782	363.55
258.155	359.03
258.528	392.93
258.901	390.67
259.273	392.93
259.646	420.05
260.019	336.43
260.391	331.91
260.764	359.03
261.137	406.49
261.509	383.89
261.882	399.71
262.254	370.33
262.627	386.15
262.999	377.11
263.372	361.29
263.744	392.93
264.116	417.79
264.489	365.81
264.861	392.93
265.233	415.53
265.606	379.37
265.978	363.55
266.35	440.38
266.722	395.19
267.094	392.93
267.467	399.71
267.839	379.37
268.211	420.05
268.583	453.94
268.955	388.41
269.327	374.85
269.699	399.71
270.071	420.05
270.443	386.15
270.815	377.11
271.186	458.46
271.558	370.33
271.93	404.23
272.302	379.37
272.674	388.41
273.045	399.71
273.417	365.81
273.789	381.63
274.16	390.67
274.532	322.87
274.904	347.73
275.275	472.02
275.647	352.25
276.018	388.41
276.39	411.01
276.761	365.81
277.133	390.67
277.504	435.86
277.875	417.79
278.247	453.94
278.618	465.24
278.989	406.49
279.361	379.37
279.732	472.02
280.103	390.67
280.474	420.05
280.846	401.97
281.217	424.57
281.588	447.16
281.959	399.71
282.33	401.97
282.701	397.45
283.072	413.27
283.443	417.79
283.814	399.71
284.185	426.82
284.556	426.82
284.927	417.79
285.297	404.23
285.668	458.46
286.039	467.5
286.41	406.49
286.781	406.49
287.151	440.38
287.522	365.81
287.893	374.85
288.263	336.43
288.634	411.01
289.004	429.08
289.375	411.01
289.745	368.07
290.116	395.19
290.486	426.82
290.857	401.97
291.227	424.57
291.598	340.95
291.968	406.49
292.338	433.6
292.709	456.2
293.079	386.15
293.449	440.38
293.819	386.15
294.189	467.5
294.56	399.71
294.93	469.76
295.3	458.46
295.67	503.66
296.04	467.5
296.41	415.53
296.78	508.18
297.15	388.41
297.52	413.27
297.89	433.6
298.259	404.23
298.629	449.42
298.999	408.75
299.369	440.38
299.739	462.98
300.108	458.46
300.478	422.31
300.848	411.01
301.217	508.18
301.587	481.06
301.957	458.46
302.326	462.98
302.696	451.68
303.065	442.64
303.435	451.68
303.804	496.88
304.174	514.96
304.543	456.2
304.912	388.41
305.282	496.88
305.651	460.72
306.02	408.75
306.39	451.68
306.759	444.9
307.128	440.38
307.497	510.44
307.866	474.28
308.235	465.24
308.604	519.48
308.974	462.98
309.343	542.08
309.712	462.98
310.08	377.11
310.449	496.88
310.818	474.28
311.187	476.54
311.556	438.12
311.925	476.54
312.294	494.62
312.662	467.5
313.031	494.62
313.4	487.84
313.769	526.26
314.137	485.58
314.506	440.38
314.874	501.4
315.243	519.48
315.612	521.74
315.98	490.1
316.349	442.64
316.717	533.04
317.085	524
317.454	505.92
317.822	433.6
318.191	544.34
318.559	422.31
318.927	521.74
319.295	510.44
319.664	503.66
320.032	460.72
320.4	492.36
320.768	483.32
321.136	494.62
321.504	501.4
321.872	537.56
322.24	490.1
322.608	508.18
322.976	469.76
323.344	492.36
323.712	533.04
324.08	524
324.448	510.44
324.816	505.92
325.183	548.86
325.551	467.5
325.919	585.01
326.287	600.83
326.654	533.04
327.022	566.93
327.389	492.36
327.757	469.76
328.125	476.54
328.492	508.18
328.86	557.89
329.227	472.02
329.594	472.02
329.962	535.3
330.329	591.79
330.697	535.3
331.064	598.57
331.431	526.26
331.798	539.82
332.166	546.6
332.533	539.82
332.9	542.08
333.267	562.41
333.634	564.67
334.001	544.34
334.368	548.86
334.735	616.65
335.102	621.17
335.469	557.89
335.836	609.87
336.203	526.26
336.57	582.75
336.937	591.79
337.304	560.15
337.67	639.25
338.037	589.53
338.404	546.6
338.771	596.31
339.137	614.39
339.504	623.43
339.87	679.93
340.237	607.61
340.604	691.22
340.97	652.81
341.337	591.79
341.703	668.63
342.069	682.19
342.436	589.53
342.802	648.29
343.169	605.35
343.535	661.85
343.901	591.79
344.267	569.19
344.634	551.12
345	544.34
345.366	630.21
345.732	648.29
346.098	646.03
346.464	673.15
346.83	605.35
347.196	600.83
347.562	569.19
347.928	621.17
348.294	616.65
348.66	679.93
349.026	700.26
349.392	666.37
349.757	646.03
350.123	655.07
350.489	657.33
350.855	614.39
351.22	673.15
351.586	673.15
351.951	650.55
352.317	700.26
352.683	673.15
353.048	664.11
353.414	727.38
353.779	704.78
354.144	625.69
354.51	707.04
354.875	707.04
355.24	745.46
355.606	792.92
355.971	720.6
356.336	648.29
356.701	786.14
357.067	788.4
357.432	738.68
357.797	768.06
358.162	668.63
358.527	822.29
358.892	813.26
359.257	740.94
359.622	788.4
359.987	826.81
360.352	779.36
360.717	896.87
361.082	749.98
361.446	849.41
361.811	763.54
362.176	815.52
362.541	860.71
362.905	894.61
363.27	856.19
363.635	971.44
363.999	930.77
364.364	917.21
364.728	944.33
365.093	1009.86
365.457	980.48
365.822	892.35
366.186	973.7
366.55	930.77
366.915	991.78
367.279	991.78
367.643	964.66
368.008	1021.16
368.372	1059.58
368.736	1086.69
369.1	1075.4
369.464	1165.79
369.828	1109.29
370.192	1116.07
370.556	1177.09
370.92	1283.3
371.284	1217.76
371.648	1269.74
372.012	1244.88
372.376	1235.84
372.74	1400.81
373.104	1360.13
373.468	1473.13
373.831	1409.85
374.195	1394.03
374.559	1452.79
374.922	1500.24
375.286	1504.76
375.65	1606.45
376.013	1742.04
376.377	1753.34
376.74	1739.78
377.104	1834.7
377.467	2042.6
377.83	2062.94
378.194	2157.85
378.557	2187.23
378.92	2383.84
379.284	2483.27
379.647	2591.74
380.01	2849.36
380.373	3018.85
380.736	3039.19
381.1	3538.61
381.463	3687.76
381.826	3893.4
382.189	4123.9
382.552	4688.86
382.915	4973.6
383.278	5283.19
383.64	5800.69
384.003	6476.38
384.366	6912.53
384.729	7529.46
385.092	8139.62
385.454	8663.9
385.817	9642.4
386.18	10645.77
386.542	11615.23
386.905	12677.35
387.268	13814.04
387.63	15581.23
387.993	16408.33
388.355	18198.11
388.718	20062.47
389.08	21809.31
389.442	23940.33
389.805	25558.37
390.167	27537.98
390.529	30595.52
390.892	34509.54
391.254	36263.17
391.616	39069.88
391.978	43205.36
392.34	47261.75
392.702	49028.94
393.064	52249.19
393.426	54172.3
393.788	56093.16
394.15	57830.97
394.512	59397.03
394.874	61114.49
395.236	62850.04
395.598	64877.11
395.96	65066.93
396.321	65066.93
396.683	65066.93
397.045	65066.93
397.406	65066.93
397.768	65066.93
398.13	65066.93
398.491	65066.93
398.853	65066.93
399.214	65066.93
399.576	65066.93
399.937	65066.93
400.299	65066.93
400.66	65066.93
401.021	65066.93
401.383	65066.93
401.744	65066.93
402.105	65066.93
402.466	65066.93
402.827	65066.93
403.189	65066.93
403.55	65066.93
403.911	65066.93
404.272	65066.93
404.633	65066.93
404.994	65066.93
405.355	65066.93
405.716	65066.93
406.077	65066.93
406.437	65066.93
406.798	65066.93
407.159	65066.93
407.52	65066.93
407.88	65066.93
408.241	65066.93
408.602	65066.93
408.962	65066.93
409.323	65066.93
409.684	65066.93
410.044	65066.93
410.405	65066.93
410.765	65066.93
411.125	65066.93
411.486	65066.93
411.846	65066.93
412.206	65066.93
412.567	65066.93
412.927	65066.93
413.287	65066.93
413.647	65066.93
414.007	65066.93
414.368	65066.93
414.728	65066.93
415.088	65066.93
415.448	65066.93
415.808	65066.93
416.168	65066.93
416.528	65066.93
416.887	65066.93
417.247	65066.93
417.607	65066.93
417.967	65066.93
418.327	65066.93
418.686	65066.93
419.046	65066.93
419.406	65066.93
419.765	65066.93
420.125	65066.93
420.484	65066.93
420.844	65066.93
421.203	65066.93
421.563	64870.33
421.922	64685.02
422.282	62750.61
422.641	61306.58
423	60165.37
423.36	59080.65
423.719	57261.49
424.078	55302.22
424.437	53521.47
424.796	51971.23
425.155	50866.18
425.515	48030.09
425.874	46780.41
426.233	42601.99
426.592	40256.29
426.95	39372.69
427.309	37038.29
427.668	36175.04
428.027	33155.91
428.386	32349.15
428.745	29449.79
429.103	27553.8
429.462	26064.57
429.821	24774.21
430.179	23854.46
430.538	22925.67
430.897	22306.48
431.255	20697.48
431.614	19644.4
431.972	18839.9
432.33	18157.43
432.689	17947.27
433.047	16778.94
433.405	15644.5
433.764	15258.07
434.122	14898.76
434.48	13802.74
434.838	13231.01
435.197	12871.7
435.555	12426.51
435.913	11764.38
436.271	11434.45
436.629	10747.46
436.987	10442.38
437.345	9601.72
437.703	9280.83
438.061	8713.61
438.418	8056
438.776	8126.06
439.134	7929.45
439.492	7479.75
439.849	7043.6
440.207	6605.19
440.565	6546.44
440.922	6221.02
441.28	5798.44
441.637	5757.76
441.995	5414.26
442.352	5122.75
442.71	4876.43
443.067	4725.02
443.425	4539.71
443.782	4510.33
444.139	4367.96
444.496	4212.04
444.854	4162.32
445.211	3699.06
445.568	3879.84
445.925	3638.04
446.282	3509.23
446.639	3434.66
446.996	3339.74
447.353	3323.92
447.71	3294.55
448.067	3172.52
448.424	3007.55
448.781	2842.58
449.137	2768.01
449.494	2718.29
449.851	2569.14
450.208	2435.81
450.564	2356.72
450.921	2187.23
451.278	2194.01
451.634	2329.6
451.991	2148.81
452.347	2157.85
452.704	2015.48
453.06	1897.97
453.416	1897.97
453.773	1805.32
454.129	1742.04
454.485	1622.27
454.841	1669.73
455.198	1626.79
455.554	1436.97
455.91	1534.14
456.266	1581.6
456.622	1459.57
456.978	1405.33
457.334	1281.04
457.69	1321.72
458.046	1308.16
458.402	1305.9
458.758	1201.95
459.114	1222.28
459.469	1138.67
459.825	1107.03
460.181	1095.73
460.536	1116.07
460.892	964.66
461.248	1122.85
461.603	1048.28
461.959	926.25
462.314	939.81
462.67	969.18
463.025	962.4
463.38	928.51
463.736	833.59
464.091	912.69
464.446	975.96
464.802	860.71
465.157	881.05
465.512	824.55
465.867	838.11
466.222	777.1
466.577	792.92
466.932	838.11
467.287	804.22
467.642	765.8
467.997	883.31
468.352	797.44
468.707	745.46
469.062	734.16
469.417	790.66
469.771	731.9
470.126	731.9
470.481	729.64
470.835	768.06
471.19	684.45
471.544	673.15
471.899	725.12
472.253	673.15
472.608	659.59
472.962	664.11
473.317	707.04
473.671	652.81
474.025	641.51
474.38	684.45
474.734	657.33
475.088	713.82
475.442	686.71
475.796	646.03
476.15	648.29
476.504	609.87
476.858	655.07
477.212	569.19
477.566	589.53
477.92	603.09
478.274	578.23
478.628	607.61
478.982	650.55
479.336	625.69
479.689	555.64
480.043	546.6
480.397	573.71
480.75	578.23
481.104	553.38
481.457	585.01
481.811	537.56
482.164	591.79
482.518	553.38
482.871	533.04
483.225	614.39
483.578	664.11
483.931	582.75
484.284	535.3
484.638	580.49
484.991	483.32
485.344	587.27
485.697	598.57
486.05	512.7
486.403	535.3
486.756	591.79
487.109	569.19
487.462	571.45
487.815	533.04
488.168	553.38
488.52	573.71
488.873	603.09
489.226	578.23
489.579	510.44
489.931	528.52
490.284	614.39
490.637	535.3
490.989	537.56
491.342	580.49
491.694	512.7
492.047	494.62
492.399	562.41
492.751	467.5
493.104	530.78
493.456	485.58
493.808	490.1
494.16	499.14
494.513	503.66
494.865	528.52
495.217	465.24
495.569	508.18
495.921	508.18
496.273	478.8
496.625	449.42
496.977	553.38
497.329	512.7
497.68	557.89
498.032	460.72
498.384	557.89
498.736	542.08
499.087	542.08
499.439	494.62
499.791	528.52
500.142	542.08
500.494	460.72
500.845	499.14
501.197	449.42
501.548	571.45
501.9	524
502.251	566.93
502.602	492.36
502.954	526.26
503.305	508.18
503.656	557.89
504.007	533.04
504.358	585.01
504.709	505.92
505.061	591.79
505.412	542.08
505.763	596.31
506.113	589.53
506.464	435.86
506.815	505.92
507.166	535.3
507.517	589.53
507.868	598.57
508.218	526.26
508.569	582.75
508.92	553.38
509.27	614.39
509.621	578.23
509.971	589.53
510.322	587.27
510.672	634.73
511.023	494.62
511.373	639.25
511.723	691.22
512.074	605.35
512.424	517.22
512.774	591.79
513.124	632.47
513.475	684.45
513.825	639.25
514.175	636.99
514.525	591.79
514.875	591.79
515.225	664.11
515.575	673.15
515.924	664.11
516.274	596.31
516.624	664.11
516.974	749.98
517.324	702.52
517.673	709.3
518.023	747.72
518.373	727.38
518.722	720.6
519.072	698
519.421	693.48
519.771	666.37
520.12	675.41
520.469	765.8
520.819	718.34
521.168	718.34
521.517	691.22
521.867	808.74
522.216	693.48
522.565	713.82
522.914	774.84
523.263	745.46
523.612	695.74
523.961	756.76
524.31	594.05
524.659	722.86
525.008	781.62
525.357	835.85
525.705	788.4
526.054	774.84
526.403	826.81
526.752	831.33
527.1	779.36
527.449	754.5
527.797	815.52
528.146	749.98
528.495	804.22
528.843	813.26
529.191	856.19
529.54	781.62
529.888	856.19
530.236	860.71
530.585	831.33
530.933	768.06
531.281	887.83
531.629	849.41
531.977	788.4
532.325	885.57
532.673	876.53
533.021	872.01
533.369	824.55
533.717	824.55
534.065	966.92
534.413	745.46
534.761	896.87
535.108	869.75
535.456	853.93
535.804	747.72
536.151	811
536.499	847.15
536.847	777.1
537.194	824.55
537.542	761.28
537.889	910.43
538.236	840.37
538.584	838.11
538.931	813.26
539.278	829.07
539.626	790.66
539.973	878.79
540.32	919.47
540.667	872.01
541.014	856.19
541.361	747.72
541.708	801.96
542.055	860.71
542.402	792.92
542.749	777.1
543.096	774.84
543.443	774.84
543.789	847.15
544.136	777.1
544.483	862.97
544.83	765.8
545.176	860.71
545.523	890.09
545.869	826.81
546.216	838.11
546.562	817.78
546.909	826.81
547.255	815.52
547.601	892.35
547.948	813.26
548.294	804.22
548.64	727.38
548.986	738.68
549.332	815.52
549.678	847.15
550.025	792.92
550.371	876.53
550.717	786.14
551.062	797.44
551.408	874.27
551.754	779.36
552.1	923.99
552.446	853.93
552.792	885.57
553.137	761.28
553.483	795.18
553.828	856.19
554.174	813.26
554.52	887.83
554.865	899.13
555.211	883.31
555.556	872.01
555.901	865.23
556.247	817.78
556.592	824.55
556.937	928.51
557.282	853.93
557.628	890.09
557.973	1000.82
558.318	865.23
558.663	858.45
559.008	826.81
559.353	894.61
559.698	919.47
560.043	874.27
560.388	840.37
560.732	862.97
561.077	831.33
561.422	883.31
561.766	903.65
562.111	896.87
562.456	905.91
562.8	935.29
563.145	919.47
563.489	948.85
563.834	899.13
564.178	930.77
564.523	942.07
564.867	912.69
565.211	937.55
565.555	912.69
565.9	953.36
566.244	960.14
566.588	923.99
566.932	980.48
567.276	928.51
567.62	942.07
567.964	978.22
568.308	989.52
568.652	989.52
568.996	964.66
569.339	1005.34
569.683	1018.9
570.027	991.78
570.371	1007.6
570.714	838.11
571.058	921.73
571.401	930.77
571.745	908.17
572.088	1052.8
572.432	937.55
572.775	973.7
573.118	1016.64
573.462	926.25
573.805	1012.12
574.148	948.85
574.491	921.73
574.835	856.19
575.178	883.31
575.521	1018.9
575.864	991.78
576.207	926.25
576.55	991.78
576.892	942.07
577.235	944.33
577.578	987.26
577.921	987.26
578.264	980.48
578.606	926.25
578.949	960.14
579.292	939.81
579.634	860.71
579.977	1000.82
580.319	1016.64
580.662	953.36
581.004	987.26
581.346	901.39
581.689	862.97
582.031	885.57
582.373	942.07
582.715	899.13
583.057	858.45
583.4	901.39
583.742	901.39
584.084	1018.9
584.426	896.87
584.768	878.79
585.109	926.25
585.451	887.83
585.793	820.03
586.135	896.87
586.477	876.53
586.818	865.23
587.16	865.23
587.502	835.85
587.843	890.09
588.185	804.22
588.526	817.78
588.868	847.15
589.209	849.41
589.55	792.92
589.892	887.83
590.233	813.26
590.574	804.22
590.915	792.92
591.257	786.14
591.598	815.52
591.939	804.22
592.28	770.32
592.621	738.68
592.962	786.14
593.303	729.64
593.643	725.12
593.984	804.22
594.325	731.9
594.666	797.44
595.006	783.88
595.347	725.12
595.688	725.12
596.028	700.26
596.369	713.82
596.709	743.2
597.05	636.99
597.39	664.11
597.73	725.12
598.071	709.3
598.411	612.13
598.751	738.68
599.091	686.71
599.431	612.13
599.772	646.03
600.112	673.15
600.452	643.77
600.792	729.64
601.132	716.08
601.471	702.52
601.811	643.77
602.151	707.04
602.491	702.52
602.831	607.61
603.17	643.77
603.51	650.55
603.849	659.59
604.189	639.25
604.528	657.33
604.868	639.25
605.207	652.81
605.547	616.65
605.886	575.97
606.225	569.19
606.565	569.19
606.904	612.13
607.243	560.15
607.582	582.75
607.921	587.27
608.26	594.05
608.599	594.05
608.938	612.13
609.277	623.43
609.616	643.77
609.955	553.38
610.293	618.91
610.632	634.73
610.971	587.27
611.309	621.17
611.648	503.66
611.987	641.51
612.325	589.53
612.664	585.01
613.002	524
613.34	512.7
613.679	575.97
614.017	555.64
614.355	569.19
614.694	557.89
615.032	544.34
615.37	594.05
615.708	548.86
616.046	485.58
616.384	566.93
616.722	618.91
617.06	569.19
617.398	569.19
617.736	578.23
618.073	573.71
618.411	492.36
618.749	546.6
619.086	571.45
619.424	578.23
619.762	476.54
620.099	539.82
620.437	578.23
620.774	575.97
621.112	560.15
621.449	634.73
621.786	596.31
622.123	521.74
622.461	490.1
622.798	490.1
623.135	542.08
623.472	578.23
623.809	514.96
624.146	589.53
624.483	560.15
624.82	512.7
625.157	557.89
625.494	494.62
625.83	503.66
626.167	553.38
626.504	519.48
626.841	585.01
627.177	535.3
627.514	625.69
627.85	557.89
628.187	508.18
628.523	555.64
628.86	490.1
629.196	537.56
629.532	483.32
629.869	594.05
630.205	542.08
630.541	499.14
630.877	555.64
631.213	476.54
631.549	512.7
631.885	512.7
632.221	476.54
632.557	496.88
632.893	476.54
633.229	429.08
633.564	449.42
633.9	422.31
634.236	481.06
634.572	512.7
634.907	499.14
635.243	431.34
635.578	465.24
635.914	453.94
636.249	462.98
636.585	404.23
636.92	478.8
637.255	469.76
637.59	462.98
637.926	512.7
638.261	496.88
638.596	483.32
638.931	377.11
639.266	510.44
639.601	415.53
639.936	553.38
640.271	512.7
640.606	408.75
640.94	474.28
641.275	453.94
641.61	462.98
641.945	539.82
642.279	433.6
642.614	444.9
642.948	472.02
643.283	478.8
643.617	462.98
643.952	487.84
644.286	449.42
644.62	417.79
644.955	426.82
645.289	440.38
645.623	368.07
645.957	429.08
646.291	406.49
646.625	433.6
646.959	462.98
647.293	483.32
647.627	388.41
647.961	415.53
648.295	442.64
648.629	379.37
648.962	451.68
649.296	354.51
649.63	420.05
649.963	431.34
650.297	492.36
650.63	478.8
650.964	388.41
651.297	447.16
651.631	372.59
651.964	415.53
652.297	431.34
652.631	361.29
652.964	474.28
653.297	426.82
653.63	453.94
653.963	444.9
654.296	406.49
654.629	377.11
654.962	395.19
655.295	374.85
655.628	356.77
655.961	433.6
656.293	374.85
656.626	386.15
656.959	356.77
657.291	388.41
657.624	361.29
657.956	345.47
658.289	413.27
658.621	440.38
658.954	465.24
659.286	381.63
659.618	368.07
659.95	363.55
660.283	372.59
660.615	298.01
660.947	372.59
661.279	370.33
661.611	356.77
661.943	343.21
662.275	395.19
662.607	372.59
662.939	377.11
663.27	460.72
663.602	356.77
663.934	316.09
664.266	347.73
664.597	372.59
664.929	359.03
665.26	352.25
665.592	359.03
665.923	404.23
666.255	304.79
666.586	338.69
666.917	390.67
667.248	370.33
667.58	311.57
667.911	343.21
668.242	408.75
668.573	352.25
668.904	354.51
669.235	320.61
669.566	336.43
669.897	338.69
670.228	368.07
670.558	300.27
670.889	248.3
671.22	291.24
671.551	270.9
671.881	359.03
672.212	465.24
672.542	288.98
672.873	302.53
673.203	316.09
673.533	415.53
673.864	327.39
674.194	349.99
674.524	352.25
674.855	302.53
675.185	377.11
675.515	331.91
675.845	359.03
676.175	340.95
676.505	334.17
676.835	275.42
677.165	345.47
677.494	379.37
677.824	336.43
678.154	295.75
678.484	370.33
678.813	313.83
679.143	352.25
679.472	368.07
679.802	322.87
680.131	322.87
680.461	295.75
680.79	336.43
681.119	311.57
681.449	313.83
681.778	284.46
682.107	338.69
682.436	295.75
682.765	300.27
683.094	336.43
683.423	273.16
683.752	313.83
684.081	279.94
684.41	320.61
684.739	250.56
685.067	282.2
685.396	304.79
685.725	327.39
686.053	304.79
686.382	288.98
686.711	331.91
687.039	329.65
687.367	291.24
687.696	325.13
688.024	277.68
688.352	327.39
688.681	255.08
689.009	343.21
689.337	291.24
689.665	311.57
689.993	349.99
690.321	270.9
690.649	336.43
690.977	304.79
691.305	277.68
691.633	250.56
691.961	212.14
692.288	311.57
692.616	275.42
692.944	309.31
693.271	352.25
693.599	293.5
693.926	286.72
694.254	279.94
694.581	277.68
694.908	322.87
695.236	363.55
695.563	261.86
695.89	325.13
696.217	316.09
696.544	277.68
696.871	361.29
697.198	300.27
697.525	336.43
697.852	325.13
698.179	275.42
698.506	365.81
698.833	302.53
699.16	343.21
699.486	248.3
699.813	390.67
700.139	340.95
700.466	268.64
700.793	307.05
701.119	356.77
701.445	300.27
701.772	307.05
702.098	250.56
702.424	322.87
702.75	291.24
703.077	309.31
703.403	268.64
703.729	266.38
704.055	291.24
704.381	320.61
704.707	307.05
705.033	234.74
705.358	284.46
705.684	368.07
706.01	302.53
706.336	246.04
706.661	325.13
706.987	374.85
707.312	311.57
707.638	286.72
707.963	340.95
708.289	284.46
708.614	270.9
708.939	304.79
709.265	311.57
709.59	343.21
709.915	354.51
710.24	282.2
710.565	237
710.89	288.98
711.215	250.56
711.54	286.72
711.865	322.87
712.19	318.35
712.515	316.09
712.839	298.01
713.164	273.16
713.489	377.11
713.813	266.38
714.138	250.56
714.462	300.27
714.787	257.34
715.111	246.04
715.435	282.2
715.76	266.38
716.084	282.2
716.408	302.53
716.732	277.68
717.056	318.35
717.381	270.9
717.705	255.08
718.028	288.98
718.352	288.98
718.676	216.66
719	288.98
719.324	300.27
719.648	293.5
719.971	313.83
720.295	259.6
720.618	268.64
720.942	331.91
721.265	259.6
721.589	241.52
721.912	291.24
722.236	270.9
722.559	316.09
722.882	349.99
723.205	277.68
723.528	250.56
723.851	282.2
724.174	205.36
724.497	288.98
724.82	298.01
725.143	277.68
725.466	304.79
725.789	243.78
726.112	266.38
726.434	282.2
726.757	243.78
727.08	248.3
727.402	277.68
727.725	273.16
728.047	327.39
728.37	241.52
728.692	234.74
729.014	313.83
729.336	250.56
729.659	268.64
729.981	248.3
730.303	336.43
730.625	268.64
730.947	374.85
731.269	234.74
731.591	334.17
731.913	257.34
732.235	268.64
732.556	316.09
732.878	273.16
733.2	359.03
733.521	370.33
733.843	286.72
734.164	209.88
734.486	304.79
734.807	216.66
735.129	261.86
735.45	268.64
735.771	255.08
736.092	316.09
736.414	169.2
736.735	270.9
737.056	288.98
737.377	370.33
737.698	295.75
738.019	216.66
738.34	255.08
738.66	359.03
738.981	264.12
739.302	257.34
739.623	304.79
739.943	257.34
740.264	268.64
740.584	302.53
740.905	295.75
741.225	277.68
741.546	275.42
741.866	259.6
742.186	279.94
742.507	237
742.827	268.64
743.147	279.94
743.467	257.34
743.787	221.18
744.107	234.74
744.427	291.24
744.747	248.3
745.067	252.82
745.386	221.18
745.706	218.92
746.026	270.9
746.346	286.72
746.665	298.01
746.985	282.2
747.304	295.75
747.624	243.78
747.943	349.99
748.262	273.16
748.582	230.22
748.901	248.3
749.22	275.42
749.539	266.38
749.858	227.96
750.177	273.16
750.496	340.95
750.815	345.47
751.134	227.96
751.453	277.68
751.772	268.64
752.09	291.24
752.409	239.26
752.728	218.92
753.046	309.31
753.365	209.88
753.683	205.36
754.002	264.12
754.32	273.16
754.639	232.48
754.957	261.86
755.275	266.38
755.593	241.52
755.911	282.2
756.23	286.72
756.548	302.53
756.866	252.82
757.183	221.18
757.501	279.94
757.819	252.82
758.137	264.12
758.455	250.56
758.772	232.48
759.09	234.74
759.408	288.98
759.725	255.08
760.043	286.72
760.36	273.16
760.677	268.64
760.995	246.04
761.312	225.7
761.629	191.8
761.946	259.6
762.264	320.61
762.581	237
762.898	252.82
763.215	291.24
763.532	316.09
763.848	300.27
764.165	277.68
764.482	295.75
764.799	250.56
765.115	223.44
765.432	243.78
765.749	250.56
766.065	313.83
766.382	291.24
766.698	288.98
767.014	230.22
767.331	343.21
767.647	255.08
767.963	298.01
768.279	237
768.595	266.38
768.911	293.5
769.227	291.24
769.543	300.27
769.859	246.04
770.175	246.04
770.491	237
770.807	304.79
771.122	286.72
771.438	338.69
771.754	266.38
772.069	266.38
772.385	255.08
772.7	279.94
773.016	300.27
773.331	302.53
773.646	255.08
773.961	309.31
774.277	246.04
774.592	282.2
774.907	266.38
775.222	196.32
775.537	252.82
775.852	266.38
776.167	275.42
776.482	273.16
776.796	227.96
777.111	259.6
777.426	302.53
777.74	261.86
778.055	243.78
778.369	264.12
778.684	261.86
778.998	286.72
779.313	282.2
779.627	298.01
779.941	221.18
780.255	307.05
780.57	270.9
780.884	239.26
781.198	248.3
781.512	286.72
781.826	230.22
782.14	270.9
782.453	309.31
782.767	239.26
783.081	268.64
783.395	302.53
783.708	322.87
784.022	277.68
784.335	205.36
784.649	214.4
784.962	255.08
785.276	241.52
785.589	275.42
785.902	239.26
786.216	241.52
786.529	259.6
786.842	300.27
787.155	286.72
787.468	239.26
787.781	302.53
788.094	241.52
788.407	230.22
788.72	171.46
789.032	261.86
789.345	273.16
789.658	268.64
789.97	340.95
790.283	313.83
790.595	230.22
790.908	320.61
791.22	266.38
791.532	279.94
791.845	270.9
792.157	311.57
792.469	250.56
792.781	270.9
793.093	293.5
793.405	316.09
793.717	243.78
794.029	264.12
794.341	307.05
794.653	255.08
794.965	232.48
795.276	255.08
795.588	313.83
795.9	302.53
796.211	221.18
796.523	259.6
796.834	302.53
797.146	311.57
797.457	288.98
797.768	284.46
798.08	282.2
798.391	284.46
798.702	250.56
799.013	207.62
799.324	291.24
799.635	212.14
799.946	275.42
800.257	237
800.568	205.36
800.878	241.52
801.189	243.78
801.5	243.78
801.81	302.53
802.121	259.6
802.431	293.5
802.742	243.78
803.052	270.9
803.363	214.4
803.673	277.68
803.983	241.52
804.293	270.9
804.603	304.79
804.913	284.46
805.224	225.7
805.533	298.01
805.843	268.64
806.153	237
806.463	270.9
806.773	252.82
807.083	225.7
807.392	279.94
807.702	264.12
808.011	230.22
808.321	257.34
808.63	207.62
808.94	309.31
809.249	316.09
809.558	291.24
809.868	248.3
810.177	234.74
810.486	264.12
810.795	212.14
811.104	223.44
811.413	268.64
811.722	298.01
812.031	261.86
812.339	282.2
812.648	264.12
812.957	216.66
813.266	266.38
813.574	243.78
813.883	248.3
814.191	275.42
814.5	239.26
814.808	200.84
815.116	273.16
815.424	293.5
815.733	264.12
816.041	277.68
816.349	248.3
816.657	270.9
816.965	311.57
817.273	273.16
817.581	243.78
817.889	279.94
818.196	243.78
818.504	264.12
818.812	300.27
819.12	221.18
819.427	250.56
819.735	307.05
820.042	237
820.349	270.9
820.657	320.61
820.964	225.7
821.271	284.46
821.579	286.72
821.886	291.24
822.193	295.75
822.5	288.98
822.807	225.7
823.114	313.83
823.421	250.56
823.727	286.72
824.034	237
824.341	295.75
824.648	218.92
824.954	279.94
825.261	239.26
825.567	279.94
825.874	248.3
826.18	264.12
826.486	313.83
826.793	261.86
827.099	246.04
827.405	255.08
827.711	316.09
828.017	291.24
828.323	282.2
828.629	268.64
828.935	255.08
829.241	300.27
829.547	259.6
829.852	212.14
830.158	270.9
830.464	255.08
830.769	246.04
831.075	273.16
831.38	250.56
831.686	218.92
831.991	273.16
832.296	284.46
832.601	320.61
832.907	313.83
833.212	196.32
833.517	266.38
833.822	300.27
834.127	241.52
834.432	268.64
834.737	282.2
835.041	191.8
835.346	316.09
835.651	270.9
835.956	230.22
836.26	266.38
836.565	293.5
836.869	309.31
837.174	209.88
837.478	248.3
837.782	320.61
838.087	282.2
838.391	200.84
838.695	241.52
838.999	268.64
839.303	273.16
839.607	295.75
839.911	284.46
840.215	230.22
840.519	205.36
840.822	288.98
841.126	275.42
841.43	259.6
841.733	209.88
842.037	246.04
842.34	288.98
842.644	291.24
842.947	198.58
843.251	250.56
843.554	268.64
843.857	298.01
844.16	282.2
844.463	216.66
844.766	250.56
845.069	246.04
845.372	277.68
845.675	300.27
845.978	277.68
846.281	230.22
846.583	277.68
846.886	313.83
847.189	214.4
847.491	234.74
847.794	259.6
848.096	196.32
848.399	273.16
848.701	216.66
849.003	255.08
849.305	307.05
849.608	216.66
849.91	232.48
850.212	225.7
850.514	246.04
850.816	250.56
851.118	221.18
851.419	261.86
851.721	270.9
852.023	243.78
852.325	185.02
852.626	232.48
852.928	239.26
853.229	237
853.531	273.16
853.832	259.6
854.133	257.34
854.435	246.04
854.736	270.9
855.037	246.04
855.338	293.5
855.639	288.98
855.94	255.08
856.241	250.56
856.542	241.52
856.843	284.46
857.144	223.44
857.444	345.47
857.745	216.66
858.046	284.46
858.346	243.78
858.647	286.72
858.947	252.82
859.247	309.31
859.548	230.22
859.848	284.46
860.148	239.26
860.448	255.08
860.749	255.08
861.049	273.16
861.349	291.24
861.648	268.64
861.948	277.68
862.248	259.6
862.548	212.14
862.848	248.3
863.147	255.08
863.447	277.68
863.746	264.12
864.046	291.24
864.345	282.2
864.645	241.52
864.944	268.64
865.243	286.72
865.542	279.94
865.842	316.09
866.141	270.9
866.44	286.72
866.739	266.38
867.038	261.86
867.337	230.22
867.635	273.16
867.934	288.98
868.233	264.12
868.531	282.2
868.83	300.27
869.129	209.88
869.427	295.75
869.725	264.12
870.024	293.5
870.322	264.12
870.62	252.82
870.918	286.72
871.217	259.6
871.515	225.7
871.813	298.01
872.111	205.36
872.409	302.53
872.706	225.7
873.004	243.78
873.302	286.72
873.6	304.79
873.897	198.58
874.195	255.08
874.492	255.08
874.79	304.79
875.087	266.38
875.384	259.6
875.682	241.52
875.979	232.48
876.276	291.24
876.573	268.64
876.87	268.64
877.167	268.64
