Data from PL_2polymer_F8BT_MEHPPV_USB2H096331_0569.txt Node
Date: Tue Dec 15 16:04:34 CET 2020
User: spadmin
Spectrometer: USB2+H09633
Trigger mode: 0
Integration Time (sec): 1.000000E-2
Scans to average: 1
Electric dark correction enabled: true
Nonlinearity correction enabled: false
Boxcar width: 0
XAxis mode: Wavelengths
Number of Pixels in Spectrum: 2048
>>>>>Begin Spectral Data<<<<<
174.027	-62.43
174.405	-62.43
174.783	-62.43
175.162	-134.74
175.54	-116.66
175.918	-123.44
176.296	-116.66
176.674	-62.43
177.052	-46.61
177.43	-37.57
177.808	-73.73
178.186	-51.13
178.564	-60.17
178.942	-19.49
179.32	-44.35
179.698	41.52
180.076	32.49
180.453	30.23
180.831	9.89
181.209	107.06
181.587	134.18
181.965	156.78
182.342	188.41
182.72	165.81
183.098	172.59
183.475	177.11
183.853	242.65
184.231	172.59
184.608	249.43
184.986	262.99
185.363	278.81
185.741	253.95
186.118	303.66
186.496	290.11
186.873	290.11
187.251	351.12
187.628	296.88
188.006	326.26
188.383	326.26
188.76	305.92
189.138	378.24
189.515	375.98
189.892	409.88
190.27	299.14
190.647	274.29
191.024	342.08
191.401	328.52
191.778	344.34
192.155	256.21
192.533	312.7
192.91	256.21
193.287	244.91
193.664	324
194.041	285.59
194.418	362.42
194.795	308.18
195.172	310.44
195.549	310.44
195.926	253.95
196.302	366.94
196.679	351.12
197.056	317.22
197.433	357.9
197.81	333.04
198.187	326.26
198.563	285.59
198.94	278.81
199.317	294.63
199.693	256.21
200.07	339.82
200.447	303.66
200.823	267.51
201.2	324
201.576	296.88
201.953	287.85
202.329	231.35
202.706	276.55
203.082	364.68
203.459	231.35
203.835	339.82
204.212	380.5
204.588	287.85
204.964	326.26
205.341	312.7
205.717	292.37
206.093	326.26
206.469	344.34
206.846	373.72
207.222	299.14
207.598	278.81
207.974	258.47
208.35	310.44
208.726	326.26
209.102	330.78
209.479	305.92
209.855	305.92
210.231	335.3
210.607	357.9
210.982	269.77
211.358	292.37
211.734	308.18
212.11	287.85
212.486	324
212.862	321.74
213.238	310.44
213.614	317.22
213.989	328.52
214.365	346.6
214.741	296.88
215.116	362.42
215.492	299.14
215.868	357.9
216.243	294.63
216.619	287.85
216.995	321.74
217.37	344.34
217.746	326.26
218.121	337.56
218.497	360.16
218.872	319.48
219.247	240.39
219.623	357.9
219.998	285.59
220.374	326.26
220.749	310.44
221.124	294.63
221.499	342.08
221.875	312.7
222.25	251.69
222.625	382.76
223	328.52
223.376	321.74
223.751	346.6
224.126	330.78
224.501	326.26
224.876	305.92
225.251	330.78
225.626	335.3
226.001	328.52
226.376	362.42
226.751	339.82
227.126	342.08
227.501	378.24
227.875	253.95
228.25	321.74
228.625	378.24
229	387.28
229.375	281.07
229.749	314.96
230.124	337.56
230.499	385.02
230.873	391.8
231.248	344.34
231.623	310.44
231.997	360.16
232.372	357.9
232.746	414.4
233.121	403.1
233.495	403.1
233.87	360.16
234.244	382.76
234.619	287.85
234.993	394.06
235.367	371.46
235.742	353.38
236.116	337.56
236.49	285.59
236.865	353.38
237.239	375.98
237.613	353.38
237.987	364.68
238.361	394.06
238.736	337.56
239.11	328.52
239.484	283.33
239.858	326.26
240.232	396.32
240.606	355.64
240.98	308.18
241.354	398.58
241.728	308.18
242.102	403.1
242.475	409.88
242.849	378.24
243.223	387.28
243.597	385.02
243.971	353.38
244.344	380.5
244.718	337.56
245.092	299.14
245.466	294.63
245.839	333.04
246.213	324
246.586	382.76
246.96	387.28
247.334	346.6
247.707	375.98
248.081	353.38
248.454	360.16
248.828	405.36
249.201	276.55
249.574	348.86
249.948	335.3
250.321	294.63
250.694	371.46
251.068	407.62
251.441	353.38
251.814	369.2
252.187	312.7
252.561	405.36
252.934	333.04
253.307	371.46
253.68	324
254.053	344.34
254.426	387.28
254.799	378.24
255.172	403.1
255.545	335.3
255.918	353.38
256.291	373.72
256.664	391.8
257.037	355.64
257.41	369.2
257.782	375.98
258.155	436.99
258.528	396.32
258.901	357.9
259.273	360.16
259.646	387.28
260.019	312.7
260.391	373.72
260.764	394.06
261.137	423.44
261.509	314.96
261.882	403.1
262.254	375.98
262.627	421.18
262.999	412.14
263.372	434.73
263.744	405.36
264.116	375.98
264.489	387.28
264.861	387.28
265.233	355.64
265.606	353.38
265.978	455.07
266.35	400.84
266.722	436.99
267.094	330.78
267.467	364.68
267.839	385.02
268.211	403.1
268.583	360.16
268.955	371.46
269.327	344.34
269.699	427.95
270.071	364.68
270.443	446.03
270.815	369.2
271.186	362.42
271.558	412.14
271.93	346.6
272.302	400.84
272.674	326.26
273.045	378.24
273.417	416.66
273.789	351.12
274.16	373.72
274.532	382.76
274.904	416.66
275.275	380.5
275.647	425.7
276.018	416.66
276.39	382.76
276.761	337.56
277.133	400.84
277.504	425.7
277.875	427.95
278.247	396.32
278.618	375.98
278.989	403.1
279.361	391.8
279.732	446.03
280.103	414.4
280.474	416.66
280.846	362.42
281.217	414.4
281.588	432.47
281.959	466.37
282.33	371.46
282.701	387.28
283.072	466.37
283.443	369.2
283.814	400.84
284.185	366.94
284.556	427.95
284.927	416.66
285.297	409.88
285.668	394.06
286.039	425.7
286.41	407.62
286.781	373.72
287.151	375.98
287.522	409.88
287.893	389.54
288.263	398.58
288.634	385.02
289.004	432.47
289.375	452.81
289.745	382.76
290.116	414.4
290.486	416.66
290.857	364.68
291.227	425.7
291.598	425.7
291.968	491.23
292.338	464.11
292.709	446.03
293.079	461.85
293.449	436.99
293.819	495.75
294.189	493.49
294.56	430.21
294.93	468.63
295.3	421.18
295.67	500.27
296.04	446.03
296.41	482.19
296.78	470.89
297.15	355.64
297.52	430.21
297.89	407.62
298.259	412.14
298.629	436.99
298.999	441.51
299.369	455.07
299.739	464.11
300.108	522.87
300.478	412.14
300.848	436.99
301.217	436.99
301.587	461.85
301.957	491.23
302.326	427.95
302.696	488.97
303.065	439.25
303.435	450.55
303.804	443.77
304.174	466.37
304.543	398.58
304.912	486.71
305.282	500.27
305.651	482.19
306.02	387.28
306.39	531.91
306.759	427.95
307.128	403.1
307.497	498.01
307.866	448.29
308.235	470.89
308.604	443.77
308.974	434.73
309.343	423.44
309.712	563.54
310.08	412.14
310.449	522.87
310.818	450.55
311.187	538.69
311.556	488.97
311.925	430.21
312.294	448.29
312.662	511.57
313.031	518.35
313.4	495.75
313.769	432.47
314.137	488.97
314.506	468.63
314.874	498.01
315.243	522.87
315.612	507.05
315.98	545.47
316.349	531.91
316.717	520.61
317.085	457.33
317.454	509.31
317.822	443.77
318.191	491.23
318.559	464.11
318.927	547.73
319.295	385.02
319.664	477.67
320.032	493.49
320.4	522.87
320.768	525.13
321.136	563.54
321.504	434.73
321.872	477.67
322.24	500.27
322.608	477.67
322.976	518.35
323.344	491.23
323.712	475.41
324.08	502.53
324.448	529.65
324.816	466.37
325.183	473.15
325.551	531.91
325.919	516.09
326.287	488.97
326.654	556.77
327.022	529.65
327.389	534.17
327.757	527.39
328.125	552.25
328.492	554.51
328.86	484.45
329.227	527.39
329.594	488.97
329.962	556.77
330.329	581.62
330.697	459.59
331.064	577.1
331.431	531.91
331.798	549.99
332.166	545.47
332.533	617.78
332.9	552.25
333.267	563.54
333.634	507.05
334.001	577.1
334.368	559.02
334.735	568.06
335.102	604.22
335.469	529.65
335.836	565.8
336.203	577.1
336.57	599.7
336.937	656.2
337.304	527.39
337.67	470.89
338.037	604.22
338.404	599.7
338.771	579.36
339.137	574.84
339.504	545.47
339.87	588.4
340.237	552.25
340.604	615.52
340.97	626.82
341.337	554.51
341.703	631.34
342.069	563.54
342.436	599.7
342.802	511.57
343.169	644.9
343.535	579.36
343.901	615.52
344.267	640.38
344.634	529.65
345	604.22
345.366	617.78
345.732	606.48
346.098	674.28
346.464	660.72
346.83	649.42
347.196	642.64
347.562	647.16
347.928	597.44
348.294	599.7
348.66	644.9
349.026	613.26
349.392	701.39
349.757	615.52
350.123	644.9
350.489	685.58
350.855	708.17
351.22	717.21
351.586	721.73
351.951	705.91
352.317	717.21
352.683	629.08
353.048	728.51
353.414	726.25
353.779	766.93
354.144	730.77
354.51	742.07
354.875	694.61
355.24	696.87
355.606	719.47
355.971	746.59
356.336	665.24
356.701	696.87
357.067	742.07
357.432	803.09
357.797	733.03
358.162	703.65
358.527	787.27
358.892	748.85
359.257	868.62
359.622	832.46
359.987	807.61
360.352	798.57
360.717	846.02
361.082	836.98
361.446	780.49
361.811	875.4
362.176	895.74
362.541	775.97
362.905	934.16
363.27	902.52
363.635	832.46
363.999	864.1
364.364	918.34
364.728	922.86
365.093	968.05
365.457	970.31
365.822	1006.47
366.186	940.94
366.55	1015.51
366.915	965.79
367.279	970.31
367.643	927.38
368.008	1022.29
368.372	952.23
368.736	999.69
369.1	1092.34
369.464	1085.56
369.828	1108.16
370.192	1092.34
370.556	1142.06
370.92	1196.3
371.284	1112.68
371.648	1171.44
372.012	1225.67
372.376	1169.18
372.74	1395.16
373.104	1297.99
373.468	1354.48
373.831	1377.08
374.195	1571.43
374.559	1571.43
374.922	1519.45
375.286	1508.15
375.65	1596.29
376.013	1657.3
376.377	1704.76
376.74	1738.65
377.104	1847.13
377.467	1928.48
377.83	2136.38
378.194	2122.83
378.557	2229.04
378.92	2416.6
379.284	2500.22
379.647	2744.28
380.01	2692.3
380.373	2884.39
380.736	3112.63
381.1	3512.62
381.463	3596.23
381.826	3831.26
382.189	4140.85
382.552	4538.58
382.915	4821.06
383.278	5358.9
383.64	5819.9
384.003	6192.78
384.366	6771.29
384.729	7426.64
385.092	7880.87
385.454	8450.34
385.817	9444.67
386.18	10405.09
386.542	11211.85
386.905	12536.11
387.268	13573.37
387.63	15155.25
387.993	16368.78
388.355	18034.27
388.718	19835.35
389.08	21139.27
389.442	23471.42
389.805	25335.77
390.167	27150.42
390.529	30653.15
390.892	34036.11
391.254	35843.97
391.616	38616.78
391.978	42596.34
392.34	46670.81
392.702	48485.45
393.064	52049.2
393.426	53985.87
393.788	55836.67
394.15	57366.57
394.512	59052.4
394.874	61038.79
395.236	62778.86
395.598	64487.29
395.96	65059.02
396.321	65059.02
396.683	65059.02
397.045	65059.02
397.406	65059.02
397.768	65059.02
398.13	65059.02
398.491	65059.02
398.853	65059.02
399.214	65059.02
399.576	65059.02
399.937	65059.02
400.299	65059.02
400.66	65059.02
401.021	65059.02
401.383	65059.02
401.744	65059.02
402.105	65059.02
402.466	65059.02
402.827	65059.02
403.189	65059.02
403.55	65059.02
403.911	65059.02
404.272	65059.02
404.633	65059.02
404.994	65059.02
405.355	65059.02
405.716	65059.02
406.077	65059.02
406.437	65059.02
406.798	65059.02
407.159	65059.02
407.52	65059.02
407.88	65059.02
408.241	65059.02
408.602	65059.02
408.962	65059.02
409.323	65059.02
409.684	65059.02
410.044	65059.02
410.405	65059.02
410.765	65059.02
411.125	65059.02
411.486	65059.02
411.846	65059.02
412.206	65059.02
412.567	65059.02
412.927	65059.02
413.287	65059.02
413.647	65059.02
414.007	65059.02
414.368	65059.02
414.728	65059.02
415.088	65059.02
415.448	65059.02
415.808	65059.02
416.168	65059.02
416.528	65059.02
416.887	65059.02
417.247	65059.02
417.607	65059.02
417.967	65059.02
418.327	65059.02
418.686	65059.02
419.046	65059.02
419.406	65059.02
419.765	65059.02
420.125	65059.02
420.484	65059.02
420.844	65059.02
421.203	65059.02
421.563	64598.02
421.922	64281.64
422.282	62591.29
422.641	61056.87
423	59710.01
423.36	58898.73
423.719	56921.38
424.078	55011.83
424.437	53172.33
424.796	51576.89
425.155	50022.13
425.515	47299.04
425.874	46546.52
426.233	42151.15
426.592	40216.74
426.95	39086.83
427.309	36930.95
427.668	35764.88
428.027	32592.08
428.386	32042.94
428.745	28962.8
429.103	27356.06
429.462	26336.88
429.821	24232.98
430.179	23451.08
430.538	23021.71
430.897	22289.53
431.255	20694.09
431.614	19405.99
431.972	18617.31
432.33	18097.55
432.689	17731.45
433.047	16662.56
433.405	15392.53
433.764	15155.25
434.122	14237.76
434.48	13595.97
434.838	13175.64
435.197	12612.95
435.555	12093.18
435.913	11433.32
436.271	11015.25
436.629	10556.5
436.987	9996.06
437.345	9584.78
437.703	9428.85
438.061	8703.44
438.418	8183.68
438.776	7815.33
439.134	7722.68
439.492	7404.04
439.849	6954.34
440.207	6678.64
440.565	6421.02
440.922	6057.19
441.28	5659.46
441.637	5539.68
441.995	5284.32
442.352	5155.51
442.71	4927.27
443.067	4796.2
443.425	4577
443.782	4267.4
444.139	4346.5
444.496	4070.8
444.854	4102.43
445.211	3847.07
445.568	3808.66
445.925	3564.6
446.282	3483.24
446.639	3374.77
446.996	3230.14
447.353	3367.99
447.71	3291.16
448.067	3173.65
448.424	2940.88
448.781	2891.17
449.137	2723.94
449.494	2552.19
449.851	2549.93
450.208	2479.88
450.564	2321.69
450.921	2278.75
451.278	2177.06
451.634	2290.05
451.991	2152.2
452.347	2111.53
452.704	2039.21
453.06	2003.05
453.416	1896.84
453.773	1725.1
454.129	1779.33
454.485	1625.66
454.841	1578.21
455.198	1557.87
455.554	1548.83
455.91	1478.77
456.266	1494.59
456.622	1503.63
456.978	1372.56
457.334	1340.93
457.69	1293.47
458.046	1241.49
458.402	1180.48
458.758	1112.68
459.114	1128.5
459.469	1121.72
459.825	1078.79
460.181	1083.3
460.536	1148.84
460.892	1042.63
461.248	992.91
461.603	1058.45
461.959	1040.37
462.314	943.2
462.67	972.57
463.025	963.53
463.38	904.78
463.736	925.12
464.091	968.05
464.446	918.34
464.802	870.88
465.157	827.94
465.512	821.16
465.867	888.96
466.222	762.41
466.577	814.39
466.932	888.96
467.287	789.53
467.642	807.61
467.997	760.15
468.352	800.83
468.707	712.69
469.062	787.27
469.417	875.4
469.771	676.54
470.126	640.38
470.481	676.54
470.835	705.91
471.19	690.09
471.544	690.09
471.899	669.76
472.253	683.32
472.608	699.13
472.962	651.68
473.317	753.37
473.671	703.65
474.025	604.22
474.38	714.95
474.734	615.52
475.088	681.06
475.442	672.02
475.796	708.17
476.15	674.28
476.504	620.04
476.858	617.78
477.212	651.68
477.566	588.4
477.92	629.08
478.274	601.96
478.628	638.12
478.982	597.44
479.336	676.54
479.689	676.54
480.043	592.92
480.397	588.4
480.75	559.02
481.104	606.48
481.457	540.95
481.811	538.69
482.164	586.14
482.518	549.99
482.871	572.58
483.225	538.69
483.578	599.7
483.931	615.52
484.284	556.77
484.638	534.17
484.991	538.69
485.344	536.43
485.697	554.51
486.05	590.66
486.403	577.1
486.756	516.09
487.109	493.49
487.462	543.21
487.815	633.6
488.168	518.35
488.52	561.28
488.873	531.91
489.226	565.8
489.579	534.17
489.931	536.43
490.284	525.13
490.637	473.15
490.989	577.1
491.342	552.25
491.694	540.95
492.047	518.35
492.399	470.89
492.751	509.31
493.104	511.57
493.456	495.75
493.808	543.21
494.16	479.93
494.513	536.43
494.865	561.28
495.217	446.03
495.569	507.05
495.921	477.67
496.273	457.33
496.625	421.18
496.977	488.97
497.329	468.63
497.68	529.65
498.032	568.06
498.384	549.99
498.736	513.83
499.087	441.51
499.439	545.47
499.791	484.45
500.142	522.87
500.494	547.73
500.845	522.87
501.197	504.79
501.548	538.69
501.9	504.79
502.251	534.17
502.602	545.47
502.954	531.91
503.305	522.87
503.656	531.91
504.007	538.69
504.358	556.77
504.709	502.53
505.061	577.1
505.412	554.51
505.763	504.79
506.113	520.61
506.464	534.17
506.815	547.73
507.166	552.25
507.517	534.17
507.868	581.62
508.218	563.54
508.569	536.43
508.92	592.92
509.27	574.84
509.621	556.77
509.971	565.8
510.322	611
510.672	556.77
511.023	592.92
511.373	577.1
511.723	556.77
512.074	568.06
512.424	658.46
512.774	611
513.124	640.38
513.475	601.96
513.825	595.18
514.175	527.39
514.525	588.4
514.875	577.1
515.225	617.78
515.575	590.66
515.924	617.78
516.274	665.24
516.624	665.24
516.974	613.26
517.324	633.6
517.673	658.46
518.023	590.66
518.373	672.02
518.722	665.24
519.072	665.24
519.421	656.2
519.771	717.21
520.12	699.13
520.469	611
520.819	696.87
521.168	649.42
521.517	690.09
521.867	744.33
522.216	685.58
522.565	690.09
522.914	744.33
523.263	705.91
523.612	674.28
523.961	751.11
524.31	730.77
524.659	712.69
525.008	647.16
525.357	708.17
525.705	712.69
526.054	721.73
526.403	735.29
526.752	730.77
527.1	787.27
527.449	728.51
527.797	785.01
528.146	766.93
528.495	803.09
528.843	733.03
529.191	785.01
529.54	766.93
529.888	791.79
530.236	785.01
530.585	789.53
530.933	773.71
531.281	746.59
531.629	771.45
531.977	830.2
532.325	839.24
532.673	827.94
533.021	794.05
533.369	827.94
533.717	789.53
534.065	757.89
534.413	787.27
534.761	798.57
535.108	775.97
535.456	755.63
535.804	762.41
536.151	785.01
536.499	755.63
536.847	796.31
537.194	796.31
537.542	848.28
537.889	814.39
538.236	803.09
538.584	728.51
538.931	726.25
539.278	690.09
539.626	861.84
539.973	762.41
540.32	769.19
540.667	818.91
541.014	735.29
541.361	744.33
541.708	787.27
542.055	753.37
542.402	796.31
542.749	766.93
543.096	723.99
543.443	778.23
543.789	769.19
544.136	836.98
544.483	705.91
544.83	800.83
545.176	755.63
545.523	760.15
545.869	814.39
546.216	834.72
546.562	728.51
546.909	764.67
547.255	760.15
547.601	746.59
547.948	803.09
548.294	791.79
548.64	780.49
548.986	814.39
549.332	798.57
549.678	791.79
550.025	798.57
550.371	827.94
550.717	834.72
551.062	764.67
551.408	780.49
551.754	809.87
552.1	866.36
552.446	805.35
552.792	800.83
553.137	812.13
553.483	879.92
553.828	814.39
554.174	875.4
554.52	746.59
554.865	778.23
555.211	803.09
555.556	857.32
555.901	891.22
556.247	898
556.592	836.98
556.937	882.18
557.282	877.66
557.628	852.8
557.973	902.52
558.318	859.58
558.663	873.14
559.008	952.23
559.353	834.72
559.698	938.68
560.043	909.3
560.388	968.05
560.732	922.86
561.077	974.83
561.422	934.16
561.766	986.13
562.111	886.7
562.456	918.34
562.8	963.53
563.145	954.49
563.489	983.87
563.834	1058.45
564.178	922.86
564.523	1067.49
564.867	1042.63
565.211	1078.79
565.555	1031.33
565.9	1072.01
566.244	992.91
566.588	1083.3
566.932	1062.97
567.276	1069.75
567.62	1053.93
567.964	1065.23
568.308	1112.68
568.652	1056.19
568.996	1142.06
569.339	1092.34
569.683	1103.64
570.027	1155.62
570.371	1133.02
570.714	1062.97
571.058	1119.46
571.401	1139.8
571.745	1227.93
572.088	1191.78
572.432	1246.01
572.775	1185
573.118	1234.71
573.462	1117.2
573.805	1293.47
574.148	1108.16
574.491	1207.6
574.835	1194.04
575.178	1243.75
575.521	1255.05
575.864	1236.97
576.207	1205.34
576.55	1178.22
576.892	1214.37
577.235	1212.12
577.578	1169.18
577.921	1180.48
578.264	1185
578.606	1234.71
578.949	1300.25
579.292	1243.75
579.634	1185
579.977	1252.79
580.319	1230.19
580.662	1266.35
581.004	1178.22
581.346	1178.22
581.689	1198.56
582.031	1169.18
582.373	1187.26
582.715	1212.12
583.057	1214.37
583.4	1185
583.742	1173.7
584.084	1239.23
584.426	1119.46
584.768	1182.74
585.109	1139.8
585.451	1173.7
585.793	1166.92
586.135	1119.46
586.477	1110.42
586.818	1112.68
587.16	1205.34
587.502	1169.18
587.843	1096.86
588.185	1128.5
588.526	1015.51
588.868	1015.51
589.209	1155.62
589.55	1065.23
589.892	1006.47
590.233	1010.99
590.574	1072.01
590.915	1114.94
591.257	1065.23
591.598	1017.77
591.939	970.31
592.28	974.83
592.621	968.05
592.962	995.17
593.303	986.13
593.643	974.83
593.984	934.16
594.325	954.49
594.666	904.78
595.006	934.16
595.347	902.52
595.688	936.42
596.028	920.6
596.369	922.86
596.709	827.94
597.05	949.98
597.39	832.46
597.73	875.4
598.071	830.2
598.411	929.64
598.751	870.88
599.091	909.3
599.431	830.2
599.772	800.83
600.112	796.31
600.452	785.01
600.792	877.66
601.132	789.53
601.471	775.97
601.811	789.53
602.151	746.59
602.491	726.25
602.831	721.73
603.17	739.81
603.51	780.49
603.849	714.95
604.189	762.41
604.528	726.25
604.868	717.21
605.207	696.87
605.547	708.17
605.886	694.61
606.225	737.55
606.565	701.39
606.904	690.09
607.243	766.93
607.582	737.55
607.921	794.05
608.26	717.21
608.599	708.17
608.938	676.54
609.277	649.42
609.616	658.46
609.955	694.61
610.293	617.78
610.632	638.12
610.971	694.61
611.309	658.46
611.648	690.09
611.987	730.77
612.325	703.65
612.664	629.08
613.002	703.65
613.34	640.38
613.679	651.68
614.017	656.2
614.355	635.86
614.694	601.96
615.032	687.84
615.37	674.28
615.708	676.54
616.046	642.64
616.384	597.44
616.722	662.98
617.06	721.73
617.398	638.12
617.736	699.13
618.073	649.42
618.411	699.13
618.749	590.66
619.086	660.72
619.424	649.42
619.762	644.9
620.099	660.72
620.437	642.64
620.774	642.64
621.112	742.07
621.449	622.3
621.786	692.35
622.123	549.99
622.461	649.42
622.798	742.07
623.135	626.82
623.472	658.46
623.809	644.9
624.146	658.46
624.483	608.74
624.82	755.63
625.157	658.46
625.494	703.65
625.83	647.16
626.167	662.98
626.504	649.42
626.841	683.32
627.177	653.94
627.514	617.78
627.85	635.86
628.187	699.13
628.523	638.12
628.86	690.09
629.196	620.04
629.532	665.24
629.869	626.82
630.205	635.86
630.541	577.1
630.877	608.74
631.213	617.78
631.549	561.28
631.885	577.1
632.221	597.44
632.557	574.84
632.893	642.64
633.229	588.4
633.564	690.09
633.9	622.3
634.236	565.8
634.572	622.3
634.907	633.6
635.243	570.32
635.578	588.4
635.914	617.78
636.249	545.47
636.585	586.14
636.92	601.96
637.255	577.1
637.59	601.96
637.926	604.22
638.261	559.02
638.596	647.16
638.931	570.32
639.266	631.34
639.601	590.66
639.936	570.32
640.271	534.17
640.606	518.35
640.94	507.05
641.275	597.44
641.61	540.95
641.945	583.88
642.279	642.64
642.614	549.99
642.948	477.67
643.283	572.58
643.617	488.97
643.952	547.73
644.286	565.8
644.62	446.03
644.955	545.47
645.289	581.62
645.623	509.31
645.957	504.79
646.291	464.11
646.625	484.45
646.959	547.73
647.293	540.95
647.627	464.11
647.961	464.11
648.295	466.37
648.629	518.35
648.962	513.83
649.296	518.35
649.63	459.59
649.963	507.05
650.297	536.43
650.63	502.53
650.964	477.67
651.297	468.63
651.631	486.71
651.964	441.51
652.297	522.87
652.631	446.03
652.964	436.99
653.297	439.25
653.63	382.76
653.963	477.67
654.296	459.59
654.629	486.71
654.962	455.07
655.295	391.8
655.628	493.49
655.961	452.81
656.293	470.89
656.626	475.41
656.959	448.29
657.291	475.41
657.624	507.05
657.956	459.59
658.289	436.99
658.621	389.54
658.954	403.1
659.286	409.88
659.618	421.18
659.95	446.03
660.283	434.73
660.615	407.62
660.947	405.36
661.279	405.36
661.611	396.32
661.943	355.64
662.275	405.36
662.607	470.89
662.939	448.29
663.27	387.28
663.602	414.4
663.934	443.77
664.266	324
664.597	425.7
664.929	351.12
665.26	389.54
665.592	405.36
665.923	364.68
666.255	394.06
666.586	405.36
666.917	373.72
667.248	398.58
667.58	425.7
667.911	373.72
668.242	423.44
668.573	378.24
668.904	405.36
669.235	328.52
669.566	317.22
669.897	400.84
670.228	412.14
670.558	364.68
670.889	353.38
671.22	446.03
671.551	387.28
671.881	389.54
672.212	400.84
672.542	382.76
672.873	418.92
673.203	414.4
673.533	378.24
673.864	385.02
674.194	324
674.524	418.92
674.855	403.1
675.185	362.42
675.515	398.58
675.845	337.56
676.175	342.08
676.505	394.06
676.835	364.68
677.165	373.72
677.494	362.42
677.824	355.64
678.154	285.59
678.484	375.98
678.813	378.24
679.143	364.68
679.472	335.3
679.802	378.24
680.131	353.38
680.461	371.46
680.79	366.94
681.119	326.26
681.449	418.92
681.778	351.12
682.107	278.81
682.436	342.08
682.765	351.12
683.094	321.74
683.423	373.72
683.752	412.14
684.081	339.82
684.41	353.38
684.739	362.42
685.067	321.74
685.396	423.44
685.725	375.98
686.053	344.34
686.382	391.8
686.711	342.08
687.039	362.42
687.367	267.51
687.696	344.34
688.024	360.16
688.352	389.54
688.681	396.32
689.009	317.22
689.337	400.84
689.665	312.7
689.993	321.74
690.321	339.82
690.649	360.16
690.977	292.37
691.305	317.22
691.633	319.48
691.961	360.16
692.288	326.26
692.616	333.04
692.944	355.64
693.271	321.74
693.599	303.66
693.926	321.74
694.254	305.92
694.581	335.3
694.908	314.96
695.236	265.25
695.563	294.63
695.89	326.26
696.217	344.34
696.544	353.38
696.871	312.7
697.198	321.74
697.525	337.56
697.852	324
698.179	242.65
698.506	305.92
698.833	355.64
699.16	346.6
699.486	305.92
699.813	333.04
700.139	353.38
700.466	290.11
700.793	360.16
701.119	324
701.445	342.08
701.772	276.55
702.098	326.26
702.424	335.3
702.75	344.34
703.077	314.96
703.403	314.96
703.729	317.22
704.055	317.22
704.381	344.34
704.707	348.86
705.033	337.56
705.358	292.37
705.684	333.04
706.01	314.96
706.336	314.96
706.661	310.44
706.987	290.11
707.312	321.74
707.638	387.28
707.963	301.4
708.289	324
708.614	342.08
708.939	310.44
709.265	310.44
709.59	256.21
709.915	312.7
710.24	287.85
710.565	308.18
710.89	310.44
711.215	317.22
711.54	305.92
711.865	256.21
712.19	394.06
712.515	274.29
712.839	312.7
713.164	333.04
713.489	272.03
713.813	285.59
714.138	301.4
714.462	299.14
714.787	283.33
715.111	310.44
715.435	353.38
715.76	305.92
716.084	290.11
716.408	333.04
716.732	260.73
717.056	287.85
717.381	321.74
717.705	351.12
718.028	269.77
718.352	285.59
718.676	278.81
719	269.77
719.324	321.74
719.648	256.21
719.971	285.59
720.295	287.85
720.618	256.21
720.942	276.55
721.265	299.14
721.589	362.42
721.912	251.69
722.236	296.88
722.559	308.18
722.882	303.66
723.205	310.44
723.528	258.47
723.851	267.51
724.174	274.29
724.497	274.29
724.82	317.22
725.143	262.99
725.466	265.25
725.789	265.25
726.112	317.22
726.434	305.92
726.757	314.96
727.08	269.77
727.402	213.27
727.725	276.55
728.047	296.88
728.37	253.95
728.692	283.33
729.014	310.44
729.336	267.51
729.659	272.03
729.981	299.14
730.303	319.48
730.625	296.88
730.947	292.37
731.269	265.25
731.591	312.7
731.913	324
732.235	366.94
732.556	278.81
732.878	301.4
733.2	247.17
733.521	276.55
733.843	305.92
734.164	317.22
734.486	305.92
734.807	267.51
735.129	308.18
735.45	199.71
735.771	201.97
736.092	292.37
736.414	321.74
736.735	290.11
737.056	285.59
737.377	301.4
737.698	235.87
738.019	262.99
738.34	314.96
738.66	251.69
738.981	278.81
739.302	283.33
739.623	314.96
739.943	253.95
740.264	305.92
740.584	251.69
740.905	253.95
741.225	314.96
741.546	337.56
741.866	366.94
742.186	310.44
742.507	267.51
742.827	328.52
743.147	319.48
743.467	260.73
743.787	260.73
744.107	265.25
744.427	312.7
744.747	330.78
745.067	294.63
745.386	292.37
745.706	319.48
746.026	267.51
746.346	260.73
746.665	319.48
746.985	290.11
747.304	274.29
747.624	238.13
747.943	224.57
748.262	339.82
748.582	229.09
748.901	287.85
749.22	215.53
749.539	312.7
749.858	324
750.177	262.99
750.496	321.74
750.815	262.99
751.134	269.77
751.453	222.31
751.772	260.73
752.09	272.03
752.409	253.95
752.728	269.77
753.046	294.63
753.365	249.43
753.683	360.16
754.002	258.47
754.32	235.87
754.639	294.63
754.957	215.53
755.275	238.13
755.593	262.99
755.911	283.33
756.23	290.11
756.548	229.09
756.866	342.08
757.183	312.7
757.501	290.11
757.819	303.66
758.137	285.59
758.455	285.59
758.772	253.95
759.09	242.65
759.408	292.37
759.725	281.07
760.043	260.73
760.36	285.59
760.677	310.44
760.995	260.73
761.312	260.73
761.629	242.65
761.946	294.63
762.264	262.99
762.581	240.39
762.898	296.88
763.215	251.69
763.532	326.26
763.848	247.17
764.165	296.88
764.482	326.26
764.799	253.95
765.115	233.61
765.432	324
765.749	247.17
766.065	244.91
766.382	314.96
766.698	274.29
767.014	269.77
767.331	249.43
767.647	339.82
767.963	231.35
768.279	281.07
768.595	278.81
768.911	238.13
769.227	278.81
769.543	240.39
769.859	265.25
770.175	292.37
770.491	267.51
770.807	281.07
771.122	328.52
771.438	276.55
771.754	324
772.069	253.95
772.385	229.09
772.7	226.83
773.016	314.96
773.331	274.29
773.646	276.55
773.961	342.08
774.277	211.01
774.592	262.99
774.907	262.99
775.222	217.79
775.537	206.49
775.852	251.69
776.167	290.11
776.482	308.18
776.796	312.7
777.111	231.35
777.426	287.85
777.74	262.99
778.055	222.31
778.369	285.59
778.684	308.18
778.998	262.99
779.313	274.29
779.627	283.33
779.941	274.29
780.255	274.29
780.57	281.07
780.884	251.69
781.198	265.25
781.512	265.25
781.826	274.29
782.14	199.71
782.453	351.12
782.767	233.61
783.081	324
783.395	262.99
783.708	285.59
784.022	267.51
784.335	260.73
784.649	267.51
784.962	299.14
785.276	256.21
785.589	292.37
785.902	226.83
786.216	262.99
786.529	321.74
786.842	296.88
787.155	260.73
787.468	222.31
787.781	326.26
788.094	296.88
788.407	249.43
788.72	294.63
789.032	272.03
789.345	258.47
789.658	305.92
789.97	231.35
790.283	281.07
790.595	233.61
790.908	333.04
791.22	344.34
791.532	247.17
791.845	272.03
792.157	344.34
792.469	321.74
792.781	292.37
793.093	296.88
793.405	272.03
793.717	296.88
794.029	247.17
794.341	292.37
794.653	251.69
794.965	256.21
795.276	287.85
795.588	285.59
795.9	296.88
796.211	360.16
796.523	269.77
796.834	247.17
797.146	265.25
797.457	272.03
797.768	251.69
798.08	206.49
798.391	296.88
798.702	242.65
799.013	290.11
799.324	238.13
799.635	303.66
799.946	287.85
800.257	285.59
800.568	308.18
800.878	233.61
801.189	249.43
801.5	276.55
801.81	281.07
802.121	247.17
802.431	206.49
802.742	240.39
803.052	260.73
803.363	217.79
803.673	249.43
803.983	224.57
804.293	181.63
804.603	247.17
804.913	287.85
805.224	256.21
805.533	303.66
805.843	240.39
806.153	213.27
806.463	247.17
806.773	305.92
807.083	240.39
807.392	242.65
807.702	238.13
808.011	285.59
808.321	299.14
808.63	260.73
808.94	344.34
809.249	281.07
809.558	265.25
809.868	324
810.177	285.59
810.486	226.83
810.795	281.07
811.104	319.48
811.413	321.74
811.722	272.03
812.031	272.03
812.339	262.99
812.648	244.91
812.957	211.01
813.266	292.37
813.574	283.33
813.883	274.29
814.191	235.87
814.5	233.61
814.808	179.37
815.116	226.83
815.424	220.05
815.733	292.37
816.041	301.4
816.349	265.25
816.657	281.07
816.965	229.09
817.273	265.25
817.581	233.61
817.889	312.7
818.196	287.85
818.504	310.44
818.812	278.81
819.12	265.25
819.427	258.47
819.735	339.82
820.042	283.33
820.349	290.11
820.657	231.35
820.964	305.92
821.271	303.66
821.579	308.18
821.886	278.81
822.193	240.39
822.5	326.26
822.807	267.51
823.114	229.09
823.421	265.25
823.727	253.95
824.034	308.18
824.341	260.73
824.648	249.43
824.954	283.33
825.261	229.09
825.567	235.87
825.874	262.99
826.18	253.95
826.486	267.51
826.793	321.74
827.099	319.48
827.405	256.21
827.711	285.59
828.017	310.44
828.323	224.57
828.629	292.37
828.935	267.51
829.241	215.53
829.547	244.91
829.852	272.03
830.158	256.21
830.464	244.91
830.769	294.63
831.075	240.39
831.38	256.21
831.686	244.91
831.991	269.77
832.296	201.97
832.601	179.37
832.907	303.66
833.212	217.79
833.517	278.81
833.822	256.21
834.127	231.35
834.432	312.7
834.737	294.63
835.041	305.92
835.346	274.29
835.651	276.55
835.956	292.37
836.26	256.21
836.565	326.26
836.869	251.69
837.174	211.01
837.478	217.79
837.782	242.65
838.087	195.19
838.391	240.39
838.695	290.11
838.999	274.29
839.303	251.69
839.607	256.21
839.911	310.44
840.215	296.88
840.519	226.83
840.822	294.63
841.126	231.35
841.43	211.01
841.733	260.73
842.037	242.65
842.34	278.81
842.644	240.39
842.947	310.44
843.251	213.27
843.554	278.81
843.857	262.99
844.16	324
844.463	292.37
844.766	274.29
845.069	242.65
845.372	215.53
845.675	229.09
845.978	285.59
846.281	256.21
846.583	269.77
846.886	294.63
847.189	312.7
847.491	258.47
847.794	317.22
848.096	269.77
848.399	276.55
848.701	274.29
849.003	292.37
849.305	292.37
849.608	247.17
849.91	199.71
850.212	290.11
850.514	292.37
850.816	233.61
851.118	287.85
851.419	242.65
851.721	328.52
852.023	278.81
852.325	249.43
852.626	258.47
852.928	281.07
853.229	292.37
853.531	278.81
853.832	290.11
854.133	242.65
854.435	181.63
854.736	272.03
855.037	272.03
855.338	235.87
855.639	242.65
855.94	253.95
856.241	199.71
856.542	314.96
856.843	217.79
857.144	314.96
857.444	220.05
857.745	240.39
858.046	220.05
858.346	231.35
858.647	247.17
858.947	319.48
859.247	172.59
859.548	258.47
859.848	244.91
860.148	333.04
860.448	294.63
860.749	235.87
861.049	215.53
861.349	274.29
861.648	305.92
861.948	287.85
862.248	208.75
862.548	294.63
862.848	251.69
863.147	242.65
863.447	308.18
863.746	274.29
864.046	260.73
864.345	326.26
864.645	229.09
864.944	213.27
865.243	317.22
865.542	208.75
865.842	285.59
866.141	351.12
866.44	305.92
866.739	272.03
867.038	278.81
867.337	244.91
867.635	294.63
867.934	258.47
868.233	260.73
868.531	258.47
868.83	240.39
869.129	249.43
869.427	253.95
869.725	296.88
870.024	285.59
870.322	249.43
870.62	278.81
870.918	305.92
871.217	244.91
871.515	222.31
871.813	281.07
872.111	274.29
872.409	278.81
872.706	278.81
873.004	287.85
873.302	290.11
873.6	260.73
873.897	220.05
874.195	269.77
874.492	287.85
874.79	283.33
875.087	285.59
875.384	294.63
875.682	256.21
875.979	251.69
876.276	272.03
876.573	229.09
876.87	229.09
877.167	229.09
