Data from PL_2polymer_F8BT_MEHPPV_USB2H096331_0637.txt Node
Date: Tue Dec 15 16:04:35 CET 2020
User: spadmin
Spectrometer: USB2+H09633
Trigger mode: 0
Integration Time (sec): 1.000000E-2
Scans to average: 1
Electric dark correction enabled: true
Nonlinearity correction enabled: false
Boxcar width: 0
XAxis mode: Wavelengths
Number of Pixels in Spectrum: 2048
>>>>>Begin Spectral Data<<<<<
174.027	-57.77
174.405	-57.77
174.783	-57.77
175.162	-105.22
175.54	-100.7
175.918	-125.56
176.296	-91.66
176.674	-75.85
177.052	-121.04
177.43	-69.07
177.808	-62.29
178.186	-28.39
178.564	-116.52
178.942	10.03
179.32	52.96
179.698	34.89
180.076	93.64
180.453	73.3
180.831	-10.31
181.209	46.19
181.587	125.28
181.965	138.84
182.342	113.98
182.72	175
183.098	170.48
183.475	272.17
183.853	283.47
184.231	226.97
184.608	251.83
184.986	202.11
185.363	254.09
185.741	247.31
186.118	265.39
186.496	380.64
186.873	333.18
187.251	315.1
187.628	367.08
188.006	342.22
188.383	324.14
188.76	385.16
189.138	342.22
189.515	344.48
189.892	358.04
190.27	382.9
190.647	385.16
191.024	283.47
191.401	339.96
191.778	344.48
192.155	306.07
192.533	312.84
192.91	376.12
193.287	254.09
193.664	346.74
194.041	324.14
194.418	333.18
194.795	330.92
195.172	342.22
195.549	308.33
195.926	326.4
196.302	290.25
196.679	308.33
197.056	324.14
197.433	283.47
197.81	274.43
198.187	321.88
198.563	276.69
198.94	367.08
199.317	367.08
199.693	371.6
200.07	285.73
200.447	297.03
200.823	315.1
201.2	301.55
201.576	351.26
201.953	285.73
202.329	290.25
202.706	249.57
203.082	276.69
203.459	344.48
203.835	290.25
204.212	276.69
204.588	315.1
204.964	342.22
205.341	249.57
205.717	385.16
206.093	292.51
206.469	297.03
206.846	346.74
207.222	310.59
207.598	245.05
207.974	272.17
208.35	281.21
208.726	355.78
209.102	287.99
209.479	283.47
209.855	281.21
210.231	342.22
210.607	360.3
210.982	321.88
211.358	283.47
211.734	330.92
212.11	308.33
212.486	321.88
212.862	342.22
213.238	310.59
213.614	346.74
213.989	349
214.365	312.84
214.741	364.82
215.116	312.84
215.492	290.25
215.868	319.62
216.243	326.4
216.619	355.78
216.995	310.59
217.37	346.74
217.746	290.25
218.121	330.92
218.497	281.21
218.872	369.34
219.247	328.66
219.623	342.22
219.998	344.48
220.374	353.52
220.749	308.33
221.124	328.66
221.499	344.48
221.875	308.33
222.25	351.26
222.625	315.1
223	319.62
223.376	353.52
223.751	339.96
224.126	371.6
224.501	324.14
224.876	394.2
225.251	342.22
225.626	371.6
226.001	242.79
226.376	346.74
226.751	349
227.126	369.34
227.501	362.56
227.875	344.48
228.25	369.34
228.625	360.3
229	310.59
229.375	373.86
229.749	344.48
230.124	376.12
230.499	373.86
230.873	398.72
231.248	299.29
231.623	339.96
231.997	274.43
232.372	355.78
232.746	367.08
233.121	373.86
233.495	285.73
233.87	382.9
234.244	337.7
234.619	423.58
234.993	321.88
235.367	419.06
235.742	428.1
236.116	428.1
236.49	344.48
236.865	299.29
237.239	353.52
237.613	330.92
237.987	342.22
238.361	342.22
238.736	328.66
239.11	452.95
239.484	339.96
239.858	367.08
240.232	362.56
240.606	394.2
240.98	434.88
241.354	396.46
241.728	407.76
242.102	333.18
242.475	326.4
242.849	349
243.223	355.78
243.597	369.34
243.971	369.34
244.344	396.46
244.718	315.1
245.092	321.88
245.466	419.06
245.839	385.16
246.213	342.22
246.586	312.84
246.96	396.46
247.334	387.42
247.707	403.24
248.081	396.46
248.454	326.4
248.828	303.81
249.201	339.96
249.574	394.2
249.948	301.55
250.321	414.54
250.694	362.56
251.068	324.14
251.441	389.68
251.814	330.92
252.187	441.66
252.561	464.25
252.934	382.9
253.307	344.48
253.68	385.16
254.053	337.7
254.426	326.4
254.799	346.74
255.172	403.24
255.545	396.46
255.918	441.66
256.291	360.3
256.664	358.04
257.037	342.22
257.41	412.28
257.782	360.3
258.155	434.88
258.528	387.42
258.901	459.73
259.273	333.18
259.646	380.64
260.019	407.76
260.391	412.28
260.764	432.62
261.137	405.5
261.509	398.72
261.882	376.12
262.254	387.42
262.627	389.68
262.999	410.02
263.372	405.5
263.744	367.08
264.116	344.48
264.489	351.26
264.861	396.46
265.233	389.68
265.606	285.73
265.978	333.18
266.35	373.86
266.722	301.55
267.094	342.22
267.467	387.42
267.839	385.16
268.211	355.78
268.583	351.26
268.955	328.66
269.327	380.64
269.699	335.44
270.071	419.06
270.443	412.28
270.815	396.46
271.186	412.28
271.558	369.34
271.93	385.16
272.302	378.38
272.674	342.22
273.045	376.12
273.417	405.5
273.789	398.72
274.16	391.94
274.532	346.74
274.904	346.74
275.275	351.26
275.647	378.38
276.018	428.1
276.39	410.02
276.761	355.78
277.133	443.91
277.504	394.2
277.875	455.21
278.247	396.46
278.618	405.5
278.989	358.04
279.361	403.24
279.732	373.86
280.103	342.22
280.474	396.46
280.846	461.99
281.217	428.1
281.588	410.02
281.959	360.3
282.33	385.16
282.701	428.1
283.072	468.77
283.443	421.32
283.814	371.6
284.185	337.7
284.556	398.72
284.927	387.42
285.297	369.34
285.668	439.4
286.039	430.36
286.41	405.5
286.781	437.14
287.151	428.1
287.522	346.74
287.893	446.17
288.263	362.56
288.634	421.32
289.004	414.54
289.375	421.32
289.745	448.43
290.116	355.78
290.486	495.89
290.857	382.9
291.227	407.76
291.598	403.24
291.968	403.24
292.338	351.26
292.709	349
293.079	437.14
293.449	419.06
293.819	428.1
294.189	466.51
294.56	455.21
294.93	428.1
295.3	428.1
295.67	448.43
296.04	480.07
296.41	421.32
296.78	477.81
297.15	405.5
297.52	441.66
297.89	403.24
298.259	437.14
298.629	475.55
298.999	421.32
299.369	387.42
299.739	448.43
300.108	459.73
300.478	455.21
300.848	491.37
301.217	428.1
301.587	495.89
301.957	400.98
302.326	455.21
302.696	468.77
303.065	477.81
303.435	441.66
303.804	523.01
304.174	441.66
304.543	543.35
304.912	455.21
305.282	464.25
305.651	419.06
306.02	502.67
306.39	484.59
306.759	446.17
307.128	495.89
307.497	525.27
307.866	405.5
308.235	475.55
308.604	423.58
308.974	430.36
309.343	457.47
309.712	419.06
310.08	468.77
310.449	405.5
310.818	468.77
311.187	425.84
311.556	475.55
311.925	500.41
312.294	529.79
312.662	534.31
313.031	532.05
313.4	459.73
313.769	446.17
314.137	466.51
314.506	407.76
314.874	468.77
315.243	461.99
315.612	534.31
315.98	509.45
316.349	432.62
316.717	491.37
317.085	412.28
317.454	446.17
317.822	468.77
318.191	518.49
318.559	486.85
318.927	500.41
319.295	516.23
319.664	491.37
320.032	455.21
320.4	559.17
320.768	595.32
321.136	475.55
321.504	419.06
321.872	534.31
322.24	455.21
322.608	552.39
322.976	480.07
323.344	504.93
323.712	529.79
324.08	518.49
324.448	504.93
324.816	507.19
325.183	430.36
325.551	491.37
325.919	459.73
326.287	466.51
326.654	495.89
327.022	559.17
327.389	556.91
327.757	556.91
328.125	511.71
328.492	541.09
328.86	439.4
329.227	482.33
329.594	523.01
329.962	538.83
330.329	477.81
330.697	599.84
331.064	541.09
331.431	495.89
331.798	538.83
332.166	568.21
332.533	579.5
332.9	511.71
333.267	509.45
333.634	606.62
334.001	590.8
334.368	572.73
334.735	613.4
335.102	584.02
335.469	543.35
335.836	529.79
336.203	572.73
336.57	574.98
336.937	559.17
337.304	572.73
337.67	590.8
338.037	606.62
338.404	536.57
338.771	593.06
339.137	586.28
339.504	584.02
339.87	595.32
340.237	563.69
340.604	631.48
340.97	588.54
341.337	654.08
341.703	606.62
342.069	584.02
342.436	586.28
342.802	568.21
343.169	593.06
343.535	599.84
343.901	608.88
344.267	640.52
344.634	599.84
345	532.05
345.366	556.91
345.732	640.52
346.098	642.78
346.464	631.48
346.83	617.92
347.196	647.3
347.562	574.98
347.928	656.34
348.294	631.48
348.66	593.06
349.026	608.88
349.392	678.94
349.757	685.72
350.123	617.92
350.489	681.2
350.855	654.08
351.22	687.98
351.586	719.61
351.951	613.4
352.317	678.94
352.683	654.08
353.048	660.86
353.414	694.76
353.779	730.91
354.144	730.91
354.51	654.08
354.875	737.69
355.24	692.5
355.606	715.09
355.971	746.73
356.336	726.39
356.701	719.61
357.067	760.29
357.432	753.51
357.797	737.69
358.162	742.21
358.527	834.87
358.892	735.43
359.257	719.61
359.622	780.63
359.987	744.47
360.352	812.27
360.717	859.72
361.082	902.66
361.446	791.93
361.811	846.16
362.176	819.05
362.541	852.94
362.905	884.58
363.27	861.98
363.635	904.92
363.999	880.06
364.364	875.54
364.728	911.7
365.093	941.08
365.457	923
365.822	1006.61
366.186	977.23
366.55	959.16
366.915	999.83
367.279	984.01
367.643	1087.97
368.008	929.78
368.372	1056.33
368.736	1090.23
369.1	1103.78
369.464	1124.12
369.828	1047.29
370.192	1139.94
370.556	1194.18
370.92	1255.19
371.284	1180.62
371.648	1182.88
372.012	1119.6
372.376	1250.67
372.74	1345.59
373.104	1261.97
373.468	1384
373.831	1307.17
374.195	1510.55
374.559	1472.14
374.922	1564.79
375.286	1573.83
375.65	1616.77
376.013	1702.64
376.377	1666.48
376.74	1781.73
377.104	1883.43
377.467	1919.58
377.83	1980.6
378.194	2111.67
378.557	2147.82
378.92	2389.63
379.284	2604.31
379.647	2654.03
380.01	2760.24
380.373	2920.69
380.736	3033.68
381.1	3465.3
381.463	3557.96
381.826	3890.15
382.189	4249.46
382.552	4484.49
382.915	4882.22
383.278	5273.17
383.64	5799.71
384.003	6140.94
384.366	6861.83
384.729	7338.65
385.092	7905.87
385.454	8439.18
385.817	9313.74
386.18	10156.65
386.542	11541.93
386.905	12552.07
387.268	13813.05
387.63	15275.16
387.993	16014.13
388.355	17905.6
388.718	19616.29
389.08	21478.39
389.442	23286.25
389.805	25548.34
390.167	27390.1
390.529	30242
390.892	33652.08
391.254	35765.02
391.616	38650.82
391.978	42433.77
392.34	46591.85
392.702	48246.05
393.064	51868.55
393.426	53893.36
393.788	55689.92
394.15	57287.62
394.512	59271.75
394.874	60948.54
395.236	62801.6
395.598	64388
395.96	65059.17
396.321	65059.17
396.683	65059.17
397.045	65059.17
397.406	65059.17
397.768	65059.17
398.13	65059.17
398.491	65059.17
398.853	65059.17
399.214	65059.17
399.576	65059.17
399.937	65059.17
400.299	65059.17
400.66	65059.17
401.021	65059.17
401.383	65059.17
401.744	65059.17
402.105	65059.17
402.466	65059.17
402.827	65059.17
403.189	65059.17
403.55	65059.17
403.911	65059.17
404.272	65059.17
404.633	65059.17
404.994	65059.17
405.355	65059.17
405.716	65059.17
406.077	65059.17
406.437	65059.17
406.798	65059.17
407.159	65059.17
407.52	65059.17
407.88	65059.17
408.241	65059.17
408.602	65059.17
408.962	65059.17
409.323	65059.17
409.684	65059.17
410.044	65059.17
410.405	65059.17
410.765	65059.17
411.125	65059.17
411.486	65059.17
411.846	65059.17
412.206	65059.17
412.567	65059.17
412.927	65059.17
413.287	65059.17
413.647	65059.17
414.007	65059.17
414.368	65059.17
414.728	65059.17
415.088	65059.17
415.448	65059.17
415.808	65059.17
416.168	65059.17
416.528	65059.17
416.887	65059.17
417.247	65059.17
417.607	65059.17
417.967	65059.17
418.327	65059.17
418.686	65059.17
419.046	65059.17
419.406	65059.17
419.765	65059.17
420.125	65059.17
420.484	65059.17
420.844	65059.17
421.203	65059.17
421.563	64528.11
421.922	64227.55
422.282	62460.36
422.641	60894.3
423	59576.82
423.36	58620.92
423.719	56686.5
424.078	54824.41
424.437	52889.99
424.796	51208.68
425.155	49848.27
425.515	47565.84
425.874	46329.71
426.233	42246.21
426.592	39525.37
426.95	38919.74
427.309	35972.92
427.668	35629.43
428.027	32535.73
428.386	31588.86
428.745	29021.69
429.103	27168.64
429.462	25772.06
429.821	24427.47
430.179	23451.22
430.538	22535.99
430.897	21907.76
431.255	20730.39
431.614	19053.6
431.972	18246.84
432.33	17598.27
432.689	17562.11
433.047	16323.72
433.405	15209.63
433.764	14992.68
434.122	14380.27
434.48	13492.16
434.838	12836.81
435.197	12454.9
435.555	12308.01
435.913	11471.87
436.271	10762.29
436.629	10484.33
436.987	10059.48
437.345	9485.49
437.703	9297.92
438.061	8708.1
438.418	8355.57
438.776	7935.24
439.134	7695.7
439.492	7451.64
439.849	6895.72
440.207	6882.16
440.565	6416.64
440.922	6127.38
441.28	5655.08
441.637	5630.22
441.995	5175.99
442.352	5121.76
442.71	4927.41
443.067	4814.42
443.425	4432.51
443.782	4493.53
444.139	4183.93
444.496	4023.48
444.854	4093.54
445.211	3822.36
445.568	3722.92
445.925	3564.74
446.282	3494.68
446.639	3343.27
446.996	3334.23
447.353	3345.53
447.71	3194.13
448.067	3230.28
448.424	3008.82
448.781	2846.11
449.137	2644.99
449.494	2665.33
449.851	2428.04
450.208	2394.15
450.564	2278.89
450.921	2202.06
451.278	2118.45
451.634	2177.2
451.991	2073.25
452.347	2052.91
452.704	2039.35
453.06	1989.64
453.416	1820.15
453.773	1761.39
454.129	1709.42
454.485	1659.7
454.841	1695.86
455.198	1689.08
455.554	1542.19
455.91	1560.27
456.266	1465.36
456.622	1539.93
456.978	1435.98
457.334	1404.34
457.69	1261.97
458.046	1307.17
458.402	1275.53
458.758	1191.92
459.114	1194.18
459.469	1148.98
459.825	1205.48
460.181	1126.38
460.536	1155.76
460.892	1051.81
461.248	1047.29
461.603	977.23
461.959	995.31
462.314	988.53
462.67	907.18
463.025	965.94
463.38	898.14
463.736	866.5
464.091	938.82
464.446	916.22
464.802	857.46
465.157	884.58
465.512	861.98
465.867	880.06
466.222	825.83
466.577	796.45
466.932	780.63
467.287	873.28
467.642	794.19
467.997	794.19
468.352	728.65
468.707	791.93
469.062	767.07
469.417	744.47
469.771	760.29
470.126	694.76
470.481	708.31
470.835	706.05
471.19	674.42
471.544	674.42
471.899	685.72
472.253	647.3
472.608	755.77
472.962	651.82
473.317	656.34
473.671	638.26
474.025	595.32
474.38	622.44
474.734	676.68
475.088	667.64
475.442	654.08
475.796	622.44
476.15	624.7
476.504	636
476.858	663.12
477.212	658.6
477.566	584.02
477.92	586.28
478.274	617.92
478.628	626.96
478.982	602.1
479.336	572.73
479.689	629.22
480.043	541.09
480.397	554.65
480.75	586.28
481.104	568.21
481.457	622.44
481.811	552.39
482.164	586.28
482.518	532.05
482.871	556.91
483.225	574.98
483.578	550.13
483.931	498.15
484.284	545.61
484.638	604.36
484.991	561.43
485.344	529.79
485.697	617.92
486.05	529.79
486.403	525.27
486.756	545.61
487.109	577.24
487.462	574.98
487.815	604.36
488.168	507.19
488.52	534.31
488.873	525.27
489.226	577.24
489.579	480.07
489.931	520.75
490.284	480.07
490.637	554.65
490.989	504.93
491.342	527.53
491.694	520.75
492.047	468.77
492.399	509.45
492.751	507.19
493.104	500.41
493.456	480.07
493.808	595.32
494.16	523.01
494.513	527.53
494.865	554.65
495.217	520.75
495.569	518.49
495.921	532.05
496.273	495.89
496.625	491.37
496.977	466.51
497.329	498.15
497.68	471.03
498.032	495.89
498.384	473.29
498.736	425.84
499.087	513.97
499.439	464.25
499.791	509.45
500.142	475.55
500.494	547.87
500.845	455.21
501.197	475.55
501.548	529.79
501.9	457.47
502.251	552.39
502.602	504.93
502.954	516.23
503.305	602.1
503.656	477.81
504.007	516.23
504.358	509.45
504.709	527.53
505.061	518.49
505.412	482.33
505.763	486.85
506.113	468.77
506.464	437.14
506.815	511.71
507.166	552.39
507.517	559.17
507.868	513.97
508.218	464.25
508.569	525.27
508.92	518.49
509.27	554.65
509.621	475.55
509.971	527.53
510.322	568.21
510.672	538.83
511.023	568.21
511.373	579.5
511.723	516.23
512.074	590.8
512.424	577.24
512.774	588.54
513.124	489.11
513.475	529.79
513.825	527.53
514.175	579.5
514.525	636
514.875	624.7
515.225	547.87
515.575	568.21
515.924	613.4
516.274	599.84
516.624	554.65
516.974	586.28
517.324	590.8
517.673	595.32
518.023	622.44
518.373	574.98
518.722	611.14
519.072	570.47
519.421	586.28
519.771	613.4
520.12	622.44
520.469	554.65
520.819	545.61
521.168	620.18
521.517	608.88
521.867	617.92
522.216	529.79
522.565	611.14
522.914	590.8
523.263	574.98
523.612	651.82
523.961	622.44
524.31	622.44
524.659	640.52
525.008	565.95
525.357	629.22
525.705	606.62
526.054	640.52
526.403	647.3
526.752	665.38
527.1	624.7
527.449	658.6
527.797	620.18
528.146	584.02
528.495	715.09
528.843	712.83
529.191	629.22
529.54	615.66
529.888	710.57
530.236	613.4
530.585	654.08
530.933	645.04
531.281	608.88
531.629	678.94
531.977	665.38
532.325	687.98
532.673	715.09
533.021	645.04
533.369	712.83
533.717	706.05
534.065	640.52
534.413	620.18
534.761	570.47
535.108	608.88
535.456	730.91
535.804	647.3
536.151	622.44
536.499	651.82
536.847	647.3
537.194	654.08
537.542	685.72
537.889	636
538.236	651.82
538.584	660.86
538.931	663.12
539.278	636
539.626	710.57
539.973	733.17
540.32	645.04
540.667	597.58
541.014	629.22
541.361	626.96
541.708	649.56
542.055	674.42
542.402	681.2
542.749	608.88
543.096	663.12
543.443	647.3
543.789	672.16
544.136	624.7
544.483	588.54
544.83	595.32
545.176	629.22
545.523	654.08
545.869	629.22
546.216	703.8
546.562	669.9
546.909	660.86
547.255	611.14
547.601	626.96
547.948	678.94
548.294	706.05
548.64	683.46
548.986	595.32
549.332	658.6
549.678	613.4
550.025	687.98
550.371	715.09
550.717	579.5
551.062	608.88
551.408	667.64
551.754	638.26
552.1	694.76
552.446	626.96
552.792	678.94
553.137	649.56
553.483	683.46
553.828	717.35
554.174	706.05
554.52	672.16
554.865	683.46
555.211	701.54
555.556	758.03
555.901	751.25
556.247	771.59
556.592	724.13
556.937	730.91
557.282	710.57
557.628	683.46
557.973	733.17
558.318	622.44
558.663	692.5
559.008	767.07
559.353	760.29
559.698	721.87
560.043	748.99
560.388	735.43
560.732	708.31
561.077	773.85
561.422	762.55
561.766	760.29
562.111	717.35
562.456	717.35
562.8	846.16
563.145	798.71
563.489	762.55
563.834	803.23
564.178	791.93
564.523	859.72
564.867	898.14
565.211	744.47
565.555	753.51
565.9	692.5
566.244	814.53
566.588	846.16
566.932	825.83
567.276	866.5
567.62	807.75
567.964	898.14
568.308	891.36
568.652	871.02
568.996	834.87
569.339	864.24
569.683	907.18
570.027	875.54
570.371	909.44
570.714	846.16
571.058	907.18
571.401	925.26
571.745	861.98
572.088	848.42
572.432	834.87
572.775	812.27
573.118	871.02
573.462	925.26
573.805	963.68
574.148	956.9
574.491	889.1
574.835	916.22
575.178	904.92
575.521	923
575.864	952.38
576.207	965.94
576.55	880.06
576.892	968.19
577.235	904.92
577.578	841.64
577.921	920.74
578.264	925.26
578.606	950.12
578.949	898.14
579.292	884.58
579.634	898.14
579.977	956.9
580.319	918.48
580.662	902.66
581.004	909.44
581.346	907.18
581.689	941.08
582.031	913.96
582.373	873.28
582.715	778.37
583.057	954.64
583.4	898.14
583.742	925.26
584.084	900.4
584.426	825.83
584.768	828.09
585.109	965.94
585.451	871.02
585.793	803.23
586.135	825.83
586.477	861.98
586.818	909.44
587.16	882.32
587.502	877.8
587.843	807.75
588.185	812.27
588.526	785.15
588.868	780.63
589.209	875.54
589.55	839.38
589.892	913.96
590.233	830.35
590.574	807.75
590.915	751.25
591.257	798.71
591.598	748.99
591.939	758.03
592.28	748.99
592.621	791.93
592.962	760.29
593.303	703.8
593.643	760.29
593.984	674.42
594.325	683.46
594.666	721.87
595.006	739.95
595.347	669.9
595.688	710.57
596.028	735.43
596.369	692.5
596.709	663.12
597.05	690.24
597.39	703.8
597.73	746.73
598.071	647.3
598.411	746.73
598.751	730.91
599.091	656.34
599.431	769.33
599.772	654.08
600.112	636
600.452	651.82
600.792	667.64
601.132	710.57
601.471	604.36
601.811	647.3
602.151	563.69
602.491	620.18
602.831	665.38
603.17	629.22
603.51	611.14
603.849	611.14
604.189	584.02
604.528	624.7
604.868	593.06
605.207	536.57
605.547	538.83
605.886	559.17
606.225	613.4
606.565	617.92
606.904	633.74
607.243	550.13
607.582	593.06
607.921	574.98
608.26	622.44
608.599	658.6
608.938	633.74
609.277	586.28
609.616	550.13
609.955	482.33
610.293	624.7
610.632	584.02
610.971	559.17
611.309	588.54
611.648	554.65
611.987	556.91
612.325	471.03
612.664	579.5
613.002	529.79
613.34	534.31
613.679	475.55
614.017	520.75
614.355	545.61
614.694	504.93
615.032	513.97
615.37	471.03
615.708	584.02
616.046	559.17
616.384	599.84
616.722	507.19
617.06	563.69
617.398	534.31
617.736	565.95
618.073	554.65
618.411	534.31
618.749	529.79
619.086	579.5
619.424	561.43
619.762	498.15
620.099	532.05
620.437	613.4
620.774	586.28
621.112	545.61
621.449	536.57
621.786	486.85
622.123	529.79
622.461	568.21
622.798	480.07
623.135	588.54
623.472	534.31
623.809	545.61
624.146	556.91
624.483	590.8
624.82	484.59
625.157	556.91
625.494	473.29
625.83	565.95
626.167	477.81
626.504	568.21
626.841	570.47
627.177	491.37
627.514	511.71
627.85	559.17
628.187	513.97
628.523	509.45
628.86	532.05
629.196	473.29
629.532	471.03
629.869	477.81
630.205	473.29
630.541	541.09
630.877	593.06
631.213	473.29
631.549	403.24
631.885	527.53
632.221	518.49
632.557	484.59
632.893	520.75
633.229	547.87
633.564	461.99
633.9	450.69
634.236	407.76
634.572	504.93
634.907	504.93
635.243	565.95
635.578	498.15
635.914	511.71
636.249	434.88
636.585	545.61
636.92	532.05
637.255	511.71
637.59	559.17
637.926	466.51
638.261	468.77
638.596	475.55
638.931	480.07
639.266	498.15
639.601	466.51
639.936	455.21
640.271	516.23
640.606	437.14
640.94	459.73
641.275	446.17
641.61	527.53
641.945	441.66
642.279	527.53
642.614	405.5
642.948	541.09
643.283	450.69
643.617	534.31
643.952	437.14
644.286	545.61
644.62	416.8
644.955	405.5
645.289	355.78
645.623	423.58
645.957	486.85
646.291	419.06
646.625	432.62
646.959	468.77
647.293	430.36
647.627	385.16
647.961	441.66
648.295	414.54
648.629	360.3
648.962	452.95
649.296	461.99
649.63	396.46
649.963	369.34
650.297	373.86
650.63	412.28
650.964	358.04
651.297	468.77
651.631	455.21
651.964	421.32
652.297	439.4
652.631	423.58
652.964	448.43
653.297	403.24
653.63	446.17
653.963	391.94
654.296	419.06
654.629	441.66
654.962	290.25
655.295	315.1
655.628	405.5
655.961	382.9
656.293	400.98
656.626	412.28
656.959	339.96
657.291	414.54
657.624	335.44
657.956	376.12
658.289	333.18
658.621	387.42
658.954	369.34
659.286	358.04
659.618	326.4
659.95	394.2
660.283	326.4
660.615	301.55
660.947	299.29
661.279	425.84
661.611	419.06
661.943	423.58
662.275	385.16
662.607	380.64
662.939	378.38
663.27	337.7
663.602	414.54
663.934	353.52
664.266	369.34
664.597	376.12
664.929	315.1
665.26	321.88
665.592	315.1
665.923	317.36
666.255	274.43
666.586	321.88
666.917	382.9
667.248	412.28
667.58	351.26
667.911	333.18
668.242	335.44
668.573	396.46
668.904	396.46
669.235	371.6
669.566	391.94
669.897	416.8
670.228	324.14
670.558	335.44
670.889	321.88
671.22	315.1
671.551	373.86
671.881	339.96
672.212	360.3
672.542	371.6
672.873	398.72
673.203	398.72
673.533	355.78
673.864	367.08
674.194	278.95
674.524	364.82
674.855	330.92
675.185	371.6
675.515	367.08
675.845	337.7
676.175	292.51
676.505	342.22
676.835	349
677.165	360.3
677.494	373.86
677.824	256.35
678.154	330.92
678.484	274.43
678.813	351.26
679.143	290.25
679.472	353.52
679.802	353.52
680.131	339.96
680.461	290.25
680.79	301.55
681.119	317.36
681.449	369.34
681.778	287.99
682.107	306.07
682.436	362.56
682.765	269.91
683.094	376.12
683.423	301.55
683.752	303.81
684.081	351.26
684.41	351.26
684.739	378.38
685.067	263.13
685.396	414.54
685.725	308.33
686.053	371.6
686.382	328.66
686.711	367.08
687.039	330.92
687.367	342.22
687.696	308.33
688.024	328.66
688.352	364.82
688.681	315.1
689.009	342.22
689.337	315.1
689.665	306.07
689.993	301.55
690.321	274.43
690.649	328.66
690.977	317.36
691.305	299.29
691.633	240.53
691.961	317.36
692.288	321.88
692.616	260.87
692.944	303.81
693.271	353.52
693.599	349
693.926	333.18
694.254	283.47
694.581	353.52
694.908	328.66
695.236	346.74
695.563	249.57
695.89	324.14
696.217	358.04
696.544	303.81
696.871	326.4
697.198	301.55
697.525	349
697.852	263.13
698.179	247.31
698.506	274.43
698.833	265.39
699.16	312.84
699.486	376.12
699.813	285.73
700.139	245.05
700.466	326.4
700.793	301.55
701.119	335.44
701.445	278.95
701.772	258.61
702.098	337.7
702.424	394.2
702.75	319.62
703.077	324.14
703.403	306.07
703.729	303.81
704.055	308.33
704.381	319.62
704.707	283.47
705.033	306.07
705.358	245.05
705.684	301.55
706.01	373.86
706.336	301.55
706.661	337.7
706.987	330.92
707.312	283.47
707.638	240.53
707.963	283.47
708.289	299.29
708.614	269.91
708.939	330.92
709.265	285.73
709.59	294.77
709.915	254.09
710.24	339.96
710.565	285.73
710.89	287.99
711.215	272.17
711.54	276.69
711.865	328.66
712.19	290.25
712.515	278.95
712.839	265.39
713.164	303.81
713.489	306.07
713.813	274.43
714.138	310.59
714.462	310.59
714.787	267.65
715.111	272.17
715.435	263.13
715.76	330.92
716.084	312.84
716.408	310.59
716.732	251.83
717.056	215.67
717.381	297.03
717.705	260.87
718.028	287.99
718.352	283.47
718.676	222.45
719	315.1
719.324	292.51
719.648	301.55
719.971	231.49
720.295	326.4
720.618	315.1
720.942	260.87
721.265	281.21
721.589	303.81
721.912	247.31
722.236	294.77
722.559	353.52
722.882	294.77
723.205	292.51
723.528	274.43
723.851	301.55
724.174	247.31
724.497	247.31
724.82	272.17
725.143	256.35
725.466	321.88
725.789	303.81
726.112	274.43
726.434	308.33
726.757	283.47
727.08	265.39
727.402	258.61
727.725	308.33
728.047	283.47
728.37	292.51
728.692	217.93
729.014	274.43
729.336	299.29
729.659	287.99
729.981	294.77
730.303	328.66
730.625	315.1
730.947	283.47
731.269	274.43
731.591	328.66
731.913	276.69
732.235	276.69
732.556	188.55
732.878	297.03
733.2	301.55
733.521	251.83
733.843	299.29
734.164	256.35
734.486	263.13
734.807	299.29
735.129	281.21
735.45	251.83
735.771	265.39
736.092	351.26
736.414	276.69
736.735	195.33
737.056	294.77
737.377	276.69
737.698	226.97
738.019	292.51
738.34	195.33
738.66	206.63
738.981	263.13
739.302	290.25
739.623	251.83
739.943	306.07
740.264	265.39
740.584	283.47
740.905	274.43
741.225	301.55
741.546	260.87
741.866	292.51
742.186	292.51
742.507	231.49
742.827	283.47
743.147	224.71
743.467	256.35
743.787	265.39
744.107	233.75
744.427	297.03
744.747	265.39
745.067	303.81
745.386	308.33
745.706	328.66
746.026	260.87
746.346	236.01
746.665	306.07
746.985	267.65
747.304	283.47
747.624	260.87
747.943	249.57
748.262	179.52
748.582	206.63
748.901	204.37
749.22	285.73
749.539	285.73
749.858	220.19
750.177	265.39
750.496	245.05
750.815	294.77
751.134	242.79
751.453	283.47
751.772	265.39
752.09	306.07
752.409	224.71
752.728	245.05
753.046	254.09
753.365	308.33
753.683	269.91
754.002	308.33
754.32	242.79
754.639	285.73
754.957	274.43
755.275	290.25
755.593	276.69
755.911	283.47
756.23	294.77
756.548	258.61
756.866	317.36
757.183	315.1
757.501	306.07
757.819	335.44
758.137	274.43
758.455	251.83
758.772	249.57
759.09	269.91
759.408	238.27
759.725	245.05
760.043	249.57
760.36	272.17
760.677	303.81
760.995	260.87
761.312	272.17
761.629	285.73
761.946	290.25
762.264	231.49
762.581	249.57
762.898	229.23
763.215	310.59
763.532	349
763.848	294.77
764.165	247.31
764.482	292.51
764.799	276.69
765.115	269.91
765.432	346.74
765.749	211.15
766.065	292.51
766.382	267.65
766.698	272.17
767.014	319.62
767.331	278.95
767.647	265.39
767.963	215.67
768.279	267.65
768.595	269.91
768.911	265.39
769.227	206.63
769.543	301.55
769.859	272.17
770.175	254.09
770.491	294.77
770.807	236.01
771.122	292.51
771.438	312.84
771.754	247.31
772.069	245.05
772.385	290.25
772.7	294.77
773.016	247.31
773.331	285.73
773.646	263.13
773.961	274.43
774.277	312.84
774.592	267.65
774.907	310.59
775.222	245.05
775.537	247.31
775.852	306.07
776.167	231.49
776.482	328.66
776.796	272.17
777.111	256.35
777.426	265.39
777.74	254.09
778.055	324.14
778.369	274.43
778.684	337.7
778.998	283.47
779.313	260.87
779.627	274.43
779.941	297.03
780.255	256.35
780.57	285.73
780.884	247.31
781.198	258.61
781.512	245.05
781.826	299.29
782.14	276.69
782.453	276.69
782.767	306.07
783.081	265.39
783.395	251.83
783.708	285.73
784.022	330.92
784.335	285.73
784.649	263.13
784.962	294.77
785.276	308.33
785.589	287.99
785.902	281.21
786.216	358.04
786.529	258.61
786.842	222.45
787.155	265.39
787.468	283.47
787.781	306.07
788.094	290.25
788.407	310.59
788.72	251.83
789.032	294.77
789.345	312.84
789.658	297.03
789.97	199.85
790.283	267.65
790.595	287.99
790.908	226.97
791.22	283.47
791.532	292.51
791.845	260.87
792.157	231.49
792.469	260.87
792.781	272.17
793.093	287.99
793.405	349
793.717	254.09
794.029	281.21
794.341	287.99
794.653	283.47
794.965	251.83
795.276	308.33
795.588	281.21
795.9	258.61
796.211	222.45
796.523	299.29
796.834	285.73
797.146	283.47
797.457	333.18
797.768	299.29
798.08	224.71
798.391	247.31
798.702	236.01
799.013	226.97
799.324	297.03
799.635	310.59
799.946	308.33
800.257	256.35
800.568	208.89
800.878	233.75
801.189	330.92
801.5	355.78
801.81	260.87
802.121	292.51
802.431	278.95
802.742	258.61
803.052	233.75
803.363	287.99
803.673	236.01
803.983	285.73
804.293	283.47
804.603	226.97
804.913	278.95
805.224	260.87
805.533	303.81
805.843	260.87
806.153	238.27
806.463	297.03
806.773	236.01
807.083	202.11
807.392	202.11
807.702	272.17
808.011	238.27
808.321	236.01
808.63	238.27
808.94	249.57
809.249	333.18
809.558	263.13
809.868	240.53
810.177	251.83
810.486	238.27
810.795	258.61
811.104	254.09
811.413	197.59
811.722	263.13
812.031	285.73
812.339	267.65
812.648	233.75
812.957	287.99
813.266	333.18
813.574	301.55
813.883	265.39
814.191	312.84
814.5	283.47
814.808	226.97
815.116	306.07
815.424	301.55
815.733	263.13
816.041	276.69
816.349	258.61
816.657	236.01
816.965	229.23
817.273	197.59
817.581	272.17
817.889	179.52
818.196	254.09
818.504	258.61
818.812	260.87
819.12	301.55
819.427	290.25
819.735	258.61
820.042	292.51
820.349	276.69
820.657	251.83
820.964	258.61
821.271	292.51
821.579	301.55
821.886	233.75
822.193	290.25
822.5	272.17
822.807	213.41
823.114	285.73
823.421	285.73
823.727	278.95
824.034	306.07
824.341	226.97
824.648	269.91
824.954	269.91
825.261	292.51
825.567	242.79
825.874	222.45
826.18	226.97
826.486	299.29
826.793	208.89
827.099	211.15
827.405	292.51
827.711	346.74
828.017	276.69
828.323	319.62
828.629	292.51
828.935	287.99
829.241	276.69
829.547	260.87
829.852	317.36
830.158	324.14
830.464	272.17
830.769	290.25
831.075	272.17
831.38	236.01
831.686	233.75
831.991	217.93
832.296	276.69
832.601	285.73
832.907	283.47
833.212	224.71
833.517	186.29
833.822	240.53
834.127	315.1
834.432	251.83
834.737	317.36
835.041	265.39
835.346	229.23
835.651	220.19
835.956	231.49
836.26	258.61
836.565	333.18
836.869	287.99
837.174	229.23
837.478	260.87
837.782	260.87
838.087	233.75
838.391	245.05
838.695	308.33
838.999	308.33
839.303	220.19
839.607	247.31
839.911	321.88
840.215	265.39
840.519	254.09
840.822	229.23
841.126	231.49
841.43	297.03
841.733	236.01
842.037	269.91
842.34	179.52
842.644	211.15
842.947	321.88
843.251	240.53
843.554	238.27
843.857	321.88
844.16	267.65
844.463	206.63
844.766	283.47
845.069	258.61
845.372	206.63
845.675	242.79
845.978	238.27
846.281	242.79
846.583	267.65
846.886	254.09
847.189	238.27
847.491	247.31
847.794	278.95
848.096	254.09
848.399	285.73
848.701	292.51
849.003	242.79
849.305	247.31
849.608	276.69
849.91	256.35
850.212	297.03
850.514	274.43
850.816	335.44
851.118	276.69
851.419	258.61
851.721	263.13
852.023	281.21
852.325	247.31
852.626	301.55
852.928	233.75
853.229	204.37
853.531	236.01
853.832	251.83
854.133	226.97
854.435	186.29
854.736	242.79
855.037	213.41
855.338	283.47
855.639	278.95
855.94	245.05
856.241	321.88
856.542	308.33
856.843	263.13
857.144	312.84
857.444	319.62
857.745	299.29
858.046	333.18
858.346	269.91
858.647	319.62
858.947	272.17
859.247	249.57
859.548	242.79
859.848	256.35
860.148	267.65
860.448	236.01
860.749	267.65
861.049	213.41
861.349	224.71
861.648	202.11
861.948	317.36
862.248	278.95
862.548	222.45
862.848	224.71
863.147	276.69
863.447	258.61
863.746	256.35
864.046	272.17
864.345	263.13
864.645	267.65
864.944	278.95
865.243	233.75
865.542	204.37
865.842	312.84
866.141	245.05
866.44	294.77
866.739	238.27
867.038	281.21
867.337	256.35
867.635	242.79
867.934	226.97
868.233	231.49
868.531	208.89
868.83	312.84
869.129	278.95
869.427	290.25
869.725	297.03
870.024	303.81
870.322	208.89
870.62	274.43
870.918	245.05
871.217	222.45
871.515	249.57
871.813	303.81
872.111	269.91
872.409	346.74
872.706	290.25
873.004	272.17
873.302	242.79
873.6	342.22
873.897	233.75
874.195	263.13
874.492	258.61
874.79	317.36
875.087	306.07
875.384	208.89
875.682	251.83
875.979	285.73
876.276	308.33
876.573	222.45
876.87	222.45
877.167	222.45
