Data from PL_2polymer_F8BT_MEHPPV_USB2H096331_0391.txt Node
Date: Tue Dec 15 15:59:07 CET 2020
User: spadmin
Spectrometer: USB2+H09633
Trigger mode: 0
Integration Time (sec): 1.000000E-2
Scans to average: 1
Electric dark correction enabled: true
Nonlinearity correction enabled: false
Boxcar width: 0
XAxis mode: Wavelengths
Number of Pixels in Spectrum: 2048
>>>>>Begin Spectral Data<<<<<
174.027	-88.27
174.405	-88.27
174.783	-88.27
175.162	-162.85
175.54	-70.2
175.918	-56.64
176.296	-97.31
176.674	-101.83
177.052	-137.99
177.43	-70.2
177.808	-49.86
178.186	-72.46
178.564	-47.6
178.942	6.64
179.32	36.02
179.698	17.94
180.076	36.02
180.453	29.24
180.831	103.81
181.209	92.51
181.587	54.09
181.965	200.98
182.342	171.61
182.72	142.23
183.098	205.5
183.475	230.36
183.853	250.7
184.231	221.32
184.608	313.97
184.986	323.01
185.363	307.2
185.741	230.36
186.118	361.43
186.496	318.49
186.873	361.43
187.251	338.83
187.628	295.9
188.006	325.27
188.383	359.17
188.76	275.56
189.138	361.43
189.515	372.73
189.892	338.83
190.27	327.53
190.647	320.75
191.024	304.94
191.401	313.97
191.778	332.05
192.155	311.71
192.533	365.95
192.91	332.05
193.287	370.47
193.664	338.83
194.041	313.97
194.418	341.09
194.795	320.75
195.172	338.83
195.549	359.17
195.926	318.49
196.302	282.34
196.679	293.64
197.056	307.2
197.433	277.82
197.81	332.05
198.187	286.86
198.563	323.01
198.94	338.83
199.317	323.01
199.693	327.53
200.07	309.46
200.447	377.25
200.823	341.09
201.2	284.6
201.576	411.15
201.953	332.05
202.329	304.94
202.706	298.16
203.082	271.04
203.459	262
203.835	316.23
204.212	327.53
204.588	271.04
204.964	289.12
205.341	374.99
205.717	282.34
206.093	311.71
206.469	374.99
206.846	352.39
207.222	311.71
207.598	271.04
207.974	338.83
208.35	411.15
208.726	309.46
209.102	327.53
209.479	264.26
209.855	273.3
210.231	286.86
210.607	370.47
210.982	325.27
211.358	289.12
211.734	313.97
212.11	304.94
212.486	320.75
212.862	298.16
213.238	365.95
213.614	381.77
213.989	320.75
214.365	332.05
214.741	354.65
215.116	300.42
215.492	379.51
215.868	370.47
216.243	327.53
216.619	316.23
216.995	280.08
217.37	293.64
217.746	316.23
218.121	320.75
218.497	352.39
218.872	304.94
219.247	384.03
219.623	365.95
219.998	365.95
220.374	323.01
220.749	343.35
221.124	359.17
221.499	329.79
221.875	363.69
222.25	361.43
222.625	318.49
223	302.68
223.376	359.17
223.751	343.35
224.126	354.65
224.501	368.21
224.876	431.49
225.251	347.87
225.626	404.37
226.001	311.71
226.376	313.97
226.751	402.11
227.126	300.42
227.501	318.49
227.875	363.69
228.25	345.61
228.625	332.05
229	386.29
229.375	320.75
229.749	309.46
230.124	388.55
230.499	354.65
230.873	356.91
231.248	316.23
231.623	323.01
231.997	336.57
232.372	365.95
232.746	354.65
233.121	384.03
233.495	379.51
233.87	347.87
234.244	408.89
234.619	386.29
234.993	275.56
235.367	352.39
235.742	338.83
236.116	327.53
236.49	397.59
236.865	386.29
237.239	345.61
237.613	298.16
237.987	411.15
238.361	323.01
238.736	313.97
239.11	338.83
239.484	402.11
239.858	293.64
240.232	370.47
240.606	370.47
240.98	379.51
241.354	408.89
241.728	341.09
242.102	316.23
242.475	374.99
242.849	334.31
243.223	356.91
243.597	372.73
243.971	359.17
244.344	311.71
244.718	345.61
245.092	329.79
245.466	368.21
245.839	334.31
246.213	359.17
246.586	379.51
246.96	356.91
247.334	368.21
247.707	345.61
248.081	465.38
248.454	395.33
248.828	445.04
249.201	334.31
249.574	361.43
249.948	397.59
250.321	395.33
250.694	374.99
251.068	350.13
251.441	395.33
251.814	395.33
252.187	436.01
252.561	426.97
252.934	386.29
253.307	343.35
253.68	338.83
254.053	431.49
254.426	381.77
254.799	350.13
255.172	359.17
255.545	361.43
255.918	393.07
256.291	408.89
256.664	404.37
257.037	390.81
257.41	454.08
257.782	402.11
258.155	390.81
258.528	399.85
258.901	429.23
259.273	422.45
259.646	374.99
260.019	350.13
260.391	386.29
260.764	359.17
261.137	379.51
261.509	354.65
261.882	377.25
262.254	397.59
262.627	424.71
262.999	406.63
263.372	356.91
263.744	381.77
264.116	347.87
264.489	334.31
264.861	374.99
265.233	388.55
265.606	350.13
265.978	350.13
266.35	393.07
266.722	379.51
267.094	406.63
267.467	368.21
267.839	338.83
268.211	420.19
268.583	334.31
268.955	411.15
269.327	424.71
269.699	372.73
270.071	449.56
270.443	374.99
270.815	390.81
271.186	395.33
271.558	422.45
271.93	539.96
272.302	420.19
272.674	449.56
273.045	422.45
273.417	445.04
273.789	386.29
274.16	393.07
274.532	408.89
274.904	374.99
275.275	449.56
275.647	413.41
276.018	472.16
276.39	467.64
276.761	456.34
277.133	399.85
277.504	424.71
277.875	417.93
278.247	370.47
278.618	494.76
278.989	436.01
279.361	417.93
279.732	397.59
280.103	456.34
280.474	393.07
280.846	332.05
281.217	433.75
281.588	426.97
281.959	458.6
282.33	329.79
282.701	374.99
283.072	438.27
283.443	408.89
283.814	406.63
284.185	411.15
284.556	492.5
284.927	429.23
285.297	429.23
285.668	426.97
286.039	469.9
286.41	454.08
286.781	417.93
287.151	487.98
287.522	465.38
287.893	460.86
288.263	478.94
288.634	429.23
289.004	438.27
289.375	420.19
289.745	424.71
290.116	426.97
290.486	447.3
290.857	436.01
291.227	377.25
291.598	465.38
291.968	429.23
292.338	485.72
292.709	474.42
293.079	365.95
293.449	406.63
293.819	424.71
294.189	417.93
294.56	517.36
294.93	431.49
295.3	449.56
295.67	485.72
296.04	424.71
296.41	445.04
296.78	445.04
297.15	429.23
297.52	429.23
297.89	508.32
298.259	483.46
298.629	499.28
298.999	469.9
299.369	447.3
299.739	465.38
300.108	411.15
300.478	481.2
300.848	451.82
301.217	449.56
301.587	506.06
301.957	483.46
302.326	408.89
302.696	442.78
303.065	483.46
303.435	474.42
303.804	497.02
304.174	424.71
304.543	492.5
304.912	460.86
305.282	429.23
305.651	402.11
306.02	454.08
306.39	476.68
306.759	512.84
307.128	469.9
307.497	487.98
307.866	490.24
308.235	506.06
308.604	519.62
308.974	460.86
309.343	526.4
309.712	429.23
310.08	456.34
310.449	463.12
310.818	515.1
311.187	494.76
311.556	481.2
311.925	506.06
312.294	485.72
312.662	469.9
313.031	524.14
313.4	537.7
313.769	465.38
314.137	487.98
314.506	433.75
314.874	539.96
315.243	573.85
315.612	458.6
315.98	544.48
316.349	476.68
316.717	474.42
317.085	494.76
317.454	567.08
317.822	456.34
318.191	476.68
318.559	481.2
318.927	499.28
319.295	510.58
319.664	530.92
320.032	454.08
320.4	467.64
320.768	481.2
321.136	515.1
321.504	476.68
321.872	564.82
322.24	519.62
322.608	573.85
322.976	533.18
323.344	537.7
323.712	512.84
324.08	519.62
324.448	417.93
324.816	546.74
325.183	517.36
325.551	530.92
325.919	567.08
326.287	497.02
326.654	519.62
327.022	591.93
327.389	519.62
327.757	549
328.125	549
328.492	551.26
328.86	591.93
329.227	539.96
329.594	549
329.962	549
330.329	510.58
330.697	515.1
331.064	542.22
331.431	481.2
331.798	562.56
332.166	539.96
332.533	628.09
332.9	576.11
333.267	585.15
333.634	580.63
334.001	600.97
334.368	573.85
334.735	558.04
335.102	605.49
335.469	591.93
335.836	560.3
336.203	630.35
336.57	567.08
336.937	551.26
337.304	605.49
337.67	576.11
338.037	578.37
338.404	519.62
338.771	542.22
339.137	582.89
339.504	598.71
339.87	657.47
340.237	589.67
340.604	682.33
340.97	580.63
341.337	524.14
341.703	641.65
342.069	637.13
342.436	619.05
342.802	580.63
343.169	661.99
343.535	716.22
343.901	621.31
344.267	610.01
344.634	582.89
345	680.07
345.366	634.87
345.732	628.09
346.098	684.59
346.464	630.35
346.83	614.53
347.196	646.17
347.562	689.11
347.928	707.18
348.294	720.74
348.66	689.11
349.026	704.92
349.392	621.31
349.757	614.53
350.123	641.65
350.489	691.37
350.855	677.81
351.22	684.59
351.586	745.6
351.951	648.43
352.317	641.65
352.683	743.34
353.048	675.55
353.414	695.89
353.779	695.89
354.144	702.67
354.51	702.67
354.875	772.72
355.24	704.92
355.606	774.98
355.971	756.9
356.336	723
356.701	765.94
357.067	720.74
357.432	829.22
357.797	774.98
358.162	765.94
358.527	842.77
358.892	885.71
359.257	759.16
359.622	917.35
359.987	887.97
360.352	799.84
360.717	901.53
361.082	921.87
361.446	788.54
361.811	835.99
362.176	813.4
362.541	908.31
362.905	851.81
363.27	860.85
363.635	987.4
363.999	962.55
364.364	917.35
364.728	971.58
365.093	958.03
365.457	991.92
365.822	917.35
366.186	1003.22
366.55	969.32
366.915	1037.12
367.279	1052.94
367.643	1043.9
368.008	1052.94
368.372	1104.91
368.736	1084.58
369.1	1147.85
369.464	1184.01
369.828	1100.39
370.192	1104.91
370.556	1181.75
370.92	1267.62
371.284	1238.24
371.648	1240.5
372.012	1301.52
372.376	1249.54
372.74	1281.18
373.104	1310.56
373.468	1432.59
373.831	1484.57
374.195	1513.94
374.559	1534.28
374.922	1577.22
375.286	1532.02
375.65	1658.57
376.013	1692.47
376.377	1832.58
376.74	1918.45
377.104	1843.88
377.467	1986.25
377.83	2006.59
378.194	2225.79
378.557	2246.13
378.92	2515.05
379.284	2492.45
379.647	2677.75
380.01	2946.67
380.373	2910.52
380.736	3156.84
381.1	3495.81
381.463	3812.19
381.826	3965.86
382.189	4270.93
382.552	4598.61
382.915	4903.68
383.278	5303.67
383.64	5807.62
384.003	6182.75
384.366	6799.68
384.729	7563.5
385.092	8022.25
385.454	8727.31
385.817	9522.77
386.18	10548.73
386.542	11493.34
386.905	12747.55
387.268	13884.24
387.63	15246.92
387.993	16478.52
388.355	18252.49
388.718	19890.86
389.08	21601.55
389.442	23798.1
389.805	26005.95
390.167	27666.93
390.529	30753.85
390.892	34349.24
391.254	36301.73
391.616	38981.88
391.978	42898.17
392.34	47248.33
392.702	48696.88
393.064	52276.45
393.426	54237.98
393.788	56115.9
394.15	57709.08
394.512	59406.21
394.874	61349.66
395.236	63058.09
395.598	64868.21
395.96	65064.81
396.321	65064.81
396.683	65064.81
397.045	65064.81
397.406	65064.81
397.768	65064.81
398.13	65064.81
398.491	65064.81
398.853	65064.81
399.214	65064.81
399.576	65064.81
399.937	65064.81
400.299	65064.81
400.66	65064.81
401.021	65064.81
401.383	65064.81
401.744	65064.81
402.105	65064.81
402.466	65064.81
402.827	65064.81
403.189	65064.81
403.55	65064.81
403.911	65064.81
404.272	65064.81
404.633	65064.81
404.994	65064.81
405.355	65064.81
405.716	65064.81
406.077	65064.81
406.437	65064.81
406.798	65064.81
407.159	65064.81
407.52	65064.81
407.88	65064.81
408.241	65064.81
408.602	65064.81
408.962	65064.81
409.323	65064.81
409.684	65064.81
410.044	65064.81
410.405	65064.81
410.765	65064.81
411.125	65064.81
411.486	65064.81
411.846	65064.81
412.206	65064.81
412.567	65064.81
412.927	65064.81
413.287	65064.81
413.647	65064.81
414.007	65064.81
414.368	65064.81
414.728	65064.81
415.088	65064.81
415.448	65064.81
415.808	65064.81
416.168	65064.81
416.528	65064.81
416.887	65064.81
417.247	65064.81
417.607	65064.81
417.967	65064.81
418.327	65064.81
418.686	65064.81
419.046	65064.81
419.406	65064.81
419.765	65064.81
420.125	65064.81
420.484	65064.81
420.844	65064.81
421.203	65064.81
421.563	64879.51
421.922	64606.07
422.282	62983.51
422.641	61383.56
423	60097.71
423.36	59306.77
423.719	57234.51
424.078	55282.02
424.437	53643.65
424.796	52280.97
425.155	50845.98
425.515	48154.52
425.874	47121.78
426.233	43013.42
426.592	40007.85
426.95	39413.51
427.309	37167.24
427.668	36055.41
428.027	33124.41
428.386	32441.94
428.745	29703.03
429.103	27813.82
429.462	26785.6
429.821	24776.61
430.179	23709.97
430.538	23052.36
430.897	22408.31
431.255	20858.07
431.614	19673.92
431.972	18980.15
432.33	18347.4
432.689	17843.46
433.047	16763.26
433.405	15777.97
433.764	15106.81
434.122	14555.41
434.48	13881.98
434.838	13301.2
435.197	12715.91
435.555	12487.67
435.913	11631.19
436.271	11091.09
436.629	10756.64
436.987	10184.9
437.345	9805.25
437.703	9348.77
438.061	8860.64
438.418	8288.91
438.776	8101.34
439.134	7977.05
439.492	7384.98
439.849	6914.93
440.207	6756.74
440.565	6438.11
440.922	6191.79
441.28	5852.81
441.637	5712.7
441.995	5495.76
442.352	5226.84
442.71	4994.08
443.067	4905.94
443.425	4630.25
443.782	4343.25
444.139	4388.44
444.496	4241.56
444.854	4094.67
445.211	3895.8
445.568	3868.68
445.925	3608.8
446.282	3491.29
446.639	3357.96
446.996	3251.75
447.353	3283.39
447.71	3213.33
448.067	3267.57
448.424	3098.08
448.781	2815.6
449.137	2704.87
449.494	2652.9
449.851	2524.09
450.208	2506.01
450.564	2411.09
450.921	2307.14
451.278	2273.25
451.634	2368.16
451.991	2268.73
452.347	2139.92
452.704	2090.2
453.06	1963.65
453.416	1866.48
453.773	1762.52
454.129	1762.52
454.485	1694.73
454.841	1730.89
455.198	1602.08
455.554	1608.86
455.91	1561.4
456.266	1568.18
456.622	1563.66
456.978	1443.89
457.334	1373.83
457.69	1333.16
458.046	1373.83
458.402	1274.4
458.758	1184.01
459.114	1197.57
459.469	1251.8
459.825	1066.5
460.181	1084.58
460.536	1231.46
460.892	1023.56
461.248	1050.68
461.603	1068.76
461.959	1010
462.314	960.29
462.67	980.62
463.025	1041.64
463.38	991.92
463.736	921.87
464.091	980.62
464.446	865.37
464.802	840.51
465.157	854.07
465.512	872.15
465.867	921.87
466.222	820.18
466.577	906.05
466.932	761.42
467.287	729.78
467.642	756.9
467.997	881.19
468.352	777.24
468.707	817.92
469.062	725.26
469.417	704.92
469.771	869.89
470.126	779.5
470.481	790.8
470.835	734.3
471.19	770.46
471.544	770.46
471.899	619.05
472.253	734.3
472.608	698.15
472.962	738.82
473.317	698.15
473.671	664.25
474.025	637.13
474.38	655.21
474.734	682.33
475.088	668.77
475.442	610.01
475.796	614.53
476.15	634.87
476.504	630.35
476.858	596.45
477.212	698.15
477.566	596.45
477.92	571.6
478.274	661.99
478.628	666.51
478.982	625.83
479.336	668.77
479.689	610.01
480.043	661.99
480.397	614.53
480.75	587.41
481.104	628.09
481.457	630.35
481.811	610.01
482.164	587.41
482.518	594.19
482.871	564.82
483.225	551.26
483.578	630.35
483.931	610.01
484.284	571.6
484.638	578.37
484.991	546.74
485.344	623.57
485.697	515.1
486.05	562.56
486.403	567.08
486.756	510.58
487.109	537.7
487.462	560.3
487.815	616.79
488.168	537.7
488.52	546.74
488.873	501.54
489.226	535.44
489.579	460.86
489.931	503.8
490.284	578.37
490.637	487.98
490.989	539.96
491.342	567.08
491.694	605.49
492.047	497.02
492.399	512.84
492.751	528.66
493.104	537.7
493.456	551.26
493.808	506.06
494.16	553.52
494.513	567.08
494.865	512.84
495.217	517.36
495.569	517.36
495.921	537.7
496.273	530.92
496.625	562.56
496.977	492.5
497.329	526.4
497.68	533.18
498.032	519.62
498.384	528.66
498.736	546.74
499.087	506.06
499.439	512.84
499.791	530.92
500.142	535.44
500.494	492.5
500.845	573.85
501.197	537.7
501.548	528.66
501.9	551.26
502.251	544.48
502.602	560.3
502.954	528.66
503.305	571.6
503.656	598.71
504.007	530.92
504.358	519.62
504.709	598.71
505.061	582.89
505.412	625.83
505.763	650.69
506.113	539.96
506.464	576.11
506.815	605.49
507.166	537.7
507.517	594.19
507.868	607.75
508.218	657.47
508.569	564.82
508.92	603.23
509.27	612.27
509.621	600.97
509.971	610.01
510.322	659.73
510.672	675.55
511.023	675.55
511.373	738.82
511.723	646.17
512.074	673.29
512.424	682.33
512.774	707.18
513.124	750.12
513.475	691.37
513.825	711.7
514.175	761.42
514.525	745.6
514.875	686.85
515.225	741.08
515.575	720.74
515.924	786.28
516.274	770.46
516.624	759.16
516.974	763.68
517.324	835.99
517.673	863.11
518.023	781.76
518.373	802.1
518.722	847.29
519.072	867.63
519.421	854.07
519.771	831.48
520.12	835.99
520.469	845.03
520.819	833.74
521.168	926.39
521.517	872.15
521.867	962.55
522.216	935.43
522.565	937.69
522.914	989.66
523.263	994.18
523.612	994.18
523.961	976.1
524.31	935.43
524.659	996.44
525.008	985.14
525.357	935.43
525.705	930.91
526.054	842.77
526.403	989.66
526.752	969.32
527.1	958.03
527.449	994.18
527.797	1014.52
528.146	951.25
528.495	1023.56
528.843	1034.86
529.191	1019.04
529.54	937.69
529.888	1005.48
530.236	1125.25
530.585	1066.5
530.933	1118.47
531.281	1007.74
531.629	1012.26
531.977	978.36
532.325	1030.34
532.673	1061.98
533.021	1086.84
533.369	1046.16
533.717	1025.82
534.065	1095.88
534.413	1007.74
534.761	1039.38
535.108	1052.94
535.456	1075.54
535.804	1025.82
536.151	1043.9
536.499	1034.86
536.847	1059.72
537.194	1032.6
537.542	1059.72
537.889	1052.94
538.236	1059.72
538.584	1048.42
538.931	1073.28
539.278	1052.94
539.626	1041.64
539.973	1025.82
540.32	978.36
540.667	1107.17
541.014	1066.5
541.361	1077.8
541.708	1075.54
542.055	1016.78
542.402	1052.94
542.749	1068.76
543.096	1068.76
543.443	1032.6
543.789	1014.52
544.136	1023.56
544.483	1134.29
544.83	1118.47
545.176	1048.42
545.523	1102.65
545.869	1147.85
546.216	1089.1
546.562	989.66
546.909	1019.04
547.255	1043.9
547.601	1037.12
547.948	1030.34
548.294	1030.34
548.64	1093.62
548.986	987.4
549.332	1052.94
549.678	1068.76
550.025	1132.03
550.371	1154.63
550.717	1147.85
551.062	1037.12
551.408	1084.58
551.754	1095.88
552.1	1120.73
552.446	1048.42
552.792	1046.16
553.137	1154.63
553.483	987.4
553.828	1037.12
554.174	1030.34
554.52	1068.76
554.865	1046.16
555.211	1034.86
555.556	1095.88
555.901	1043.9
556.247	1084.58
556.592	1113.95
556.937	1100.39
557.282	1043.9
557.628	1093.62
557.973	1211.13
558.318	1129.77
558.663	1100.39
559.008	1152.37
559.353	1104.91
559.698	1043.9
560.043	1120.73
560.388	1132.03
560.732	1122.99
561.077	1077.8
561.422	1195.31
561.766	1181.75
562.111	1145.59
562.456	1120.73
562.8	1179.49
563.145	1226.95
563.489	1174.97
563.834	1136.55
564.178	1226.95
564.523	1190.79
564.867	1251.8
565.211	1249.54
565.555	1242.76
565.9	1181.75
566.244	1147.85
566.588	1154.63
566.932	1281.18
567.276	1150.11
567.62	1249.54
567.964	1299.26
568.308	1245.02
568.652	1258.58
568.996	1272.14
569.339	1344.46
569.683	1306.04
570.027	1276.66
570.371	1238.24
570.714	1247.28
571.058	1290.22
571.401	1339.94
571.745	1308.3
572.088	1301.52
572.432	1211.13
572.775	1290.22
573.118	1308.3
573.462	1391.91
573.805	1371.57
574.148	1351.24
574.491	1330.9
574.835	1319.6
575.178	1317.34
575.521	1321.86
575.864	1287.96
576.207	1319.6
576.55	1297
576.892	1287.96
577.235	1285.7
577.578	1267.62
577.921	1285.7
578.264	1242.76
578.606	1330.9
578.949	1319.6
579.292	1319.6
579.634	1283.44
579.977	1229.2
580.319	1369.31
580.662	1229.2
581.004	1364.79
581.346	1292.48
581.689	1278.92
582.031	1177.23
582.373	1217.91
582.715	1193.05
583.057	1260.84
583.4	1190.79
583.742	1195.31
584.084	1102.65
584.426	1254.06
584.768	1190.79
585.109	1125.25
585.451	1170.45
585.793	1240.5
586.135	1287.96
586.477	1161.41
586.818	1145.59
587.16	1091.36
587.502	1147.85
587.843	1082.32
588.185	1141.07
588.526	1061.98
588.868	1145.59
589.209	1113.95
589.55	1116.21
589.892	1107.17
590.233	1082.32
590.574	1041.64
590.915	1043.9
591.257	1019.04
591.598	1039.38
591.939	1048.42
592.28	1016.78
592.621	978.36
592.962	985.14
593.303	982.88
593.643	987.4
593.984	980.62
594.325	856.33
594.666	971.58
595.006	899.27
595.347	969.32
595.688	912.83
596.028	967.06
596.369	901.53
596.709	887.97
597.05	926.39
597.39	976.1
597.73	926.39
598.071	858.59
598.411	858.59
598.751	887.97
599.091	863.11
599.431	759.16
599.772	930.91
600.112	906.05
600.452	874.41
600.792	763.68
601.132	869.89
601.471	901.53
601.811	849.55
602.151	897.01
602.491	822.44
602.831	892.49
603.17	869.89
603.51	795.32
603.849	804.36
604.189	854.07
604.528	806.62
604.868	806.62
605.207	878.93
605.547	772.72
605.886	786.28
606.225	815.66
606.565	734.3
606.904	772.72
607.243	765.94
607.582	707.18
607.921	774.98
608.26	750.12
608.599	790.8
608.938	734.3
609.277	854.07
609.616	707.18
609.955	763.68
610.293	777.24
610.632	736.56
610.971	675.55
611.309	711.7
611.648	711.7
611.987	664.25
612.325	677.81
612.664	718.48
613.002	698.15
613.34	655.21
613.679	695.89
614.017	738.82
614.355	700.41
614.694	693.63
615.032	700.41
615.37	716.22
615.708	680.07
616.046	637.13
616.384	698.15
616.722	700.41
617.06	732.04
617.398	648.43
617.736	643.91
618.073	702.67
618.411	759.16
618.749	680.07
619.086	652.95
619.424	655.21
619.762	677.81
620.099	671.03
620.437	634.87
620.774	732.04
621.112	698.15
621.449	643.91
621.786	689.11
622.123	671.03
622.461	666.51
622.798	637.13
623.135	621.31
623.472	689.11
623.809	628.09
624.146	695.89
624.483	614.53
624.82	657.47
625.157	619.05
625.494	650.69
625.83	673.29
626.167	725.26
626.504	616.79
626.841	695.89
627.177	573.85
627.514	707.18
627.85	628.09
628.187	641.65
628.523	569.34
628.86	623.57
629.196	684.59
629.532	700.41
629.869	657.47
630.205	666.51
630.541	628.09
630.877	652.95
631.213	657.47
631.549	578.37
631.885	664.25
632.221	573.85
632.557	553.52
632.893	675.55
633.229	596.45
633.564	582.89
633.9	578.37
634.236	591.93
634.572	600.97
634.907	632.61
635.243	614.53
635.578	594.19
635.914	605.49
636.249	614.53
636.585	610.01
636.92	578.37
637.255	598.71
637.59	594.19
637.926	600.97
638.261	605.49
638.596	544.48
638.931	585.15
639.266	578.37
639.601	564.82
639.936	630.35
640.271	603.23
640.606	587.41
640.94	567.08
641.275	501.54
641.61	598.71
641.945	562.56
642.279	632.61
642.614	512.84
642.948	499.28
643.283	614.53
643.617	542.22
643.952	535.44
644.286	481.2
644.62	562.56
644.955	537.7
645.289	512.84
645.623	576.11
645.957	524.14
646.291	474.42
646.625	528.66
646.959	526.4
647.293	501.54
647.627	542.22
647.961	451.82
648.295	533.18
648.629	517.36
648.962	524.14
649.296	549
649.63	497.02
649.963	483.46
650.297	388.55
650.63	537.7
650.964	426.97
651.297	549
651.631	524.14
651.964	492.5
652.297	456.34
652.631	402.11
652.964	515.1
653.297	490.24
653.63	438.27
653.963	424.71
654.296	413.41
654.629	487.98
654.962	415.67
655.295	420.19
655.628	397.59
655.961	404.37
656.293	458.6
656.626	368.21
656.959	429.23
657.291	533.18
657.624	451.82
657.956	501.54
658.289	386.29
658.621	411.15
658.954	411.15
659.286	465.38
659.618	379.51
659.95	492.5
660.283	483.46
660.615	460.86
660.947	447.3
661.279	454.08
661.611	361.43
661.943	449.56
662.275	424.71
662.607	417.93
662.939	417.93
663.27	458.6
663.602	451.82
663.934	451.82
664.266	374.99
664.597	384.03
664.929	350.13
665.26	483.46
665.592	384.03
665.923	420.19
666.255	381.77
666.586	379.51
666.917	402.11
667.248	445.04
667.58	395.33
667.911	415.67
668.242	447.3
668.573	374.99
668.904	390.81
669.235	402.11
669.566	304.94
669.897	368.21
670.228	386.29
670.558	379.51
670.889	368.21
671.22	393.07
671.551	368.21
671.881	356.91
672.212	406.63
672.542	377.25
672.873	347.87
673.203	365.95
673.533	395.33
673.864	411.15
674.194	399.85
674.524	395.33
674.855	399.85
675.185	313.97
675.515	438.27
675.845	365.95
676.175	386.29
676.505	352.39
676.835	399.85
677.165	395.33
677.494	411.15
677.824	316.23
678.154	343.35
678.484	343.35
678.813	415.67
679.143	309.46
679.472	343.35
679.802	381.77
680.131	368.21
680.461	329.79
680.79	316.23
681.119	363.69
681.449	379.51
681.778	307.2
682.107	347.87
682.436	399.85
682.765	332.05
683.094	327.53
683.423	311.71
683.752	356.91
684.081	311.71
684.41	359.17
684.739	282.34
685.067	363.69
685.396	316.23
685.725	422.45
686.053	386.29
686.382	320.75
686.711	338.83
687.039	325.27
687.367	275.56
687.696	243.92
688.024	325.27
688.352	341.09
688.681	343.35
689.009	284.6
689.337	406.63
689.665	370.47
689.993	393.07
690.321	370.47
690.649	325.27
690.977	323.01
691.305	336.57
691.633	352.39
691.961	289.12
692.288	354.65
692.616	338.83
692.944	313.97
693.271	307.2
693.599	271.04
693.926	356.91
694.254	359.17
694.581	327.53
694.908	361.43
695.236	309.46
695.563	298.16
695.89	372.73
696.217	399.85
696.544	309.46
696.871	336.57
697.198	311.71
697.525	300.42
697.852	291.38
698.179	252.96
698.506	311.71
698.833	304.94
699.16	332.05
699.486	354.65
699.813	424.71
700.139	336.57
700.466	307.2
700.793	309.46
701.119	374.99
701.445	323.01
701.772	345.61
702.098	304.94
702.424	323.01
702.75	334.31
703.077	332.05
703.403	291.38
703.729	318.49
704.055	350.13
704.381	372.73
704.707	311.71
705.033	341.09
705.358	313.97
705.684	304.94
706.01	307.2
706.336	313.97
706.661	295.9
706.987	311.71
707.312	318.49
707.638	336.57
707.963	304.94
708.289	338.83
708.614	350.13
708.939	295.9
709.265	293.64
709.59	356.91
709.915	338.83
710.24	352.39
710.565	316.23
710.89	300.42
711.215	264.26
711.54	334.31
711.865	295.9
712.19	316.23
712.515	338.83
712.839	316.23
713.164	277.82
713.489	338.83
713.813	300.42
714.138	241.66
714.462	271.04
714.787	277.82
715.111	298.16
715.435	300.42
715.76	219.06
716.084	286.86
716.408	318.49
716.732	282.34
717.056	338.83
717.381	338.83
717.705	280.08
718.028	325.27
718.352	273.3
718.676	345.61
719	316.23
719.324	304.94
719.648	345.61
719.971	273.3
720.295	277.82
720.618	280.08
720.942	359.17
721.265	309.46
721.589	325.27
721.912	302.68
722.236	291.38
722.559	361.43
722.882	302.68
723.205	359.17
723.528	327.53
723.851	295.9
724.174	293.64
724.497	307.2
724.82	368.21
725.143	329.79
725.466	257.48
725.789	255.22
726.112	320.75
726.434	345.61
726.757	302.68
727.08	307.2
727.402	307.2
727.725	311.71
728.047	282.34
728.37	271.04
728.692	374.99
729.014	291.38
729.336	293.64
729.659	234.88
729.981	277.82
730.303	313.97
730.625	332.05
730.947	316.23
731.269	286.86
731.591	318.49
731.913	320.75
732.235	239.4
732.556	225.84
732.878	282.34
733.2	323.01
733.521	255.22
733.843	298.16
734.164	273.3
734.486	307.2
734.807	277.82
735.129	338.83
735.45	295.9
735.771	293.64
736.092	277.82
736.414	363.69
736.735	246.18
737.056	307.2
737.377	221.32
737.698	295.9
738.019	309.46
738.34	304.94
738.66	293.64
738.981	338.83
739.302	302.68
739.623	277.82
739.943	264.26
740.264	234.88
740.584	307.2
740.905	259.74
741.225	320.75
741.546	289.12
741.866	293.64
742.186	356.91
742.507	255.22
742.827	239.4
743.147	282.34
743.467	293.64
743.787	293.64
744.107	300.42
744.427	241.66
744.747	313.97
745.067	257.48
745.386	304.94
745.706	291.38
746.026	257.48
746.346	291.38
746.665	289.12
746.985	302.68
747.304	255.22
747.624	307.2
747.943	309.46
748.262	264.26
748.582	291.38
748.901	246.18
749.22	313.97
749.539	311.71
749.858	313.97
750.177	275.56
750.496	207.76
750.815	309.46
751.134	282.34
751.453	343.35
751.772	255.22
752.09	277.82
752.409	257.48
752.728	221.32
753.046	275.56
753.365	293.64
753.683	219.06
754.002	262
754.32	271.04
754.639	262
754.957	338.83
755.275	284.6
755.593	365.95
755.911	332.05
756.23	350.13
756.548	325.27
756.866	309.46
757.183	370.47
757.501	280.08
757.819	252.96
758.137	271.04
758.455	336.57
758.772	262
759.09	273.3
759.408	280.08
759.725	309.46
760.043	277.82
760.36	298.16
760.677	228.1
760.995	320.75
761.312	250.7
761.629	273.3
761.946	271.04
762.264	257.48
762.581	266.52
762.898	309.46
763.215	239.4
763.532	223.58
763.848	257.48
764.165	320.75
764.482	343.35
764.799	225.84
765.115	230.36
765.432	243.92
765.749	280.08
766.065	286.86
766.382	284.6
766.698	264.26
767.014	252.96
767.331	280.08
767.647	230.36
767.963	293.64
768.279	347.87
768.595	372.73
768.911	295.9
769.227	307.2
769.543	307.2
769.859	289.12
770.175	275.56
770.491	219.06
770.807	259.74
771.122	232.62
771.438	246.18
771.754	343.35
772.069	291.38
772.385	332.05
772.7	318.49
773.016	259.74
773.331	250.7
773.646	268.78
773.961	271.04
774.277	291.38
774.592	225.84
774.907	259.74
775.222	271.04
775.537	250.7
775.852	295.9
776.167	286.86
776.482	259.74
776.796	289.12
777.111	311.71
777.426	298.16
777.74	271.04
778.055	273.3
778.369	282.34
778.684	298.16
778.998	347.87
779.313	286.86
779.627	241.66
779.941	284.6
780.255	216.8
780.57	298.16
780.884	309.46
781.198	291.38
781.512	334.31
781.826	252.96
782.14	334.31
782.453	334.31
782.767	282.34
783.081	282.34
783.395	275.56
783.708	313.97
784.022	282.34
784.335	234.88
784.649	264.26
784.962	252.96
785.276	232.62
785.589	221.32
785.902	277.82
786.216	232.62
786.529	241.66
786.842	309.46
787.155	327.53
787.468	264.26
787.781	323.01
788.094	275.56
788.407	291.38
788.72	246.18
789.032	286.86
789.345	334.31
789.658	343.35
789.97	266.52
790.283	237.14
790.595	205.5
790.908	275.56
791.22	271.04
791.532	291.38
791.845	248.44
792.157	266.52
792.469	246.18
792.781	271.04
793.093	198.72
793.405	302.68
793.717	293.64
794.029	275.56
794.341	241.66
794.653	275.56
794.965	302.68
795.276	289.12
795.588	323.01
795.9	341.09
796.211	273.3
796.523	216.8
796.834	277.82
797.146	262
797.457	264.26
797.768	280.08
798.08	327.53
798.391	311.71
798.702	318.49
799.013	282.34
799.324	336.57
799.635	241.66
799.946	219.06
800.257	252.96
800.568	266.52
800.878	255.22
801.189	241.66
801.5	243.92
801.81	266.52
802.121	271.04
802.431	298.16
802.742	266.52
803.052	255.22
803.363	289.12
803.673	323.01
803.983	284.6
804.293	234.88
804.603	255.22
804.913	264.26
805.224	325.27
805.533	203.24
805.843	311.71
806.153	316.23
806.463	237.14
806.773	237.14
807.083	284.6
807.392	262
807.702	243.92
808.011	293.64
808.321	230.36
808.63	259.74
808.94	219.06
809.249	273.3
809.558	241.66
809.868	187.42
810.177	232.62
810.486	262
810.795	280.08
811.104	323.01
811.413	255.22
811.722	304.94
812.031	332.05
812.339	345.61
812.648	277.82
812.957	280.08
813.266	250.7
813.574	320.75
813.883	234.88
814.191	228.1
814.5	257.48
814.808	232.62
815.116	286.86
815.424	295.9
815.733	252.96
816.041	234.88
816.349	277.82
816.657	273.3
816.965	198.72
817.273	216.8
817.581	271.04
817.889	286.86
818.196	284.6
818.504	307.2
818.812	298.16
819.12	327.53
819.427	289.12
819.735	338.83
820.042	273.3
820.349	250.7
820.657	289.12
820.964	268.78
821.271	268.78
821.579	302.68
821.886	239.4
822.193	311.71
822.5	295.9
822.807	273.3
823.114	293.64
823.421	239.4
823.727	350.13
824.034	298.16
824.341	252.96
824.648	316.23
824.954	316.23
825.261	196.46
825.567	232.62
825.874	280.08
826.18	286.86
826.486	259.74
826.793	223.58
827.099	239.4
827.405	323.01
827.711	302.68
828.017	241.66
828.323	325.27
828.629	313.97
828.935	230.36
829.241	252.96
829.547	262
829.852	252.96
830.158	277.82
830.464	257.48
830.769	311.71
831.075	234.88
831.38	243.92
831.686	266.52
831.991	316.23
832.296	266.52
832.601	307.2
832.907	271.04
833.212	268.78
833.517	313.97
833.822	264.26
834.127	268.78
834.432	257.48
834.737	271.04
835.041	268.78
835.346	264.26
835.651	264.26
835.956	262
836.26	327.53
836.565	338.83
836.869	241.66
837.174	282.34
837.478	259.74
837.782	277.82
838.087	248.44
838.391	280.08
838.695	320.75
838.999	273.3
839.303	262
839.607	250.7
839.911	266.52
840.215	255.22
840.519	311.71
840.822	300.42
841.126	280.08
841.43	264.26
841.733	298.16
842.037	264.26
842.34	275.56
842.644	286.86
842.947	280.08
843.251	365.95
843.554	273.3
843.857	255.22
844.16	277.82
844.463	252.96
844.766	248.44
845.069	234.88
845.372	223.58
845.675	304.94
845.978	262
846.281	248.44
846.583	323.01
846.886	228.1
847.189	273.3
847.491	230.36
847.794	243.92
848.096	248.44
848.399	300.42
848.701	255.22
849.003	255.22
849.305	248.44
849.608	241.66
849.91	266.52
850.212	316.23
850.514	302.68
850.816	259.74
851.118	286.86
851.419	291.38
851.721	271.04
852.023	273.3
852.325	311.71
852.626	232.62
852.928	262
853.229	248.44
853.531	221.32
853.832	214.54
854.133	275.56
854.435	313.97
854.736	277.82
855.037	293.64
855.338	162.57
855.639	182.9
855.94	255.22
856.241	282.34
856.542	257.48
856.843	262
857.144	262
857.444	243.92
857.745	336.57
858.046	286.86
858.346	250.7
858.647	228.1
858.947	284.6
859.247	225.84
859.548	307.2
859.848	262
860.148	298.16
860.448	336.57
860.749	316.23
861.049	289.12
861.349	219.06
861.648	246.18
861.948	266.52
862.248	273.3
862.548	225.84
862.848	291.38
863.147	266.52
863.447	309.46
863.746	266.52
864.046	284.6
864.345	282.34
864.645	381.77
864.944	275.56
865.243	230.36
865.542	284.6
865.842	293.64
866.141	207.76
866.44	216.8
866.739	286.86
867.038	298.16
867.337	284.6
867.635	259.74
867.934	225.84
868.233	225.84
868.531	277.82
868.83	246.18
869.129	291.38
869.427	282.34
869.725	266.52
870.024	241.66
870.322	284.6
870.62	241.66
870.918	286.86
871.217	370.47
871.515	268.78
871.813	266.52
872.111	259.74
872.409	277.82
872.706	289.12
873.004	304.94
873.302	250.7
873.6	246.18
873.897	309.46
874.195	289.12
874.492	286.86
874.79	311.71
875.087	277.82
875.384	205.5
875.682	262
875.979	255.22
876.276	225.84
876.573	264.26
876.87	264.26
877.167	264.26
