Data from PL_2polymer_F8BT_MEHPPV_USB2H096331_0648.txt Node
Date: Tue Dec 15 16:04:35 CET 2020
User: spadmin
Spectrometer: USB2+H09633
Trigger mode: 0
Integration Time (sec): 1.000000E-2
Scans to average: 1
Electric dark correction enabled: true
Nonlinearity correction enabled: false
Boxcar width: 0
XAxis mode: Wavelengths
Number of Pixels in Spectrum: 2048
>>>>>Begin Spectral Data<<<<<
174.027	-31.64
174.405	-31.64
174.783	-31.64
175.162	-112.99
175.54	-83.61
175.918	-108.47
176.296	-122.03
176.674	-133.33
177.052	-67.79
177.43	-94.91
177.808	-42.94
178.186	-74.57
178.564	-33.9
178.942	-0
179.32	-20.34
179.698	76.83
180.076	-6.78
180.453	56.5
180.831	160.45
181.209	110.73
181.587	101.69
181.965	90.39
182.342	131.07
182.72	216.94
183.098	201.12
183.475	253.1
183.853	223.72
184.231	223.72
184.608	298.3
184.986	298.3
185.363	357.05
185.741	284.74
186.118	289.26
186.496	343.49
186.873	361.57
187.251	296.04
187.628	314.12
188.006	338.97
188.383	363.83
188.76	411.29
189.138	287
189.515	357.05
189.892	314.12
190.27	332.19
190.647	350.27
191.024	307.34
191.401	307.34
191.778	332.19
192.155	354.79
192.533	357.05
192.91	314.12
193.287	262.14
193.664	372.87
194.041	334.45
194.418	316.38
194.795	332.19
195.172	275.7
195.549	352.53
195.926	282.48
196.302	298.3
196.679	336.71
197.056	345.75
197.433	311.86
197.81	314.12
198.187	334.45
198.563	280.22
198.94	305.08
199.317	282.48
199.693	300.56
200.07	255.36
200.447	323.16
200.823	338.97
201.2	298.3
201.576	287
201.953	343.49
202.329	284.74
202.706	429.37
203.082	255.36
203.459	277.96
203.835	345.75
204.212	334.45
204.588	318.64
204.964	309.6
205.341	253.1
205.717	370.61
206.093	284.74
206.469	284.74
206.846	338.97
207.222	282.48
207.598	253.1
207.974	268.92
208.35	381.91
208.726	291.52
209.102	336.71
209.479	314.12
209.855	287
210.231	262.14
210.607	320.9
210.982	309.6
211.358	357.05
211.734	361.57
212.11	341.23
212.486	329.93
212.862	307.34
213.238	422.59
213.614	305.08
213.989	282.48
214.365	370.61
214.741	445.19
215.116	323.16
215.492	323.16
215.868	280.22
216.243	375.13
216.619	384.17
216.995	320.9
217.37	384.17
217.746	309.6
218.121	311.86
218.497	368.35
218.872	250.84
219.247	338.97
219.623	368.35
219.998	314.12
220.374	370.61
220.749	334.45
221.124	357.05
221.499	393.21
221.875	354.79
222.25	336.71
222.625	366.09
223	345.75
223.376	316.38
223.751	370.61
224.126	375.13
224.501	316.38
224.876	336.71
225.251	368.35
225.626	302.82
226.001	338.97
226.376	271.18
226.751	395.47
227.126	329.93
227.501	393.21
227.875	336.71
228.25	318.64
228.625	334.45
229	327.67
229.375	329.93
229.749	345.75
230.124	372.87
230.499	341.23
230.873	314.12
231.248	379.65
231.623	348.01
231.997	379.65
232.372	296.04
232.746	442.93
233.121	361.57
233.495	431.63
233.87	359.31
234.244	348.01
234.619	395.47
234.993	325.42
235.367	397.73
235.742	368.35
236.116	393.21
236.49	336.71
236.865	296.04
237.239	296.04
237.613	341.23
237.987	348.01
238.361	332.19
238.736	327.67
239.11	357.05
239.484	402.25
239.858	399.99
240.232	411.29
240.606	354.79
240.98	370.61
241.354	320.9
241.728	352.53
242.102	320.9
242.475	377.39
242.849	298.3
243.223	368.35
243.597	361.57
243.971	325.42
244.344	390.95
244.718	386.43
245.092	368.35
245.466	404.51
245.839	332.19
246.213	399.99
246.586	388.69
246.96	327.67
247.334	343.49
247.707	395.47
248.081	302.82
248.454	381.91
248.828	379.65
249.201	366.09
249.574	348.01
249.948	343.49
250.321	343.49
250.694	372.87
251.068	325.42
251.441	413.55
251.814	402.25
252.187	413.55
252.561	361.57
252.934	341.23
253.307	318.64
253.68	440.67
254.053	334.45
254.426	359.31
254.799	302.82
255.172	341.23
255.545	368.35
255.918	338.97
256.291	379.65
256.664	406.77
257.037	341.23
257.41	309.6
257.782	411.29
258.155	361.57
258.528	381.91
258.901	418.07
259.273	386.43
259.646	404.51
260.019	422.59
260.391	384.17
260.764	399.99
261.137	449.71
261.509	413.55
261.882	384.17
262.254	379.65
262.627	352.53
262.999	411.29
263.372	386.43
263.744	343.49
264.116	411.29
264.489	368.35
264.861	352.53
265.233	395.47
265.606	348.01
265.978	359.31
266.35	438.41
266.722	384.17
267.094	440.67
267.467	350.27
267.839	404.51
268.211	386.43
268.583	377.39
268.955	422.59
269.327	377.39
269.699	456.49
270.071	402.25
270.443	354.79
270.815	431.63
271.186	431.63
271.558	393.21
271.93	386.43
272.302	348.01
272.674	431.63
273.045	372.87
273.417	424.85
273.789	465.52
274.16	377.39
274.532	422.59
274.904	381.91
275.275	354.79
275.647	307.34
276.018	418.07
276.39	467.78
276.761	388.69
277.133	390.95
277.504	368.35
277.875	413.55
278.247	440.67
278.618	404.51
278.989	494.9
279.361	381.91
279.732	390.95
280.103	372.87
280.474	377.39
280.846	461
281.217	440.67
281.588	316.38
281.959	411.29
282.33	379.65
282.701	440.67
283.072	485.86
283.443	409.03
283.814	424.85
284.185	420.33
284.556	438.41
284.927	395.47
285.297	472.3
285.668	431.63
286.039	445.19
286.41	375.13
286.781	411.29
287.151	388.69
287.522	381.91
287.893	397.73
288.263	406.77
288.634	409.03
289.004	515.24
289.375	399.99
289.745	415.81
290.116	427.11
290.486	463.26
290.857	465.52
291.227	424.85
291.598	474.56
291.968	454.23
292.338	404.51
292.709	458.74
293.079	345.75
293.449	454.23
293.819	501.68
294.189	526.54
294.56	422.59
294.93	456.49
295.3	451.97
295.67	427.11
296.04	424.85
296.41	476.82
296.78	456.49
297.15	420.33
297.52	433.89
297.89	406.77
298.259	454.23
298.629	499.42
298.999	431.63
299.369	463.26
299.739	440.67
300.108	535.58
300.478	488.12
300.848	492.64
301.217	533.32
301.587	438.41
301.957	436.15
302.326	454.23
302.696	451.97
303.065	420.33
303.435	476.82
303.804	420.33
304.174	479.08
304.543	447.45
304.912	458.74
305.282	465.52
305.651	526.54
306.02	490.38
306.39	463.26
306.759	481.34
307.128	479.08
307.497	431.63
307.866	422.59
308.235	476.82
308.604	397.73
308.974	546.88
309.343	438.41
309.712	465.52
310.08	465.52
310.449	461
310.818	483.6
311.187	562.7
311.556	445.19
311.925	501.68
312.294	472.3
312.662	447.45
313.031	404.51
313.4	415.81
313.769	479.08
314.137	519.76
314.506	537.84
314.874	456.49
315.243	535.58
315.612	467.78
315.98	467.78
316.349	481.34
316.717	524.28
317.085	526.54
317.454	533.32
317.822	442.93
318.191	531.06
318.559	519.76
318.927	528.8
319.295	526.54
319.664	526.54
320.032	483.6
320.4	424.85
320.768	476.82
321.136	481.34
321.504	501.68
321.872	461
322.24	492.64
322.608	488.12
322.976	492.64
323.344	503.94
323.712	463.26
324.08	465.52
324.448	517.5
324.816	494.9
325.183	456.49
325.551	542.36
325.919	476.82
326.287	519.76
326.654	512.98
327.022	555.92
327.389	492.64
327.757	517.5
328.125	474.56
328.492	555.92
328.86	492.64
329.227	519.76
329.594	517.5
329.962	451.97
330.329	531.06
330.697	576.26
331.064	524.28
331.431	576.26
331.798	610.15
332.166	596.59
332.533	574
332.9	628.23
333.267	537.84
333.634	574
334.001	623.71
334.368	583.04
334.735	607.89
335.102	546.88
335.469	616.93
335.836	546.88
336.203	533.32
336.57	574
336.937	564.96
337.304	587.56
337.67	605.63
338.037	637.27
338.404	655.35
338.771	612.41
339.137	696.03
339.504	522.02
339.87	607.89
340.237	632.75
340.604	616.93
340.97	576.26
341.337	605.63
341.703	537.84
342.069	546.88
342.436	668.91
342.802	632.75
343.169	614.67
343.535	639.53
343.901	644.05
344.267	628.23
344.634	684.73
345	621.45
345.366	614.67
345.732	648.57
346.098	644.05
346.464	741.22
346.83	698.29
347.196	607.89
347.562	580.78
347.928	587.56
348.294	664.39
348.66	736.7
349.026	564.96
349.392	659.87
349.757	612.41
350.123	592.07
350.489	705.07
350.855	603.37
351.22	662.13
351.586	680.21
351.951	745.74
352.317	743.48
352.683	628.23
353.048	682.47
353.414	689.25
353.779	727.66
354.144	705.07
354.51	680.21
354.875	743.48
355.24	766.08
355.606	675.69
355.971	736.7
356.336	795.46
356.701	768.34
357.067	752.52
357.432	718.63
357.797	766.08
358.162	702.81
358.527	759.3
358.892	847.44
359.257	741.22
359.622	818.06
359.987	820.32
360.352	851.95
360.717	831.62
361.082	806.76
361.446	851.95
361.811	788.68
362.176	836.14
362.541	903.93
362.905	879.07
363.27	903.93
363.635	967.21
363.999	928.79
364.364	994.32
364.728	944.61
365.093	944.61
365.457	1021.44
365.822	860.99
366.186	985.28
366.55	1035
366.915	1028.22
367.279	1001.1
367.643	1012.4
368.008	955.91
368.372	1010.14
368.736	1125.39
369.1	1025.96
369.464	1111.84
369.828	1044.04
370.192	1096.02
370.556	1132.17
370.92	1229.35
371.284	1166.07
371.648	1195.45
372.012	1236.13
372.376	1317.48
372.74	1369.46
373.104	1351.38
373.468	1425.95
373.831	1446.29
374.195	1620.3
374.559	1518.6
374.922	1525.38
375.286	1554.76
375.65	1656.45
376.013	1697.13
376.377	1656.45
376.74	1728.77
377.104	1882.44
377.467	2038.36
377.83	2042.88
378.194	2171.69
378.557	2225.93
378.92	2363.78
379.284	2445.13
379.647	2634.96
380.01	2763.77
380.373	2969.41
380.736	3068.85
381.1	3547.93
381.463	3649.62
381.826	3970.52
382.189	4189.72
382.552	4610.05
382.915	4885.75
383.278	5188.56
383.64	5785.16
384.003	6370.45
384.366	6752.36
384.729	7491.33
385.092	7945.55
385.454	8515.03
385.817	9491.28
386.18	10399.73
386.542	11586.14
386.905	12573.68
387.268	13861.78
387.63	15100.17
387.993	16300.14
388.355	17938.51
388.718	19592.71
389.08	21472.88
389.442	23386.96
389.805	25470.52
390.167	27237.7
390.529	30652.3
390.892	33709.85
391.254	35967.42
391.616	38410.29
391.978	42559.33
392.34	46645.1
392.702	48565.95
393.064	52050.61
393.426	53933.05
393.788	55901.35
394.15	57365.72
394.512	59148.73
394.874	60967.89
395.236	62979.13
395.598	64493.22
395.96	65069.48
396.321	65069.48
396.683	65069.48
397.045	65069.48
397.406	65069.48
397.768	65069.48
398.13	65069.48
398.491	65069.48
398.853	65069.48
399.214	65069.48
399.576	65069.48
399.937	65069.48
400.299	65069.48
400.66	65069.48
401.021	65069.48
401.383	65069.48
401.744	65069.48
402.105	65069.48
402.466	65069.48
402.827	65069.48
403.189	65069.48
403.55	65069.48
403.911	65069.48
404.272	65069.48
404.633	65069.48
404.994	65069.48
405.355	65069.48
405.716	65069.48
406.077	65069.48
406.437	65069.48
406.798	65069.48
407.159	65069.48
407.52	65069.48
407.88	65069.48
408.241	65069.48
408.602	65069.48
408.962	65069.48
409.323	65069.48
409.684	65069.48
410.044	65069.48
410.405	65069.48
410.765	65069.48
411.125	65069.48
411.486	65069.48
411.846	65069.48
412.206	65069.48
412.567	65069.48
412.927	65069.48
413.287	65069.48
413.647	65069.48
414.007	65069.48
414.368	65069.48
414.728	65069.48
415.088	65069.48
415.448	65069.48
415.808	65069.48
416.168	65069.48
416.528	65069.48
416.887	65069.48
417.247	65069.48
417.607	65069.48
417.967	65069.48
418.327	65069.48
418.686	65069.48
419.046	65069.48
419.406	65069.48
419.765	65069.48
420.125	65069.48
420.484	65069.48
420.844	65069.48
421.203	65069.48
421.563	64615.25
421.922	64203.96
422.282	62617.56
422.641	61058.28
423	59862.83
423.36	58597.33
423.719	56995.11
424.078	54861.83
424.437	53137.59
424.796	51212.21
425.155	50168.17
425.515	47228.14
425.874	46274.49
426.233	42003.42
426.592	39406.87
426.95	38715.37
427.309	36710.9
427.668	35519.97
428.027	32320.05
428.386	32152.83
428.745	29047.82
429.103	27384.59
429.462	26064.85
429.821	24394.84
430.179	23407.29
430.538	22501.1
430.897	22107.89
431.255	20268.39
431.614	19622.08
431.972	18975.77
432.33	17843.6
432.689	17538.52
433.047	16815.38
433.405	15285.47
433.764	14833.51
434.122	14483.23
434.48	13590.6
434.838	13007.57
435.197	12424.53
435.555	12096.86
435.913	11337.55
436.271	11005.36
436.629	10634.75
436.987	10076.57
437.345	9656.24
437.703	9274.33
438.061	8831.41
438.418	8137.64
438.776	7898.1
439.134	7748.95
439.492	7362.52
439.849	6921.85
440.207	6711.69
440.565	6381.75
440.922	6144.47
441.28	5613.41
441.637	5516.24
441.995	5297.04
442.352	5150.15
442.71	4842.81
443.067	4790.83
443.425	4490.28
443.782	4295.93
444.139	4431.52
444.496	4153.56
444.854	4040.57
445.211	3825.89
445.568	3791.99
445.925	3482.39
446.282	3301.61
446.639	3321.95
446.996	3260.93
447.353	3292.57
447.71	3179.58
448.067	3102.74
448.424	3016.87
448.781	2867.72
449.137	2836.08
449.494	2657.56
449.851	2517.45
450.208	2521.97
450.564	2372.82
450.921	2119.72
451.278	2234.97
451.634	2293.72
451.991	2121.98
452.347	2097.12
452.704	2022.55
453.06	1941.19
453.416	1918.59
453.773	1726.51
454.129	1749.11
454.485	1633.86
454.841	1683.57
455.198	1613.52
455.554	1647.41
455.91	1590.92
456.266	1502.79
456.622	1536.68
456.978	1421.43
457.334	1276.8
457.69	1317.48
458.046	1175.11
458.402	1224.83
458.758	1204.49
459.114	1161.55
459.469	1238.39
459.825	1188.67
460.181	1157.03
460.536	1053.08
460.892	1030.48
461.248	1080.2
461.603	1021.44
461.959	1012.4
462.314	992.06
462.67	992.06
463.025	953.65
463.38	933.31
463.736	973.99
464.091	912.97
464.446	910.71
464.802	856.47
465.157	806.76
465.512	874.55
465.867	944.61
466.222	822.58
466.577	793.2
466.932	743.48
467.287	743.48
467.642	768.34
467.997	813.54
468.352	797.72
468.707	795.46
469.062	790.94
469.417	671.17
469.771	720.88
470.126	738.96
470.481	725.4
470.835	644.05
471.19	711.85
471.544	741.22
471.899	705.07
472.253	714.11
472.608	686.99
472.962	795.46
473.317	702.81
473.671	662.13
474.025	709.59
474.38	684.73
474.734	648.57
475.088	684.73
475.442	635.01
475.796	621.45
476.15	641.79
476.504	675.69
476.858	625.97
477.212	664.39
477.566	607.89
477.92	637.27
478.274	601.11
478.628	589.81
478.982	628.23
479.336	605.63
479.689	628.23
480.043	555.92
480.397	587.56
480.75	594.33
481.104	526.54
481.457	605.63
481.811	524.28
482.164	576.26
482.518	585.3
482.871	535.58
483.225	603.37
483.578	560.44
483.931	542.36
484.284	531.06
484.638	598.85
484.991	628.23
485.344	537.84
485.697	508.46
486.05	603.37
486.403	542.36
486.756	564.96
487.109	549.14
487.462	540.1
487.815	564.96
488.168	535.58
488.52	537.84
488.873	494.9
489.226	483.6
489.579	546.88
489.931	567.22
490.284	589.81
490.637	465.52
490.989	522.02
491.342	522.02
491.694	564.96
492.047	515.24
492.399	485.86
492.751	463.26
493.104	488.12
493.456	494.9
493.808	540.1
494.16	454.23
494.513	574
494.865	488.12
495.217	580.78
495.569	470.04
495.921	474.56
496.273	564.96
496.625	555.92
496.977	483.6
497.329	483.6
497.68	474.56
498.032	515.24
498.384	409.03
498.736	508.46
499.087	492.64
499.439	470.04
499.791	454.23
500.142	497.16
500.494	474.56
500.845	438.41
501.197	517.5
501.548	512.98
501.9	481.34
502.251	555.92
502.602	537.84
502.954	420.33
503.305	508.46
503.656	515.24
504.007	472.3
504.358	476.82
504.709	474.56
505.061	395.47
505.412	470.04
505.763	474.56
506.113	533.32
506.464	483.6
506.815	517.5
507.166	519.76
507.517	494.9
507.868	540.1
508.218	499.42
508.569	512.98
508.92	519.76
509.27	510.72
509.621	476.82
509.971	494.9
510.322	558.18
510.672	562.7
511.023	506.2
511.373	519.76
511.723	519.76
512.074	510.72
512.424	445.19
512.774	451.97
513.124	535.58
513.475	440.67
513.825	569.48
514.175	571.74
514.525	535.58
514.875	528.8
515.225	635.01
515.575	531.06
515.924	533.32
516.274	558.18
516.624	594.33
516.974	519.76
517.324	619.19
517.673	546.88
518.023	537.84
518.373	535.58
518.722	589.81
519.072	553.66
519.421	551.4
519.771	576.26
520.12	560.44
520.469	585.3
520.819	574
521.168	619.19
521.517	675.69
521.867	619.19
522.216	625.97
522.565	594.33
522.914	574
523.263	610.15
523.612	612.41
523.961	614.67
524.31	567.22
524.659	596.59
525.008	610.15
525.357	644.05
525.705	612.41
526.054	580.78
526.403	641.79
526.752	512.98
527.1	646.31
527.449	632.75
527.797	585.3
528.146	549.14
528.495	601.11
528.843	655.35
529.191	623.71
529.54	625.97
529.888	578.52
530.236	612.41
530.585	646.31
530.933	589.81
531.281	607.89
531.629	635.01
531.977	610.15
532.325	619.19
532.673	718.63
533.021	684.73
533.369	635.01
533.717	592.07
534.065	682.47
534.413	607.89
534.761	705.07
535.108	639.53
535.456	598.85
535.804	648.57
536.151	659.87
536.499	576.26
536.847	607.89
537.194	601.11
537.542	625.97
537.889	583.04
538.236	632.75
538.584	689.25
538.931	666.65
539.278	616.93
539.626	574
539.973	630.49
540.32	646.31
540.667	709.59
541.014	587.56
541.361	598.85
541.708	623.71
542.055	623.71
542.402	601.11
542.749	648.57
543.096	612.41
543.443	666.65
543.789	657.61
544.136	625.97
544.483	632.75
544.83	610.15
545.176	653.09
545.523	546.88
545.869	619.19
546.216	655.35
546.562	659.87
546.909	574
547.255	612.41
547.601	564.96
547.948	594.33
548.294	632.75
548.64	594.33
548.986	578.52
549.332	612.41
549.678	682.47
550.025	564.96
550.371	614.67
550.717	673.43
551.062	653.09
551.408	614.67
551.754	589.81
552.1	607.89
552.446	637.27
552.792	601.11
553.137	639.53
553.483	540.1
553.828	682.47
554.174	673.43
554.52	630.49
554.865	646.31
555.211	616.93
555.556	671.17
555.901	662.13
556.247	580.78
556.592	673.43
556.937	677.95
557.282	637.27
557.628	650.83
557.973	684.73
558.318	677.95
558.663	716.37
559.008	641.79
559.353	646.31
559.698	711.85
560.043	662.13
560.388	630.49
560.732	725.4
561.077	696.03
561.422	644.05
561.766	596.59
562.111	680.21
562.456	691.51
562.8	757.04
563.145	700.55
563.489	684.73
563.834	811.28
564.178	671.17
564.523	754.78
564.867	768.34
565.211	698.29
565.555	786.42
565.9	752.52
566.244	752.52
566.588	748
566.932	743.48
567.276	784.16
567.62	833.88
567.964	824.84
568.308	824.84
568.652	732.18
568.996	743.48
569.339	752.52
569.683	732.18
570.027	813.54
570.371	824.84
570.714	757.04
571.058	727.66
571.401	772.86
571.745	696.03
572.088	793.2
572.432	804.5
572.775	840.66
573.118	863.25
573.462	752.52
573.805	876.81
574.148	797.72
574.491	770.6
574.835	811.28
575.178	845.18
575.521	790.94
575.864	854.21
576.207	766.08
576.55	860.99
576.892	795.46
577.235	894.89
577.578	840.66
577.921	840.66
578.264	851.95
578.606	863.25
578.949	838.4
579.292	888.11
579.634	919.75
579.977	874.55
580.319	847.44
580.662	831.62
581.004	822.58
581.346	860.99
581.689	867.77
582.031	838.4
582.373	757.04
582.715	874.55
583.057	831.62
583.4	955.91
583.742	784.16
584.084	838.4
584.426	815.8
584.768	777.38
585.109	799.98
585.451	822.58
585.793	734.44
586.135	829.36
586.477	772.86
586.818	763.82
587.16	799.98
587.502	750.26
587.843	714.11
588.185	738.96
588.526	793.2
588.868	784.16
589.209	693.77
589.55	790.94
589.892	734.44
590.233	748
590.574	766.08
590.915	824.84
591.257	752.52
591.598	700.55
591.939	671.17
592.28	662.13
592.621	637.27
592.962	657.61
593.303	653.09
593.643	666.65
593.984	655.35
594.325	671.17
594.666	641.79
595.006	668.91
595.347	650.83
595.688	664.39
596.028	630.49
596.369	689.25
596.709	677.95
597.05	705.07
597.39	686.99
597.73	716.37
598.071	635.01
598.411	659.87
598.751	625.97
599.091	657.61
599.431	632.75
599.772	666.65
600.112	598.85
600.452	644.05
600.792	616.93
601.132	646.31
601.471	580.78
601.811	612.41
602.151	551.4
602.491	576.26
602.831	537.84
603.17	574
603.51	571.74
603.849	668.91
604.189	558.18
604.528	533.32
604.868	564.96
605.207	601.11
605.547	549.14
605.886	562.7
606.225	549.14
606.565	576.26
606.904	558.18
607.243	524.28
607.582	433.89
607.921	537.84
608.26	497.16
608.599	571.74
608.938	587.56
609.277	528.8
609.616	569.48
609.955	524.28
610.293	540.1
610.632	546.88
610.971	488.12
611.309	472.3
611.648	540.1
611.987	576.26
612.325	564.96
612.664	628.23
613.002	506.2
613.34	544.62
613.679	637.27
614.017	560.44
614.355	592.07
614.694	519.76
615.032	528.8
615.37	560.44
615.708	508.46
616.046	522.02
616.384	540.1
616.722	569.48
617.06	551.4
617.398	535.58
617.736	517.5
618.073	537.84
618.411	519.76
618.749	501.68
619.086	585.3
619.424	515.24
619.762	549.14
620.099	501.68
620.437	506.2
620.774	546.88
621.112	567.22
621.449	515.24
621.786	510.72
622.123	589.81
622.461	470.04
622.798	625.97
623.135	503.94
623.472	531.06
623.809	497.16
624.146	485.86
624.483	492.64
624.82	492.64
625.157	503.94
625.494	533.32
625.83	427.11
626.167	463.26
626.504	506.2
626.841	549.14
627.177	479.08
627.514	438.41
627.85	494.9
628.187	560.44
628.523	510.72
628.86	517.5
629.196	506.2
629.532	578.52
629.869	492.64
630.205	510.72
630.541	479.08
630.877	569.48
631.213	447.45
631.549	533.32
631.885	404.51
632.221	499.42
632.557	470.04
632.893	515.24
633.229	528.8
633.564	479.08
633.9	465.52
634.236	449.71
634.572	456.49
634.907	526.54
635.243	510.72
635.578	492.64
635.914	483.6
636.249	436.15
636.585	404.51
636.92	463.26
637.255	429.37
637.59	422.59
637.926	442.93
638.261	427.11
638.596	465.52
638.931	472.3
639.266	470.04
639.601	409.03
639.936	549.14
640.271	512.98
640.606	551.4
640.94	409.03
641.275	465.52
641.61	440.67
641.945	485.86
642.279	406.77
642.614	424.85
642.948	397.73
643.283	404.51
643.617	454.23
643.952	440.67
644.286	422.59
644.62	338.97
644.955	424.85
645.289	370.61
645.623	497.16
645.957	479.08
646.291	418.07
646.625	431.63
646.959	470.04
647.293	370.61
647.627	447.45
647.961	422.59
648.295	447.45
648.629	418.07
648.962	440.67
649.296	429.37
649.63	454.23
649.963	456.49
650.297	422.59
650.63	438.41
650.964	381.91
651.297	402.25
651.631	431.63
651.964	422.59
652.297	402.25
652.631	415.81
652.964	402.25
653.297	449.71
653.63	350.27
653.963	350.27
654.296	368.35
654.629	429.37
654.962	411.29
655.295	442.93
655.628	429.37
655.961	433.89
656.293	458.74
656.626	397.73
656.959	415.81
657.291	415.81
657.624	406.77
657.956	375.13
658.289	411.29
658.621	384.17
658.954	395.47
659.286	424.85
659.618	393.21
659.95	393.21
660.283	348.01
660.615	386.43
660.947	345.75
661.279	345.75
661.611	375.13
661.943	318.64
662.275	411.29
662.607	386.43
662.939	363.83
663.27	370.61
663.602	298.3
663.934	352.53
664.266	357.05
664.597	307.34
664.929	375.13
665.26	393.21
665.592	332.19
665.923	368.35
666.255	395.47
666.586	384.17
666.917	327.67
667.248	311.86
667.58	332.19
667.911	420.33
668.242	399.99
668.573	293.78
668.904	422.59
669.235	341.23
669.566	287
669.897	366.09
670.228	420.33
670.558	381.91
670.889	320.9
671.22	291.52
671.551	302.82
671.881	375.13
672.212	329.93
672.542	366.09
672.873	363.83
673.203	311.86
673.533	415.81
673.864	350.27
674.194	359.31
674.524	350.27
674.855	386.43
675.185	291.52
675.515	354.79
675.845	386.43
676.175	343.49
676.505	338.97
676.835	325.42
677.165	352.53
677.494	379.65
677.824	348.01
678.154	350.27
678.484	307.34
678.813	248.58
679.143	424.85
679.472	296.04
679.802	338.97
680.131	343.49
680.461	357.05
680.79	302.82
681.119	314.12
681.449	316.38
681.778	348.01
682.107	370.61
682.436	277.96
682.765	361.57
683.094	334.45
683.423	325.42
683.752	332.19
684.081	271.18
684.41	357.05
684.739	338.97
685.067	341.23
685.396	284.74
685.725	293.78
686.053	329.93
686.382	275.7
686.711	282.48
687.039	307.34
687.367	336.71
687.696	268.92
688.024	302.82
688.352	282.48
688.681	343.49
689.009	298.3
689.337	352.53
689.665	350.27
689.993	268.92
690.321	338.97
690.649	350.27
690.977	320.9
691.305	305.08
691.633	345.75
691.961	284.74
692.288	370.61
692.616	250.84
692.944	388.69
693.271	296.04
693.599	314.12
693.926	350.27
694.254	311.86
694.581	275.7
694.908	314.12
695.236	338.97
695.563	291.52
695.89	352.53
696.217	332.19
696.544	334.45
696.871	329.93
697.198	359.31
697.525	345.75
697.852	370.61
698.179	268.92
698.506	354.79
698.833	300.56
699.16	402.25
699.486	302.82
699.813	302.82
700.139	282.48
700.466	300.56
700.793	244.06
701.119	268.92
701.445	282.48
701.772	277.96
702.098	302.82
702.424	262.14
702.75	345.75
703.077	275.7
703.403	314.12
703.729	325.42
704.055	336.71
704.381	354.79
704.707	343.49
705.033	320.9
705.358	325.42
705.684	291.52
706.01	235.02
706.336	266.66
706.661	305.08
706.987	289.26
707.312	395.47
707.638	266.66
707.963	318.64
708.289	293.78
708.614	291.52
708.939	334.45
709.265	302.82
709.59	327.67
709.915	280.22
710.24	275.7
710.565	314.12
710.89	307.34
711.215	357.05
711.54	329.93
711.865	325.42
712.19	341.23
712.515	309.6
712.839	300.56
713.164	268.92
713.489	336.71
713.813	348.01
714.138	287
714.462	266.66
714.787	318.64
715.111	311.86
715.435	314.12
715.76	311.86
716.084	305.08
716.408	282.48
716.732	314.12
717.056	250.84
717.381	393.21
717.705	354.79
718.028	271.18
718.352	311.86
718.676	309.6
719	307.34
719.324	305.08
719.648	302.82
719.971	300.56
720.295	246.32
720.618	277.96
720.942	228.24
721.265	302.82
721.589	264.4
721.912	307.34
722.236	302.82
722.559	363.83
722.882	277.96
723.205	266.66
723.528	311.86
723.851	280.22
724.174	248.58
724.497	296.04
724.82	302.82
725.143	271.18
725.466	314.12
725.789	273.44
726.112	287
726.434	311.86
726.757	300.56
727.08	298.3
727.402	259.88
727.725	241.8
728.047	307.34
728.37	289.26
728.692	282.48
729.014	325.42
729.336	271.18
729.659	277.96
729.981	298.3
730.303	357.05
730.625	277.96
730.947	235.02
731.269	338.97
731.591	336.71
731.913	282.48
732.235	284.74
732.556	307.34
732.878	316.38
733.2	207.9
733.521	273.44
733.843	298.3
734.164	323.16
734.486	302.82
734.807	280.22
735.129	302.82
735.45	214.68
735.771	302.82
736.092	228.24
736.414	289.26
736.735	300.56
737.056	244.06
737.377	268.92
737.698	289.26
738.019	282.48
738.34	201.12
738.66	275.7
738.981	277.96
739.302	320.9
739.623	332.19
739.943	327.67
740.264	300.56
740.584	289.26
740.905	273.44
741.225	284.74
741.546	296.04
741.866	289.26
742.186	307.34
742.507	289.26
742.827	314.12
743.147	237.28
743.467	309.6
743.787	250.84
744.107	300.56
744.427	201.12
744.747	253.1
745.067	259.88
745.386	291.52
745.706	318.64
746.026	244.06
746.346	284.74
746.665	250.84
746.985	298.3
747.304	320.9
747.624	262.14
747.943	309.6
748.262	291.52
748.582	271.18
748.901	277.96
749.22	318.64
749.539	332.19
749.858	323.16
750.177	266.66
750.496	320.9
750.815	296.04
751.134	298.3
751.453	235.02
751.772	298.3
752.09	325.42
752.409	296.04
752.728	325.42
753.046	185.31
753.365	264.4
753.683	266.66
754.002	291.52
754.32	377.39
754.639	327.67
754.957	296.04
755.275	280.22
755.593	305.08
755.911	280.22
756.23	241.8
756.548	298.3
756.866	316.38
757.183	302.82
757.501	244.06
757.819	235.02
758.137	275.7
758.455	325.42
758.772	277.96
759.09	357.05
759.408	280.22
759.725	250.84
760.043	277.96
760.36	268.92
760.677	219.2
760.995	241.8
761.312	271.18
761.629	305.08
761.946	241.8
762.264	300.56
762.581	291.52
762.898	228.24
763.215	325.42
763.532	291.52
763.848	287
764.165	275.7
764.482	284.74
764.799	316.38
765.115	284.74
765.432	325.42
765.749	262.14
766.065	318.64
766.382	320.9
766.698	280.22
767.014	248.58
767.331	277.96
767.647	228.24
767.963	259.88
768.279	289.26
768.595	284.74
768.911	307.34
769.227	255.36
769.543	298.3
769.859	296.04
770.175	246.32
770.491	298.3
770.807	264.4
771.122	282.48
771.438	244.06
771.754	302.82
772.069	230.5
772.385	307.34
772.7	287
773.016	302.82
773.331	268.92
773.646	268.92
773.961	262.14
774.277	239.54
774.592	305.08
774.907	250.84
775.222	329.93
775.537	271.18
775.852	275.7
776.167	291.52
776.482	320.9
776.796	275.7
777.111	230.5
777.426	268.92
777.74	336.71
778.055	300.56
778.369	305.08
778.684	230.5
778.998	264.4
779.313	246.32
779.627	338.97
779.941	307.34
780.255	334.45
780.57	210.16
780.884	275.7
781.198	257.62
781.512	277.96
781.826	329.93
782.14	305.08
782.453	345.75
782.767	350.27
783.081	162.71
783.395	248.58
783.708	282.48
784.022	253.1
784.335	207.9
784.649	268.92
784.962	282.48
785.276	216.94
785.589	248.58
785.902	237.28
786.216	325.42
786.529	305.08
786.842	309.6
787.155	329.93
787.468	277.96
787.781	273.44
788.094	336.71
788.407	277.96
788.72	225.98
789.032	296.04
789.345	302.82
789.658	289.26
789.97	291.52
790.283	221.46
790.595	293.78
790.908	264.4
791.22	309.6
791.532	257.62
791.845	248.58
792.157	198.86
792.469	237.28
792.781	320.9
793.093	289.26
793.405	341.23
793.717	214.68
794.029	250.84
794.341	232.76
794.653	284.74
794.965	244.06
795.276	228.24
795.588	282.48
795.9	298.3
796.211	232.76
796.523	228.24
796.834	275.7
797.146	293.78
797.457	314.12
797.768	246.32
798.08	298.3
798.391	232.76
798.702	235.02
799.013	216.94
799.324	280.22
799.635	296.04
799.946	336.71
800.257	332.19
800.568	264.4
800.878	271.18
801.189	370.61
801.5	287
801.81	259.88
802.121	293.78
802.431	232.76
802.742	253.1
803.052	300.56
803.363	309.6
803.673	338.97
803.983	284.74
804.293	291.52
804.603	327.67
804.913	327.67
805.224	264.4
805.533	320.9
805.843	305.08
806.153	284.74
806.463	287
806.773	271.18
807.083	257.62
807.392	293.78
807.702	244.06
808.011	284.74
808.321	289.26
808.63	273.44
808.94	239.54
809.249	244.06
809.558	237.28
809.868	320.9
810.177	259.88
810.486	325.42
810.795	316.38
811.104	273.44
811.413	253.1
811.722	264.4
812.031	268.92
812.339	291.52
812.648	248.58
812.957	237.28
813.266	228.24
813.574	354.79
813.883	237.28
814.191	309.6
814.5	221.46
814.808	264.4
815.116	311.86
815.424	302.82
815.733	327.67
816.041	314.12
816.349	266.66
816.657	302.82
816.965	257.62
817.273	352.53
817.581	307.34
817.889	248.58
818.196	257.62
818.504	275.7
818.812	259.88
819.12	293.78
819.427	246.32
819.735	289.26
820.042	275.7
820.349	187.57
820.657	284.74
820.964	305.08
821.271	273.44
821.579	273.44
821.886	348.01
822.193	264.4
822.5	291.52
822.807	291.52
823.114	250.84
823.421	300.56
823.727	255.36
824.034	255.36
824.341	268.92
824.648	268.92
824.954	309.6
825.261	253.1
825.567	259.88
825.874	257.62
826.18	311.86
826.486	289.26
826.793	253.1
827.099	244.06
827.405	291.52
827.711	271.18
828.017	219.2
828.323	262.14
828.629	253.1
828.935	275.7
829.241	291.52
829.547	250.84
829.852	248.58
830.158	277.96
830.464	305.08
830.769	318.64
831.075	293.78
831.38	280.22
831.686	282.48
831.991	275.7
832.296	239.54
832.601	282.48
832.907	280.22
833.212	318.64
833.517	268.92
833.822	255.36
834.127	298.3
834.432	275.7
834.737	248.58
835.041	305.08
835.346	246.32
835.651	311.86
835.956	235.02
836.26	277.96
836.565	257.62
836.869	262.14
837.174	250.84
837.478	232.76
837.782	248.58
838.087	280.22
838.391	291.52
838.695	302.82
838.999	280.22
839.303	257.62
839.607	296.04
839.911	316.38
840.215	239.54
840.519	320.9
840.822	268.92
841.126	271.18
841.43	264.4
841.733	282.48
842.037	189.83
842.34	307.34
842.644	264.4
842.947	277.96
843.251	277.96
843.554	262.14
843.857	268.92
844.16	257.62
844.463	241.8
844.766	241.8
845.069	287
845.372	244.06
845.675	239.54
845.978	275.7
846.281	239.54
846.583	287
846.886	289.26
847.189	277.96
847.491	266.66
847.794	280.22
848.096	271.18
848.399	280.22
848.701	244.06
849.003	287
849.305	275.7
849.608	318.64
849.91	235.02
850.212	271.18
850.514	237.28
850.816	325.42
851.118	207.9
851.419	284.74
851.721	323.16
852.023	232.76
852.325	257.62
852.626	257.62
852.928	291.52
853.229	264.4
853.531	268.92
853.832	287
854.133	275.7
854.435	246.32
854.736	329.93
855.037	284.74
855.338	244.06
855.639	291.52
855.94	210.16
856.241	268.92
856.542	338.97
856.843	275.7
857.144	293.78
857.444	277.96
857.745	262.14
858.046	399.99
858.346	296.04
858.647	277.96
858.947	316.38
859.247	298.3
859.548	284.74
859.848	291.52
860.148	305.08
860.448	336.71
860.749	266.66
861.049	264.4
861.349	287
861.648	241.8
861.948	232.76
862.248	223.72
862.548	239.54
862.848	194.35
863.147	262.14
863.447	300.56
863.746	332.19
864.046	314.12
864.345	271.18
864.645	237.28
864.944	280.22
865.243	287
865.542	280.22
865.842	207.9
866.141	264.4
866.44	257.62
866.739	296.04
867.038	320.9
867.337	268.92
867.635	241.8
867.934	230.5
868.233	291.52
868.531	311.86
868.83	302.82
869.129	219.2
869.427	343.49
869.725	259.88
870.024	275.7
870.322	250.84
870.62	257.62
870.918	298.3
871.217	225.98
871.515	230.5
871.813	277.96
872.111	255.36
872.409	241.8
872.706	287
873.004	253.1
873.302	311.86
873.6	305.08
873.897	268.92
874.195	259.88
874.492	196.6
874.79	239.54
875.087	255.36
875.384	221.46
875.682	327.67
875.979	291.52
876.276	323.16
876.573	253.1
876.87	253.1
877.167	253.1
