Data from PL_2polymer_F8BT_MEHPPV_USB2H096331_0359.txt Node
Date: Tue Dec 15 15:59:06 CET 2020
User: spadmin
Spectrometer: USB2+H09633
Trigger mode: 0
Integration Time (sec): 1.000000E-2
Scans to average: 1
Electric dark correction enabled: true
Nonlinearity correction enabled: false
Boxcar width: 0
XAxis mode: Wavelengths
Number of Pixels in Spectrum: 2048
>>>>>Begin Spectral Data<<<<<
174.027	-123.16
174.405	-123.16
174.783	-123.16
175.162	-39.55
175.54	-132.2
175.918	-125.42
176.296	-120.9
176.674	-100.56
177.052	-91.52
177.43	-41.81
177.808	-50.85
178.186	-53.11
178.564	-71.18
178.942	-62.15
179.32	3.39
179.698	64.41
180.076	62.15
180.453	82.48
180.831	55.37
181.209	107.34
181.587	80.22
181.965	136.72
182.342	161.58
182.72	100.56
183.098	222.59
183.475	265.53
183.853	251.97
184.231	242.93
184.608	263.27
184.986	276.83
185.363	254.23
185.741	276.83
186.118	331.06
186.496	326.55
186.873	303.95
187.251	272.31
187.628	360.44
188.006	322.03
188.383	337.84
188.76	371.74
189.138	292.65
189.515	351.4
189.892	306.21
190.27	333.32
190.647	328.8
191.024	367.22
191.401	344.62
191.778	322.03
192.155	308.47
192.533	328.8
192.91	279.09
193.287	299.43
193.664	331.06
194.041	267.79
194.418	335.58
194.795	306.21
195.172	322.03
195.549	322.03
195.926	322.03
196.302	315.25
196.679	346.88
197.056	331.06
197.433	308.47
197.81	310.73
198.187	335.58
198.563	331.06
198.94	333.32
199.317	317.51
199.693	306.21
200.07	328.8
200.447	299.43
200.823	281.35
201.2	299.43
201.576	267.79
201.953	274.57
202.329	299.43
202.706	340.1
203.082	267.79
203.459	274.57
203.835	306.21
204.212	362.7
204.588	326.55
204.964	263.27
205.341	303.95
205.717	322.03
206.093	263.27
206.469	319.77
206.846	290.39
207.222	301.69
207.598	351.4
207.974	344.62
208.35	267.79
208.726	308.47
209.102	317.51
209.479	342.36
209.855	263.27
210.231	364.96
210.607	351.4
210.982	322.03
211.358	398.86
211.734	263.27
212.11	353.66
212.486	245.19
212.862	322.03
213.238	290.39
213.614	297.17
213.989	265.53
214.365	333.32
214.741	346.88
215.116	358.18
215.492	303.95
215.868	351.4
216.243	317.51
216.619	310.73
216.995	385.3
217.37	430.5
217.746	367.22
218.121	324.29
218.497	337.84
218.872	335.58
219.247	322.03
219.623	340.1
219.998	301.69
220.374	288.13
220.749	283.61
221.124	331.06
221.499	294.91
221.875	322.03
222.25	353.66
222.625	324.29
223	322.03
223.376	355.92
223.751	410.16
224.126	342.36
224.501	308.47
224.876	349.14
225.251	331.06
225.626	324.29
226.001	385.3
226.376	351.4
226.751	299.43
227.126	322.03
227.501	349.14
227.875	351.4
228.25	362.7
228.625	328.8
229	358.18
229.375	349.14
229.749	369.48
230.124	335.58
230.499	387.56
230.873	344.62
231.248	380.78
231.623	342.36
231.997	374
232.372	362.7
232.746	355.92
233.121	346.88
233.495	344.62
233.87	317.51
234.244	353.66
234.619	324.29
234.993	340.1
235.367	333.32
235.742	344.62
236.116	317.51
236.49	403.38
236.865	389.82
237.239	428.24
237.613	374
237.987	374
238.361	428.24
238.736	326.55
239.11	342.36
239.484	319.77
239.858	326.55
240.232	371.74
240.606	355.92
240.98	344.62
241.354	389.82
241.728	358.18
242.102	328.8
242.475	344.62
242.849	312.99
243.223	349.14
243.597	331.06
243.971	335.58
244.344	312.99
244.718	416.94
245.092	349.14
245.466	362.7
245.839	301.69
246.213	367.22
246.586	412.42
246.96	376.26
247.334	355.92
247.707	374
248.081	369.48
248.454	389.82
248.828	331.06
249.201	364.96
249.574	362.7
249.948	355.92
250.321	385.3
250.694	383.04
251.068	407.9
251.441	385.3
251.814	430.5
252.187	410.16
252.561	403.38
252.934	398.86
253.307	364.96
253.68	326.55
254.053	362.7
254.426	407.9
254.799	362.7
255.172	448.58
255.545	430.5
255.918	297.17
256.291	367.22
256.664	335.58
257.037	432.76
257.41	405.64
257.782	355.92
258.155	315.25
258.528	430.5
258.901	385.3
259.273	423.72
259.646	374
260.019	385.3
260.391	385.3
260.764	331.06
261.137	437.28
261.509	346.88
261.882	410.16
262.254	403.38
262.627	358.18
262.999	396.6
263.372	446.32
263.744	351.4
264.116	371.74
264.489	428.24
264.861	425.98
265.233	401.12
265.606	326.55
265.978	380.78
266.35	349.14
266.722	435.02
267.094	428.24
267.467	358.18
267.839	376.26
268.211	344.62
268.583	364.96
268.955	371.74
269.327	430.5
269.699	419.2
270.071	380.78
270.443	376.26
270.815	315.25
271.186	410.16
271.558	416.94
271.93	398.86
272.302	412.42
272.674	421.46
273.045	376.26
273.417	403.38
273.789	437.28
274.16	430.5
274.532	477.95
274.904	412.42
275.275	464.39
275.647	380.78
276.018	396.6
276.39	446.32
276.761	444.06
277.133	410.16
277.504	450.84
277.875	374
278.247	430.5
278.618	419.2
278.989	412.42
279.361	475.69
279.732	369.48
280.103	466.65
280.474	446.32
280.846	475.69
281.217	410.16
281.588	459.87
281.959	392.08
282.33	344.62
282.701	414.68
283.072	405.64
283.443	396.6
283.814	464.39
284.185	529.93
284.556	425.98
284.927	405.64
285.297	389.82
285.668	464.39
286.039	421.46
286.41	500.55
286.781	453.1
287.151	459.87
287.522	462.13
287.893	376.26
288.263	475.69
288.634	383.04
289.004	378.52
289.375	430.5
289.745	425.98
290.116	403.38
290.486	425.98
290.857	419.2
291.227	394.34
291.598	421.46
291.968	387.56
292.338	457.62
292.709	466.65
293.079	403.38
293.449	486.99
293.819	514.11
294.189	448.58
294.56	405.64
294.93	425.98
295.3	423.72
295.67	459.87
296.04	527.67
296.41	425.98
296.78	543.49
297.15	319.77
297.52	444.06
297.89	446.32
298.259	459.87
298.629	475.69
298.999	489.25
299.369	457.62
299.739	435.02
300.108	457.62
300.478	435.02
300.848	430.5
301.217	387.56
301.587	428.24
301.957	403.38
302.326	491.51
302.696	471.17
303.065	491.51
303.435	473.43
303.804	453.1
304.174	457.62
304.543	486.99
304.912	457.62
305.282	550.27
305.651	520.89
306.02	435.02
306.39	498.29
306.759	459.87
307.128	419.2
307.497	450.84
307.866	477.95
308.235	496.03
308.604	502.81
308.974	484.73
309.343	484.73
309.712	486.99
310.08	441.8
310.449	475.69
310.818	450.84
311.187	518.63
311.556	532.19
311.925	482.47
312.294	457.62
312.662	536.71
313.031	466.65
313.4	496.03
313.769	554.79
314.137	448.58
314.506	475.69
314.874	518.63
315.243	489.25
315.612	518.63
315.98	532.19
316.349	482.47
316.717	538.97
317.085	514.11
317.454	498.29
317.822	536.71
318.191	464.39
318.559	529.93
318.927	545.75
319.295	500.55
319.664	446.32
320.032	534.45
320.4	491.51
320.768	509.59
321.136	477.95
321.504	489.25
321.872	466.65
322.24	484.73
322.608	523.15
322.976	559.31
323.344	538.97
323.712	514.11
324.08	489.25
324.448	471.17
324.816	543.49
325.183	471.17
325.551	484.73
325.919	489.25
326.287	525.41
326.654	534.45
327.022	566.09
327.389	534.45
327.757	584.17
328.125	505.07
328.492	541.23
328.86	552.53
329.227	498.29
329.594	516.37
329.962	552.53
330.329	462.13
330.697	575.13
331.064	491.51
331.431	552.53
331.798	554.79
332.166	527.67
332.533	649.7
332.9	575.13
333.267	525.41
333.634	566.09
334.001	561.57
334.368	593.2
334.735	541.23
335.102	523.15
335.469	588.69
335.836	584.17
336.203	518.63
336.57	602.24
336.937	597.72
337.304	599.98
337.67	563.83
338.037	618.06
338.404	584.17
338.771	642.92
339.137	593.2
339.504	568.35
339.87	627.1
340.237	584.17
340.604	579.65
340.97	572.87
341.337	706.2
341.703	622.58
342.069	575.13
342.436	622.58
342.802	611.28
343.169	642.92
343.535	629.36
343.901	665.52
344.267	599.98
344.634	656.48
345	595.46
345.366	631.62
345.732	604.5
346.098	640.66
346.464	667.78
346.83	584.17
347.196	590.94
347.562	642.92
347.928	620.32
348.294	697.16
348.66	658.74
349.026	636.14
349.392	670.04
349.757	651.96
350.123	755.91
350.489	710.72
350.855	618.06
351.22	672.3
351.586	726.53
351.951	638.4
352.317	715.24
352.683	783.03
353.048	737.83
353.414	661
353.779	805.63
354.144	681.34
354.51	694.9
354.875	622.58
355.24	787.55
355.606	726.53
355.971	703.94
356.336	816.93
356.701	794.33
357.067	783.03
357.432	819.19
357.797	780.77
358.162	796.59
358.527	812.41
358.892	855.34
359.257	719.76
359.622	762.69
359.987	706.2
360.352	803.37
360.717	819.19
361.082	778.51
361.446	859.86
361.811	877.94
362.176	920.88
362.541	830.49
362.905	871.16
363.27	934.44
363.635	954.78
363.999	914.1
364.364	945.74
364.728	886.98
365.093	961.56
365.457	979.64
365.822	995.45
366.186	995.45
366.55	938.96
366.915	1006.75
367.279	920.88
367.643	990.93
368.008	1038.39
368.372	963.82
368.736	1033.87
369.1	1076.81
369.464	1103.93
369.828	1092.63
370.192	1088.11
370.556	1237.26
370.92	1094.89
371.284	1153.64
371.648	1205.62
372.012	1309.57
372.376	1244.04
372.74	1257.59
373.104	1350.25
373.468	1429.34
373.831	1519.73
374.195	1470.02
374.559	1598.83
374.922	1619.17
375.286	1567.19
375.65	1583.01
376.013	1768.32
376.377	1790.91
376.74	1845.15
377.104	1838.37
377.467	2019.16
377.83	2095.99
378.194	2175.08
378.557	2344.57
378.92	2450.78
379.284	2414.63
379.647	2699.36
380.01	2828.17
380.373	2968.28
380.736	3234.94
381.1	3438.33
381.463	3684.65
381.826	3951.31
382.189	4371.64
382.552	4545.64
382.915	4993.09
383.278	5243.93
383.64	5856.34
384.003	6400.96
384.366	6694.74
384.729	7605.45
385.092	7953.46
385.454	8803.16
385.817	9614.44
386.18	10482.21
386.542	11650.54
386.905	12913.78
387.268	13969.12
387.63	15408.63
387.993	16463.97
388.355	18387.09
388.718	19822.08
389.08	21688.7
389.442	23876.21
389.805	25711.19
390.167	27582.33
390.529	30755.12
390.892	34632.99
391.254	36382.09
391.616	39096.15
391.978	43407.9
392.34	47109.5
392.702	48675.56
393.064	52302.58
393.426	54318.35
393.788	56336.37
394.15	57782.66
394.512	59613.12
394.874	61260.54
395.236	63061.62
395.598	64661.58
395.96	65057.05
396.321	65057.05
396.683	65057.05
397.045	65057.05
397.406	65057.05
397.768	65057.05
398.13	65057.05
398.491	65057.05
398.853	65057.05
399.214	65057.05
399.576	65057.05
399.937	65057.05
400.299	65057.05
400.66	65057.05
401.021	65057.05
401.383	65057.05
401.744	65057.05
402.105	65057.05
402.466	65057.05
402.827	65057.05
403.189	65057.05
403.55	65057.05
403.911	65057.05
404.272	65057.05
404.633	65057.05
404.994	65057.05
405.355	65057.05
405.716	65057.05
406.077	65057.05
406.437	65057.05
406.798	65057.05
407.159	65057.05
407.52	65057.05
407.88	65057.05
408.241	65057.05
408.602	65057.05
408.962	65057.05
409.323	65057.05
409.684	65057.05
410.044	65057.05
410.405	65057.05
410.765	65057.05
411.125	65057.05
411.486	65057.05
411.846	65057.05
412.206	65057.05
412.567	65057.05
412.927	65057.05
413.287	65057.05
413.647	65057.05
414.007	65057.05
414.368	65057.05
414.728	65057.05
415.088	65057.05
415.448	65057.05
415.808	65057.05
416.168	65057.05
416.528	65057.05
416.887	65057.05
417.247	65057.05
417.607	65057.05
417.967	65057.05
418.327	65057.05
418.686	65057.05
419.046	65057.05
419.406	65057.05
419.765	65057.05
420.125	65057.05
420.484	65057.05
420.844	65057.05
421.203	65057.05
421.563	65057.05
421.922	64858.18
422.282	62783.66
422.641	61556.57
423	60230.05
423.36	59260.59
423.719	57412.05
424.078	55455.04
424.437	53547.74
424.796	52063.04
425.155	50833.69
425.515	48223.59
425.874	46906.11
426.233	42639.56
426.592	40596.67
426.95	39570.71
427.309	37351.56
427.668	36106.4
428.027	33616.07
428.386	32646.6
428.745	29245.56
429.103	28000.39
429.462	26694.21
429.821	24823.08
430.179	23779.04
430.538	23137.24
430.897	22136.14
431.255	20972.33
431.614	19661.63
431.972	19074.07
432.33	18235.68
432.689	17752.08
433.047	16633.46
433.405	15600.72
433.764	15128.42
434.122	14676.45
434.48	13779.3
434.838	13316.03
435.197	12773.68
435.555	12380.47
435.913	11668.62
436.271	11157.9
436.629	10626.84
436.987	10364.7
437.345	9598.62
437.703	9334.22
438.061	8861.91
438.418	8434.81
438.776	8091.31
439.134	7881.15
439.492	7372.69
439.849	7103.77
440.207	6751.23
440.565	6597.57
440.922	6202.1
441.28	5915.1
441.637	5510.59
441.995	5375
442.352	5135.46
442.71	4943.37
443.067	4997.61
443.425	4642.82
443.782	4416.83
444.139	4371.64
444.496	4222.49
444.854	4071.08
445.211	3897.07
445.568	3772.78
445.925	3415.73
446.282	3501.6
446.639	3347.93
446.996	3370.53
447.353	3298.22
447.71	3293.7
448.067	3214.6
448.424	2954.72
448.781	2981.84
449.137	2816.88
449.494	2588.63
449.851	2640.61
450.208	2439.48
450.564	2315.19
450.921	2247.4
451.278	2138.93
451.634	2310.67
451.991	2184.12
452.347	2161.53
452.704	2068.87
453.06	1971.7
453.416	1836.11
453.773	1829.33
454.129	1750.24
454.485	1702.78
454.841	1657.58
455.198	1610.13
455.554	1605.61
455.91	1571.71
456.266	1585.27
456.622	1474.54
456.978	1399.96
457.334	1300.53
457.69	1375.11
458.046	1291.49
458.402	1298.27
458.758	1228.22
459.114	1214.66
459.469	1103.93
459.825	1173.98
460.181	1058.73
460.536	1149.12
460.892	1020.31
461.248	1063.25
461.603	981.9
461.959	1051.95
462.314	1063.25
462.67	970.6
463.025	990.93
463.38	943.48
463.736	938.96
464.091	898.28
464.446	884.72
464.802	909.58
465.157	871.16
465.512	830.49
465.867	936.7
466.222	859.86
466.577	816.93
466.932	893.76
467.287	785.29
467.642	801.11
467.997	787.55
468.352	864.38
468.707	780.77
469.062	760.43
469.417	769.47
469.771	762.69
470.126	733.31
470.481	670.04
470.835	656.48
471.19	744.61
471.544	760.43
471.899	647.44
472.253	663.26
472.608	764.95
472.962	767.21
473.317	670.04
473.671	620.32
474.025	683.6
474.38	715.24
474.734	629.36
475.088	699.42
475.442	636.14
475.796	595.46
476.15	708.46
476.504	685.86
476.858	629.36
477.212	670.04
477.566	681.34
477.92	665.52
478.274	636.14
478.628	584.17
478.982	593.2
479.336	575.13
479.689	688.12
480.043	609.02
480.397	636.14
480.75	658.74
481.104	584.17
481.457	611.28
481.811	629.36
482.164	584.17
482.518	590.94
482.871	647.44
483.225	575.13
483.578	636.14
483.931	599.98
484.284	538.97
484.638	527.67
484.991	561.57
485.344	563.83
485.697	586.43
486.05	622.58
486.403	584.17
486.756	557.05
487.109	649.7
487.462	570.61
487.815	459.87
488.168	550.27
488.52	484.73
488.873	572.87
489.226	548.01
489.579	561.57
489.931	505.07
490.284	496.03
490.637	548.01
490.989	552.53
491.342	590.94
491.694	425.98
492.047	541.23
492.399	563.83
492.751	552.53
493.104	498.29
493.456	468.91
493.808	586.43
494.16	498.29
494.513	584.17
494.865	557.05
495.217	563.83
495.569	511.85
495.921	552.53
496.273	550.27
496.625	536.71
496.977	561.57
497.329	595.46
497.68	475.69
498.032	552.53
498.384	509.59
498.736	588.69
499.087	577.39
499.439	627.1
499.791	559.31
500.142	520.89
500.494	545.75
500.845	541.23
501.197	597.72
501.548	536.71
501.9	563.83
502.251	586.43
502.602	606.76
502.954	557.05
503.305	568.35
503.656	509.59
504.007	529.93
504.358	575.13
504.709	581.91
505.061	568.35
505.412	618.06
505.763	631.62
506.113	618.06
506.464	584.17
506.815	615.8
507.166	645.18
507.517	597.72
507.868	624.84
508.218	609.02
508.569	620.32
508.92	665.52
509.27	624.84
509.621	658.74
509.971	611.28
510.322	699.42
510.672	665.52
511.023	692.64
511.373	606.76
511.723	731.05
512.074	762.69
512.424	762.69
512.774	715.24
513.124	735.57
513.475	819.19
513.825	789.81
514.175	830.49
514.525	701.68
514.875	783.03
515.225	717.5
515.575	787.55
515.924	771.73
516.274	773.99
516.624	717.5
516.974	724.27
517.324	823.71
517.673	828.23
518.023	832.75
518.373	819.19
518.722	812.41
519.072	873.42
519.421	902.8
519.771	1009.01
520.12	914.1
520.469	898.28
520.819	866.64
521.168	839.53
521.517	941.22
521.867	984.15
522.216	932.18
522.565	961.56
522.914	972.86
523.263	975.12
523.612	1036.13
523.961	957.04
524.31	986.41
524.659	988.67
525.008	1011.27
525.357	1115.22
525.705	970.6
526.054	981.9
526.403	990.93
526.752	1067.77
527.1	981.9
527.449	993.19
527.797	1006.75
528.146	1049.69
528.495	1131.04
528.843	1022.57
529.191	1004.49
529.54	1004.49
529.888	1045.17
530.236	1040.65
530.585	1009.01
530.933	1142.34
531.281	1063.25
531.629	1122
531.977	1060.99
532.325	1085.85
532.673	1070.03
533.021	1067.77
533.369	1133.3
533.717	1189.8
534.065	1088.11
534.413	1187.54
534.761	1081.33
535.108	1063.25
535.456	1103.93
535.804	1083.59
536.151	1142.34
536.499	1002.23
536.847	1079.07
537.194	1033.87
537.542	1164.94
537.889	1097.15
538.236	1133.3
538.584	1131.04
538.931	1076.81
539.278	1160.42
539.626	1076.81
539.973	1162.68
540.32	1142.34
540.667	1110.71
541.014	1047.43
541.361	1171.72
541.708	1081.33
542.055	1058.73
542.402	1144.6
542.749	1101.67
543.096	1047.43
543.443	1122
543.789	1103.93
544.136	1040.65
544.483	1033.87
544.83	1142.34
545.176	1119.74
545.523	1090.37
545.869	1070.03
546.216	1110.71
546.562	1117.48
546.909	1027.09
547.255	1146.86
547.601	1106.19
547.948	1103.93
548.294	1070.03
548.64	1051.95
548.986	1049.69
549.332	1018.05
549.678	1051.95
550.025	1122
550.371	1119.74
550.717	1045.17
551.062	1085.85
551.408	1149.12
551.754	1076.81
552.1	1122
552.446	1076.81
552.792	1158.16
553.137	1049.69
553.483	1126.52
553.828	1135.56
554.174	1173.98
554.52	1158.16
554.865	1079.07
555.211	1128.78
555.556	1173.98
555.901	1103.93
556.247	1160.42
556.592	1155.9
556.937	1230.48
557.282	1180.76
557.628	1259.85
557.973	1173.98
558.318	1135.56
558.663	1194.32
559.008	1246.29
559.353	1158.16
559.698	1119.74
560.043	1164.94
560.388	1140.08
560.732	1192.06
561.077	1144.6
561.422	1183.02
561.766	1241.78
562.111	1239.52
562.456	1225.96
562.8	1173.98
563.145	1246.29
563.489	1162.68
563.834	1235
564.178	1271.15
564.523	1164.94
564.867	1239.52
565.211	1334.43
565.555	1305.05
565.9	1266.63
566.244	1210.14
566.588	1293.75
566.932	1282.45
567.276	1262.11
567.62	1300.53
567.964	1307.31
568.308	1413.52
568.652	1230.48
568.996	1320.87
569.339	1338.95
569.683	1320.87
570.027	1212.4
570.371	1241.78
570.714	1262.11
571.058	1377.36
571.401	1381.88
571.745	1311.83
572.088	1268.89
572.432	1343.47
572.775	1420.3
573.118	1377.36
573.462	1325.39
573.805	1334.43
574.148	1329.91
574.491	1445.16
574.835	1357.03
575.178	1366.07
575.521	1320.87
575.864	1341.21
576.207	1332.17
576.55	1325.39
576.892	1266.63
577.235	1271.15
577.578	1325.39
577.921	1327.65
578.264	1298.27
578.606	1298.27
578.949	1379.62
579.292	1361.55
579.634	1298.27
579.977	1327.65
580.319	1347.99
580.662	1286.97
581.004	1338.95
581.346	1253.07
581.689	1262.11
582.031	1232.74
582.373	1372.85
582.715	1286.97
583.057	1203.36
583.4	1259.85
583.742	1286.97
584.084	1307.31
584.426	1264.37
584.768	1246.29
585.109	1192.06
585.451	1158.16
585.793	1284.71
586.135	1216.92
586.477	1259.85
586.818	1142.34
587.16	1241.78
587.502	1160.42
587.843	1178.5
588.185	1219.18
588.526	1094.89
588.868	1083.59
589.209	1106.19
589.55	1164.94
589.892	1131.04
590.233	1081.33
590.574	1137.82
590.915	1185.28
591.257	1101.67
591.598	1070.03
591.939	1072.29
592.28	1110.71
592.621	1033.87
592.962	1112.97
593.303	1045.17
593.643	1081.33
593.984	950.26
594.325	1004.49
594.666	1040.65
595.006	1011.27
595.347	961.56
595.688	961.56
596.028	1002.23
596.369	938.96
596.709	884.72
597.05	893.76
597.39	984.15
597.73	891.5
598.071	966.08
598.411	966.08
598.751	905.06
599.091	938.96
599.431	823.71
599.772	963.82
600.112	812.41
600.452	837.27
600.792	891.5
601.132	859.86
601.471	950.26
601.811	837.27
602.151	857.6
602.491	862.12
602.831	773.99
603.17	828.23
603.51	880.2
603.849	844.05
604.189	848.57
604.528	753.65
604.868	814.67
605.207	789.81
605.547	785.29
605.886	846.31
606.225	733.31
606.565	794.33
606.904	755.91
607.243	812.41
607.582	805.63
607.921	792.07
608.26	839.53
608.599	771.73
608.938	773.99
609.277	710.72
609.616	746.87
609.955	690.38
610.293	783.03
610.632	805.63
610.971	683.6
611.309	710.72
611.648	783.03
611.987	771.73
612.325	796.59
612.664	814.67
613.002	762.69
613.34	703.94
613.679	859.86
614.017	681.34
614.355	688.12
614.694	710.72
615.032	683.6
615.37	722.01
615.708	672.3
616.046	681.34
616.384	805.63
616.722	674.56
617.06	683.6
617.398	715.24
617.736	672.3
618.073	717.5
618.411	688.12
618.749	661
619.086	755.91
619.424	674.56
619.762	710.72
620.099	679.08
620.437	760.43
620.774	794.33
621.112	742.35
621.449	690.38
621.786	665.52
622.123	663.26
622.461	615.8
622.798	733.31
623.135	629.36
623.472	674.56
623.809	694.9
624.146	823.71
624.483	665.52
624.82	699.42
625.157	661
625.494	728.79
625.83	638.4
626.167	645.18
626.504	703.94
626.841	656.48
627.177	683.6
627.514	672.3
627.85	746.87
628.187	683.6
628.523	710.72
628.86	708.46
629.196	692.64
629.532	613.54
629.869	656.48
630.205	638.4
630.541	629.36
630.877	654.22
631.213	690.38
631.549	633.88
631.885	667.78
632.221	665.52
632.557	604.5
632.893	703.94
633.229	701.68
633.564	651.96
633.9	575.13
634.236	536.71
634.572	584.17
634.907	584.17
635.243	604.5
635.578	581.91
635.914	647.44
636.249	620.32
636.585	615.8
636.92	638.4
637.255	683.6
637.59	550.27
637.926	557.05
638.261	586.43
638.596	633.88
638.931	604.5
639.266	618.06
639.601	550.27
639.936	566.09
640.271	624.84
640.606	577.39
640.94	543.49
641.275	511.85
641.61	480.21
641.945	570.61
642.279	575.13
642.614	523.15
642.948	538.97
643.283	661
643.617	550.27
643.952	554.79
644.286	502.81
644.62	581.91
644.955	509.59
645.289	477.95
645.623	638.4
645.957	525.41
646.291	532.19
646.625	477.95
646.959	491.51
647.293	507.33
647.627	502.81
647.961	464.39
648.295	496.03
648.629	602.24
648.962	514.11
649.296	489.25
649.63	554.79
649.963	480.21
650.297	462.13
650.63	491.51
650.964	536.71
651.297	482.47
651.631	459.87
651.964	534.45
652.297	468.91
652.631	419.2
652.964	491.51
653.297	437.28
653.63	464.39
653.963	462.13
654.296	466.65
654.629	444.06
654.962	441.8
655.295	529.93
655.628	491.51
655.961	486.99
656.293	428.24
656.626	491.51
656.959	509.59
657.291	496.03
657.624	480.21
657.956	444.06
658.289	410.16
658.621	475.69
658.954	398.86
659.286	471.17
659.618	453.1
659.95	455.36
660.283	477.95
660.615	493.77
660.947	428.24
661.279	385.3
661.611	448.58
661.943	419.2
662.275	414.68
662.607	355.92
662.939	337.84
663.27	389.82
663.602	432.76
663.934	432.76
664.266	444.06
664.597	446.32
664.929	401.12
665.26	387.56
665.592	421.46
665.923	383.04
666.255	428.24
666.586	385.3
666.917	432.76
667.248	387.56
667.58	396.6
667.911	392.08
668.242	398.86
668.573	412.42
668.904	385.3
669.235	437.28
669.566	362.7
669.897	421.46
670.228	423.72
670.558	410.16
670.889	394.34
671.22	416.94
671.551	306.21
671.881	364.96
672.212	310.73
672.542	412.42
672.873	378.52
673.203	364.96
673.533	374
673.864	364.96
674.194	322.03
674.524	358.18
674.855	392.08
675.185	396.6
675.515	412.42
675.845	364.96
676.175	331.06
676.505	344.62
676.835	344.62
677.165	349.14
677.494	364.96
677.824	344.62
678.154	331.06
678.484	410.16
678.813	369.48
679.143	380.78
679.472	315.25
679.802	333.32
680.131	315.25
680.461	301.69
680.79	335.58
681.119	349.14
681.449	294.91
681.778	380.78
682.107	351.4
682.436	367.22
682.765	374
683.094	351.4
683.423	369.48
683.752	362.7
684.081	360.44
684.41	326.55
684.739	331.06
685.067	301.69
685.396	394.34
685.725	392.08
686.053	342.36
686.382	299.43
686.711	378.52
687.039	308.47
687.367	346.88
687.696	317.51
688.024	335.58
688.352	355.92
688.681	358.18
689.009	326.55
689.337	335.58
689.665	299.43
689.993	335.58
690.321	303.95
690.649	306.21
690.977	367.22
691.305	346.88
691.633	351.4
691.961	317.51
692.288	380.78
692.616	249.71
692.944	331.06
693.271	319.77
693.599	374
693.926	392.08
694.254	285.87
694.581	364.96
694.908	333.32
695.236	281.35
695.563	285.87
695.89	344.62
696.217	376.26
696.544	315.25
696.871	337.84
697.198	294.91
697.525	328.8
697.852	301.69
698.179	337.84
698.506	317.51
698.833	315.25
699.16	306.21
699.486	353.66
699.813	283.61
700.139	254.23
700.466	346.88
700.793	328.8
701.119	374
701.445	349.14
701.772	288.13
702.098	306.21
702.424	322.03
702.75	267.79
703.077	337.84
703.403	324.29
703.729	274.57
704.055	258.75
704.381	322.03
704.707	245.19
705.033	322.03
705.358	301.69
705.684	279.09
706.01	303.95
706.336	324.29
706.661	349.14
706.987	283.61
707.312	315.25
707.638	328.8
707.963	310.73
708.289	299.43
708.614	276.83
708.939	272.31
709.265	283.61
709.59	344.62
709.915	312.99
710.24	425.98
710.565	308.47
710.89	387.56
711.215	340.1
711.54	299.43
711.865	376.26
712.19	310.73
712.515	333.32
712.839	292.65
713.164	383.04
713.489	322.03
713.813	249.71
714.138	331.06
714.462	322.03
714.787	267.79
715.111	306.21
715.435	326.55
715.76	344.62
716.084	276.83
716.408	288.13
716.732	398.86
717.056	351.4
717.381	315.25
717.705	315.25
718.028	263.27
718.352	288.13
718.676	272.31
719	267.79
719.324	292.65
719.648	306.21
719.971	222.59
720.295	261.01
720.618	279.09
720.942	290.39
721.265	279.09
721.589	294.91
721.912	317.51
722.236	301.69
722.559	251.97
722.882	328.8
723.205	279.09
723.528	294.91
723.851	265.53
724.174	369.48
724.497	326.55
724.82	308.47
725.143	303.95
725.466	340.1
725.789	256.49
726.112	276.83
726.434	324.29
726.757	326.55
727.08	297.17
727.402	274.57
727.725	335.58
728.047	281.35
728.37	218.07
728.692	274.57
729.014	358.18
729.336	331.06
729.659	220.33
729.981	251.97
730.303	308.47
730.625	254.23
730.947	274.57
731.269	310.73
731.591	333.32
731.913	299.43
732.235	297.17
732.556	297.17
732.878	247.45
733.2	308.47
733.521	258.75
733.843	326.55
734.164	270.05
734.486	303.95
734.807	249.71
735.129	285.87
735.45	285.87
735.771	340.1
736.092	285.87
736.414	315.25
736.735	288.13
737.056	319.77
737.377	242.93
737.698	292.65
738.019	274.57
738.34	297.17
738.66	317.51
738.981	285.87
739.302	353.66
739.623	258.75
739.943	303.95
740.264	294.91
740.584	340.1
740.905	272.31
741.225	258.75
741.546	247.45
741.866	306.21
742.186	227.11
742.507	274.57
742.827	283.61
743.147	270.05
743.467	236.15
743.787	294.91
744.107	342.36
744.427	301.69
744.747	265.53
745.067	254.23
745.386	238.41
745.706	222.59
746.026	303.95
746.346	231.63
746.665	288.13
746.985	303.95
747.304	288.13
747.624	299.43
747.943	249.71
748.262	258.75
748.582	317.51
748.901	276.83
749.22	308.47
749.539	258.75
749.858	281.35
750.177	281.35
750.496	267.79
750.815	236.15
751.134	270.05
751.453	267.79
751.772	337.84
752.09	328.8
752.409	258.75
752.728	272.31
753.046	213.55
753.365	285.87
753.683	272.31
754.002	254.23
754.32	274.57
754.639	288.13
754.957	285.87
755.275	322.03
755.593	254.23
755.911	227.11
756.23	233.89
756.548	306.21
756.866	315.25
757.183	297.17
757.501	222.59
757.819	227.11
758.137	301.69
758.455	238.41
758.772	344.62
759.09	288.13
759.408	279.09
759.725	236.15
760.043	247.45
760.36	242.93
760.677	161.58
760.995	270.05
761.312	292.65
761.629	301.69
761.946	279.09
762.264	272.31
762.581	317.51
762.898	218.07
763.215	231.63
763.532	227.11
763.848	276.83
764.165	222.59
764.482	344.62
764.799	238.41
765.115	281.35
765.432	335.58
765.749	265.53
766.065	251.97
766.382	283.61
766.698	301.69
767.014	301.69
767.331	240.67
767.647	213.55
767.963	263.27
768.279	249.71
768.595	233.89
768.911	288.13
769.227	242.93
769.543	283.61
769.859	254.23
770.175	290.39
770.491	322.03
770.807	303.95
771.122	294.91
771.438	303.95
771.754	290.39
772.069	349.14
772.385	245.19
772.7	297.17
773.016	315.25
773.331	285.87
773.646	206.77
773.961	254.23
774.277	270.05
774.592	306.21
774.907	267.79
775.222	267.79
775.537	285.87
775.852	294.91
776.167	335.58
776.482	236.15
776.796	247.45
777.111	283.61
777.426	236.15
777.74	285.87
778.055	238.41
778.369	209.03
778.684	231.63
778.998	181.92
779.313	301.69
779.627	233.89
779.941	312.99
780.255	231.63
780.57	301.69
780.884	290.39
781.198	263.27
781.512	267.79
781.826	261.01
782.14	288.13
782.453	245.19
782.767	258.75
783.081	290.39
783.395	333.32
783.708	206.77
784.022	222.59
784.335	283.61
784.649	240.67
784.962	276.83
785.276	317.51
785.589	227.11
785.902	272.31
786.216	267.79
786.529	283.61
786.842	308.47
787.155	211.29
787.468	251.97
787.781	245.19
788.094	322.03
788.407	222.59
788.72	261.01
789.032	227.11
789.345	326.55
789.658	276.83
789.97	263.27
790.283	360.44
790.595	211.29
790.908	310.73
791.22	258.75
791.532	206.77
791.845	258.75
792.157	276.83
792.469	297.17
792.781	247.45
793.093	229.37
793.405	272.31
793.717	272.31
794.029	256.49
794.341	292.65
794.653	270.05
794.965	249.71
795.276	251.97
795.588	222.59
795.9	209.03
796.211	249.71
796.523	258.75
796.834	245.19
797.146	256.49
797.457	317.51
797.768	279.09
798.08	283.61
798.391	263.27
798.702	231.63
799.013	247.45
799.324	270.05
799.635	267.79
799.946	265.53
800.257	312.99
800.568	297.17
800.878	190.96
801.189	249.71
801.5	319.77
801.81	272.31
802.121	292.65
802.431	231.63
802.742	290.39
803.052	261.01
803.363	265.53
803.673	303.95
803.983	281.35
804.293	245.19
804.603	288.13
804.913	283.61
805.224	188.7
805.533	258.75
805.843	272.31
806.153	301.69
806.463	283.61
806.773	220.33
807.083	263.27
807.392	240.67
807.702	256.49
808.011	310.73
808.321	245.19
808.63	279.09
808.94	283.61
809.249	283.61
809.558	272.31
809.868	240.67
810.177	231.63
810.486	256.49
810.795	202.25
811.104	267.79
811.413	238.41
811.722	222.59
812.031	242.93
812.339	227.11
812.648	254.23
812.957	312.99
813.266	242.93
813.574	206.77
813.883	272.31
814.191	270.05
814.5	276.83
814.808	238.41
815.116	274.57
815.424	213.55
815.733	276.83
816.041	233.89
816.349	233.89
816.657	299.43
816.965	324.29
817.273	193.22
817.581	218.07
817.889	249.71
818.196	261.01
818.504	292.65
818.812	276.83
819.12	265.53
819.427	297.17
819.735	175.14
820.042	261.01
820.349	267.79
820.657	224.85
820.964	263.27
821.271	308.47
821.579	308.47
821.886	272.31
822.193	301.69
822.5	288.13
822.807	285.87
823.114	242.93
823.421	231.63
823.727	251.97
824.034	312.99
824.341	218.07
824.648	238.41
824.954	222.59
825.261	233.89
825.567	331.06
825.874	297.17
826.18	222.59
826.486	299.43
826.793	258.75
827.099	274.57
827.405	322.03
827.711	301.69
828.017	247.45
828.323	297.17
828.629	213.55
828.935	299.43
829.241	215.81
829.547	245.19
829.852	238.41
830.158	251.97
830.464	238.41
830.769	290.39
831.075	290.39
831.38	328.8
831.686	224.85
831.991	247.45
832.296	292.65
832.601	299.43
832.907	294.91
833.212	209.03
833.517	249.71
833.822	319.77
834.127	285.87
834.432	242.93
834.737	227.11
835.041	270.05
835.346	285.87
835.651	346.88
835.956	204.51
836.26	272.31
836.565	274.57
836.869	245.19
837.174	270.05
837.478	274.57
837.782	199.99
838.087	247.45
838.391	290.39
838.695	281.35
838.999	272.31
839.303	312.99
839.607	310.73
839.911	213.55
840.215	315.25
840.519	263.27
840.822	331.06
841.126	245.19
841.43	247.45
841.733	312.99
842.037	249.71
842.34	242.93
842.644	281.35
842.947	337.84
843.251	224.85
843.554	276.83
843.857	199.99
844.16	283.61
844.463	353.66
844.766	270.05
845.069	245.19
845.372	285.87
845.675	283.61
845.978	199.99
846.281	294.91
846.583	261.01
846.886	297.17
847.189	245.19
847.491	315.25
847.794	256.49
848.096	258.75
848.399	276.83
848.701	258.75
849.003	312.99
849.305	224.85
849.608	267.79
849.91	209.03
850.212	206.77
850.514	204.51
850.816	290.39
851.118	224.85
851.419	303.95
851.721	299.43
852.023	310.73
852.325	290.39
852.626	292.65
852.928	265.53
853.229	299.43
853.531	231.63
853.832	297.17
854.133	270.05
854.435	236.15
854.736	324.29
855.037	288.13
855.338	281.35
855.639	335.58
855.94	288.13
856.241	261.01
856.542	274.57
856.843	251.97
857.144	242.93
857.444	240.67
857.745	233.89
858.046	301.69
858.346	274.57
858.647	263.27
858.947	267.79
859.247	333.32
859.548	249.71
859.848	292.65
860.148	306.21
860.448	256.49
860.749	238.41
861.049	270.05
861.349	270.05
861.648	285.87
861.948	331.06
862.248	251.97
862.548	254.23
862.848	297.17
863.147	227.11
863.447	267.79
863.746	272.31
864.046	245.19
864.345	231.63
864.645	279.09
864.944	249.71
865.243	263.27
865.542	335.58
865.842	233.89
866.141	303.95
866.44	331.06
866.739	292.65
867.038	251.97
867.337	279.09
867.635	177.4
867.934	240.67
868.233	322.03
868.531	258.75
868.83	227.11
869.129	288.13
869.427	292.65
869.725	258.75
870.024	245.19
870.322	297.17
870.62	236.15
870.918	166.1
871.217	308.47
871.515	209.03
871.813	242.93
872.111	276.83
872.409	288.13
872.706	281.35
873.004	310.73
873.302	251.97
873.6	322.03
873.897	279.09
874.195	292.65
874.492	272.31
874.79	281.35
875.087	236.15
875.384	299.43
875.682	231.63
875.979	247.45
876.276	186.44
876.573	265.53
876.87	265.53
877.167	265.53
