Data from PL_2polymer_F8BT_MEHPPV_USB2H096331_0496.txt Node
Date: Tue Dec 15 15:59:08 CET 2020
User: spadmin
Spectrometer: USB2+H09633
Trigger mode: 0
Integration Time (sec): 1.000000E-2
Scans to average: 1
Electric dark correction enabled: true
Nonlinearity correction enabled: false
Boxcar width: 0
XAxis mode: Wavelengths
Number of Pixels in Spectrum: 2048
>>>>>Begin Spectral Data<<<<<
174.027	-116.66
174.405	-116.66
174.783	-116.66
175.162	-89.55
175.54	-112.14
175.918	-121.18
176.296	-139.26
176.674	-69.21
177.052	-66.95
177.43	-91.81
177.808	-57.91
178.186	-51.13
178.564	-14.97
178.942	-3.67
179.32	7.63
179.698	41.52
180.076	32.49
180.453	118.36
180.831	9.89
181.209	39.26
181.587	113.84
181.965	131.92
182.342	145.48
182.72	242.65
183.098	201.97
183.475	201.97
183.853	244.91
184.231	265.25
184.608	283.33
184.986	283.33
185.363	208.75
185.741	305.92
186.118	333.04
186.496	312.7
186.873	301.4
187.251	281.07
187.628	317.22
188.006	328.52
188.383	353.38
188.76	339.82
189.138	301.4
189.515	337.56
189.892	303.66
190.27	346.6
190.647	305.92
191.024	328.52
191.401	301.4
191.778	337.56
192.155	344.34
192.533	342.08
192.91	330.78
193.287	296.88
193.664	290.11
194.041	337.56
194.418	269.77
194.795	339.82
195.172	339.82
195.549	342.08
195.926	292.37
196.302	305.92
196.679	346.6
197.056	258.47
197.433	296.88
197.81	274.29
198.187	308.18
198.563	272.03
198.94	269.77
199.317	276.55
199.693	220.05
200.07	276.55
200.447	292.37
200.823	317.22
201.2	296.88
201.576	314.96
201.953	335.3
202.329	233.61
202.706	314.96
203.082	292.37
203.459	235.87
203.835	353.38
204.212	292.37
204.588	303.66
204.964	312.7
205.341	328.52
205.717	326.26
206.093	314.96
206.469	281.07
206.846	285.59
207.222	353.38
207.598	333.04
207.974	294.63
208.35	317.22
208.726	326.26
209.102	272.03
209.479	294.63
209.855	355.64
210.231	326.26
210.607	346.6
210.982	244.91
211.358	324
211.734	285.59
212.11	305.92
212.486	344.34
212.862	333.04
213.238	362.42
213.614	346.6
213.989	319.48
214.365	330.78
214.741	378.24
215.116	324
215.492	355.64
215.868	317.22
216.243	335.3
216.619	305.92
216.995	285.59
217.37	342.08
217.746	317.22
218.121	409.88
218.497	283.33
218.872	337.56
219.247	364.68
219.623	281.07
219.998	371.46
220.374	328.52
220.749	385.02
221.124	351.12
221.499	344.34
221.875	326.26
222.25	319.48
222.625	330.78
223	339.82
223.376	385.02
223.751	301.4
224.126	357.9
224.501	380.5
224.876	319.48
225.251	337.56
225.626	342.08
226.001	312.7
226.376	346.6
226.751	364.68
227.126	351.12
227.501	339.82
227.875	344.34
228.25	337.56
228.625	366.94
229	333.04
229.375	333.04
229.749	371.46
230.124	314.96
230.499	335.3
230.873	371.46
231.248	382.76
231.623	385.02
231.997	337.56
232.372	290.11
232.746	394.06
233.121	314.96
233.495	312.7
233.87	385.02
234.244	364.68
234.619	371.46
234.993	326.26
235.367	310.44
235.742	303.66
236.116	423.44
236.49	344.34
236.865	344.34
237.239	324
237.613	312.7
237.987	366.94
238.361	351.12
238.736	396.32
239.11	330.78
239.484	326.26
239.858	366.94
240.232	337.56
240.606	339.82
240.98	299.14
241.354	364.68
241.728	276.55
242.102	373.72
242.475	310.44
242.849	299.14
243.223	373.72
243.597	375.98
243.971	378.24
244.344	371.46
244.718	457.33
245.092	380.5
245.466	319.48
245.839	362.42
246.213	382.76
246.586	373.72
246.96	414.4
247.334	355.64
247.707	366.94
248.081	369.2
248.454	360.16
248.828	371.46
249.201	355.64
249.574	371.46
249.948	398.58
250.321	373.72
250.694	385.02
251.068	407.62
251.441	412.14
251.814	398.58
252.187	339.82
252.561	348.86
252.934	357.9
253.307	396.32
253.68	432.47
254.053	394.06
254.426	382.76
254.799	330.78
255.172	382.76
255.545	369.2
255.918	409.88
256.291	357.9
256.664	308.18
257.037	353.38
257.41	364.68
257.782	380.5
258.155	373.72
258.528	394.06
258.901	387.28
259.273	418.92
259.646	452.81
260.019	337.56
260.391	366.94
260.764	389.54
261.137	344.34
261.509	418.92
261.882	450.55
262.254	364.68
262.627	366.94
262.999	333.04
263.372	319.48
263.744	314.96
264.116	362.42
264.489	382.76
264.861	434.73
265.233	337.56
265.606	391.8
265.978	382.76
266.35	380.5
266.722	364.68
267.094	369.2
267.467	364.68
267.839	346.6
268.211	439.25
268.583	344.34
268.955	360.16
269.327	378.24
269.699	380.5
270.071	403.1
270.443	308.18
270.815	342.08
271.186	382.76
271.558	407.62
271.93	398.58
272.302	466.37
272.674	373.72
273.045	319.48
273.417	432.47
273.789	391.8
274.16	380.5
274.532	396.32
274.904	373.72
275.275	398.58
275.647	398.58
276.018	387.28
276.39	348.86
276.761	391.8
277.133	326.26
277.504	371.46
277.875	396.32
278.247	421.18
278.618	425.7
278.989	418.92
279.361	409.88
279.732	342.08
280.103	398.58
280.474	362.42
280.846	459.59
281.217	448.29
281.588	457.33
281.959	400.84
282.33	412.14
282.701	385.02
283.072	432.47
283.443	385.02
283.814	448.29
284.185	432.47
284.556	418.92
284.927	412.14
285.297	443.77
285.668	373.72
286.039	466.37
286.41	353.38
286.781	448.29
287.151	418.92
287.522	468.63
287.893	466.37
288.263	418.92
288.634	432.47
289.004	452.81
289.375	484.45
289.745	425.7
290.116	416.66
290.486	473.15
290.857	418.92
291.227	448.29
291.598	459.59
291.968	412.14
292.338	427.95
292.709	414.4
293.079	407.62
293.449	443.77
293.819	357.9
294.189	459.59
294.56	421.18
294.93	468.63
295.3	434.73
295.67	400.84
296.04	407.62
296.41	427.95
296.78	427.95
297.15	475.41
297.52	439.25
297.89	457.33
298.259	516.09
298.629	405.36
298.999	337.56
299.369	441.51
299.739	439.25
300.108	461.85
300.478	418.92
300.848	446.03
301.217	443.77
301.587	414.4
301.957	394.06
302.326	468.63
302.696	479.93
303.065	498.01
303.435	473.15
303.804	423.44
304.174	520.61
304.543	475.41
304.912	473.15
305.282	493.49
305.651	443.77
306.02	473.15
306.39	455.07
306.759	412.14
307.128	457.33
307.497	495.75
307.866	461.85
308.235	518.35
308.604	534.17
308.974	498.01
309.343	468.63
309.712	468.63
310.08	484.45
310.449	473.15
310.818	432.47
311.187	468.63
311.556	432.47
311.925	493.49
312.294	482.19
312.662	450.55
313.031	464.11
313.4	518.35
313.769	466.37
314.137	536.43
314.506	529.65
314.874	398.58
315.243	516.09
315.612	538.69
315.98	520.61
316.349	389.54
316.717	513.83
317.085	577.1
317.454	545.47
317.822	556.77
318.191	498.01
318.559	491.23
318.927	540.95
319.295	398.58
319.664	556.77
320.032	570.32
320.4	409.88
320.768	459.59
321.136	507.05
321.504	484.45
321.872	502.53
322.24	479.93
322.608	629.08
322.976	498.01
323.344	477.67
323.712	475.41
324.08	547.73
324.448	452.81
324.816	522.87
325.183	563.54
325.551	504.79
325.919	538.69
326.287	556.77
326.654	486.71
327.022	502.53
327.389	529.65
327.757	470.89
328.125	534.17
328.492	543.21
328.86	540.95
329.227	509.31
329.594	502.53
329.962	518.35
330.329	534.17
330.697	502.53
331.064	561.28
331.431	547.73
331.798	486.71
332.166	522.87
332.533	588.4
332.9	588.4
333.267	540.95
333.634	590.66
334.001	586.14
334.368	502.53
334.735	577.1
335.102	531.91
335.469	577.1
335.836	592.92
336.203	597.44
336.57	511.57
336.937	552.25
337.304	536.43
337.67	590.66
338.037	556.77
338.404	613.26
338.771	568.06
339.137	606.48
339.504	640.38
339.87	595.18
340.237	626.82
340.604	640.38
340.97	577.1
341.337	622.3
341.703	597.44
342.069	583.88
342.436	592.92
342.802	606.48
343.169	622.3
343.535	559.02
343.901	586.14
344.267	592.92
344.634	626.82
345	669.76
345.366	635.86
345.732	611
346.098	692.35
346.464	615.52
346.83	617.78
347.196	631.34
347.562	690.09
347.928	694.61
348.294	633.6
348.66	674.28
349.026	665.24
349.392	629.08
349.757	672.02
350.123	694.61
350.489	703.65
350.855	681.06
351.22	633.6
351.586	737.55
351.951	678.8
352.317	678.8
352.683	730.77
353.048	658.46
353.414	735.29
353.779	723.99
354.144	748.85
354.51	692.35
354.875	728.51
355.24	703.65
355.606	775.97
355.971	794.05
356.336	703.65
356.701	773.71
357.067	751.11
357.432	755.63
357.797	809.87
358.162	757.89
358.527	787.27
358.892	703.65
359.257	787.27
359.622	714.95
359.987	773.71
360.352	805.35
360.717	839.24
361.082	825.68
361.446	760.15
361.811	843.76
362.176	798.57
362.541	841.5
362.905	852.8
363.27	830.2
363.635	891.22
363.999	997.43
364.364	1017.77
364.728	1008.73
365.093	988.39
365.457	995.17
365.822	925.12
366.186	972.57
366.55	992.91
366.915	886.7
367.279	1047.15
367.643	1058.45
368.008	1044.89
368.372	1001.95
368.736	1038.11
369.1	1153.36
369.464	1040.37
369.828	1126.24
370.192	1074.27
370.556	1160.14
370.92	1148.84
371.284	1218.89
371.648	1230.19
372.012	1203.08
372.376	1316.07
372.74	1293.47
373.104	1383.86
373.468	1492.33
373.831	1494.59
374.195	1535.27
374.559	1505.89
374.922	1444.88
375.286	1557.87
375.65	1711.54
376.013	1621.14
376.377	1743.17
376.74	1826.79
377.104	1865.21
377.467	1982.72
377.83	1960.12
378.194	2177.06
378.557	2233.56
378.92	2509.26
379.284	2547.67
379.647	2685.52
380.01	2739.76
380.373	2981.56
380.736	3178.17
381.1	3566.86
381.463	3693.41
381.826	3941.99
382.189	4070.8
382.552	4400.73
382.915	5008.63
383.278	5189.41
383.64	5858.32
384.003	6373.56
384.366	6836.83
384.729	7428.9
385.092	7971.26
385.454	8613.05
385.817	9494.38
386.18	10364.42
386.542	11523.71
386.905	12529.33
387.268	13830.99
387.63	15245.64
387.993	16425.27
388.355	18056.87
388.718	20160.77
389.08	21546.04
389.442	22971.99
389.805	25654.41
390.167	27369.62
390.529	30452.02
390.892	34022.55
391.254	35697.08
391.616	38259.73
391.978	42716.11
392.34	47156.67
392.702	48512.57
393.064	52022.08
393.426	53906.77
393.788	55976.78
394.15	57445.66
394.512	59142.8
394.874	61111.11
395.236	62796.94
395.598	64595.76
395.96	65056.76
396.321	65056.76
396.683	65056.76
397.045	65056.76
397.406	65056.76
397.768	65056.76
398.13	65056.76
398.491	65056.76
398.853	65056.76
399.214	65056.76
399.576	65056.76
399.937	65056.76
400.299	65056.76
400.66	65056.76
401.021	65056.76
401.383	65056.76
401.744	65056.76
402.105	65056.76
402.466	65056.76
402.827	65056.76
403.189	65056.76
403.55	65056.76
403.911	65056.76
404.272	65056.76
404.633	65056.76
404.994	65056.76
405.355	65056.76
405.716	65056.76
406.077	65056.76
406.437	65056.76
406.798	65056.76
407.159	65056.76
407.52	65056.76
407.88	65056.76
408.241	65056.76
408.602	65056.76
408.962	65056.76
409.323	65056.76
409.684	65056.76
410.044	65056.76
410.405	65056.76
410.765	65056.76
411.125	65056.76
411.486	65056.76
411.846	65056.76
412.206	65056.76
412.567	65056.76
412.927	65056.76
413.287	65056.76
413.647	65056.76
414.007	65056.76
414.368	65056.76
414.728	65056.76
415.088	65056.76
415.448	65056.76
415.808	65056.76
416.168	65056.76
416.528	65056.76
416.887	65056.76
417.247	65056.76
417.607	65056.76
417.967	65056.76
418.327	65056.76
418.686	65056.76
419.046	65056.76
419.406	65056.76
419.765	65056.76
420.125	65056.76
420.484	65056.76
420.844	65056.76
421.203	65056.76
421.563	64866.94
421.922	64453.39
422.282	62668.13
422.641	61230.88
423	60039.95
423.36	59099.86
423.719	57136.07
424.078	55328.21
424.437	53251.42
424.796	51617.57
425.155	50333.99
425.515	47662.87
425.874	46456.12
426.233	42257.36
426.592	40399.79
426.95	39287.95
427.309	37039.42
427.668	35864.31
428.027	33143.48
428.386	32366.1
428.745	28924.38
429.103	27545.89
429.462	26382.07
429.821	24741.44
430.179	23530.17
430.538	23014.93
430.897	22565.23
431.255	20685.05
431.614	19152.89
431.972	18883.97
432.33	18032.01
432.689	17846.71
433.047	16504.37
433.405	15711.17
433.764	14969.95
434.122	14619.67
434.48	13754.16
434.838	13324.79
435.197	12493.17
435.555	12271.71
435.913	11652.52
436.271	11098.86
436.629	10538.42
436.987	10353.12
437.345	9643.53
437.703	9453.71
438.061	8845.81
438.418	8364.47
438.776	8050.35
439.134	7919.28
439.492	7390.48
439.849	6985.97
440.207	6798.41
440.565	6531.75
440.922	6068.48
441.28	5849.28
441.637	5618.78
441.995	5453.81
442.352	5257.21
442.71	4997.33
443.067	4949.87
443.425	4540.84
443.782	4436.89
444.139	4389.43
444.496	4027.86
444.854	3978.14
445.211	3806.4
445.568	3790.58
445.925	3636.91
446.282	3487.76
446.639	3261.78
446.996	3318.27
447.353	3379.29
447.71	3309.24
448.067	3223.36
448.424	3013.2
448.781	2913.77
449.137	2848.23
449.494	2710.38
449.851	2640.33
450.208	2445.98
450.564	2346.55
450.921	2355.59
451.278	2371.41
451.634	2321.69
451.991	2206.44
452.347	2240.34
452.704	2113.79
453.06	1989.5
453.416	1831.31
453.773	1716.06
454.129	1709.28
454.485	1693.46
454.841	1731.88
455.198	1571.43
455.554	1557.87
455.91	1571.43
456.266	1539.79
456.622	1458.44
456.978	1408.72
457.334	1227.93
457.69	1257.31
458.046	1246.01
458.402	1347.7
458.758	1173.7
459.114	1185
459.469	1187.26
459.825	1135.28
460.181	1105.9
460.536	1094.6
460.892	1076.53
461.248	995.17
461.603	999.69
461.959	1049.41
462.314	981.61
462.67	963.53
463.025	911.56
463.38	895.74
463.736	875.4
464.091	875.4
464.446	830.2
464.802	920.6
465.157	843.76
465.512	857.32
465.867	836.98
466.222	796.31
466.577	846.02
466.932	753.37
467.287	730.77
467.642	800.83
467.997	823.42
468.352	794.05
468.707	766.93
469.062	760.15
469.417	760.15
469.771	703.65
470.126	764.67
470.481	742.07
470.835	653.94
471.19	764.67
471.544	737.55
471.899	764.67
472.253	681.06
472.608	739.81
472.962	676.54
473.317	581.62
473.671	656.2
474.025	647.16
474.38	701.39
474.734	696.87
475.088	624.56
475.442	640.38
475.796	658.46
476.15	656.2
476.504	710.43
476.858	579.36
477.212	615.52
477.566	577.1
477.92	674.28
478.274	581.62
478.628	601.96
478.982	635.86
479.336	583.88
479.689	525.13
480.043	500.27
480.397	588.4
480.75	577.1
481.104	568.06
481.457	554.51
481.811	595.18
482.164	586.14
482.518	455.07
482.871	552.25
483.225	552.25
483.578	570.32
483.931	509.31
484.284	543.21
484.638	563.54
484.991	579.36
485.344	554.51
485.697	577.1
486.05	583.88
486.403	588.4
486.756	613.26
487.109	606.48
487.462	522.87
487.815	511.57
488.168	579.36
488.52	452.81
488.873	583.88
489.226	601.96
489.579	545.47
489.931	559.02
490.284	534.17
490.637	518.35
490.989	509.31
491.342	620.04
491.694	511.57
492.047	574.84
492.399	581.62
492.751	601.96
493.104	563.54
493.456	491.23
493.808	577.1
494.16	470.89
494.513	552.25
494.865	559.02
495.217	556.77
495.569	583.88
495.921	493.49
496.273	464.11
496.625	547.73
496.977	556.77
497.329	527.39
497.68	538.69
498.032	516.09
498.384	547.73
498.736	461.85
499.087	568.06
499.439	502.53
499.791	574.84
500.142	511.57
500.494	581.62
500.845	581.62
501.197	583.88
501.548	608.74
501.9	624.56
502.251	583.88
502.602	547.73
502.954	534.17
503.305	633.6
503.656	563.54
504.007	622.3
504.358	620.04
504.709	563.54
505.061	638.12
505.412	658.46
505.763	667.5
506.113	638.12
506.464	611
506.815	638.12
507.166	601.96
507.517	644.9
507.868	678.8
508.218	642.64
508.569	613.26
508.92	665.24
509.27	651.68
509.621	746.59
509.971	771.45
510.322	692.35
510.672	748.85
511.023	737.55
511.373	719.47
511.723	726.25
512.074	800.83
512.424	692.35
512.774	782.75
513.124	764.67
513.475	739.81
513.825	717.21
514.175	787.27
514.525	825.68
514.875	877.66
515.225	843.76
515.575	855.06
515.924	913.82
516.274	830.2
516.624	791.79
516.974	952.23
517.324	879.92
517.673	884.44
518.023	893.48
518.373	920.6
518.722	918.34
519.072	965.79
519.421	855.06
519.771	952.23
520.12	988.39
520.469	945.46
520.819	961.27
521.168	1044.89
521.517	931.9
521.867	1033.59
522.216	1022.29
522.565	1053.93
522.914	1022.29
523.263	1047.15
523.612	1130.76
523.961	1058.45
524.31	1031.33
524.659	1139.8
525.008	1017.77
525.357	1044.89
525.705	1130.76
526.054	1056.19
526.403	1110.42
526.752	1128.5
527.1	1148.84
527.449	1081.05
527.797	1221.15
528.146	1160.14
528.495	1198.56
528.843	1126.24
529.191	1205.34
529.54	1151.1
529.888	1318.33
530.236	1200.82
530.585	1191.78
530.933	1139.8
531.281	1270.87
531.629	1151.1
531.977	1232.45
532.325	1207.6
532.673	1266.35
533.021	1227.93
533.369	1236.97
533.717	1300.25
534.065	1221.15
534.413	1248.27
534.761	1291.21
535.108	1175.96
535.456	1268.61
535.804	1239.23
536.151	1261.83
536.499	1264.09
536.847	1284.43
537.194	1257.31
537.542	1279.91
537.889	1234.71
538.236	1178.22
538.584	1288.95
538.931	1203.08
539.278	1275.39
539.626	1130.76
539.973	1295.73
540.32	1221.15
540.667	1191.78
541.014	1268.61
541.361	1248.27
541.708	1185
542.055	1284.43
542.402	1304.77
542.749	1255.05
543.096	1212.12
543.443	1277.65
543.789	1354.48
544.136	1207.6
544.483	1252.79
544.83	1246.01
545.176	1232.45
545.523	1266.35
545.869	1250.53
546.216	1203.08
546.562	1273.13
546.909	1250.53
547.255	1293.47
547.601	1194.04
547.948	1221.15
548.294	1268.61
548.64	1123.98
548.986	1189.52
549.332	1288.95
549.678	1248.27
550.025	1175.96
550.371	1288.95
550.717	1250.53
551.062	1347.7
551.408	1264.09
551.754	1259.57
552.1	1236.97
552.446	1236.97
552.792	1214.37
553.137	1264.09
553.483	1169.18
553.828	1246.01
554.174	1288.95
554.52	1279.91
554.865	1248.27
555.211	1248.27
555.556	1268.61
555.901	1374.82
556.247	1372.56
556.592	1309.29
556.937	1264.09
557.282	1250.53
557.628	1336.41
557.973	1392.9
558.318	1282.17
558.663	1288.95
559.008	1345.44
559.353	1288.95
559.698	1338.67
560.043	1399.68
560.388	1386.12
560.732	1431.32
561.077	1372.56
561.422	1431.32
561.766	1397.42
562.111	1410.98
562.456	1361.26
562.8	1352.22
563.145	1363.52
563.489	1417.76
563.834	1431.32
564.178	1528.49
564.523	1460.7
564.867	1442.62
565.211	1456.18
565.555	1417.76
565.9	1472
566.244	1404.2
566.588	1472
566.932	1517.19
567.276	1510.41
567.62	1499.11
567.964	1557.87
568.308	1521.71
568.652	1546.57
568.996	1575.95
569.339	1499.11
569.683	1555.61
570.027	1535.27
570.371	1535.27
570.714	1616.62
571.058	1526.23
571.401	1566.91
571.745	1573.69
572.088	1503.63
572.432	1501.37
572.775	1573.69
573.118	1528.49
573.462	1584.99
573.805	1596.29
574.148	1632.44
574.491	1580.47
574.835	1636.96
575.178	1605.33
575.521	1573.69
575.864	1523.97
576.207	1627.92
576.55	1542.05
576.892	1557.87
577.235	1693.46
577.578	1584.99
577.921	1594.03
578.264	1652.78
578.606	1528.49
578.949	1603.07
579.292	1555.61
579.634	1636.96
579.977	1564.65
580.319	1618.88
580.662	1582.73
581.004	1557.87
581.346	1523.97
581.689	1589.51
582.031	1553.35
582.373	1453.92
582.715	1429.06
583.057	1526.23
583.4	1578.21
583.742	1453.92
584.084	1372.56
584.426	1467.48
584.768	1413.24
585.109	1417.76
585.451	1410.98
585.793	1372.56
586.135	1379.34
586.477	1361.26
586.818	1370.3
587.16	1304.77
587.502	1291.21
587.843	1374.82
588.185	1359
588.526	1377.08
588.868	1372.56
589.209	1218.89
589.55	1316.07
589.892	1286.69
590.233	1273.13
590.574	1246.01
590.915	1230.19
591.257	1300.25
591.598	1311.55
591.939	1230.19
592.28	1221.15
592.621	1275.39
592.962	1218.89
593.303	1284.43
593.643	1189.52
593.984	1218.89
594.325	1130.76
594.666	1160.14
595.006	1166.92
595.347	1139.8
595.688	1053.93
596.028	1067.49
596.369	1112.68
596.709	1205.34
597.05	1105.9
597.39	1126.24
597.73	1078.79
598.071	1142.06
598.411	981.61
598.751	1035.85
599.091	1090.08
599.431	1015.51
599.772	959.01
600.112	1101.38
600.452	1101.38
600.792	1062.97
601.132	983.87
601.471	1015.51
601.811	963.53
602.151	1008.73
602.491	986.13
602.831	1015.51
603.17	981.61
603.51	974.83
603.849	907.04
604.189	888.96
604.528	934.16
604.868	943.2
605.207	929.64
605.547	959.01
605.886	836.98
606.225	925.12
606.565	855.06
606.904	929.64
607.243	884.44
607.582	909.3
607.921	925.12
608.26	882.18
608.599	800.83
608.938	898
609.277	934.16
609.616	868.62
609.955	877.66
610.293	868.62
610.632	791.79
610.971	785.01
611.309	814.39
611.648	888.96
611.987	830.2
612.325	827.94
612.664	827.94
613.002	812.13
613.34	726.25
613.679	830.2
614.017	798.57
614.355	846.02
614.694	836.98
615.032	870.88
615.37	798.57
615.708	789.53
616.046	821.16
616.384	834.72
616.722	823.42
617.06	726.25
617.398	789.53
617.736	852.8
618.073	839.24
618.411	780.49
618.749	737.55
619.086	830.2
619.424	791.79
619.762	739.81
620.099	778.23
620.437	748.85
620.774	780.49
621.112	757.89
621.449	769.19
621.786	757.89
622.123	782.75
622.461	864.1
622.798	866.36
623.135	748.85
623.472	827.94
623.809	755.63
624.146	827.94
624.483	771.45
624.82	778.23
625.157	814.39
625.494	735.29
625.83	708.17
626.167	748.85
626.504	778.23
626.841	710.43
627.177	712.69
627.514	690.09
627.85	742.07
628.187	814.39
628.523	746.59
628.86	708.17
629.196	717.21
629.532	710.43
629.869	746.59
630.205	723.99
630.541	739.81
630.877	687.84
631.213	746.59
631.549	714.95
631.885	669.76
632.221	635.86
632.557	735.29
632.893	662.98
633.229	742.07
633.564	687.84
633.9	662.98
634.236	699.13
634.572	678.8
634.907	642.64
635.243	742.07
635.578	674.28
635.914	730.77
636.249	690.09
636.585	681.06
636.92	647.16
637.255	642.64
637.59	674.28
637.926	622.3
638.261	624.56
638.596	717.21
638.931	656.2
639.266	633.6
639.601	642.64
639.936	656.2
640.271	640.38
640.606	631.34
640.94	601.96
641.275	615.52
641.61	613.26
641.945	611
642.279	597.44
642.614	559.02
642.948	556.77
643.283	642.64
643.617	547.73
643.952	561.28
644.286	601.96
644.62	622.3
644.955	568.06
645.289	581.62
645.623	543.21
645.957	590.66
646.291	547.73
646.625	534.17
646.959	620.04
647.293	500.27
647.627	520.61
647.961	529.65
648.295	572.58
648.629	588.4
648.962	549.99
649.296	561.28
649.63	577.1
649.963	590.66
650.297	529.65
650.63	482.19
650.964	513.83
651.297	466.37
651.631	495.75
651.964	554.51
652.297	461.85
652.631	502.53
652.964	522.87
653.297	486.71
653.63	527.39
653.963	504.79
654.296	491.23
654.629	482.19
654.962	522.87
655.295	509.31
655.628	488.97
655.961	511.57
656.293	534.17
656.626	563.54
656.959	491.23
657.291	436.99
657.624	500.27
657.956	461.85
658.289	511.57
658.621	520.61
658.954	464.11
659.286	477.67
659.618	475.41
659.95	403.1
660.283	461.85
660.615	432.47
660.947	409.88
661.279	439.25
661.611	491.23
661.943	436.99
662.275	394.06
662.607	360.16
662.939	407.62
663.27	482.19
663.602	434.73
663.934	427.95
664.266	452.81
664.597	432.47
664.929	436.99
665.26	416.66
665.592	470.89
665.923	439.25
666.255	452.81
666.586	409.88
666.917	504.79
667.248	421.18
667.58	452.81
667.911	450.55
668.242	432.47
668.573	421.18
668.904	421.18
669.235	425.7
669.566	459.59
669.897	396.32
670.228	351.12
670.558	398.58
670.889	452.81
671.22	396.32
671.551	380.5
671.881	362.42
672.212	366.94
672.542	425.7
672.873	432.47
673.203	389.54
673.533	394.06
673.864	418.92
674.194	375.98
674.524	355.64
674.855	427.95
675.185	448.29
675.515	430.21
675.845	416.66
676.175	434.73
676.505	414.4
676.835	416.66
677.165	414.4
677.494	351.12
677.824	382.76
678.154	382.76
678.484	314.96
678.813	414.4
679.143	344.34
679.472	375.98
679.802	396.32
680.131	375.98
680.461	294.63
680.79	355.64
681.119	382.76
681.449	339.82
681.778	364.68
682.107	380.5
682.436	394.06
682.765	412.14
683.094	344.34
683.423	364.68
683.752	414.4
684.081	391.8
684.41	430.21
684.739	328.52
685.067	351.12
685.396	344.34
685.725	357.9
686.053	355.64
686.382	364.68
686.711	403.1
687.039	355.64
687.367	353.38
687.696	380.5
688.024	353.38
688.352	371.46
688.681	346.6
689.009	382.76
689.337	335.3
689.665	303.66
689.993	375.98
690.321	344.34
690.649	310.44
690.977	380.5
691.305	382.76
691.633	328.52
691.961	378.24
692.288	319.48
692.616	333.04
692.944	324
693.271	328.52
693.599	330.78
693.926	262.99
694.254	344.34
694.581	378.24
694.908	344.34
695.236	348.86
695.563	348.86
695.89	296.88
696.217	355.64
696.544	342.08
696.871	326.26
697.198	330.78
697.525	407.62
697.852	369.2
698.179	330.78
698.506	335.3
698.833	348.86
699.16	364.68
699.486	326.26
699.813	285.59
700.139	366.94
700.466	310.44
700.793	328.52
701.119	267.51
701.445	267.51
701.772	310.44
702.098	294.63
702.424	321.74
702.75	324
703.077	355.64
703.403	267.51
703.729	290.11
704.055	328.52
704.381	296.88
704.707	357.9
705.033	369.2
705.358	330.78
705.684	369.2
706.01	369.2
706.336	360.16
706.661	274.29
706.987	305.92
707.312	274.29
707.638	330.78
707.963	294.63
708.289	308.18
708.614	348.86
708.939	353.38
709.265	362.42
709.59	294.63
709.915	353.38
710.24	364.68
710.565	321.74
710.89	244.91
711.215	299.14
711.54	301.4
711.865	299.14
712.19	267.51
712.515	283.33
712.839	333.04
713.164	317.22
713.489	303.66
713.813	292.37
714.138	380.5
714.462	294.63
714.787	299.14
715.111	287.85
715.435	296.88
715.76	355.64
716.084	317.22
716.408	258.47
716.732	294.63
717.056	269.77
717.381	339.82
717.705	281.07
718.028	276.55
718.352	213.27
718.676	287.85
719	267.51
719.324	326.26
719.648	346.6
719.971	337.56
720.295	281.07
720.618	344.34
720.942	296.88
721.265	310.44
721.589	314.96
721.912	351.12
722.236	312.7
722.559	272.03
722.882	360.16
723.205	348.86
723.528	351.12
723.851	276.55
724.174	308.18
724.497	247.17
724.82	296.88
725.143	267.51
725.466	260.73
725.789	267.51
726.112	360.16
726.434	330.78
726.757	294.63
727.08	310.44
727.402	220.05
727.725	269.77
728.047	265.25
728.37	283.33
728.692	328.52
729.014	274.29
729.336	253.95
729.659	274.29
729.981	258.47
730.303	301.4
730.625	312.7
730.947	299.14
731.269	319.48
731.591	262.99
731.913	220.05
732.235	324
732.556	321.74
732.878	301.4
733.2	305.92
733.521	258.47
733.843	258.47
734.164	319.48
734.486	281.07
734.807	265.25
735.129	242.65
735.45	299.14
735.771	301.4
736.092	342.08
736.414	333.04
736.735	272.03
737.056	305.92
737.377	312.7
737.698	240.39
738.019	272.03
738.34	287.85
738.66	301.4
738.981	195.19
739.302	290.11
739.623	262.99
739.943	272.03
740.264	276.55
740.584	267.51
740.905	229.09
741.225	281.07
741.546	364.68
741.866	265.25
742.186	328.52
742.507	314.96
742.827	272.03
743.147	258.47
743.467	287.85
743.787	262.99
744.107	321.74
744.427	274.29
744.747	287.85
745.067	253.95
745.386	272.03
745.706	292.37
746.026	285.59
746.346	294.63
746.665	265.25
746.985	251.69
747.304	265.25
747.624	267.51
747.943	204.23
748.262	276.55
748.582	217.79
748.901	267.51
749.22	324
749.539	308.18
749.858	258.47
750.177	278.81
750.496	301.4
750.815	272.03
751.134	260.73
751.453	312.7
751.772	262.99
752.09	235.87
752.409	262.99
752.728	342.08
753.046	247.17
753.365	274.29
753.683	251.69
754.002	314.96
754.32	317.22
754.639	296.88
754.957	267.51
755.275	265.25
755.593	226.83
755.911	285.59
756.23	364.68
756.548	305.92
756.866	335.3
757.183	244.91
757.501	312.7
757.819	296.88
758.137	272.03
758.455	308.18
758.772	258.47
759.09	272.03
759.408	222.31
759.725	244.91
760.043	278.81
760.36	290.11
760.677	269.77
760.995	269.77
761.312	244.91
761.629	256.21
761.946	244.91
762.264	256.21
762.581	274.29
762.898	301.4
763.215	326.26
763.532	215.53
763.848	276.55
764.165	283.33
764.482	269.77
764.799	296.88
765.115	240.39
765.432	267.51
765.749	292.37
766.065	220.05
766.382	251.69
766.698	251.69
767.014	281.07
767.331	260.73
767.647	314.96
767.963	312.7
768.279	396.32
768.595	267.51
768.911	274.29
769.227	342.08
769.543	274.29
769.859	238.13
770.175	335.3
770.491	314.96
770.807	281.07
771.122	292.37
771.438	310.44
771.754	251.69
772.069	305.92
772.385	292.37
772.7	258.47
773.016	249.43
773.331	321.74
773.646	251.69
773.961	201.97
774.277	269.77
774.592	222.31
774.907	265.25
775.222	290.11
775.537	247.17
775.852	290.11
776.167	267.51
776.482	240.39
776.796	206.49
777.111	235.87
777.426	215.53
777.74	249.43
778.055	260.73
778.369	305.92
778.684	314.96
778.998	301.4
779.313	240.39
779.627	285.59
779.941	199.71
780.255	278.81
780.57	220.05
780.884	249.43
781.198	260.73
781.512	272.03
781.826	238.13
782.14	294.63
782.453	339.82
782.767	215.53
783.081	312.7
783.395	267.51
783.708	272.03
784.022	301.4
784.335	351.12
784.649	222.31
784.962	285.59
785.276	310.44
785.589	281.07
785.902	235.87
786.216	267.51
786.529	305.92
786.842	269.77
787.155	226.83
787.468	217.79
787.781	222.31
788.094	272.03
788.407	296.88
788.72	267.51
789.032	238.13
789.345	290.11
789.658	301.4
789.97	296.88
790.283	258.47
790.595	253.95
790.908	281.07
791.22	294.63
791.532	281.07
791.845	339.82
792.157	244.91
792.469	287.85
792.781	272.03
793.093	242.65
793.405	272.03
793.717	260.73
794.029	303.66
794.341	267.51
794.653	301.4
794.965	244.91
795.276	258.47
795.588	181.63
795.9	215.53
796.211	314.96
796.523	346.6
796.834	294.63
797.146	215.53
797.457	281.07
797.768	244.91
798.08	247.17
798.391	260.73
798.702	290.11
799.013	188.41
799.324	211.01
799.635	249.43
799.946	224.57
800.257	281.07
800.568	344.34
800.878	274.29
801.189	276.55
801.5	285.59
801.81	249.43
802.121	267.51
802.431	247.17
802.742	292.37
803.052	292.37
803.363	299.14
803.673	244.91
803.983	224.57
804.293	267.51
804.603	253.95
804.913	183.89
805.224	204.23
805.533	272.03
805.843	287.85
806.153	285.59
806.463	321.74
806.773	314.96
807.083	283.33
807.392	224.57
807.702	267.51
808.011	337.56
808.321	299.14
808.63	269.77
808.94	260.73
809.249	267.51
809.558	249.43
809.868	247.17
810.177	308.18
810.486	258.47
810.795	285.59
811.104	242.65
811.413	253.95
811.722	213.27
812.031	292.37
812.339	269.77
812.648	240.39
812.957	262.99
813.266	314.96
813.574	290.11
813.883	348.86
814.191	312.7
814.5	235.87
814.808	292.37
815.116	238.13
815.424	253.95
815.733	267.51
816.041	290.11
816.349	222.31
816.657	260.73
816.965	208.75
817.273	247.17
817.581	285.59
817.889	235.87
818.196	229.09
818.504	206.49
818.812	269.77
819.12	181.63
819.427	247.17
819.735	220.05
820.042	272.03
820.349	238.13
820.657	330.78
820.964	258.47
821.271	269.77
821.579	285.59
821.886	276.55
822.193	326.26
822.5	260.73
822.807	292.37
823.114	285.59
823.421	317.22
823.727	281.07
824.034	247.17
824.341	303.66
824.648	201.97
824.954	220.05
825.261	258.47
825.567	269.77
825.874	281.07
826.18	247.17
826.486	278.81
826.793	249.43
827.099	269.77
827.405	292.37
827.711	251.69
828.017	272.03
828.323	272.03
828.629	262.99
828.935	235.87
829.241	229.09
829.547	258.47
829.852	195.19
830.158	213.27
830.464	242.65
830.769	208.75
831.075	249.43
831.38	267.51
831.686	305.92
831.991	285.59
832.296	206.49
832.601	301.4
832.907	258.47
833.212	281.07
833.517	267.51
833.822	283.33
834.127	269.77
834.432	217.79
834.737	258.47
835.041	233.61
835.346	242.65
835.651	283.33
835.956	231.35
836.26	249.43
836.565	319.48
836.869	240.39
837.174	235.87
837.478	267.51
837.782	206.49
838.087	283.33
838.391	204.23
838.695	260.73
838.999	278.81
839.303	229.09
839.607	267.51
839.911	267.51
840.215	269.77
840.519	229.09
840.822	274.29
841.126	231.35
841.43	244.91
841.733	314.96
842.037	242.65
842.34	249.43
842.644	269.77
842.947	276.55
843.251	287.85
843.554	253.95
843.857	272.03
844.16	240.39
844.463	251.69
844.766	242.65
845.069	211.01
845.372	181.63
845.675	251.69
845.978	265.25
846.281	294.63
846.583	244.91
846.886	217.79
847.189	242.65
847.491	249.43
847.794	265.25
848.096	262.99
848.399	201.97
848.701	215.53
849.003	249.43
849.305	357.9
849.608	258.47
849.91	301.4
850.212	201.97
850.514	247.17
850.816	235.87
851.118	242.65
851.419	292.37
851.721	296.88
852.023	305.92
852.325	333.04
852.626	285.59
852.928	269.77
853.229	276.55
853.531	285.59
853.832	330.78
854.133	249.43
854.435	242.65
854.736	233.61
855.037	229.09
855.338	276.55
855.639	285.59
855.94	281.07
856.241	190.67
856.542	269.77
856.843	258.47
857.144	213.27
857.444	312.7
857.745	314.96
858.046	310.44
858.346	235.87
858.647	251.69
858.947	321.74
859.247	321.74
859.548	262.99
859.848	351.12
860.148	244.91
860.448	287.85
860.749	242.65
861.049	222.31
861.349	267.51
861.648	231.35
861.948	260.73
862.248	238.13
862.548	299.14
862.848	308.18
863.147	267.51
863.447	278.81
863.746	267.51
864.046	217.79
864.345	276.55
864.645	283.33
864.944	305.92
865.243	281.07
865.542	287.85
865.842	301.4
866.141	238.13
866.44	247.17
866.739	242.65
867.038	240.39
867.337	287.85
867.635	321.74
867.934	287.85
868.233	258.47
868.531	321.74
868.83	260.73
869.129	312.7
869.427	274.29
869.725	278.81
870.024	281.07
870.322	251.69
870.62	276.55
870.918	195.19
871.217	244.91
871.515	303.66
871.813	299.14
872.111	272.03
872.409	310.44
872.706	333.04
873.004	267.51
873.302	226.83
873.6	231.35
873.897	283.33
874.195	240.39
874.492	240.39
874.79	267.51
875.087	301.4
875.384	308.18
875.682	249.43
875.979	260.73
876.276	224.57
876.573	262.99
876.87	262.99
877.167	262.99
