300.47	2619.00
301.26	2608.00
302.04	2625.00
302.82	2615.00
303.60	2612.00
304.38	2622.00
305.17	2607.00
305.95	2621.00
306.73	2623.00
307.51	2598.00
308.29	2621.00
309.08	2616.00
309.86	2605.00
310.64	2622.00
311.42	2615.00
312.20	2615.00
312.98	2618.00
313.76	2602.00
314.55	2622.00
315.33	2616.00
316.11	2600.00
316.89	2619.00
317.67	2618.00
318.45	2605.00
319.23	2624.00
320.01	2616.00
320.79	2613.00
321.57	2619.00
322.35	2604.00
323.13	2617.00
323.91	2619.00
324.69	2603.00
325.47	2622.00
326.25	2616.00
327.03	2602.00
327.81	2615.00
328.59	2612.00
329.37	2608.00
330.15	2611.00
330.93	2603.00
331.71	2620.00
332.49	2620.00
333.27	2603.00
334.05	2624.00
334.83	2616.00
335.61	2603.00
336.39	2623.00
337.17	2613.00
337.95	2616.00
338.73	2618.00
339.51	2605.00
340.29	2623.00
341.07	2621.00
341.84	2608.00
342.62	2630.00
343.40	2632.00
344.18	2615.00
344.96	2632.00
345.74	2623.00
346.52	2625.00
347.29	2638.00
348.07	2614.00
348.85	2641.00
349.63	2638.00
350.41	2623.00
351.18	2645.00
351.96	2647.00
352.74	2637.00
353.52	2654.00
354.30	2647.00
355.07	2655.00
355.85	2660.00
356.63	2651.00
357.41	2671.00
358.18	2670.00
358.96	2655.00
359.74	2685.00
360.52	2682.00
361.29	2674.00
362.07	2694.00
362.85	2692.00
363.62	2697.00
364.40	2708.00
365.18	2696.00
365.95	2720.00
366.73	2724.00
367.51	2710.00
368.28	2746.00
369.06	2742.00
369.84	2740.00
370.61	2757.00
371.39	2755.00
372.17	2771.00
372.94	2782.00
373.72	2773.00
374.49	2802.00
375.27	2804.00
376.05	2804.00
376.82	2821.00
377.60	2840.00
378.37	2846.00
379.15	2847.00
379.92	2856.00
380.70	2878.00
381.47	2900.00
382.25	2907.00
383.02	2895.00
383.80	2934.00
384.58	2945.00
385.35	2952.00
386.13	2970.00
386.90	2987.00
387.67	2997.00
388.45	2996.00
389.22	3023.00
390.00	3047.00
390.77	3074.00
391.55	3081.00
392.32	3077.00
393.10	3101.00
393.87	3126.00
394.65	3158.00
395.42	3162.00
396.19	3166.00
396.97	3202.00
397.74	3228.00
398.52	3244.00
399.29	3239.00
400.06	3265.00
400.84	3304.00
401.61	3316.00
402.38	3336.00
403.16	3349.00
403.93	3393.00
404.70	3397.00
405.48	3419.00
406.25	3420.00
407.02	3451.00
407.80	3487.00
408.57	3505.00
409.34	3531.00
410.12	3538.00
410.89	3577.00
411.66	3596.00
412.43	3614.00
413.21	3629.00
413.98	3643.00
414.75	3684.00
415.52	3720.00
416.30	3724.00
417.07	3769.00
417.84	3777.00
418.61	3793.00
419.39	3844.00
420.16	3856.00
420.93	3893.00
421.70	3905.00
422.47	3942.00
423.24	3984.00
424.02	3996.00
424.79	4005.00
425.56	4077.00
426.33	4095.00
427.10	4117.00
427.87	4163.00
428.64	4189.00
429.42	4234.00
430.19	4267.00
430.96	4294.00
431.73	4363.00
432.50	4377.00
433.27	4391.00
434.04	4474.00
434.81	4495.00
435.58	4543.00
436.35	4591.00
437.12	4629.00
437.89	4668.00
438.67	4703.00
439.44	4763.00
440.21	4803.00
440.98	4829.00
441.75	4916.00
442.52	4939.00
443.29	5010.00
444.06	5056.00
444.83	5113.00
445.60	5174.00
446.37	5231.00
447.13	5258.00
447.90	5302.00
448.67	5372.00
449.44	5443.00
450.21	5520.00
450.98	5563.00
451.75	5615.00
452.52	5655.00
453.29	5741.00
454.06	5831.00
454.83	5873.00
455.60	5939.00
456.37	6001.00
457.13	6095.00
457.90	6141.00
458.67	6235.00
459.44	6305.00
460.21	6356.00
460.98	6429.00
461.75	6527.00
462.51	6606.00
463.28	6710.00
464.05	6764.00
464.82	6819.00
465.59	6923.00
466.35	7027.00
467.12	7095.00
467.89	7187.00
468.66	7244.00
469.43	7370.00
470.19	7436.00
470.96	7520.00
471.73	7613.00
472.50	7730.00
473.26	7812.00
474.03	7889.00
474.80	8006.00
475.56	8086.00
476.33	8206.00
477.10	8307.00
477.87	8383.00
478.63	8497.00
479.40	8561.00
480.17	8660.00
480.93	8795.00
481.70	8914.00
482.47	8980.00
483.23	9110.00
484.00	9247.00
484.76	9372.00
485.53	9455.00
486.30	9545.00
487.06	9682.00
487.83	9789.00
488.60	9931.00
489.36	10036.00
490.13	10107.00
490.89	10228.00
491.66	10370.00
492.42	10453.00
493.19	10597.00
493.96	10712.00
494.72	10845.00
495.49	10974.00
496.25	11088.00
497.02	11186.00
497.78	11350.00
498.55	11438.00
499.31	11555.00
500.08	11735.00
500.84	11842.00
501.61	11965.00
502.37	12060.00
503.14	12221.00
503.90	12323.00
504.67	12507.00
505.43	12609.00
506.20	12766.00
506.96	12949.00
507.72	13080.00
508.49	13169.00
509.25	13335.00
510.02	13507.00
510.78	13636.00
511.54	13767.00
512.31	13929.00
513.07	14087.00
513.84	14190.00
514.60	14394.00
515.36	14556.00
516.13	14636.00
516.89	14754.00
517.65	14869.00
518.42	14970.00
519.18	15152.00
519.94	15300.00
520.71	15395.00
521.47	15558.00
522.23	15673.00
523.00	15875.00
523.76	16067.00
524.52	16210.00
525.28	16370.00
526.05	16552.00
526.81	16728.00
527.57	16847.00
528.33	17069.00
529.10	17168.00
529.86	17303.00
530.62	17513.00
531.38	17647.00
532.15	17845.00
532.91	17907.00
533.67	18097.00
534.43	18214.00
535.19	18433.00
535.96	18573.00
536.72	18741.00
537.48	18825.00
538.24	19015.00
539.00	19182.00
539.76	19375.00
540.53	19540.00
541.29	19680.00
542.05	19864.00
542.81	20083.00
543.57	20223.00
544.33	20436.00
545.09	20554.00
545.85	20752.00
546.61	20896.00
547.38	21105.00
548.14	21204.00
548.90	21439.00
549.66	21696.00
550.42	21752.00
551.18	21979.00
551.94	22041.00
552.70	22235.00
553.46	22371.00
554.22	22619.00
554.98	22702.00
555.74	22813.00
556.50	23028.00
557.26	23191.00
558.02	23354.00
558.78	23575.00
559.54	23726.00
560.30	23844.00
561.06	24037.00
561.82	24225.00
562.58	24479.00
563.34	24682.00
564.10	24785.00
564.86	25026.00
565.61	25088.00
566.37	25299.00
567.13	25478.00
567.89	25642.00
568.65	25892.00
569.41	26074.00
570.17	26220.00
570.93	26454.00
571.69	26670.00
572.44	26797.00
573.20	26980.00
573.96	27089.00
574.72	27289.00
575.48	27358.00
576.24	27501.00
576.99	27614.00
577.75	27860.00
578.51	28032.00
579.27	28223.00
580.03	28352.00
580.78	28583.00
581.54	28788.00
582.30	28892.00
583.06	29036.00
583.82	29223.00
584.57	29342.00
585.33	29639.00
586.09	29662.00
586.84	29780.00
587.60	29873.00
588.36	29981.00
589.12	30200.00
589.87	30408.00
590.63	30607.00
591.39	30714.00
592.14	30868.00
592.90	31047.00
593.66	31168.00
594.41	31460.00
595.17	31613.00
595.93	31658.00
596.68	31792.00
597.44	31864.00
598.20	32141.00
598.95	32349.00
599.71	32563.00
600.46	32671.00
601.22	32767.00
601.98	33002.00
602.73	33272.00
603.49	33440.00
604.24	33686.00
605.00	33845.00
605.76	34024.00
606.51	34241.00
607.27	34420.00
608.02	34510.00
608.78	34689.00
609.53	34891.00
610.29	35058.00
611.04	35290.00
611.80	35397.00
612.55	35603.00
613.31	35782.00
614.06	36050.00
614.82	36197.00
615.57	36352.00
616.33	36553.00
617.08	36581.00
617.84	36670.00
618.59	36764.00
619.35	36790.00
620.10	36773.00
620.85	36805.00
621.61	36790.00
622.36	37000.00
623.12	36970.00
623.87	37103.00
624.62	37244.00
625.38	37437.00
626.13	37476.00
626.89	37628.00
627.64	37809.00
628.39	37856.00
629.15	37943.00
629.90	37943.00
630.65	37944.00
631.41	37994.00
632.16	37930.00
632.91	37895.00
633.67	37857.00
634.42	38065.00
635.17	38292.00
635.92	38622.00
636.68	39099.00
637.43	39469.00
638.18	39784.00
638.94	40310.00
639.69	40677.00
640.44	41020.00
641.19	41398.00
641.95	41634.00
642.70	41881.00
643.45	42142.00
644.20	42268.00
644.95	42387.00
645.71	42431.00
646.46	42537.00
647.21	42730.00
647.96	42695.00
648.71	42839.00
649.47	43179.00
650.22	43292.00
650.97	43511.00
651.72	43650.00
652.47	43769.00
653.22	43839.00
653.97	43920.00
654.73	43961.00
655.48	44070.00
656.23	44244.00
656.98	44435.00
657.73	44592.00
658.48	44668.00
659.23	44675.00
659.98	44805.00
660.73	44932.00
661.48	45091.00
662.23	45195.00
662.99	45147.00
663.74	45054.00
664.49	45302.00
665.24	45762.00
665.99	45931.00
666.74	46190.00
667.49	46225.00
668.24	46314.00
668.99	46402.00
669.74	46613.00
670.49	46889.00
671.24	47042.00
671.99	47204.00
672.74	47328.00
673.48	47399.00
674.23	47417.00
674.98	47422.00
675.73	47496.00
676.48	47565.00
677.23	47726.00
677.98	47768.00
678.73	47813.00
679.48	47874.00
680.23	47991.00
680.98	47963.00
681.73	48075.00
682.47	48039.00
683.22	48047.00
683.97	48179.00
684.72	48228.00
685.47	48277.00
686.22	48314.00
686.97	48455.00
687.71	48514.00
688.46	48588.00
689.21	48580.00
689.96	48522.00
690.71	48587.00
691.45	48560.00
692.20	48663.00
692.95	48740.00
693.70	48833.00
694.44	49063.00
695.19	49211.00
695.94	49321.00
696.69	49266.00
697.43	49413.00
698.18	49496.00
698.93	49554.00
699.68	49533.00
700.42	49449.00
701.17	49401.00
701.92	49368.00
702.66	49555.00
703.41	49522.00
704.16	49484.00
704.90	49557.00
705.65	49641.00
706.40	49699.00
707.14	49777.00
707.89	49863.00
708.64	49780.00
709.38	49790.00
710.13	49907.00
710.88	49867.00
711.62	49872.00
712.37	49868.00
713.11	49877.00
713.86	49800.00
714.61	49841.00
715.35	49729.00
716.10	49769.00
716.84	49759.00
717.59	49747.00
718.33	49699.00
719.08	49686.00
719.83	49776.00
720.57	49642.00
721.32	49578.00
722.06	49446.00
722.81	49289.00
723.55	49201.00
724.30	49127.00
725.04	49001.00
725.79	48928.00
726.53	48963.00
727.28	49025.00
728.02	48987.00
728.76	49176.00
729.51	49133.00
730.25	49280.00
731.00	49144.00
731.74	49124.00
732.49	49043.00
733.23	48739.00
733.97	48619.00
734.72	48617.00
735.46	48398.00
736.21	48394.00
736.95	48379.00
737.69	48446.00
738.44	48700.00
739.18	48853.00
739.92	49029.00
740.67	49179.00
741.41	49313.00
742.15	49505.00
742.90	49641.00
743.64	49793.00
744.38	49691.00
745.13	49599.00
745.87	49522.00
746.61	49580.00
747.36	49525.00
748.10	49323.00
748.84	49138.00
749.58	48948.00
750.33	48875.00
751.07	48870.00
751.81	48675.00
752.55	48606.00
753.30	48420.00
754.04	48383.00
754.78	48327.00
755.52	48276.00
756.27	48144.00
757.01	48070.00
757.75	48071.00
758.49	48175.00
759.23	48262.00
759.97	48225.00
760.72	48108.00
761.46	48119.00
762.20	48036.00
762.94	48164.00
763.68	48051.00
764.42	47796.00
765.16	47837.00
765.91	47933.00
766.65	47834.00
767.39	47787.00
768.13	47752.00
768.87	47647.00
769.61	47613.00
770.35	47540.00
771.09	47278.00
771.83	47158.00
772.57	47065.00
773.31	47180.00
774.05	47256.00
774.80	47325.00
775.54	47270.00
776.28	47220.00
777.02	47069.00
777.76	46851.00
778.50	46651.00
779.24	46443.00
779.98	46245.00
780.72	46051.00
781.46	45804.00
782.20	45802.00
782.93	45768.00
783.67	45803.00
784.41	45569.00
785.15	45453.00
785.89	45298.00
786.63	45167.00
787.37	45201.00
788.11	45153.00
788.85	45060.00
789.59	45121.00
790.33	45289.00
791.07	45299.00
791.81	45161.00
792.54	45003.00
793.28	44743.00
794.02	44449.00
794.76	44139.00
795.50	43879.00
796.24	43512.00
796.97	43128.00
797.71	42840.00
798.45	42918.00
799.19	42739.00
799.93	42589.00
800.67	42467.00
801.40	42447.00
802.14	42505.00
802.88	42716.00
803.62	42727.00
804.35	42669.00
805.09	42563.00
805.83	42459.00
806.57	42393.00
807.30	42317.00
808.04	42324.00
808.78	42137.00
809.52	41637.00
810.25	41488.00
810.99	41335.00
811.73	41209.00
812.46	41200.00
813.20	41016.00
813.94	40973.00
814.68	40889.00
815.41	40828.00
816.15	40953.00
816.88	40973.00
817.62	40688.00
818.36	40428.00
819.09	40150.00
819.83	39968.00
820.57	39897.00
821.30	39865.00
822.04	39743.00
822.77	39479.00
823.51	39373.00
824.25	39398.00
824.98	39352.00
825.72	39438.00
826.45	39444.00
827.19	39182.00
827.92	39009.00
828.66	38939.00
829.40	38712.00
830.13	38776.00
830.87	38640.00
831.60	38477.00
832.34	38279.00
833.07	38205.00
833.81	38232.00
834.54	38212.00
835.28	38216.00
836.01	38251.00
836.75	38091.00
837.48	37935.00
838.22	37771.00
838.95	37761.00
839.68	37649.00
840.42	37510.00
841.15	37463.00
841.89	37367.00
842.62	37096.00
843.36	36926.00
844.09	36706.00
844.82	36669.00
845.56	36555.00
846.29	36277.00
847.02	36077.00
847.76	35756.00
848.49	35742.00
849.23	35872.00
849.96	35963.00
850.69	36067.00
851.43	36003.00
852.16	35714.00
852.89	35574.00
853.63	35508.00
854.36	35422.00
855.09	35560.00
855.82	35523.00
856.56	35367.00
857.29	35111.00
858.02	34925.00
858.76	34815.00
859.49	34703.00
860.22	34619.00
860.95	34573.00
861.69	34449.00
862.42	34239.00
863.15	34037.00
863.88	34131.00
864.61	34125.00
865.35	34207.00
866.08	34062.00
866.81	33696.00
867.54	33414.00
868.27	33285.00
869.01	33217.00
869.74	33210.00
870.47	33233.00
871.20	33209.00
871.93	33113.00
872.66	33016.00
873.40	32904.00
874.13	32657.00
874.86	32638.00
875.59	32519.00
876.32	32563.00
877.05	32401.00
877.78	32236.00
878.51	31907.00
879.24	31682.00
879.97	31532.00
880.71	31238.00
881.44	31019.00
882.17	30936.00
882.90	30848.00
883.63	30843.00
884.36	30876.00
885.09	31048.00
885.82	31128.00
886.55	31194.00
887.28	31277.00
888.01	31259.00
888.74	31191.00
889.47	30863.00
890.20	30491.00
890.93	30162.00
891.66	29991.00
892.39	29863.00
893.12	29780.00
893.85	29682.00
894.57	29518.00
895.30	29367.00
896.03	29213.00
896.76	29036.00
897.49	28902.00
898.22	28837.00
898.95	28693.00
899.68	28675.00
900.41	28608.00
901.14	28655.00
901.86	28632.00
902.59	28642.00
903.32	28585.00
904.05	28511.00
904.78	28451.00
905.51	28169.00
906.24	27886.00
906.96	27586.00
907.69	27384.00
908.42	27143.00
909.15	27076.00
909.88	26895.00
910.60	26669.00
911.33	26622.00
912.06	26720.00
912.79	26631.00
913.52	26544.00
914.24	26371.00
914.97	26303.00
915.70	26079.00
916.42	25872.00
917.15	25739.00
917.88	25560.00
918.61	25394.00
919.33	25148.00
920.06	25047.00
920.79	24866.00
921.51	24783.00
922.24	24677.00
922.97	24436.00
923.69	24351.00
924.42	24164.00
925.15	23939.00
925.87	23649.00
926.60	23415.00
927.33	23190.00
928.05	22938.00
928.78	22748.00
929.51	22558.00
930.23	22283.00
930.96	22032.00
931.68	21746.00
932.41	21576.00
933.14	21282.00
933.86	20965.00
934.59	20577.00
935.31	20118.00
936.04	19654.00
936.76	19207.00
937.49	18713.00
938.21	18215.00
938.94	17802.00
939.66	17359.00
940.39	16953.00
941.11	16653.00
941.84	16348.00
942.56	16197.00
943.29	16039.00
944.01	15975.00
944.74	15883.00
945.46	15923.00
946.19	15960.00
946.91	16073.00
947.64	16062.00
948.36	16045.00
949.09	16146.00
949.81	16191.00
950.53	16291.00
951.26	16315.00
951.98	16309.00
952.71	16293.00
953.43	16394.00
954.15	16411.00
954.88	16502.00
955.60	16539.00
956.33	16532.00
957.05	16543.00
957.77	16548.00
958.50	16515.00
959.22	16588.00
959.94	16478.00
960.67	16460.00
961.39	16338.00
962.11	16312.00
962.84	16348.00
963.56	16299.00
964.28	16229.00
965.00	16098.00
965.73	15899.00
966.45	15794.00
967.17	15688.00
967.89	15612.00
968.62	15394.00
969.34	15282.00
970.06	15157.00
970.78	15098.00
971.51	15072.00
972.23	14986.00
972.95	14887.00
973.67	14782.00
974.40	14603.00
975.12	14585.00
975.84	14404.00
976.56	14233.00
977.28	14113.00
978.00	14066.00
978.73	13929.00
979.45	13884.00
980.17	13842.00
980.89	13776.00
981.61	13692.00
982.33	13638.00
983.05	13626.00
983.77	13625.00
984.50	13541.00
985.22	13504.00
985.94	13453.00
986.66	13405.00
987.38	13382.00
988.10	13349.00
988.82	13338.00
989.54	13244.00
990.26	13108.00
990.98	13031.00
991.70	12923.00
992.42	12777.00
993.14	12623.00
993.86	12488.00
994.58	12394.00
995.30	12253.00
996.02	12145.00
996.74	12088.00
997.46	12000.00
998.18	11956.00
998.90	11848.00
999.62	11764.00
1000.34	11655.00
1001.06	11610.00
1001.78	11525.00
1002.50	11440.00
1003.22	11276.00
1003.94	11121.00
1004.66	11014.00
1005.38	10894.00
1006.09	10761.00
1006.81	10620.00
1007.53	10506.00
1008.25	10338.00
1008.97	10221.00
1009.69	10191.00
1010.41	10095.00
1011.13	9984.00
1011.84	9873.00
1012.56	9785.00
1013.28	9692.00
1014.00	9608.00
1014.72	9557.00
1015.44	9433.00
1016.15	9325.00
1016.87	9149.00
1017.59	9044.00
1018.31	8911.00
1019.03	8846.00
1019.74	8801.00
1020.46	8739.00
1021.18	8617.00
1021.90	8547.00
1022.61	8454.00
1023.33	8379.00
1024.05	8320.00
1024.76	8211.00
1025.48	8113.00
1026.20	7977.00
1026.92	7869.00
1027.63	7741.00
1028.35	7671.00
1029.07	7599.00
1029.78	7519.00
1030.50	7383.00
1031.22	7284.00
1031.93	7194.00
1032.65	7084.00
1033.37	7030.00
1034.08	6952.00
1034.80	6887.00
1035.52	6840.00
1036.23	6798.00
1036.95	6734.00
1037.66	6680.00
1038.38	6591.00
1039.10	6532.00
1039.81	6422.00
1040.53	6328.00
1041.24	6236.00
1041.96	6141.00
1042.67	6057.00
1043.39	6004.00
1044.10	5920.00
1044.82	5867.00
1045.54	5801.00
1046.25	5740.00
1046.97	5665.00
1047.68	5624.00
1048.40	5549.00
1049.11	5451.00
1049.83	5401.00
1050.54	5337.00
1051.26	5262.00
1051.97	5202.00
1052.68	5134.00
1053.40	5097.00
1054.11	5014.00
1054.83	4918.00
1055.54	4839.00
1056.26	4804.00
1056.97	4761.00
1057.69	4707.00
1058.40	4635.00
1059.11	4578.00
1059.83	4527.00
1060.54	4458.00
1061.25	4379.00
1061.97	4303.00
1062.68	4231.00
1063.40	4185.00
1064.11	4121.00
1064.82	4048.00
1065.54	3990.00
1066.25	2558.00
1066.96	2577.00
1067.68	2568.00
1068.39	2565.00
1069.10	2621.00
1069.82	2607.00
1070.53	2627.00
1071.24	2621.00
1071.95	2600.00
1072.67	2629.00
1073.38	3901.00
1074.09	3839.00
1074.80	3785.00
1075.52	3716.00
1076.23	3657.00
1076.94	3592.00
1077.65	2257.00
1078.37	2260.00
1079.08	2262.00
1079.79	2267.00
