300.47	2615.00
301.26	2607.00
302.04	2618.00
302.82	2607.00
303.60	2611.00
304.38	2618.00
305.17	2597.00
305.95	2617.00
306.73	2614.00
307.51	2596.00
308.29	2618.00
309.08	2615.00
309.86	2602.00
310.64	2617.00
311.42	2601.00
312.20	2612.00
312.98	2613.00
313.76	2597.00
314.55	2614.00
315.33	2611.00
316.11	2592.00
316.89	2620.00
317.67	2610.00
318.45	2598.00
319.23	2615.00
320.01	2603.00
320.79	2608.00
321.57	2608.00
322.35	2595.00
323.13	2619.00
323.91	2614.00
324.69	2596.00
325.47	2603.00
326.25	2613.00
327.03	2617.00
327.81	2610.00
328.59	2598.00
329.37	2619.00
330.15	2610.00
330.93	2599.00
331.71	2618.00
332.49	2607.00
333.27	2606.00
334.05	2609.00
334.83	2603.00
335.61	2611.00
336.39	2617.00
337.17	2600.00
337.95	2608.00
338.73	2617.00
339.51	2616.00
340.29	2606.00
341.07	2606.00
341.84	2619.00
342.62	2623.00
343.40	2623.00
344.18	2605.00
344.96	2636.00
345.74	2622.00
346.52	2612.00
347.29	2635.00
348.07	2633.00
348.85	2634.00
349.63	2617.00
350.41	2627.00
351.18	2638.00
351.96	2642.00
352.74	2640.00
353.52	2633.00
354.30	2641.00
355.07	2656.00
355.85	2660.00
356.63	2664.00
357.41	2651.00
358.18	2659.00
358.96	2672.00
359.74	2677.00
360.52	2683.00
361.29	2670.00
362.07	2682.00
362.85	2703.00
363.62	2701.00
364.40	2699.00
365.18	2689.00
365.95	2708.00
366.73	2721.00
367.51	2724.00
368.28	2720.00
369.06	2727.00
369.84	2744.00
370.61	2749.00
371.39	2761.00
372.17	2757.00
372.94	2776.00
373.72	2791.00
374.49	2792.00
375.27	2795.00
376.05	2794.00
376.82	2824.00
377.60	2832.00
378.37	2830.00
379.15	2843.00
379.92	2857.00
380.70	2881.00
381.47	2892.00
382.25	2882.00
383.02	2916.00
383.80	2925.00
384.58	2920.00
385.35	2962.00
386.13	2968.00
386.90	2970.00
387.67	2994.00
388.45	3011.00
389.22	3014.00
390.00	3033.00
390.77	3043.00
391.55	3068.00
392.32	3100.00
393.10	3093.00
393.87	3130.00
394.65	3144.00
395.42	3143.00
396.19	3180.00
396.97	3183.00
397.74	3203.00
398.52	3244.00
399.29	3248.00
400.06	3263.00
400.84	3278.00
401.61	3292.00
402.38	3328.00
403.16	3355.00
403.93	3360.00
404.70	3379.00
405.48	3399.00
406.25	3433.00
407.02	3466.00
407.80	3473.00
408.57	3491.00
409.34	3512.00
410.12	3532.00
410.89	3566.00
411.66	3583.00
412.43	3603.00
413.21	3613.00
413.98	3661.00
414.75	3672.00
415.52	3708.00
416.30	3719.00
417.07	3733.00
417.84	3765.00
418.61	3817.00
419.39	3820.00
420.16	3825.00
420.93	3871.00
421.70	3901.00
422.47	3936.00
423.24	3964.00
424.02	3981.00
424.79	4008.00
425.56	4061.00
426.33	4091.00
427.10	4105.00
427.87	4142.00
428.64	4176.00
429.42	4232.00
430.19	4250.00
430.96	4288.00
431.73	4318.00
432.50	4374.00
433.27	4394.00
434.04	4433.00
434.81	4482.00
435.58	4545.00
436.35	4542.00
437.12	4614.00
437.89	4661.00
438.67	4692.00
439.44	4752.00
440.21	4790.00
440.98	4812.00
441.75	4886.00
442.52	4921.00
443.29	4959.00
444.06	5005.00
444.83	5069.00
445.60	5170.00
446.37	5199.00
447.13	5238.00
447.90	5290.00
448.67	5305.00
449.44	5400.00
450.21	5493.00
450.98	5506.00
451.75	5570.00
452.52	5613.00
453.29	5718.00
454.06	5783.00
454.83	5842.00
455.60	5886.00
456.37	5940.00
457.13	6030.00
457.90	6106.00
458.67	6200.00
459.44	6250.00
460.21	6289.00
460.98	6368.00
461.75	6482.00
462.51	6557.00
463.28	6634.00
464.05	6713.00
464.82	6813.00
465.59	6861.00
466.35	6978.00
467.12	7025.00
467.89	7122.00
468.66	7187.00
469.43	7275.00
470.19	7378.00
470.96	7429.00
471.73	7551.00
472.50	7616.00
473.26	7736.00
474.03	7852.00
474.80	7904.00
475.56	8027.00
476.33	8099.00
477.10	8208.00
477.87	8287.00
478.63	8416.00
479.40	8480.00
480.17	8582.00
480.93	8703.00
481.70	8774.00
482.47	8874.00
483.23	8996.00
484.00	9118.00
484.76	9267.00
485.53	9338.00
486.30	9474.00
487.06	9579.00
487.83	9684.00
488.60	9785.00
489.36	9918.00
490.13	10020.00
490.89	10098.00
491.66	10255.00
492.42	10354.00
493.19	10446.00
493.96	10568.00
494.72	10709.00
495.49	10846.00
496.25	10984.00
497.02	11104.00
497.78	11205.00
498.55	11336.00
499.31	11436.00
500.08	11564.00
500.84	11712.00
501.61	11746.00
502.37	11968.00
503.14	12085.00
503.90	12200.00
504.67	12311.00
505.43	12474.00
506.20	12613.00
506.96	12772.00
507.72	12944.00
508.49	13033.00
509.25	13167.00
510.02	13316.00
510.78	13500.00
511.54	13611.00
512.31	13751.00
513.07	13914.00
513.84	14054.00
514.60	14191.00
515.36	14306.00
516.13	14455.00
516.89	14549.00
517.65	14699.00
518.42	14824.00
519.18	14981.00
519.94	15094.00
520.71	15260.00
521.47	15353.00
522.23	15515.00
523.00	15652.00
523.76	15814.00
524.52	15984.00
525.28	16142.00
526.05	16348.00
526.81	16494.00
527.57	16672.00
528.33	16783.00
529.10	16893.00
529.86	17086.00
530.62	17243.00
531.38	17388.00
532.15	17589.00
532.91	17638.00
533.67	17831.00
534.43	18031.00
535.19	18140.00
535.96	18341.00
536.72	18469.00
537.48	18526.00
538.24	18735.00
539.00	18917.00
539.76	19107.00
540.53	19241.00
541.29	19385.00
542.05	19582.00
542.81	19729.00
543.57	19959.00
544.33	20084.00
545.09	20289.00
545.85	20462.00
546.61	20621.00
547.38	20758.00
548.14	20907.00
548.90	21156.00
549.66	21280.00
550.42	21475.00
551.18	21609.00
551.94	21797.00
552.70	21944.00
553.46	22085.00
554.22	22196.00
554.98	22360.00
555.74	22463.00
556.50	22586.00
557.26	22788.00
558.02	23033.00
558.78	23219.00
559.54	23347.00
560.30	23479.00
561.06	23585.00
561.82	23882.00
562.58	24057.00
563.34	24269.00
564.10	24384.00
564.86	24560.00
565.61	24710.00
566.37	24885.00
567.13	25056.00
567.89	25256.00
568.65	25461.00
569.41	25618.00
570.17	25855.00
570.93	26060.00
571.69	26242.00
572.44	26428.00
573.20	26550.00
573.96	26710.00
574.72	26798.00
575.48	26863.00
576.24	27072.00
576.99	27173.00
577.75	27341.00
578.51	27509.00
579.27	27711.00
580.03	27944.00
580.78	28131.00
581.54	28242.00
582.30	28473.00
583.06	28534.00
583.82	28665.00
584.57	28856.00
585.33	29067.00
586.09	29153.00
586.84	29241.00
587.60	29342.00
588.36	29472.00
589.12	29670.00
589.87	29869.00
590.63	30064.00
591.39	30180.00
592.14	30351.00
592.90	30436.00
593.66	30609.00
594.41	30857.00
595.17	31003.00
595.93	31093.00
596.68	31113.00
597.44	31347.00
598.20	31516.00
598.95	31750.00
599.71	31944.00
600.46	32095.00
601.22	32137.00
601.98	32399.00
602.73	32638.00
603.49	32820.00
604.24	33070.00
605.00	33202.00
605.76	33364.00
606.51	33582.00
607.27	33707.00
608.02	33838.00
608.78	34039.00
609.53	34250.00
610.29	34423.00
611.04	34616.00
611.80	34831.00
612.55	34916.00
613.31	35174.00
614.06	35322.00
614.82	35570.00
615.57	35730.00
616.33	35790.00
617.08	35836.00
617.84	35999.00
618.59	36039.00
619.35	36090.00
620.10	36120.00
620.85	36152.00
621.61	36245.00
622.36	36218.00
623.12	36368.00
623.87	36508.00
624.62	36511.00
625.38	36649.00
626.13	36872.00
626.89	37003.00
627.64	37063.00
628.39	37141.00
629.15	37140.00
629.90	37250.00
630.65	37261.00
631.41	37309.00
632.16	37170.00
632.91	37204.00
633.67	37256.00
634.42	37296.00
635.17	37572.00
635.92	37846.00
636.68	38260.00
637.43	38756.00
638.18	39158.00
638.94	39527.00
639.69	39916.00
640.44	40244.00
641.19	40624.00
641.95	40873.00
642.70	41182.00
643.45	41383.00
644.20	41522.00
644.95	41559.00
645.71	41706.00
646.46	41797.00
647.21	41953.00
647.96	42040.00
648.71	42231.00
649.47	42368.00
650.22	42555.00
650.97	42739.00
651.72	42752.00
652.47	43008.00
653.22	43074.00
653.97	43169.00
654.73	43212.00
655.48	43255.00
656.23	43431.00
656.98	43600.00
657.73	43746.00
658.48	43810.00
659.23	43910.00
659.98	44015.00
660.73	44125.00
661.48	44373.00
662.23	44406.00
662.99	44460.00
663.74	44338.00
664.49	44558.00
665.24	44899.00
665.99	45187.00
666.74	45329.00
667.49	45402.00
668.24	45475.00
668.99	45661.00
669.74	45807.00
670.49	46075.00
671.24	46270.00
671.99	46468.00
672.74	46522.00
673.48	46544.00
674.23	46539.00
674.98	46556.00
675.73	46734.00
676.48	46806.00
677.23	46954.00
677.98	47001.00
678.73	46981.00
679.48	47091.00
680.23	47185.00
680.98	47132.00
681.73	47156.00
682.47	47179.00
683.22	47313.00
683.97	47348.00
684.72	47505.00
685.47	47425.00
686.22	47571.00
686.97	47730.00
687.71	47701.00
688.46	47795.00
689.21	47846.00
689.96	47786.00
690.71	47761.00
691.45	47805.00
692.20	47893.00
692.95	47887.00
693.70	48104.00
694.44	48297.00
695.19	48348.00
695.94	48383.00
696.69	48512.00
697.43	48528.00
698.18	48665.00
698.93	48747.00
699.68	48703.00
700.42	48630.00
701.17	48585.00
701.92	48592.00
702.66	48617.00
703.41	48655.00
704.16	48721.00
704.90	48685.00
705.65	48792.00
706.40	48771.00
707.14	48877.00
707.89	48911.00
708.64	48916.00
709.38	48971.00
710.13	49021.00
710.88	48996.00
711.62	48920.00
712.37	48921.00
713.11	48948.00
713.86	48852.00
714.61	48874.00
715.35	48807.00
716.10	48837.00
716.84	48831.00
717.59	48703.00
718.33	48767.00
719.08	48794.00
719.83	48799.00
720.57	48666.00
721.32	48684.00
722.06	48521.00
722.81	48345.00
723.55	48176.00
724.30	48152.00
725.04	48142.00
725.79	47956.00
726.53	47989.00
727.28	47880.00
728.02	47991.00
728.76	48190.00
729.51	48069.00
730.25	48232.00
731.00	48103.00
731.74	48074.00
732.49	47915.00
733.23	47789.00
733.97	47568.00
734.72	47528.00
735.46	47420.00
736.21	47360.00
736.95	47339.00
737.69	47455.00
738.44	47618.00
739.18	47789.00
739.92	47927.00
740.67	48139.00
741.41	48264.00
742.15	48440.00
742.90	48547.00
743.64	48709.00
744.38	48733.00
745.13	48596.00
745.87	48436.00
746.61	48375.00
747.36	48397.00
748.10	48222.00
748.84	48077.00
749.58	47915.00
750.33	47684.00
751.07	47747.00
751.81	47530.00
752.55	47500.00
753.30	47296.00
754.04	47211.00
754.78	47185.00
755.52	47064.00
756.27	47117.00
757.01	46864.00
757.75	46911.00
758.49	47028.00
759.23	46965.00
759.97	46968.00
760.72	46897.00
761.46	46889.00
762.20	46954.00
762.94	47033.00
763.68	46907.00
764.42	46751.00
765.16	46608.00
765.91	46677.00
766.65	46627.00
767.39	46548.00
768.13	46472.00
768.87	46344.00
769.61	46337.00
770.35	46140.00
771.09	45999.00
771.83	45869.00
772.57	45798.00
773.31	45852.00
774.05	45952.00
774.80	46021.00
775.54	45886.00
776.28	45951.00
777.02	45683.00
777.76	45548.00
778.50	45311.00
779.24	45150.00
779.98	44809.00
780.72	44579.00
781.46	44405.00
782.20	44369.00
782.93	44419.00
783.67	44385.00
784.41	44251.00
785.15	44027.00
785.89	43928.00
786.63	43916.00
787.37	43779.00
788.11	43682.00
788.85	43554.00
789.59	43571.00
790.33	43867.00
791.07	43762.00
791.81	43742.00
792.54	43587.00
793.28	43268.00
794.02	43023.00
794.76	42667.00
795.50	42398.00
796.24	41973.00
796.97	41681.00
797.71	41423.00
798.45	41245.00
799.19	41235.00
799.93	41160.00
800.67	40966.00
801.40	40919.00
802.14	41016.00
802.88	41216.00
803.62	41287.00
804.35	41124.00
805.09	41017.00
805.83	40798.00
806.57	40762.00
807.30	40746.00
808.04	40680.00
808.78	40520.00
809.52	40120.00
810.25	39855.00
810.99	39681.00
811.73	39625.00
812.46	39513.00
813.20	39462.00
813.94	39404.00
814.68	39245.00
815.41	39205.00
816.15	39142.00
816.88	39229.00
817.62	39015.00
818.36	38697.00
819.09	38409.00
819.83	38324.00
820.57	38319.00
821.30	38150.00
822.04	37955.00
822.77	37732.00
823.51	37568.00
824.25	37640.00
824.98	37561.00
825.72	37703.00
826.45	37640.00
827.19	37433.00
827.92	37348.00
828.66	37099.00
829.40	36930.00
830.13	37002.00
830.87	36824.00
831.60	36605.00
832.34	36508.00
833.07	36372.00
833.81	36429.00
834.54	36351.00
835.28	36376.00
836.01	36413.00
836.75	36288.00
837.48	36074.00
838.22	35955.00
838.95	35886.00
839.68	35822.00
840.42	35773.00
841.15	35611.00
841.89	35489.00
842.62	35144.00
843.36	35018.00
844.09	34834.00
844.82	34744.00
845.56	34676.00
846.29	34375.00
847.02	34128.00
847.76	33880.00
848.49	33804.00
849.23	33832.00
849.96	33997.00
850.69	34070.00
851.43	33939.00
852.16	33720.00
852.89	33537.00
853.63	33500.00
854.36	33502.00
855.09	33573.00
855.82	33488.00
856.56	33316.00
857.29	33072.00
858.02	32808.00
858.76	32678.00
859.49	32545.00
860.22	32577.00
860.95	32469.00
861.69	32350.00
862.42	32076.00
863.15	32037.00
863.88	31944.00
864.61	32004.00
865.35	31970.00
866.08	31826.00
866.81	31630.00
867.54	31322.00
868.27	31072.00
869.01	31026.00
869.74	31006.00
870.47	31060.00
871.20	30939.00
871.93	30880.00
872.66	30804.00
873.40	30661.00
874.13	30495.00
874.86	30439.00
875.59	30268.00
876.32	30247.00
877.05	30231.00
877.78	30069.00
878.51	29750.00
879.24	29487.00
879.97	29263.00
880.71	29026.00
881.44	28792.00
882.17	28671.00
882.90	28573.00
883.63	28557.00
884.36	28665.00
885.09	28593.00
885.82	28874.00
886.55	28926.00
887.28	28918.00
888.01	28868.00
888.74	28724.00
889.47	28523.00
890.20	28217.00
890.93	27846.00
891.66	27618.00
892.39	27601.00
893.12	27411.00
893.85	27376.00
894.57	27123.00
895.30	26961.00
896.03	26891.00
896.76	26725.00
897.49	26586.00
898.22	26479.00
898.95	26317.00
899.68	26371.00
900.41	26303.00
901.14	26285.00
901.86	26303.00
902.59	26173.00
903.32	26200.00
904.05	26144.00
904.78	25986.00
905.51	25732.00
906.24	25482.00
906.96	25182.00
907.69	24932.00
908.42	24736.00
909.15	24669.00
909.88	24470.00
910.60	24221.00
911.33	24257.00
912.06	24266.00
912.79	24202.00
913.52	24152.00
914.24	23954.00
914.97	23830.00
915.70	23678.00
916.42	23454.00
917.15	23298.00
917.88	23118.00
918.61	22942.00
919.33	22738.00
920.06	22524.00
920.79	22436.00
921.51	22378.00
922.24	22190.00
922.97	22054.00
923.69	21841.00
924.42	21660.00
925.15	21492.00
925.87	21157.00
926.60	21014.00
927.33	20733.00
928.05	20461.00
928.78	20292.00
929.51	20102.00
930.23	19897.00
930.96	19670.00
931.68	19431.00
932.41	19124.00
933.14	18863.00
933.86	18663.00
934.59	18248.00
935.31	17861.00
936.04	17369.00
936.76	16920.00
937.49	16469.00
938.21	16043.00
938.94	15629.00
939.66	15208.00
940.39	14838.00
941.11	14511.00
941.84	14310.00
942.56	14127.00
943.29	13991.00
944.01	13940.00
944.74	13899.00
945.46	13837.00
946.19	13921.00
946.91	13947.00
947.64	13941.00
948.36	13997.00
949.09	14051.00
949.81	14085.00
950.53	14109.00
951.26	14181.00
951.98	14157.00
952.71	14178.00
953.43	14231.00
954.15	14267.00
954.88	14350.00
955.60	14367.00
956.33	14388.00
957.05	14334.00
957.77	14342.00
958.50	14359.00
959.22	14370.00
959.94	14322.00
960.67	14216.00
961.39	14181.00
962.11	14151.00
962.84	14140.00
963.56	14069.00
964.28	14000.00
965.00	13886.00
965.73	13765.00
966.45	13665.00
967.17	13584.00
967.89	13438.00
968.62	13330.00
969.34	13185.00
970.06	13068.00
970.78	13046.00
971.51	12978.00
972.23	12906.00
972.95	12804.00
973.67	12698.00
974.40	12626.00
975.12	12487.00
975.84	12389.00
976.56	12268.00
977.28	12136.00
978.00	12059.00
978.73	12024.00
979.45	11926.00
980.17	11838.00
980.89	11821.00
981.61	11785.00
982.33	11719.00
983.05	11678.00
983.77	11655.00
984.50	11577.00
985.22	11518.00
985.94	11522.00
986.66	11480.00
987.38	11453.00
988.10	11451.00
988.82	11397.00
989.54	11343.00
990.26	11230.00
990.98	11123.00
991.70	11022.00
992.42	10926.00
993.14	10796.00
993.86	10677.00
994.58	10553.00
995.30	10465.00
996.02	10398.00
996.74	10327.00
997.46	10260.00
998.18	10205.00
998.90	10104.00
999.62	10031.00
1000.34	9915.00
1001.06	9907.00
1001.78	9824.00
1002.50	9747.00
1003.22	9603.00
1003.94	9481.00
1004.66	9389.00
1005.38	9284.00
1006.09	9186.00
1006.81	9056.00
1007.53	8932.00
1008.25	8813.00
1008.97	8719.00
1009.69	8676.00
1010.41	8586.00
1011.13	8519.00
1011.84	8420.00
1012.56	8345.00
1013.28	8283.00
1014.00	8210.00
1014.72	8137.00
1015.44	8048.00
1016.15	7945.00
1016.87	7804.00
1017.59	7688.00
1018.31	7609.00
1019.03	7557.00
1019.74	7494.00
1020.46	7437.00
1021.18	7357.00
1021.90	7289.00
1022.61	7243.00
1023.33	7155.00
1024.05	7116.00
1024.76	6990.00
1025.48	6911.00
1026.20	6804.00
1026.92	6700.00
1027.63	6601.00
1028.35	6540.00
1029.07	6489.00
1029.78	6412.00
1030.50	6329.00
1031.22	6222.00
1031.93	6133.00
1032.65	6074.00
1033.37	6037.00
1034.08	5945.00
1034.80	5913.00
1035.52	5864.00
1036.23	5823.00
1036.95	5765.00
1037.66	5722.00
1038.38	5675.00
1039.10	5602.00
1039.81	5516.00
1040.53	5443.00
1041.24	5360.00
1041.96	5273.00
1042.67	5228.00
1043.39	5178.00
1044.10	5119.00
1044.82	5053.00
1045.54	5024.00
1046.25	4967.00
1046.97	4918.00
1047.68	4868.00
1048.40	4794.00
1049.11	4731.00
1049.83	4678.00
1050.54	4626.00
1051.26	4572.00
1051.97	4539.00
1052.68	4484.00
1053.40	4412.00
1054.11	4380.00
1054.83	4317.00
1055.54	4245.00
1056.26	4192.00
1056.97	4143.00
1057.69	4113.00
1058.40	4090.00
1059.11	4035.00
1059.83	3983.00
1060.54	3930.00
1061.25	3855.00
1061.97	3806.00
1062.68	3745.00
1063.40	3709.00
1064.11	3656.00
1064.82	3596.00
1065.54	3549.00
1066.25	2560.00
1066.96	2569.00
1067.68	2561.00
1068.39	2565.00
1069.10	2618.00
1069.82	2602.00
1070.53	2621.00
1071.24	2622.00
1071.95	2599.00
1072.67	2625.00
1073.38	3489.00
1074.09	3453.00
1074.80	3392.00
1075.52	3327.00
1076.23	3285.00
1076.94	3241.00
1077.65	2201.00
1078.37	2200.00
1079.08	2194.00
1079.79	2197.00
