300.47	2572.00
301.26	2573.00
302.04	2572.00
302.82	2555.00
303.60	2563.00
304.38	2569.00
305.17	2567.00
305.95	2568.00
306.73	2552.00
307.51	2560.00
308.29	2571.00
309.08	2573.00
309.86	2568.00
310.64	2550.00
311.42	2559.00
312.20	2567.00
312.98	2569.00
313.76	2568.00
314.55	2556.00
315.33	2552.00
316.11	2566.00
316.89	2575.00
317.67	2568.00
318.45	2554.00
319.23	2553.00
320.01	2560.00
320.79	2568.00
321.57	2565.00
322.35	2562.00
323.13	2553.00
323.91	2560.00
324.69	2571.00
325.47	2567.00
326.25	2565.00
327.03	2550.00
327.81	2560.00
328.59	2573.00
329.37	2568.00
330.15	2567.00
330.93	2555.00
331.71	2557.00
332.49	2569.00
333.27	2567.00
334.05	2567.00
334.83	2556.00
335.61	2558.00
336.39	2567.00
337.17	2569.00
337.95	2573.00
338.73	2555.00
339.51	2559.00
340.29	2570.00
341.07	2577.00
341.84	2573.00
342.62	2567.00
343.40	2558.00
344.18	2570.00
344.96	2582.00
345.74	2579.00
346.52	2574.00
347.29	2564.00
348.07	2578.00
348.85	2584.00
349.63	2586.00
350.41	2586.00
351.18	2587.00
351.96	2586.00
352.74	2582.00
353.52	2588.00
354.30	2585.00
355.07	2601.00
355.85	2600.00
356.63	2600.00
357.41	2615.00
358.18	2615.00
358.96	2622.00
359.74	2614.00
360.52	2615.00
361.29	2630.00
362.07	2638.00
362.85	2640.00
363.62	2630.00
364.40	2643.00
365.18	2655.00
365.95	2668.00
366.73	2659.00
367.51	2658.00
368.28	2671.00
369.06	2685.00
369.84	2695.00
370.61	2693.00
371.39	2692.00
372.17	2697.00
372.94	2718.00
373.72	2734.00
374.49	2740.00
375.27	2744.00
376.05	2737.00
376.82	2758.00
377.60	2771.00
378.37	2773.00
379.15	2785.00
379.92	2790.00
380.70	2791.00
381.47	2811.00
382.25	2824.00
383.02	2844.00
383.80	2862.00
384.58	2874.00
385.35	2895.00
386.13	2886.00
386.90	2905.00
387.67	2929.00
388.45	2941.00
389.22	2950.00
390.00	2952.00
390.77	2970.00
391.55	3001.00
392.32	3009.00
393.10	3028.00
393.87	3030.00
394.65	3061.00
395.42	3080.00
396.19	3093.00
396.97	3113.00
397.74	3120.00
398.52	3131.00
399.29	3156.00
400.06	3179.00
400.84	3204.00
401.61	3218.00
402.38	3221.00
403.16	3251.00
403.93	3267.00
404.70	3288.00
405.48	3309.00
406.25	3344.00
407.02	3356.00
407.80	3374.00
408.57	3380.00
409.34	3423.00
410.12	3437.00
410.89	3465.00
411.66	3469.00
412.43	3496.00
413.21	3516.00
413.98	3542.00
414.75	3556.00
415.52	3598.00
416.30	3616.00
417.07	3629.00
417.84	3643.00
418.61	3683.00
419.39	3711.00
420.16	3733.00
420.93	3749.00
421.70	3779.00
422.47	3794.00
423.24	3806.00
424.02	3871.00
424.79	3892.00
425.56	3929.00
426.33	3940.00
427.10	3956.00
427.87	3997.00
428.64	4047.00
429.42	4055.00
430.19	4117.00
430.96	4136.00
431.73	4175.00
432.50	4211.00
433.27	4236.00
434.04	4260.00
434.81	4309.00
435.58	4359.00
436.35	4392.00
437.12	4435.00
437.89	4484.00
438.67	4508.00
439.44	4544.00
440.21	4591.00
440.98	4659.00
441.75	4692.00
442.52	4750.00
443.29	4774.00
444.06	4810.00
444.83	4880.00
445.60	4918.00
446.37	4965.00
447.13	5007.00
447.90	5089.00
448.67	5138.00
449.44	5199.00
450.21	5257.00
450.98	5290.00
451.75	5342.00
452.52	5397.00
453.29	5463.00
454.06	5531.00
454.83	5581.00
455.60	5621.00
456.37	5708.00
457.13	5776.00
457.90	5846.00
458.67	5904.00
459.44	5976.00
460.21	6018.00
460.98	6107.00
461.75	6170.00
462.51	6253.00
463.28	6340.00
464.05	6403.00
464.82	6471.00
465.59	6557.00
466.35	6613.00
467.12	6690.00
467.89	6782.00
468.66	6857.00
469.43	6951.00
470.19	6993.00
470.96	7097.00
471.73	7187.00
472.50	7282.00
473.26	7353.00
474.03	7457.00
474.80	7524.00
475.56	7635.00
476.33	7718.00
477.10	7832.00
477.87	7892.00
478.63	7963.00
479.40	8051.00
480.17	8174.00
480.93	8258.00
481.70	8366.00
482.47	8454.00
483.23	8554.00
484.00	8680.00
484.76	8761.00
485.53	8853.00
486.30	8971.00
487.06	9057.00
487.83	9173.00
488.60	9282.00
489.36	9411.00
490.13	9475.00
490.89	9569.00
491.66	9688.00
492.42	9828.00
493.19	9941.00
493.96	10035.00
494.72	10159.00
495.49	10255.00
496.25	10409.00
497.02	10515.00
497.78	10619.00
498.55	10734.00
499.31	10820.00
500.08	10967.00
500.84	11081.00
501.61	11172.00
502.37	11274.00
503.14	11434.00
503.90	11556.00
504.67	11651.00
505.43	11843.00
506.20	11961.00
506.96	12110.00
507.72	12210.00
508.49	12352.00
509.25	12438.00
510.02	12620.00
510.78	12714.00
511.54	12910.00
512.31	13044.00
513.07	13109.00
513.84	13240.00
514.60	13421.00
515.36	13541.00
516.13	13676.00
516.89	13796.00
517.65	13905.00
518.42	13989.00
519.18	14150.00
519.94	14245.00
520.71	14387.00
521.47	14501.00
522.23	14691.00
523.00	14809.00
523.76	14997.00
524.52	15130.00
525.28	15302.00
526.05	15406.00
526.81	15607.00
527.57	15730.00
528.33	15906.00
529.10	16019.00
529.86	16137.00
530.62	16298.00
531.38	16420.00
532.15	16578.00
532.91	16693.00
533.67	16882.00
534.43	16975.00
535.19	17148.00
535.96	17319.00
536.72	17431.00
537.48	17562.00
538.24	17712.00
539.00	17852.00
539.76	17994.00
540.53	18259.00
541.29	18298.00
542.05	18478.00
542.81	18678.00
543.57	18799.00
544.33	18992.00
545.09	19176.00
545.85	19302.00
546.61	19475.00
547.38	19581.00
548.14	19751.00
548.90	19911.00
549.66	20100.00
550.42	20260.00
551.18	20405.00
551.94	20536.00
552.70	20712.00
553.46	20821.00
554.22	20935.00
554.98	21069.00
555.74	21155.00
556.50	21363.00
557.26	21536.00
558.02	21739.00
558.78	21922.00
559.54	21999.00
560.30	22214.00
561.06	22343.00
561.82	22544.00
562.58	22698.00
563.34	22919.00
564.10	23070.00
564.86	23226.00
565.61	23350.00
566.37	23551.00
567.13	23770.00
567.89	23840.00
568.65	24071.00
569.41	24176.00
570.17	24440.00
570.93	24551.00
571.69	24760.00
572.44	24940.00
573.20	25034.00
573.96	25126.00
574.72	25313.00
575.48	25453.00
576.24	25553.00
576.99	25701.00
577.75	25867.00
578.51	26061.00
579.27	26175.00
580.03	26378.00
580.78	26578.00
581.54	26730.00
582.30	26887.00
583.06	26967.00
583.82	27141.00
584.57	27369.00
585.33	27454.00
586.09	27591.00
586.84	27706.00
587.60	27693.00
588.36	27877.00
589.12	28157.00
589.87	28323.00
590.63	28399.00
591.39	28557.00
592.14	28693.00
592.90	28828.00
593.66	29014.00
594.41	29256.00
595.17	29391.00
595.93	29421.00
596.68	29578.00
597.44	29731.00
598.20	29830.00
598.95	30118.00
599.71	30301.00
600.46	30418.00
601.22	30529.00
601.98	30636.00
602.73	30917.00
603.49	31152.00
604.24	31323.00
605.00	31475.00
605.76	31676.00
606.51	31790.00
607.27	31927.00
608.02	32081.00
608.78	32317.00
609.53	32521.00
610.29	32635.00
611.04	32773.00
611.80	32916.00
612.55	33177.00
613.31	33309.00
614.06	33557.00
614.82	33667.00
615.57	33840.00
616.33	33901.00
617.08	33982.00
617.84	34109.00
618.59	34110.00
619.35	34164.00
620.10	34119.00
620.85	34195.00
621.61	34210.00
622.36	34198.00
623.12	34235.00
623.87	34363.00
624.62	34552.00
625.38	34614.00
626.13	34726.00
626.89	34877.00
627.64	35006.00
628.39	35019.00
629.15	35080.00
629.90	35116.00
630.65	35176.00
631.41	35079.00
632.16	35053.00
632.91	35005.00
633.67	35052.00
634.42	35138.00
635.17	35324.00
635.92	35602.00
636.68	35994.00
637.43	36431.00
638.18	36930.00
638.94	37246.00
639.69	37621.00
640.44	37909.00
641.19	38306.00
641.95	38570.00
642.70	38796.00
643.45	38964.00
644.20	39183.00
644.95	39240.00
645.71	39318.00
646.46	39388.00
647.21	39516.00
647.96	39572.00
648.71	39693.00
649.47	39881.00
650.22	40053.00
650.97	40137.00
651.72	40333.00
652.47	40400.00
653.22	40446.00
653.97	40565.00
654.73	40541.00
655.48	40701.00
656.23	40824.00
656.98	41014.00
657.73	41080.00
658.48	41153.00
659.23	41291.00
659.98	41346.00
660.73	41415.00
661.48	41574.00
662.23	41663.00
662.99	41634.00
663.74	41512.00
664.49	41692.00
665.24	41990.00
665.99	42253.00
666.74	42428.00
667.49	42455.00
668.24	42507.00
668.99	42566.00
669.74	42674.00
670.49	42931.00
671.24	43101.00
671.99	43330.00
672.74	43378.00
673.48	43413.00
674.23	43411.00
674.98	43467.00
675.73	43417.00
676.48	43586.00
677.23	43706.00
677.98	43669.00
678.73	43705.00
679.48	43779.00
680.23	43898.00
680.98	43821.00
681.73	43859.00
682.47	43925.00
683.22	43858.00
683.97	43944.00
684.72	43968.00
685.47	43958.00
686.22	44086.00
686.97	44150.00
687.71	44226.00
688.46	44266.00
689.21	44151.00
689.96	44211.00
690.71	44150.00
691.45	44136.00
692.20	44226.00
692.95	44219.00
693.70	44316.00
694.44	44480.00
695.19	44632.00
695.94	44583.00
696.69	44671.00
697.43	44719.00
698.18	44745.00
698.93	44873.00
699.68	44800.00
700.42	44806.00
701.17	44771.00
701.92	44766.00
702.66	44787.00
703.41	44759.00
704.16	44718.00
704.90	44723.00
705.65	44765.00
706.40	44756.00
707.14	44726.00
707.89	44654.00
708.64	44677.00
709.38	44789.00
710.13	44676.00
710.88	44760.00
711.62	44774.00
712.37	44652.00
713.11	44621.00
713.86	44604.00
714.61	44669.00
715.35	44532.00
716.10	44494.00
716.84	44413.00
717.59	44419.00
718.33	44404.00
719.08	44359.00
719.83	44413.00
720.57	44273.00
721.32	44207.00
722.06	43993.00
722.81	43890.00
723.55	43765.00
724.30	43671.00
725.04	43585.00
725.79	43357.00
726.53	43334.00
727.28	43277.00
728.02	43371.00
728.76	43481.00
729.51	43490.00
730.25	43530.00
731.00	43558.00
731.74	43418.00
732.49	43312.00
733.23	43163.00
733.97	42985.00
734.72	42959.00
735.46	42814.00
736.21	42639.00
736.95	42634.00
737.69	42749.00
738.44	42916.00
739.18	43085.00
739.92	43244.00
740.67	43315.00
741.41	43464.00
742.15	43543.00
742.90	43803.00
743.64	43914.00
744.38	43777.00
745.13	43635.00
745.87	43569.00
746.61	43456.00
747.36	43427.00
748.10	43336.00
748.84	43085.00
749.58	42847.00
750.33	42705.00
751.07	42768.00
751.81	42548.00
752.55	42444.00
753.30	42335.00
754.04	42149.00
754.78	42111.00
755.52	42017.00
756.27	41882.00
757.01	41760.00
757.75	41671.00
758.49	41761.00
759.23	41690.00
759.97	41689.00
760.72	41582.00
761.46	41506.00
762.20	41541.00
762.94	41546.00
763.68	41551.00
764.42	41298.00
765.16	41105.00
765.91	41218.00
766.65	41090.00
767.39	40977.00
768.13	40963.00
768.87	40951.00
769.61	40759.00
770.35	40696.00
771.09	40514.00
771.83	40317.00
772.57	40124.00
773.31	40215.00
774.05	40343.00
774.80	40401.00
775.54	40332.00
776.28	40131.00
777.02	40053.00
777.76	39838.00
778.50	39700.00
779.24	39439.00
779.98	39245.00
780.72	39049.00
781.46	38758.00
782.20	38661.00
782.93	38672.00
783.67	38672.00
784.41	38563.00
785.15	38424.00
785.89	38295.00
786.63	38150.00
787.37	38110.00
788.11	37941.00
788.85	37885.00
789.59	37870.00
790.33	37966.00
791.07	37961.00
791.81	37854.00
792.54	37561.00
793.28	37441.00
794.02	37114.00
794.76	36751.00
795.50	36498.00
796.24	36138.00
796.97	35786.00
797.71	35509.00
798.45	35298.00
799.19	35214.00
799.93	35167.00
800.67	35126.00
801.40	34999.00
802.14	35079.00
802.88	35275.00
803.62	35212.00
804.35	35139.00
805.09	34968.00
805.83	34845.00
806.57	34703.00
807.30	34613.00
808.04	34651.00
808.78	34387.00
809.52	33946.00
810.25	33782.00
810.99	33605.00
811.73	33534.00
812.46	33352.00
813.20	33289.00
813.94	33224.00
814.68	33066.00
815.41	32994.00
816.15	33067.00
816.88	32982.00
817.62	32692.00
818.36	32563.00
819.09	32243.00
819.83	32035.00
820.57	32052.00
821.30	31886.00
822.04	31616.00
822.77	31413.00
823.51	31441.00
824.25	31504.00
824.98	31397.00
825.72	31503.00
826.45	31395.00
827.19	31321.00
827.92	31107.00
828.66	30862.00
829.40	30753.00
830.13	30664.00
830.87	30501.00
831.60	30438.00
832.34	30306.00
833.07	30179.00
833.81	30175.00
834.54	30116.00
835.28	30085.00
836.01	30088.00
836.75	29985.00
837.48	29744.00
838.22	29579.00
838.95	29434.00
839.68	29397.00
840.42	29349.00
841.15	29152.00
841.89	29065.00
842.62	28774.00
843.36	28623.00
844.09	28388.00
844.82	28173.00
845.56	28136.00
846.29	27911.00
847.02	27629.00
847.76	27388.00
848.49	27427.00
849.23	27436.00
849.96	27464.00
850.69	27567.00
851.43	27526.00
852.16	27317.00
852.89	27141.00
853.63	27006.00
854.36	26974.00
855.09	27079.00
855.82	26897.00
856.56	26798.00
857.29	26530.00
858.02	26284.00
858.76	26244.00
859.49	26062.00
860.22	26015.00
860.95	25941.00
861.69	25783.00
862.42	25626.00
863.15	25558.00
863.88	25504.00
864.61	25545.00
865.35	25546.00
866.08	25407.00
866.81	25182.00
867.54	24881.00
868.27	24721.00
869.01	24668.00
869.74	24665.00
870.47	24616.00
871.20	24453.00
871.93	24374.00
872.66	24278.00
873.40	24168.00
874.13	23935.00
874.86	23810.00
875.59	23777.00
876.32	23713.00
877.05	23536.00
877.78	23346.00
878.51	23130.00
879.24	22874.00
879.97	22679.00
880.71	22509.00
881.44	22338.00
882.17	22249.00
882.90	22110.00
883.63	22139.00
884.36	22155.00
885.09	22274.00
885.82	22281.00
886.55	22369.00
887.28	22278.00
888.01	22266.00
888.74	22105.00
889.47	21919.00
890.20	21533.00
890.93	21278.00
891.66	21117.00
892.39	21002.00
893.12	20929.00
893.85	20861.00
894.57	20736.00
895.30	20517.00
896.03	20440.00
896.76	20241.00
897.49	20188.00
898.22	20040.00
898.95	19923.00
899.68	19960.00
900.41	19928.00
901.14	19881.00
901.86	19897.00
902.59	19827.00
903.32	19817.00
904.05	19785.00
904.78	19624.00
905.51	19334.00
906.24	19084.00
906.96	18786.00
907.69	18657.00
908.42	18484.00
909.15	18443.00
909.88	18202.00
910.60	18095.00
911.33	18057.00
912.06	18062.00
912.79	18081.00
913.52	18004.00
914.24	17905.00
914.97	17715.00
915.70	17591.00
916.42	17402.00
917.15	17259.00
917.88	17087.00
918.61	16876.00
919.33	16736.00
920.06	16631.00
920.79	16558.00
921.51	16491.00
922.24	16321.00
922.97	16279.00
923.69	16119.00
924.42	15968.00
925.15	15781.00
925.87	15615.00
926.60	15356.00
927.33	15140.00
928.05	14940.00
928.78	14715.00
929.51	14570.00
930.23	14392.00
930.96	14195.00
931.68	14009.00
932.41	13784.00
933.14	13582.00
933.86	13342.00
934.59	13077.00
935.31	12754.00
936.04	12382.00
936.76	12131.00
937.49	11758.00
938.21	11400.00
938.94	11121.00
939.66	10841.00
940.39	10569.00
941.11	10331.00
941.84	10161.00
942.56	10039.00
943.29	9967.00
944.01	9892.00
944.74	9896.00
945.46	9879.00
946.19	9871.00
946.91	9930.00
947.64	9902.00
948.36	9942.00
949.09	9965.00
949.81	10007.00
950.53	10001.00
951.26	10016.00
951.98	10045.00
952.71	10026.00
953.43	10041.00
954.15	10090.00
954.88	10157.00
955.60	10123.00
956.33	10117.00
957.05	10111.00
957.77	10136.00
958.50	10102.00
959.22	10124.00
959.94	10100.00
960.67	10020.00
961.39	9970.00
962.11	9987.00
962.84	9956.00
963.56	9935.00
964.28	9852.00
965.00	9762.00
965.73	9715.00
966.45	9591.00
967.17	9547.00
967.89	9474.00
968.62	9354.00
969.34	9289.00
970.06	9207.00
970.78	9163.00
971.51	9129.00
972.23	9081.00
972.95	8980.00
973.67	8931.00
974.40	8866.00
975.12	8760.00
975.84	8702.00
976.56	8620.00
977.28	8524.00
978.00	8482.00
978.73	8424.00
979.45	8370.00
980.17	8368.00
980.89	8311.00
981.61	8277.00
982.33	8239.00
983.05	8225.00
983.77	8166.00
984.50	8112.00
985.22	8086.00
985.94	8089.00
986.66	8041.00
987.38	8000.00
988.10	7970.00
988.82	7959.00
989.54	7911.00
990.26	7846.00
990.98	7801.00
991.70	7719.00
992.42	7647.00
993.14	7601.00
993.86	7517.00
994.58	7409.00
995.30	7343.00
996.02	7290.00
996.74	7275.00
997.46	7223.00
998.18	7183.00
998.90	7127.00
999.62	7070.00
1000.34	7059.00
1001.06	7001.00
1001.78	6943.00
1002.50	6872.00
1003.22	6769.00
1003.94	6707.00
1004.66	6636.00
1005.38	6577.00
1006.09	6481.00
1006.81	6444.00
1007.53	6336.00
1008.25	6259.00
1008.97	6207.00
1009.69	6161.00
1010.41	6120.00
1011.13	6057.00
1011.84	6006.00
1012.56	5935.00
1013.28	5901.00
1014.00	5845.00
1014.72	5803.00
1015.44	5753.00
1016.15	5669.00
1016.87	5588.00
1017.59	5536.00
1018.31	5473.00
1019.03	5451.00
1019.74	5413.00
1020.46	5374.00
1021.18	5319.00
1021.90	5270.00
1022.61	5237.00
1023.33	5179.00
1024.05	5140.00
1024.76	5078.00
1025.48	5007.00
1026.20	4942.00
1026.92	4887.00
1027.63	4836.00
1028.35	4795.00
1029.07	4746.00
1029.78	4697.00
1030.50	4658.00
1031.22	4599.00
1031.93	4553.00
1032.65	4495.00
1033.37	4457.00
1034.08	4429.00
1034.80	4389.00
1035.52	4354.00
1036.23	4322.00
1036.95	4310.00
1037.66	4278.00
1038.38	4232.00
1039.10	4192.00
1039.81	4143.00
1040.53	4092.00
1041.24	4041.00
1041.96	4001.00
1042.67	3963.00
1043.39	3941.00
1044.10	3904.00
1044.82	3865.00
1045.54	3833.00
1046.25	3801.00
1046.97	3772.00
1047.68	3729.00
1048.40	3681.00
1049.11	3655.00
1049.83	3629.00
1050.54	3581.00
1051.26	3551.00
1051.97	3529.00
1052.68	3492.00
1053.40	3468.00
1054.11	3424.00
1054.83	3382.00
1055.54	3346.00
1056.26	3316.00
1056.97	3291.00
1057.69	3264.00
1058.40	3240.00
1059.11	3213.00
1059.83	3178.00
1060.54	3157.00
1061.25	3110.00
1061.97	3088.00
1062.68	3048.00
1063.40	3023.00
1064.11	2989.00
1064.82	2956.00
1065.54	2924.00
1066.25	2531.00
1066.96	2528.00
1067.68	2525.00
1068.39	2512.00
1069.10	2566.00
1069.82	2576.00
1070.53	2570.00
1071.24	2571.00
1071.95	2558.00
1072.67	2563.00
1073.38	2889.00
1074.09	2855.00
1074.80	2816.00
1075.52	2794.00
1076.23	2760.00
1076.94	2735.00
1077.65	2110.00
1078.37	2107.00
1079.08	2106.00
1079.79	2111.00
