300.47	2593.00
301.26	2601.00
302.04	2599.00
302.82	2590.00
303.60	2583.00
304.38	2590.00
305.17	2599.00
305.95	2597.00
306.73	2596.00
307.51	2583.00
308.29	2588.00
309.08	2594.00
309.86	2601.00
310.64	2595.00
311.42	2586.00
312.20	2597.00
312.98	2603.00
313.76	2604.00
314.55	2596.00
315.33	2592.00
316.11	2606.00
316.89	2607.00
317.67	2593.00
318.45	2592.00
319.23	2604.00
320.01	2612.00
320.79	2614.00
321.57	2601.00
322.35	2603.00
323.13	2609.00
323.91	2618.00
324.69	2610.00
325.47	2605.00
326.25	2606.00
327.03	2606.00
327.81	2612.00
328.59	2615.00
329.37	2608.00
330.15	2601.00
330.93	2604.00
331.71	2612.00
332.49	2614.00
333.27	2618.00
334.05	2605.00
334.83	2601.00
335.61	2610.00
336.39	2614.00
337.17	2616.00
337.95	2608.00
338.73	2601.00
339.51	2617.00
340.29	2621.00
341.07	2620.00
341.84	2613.00
342.62	2609.00
343.40	2623.00
344.18	2638.00
344.96	2631.00
345.74	2625.00
346.52	2618.00
347.29	2625.00
348.07	2635.00
348.85	2644.00
349.63	2639.00
350.41	2627.00
351.18	2638.00
351.96	2646.00
352.74	2649.00
353.52	2638.00
354.30	2645.00
355.07	2658.00
355.85	2661.00
356.63	2661.00
357.41	2657.00
358.18	2664.00
358.96	2679.00
359.74	2680.00
360.52	2668.00
361.29	2685.00
362.07	2692.00
362.85	2699.00
363.62	2705.00
364.40	2701.00
365.18	2703.00
365.95	2716.00
366.73	2731.00
367.51	2726.00
368.28	2720.00
369.06	2735.00
369.84	2744.00
370.61	2767.00
371.39	2766.00
372.17	2759.00
372.94	2767.00
373.72	2783.00
374.49	2803.00
375.27	2802.00
376.05	2804.00
376.82	2807.00
377.60	2821.00
378.37	2845.00
379.15	2851.00
379.92	2858.00
380.70	2857.00
381.47	2877.00
382.25	2899.00
383.02	2902.00
383.80	2915.00
384.58	2917.00
385.35	2942.00
386.13	2971.00
386.90	2980.00
387.67	2991.00
388.45	2997.00
389.22	3022.00
390.00	3047.00
390.77	3049.00
391.55	3062.00
392.32	3066.00
393.10	3097.00
393.87	3127.00
394.65	3137.00
395.42	3136.00
396.19	3145.00
396.97	3194.00
397.74	3200.00
398.52	3217.00
399.29	3219.00
400.06	3247.00
400.84	3283.00
401.61	3292.00
402.38	3313.00
403.16	3310.00
403.93	3357.00
404.70	3389.00
405.48	3402.00
406.25	3423.00
407.02	3427.00
407.80	3452.00
408.57	3483.00
409.34	3516.00
410.12	3520.00
410.89	3546.00
411.66	3561.00
412.43	3574.00
413.21	3624.00
413.98	3626.00
414.75	3661.00
415.52	3663.00
416.30	3707.00
417.07	3733.00
417.84	3756.00
418.61	3784.00
419.39	3786.00
420.16	3821.00
420.93	3848.00
421.70	3893.00
422.47	3924.00
423.24	3932.00
424.02	3962.00
424.79	3991.00
425.56	4032.00
426.33	4055.00
427.10	4077.00
427.87	4099.00
428.64	4156.00
429.42	4178.00
430.19	4215.00
430.96	4251.00
431.73	4284.00
432.50	4327.00
433.27	4365.00
434.04	4390.00
434.81	4409.00
435.58	4495.00
436.35	4535.00
437.12	4567.00
437.89	4618.00
438.67	4641.00
439.44	4695.00
440.21	4746.00
440.98	4797.00
441.75	4844.00
442.52	4861.00
443.29	4936.00
444.06	4975.00
444.83	5057.00
445.60	5104.00
446.37	5127.00
447.13	5176.00
447.90	5254.00
448.67	5306.00
449.44	5342.00
450.21	5410.00
450.98	5439.00
451.75	5527.00
452.52	5585.00
453.29	5678.00
454.06	5729.00
454.83	5789.00
455.60	5845.00
456.37	5892.00
457.13	5992.00
457.90	6064.00
458.67	6125.00
459.44	6194.00
460.21	6267.00
460.98	6360.00
461.75	6412.00
462.51	6482.00
463.28	6560.00
464.05	6662.00
464.82	6715.00
465.59	6787.00
466.35	6858.00
467.12	6961.00
467.89	7072.00
468.66	7119.00
469.43	7235.00
470.19	7264.00
470.96	7385.00
471.73	7482.00
472.50	7576.00
473.26	7659.00
474.03	7741.00
474.80	7859.00
475.56	7936.00
476.33	8036.00
477.10	8147.00
477.87	8199.00
478.63	8309.00
479.40	8431.00
480.17	8517.00
480.93	8589.00
481.70	8733.00
482.47	8837.00
483.23	8922.00
484.00	9040.00
484.76	9155.00
485.53	9233.00
486.30	9371.00
487.06	9490.00
487.83	9629.00
488.60	9720.00
489.36	9822.00
490.13	9933.00
490.89	10037.00
491.66	10127.00
492.42	10264.00
493.19	10367.00
493.96	10508.00
494.72	10606.00
495.49	10764.00
496.25	10886.00
497.02	10955.00
497.78	11069.00
498.55	11202.00
499.31	11351.00
500.08	11460.00
500.84	11618.00
501.61	11727.00
502.37	11816.00
503.14	11977.00
503.90	12096.00
504.67	12273.00
505.43	12392.00
506.20	12508.00
506.96	12678.00
507.72	12776.00
508.49	12893.00
509.25	13034.00
510.02	13211.00
510.78	13345.00
511.54	13540.00
512.31	13646.00
513.07	13804.00
513.84	13895.00
514.60	14070.00
515.36	14241.00
516.13	14384.00
516.89	14464.00
517.65	14541.00
518.42	14689.00
519.18	14844.00
519.94	14975.00
520.71	15081.00
521.47	15196.00
522.23	15372.00
523.00	15603.00
523.76	15709.00
524.52	15875.00
525.28	16030.00
526.05	16223.00
526.81	16399.00
527.57	16589.00
528.33	16645.00
529.10	16833.00
529.86	16988.00
530.62	17142.00
531.38	17279.00
532.15	17365.00
532.91	17623.00
533.67	17778.00
534.43	17887.00
535.19	18050.00
535.96	18270.00
536.72	18343.00
537.48	18433.00
538.24	18630.00
539.00	18771.00
539.76	18896.00
540.53	19142.00
541.29	19310.00
542.05	19470.00
542.81	19619.00
543.57	19869.00
544.33	19954.00
545.09	20142.00
545.85	20331.00
546.61	20486.00
547.38	20647.00
548.14	20820.00
548.90	20980.00
549.66	21180.00
550.42	21370.00
551.18	21515.00
551.94	21692.00
552.70	21809.00
553.46	21962.00
554.22	22053.00
554.98	22289.00
555.74	22325.00
556.50	22560.00
557.26	22740.00
558.02	22880.00
558.78	23066.00
559.54	23263.00
560.30	23395.00
561.06	23613.00
561.82	23803.00
562.58	24078.00
563.34	24278.00
564.10	24311.00
564.86	24428.00
565.61	24657.00
566.37	24875.00
567.13	25040.00
567.89	25268.00
568.65	25401.00
569.41	25525.00
570.17	25717.00
570.93	25951.00
571.69	26149.00
572.44	26324.00
573.20	26521.00
573.96	26583.00
574.72	26748.00
575.48	26836.00
576.24	27042.00
576.99	27128.00
577.75	27339.00
578.51	27530.00
579.27	27698.00
580.03	27929.00
580.78	28117.00
581.54	28349.00
582.30	28471.00
583.06	28585.00
583.82	28707.00
584.57	28906.00
585.33	29084.00
586.09	29207.00
586.84	29339.00
587.60	29335.00
588.36	29516.00
589.12	29730.00
589.87	29950.00
590.63	30098.00
591.39	30246.00
592.14	30352.00
592.90	30538.00
593.66	30755.00
594.41	31016.00
595.17	31109.00
595.93	31220.00
596.68	31316.00
597.44	31484.00
598.20	31710.00
598.95	31871.00
599.71	32079.00
600.46	32150.00
601.22	32329.00
601.98	32551.00
602.73	32792.00
603.49	33082.00
604.24	33275.00
605.00	33361.00
605.76	33557.00
606.51	33687.00
607.27	33879.00
608.02	33989.00
608.78	34217.00
609.53	34442.00
610.29	34597.00
611.04	34854.00
611.80	34866.00
612.55	35088.00
613.31	35339.00
614.06	35515.00
614.82	35675.00
615.57	35881.00
616.33	35983.00
617.08	36054.00
617.84	36180.00
618.59	36220.00
619.35	36204.00
620.10	36244.00
620.85	36344.00
621.61	36327.00
622.36	36352.00
623.12	36376.00
623.87	36481.00
624.62	36657.00
625.38	36801.00
626.13	36889.00
626.89	37045.00
627.64	37168.00
628.39	37288.00
629.15	37325.00
629.90	37337.00
630.65	37390.00
631.41	37357.00
632.16	37308.00
632.91	37235.00
633.67	37234.00
634.42	37416.00
635.17	37536.00
635.92	37983.00
636.68	38377.00
637.43	38775.00
638.18	39232.00
638.94	39553.00
639.69	39917.00
640.44	40362.00
641.19	40679.00
641.95	41073.00
642.70	41313.00
643.45	41478.00
644.20	41659.00
644.95	41671.00
645.71	41877.00
646.46	41952.00
647.21	42045.00
647.96	42166.00
648.71	42273.00
649.47	42374.00
650.22	42635.00
650.97	42766.00
651.72	42966.00
652.47	42997.00
653.22	43088.00
653.97	43190.00
654.73	43188.00
655.48	43327.00
656.23	43544.00
656.98	43713.00
657.73	43887.00
658.48	43971.00
659.23	43999.00
659.98	44053.00
660.73	44182.00
661.48	44336.00
662.23	44437.00
662.99	44337.00
663.74	44355.00
664.49	44454.00
665.24	44803.00
665.99	45047.00
666.74	45202.00
667.49	45260.00
668.24	45359.00
668.99	45441.00
669.74	45622.00
670.49	45843.00
671.24	46006.00
671.99	46259.00
672.74	46335.00
673.48	46258.00
674.23	46356.00
674.98	46381.00
675.73	46396.00
676.48	46557.00
677.23	46632.00
677.98	46690.00
678.73	46743.00
679.48	46832.00
680.23	46911.00
680.98	46867.00
681.73	46850.00
682.47	46975.00
683.22	47010.00
683.97	46926.00
684.72	47031.00
685.47	47021.00
686.22	47158.00
686.97	47281.00
687.71	47365.00
688.46	47456.00
689.21	47291.00
689.96	47383.00
690.71	47381.00
691.45	47314.00
692.20	47314.00
692.95	47450.00
693.70	47612.00
694.44	47714.00
695.19	47917.00
695.94	47893.00
696.69	47872.00
697.43	47956.00
698.18	48055.00
698.93	48136.00
699.68	48183.00
700.42	48034.00
701.17	47999.00
701.92	48091.00
702.66	48078.00
703.41	48131.00
704.16	48099.00
704.90	48036.00
705.65	48108.00
706.40	48136.00
707.14	48154.00
707.89	48162.00
708.64	48137.00
709.38	48163.00
710.13	48272.00
710.88	48189.00
711.62	48205.00
712.37	48181.00
713.11	48134.00
713.86	48145.00
714.61	48067.00
715.35	48080.00
716.10	47966.00
716.84	47933.00
717.59	47915.00
718.33	47901.00
719.08	47931.00
719.83	47968.00
720.57	47879.00
721.32	47752.00
722.06	47573.00
722.81	47415.00
723.55	47322.00
724.30	47219.00
725.04	47206.00
725.79	46956.00
726.53	46992.00
727.28	46981.00
728.02	46983.00
728.76	47122.00
729.51	47171.00
730.25	47177.00
731.00	47175.00
731.74	47132.00
732.49	47141.00
733.23	46865.00
733.97	46724.00
734.72	46624.00
735.46	46598.00
736.21	46434.00
736.95	46434.00
737.69	46497.00
738.44	46727.00
739.18	46860.00
739.92	46980.00
740.67	47142.00
741.41	47279.00
742.15	47398.00
742.90	47621.00
743.64	47780.00
744.38	47645.00
745.13	47590.00
745.87	47472.00
746.61	47371.00
747.36	47266.00
748.10	47124.00
748.84	46950.00
749.58	46758.00
750.33	46761.00
751.07	46601.00
751.81	46458.00
752.55	46358.00
753.30	46231.00
754.04	46117.00
754.78	46085.00
755.52	45953.00
756.27	45756.00
757.01	45733.00
757.75	45712.00
758.49	45846.00
759.23	45790.00
759.97	45673.00
760.72	45635.00
761.46	45627.00
762.20	45596.00
762.94	45601.00
763.68	45525.00
764.42	45316.00
765.16	45281.00
765.91	45222.00
766.65	45196.00
767.39	45090.00
768.13	45100.00
768.87	45025.00
769.61	44896.00
770.35	44839.00
771.09	44612.00
771.83	44409.00
772.57	44394.00
773.31	44398.00
774.05	44371.00
774.80	44581.00
775.54	44428.00
776.28	44369.00
777.02	44200.00
777.76	44028.00
778.50	43895.00
779.24	43689.00
779.98	43460.00
780.72	43261.00
781.46	43069.00
782.20	42995.00
782.93	43030.00
783.67	42965.00
784.41	42732.00
785.15	42668.00
785.89	42555.00
786.63	42444.00
787.37	42399.00
788.11	42335.00
788.85	42256.00
789.59	42182.00
790.33	42303.00
791.07	42268.00
791.81	42182.00
792.54	42032.00
793.28	41771.00
794.02	41425.00
794.76	41058.00
795.50	40740.00
796.24	40472.00
796.97	40107.00
797.71	39874.00
798.45	39711.00
799.19	39537.00
799.93	39523.00
800.67	39406.00
801.40	39334.00
802.14	39436.00
802.88	39541.00
803.62	39595.00
804.35	39537.00
805.09	39328.00
805.83	39173.00
806.57	39131.00
807.30	39074.00
808.04	38958.00
808.78	38740.00
809.52	38325.00
810.25	38205.00
810.99	38044.00
811.73	37981.00
812.46	37807.00
813.20	37667.00
813.94	37605.00
814.68	37518.00
815.41	37460.00
816.15	37426.00
816.88	37433.00
817.62	37201.00
818.36	36889.00
819.09	36592.00
819.83	36499.00
820.57	36522.00
821.30	36394.00
822.04	36189.00
822.77	35876.00
823.51	35809.00
824.25	35950.00
824.98	35928.00
825.72	35956.00
826.45	35922.00
827.19	35780.00
827.92	35607.00
828.66	35361.00
829.40	35153.00
830.13	35078.00
830.87	34933.00
831.60	34861.00
832.34	34671.00
833.07	34627.00
833.81	34611.00
834.54	34615.00
835.28	34599.00
836.01	34566.00
836.75	34389.00
837.48	34215.00
838.22	33949.00
838.95	33946.00
839.68	33796.00
840.42	33712.00
841.15	33601.00
841.89	33523.00
842.62	33257.00
843.36	33019.00
844.09	32810.00
844.82	32712.00
845.56	32634.00
846.29	32328.00
847.02	32046.00
847.76	31853.00
848.49	31754.00
849.23	31772.00
849.96	31938.00
850.69	32002.00
851.43	31948.00
852.16	31699.00
852.89	31426.00
853.63	31468.00
854.36	31395.00
855.09	31419.00
855.82	31404.00
856.56	31189.00
857.29	30920.00
858.02	30788.00
858.76	30550.00
859.49	30419.00
860.22	30490.00
860.95	30269.00
861.69	30199.00
862.42	29916.00
863.15	29879.00
863.88	29885.00
864.61	29931.00
865.35	29939.00
866.08	29881.00
866.81	29538.00
867.54	29195.00
868.27	29048.00
869.01	29024.00
869.74	28943.00
870.47	28873.00
871.20	28820.00
871.93	28671.00
872.66	28605.00
873.40	28375.00
874.13	28219.00
874.86	28096.00
875.59	27971.00
876.32	27972.00
877.05	27816.00
877.78	27666.00
878.51	27399.00
879.24	27115.00
879.97	26907.00
880.71	26667.00
881.44	26534.00
882.17	26360.00
882.90	26311.00
883.63	26327.00
884.36	26376.00
885.09	26443.00
885.82	26457.00
886.55	26509.00
887.28	26524.00
888.01	26444.00
888.74	26331.00
889.47	25983.00
890.20	25701.00
890.93	25342.00
891.66	25171.00
892.39	25053.00
893.12	25009.00
893.85	24927.00
894.57	24784.00
895.30	24612.00
896.03	24481.00
896.76	24292.00
897.49	24213.00
898.22	24049.00
898.95	23976.00
899.68	23968.00
900.41	23944.00
901.14	23955.00
901.86	23899.00
902.59	23848.00
903.32	23822.00
904.05	23776.00
904.78	23575.00
905.51	23301.00
906.24	22968.00
906.96	22722.00
907.69	22469.00
908.42	22356.00
909.15	22220.00
909.88	22023.00
910.60	21884.00
911.33	21835.00
912.06	21840.00
912.79	21781.00
913.52	21672.00
914.24	21591.00
914.97	21455.00
915.70	21273.00
916.42	21103.00
917.15	20933.00
917.88	20631.00
918.61	20533.00
919.33	20345.00
920.06	20164.00
920.79	20026.00
921.51	19968.00
922.24	19856.00
922.97	19693.00
923.69	19566.00
924.42	19453.00
925.15	19285.00
925.87	18992.00
926.60	18711.00
927.33	18474.00
928.05	18224.00
928.78	18032.00
929.51	17772.00
930.23	17590.00
930.96	17329.00
931.68	17129.00
932.41	16821.00
933.14	16583.00
933.86	16344.00
934.59	15964.00
935.31	15612.00
936.04	15156.00
936.76	14753.00
937.49	14367.00
938.21	13961.00
938.94	13563.00
939.66	13230.00
940.39	12921.00
941.11	12567.00
941.84	12403.00
942.56	12232.00
943.29	12125.00
944.01	12009.00
944.74	11961.00
945.46	11985.00
946.19	11965.00
946.91	12030.00
947.64	12042.00
948.36	12072.00
949.09	12146.00
949.81	12152.00
950.53	12175.00
951.26	12148.00
951.98	12161.00
952.71	12138.00
953.43	12207.00
954.15	12245.00
954.88	12325.00
955.60	12317.00
956.33	12310.00
957.05	12265.00
957.77	12291.00
958.50	12266.00
959.22	12277.00
959.94	12263.00
960.67	12182.00
961.39	12130.00
962.11	12094.00
962.84	12065.00
963.56	12016.00
964.28	11916.00
965.00	11828.00
965.73	11726.00
966.45	11639.00
967.17	11576.00
967.89	11433.00
968.62	11285.00
969.34	11195.00
970.06	11098.00
970.78	11048.00
971.51	11002.00
972.23	10976.00
972.95	10851.00
973.67	10799.00
974.40	10689.00
975.12	10570.00
975.84	10462.00
976.56	10352.00
977.28	10270.00
978.00	10182.00
978.73	10134.00
979.45	10068.00
980.17	10022.00
980.89	9950.00
981.61	9915.00
982.33	9855.00
983.05	9817.00
983.77	9773.00
984.50	9728.00
985.22	9678.00
985.94	9677.00
986.66	9609.00
987.38	9598.00
988.10	9536.00
988.82	9500.00
989.54	9437.00
990.26	9397.00
990.98	9325.00
991.70	9209.00
992.42	9134.00
993.14	9037.00
993.86	8928.00
994.58	8821.00
995.30	8735.00
996.02	8669.00
996.74	8617.00
997.46	8604.00
998.18	8483.00
998.90	8438.00
999.62	8370.00
1000.34	8341.00
1001.06	8284.00
1001.78	8212.00
1002.50	8097.00
1003.22	8022.00
1003.94	7889.00
1004.66	7840.00
1005.38	7732.00
1006.09	7636.00
1006.81	7524.00
1007.53	7450.00
1008.25	7345.00
1008.97	7273.00
1009.69	7213.00
1010.41	7130.00
1011.13	7064.00
1011.84	7003.00
1012.56	6932.00
1013.28	6880.00
1014.00	6792.00
1014.72	6745.00
1015.44	6665.00
1016.15	6549.00
1016.87	6480.00
1017.59	6405.00
1018.31	6345.00
1019.03	6308.00
1019.74	6259.00
1020.46	6204.00
1021.18	6135.00
1021.90	6062.00
1022.61	6043.00
1023.33	5988.00
1024.05	5926.00
1024.76	5841.00
1025.48	5749.00
1026.20	5665.00
1026.92	5592.00
1027.63	5545.00
1028.35	5487.00
1029.07	5424.00
1029.78	5381.00
1030.50	5295.00
1031.22	5235.00
1031.93	5177.00
1032.65	5120.00
1033.37	5080.00
1034.08	5021.00
1034.80	4971.00
1035.52	4938.00
1036.23	4905.00
1036.95	4873.00
1037.66	4825.00
1038.38	4773.00
1039.10	4723.00
1039.81	4663.00
1040.53	4596.00
1041.24	4544.00
1041.96	4493.00
1042.67	4449.00
1043.39	4415.00
1044.10	4378.00
1044.82	4331.00
1045.54	4272.00
1046.25	4241.00
1046.97	4199.00
1047.68	4167.00
1048.40	4111.00
1049.11	4059.00
1049.83	4007.00
1050.54	3968.00
1051.26	3925.00
1051.97	3889.00
1052.68	3854.00
1053.40	3808.00
1054.11	3774.00
1054.83	3725.00
1055.54	3687.00
1056.26	3644.00
1056.97	3607.00
1057.69	3579.00
1058.40	3545.00
1059.11	3505.00
1059.83	3472.00
1060.54	3429.00
1061.25	3384.00
1061.97	3341.00
1062.68	3293.00
1063.40	3262.00
1064.11	3231.00
1064.82	3187.00
1065.54	3153.00
1066.25	2543.00
1066.96	2549.00
1067.68	2544.00
1068.39	2539.00
1069.10	2582.00
1069.82	2586.00
1070.53	2599.00
1071.24	2600.00
1071.95	2593.00
1072.67	2581.00
1073.38	3115.00
1074.09	3077.00
1074.80	3031.00
1075.52	2992.00
1076.23	2954.00
1076.94	2916.00
1077.65	2140.00
1078.37	2138.00
1079.08	2138.00
1079.79	2144.00
