300.47	2598.00
301.26	2595.00
302.04	2596.00
302.82	2577.00
303.60	2586.00
304.38	2593.00
305.17	2598.00
305.95	2592.00
306.73	2583.00
307.51	2586.00
308.29	2589.00
309.08	2599.00
309.86	2593.00
310.64	2587.00
311.42	2580.00
312.20	2592.00
312.98	2599.00
313.76	2592.00
314.55	2584.00
315.33	2581.00
316.11	2597.00
316.89	2596.00
317.67	2600.00
318.45	2581.00
319.23	2584.00
320.01	2595.00
320.79	2595.00
321.57	2586.00
322.35	2589.00
323.13	2605.00
323.91	2594.00
324.69	2585.00
325.47	2585.00
326.25	2591.00
327.03	2600.00
327.81	2599.00
328.59	2596.00
329.37	2585.00
330.15	2590.00
330.93	2597.00
331.71	2599.00
332.49	2596.00
333.27	2588.00
334.05	2595.00
334.83	2600.00
335.61	2608.00
336.39	2604.00
337.17	2589.00
337.95	2593.00
338.73	2600.00
339.51	2608.00
340.29	2606.00
341.07	2595.00
341.84	2594.00
342.62	2606.00
343.40	2614.00
344.18	2612.00
344.96	2613.00
345.74	2600.00
346.52	2609.00
347.29	2621.00
348.07	2615.00
348.85	2621.00
349.63	2608.00
350.41	2611.00
351.18	2633.00
351.96	2632.00
352.74	2635.00
353.52	2622.00
354.30	2627.00
355.07	2640.00
355.85	2649.00
356.63	2646.00
357.41	2631.00
358.18	2635.00
358.96	2659.00
359.74	2663.00
360.52	2664.00
361.29	2662.00
362.07	2673.00
362.85	2688.00
363.62	2687.00
364.40	2689.00
365.18	2683.00
365.95	2694.00
366.73	2712.00
367.51	2713.00
368.28	2713.00
369.06	2711.00
369.84	2726.00
370.61	2735.00
371.39	2744.00
372.17	2753.00
372.94	2749.00
373.72	2770.00
374.49	2781.00
375.27	2793.00
376.05	2797.00
376.82	2786.00
377.60	2801.00
378.37	2825.00
379.15	2843.00
379.92	2846.00
380.70	2843.00
381.47	2867.00
382.25	2880.00
383.02	2895.00
383.80	2910.00
384.58	2913.00
385.35	2931.00
386.13	2948.00
386.90	2970.00
387.67	2976.00
388.45	2991.00
389.22	2992.00
390.00	3013.00
390.77	3035.00
391.55	3045.00
392.32	3059.00
393.10	3071.00
393.87	3089.00
394.65	3126.00
395.42	3147.00
396.19	3158.00
396.97	3154.00
397.74	3177.00
398.52	3214.00
399.29	3227.00
400.06	3242.00
400.84	3257.00
401.61	3281.00
402.38	3305.00
403.16	3322.00
403.93	3347.00
404.70	3353.00
405.48	3379.00
406.25	3407.00
407.02	3426.00
407.80	3445.00
408.57	3458.00
409.34	3483.00
410.12	3517.00
410.89	3534.00
411.66	3558.00
412.43	3568.00
413.21	3597.00
413.98	3617.00
414.75	3649.00
415.52	3681.00
416.30	3690.00
417.07	3707.00
417.84	3737.00
418.61	3760.00
419.39	3795.00
420.16	3805.00
420.93	3833.00
421.70	3858.00
422.47	3908.00
423.24	3931.00
424.02	3954.00
424.79	3971.00
425.56	4003.00
426.33	4042.00
427.10	4076.00
427.87	4110.00
428.64	4134.00
429.42	4186.00
430.19	4210.00
430.96	4264.00
431.73	4293.00
432.50	4321.00
433.27	4356.00
434.04	4406.00
434.81	4446.00
435.58	4486.00
436.35	4514.00
437.12	4552.00
437.89	4613.00
438.67	4649.00
439.44	4685.00
440.21	4736.00
440.98	4778.00
441.75	4842.00
442.52	4893.00
443.29	4926.00
444.06	4958.00
444.83	5026.00
445.60	5090.00
446.37	5130.00
447.13	5174.00
447.90	5222.00
448.67	5301.00
449.44	5351.00
450.21	5421.00
450.98	5465.00
451.75	5511.00
452.52	5570.00
453.29	5629.00
454.06	5733.00
454.83	5797.00
455.60	5854.00
456.37	5888.00
457.13	5983.00
457.90	6068.00
458.67	6138.00
459.44	6201.00
460.21	6249.00
460.98	6311.00
461.75	6426.00
462.51	6496.00
463.28	6574.00
464.05	6621.00
464.82	6729.00
465.59	6798.00
466.35	6876.00
467.12	6967.00
467.89	7049.00
468.66	7110.00
469.43	7201.00
470.19	7321.00
470.96	7396.00
471.73	7478.00
472.50	7572.00
473.26	7659.00
474.03	7750.00
474.80	7850.00
475.56	7919.00
476.33	8012.00
477.10	8128.00
477.87	8218.00
478.63	8297.00
479.40	8413.00
480.17	8488.00
480.93	8633.00
481.70	8719.00
482.47	8831.00
483.23	8924.00
484.00	9035.00
484.76	9134.00
485.53	9265.00
486.30	9387.00
487.06	9502.00
487.83	9537.00
488.60	9691.00
489.36	9828.00
490.13	9906.00
490.89	10027.00
491.66	10137.00
492.42	10219.00
493.19	10405.00
493.96	10515.00
494.72	10607.00
495.49	10724.00
496.25	10879.00
497.02	10972.00
497.78	11077.00
498.55	11214.00
499.31	11340.00
500.08	11481.00
500.84	11552.00
501.61	11722.00
502.37	11857.00
503.14	11956.00
503.90	12078.00
504.67	12226.00
505.43	12380.00
506.20	12513.00
506.96	12676.00
507.72	12808.00
508.49	12925.00
509.25	13083.00
510.02	13206.00
510.78	13361.00
511.54	13568.00
512.31	13613.00
513.07	13774.00
513.84	13911.00
514.60	14077.00
515.36	14169.00
516.13	14312.00
516.89	14440.00
517.65	14565.00
518.42	14724.00
519.18	14829.00
519.94	14958.00
520.71	15127.00
521.47	15245.00
522.23	15427.00
523.00	15573.00
523.76	15723.00
524.52	15897.00
525.28	16006.00
526.05	16173.00
526.81	16424.00
527.57	16559.00
528.33	16663.00
529.10	16848.00
529.86	16976.00
530.62	17106.00
531.38	17265.00
532.15	17438.00
532.91	17528.00
533.67	17698.00
534.43	17881.00
535.19	18100.00
535.96	18194.00
536.72	18361.00
537.48	18428.00
538.24	18624.00
539.00	18757.00
539.76	19014.00
540.53	19152.00
541.29	19288.00
542.05	19456.00
542.81	19632.00
543.57	19873.00
544.33	19950.00
545.09	20125.00
545.85	20305.00
546.61	20447.00
547.38	20686.00
548.14	20801.00
548.90	21028.00
549.66	21160.00
550.42	21344.00
551.18	21535.00
551.94	21636.00
552.70	21772.00
553.46	21966.00
554.22	22055.00
554.98	22188.00
555.74	22353.00
556.50	22556.00
557.26	22699.00
558.02	22900.00
558.78	23070.00
559.54	23217.00
560.30	23376.00
561.06	23607.00
561.82	23773.00
562.58	23936.00
563.34	24177.00
564.10	24338.00
564.86	24526.00
565.61	24624.00
566.37	24762.00
567.13	25064.00
567.89	25177.00
568.65	25381.00
569.41	25579.00
570.17	25798.00
570.93	25979.00
571.69	26128.00
572.44	26254.00
573.20	26399.00
573.96	26568.00
574.72	26742.00
575.48	26856.00
576.24	26961.00
576.99	27124.00
577.75	27252.00
578.51	27449.00
579.27	27685.00
580.03	27920.00
580.78	28074.00
581.54	28284.00
582.30	28425.00
583.06	28570.00
583.82	28736.00
584.57	28867.00
585.33	28960.00
586.09	29161.00
586.84	29247.00
587.60	29328.00
588.36	29564.00
589.12	29748.00
589.87	29931.00
590.63	30067.00
591.39	30154.00
592.14	30328.00
592.90	30463.00
593.66	30749.00
594.41	30914.00
595.17	31066.00
595.93	31070.00
596.68	31280.00
597.44	31421.00
598.20	31543.00
598.95	31823.00
599.71	31975.00
600.46	32166.00
601.22	32295.00
601.98	32502.00
602.73	32753.00
603.49	32961.00
604.24	33091.00
605.00	33284.00
605.76	33473.00
606.51	33697.00
607.27	33787.00
608.02	33927.00
608.78	34154.00
609.53	34368.00
610.29	34555.00
611.04	34713.00
611.80	34879.00
612.55	35090.00
613.31	35156.00
614.06	35420.00
614.82	35596.00
615.57	35746.00
616.33	35907.00
617.08	35895.00
617.84	36133.00
618.59	36169.00
619.35	36111.00
620.10	36190.00
620.85	36210.00
621.61	36178.00
622.36	36220.00
623.12	36305.00
623.87	36411.00
624.62	36557.00
625.38	36750.00
626.13	36828.00
626.89	37014.00
627.64	37140.00
628.39	37218.00
629.15	37241.00
629.90	37228.00
630.65	37353.00
631.41	37241.00
632.16	37207.00
632.91	37196.00
633.67	37134.00
634.42	37277.00
635.17	37554.00
635.92	37818.00
636.68	38206.00
637.43	38735.00
638.18	39143.00
638.94	39481.00
639.69	39891.00
640.44	40181.00
641.19	40608.00
641.95	40901.00
642.70	41148.00
643.45	41352.00
644.20	41475.00
644.95	41630.00
645.71	41689.00
646.46	41924.00
647.21	41930.00
647.96	42039.00
648.71	42134.00
649.47	42253.00
650.22	42499.00
650.97	42643.00
651.72	42690.00
652.47	42915.00
653.22	42892.00
653.97	43013.00
654.73	43095.00
655.48	43118.00
656.23	43387.00
656.98	43568.00
657.73	43637.00
658.48	43756.00
659.23	43863.00
659.98	43885.00
660.73	43935.00
661.48	44112.00
662.23	44287.00
662.99	44209.00
663.74	44041.00
664.49	44282.00
665.24	44564.00
665.99	44836.00
666.74	45064.00
667.49	45134.00
668.24	45167.00
668.99	45205.00
669.74	45424.00
670.49	45565.00
671.24	45820.00
671.99	46009.00
672.74	46042.00
673.48	46153.00
674.23	46145.00
674.98	46152.00
675.73	46177.00
676.48	46328.00
677.23	46443.00
677.98	46462.00
678.73	46518.00
679.48	46637.00
680.23	46685.00
680.98	46557.00
681.73	46640.00
682.47	46629.00
683.22	46665.00
683.97	46743.00
684.72	46805.00
685.47	46837.00
686.22	46854.00
686.97	47053.00
687.71	47059.00
688.46	47146.00
689.21	47110.00
689.96	47069.00
690.71	47078.00
691.45	47112.00
692.20	47193.00
692.95	47202.00
693.70	47300.00
694.44	47436.00
695.19	47519.00
695.94	47597.00
696.69	47704.00
697.43	47710.00
698.18	47782.00
698.93	47862.00
699.68	47824.00
700.42	47817.00
701.17	47799.00
701.92	47806.00
702.66	47760.00
703.41	47838.00
704.16	47843.00
704.90	47694.00
705.65	47844.00
706.40	47844.00
707.14	47805.00
707.89	47860.00
708.64	47859.00
709.38	47804.00
710.13	47874.00
710.88	47863.00
711.62	47932.00
712.37	47769.00
713.11	47877.00
713.86	47747.00
714.61	47800.00
715.35	47724.00
716.10	47651.00
716.84	47591.00
717.59	47533.00
718.33	47563.00
719.08	47559.00
719.83	47622.00
720.57	47558.00
721.32	47339.00
722.06	47327.00
722.81	47068.00
723.55	47013.00
724.30	46852.00
725.04	46799.00
725.79	46673.00
726.53	46670.00
727.28	46565.00
728.02	46625.00
728.76	46756.00
729.51	46779.00
730.25	46871.00
731.00	46794.00
731.74	46704.00
732.49	46696.00
733.23	46566.00
733.97	46311.00
734.72	46383.00
735.46	46136.00
736.21	46054.00
736.95	46003.00
737.69	46108.00
738.44	46222.00
739.18	46368.00
739.92	46611.00
740.67	46716.00
741.41	46841.00
742.15	47069.00
742.90	47157.00
743.64	47170.00
744.38	47181.00
745.13	47131.00
745.87	47035.00
746.61	46967.00
747.36	46929.00
748.10	46701.00
748.84	46482.00
749.58	46318.00
750.33	46360.00
751.07	46165.00
751.81	46016.00
752.55	45894.00
753.30	45742.00
754.04	45730.00
754.78	45638.00
755.52	45504.00
756.27	45395.00
757.01	45251.00
757.75	45288.00
758.49	45377.00
759.23	45394.00
759.97	45253.00
760.72	45189.00
761.46	45191.00
762.20	45168.00
762.94	45176.00
763.68	45026.00
764.42	44897.00
765.16	44825.00
765.91	44737.00
766.65	44686.00
767.39	44718.00
768.13	44562.00
768.87	44625.00
769.61	44355.00
770.35	44292.00
771.09	44106.00
771.83	43913.00
772.57	43882.00
773.31	43861.00
774.05	44039.00
774.80	44063.00
775.54	43932.00
776.28	43910.00
777.02	43721.00
777.76	43580.00
778.50	43382.00
779.24	43093.00
779.98	42919.00
780.72	42664.00
781.46	42412.00
782.20	42501.00
782.93	42589.00
783.67	42439.00
784.41	42327.00
785.15	42193.00
785.89	41985.00
786.63	42002.00
787.37	41958.00
788.11	41804.00
788.85	41769.00
789.59	41730.00
790.33	41808.00
791.07	41780.00
791.81	41643.00
792.54	41497.00
793.28	41263.00
794.02	40924.00
794.76	40534.00
795.50	40278.00
796.24	39993.00
796.97	39614.00
797.71	39316.00
798.45	39163.00
799.19	39003.00
799.93	39032.00
800.67	38870.00
801.40	38850.00
802.14	39000.00
802.88	39005.00
803.62	39075.00
804.35	38934.00
805.09	38916.00
805.83	38559.00
806.57	38610.00
807.30	38468.00
808.04	38402.00
808.78	38155.00
809.52	37864.00
810.25	37597.00
810.99	37465.00
811.73	37377.00
812.46	37225.00
813.20	37210.00
813.94	37122.00
814.68	37041.00
815.41	36924.00
816.15	36888.00
816.88	36974.00
817.62	36724.00
818.36	36404.00
819.09	36106.00
819.83	35988.00
820.57	35958.00
821.30	35738.00
822.04	35583.00
822.77	35444.00
823.51	35234.00
824.25	35376.00
824.98	35352.00
825.72	35397.00
826.45	35329.00
827.19	35216.00
827.92	34996.00
828.66	34785.00
829.40	34653.00
830.13	34469.00
830.87	34355.00
831.60	34303.00
832.34	34129.00
833.07	34059.00
833.81	34077.00
834.54	34060.00
835.28	34023.00
836.01	34046.00
836.75	33880.00
837.48	33701.00
838.22	33474.00
838.95	33318.00
839.68	33277.00
840.42	33178.00
841.15	33069.00
841.89	32938.00
842.62	32606.00
843.36	32483.00
844.09	32287.00
844.82	32213.00
845.56	32092.00
846.29	31783.00
847.02	31484.00
847.76	31311.00
848.49	31254.00
849.23	31318.00
849.96	31414.00
850.69	31496.00
851.43	31392.00
852.16	31108.00
852.89	30984.00
853.63	30861.00
854.36	30833.00
855.09	30900.00
855.82	30870.00
856.56	30649.00
857.29	30445.00
858.02	30238.00
858.76	30039.00
859.49	29989.00
860.22	29868.00
860.95	29839.00
861.69	29653.00
862.42	29432.00
863.15	29358.00
863.88	29329.00
864.61	29361.00
865.35	29374.00
866.08	29285.00
866.81	28967.00
867.54	28716.00
868.27	28550.00
869.01	28447.00
869.74	28430.00
870.47	28386.00
871.20	28308.00
871.93	28209.00
872.66	28050.00
873.40	27871.00
874.13	27756.00
874.86	27621.00
875.59	27528.00
876.32	27468.00
877.05	27314.00
877.78	27162.00
878.51	26823.00
879.24	26611.00
879.97	26388.00
880.71	26199.00
881.44	25999.00
882.17	25839.00
882.90	25781.00
883.63	25747.00
884.36	25842.00
885.09	25972.00
885.82	26014.00
886.55	26066.00
887.28	26027.00
888.01	25891.00
888.74	25763.00
889.47	25568.00
890.20	25169.00
890.93	24912.00
891.66	24721.00
892.39	24668.00
893.12	24525.00
893.85	24452.00
894.57	24397.00
895.30	24148.00
896.03	24016.00
896.76	23782.00
897.49	23691.00
898.22	23612.00
898.95	23470.00
899.68	23497.00
900.41	23474.00
901.14	23442.00
901.86	23446.00
902.59	23387.00
903.32	23228.00
904.05	23320.00
904.78	23099.00
905.51	22840.00
906.24	22604.00
906.96	22343.00
907.69	22054.00
908.42	21922.00
909.15	21765.00
909.88	21640.00
910.60	21406.00
911.33	21409.00
912.06	21392.00
912.79	21389.00
913.52	21289.00
914.24	21175.00
914.97	21067.00
915.70	20878.00
916.42	20636.00
917.15	20478.00
917.88	20293.00
918.61	20080.00
919.33	19932.00
920.06	19723.00
920.79	19665.00
921.51	19545.00
922.24	19534.00
922.97	19288.00
923.69	19231.00
924.42	19050.00
925.15	18873.00
925.87	18641.00
926.60	18335.00
927.33	18090.00
928.05	17851.00
928.78	17618.00
929.51	17445.00
930.23	17241.00
930.96	16973.00
931.68	16705.00
932.41	16482.00
933.14	16255.00
933.86	15981.00
934.59	15628.00
935.31	15260.00
936.04	14847.00
936.76	14486.00
937.49	14065.00
938.21	13656.00
938.94	13249.00
939.66	12997.00
940.39	12636.00
941.11	12341.00
941.84	12098.00
942.56	11951.00
943.29	11846.00
944.01	11798.00
944.74	11747.00
945.46	11751.00
946.19	11756.00
946.91	11761.00
947.64	11831.00
948.36	11835.00
949.09	11867.00
949.81	11896.00
950.53	11891.00
951.26	11945.00
951.98	11938.00
952.71	11906.00
953.43	11932.00
954.15	12015.00
954.88	12075.00
955.60	12066.00
956.33	12053.00
957.05	11995.00
957.77	12028.00
958.50	12006.00
959.22	12021.00
959.94	12013.00
960.67	11901.00
961.39	11861.00
962.11	11882.00
962.84	11856.00
963.56	11763.00
964.28	11698.00
965.00	11601.00
965.73	11518.00
966.45	11392.00
967.17	11255.00
967.89	11186.00
968.62	11086.00
969.34	11005.00
970.06	10896.00
970.78	10843.00
971.51	10772.00
972.23	10731.00
972.95	10634.00
973.67	10573.00
974.40	10466.00
975.12	10332.00
975.84	10254.00
976.56	10152.00
977.28	10041.00
978.00	9982.00
978.73	9932.00
979.45	9869.00
980.17	9816.00
980.89	9760.00
981.61	9735.00
982.33	9671.00
983.05	9631.00
983.77	9573.00
984.50	9548.00
985.22	9475.00
985.94	9469.00
986.66	9427.00
987.38	9403.00
988.10	9349.00
988.82	9341.00
989.54	9283.00
990.26	9220.00
990.98	9126.00
991.70	9035.00
992.42	8973.00
993.14	8882.00
993.86	8775.00
994.58	8672.00
995.30	8590.00
996.02	8519.00
996.74	8453.00
997.46	8412.00
998.18	8362.00
998.90	8286.00
999.62	8244.00
1000.34	8167.00
1001.06	8133.00
1001.78	8060.00
1002.50	7979.00
1003.22	7881.00
1003.94	7785.00
1004.66	7680.00
1005.38	7606.00
1006.09	7530.00
1006.81	7426.00
1007.53	7323.00
1008.25	7235.00
1008.97	7182.00
1009.69	7096.00
1010.41	7057.00
1011.13	6997.00
1011.84	6939.00
1012.56	6828.00
1013.28	6782.00
1014.00	6711.00
1014.72	6644.00
1015.44	6569.00
1016.15	6496.00
1016.87	6379.00
1017.59	6312.00
1018.31	6242.00
1019.03	6203.00
1019.74	6183.00
1020.46	6125.00
1021.18	6070.00
1021.90	5993.00
1022.61	5954.00
1023.33	5917.00
1024.05	5838.00
1024.76	5769.00
1025.48	5681.00
1026.20	5601.00
1026.92	5529.00
1027.63	5459.00
1028.35	5404.00
1029.07	5342.00
1029.78	5306.00
1030.50	5223.00
1031.22	5159.00
1031.93	5101.00
1032.65	5048.00
1033.37	5005.00
1034.08	4959.00
1034.80	4911.00
1035.52	4874.00
1036.23	4841.00
1036.95	4808.00
1037.66	4766.00
1038.38	4723.00
1039.10	4667.00
1039.81	4600.00
1040.53	4538.00
1041.24	4480.00
1041.96	4437.00
1042.67	4390.00
1043.39	4356.00
1044.10	4320.00
1044.82	4272.00
1045.54	4228.00
1046.25	4181.00
1046.97	4157.00
1047.68	4098.00
1048.40	4048.00
1049.11	4000.00
1049.83	3968.00
1050.54	3914.00
1051.26	3881.00
1051.97	3851.00
1052.68	3804.00
1053.40	3772.00
1054.11	3719.00
1054.83	3673.00
1055.54	3635.00
1056.26	3597.00
1056.97	3574.00
1057.69	3534.00
1058.40	3500.00
1059.11	3477.00
1059.83	3428.00
1060.54	3387.00
1061.25	3344.00
1061.97	3305.00
1062.68	3260.00
1063.40	3239.00
1064.11	3195.00
1064.82	3162.00
1065.54	3119.00
1066.25	2553.00
1066.96	2546.00
1067.68	2537.00
1068.39	2529.00
1069.10	2585.00
1069.82	2599.00
1070.53	2596.00
1071.24	2595.00
1071.95	2577.00
1072.67	2586.00
1073.38	3079.00
1074.09	3025.00
1074.80	2989.00
1075.52	2960.00
1076.23	2930.00
1076.94	2895.00
1077.65	2139.00
1078.37	2136.00
1079.08	2138.00
1079.79	2140.00
