300.47	2618.00
301.26	2610.00
302.04	2628.00
302.82	2612.00
303.60	2615.00
304.38	2621.00
305.17	2603.00
305.95	2624.00
306.73	2620.00
307.51	2598.00
308.29	2625.00
309.08	2618.00
309.86	2608.00
310.64	2622.00
311.42	2618.00
312.20	2614.00
312.98	2620.00
313.76	2604.00
314.55	2624.00
315.33	2618.00
316.11	2596.00
316.89	2625.00
317.67	2621.00
318.45	2599.00
319.23	2624.00
320.01	2607.00
320.79	2614.00
321.57	2614.00
322.35	2605.00
323.13	2624.00
323.91	2617.00
324.69	2602.00
325.47	2626.00
326.25	2625.00
327.03	2599.00
327.81	2622.00
328.59	2612.00
329.37	2611.00
330.15	2616.00
330.93	2602.00
331.71	2624.00
332.49	2620.00
333.27	2600.00
334.05	2625.00
334.83	2620.00
335.61	2600.00
336.39	2623.00
337.17	2615.00
337.95	2621.00
338.73	2621.00
339.51	2610.00
340.29	2631.00
341.07	2629.00
341.84	2605.00
342.62	2632.00
343.40	2630.00
344.18	2615.00
344.96	2633.00
345.74	2624.00
346.52	2631.00
347.29	2636.00
348.07	2624.00
348.85	2642.00
349.63	2644.00
350.41	2624.00
351.18	2648.00
351.96	2646.00
352.74	2640.00
353.52	2652.00
354.30	2644.00
355.07	2659.00
355.85	2660.00
356.63	2651.00
357.41	2668.00
358.18	2669.00
358.96	2654.00
359.74	2691.00
360.52	2678.00
361.29	2676.00
362.07	2693.00
362.85	2691.00
363.62	2698.00
364.40	2706.00
365.18	2698.00
365.95	2707.00
366.73	2718.00
367.51	2739.00
368.28	2741.00
369.06	2742.00
369.84	2737.00
370.61	2751.00
371.39	2772.00
372.17	2776.00
372.94	2766.00
373.72	2774.00
374.49	2800.00
375.27	2802.00
376.05	2817.00
376.82	2806.00
377.60	2835.00
378.37	2851.00
379.15	2845.00
379.92	2879.00
380.70	2883.00
381.47	2872.00
382.25	2892.00
383.02	2913.00
383.80	2930.00
384.58	2947.00
385.35	2944.00
386.13	2966.00
386.90	2992.00
387.67	2998.00
388.45	3000.00
389.22	3020.00
390.00	3047.00
390.77	3065.00
391.55	3068.00
392.32	3085.00
393.10	3104.00
393.87	3135.00
394.65	3145.00
395.42	3162.00
396.19	3177.00
396.97	3199.00
397.74	3212.00
398.52	3236.00
399.29	3235.00
400.06	3268.00
400.84	3308.00
401.61	3321.00
402.38	3309.00
403.16	3363.00
403.93	3370.00
404.70	3394.00
405.48	3419.00
406.25	3440.00
407.02	3454.00
407.80	3486.00
408.57	3482.00
409.34	3527.00
410.12	3550.00
410.89	3550.00
411.66	3597.00
412.43	3603.00
413.21	3631.00
413.98	3668.00
414.75	3674.00
415.52	3715.00
416.30	3736.00
417.07	3749.00
417.84	3795.00
418.61	3823.00
419.39	3826.00
420.16	3863.00
420.93	3905.00
421.70	3923.00
422.47	3964.00
423.24	3966.00
424.02	4004.00
424.79	4030.00
425.56	4073.00
426.33	4088.00
427.10	4113.00
427.87	4171.00
428.64	4201.00
429.42	4248.00
430.19	4246.00
430.96	4298.00
431.73	4343.00
432.50	4351.00
433.27	4431.00
434.04	4455.00
434.81	4485.00
435.58	4536.00
436.35	4574.00
437.12	4624.00
437.89	4665.00
438.67	4723.00
439.44	4765.00
440.21	4804.00
440.98	4860.00
441.75	4914.00
442.52	4945.00
443.29	5001.00
444.06	5057.00
444.83	5090.00
445.60	5161.00
446.37	5224.00
447.13	5254.00
447.90	5332.00
448.67	5385.00
449.44	5431.00
450.21	5495.00
450.98	5553.00
451.75	5620.00
452.52	5663.00
453.29	5754.00
454.06	5822.00
454.83	5897.00
455.60	5937.00
456.37	5987.00
457.13	6054.00
457.90	6166.00
458.67	6247.00
459.44	6283.00
460.21	6355.00
460.98	6420.00
461.75	6519.00
462.51	6602.00
463.28	6668.00
464.05	6767.00
464.82	6848.00
465.59	6921.00
466.35	6989.00
467.12	7089.00
467.89	7179.00
468.66	7229.00
469.43	7320.00
470.19	7415.00
470.96	7505.00
471.73	7596.00
472.50	7708.00
473.26	7797.00
474.03	7888.00
474.80	7957.00
475.56	8062.00
476.33	8159.00
477.10	8270.00
477.87	8350.00
478.63	8484.00
479.40	8551.00
480.17	8645.00
480.93	8792.00
481.70	8880.00
482.47	8942.00
483.23	9143.00
484.00	9218.00
484.76	9323.00
485.53	9417.00
486.30	9568.00
487.06	9652.00
487.83	9792.00
488.60	9857.00
489.36	9970.00
490.13	10125.00
490.89	10227.00
491.66	10349.00
492.42	10476.00
493.19	10574.00
493.96	10703.00
494.72	10827.00
495.49	10985.00
496.25	11108.00
497.02	11211.00
497.78	11351.00
498.55	11420.00
499.31	11559.00
500.08	11670.00
500.84	11751.00
501.61	11910.00
502.37	12081.00
503.14	12208.00
503.90	12358.00
504.67	12451.00
505.43	12656.00
506.20	12748.00
506.96	12931.00
507.72	13037.00
508.49	13181.00
509.25	13307.00
510.02	13499.00
510.78	13642.00
511.54	13795.00
512.31	13918.00
513.07	14031.00
513.84	14196.00
514.60	14350.00
515.36	14512.00
516.13	14629.00
516.89	14726.00
517.65	14849.00
518.42	14993.00
519.18	15117.00
519.94	15272.00
520.71	15386.00
521.47	15514.00
522.23	15703.00
523.00	15849.00
523.76	16022.00
524.52	16144.00
525.28	16356.00
526.05	16533.00
526.81	16640.00
527.57	16846.00
528.33	16986.00
529.10	17109.00
529.86	17284.00
530.62	17416.00
531.38	17603.00
532.15	17743.00
532.91	17902.00
533.67	18048.00
534.43	18226.00
535.19	18362.00
535.96	18533.00
536.72	18649.00
537.48	18742.00
538.24	18902.00
539.00	19079.00
539.76	19310.00
540.53	19496.00
541.29	19613.00
542.05	19841.00
542.81	19965.00
543.57	20151.00
544.33	20345.00
545.09	20487.00
545.85	20688.00
546.61	20870.00
547.38	21003.00
548.14	21141.00
548.90	21376.00
549.66	21553.00
550.42	21741.00
551.18	21888.00
551.94	22046.00
552.70	22191.00
553.46	22334.00
554.22	22457.00
554.98	22594.00
555.74	22755.00
556.50	22893.00
557.26	23080.00
558.02	23309.00
558.78	23521.00
559.54	23606.00
560.30	23787.00
561.06	24012.00
561.82	24178.00
562.58	24351.00
563.34	24596.00
564.10	24708.00
564.86	24873.00
565.61	25027.00
566.37	25159.00
567.13	25479.00
567.89	25603.00
568.65	25775.00
569.41	25996.00
570.17	26174.00
570.93	26394.00
571.69	26602.00
572.44	26720.00
573.20	26914.00
573.96	26993.00
574.72	27135.00
575.48	27272.00
576.24	27433.00
576.99	27581.00
577.75	27682.00
578.51	27884.00
579.27	28105.00
580.03	28363.00
580.78	28526.00
581.54	28793.00
582.30	28850.00
583.06	28999.00
583.82	29157.00
584.57	29263.00
585.33	29474.00
586.09	29612.00
586.84	29688.00
587.60	29780.00
588.36	29912.00
589.12	30091.00
589.87	30375.00
590.63	30500.00
591.39	30619.00
592.14	30770.00
592.90	30898.00
593.66	31102.00
594.41	31359.00
595.17	31474.00
595.93	31553.00
596.68	31672.00
597.44	31813.00
598.20	32050.00
598.95	32226.00
599.71	32515.00
600.46	32610.00
601.22	32638.00
601.98	32909.00
602.73	33125.00
603.49	33318.00
604.24	33569.00
605.00	33801.00
605.76	33950.00
606.51	34065.00
607.27	34172.00
608.02	34403.00
608.78	34624.00
609.53	34799.00
610.29	34956.00
611.04	35165.00
611.80	35312.00
612.55	35504.00
613.31	35663.00
614.06	35850.00
614.82	36110.00
615.57	36338.00
616.33	36334.00
617.08	36398.00
617.84	36551.00
618.59	36580.00
619.35	36682.00
620.10	36694.00
620.85	36708.00
621.61	36762.00
622.36	36732.00
623.12	36814.00
623.87	36945.00
624.62	37156.00
625.38	37307.00
626.13	37339.00
626.89	37477.00
627.64	37691.00
628.39	37701.00
629.15	37700.00
629.90	37733.00
630.65	37832.00
631.41	37789.00
632.16	37717.00
632.91	37707.00
633.67	37714.00
634.42	37831.00
635.17	38062.00
635.92	38374.00
636.68	38811.00
637.43	39282.00
638.18	39699.00
638.94	40112.00
639.69	40448.00
640.44	40820.00
641.19	41167.00
641.95	41493.00
642.70	41630.00
643.45	41829.00
644.20	42026.00
644.95	42195.00
645.71	42265.00
646.46	42281.00
647.21	42500.00
647.96	42579.00
648.71	42648.00
649.47	42757.00
650.22	42997.00
650.97	43207.00
651.72	43353.00
652.47	43519.00
653.22	43513.00
653.97	43580.00
654.73	43621.00
655.48	43747.00
656.23	43999.00
656.98	44156.00
657.73	44263.00
658.48	44312.00
659.23	44456.00
659.98	44551.00
660.73	44665.00
661.48	44814.00
662.23	44861.00
662.99	44857.00
663.74	44796.00
664.49	44964.00
665.24	45308.00
665.99	45608.00
666.74	45793.00
667.49	45882.00
668.24	45988.00
668.99	46060.00
669.74	46225.00
670.49	46509.00
671.24	46740.00
671.99	46850.00
672.74	46984.00
673.48	46951.00
674.23	46966.00
674.98	46945.00
675.73	47137.00
676.48	47238.00
677.23	47293.00
677.98	47374.00
678.73	47439.00
679.48	47561.00
680.23	47592.00
680.98	47569.00
681.73	47576.00
682.47	47607.00
683.22	47691.00
683.97	47811.00
684.72	47834.00
685.47	47906.00
686.22	47948.00
686.97	48003.00
687.71	48127.00
688.46	48244.00
689.21	48141.00
689.96	48222.00
690.71	48184.00
691.45	48222.00
692.20	48197.00
692.95	48280.00
693.70	48413.00
694.44	48616.00
695.19	48821.00
695.94	48811.00
696.69	48831.00
697.43	48919.00
698.18	48988.00
698.93	49121.00
699.68	49088.00
700.42	49089.00
701.17	49032.00
701.92	49008.00
702.66	49079.00
703.41	49067.00
704.16	49113.00
704.90	49196.00
705.65	49148.00
706.40	49193.00
707.14	49342.00
707.89	49449.00
708.64	49348.00
709.38	49464.00
710.13	49355.00
710.88	49434.00
711.62	49382.00
712.37	49443.00
713.11	49336.00
713.86	49280.00
714.61	49322.00
715.35	49354.00
716.10	49246.00
716.84	49207.00
717.59	49336.00
718.33	49233.00
719.08	49392.00
719.83	49347.00
720.57	49209.00
721.32	49225.00
722.06	49055.00
722.81	48869.00
723.55	48764.00
724.30	48720.00
725.04	48624.00
725.79	48419.00
726.53	48496.00
727.28	48558.00
728.02	48514.00
728.76	48688.00
729.51	48752.00
730.25	48787.00
731.00	48716.00
731.74	48647.00
732.49	48592.00
733.23	48272.00
733.97	48309.00
734.72	48180.00
735.46	48032.00
736.21	47963.00
736.95	48021.00
737.69	47989.00
738.44	48247.00
739.18	48410.00
739.92	48513.00
740.67	48732.00
741.41	48865.00
742.15	49075.00
742.90	49219.00
743.64	49443.00
744.38	49330.00
745.13	49238.00
745.87	49116.00
746.61	49236.00
747.36	49017.00
748.10	48920.00
748.84	48671.00
749.58	48540.00
750.33	48417.00
751.07	48401.00
751.81	48277.00
752.55	48156.00
753.30	47998.00
754.04	47982.00
754.78	47950.00
755.52	47900.00
756.27	47805.00
757.01	47564.00
757.75	47716.00
758.49	47763.00
759.23	47668.00
759.97	47761.00
760.72	47664.00
761.46	47697.00
762.20	47786.00
762.94	47771.00
763.68	47694.00
764.42	47549.00
765.16	47480.00
765.91	47545.00
766.65	47499.00
767.39	47347.00
768.13	47281.00
768.87	47192.00
769.61	47177.00
770.35	47031.00
771.09	46874.00
771.83	46723.00
772.57	46631.00
773.31	46733.00
774.05	46822.00
774.80	46887.00
775.54	46883.00
776.28	46757.00
777.02	46595.00
777.76	46462.00
778.50	46272.00
779.24	45944.00
779.98	45858.00
780.72	45589.00
781.46	45359.00
782.20	45374.00
782.93	45343.00
783.67	45345.00
784.41	45122.00
785.15	44983.00
785.89	44876.00
786.63	44836.00
787.37	44740.00
788.11	44675.00
788.85	44624.00
789.59	44634.00
790.33	44825.00
791.07	44776.00
791.81	44683.00
792.54	44610.00
793.28	44349.00
794.02	43991.00
794.76	43645.00
795.50	43385.00
796.24	43089.00
796.97	42643.00
797.71	42464.00
798.45	42336.00
799.19	42193.00
799.93	42174.00
800.67	41986.00
801.40	42000.00
802.14	42101.00
802.88	42293.00
803.62	42240.00
804.35	42179.00
805.09	42139.00
805.83	41941.00
806.57	41888.00
807.30	41840.00
808.04	41786.00
808.78	41619.00
809.52	41219.00
810.25	40929.00
810.99	40829.00
811.73	40744.00
812.46	40713.00
813.20	40613.00
813.94	40511.00
814.68	40350.00
815.41	40346.00
816.15	40395.00
816.88	40451.00
817.62	40260.00
818.36	40010.00
819.09	39650.00
819.83	39471.00
820.57	39492.00
821.30	39461.00
822.04	39183.00
822.77	38960.00
823.51	38817.00
824.25	38892.00
824.98	38869.00
825.72	38886.00
826.45	38891.00
827.19	38687.00
827.92	38474.00
828.66	38419.00
829.40	38319.00
830.13	38177.00
830.87	38044.00
831.60	37961.00
832.34	37724.00
833.07	37698.00
833.81	37717.00
834.54	37760.00
835.28	37785.00
836.01	37783.00
836.75	37602.00
837.48	37435.00
838.22	37310.00
838.95	37185.00
839.68	37108.00
840.42	37058.00
841.15	36979.00
841.89	36810.00
842.62	36560.00
843.36	36362.00
844.09	36258.00
844.82	36102.00
845.56	36065.00
846.29	35710.00
847.02	35481.00
847.76	35187.00
848.49	35138.00
849.23	35316.00
849.96	35379.00
850.69	35565.00
851.43	35406.00
852.16	35149.00
852.89	35033.00
853.63	34884.00
854.36	34881.00
855.09	34970.00
855.82	34923.00
856.56	34768.00
857.29	34497.00
858.02	34262.00
858.76	34244.00
859.49	34166.00
860.22	34048.00
860.95	33982.00
861.69	33818.00
862.42	33561.00
863.15	33504.00
863.88	33468.00
864.61	33476.00
865.35	33497.00
866.08	33421.00
866.81	33125.00
867.54	32771.00
868.27	32601.00
869.01	32528.00
869.74	32546.00
870.47	32484.00
871.20	32476.00
871.93	32401.00
872.66	32322.00
873.40	32201.00
874.13	32075.00
874.86	31934.00
875.59	31873.00
876.32	31854.00
877.05	31715.00
877.78	31572.00
878.51	31267.00
879.24	31025.00
879.97	30848.00
880.71	30680.00
881.44	30375.00
882.17	30255.00
882.90	30165.00
883.63	30136.00
884.36	30165.00
885.09	30239.00
885.82	30411.00
886.55	30559.00
887.28	30568.00
888.01	30466.00
888.74	30411.00
889.47	30208.00
890.20	29875.00
890.93	29473.00
891.66	29281.00
892.39	29146.00
893.12	29069.00
893.85	29002.00
894.57	28814.00
895.30	28625.00
896.03	28550.00
896.76	28341.00
897.49	28313.00
898.22	28123.00
898.95	28007.00
899.68	27974.00
900.41	27986.00
901.14	27977.00
901.86	27935.00
902.59	27914.00
903.32	27895.00
904.05	27864.00
904.78	27740.00
905.51	27553.00
906.24	27123.00
906.96	26934.00
907.69	26623.00
908.42	26457.00
909.15	26373.00
909.88	26188.00
910.60	26003.00
911.33	25924.00
912.06	25999.00
912.79	25912.00
913.52	25836.00
914.24	25732.00
914.97	25559.00
915.70	25373.00
916.42	25213.00
917.15	25104.00
917.88	24853.00
918.61	24678.00
919.33	24433.00
920.06	24333.00
920.79	24205.00
921.51	24090.00
922.24	23895.00
922.97	23775.00
923.69	23603.00
924.42	23460.00
925.15	23251.00
925.87	22975.00
926.60	22715.00
927.33	22466.00
928.05	22183.00
928.78	22063.00
929.51	21883.00
930.23	21588.00
930.96	21308.00
931.68	21088.00
932.41	20862.00
933.14	20592.00
933.86	20252.00
934.59	19902.00
935.31	19498.00
936.04	18973.00
936.76	18550.00
937.49	18096.00
938.21	17598.00
938.94	17145.00
939.66	16728.00
940.39	16308.00
941.11	15963.00
941.84	15718.00
942.56	15564.00
943.29	15506.00
944.01	15315.00
944.74	15310.00
945.46	15352.00
946.19	15330.00
946.91	15403.00
947.64	15427.00
948.36	15510.00
949.09	15551.00
949.81	15519.00
950.53	15613.00
951.26	15651.00
951.98	15704.00
952.71	15699.00
953.43	15716.00
954.15	15863.00
954.88	15879.00
955.60	15943.00
956.33	15892.00
957.05	15881.00
957.77	15898.00
958.50	15903.00
959.22	15934.00
959.94	15867.00
960.67	15747.00
961.39	15666.00
962.11	15716.00
962.84	15727.00
963.56	15637.00
964.28	15609.00
965.00	15441.00
965.73	15289.00
966.45	15139.00
967.17	15094.00
967.89	14936.00
968.62	14843.00
969.34	14633.00
970.06	14567.00
970.78	14540.00
971.51	14473.00
972.23	14405.00
972.95	14247.00
973.67	14165.00
974.40	14072.00
975.12	13958.00
975.84	13783.00
976.56	13653.00
977.28	13499.00
978.00	13457.00
978.73	13387.00
979.45	13288.00
980.17	13239.00
980.89	13189.00
981.61	13160.00
982.33	13126.00
983.05	13077.00
983.77	12967.00
984.50	12917.00
985.22	12881.00
985.94	12886.00
986.66	12873.00
987.38	12778.00
988.10	12732.00
988.82	12704.00
989.54	12630.00
990.26	12551.00
990.98	12435.00
991.70	12343.00
992.42	12170.00
993.14	12059.00
993.86	11954.00
994.58	11841.00
995.30	11688.00
996.02	11595.00
996.74	11499.00
997.46	11469.00
998.18	11377.00
998.90	11297.00
999.62	11180.00
1000.34	11084.00
1001.06	11079.00
1001.78	11000.00
1002.50	10864.00
1003.22	10715.00
1003.94	10585.00
1004.66	10474.00
1005.38	10368.00
1006.09	10246.00
1006.81	10075.00
1007.53	9950.00
1008.25	9862.00
1008.97	9710.00
1009.69	9625.00
1010.41	9544.00
1011.13	9479.00
1011.84	9380.00
1012.56	9289.00
1013.28	9219.00
1014.00	9153.00
1014.72	9057.00
1015.44	8981.00
1016.15	8821.00
1016.87	8695.00
1017.59	8569.00
1018.31	8493.00
1019.03	8419.00
1019.74	8337.00
1020.46	8271.00
1021.18	8165.00
1021.90	8120.00
1022.61	8045.00
1023.33	7966.00
1024.05	7863.00
1024.76	7779.00
1025.48	7672.00
1026.20	7562.00
1026.92	7446.00
1027.63	7359.00
1028.35	7261.00
1029.07	7200.00
1029.78	7116.00
1030.50	6994.00
1031.22	6904.00
1031.93	6834.00
1032.65	6747.00
1033.37	6677.00
1034.08	6585.00
1034.80	6562.00
1035.52	6498.00
1036.23	6430.00
1036.95	6378.00
1037.66	6323.00
1038.38	6270.00
1039.10	6168.00
1039.81	6089.00
1040.53	6001.00
1041.24	5915.00
1041.96	5801.00
1042.67	5762.00
1043.39	5690.00
1044.10	5628.00
1044.82	5564.00
1045.54	5502.00
1046.25	5443.00
1046.97	5406.00
1047.68	5319.00
1048.40	5235.00
1049.11	5182.00
1049.83	5107.00
1050.54	5067.00
1051.26	4991.00
1051.97	4929.00
1052.68	4869.00
1053.40	4816.00
1054.11	4752.00
1054.83	4679.00
1055.54	4620.00
1056.26	4549.00
1056.97	4504.00
1057.69	4470.00
1058.40	4415.00
1059.11	4358.00
1059.83	4285.00
1060.54	4237.00
1061.25	4175.00
1061.97	4110.00
1062.68	4045.00
1063.40	3983.00
1064.11	3922.00
1064.82	3866.00
1065.54	3794.00
1066.25	2578.00
1066.96	2559.00
1067.68	2579.00
1068.39	2561.00
1069.10	2621.00
1069.82	2622.00
1070.53	2604.00
1071.24	2629.00
1071.95	2608.00
1072.67	2622.00
1073.38	3729.00
1074.09	3670.00
1074.80	3606.00
1075.52	3553.00
1076.23	3504.00
1076.94	3450.00
1077.65	2233.00
1078.37	2230.00
1079.08	2231.00
1079.79	2245.00
