300.47	2582.00
301.26	2579.00
302.04	2595.00
302.82	2595.00
303.60	2595.00
304.38	2588.00
305.17	2585.00
305.95	2588.00
306.73	2602.00
307.51	2597.00
308.29	2588.00
309.08	2580.00
309.86	2587.00
310.64	2593.00
311.42	2596.00
312.20	2595.00
312.98	2579.00
313.76	2592.00
314.55	2597.00
315.33	2592.00
316.11	2580.00
316.89	2596.00
317.67	2605.00
318.45	2598.00
319.23	2594.00
320.01	2585.00
320.79	2596.00
321.57	2610.00
322.35	2598.00
323.13	2604.00
323.91	2591.00
324.69	2594.00
325.47	2604.00
326.25	2602.00
327.03	2598.00
327.81	2586.00
328.59	2597.00
329.37	2603.00
330.15	2599.00
330.93	2600.00
331.71	2591.00
332.49	2595.00
333.27	2602.00
334.05	2607.00
334.83	2607.00
335.61	2591.00
336.39	2596.00
337.17	2605.00
337.95	2607.00
338.73	2606.00
339.51	2597.00
340.29	2595.00
341.07	2603.00
341.84	2609.00
342.62	2614.00
343.40	2609.00
344.18	2602.00
344.96	2612.00
345.74	2626.00
346.52	2624.00
347.29	2615.00
348.07	2608.00
348.85	2617.00
349.63	2628.00
350.41	2631.00
351.18	2629.00
351.96	2621.00
352.74	2628.00
353.52	2637.00
354.30	2648.00
355.07	2652.00
355.85	2637.00
356.63	2644.00
357.41	2650.00
358.18	2663.00
358.96	2660.00
359.74	2656.00
360.52	2666.00
361.29	2679.00
362.07	2680.00
362.85	2676.00
363.62	2677.00
364.40	2696.00
365.18	2699.00
365.95	2708.00
366.73	2705.00
367.51	2703.00
368.28	2718.00
369.06	2729.00
369.84	2738.00
370.61	2741.00
371.39	2729.00
372.17	2749.00
372.94	2764.00
373.72	2767.00
374.49	2785.00
375.27	2774.00
376.05	2785.00
376.82	2814.00
377.60	2821.00
378.37	2825.00
379.15	2832.00
379.92	2839.00
380.70	2860.00
381.47	2871.00
382.25	2884.00
383.02	2889.00
383.80	2894.00
384.58	2920.00
385.35	2943.00
386.13	2953.00
386.90	2959.00
387.67	2967.00
388.45	2987.00
389.22	3015.00
390.00	3021.00
390.77	3020.00
391.55	3051.00
392.32	3073.00
393.10	3095.00
393.87	3108.00
394.65	3109.00
395.42	3137.00
396.19	3157.00
396.97	3171.00
397.74	3188.00
398.52	3189.00
399.29	3227.00
400.06	3242.00
400.84	3266.00
401.61	3290.00
402.38	3292.00
403.16	3325.00
403.93	3343.00
404.70	3364.00
405.48	3389.00
406.25	3392.00
407.02	3427.00
407.80	3445.00
408.57	3473.00
409.34	3484.00
410.12	3497.00
410.89	3517.00
411.66	3546.00
412.43	3581.00
413.21	3613.00
413.98	3617.00
414.75	3634.00
415.52	3653.00
416.30	3693.00
417.07	3724.00
417.84	3741.00
418.61	3744.00
419.39	3801.00
420.16	3816.00
420.93	3832.00
421.70	3869.00
422.47	3883.00
423.24	3913.00
424.02	3953.00
424.79	3993.00
425.56	4031.00
426.33	4038.00
427.10	4060.00
427.87	4114.00
428.64	4137.00
429.42	4183.00
430.19	4201.00
430.96	4245.00
431.73	4277.00
432.50	4312.00
433.27	4348.00
434.04	4380.00
434.81	4441.00
435.58	4472.00
436.35	4525.00
437.12	4550.00
437.89	4604.00
438.67	4646.00
439.44	4676.00
440.21	4728.00
440.98	4781.00
441.75	4802.00
442.52	4858.00
443.29	4930.00
444.06	4972.00
444.83	5042.00
445.60	5070.00
446.37	5134.00
447.13	5185.00
447.90	5245.00
448.67	5298.00
449.44	5335.00
450.21	5406.00
450.98	5451.00
451.75	5529.00
452.52	5574.00
453.29	5640.00
454.06	5703.00
454.83	5784.00
455.60	5848.00
456.37	5904.00
457.13	5946.00
457.90	6046.00
458.67	6105.00
459.44	6187.00
460.21	6243.00
460.98	6307.00
461.75	6381.00
462.51	6468.00
463.28	6565.00
464.05	6647.00
464.82	6697.00
465.59	6775.00
466.35	6877.00
467.12	6970.00
467.89	7047.00
468.66	7111.00
469.43	7184.00
470.19	7269.00
470.96	7342.00
471.73	7469.00
472.50	7550.00
473.26	7648.00
474.03	7749.00
474.80	7846.00
475.56	7923.00
476.33	8005.00
477.10	8108.00
477.87	8205.00
478.63	8306.00
479.40	8429.00
480.17	8516.00
480.93	8598.00
481.70	8687.00
482.47	8809.00
483.23	8925.00
484.00	9036.00
484.76	9138.00
485.53	9231.00
486.30	9353.00
487.06	9496.00
487.83	9574.00
488.60	9691.00
489.36	9774.00
490.13	9862.00
490.89	10059.00
491.66	10123.00
492.42	10251.00
493.19	10362.00
493.96	10456.00
494.72	10625.00
495.49	10725.00
496.25	10870.00
497.02	10990.00
497.78	11044.00
498.55	11180.00
499.31	11320.00
500.08	11436.00
500.84	11574.00
501.61	11683.00
502.37	11828.00
503.14	11942.00
503.90	12098.00
504.67	12186.00
505.43	12371.00
506.20	12508.00
506.96	12658.00
507.72	12814.00
508.49	12901.00
509.25	13064.00
510.02	13224.00
510.78	13366.00
511.54	13442.00
512.31	13644.00
513.07	13748.00
513.84	13912.00
514.60	14061.00
515.36	14178.00
516.13	14333.00
516.89	14471.00
517.65	14518.00
518.42	14670.00
519.18	14819.00
519.94	14934.00
520.71	15068.00
521.47	15205.00
522.23	15414.00
523.00	15507.00
523.76	15697.00
524.52	15902.00
525.28	16036.00
526.05	16184.00
526.81	16360.00
527.57	16531.00
528.33	16621.00
529.10	16769.00
529.86	16983.00
530.62	17130.00
531.38	17230.00
532.15	17417.00
532.91	17548.00
533.67	17732.00
534.43	17858.00
535.19	18028.00
535.96	18116.00
536.72	18320.00
537.48	18508.00
538.24	18602.00
539.00	18793.00
539.76	18957.00
540.53	19146.00
541.29	19299.00
542.05	19492.00
542.81	19583.00
543.57	19839.00
544.33	19981.00
545.09	20156.00
545.85	20300.00
546.61	20467.00
547.38	20623.00
548.14	20833.00
548.90	20982.00
549.66	21188.00
550.42	21341.00
551.18	21537.00
551.94	21629.00
552.70	21766.00
553.46	21942.00
554.22	22085.00
554.98	22229.00
555.74	22363.00
556.50	22474.00
557.26	22661.00
558.02	22856.00
558.78	23057.00
559.54	23226.00
560.30	23364.00
561.06	23571.00
561.82	23803.00
562.58	24108.00
563.34	24217.00
564.10	24369.00
564.86	24547.00
565.61	24621.00
566.37	24770.00
567.13	25000.00
567.89	25217.00
568.65	25384.00
569.41	25525.00
570.17	25698.00
570.93	25934.00
571.69	26148.00
572.44	26332.00
573.20	26477.00
573.96	26579.00
574.72	26761.00
575.48	26928.00
576.24	27010.00
576.99	27132.00
577.75	27270.00
578.51	27538.00
579.27	27687.00
580.03	27856.00
580.78	28082.00
581.54	28279.00
582.30	28399.00
583.06	28610.00
583.82	28721.00
584.57	28874.00
585.33	28983.00
586.09	29211.00
586.84	29289.00
587.60	29350.00
588.36	29502.00
589.12	29653.00
589.87	29961.00
590.63	30063.00
591.39	30222.00
592.14	30335.00
592.90	30492.00
593.66	30704.00
594.41	30924.00
595.17	31092.00
595.93	31131.00
596.68	31244.00
597.44	31485.00
598.20	31603.00
598.95	31863.00
599.71	32034.00
600.46	32187.00
601.22	32296.00
601.98	32455.00
602.73	32784.00
603.49	33050.00
604.24	33124.00
605.00	33418.00
605.76	33499.00
606.51	33667.00
607.27	33848.00
608.02	33968.00
608.78	34164.00
609.53	34396.00
610.29	34553.00
611.04	34693.00
611.80	34878.00
612.55	35037.00
613.31	35271.00
614.06	35471.00
614.82	35636.00
615.57	35822.00
616.33	35915.00
617.08	35985.00
617.84	36080.00
618.59	36162.00
619.35	36194.00
620.10	36227.00
620.85	36214.00
621.61	36118.00
622.36	36299.00
623.12	36308.00
623.87	36402.00
624.62	36548.00
625.38	36740.00
626.13	36847.00
626.89	37000.00
627.64	37185.00
628.39	37232.00
629.15	37313.00
629.90	37276.00
630.65	37312.00
631.41	37263.00
632.16	37171.00
632.91	37193.00
633.67	37176.00
634.42	37336.00
635.17	37536.00
635.92	37915.00
636.68	38318.00
637.43	38690.00
638.18	39152.00
638.94	39531.00
639.69	39923.00
640.44	40204.00
641.19	40557.00
641.95	40941.00
642.70	41121.00
643.45	41366.00
644.20	41524.00
644.95	41642.00
645.71	41764.00
646.46	41777.00
647.21	42034.00
647.96	42003.00
648.71	42156.00
649.47	42345.00
650.22	42426.00
650.97	42673.00
651.72	42786.00
652.47	42862.00
653.22	42917.00
653.97	43109.00
654.73	43235.00
655.48	43200.00
656.23	43393.00
656.98	43633.00
657.73	43754.00
658.48	43805.00
659.23	43945.00
659.98	43997.00
660.73	44034.00
661.48	44166.00
662.23	44269.00
662.99	44210.00
663.74	44186.00
664.49	44337.00
665.24	44712.00
665.99	44966.00
666.74	45157.00
667.49	45147.00
668.24	45232.00
668.99	45332.00
669.74	45456.00
670.49	45663.00
671.24	45809.00
671.99	46095.00
672.74	46156.00
673.48	46135.00
674.23	46178.00
674.98	46264.00
675.73	46247.00
676.48	46405.00
677.23	46523.00
677.98	46481.00
678.73	46608.00
679.48	46676.00
680.23	46778.00
680.98	46733.00
681.73	46725.00
682.47	46727.00
683.22	46808.00
683.97	46818.00
684.72	46965.00
685.47	46806.00
686.22	46978.00
686.97	47088.00
687.71	47210.00
688.46	47210.00
689.21	47115.00
689.96	47113.00
690.71	47152.00
691.45	47198.00
692.20	47304.00
692.95	47312.00
693.70	47296.00
694.44	47490.00
695.19	47629.00
695.94	47714.00
696.69	47741.00
697.43	47849.00
698.18	47904.00
698.93	47940.00
699.68	47900.00
700.42	47916.00
701.17	47916.00
701.92	47841.00
702.66	47901.00
703.41	47861.00
704.16	47899.00
704.90	47834.00
705.65	47914.00
706.40	47947.00
707.14	47873.00
707.89	47911.00
708.64	47954.00
709.38	47996.00
710.13	47990.00
710.88	47974.00
711.62	47956.00
712.37	47930.00
713.11	47890.00
713.86	47900.00
714.61	47883.00
715.35	47872.00
716.10	47791.00
716.84	47755.00
717.59	47698.00
718.33	47706.00
719.08	47694.00
719.83	47753.00
720.57	47618.00
721.32	47544.00
722.06	47311.00
722.81	47258.00
723.55	47123.00
724.30	47018.00
725.04	46982.00
725.79	46730.00
726.53	46749.00
727.28	46772.00
728.02	46718.00
728.76	46881.00
729.51	46901.00
730.25	46954.00
731.00	46849.00
731.74	46860.00
732.49	46787.00
733.23	46499.00
733.97	46489.00
734.72	46401.00
735.46	46280.00
736.21	46172.00
736.95	46109.00
737.69	46198.00
738.44	46414.00
739.18	46583.00
739.92	46686.00
740.67	46773.00
741.41	46980.00
742.15	47228.00
742.90	47217.00
743.64	47417.00
744.38	47334.00
745.13	47253.00
745.87	47172.00
746.61	47123.00
747.36	47044.00
748.10	46847.00
748.84	46630.00
749.58	46487.00
750.33	46446.00
751.07	46304.00
751.81	46189.00
752.55	46121.00
753.30	45894.00
754.04	45818.00
754.78	45749.00
755.52	45638.00
756.27	45472.00
757.01	45444.00
757.75	45412.00
758.49	45534.00
759.23	45469.00
759.97	45390.00
760.72	45284.00
761.46	45248.00
762.20	45285.00
762.94	45333.00
763.68	45201.00
764.42	44989.00
765.16	44916.00
765.91	44863.00
766.65	44867.00
767.39	44775.00
768.13	44737.00
768.87	44662.00
769.61	44555.00
770.35	44453.00
771.09	44250.00
771.83	44087.00
772.57	44067.00
773.31	43934.00
774.05	44119.00
774.80	44200.00
775.54	44109.00
776.28	43948.00
777.02	43804.00
777.76	43716.00
778.50	43535.00
779.24	43282.00
779.98	43054.00
780.72	42730.00
781.46	42625.00
782.20	42519.00
782.93	42583.00
783.67	42594.00
784.41	42441.00
785.15	42249.00
785.89	42155.00
786.63	42068.00
787.37	41947.00
788.11	41878.00
788.85	41919.00
789.59	41825.00
790.33	41898.00
791.07	41890.00
791.81	41762.00
792.54	41625.00
793.28	41310.00
794.02	41005.00
794.76	40664.00
795.50	40345.00
796.24	40003.00
796.97	39764.00
797.71	39361.00
798.45	39268.00
799.19	39192.00
799.93	39087.00
800.67	39006.00
801.40	38958.00
802.14	39047.00
802.88	39171.00
803.62	39162.00
804.35	39082.00
805.09	38936.00
805.83	38708.00
806.57	38646.00
807.30	38547.00
808.04	38593.00
808.78	38405.00
809.52	37944.00
810.25	37689.00
810.99	37565.00
811.73	37487.00
812.46	37281.00
813.20	37180.00
813.94	37101.00
814.68	37045.00
815.41	36912.00
816.15	36980.00
816.88	36983.00
817.62	36697.00
818.36	36420.00
819.09	36193.00
819.83	36049.00
820.57	35908.00
821.30	35897.00
822.04	35773.00
822.77	35444.00
823.51	35386.00
824.25	35424.00
824.98	35472.00
825.72	35421.00
826.45	35431.00
827.19	35317.00
827.92	35064.00
828.66	34856.00
829.40	34672.00
830.13	34589.00
830.87	34386.00
831.60	34375.00
832.34	34196.00
833.07	34131.00
833.81	34121.00
834.54	34197.00
835.28	34078.00
836.01	34111.00
836.75	33882.00
837.48	33698.00
838.22	33479.00
838.95	33443.00
839.68	33248.00
840.42	33228.00
841.15	33098.00
841.89	33043.00
842.62	32760.00
843.36	32573.00
844.09	32320.00
844.82	32212.00
845.56	32154.00
846.29	31819.00
847.02	31587.00
847.76	31400.00
848.49	31329.00
849.23	31308.00
849.96	31478.00
850.69	31508.00
851.43	31392.00
852.16	31173.00
852.89	31027.00
853.63	30951.00
854.36	30900.00
855.09	31012.00
855.82	30925.00
856.56	30749.00
857.29	30471.00
858.02	30215.00
858.76	30085.00
859.49	30011.00
860.22	29929.00
860.95	29849.00
861.69	29612.00
862.42	29470.00
863.15	29489.00
863.88	29352.00
864.61	29484.00
865.35	29441.00
866.08	29263.00
866.81	29084.00
867.54	28749.00
868.27	28645.00
869.01	28506.00
869.74	28558.00
870.47	28430.00
871.20	28349.00
871.93	28231.00
872.66	28115.00
873.40	27956.00
874.13	27802.00
874.86	27649.00
875.59	27598.00
876.32	27566.00
877.05	27366.00
877.78	27155.00
878.51	26816.00
879.24	26583.00
879.97	26409.00
880.71	26172.00
881.44	25958.00
882.17	25921.00
882.90	25812.00
883.63	25806.00
884.36	25886.00
885.09	25970.00
885.82	26022.00
886.55	25994.00
887.28	26119.00
888.01	25972.00
888.74	25831.00
889.47	25581.00
890.20	25273.00
890.93	24943.00
891.66	24769.00
892.39	24641.00
893.12	24596.00
893.85	24550.00
894.57	24377.00
895.30	24190.00
896.03	23944.00
896.76	23864.00
897.49	23698.00
898.22	23552.00
898.95	23532.00
899.68	23561.00
900.41	23495.00
901.14	23494.00
901.86	23506.00
902.59	23345.00
903.32	23369.00
904.05	23285.00
904.78	23075.00
905.51	22868.00
906.24	22602.00
906.96	22253.00
907.69	22105.00
908.42	21935.00
909.15	21781.00
909.88	21629.00
910.60	21436.00
911.33	21435.00
912.06	21416.00
912.79	21390.00
913.52	21293.00
914.24	21182.00
914.97	21009.00
915.70	20825.00
916.42	20680.00
917.15	20492.00
917.88	20354.00
918.61	20066.00
919.33	19941.00
920.06	19757.00
920.79	19613.00
921.51	19639.00
922.24	19471.00
922.97	19350.00
923.69	19179.00
924.42	19031.00
925.15	18816.00
925.87	18616.00
926.60	18331.00
927.33	18069.00
928.05	17814.00
928.78	17672.00
929.51	17466.00
930.23	17237.00
930.96	16979.00
931.68	16734.00
932.41	16486.00
933.14	16255.00
933.86	16005.00
934.59	15655.00
935.31	15275.00
936.04	14818.00
936.76	14464.00
937.49	14031.00
938.21	13675.00
938.94	13290.00
939.66	12919.00
940.39	12648.00
941.11	12343.00
941.84	12126.00
942.56	11987.00
943.29	11845.00
944.01	11766.00
944.74	11723.00
945.46	11750.00
946.19	11760.00
946.91	11787.00
947.64	11781.00
948.36	11837.00
949.09	11870.00
949.81	11869.00
950.53	11897.00
951.26	11930.00
951.98	11921.00
952.71	11899.00
953.43	11943.00
954.15	12007.00
954.88	12066.00
955.60	12066.00
956.33	12022.00
957.05	12039.00
957.77	12032.00
958.50	11988.00
959.22	12013.00
959.94	12003.00
960.67	11890.00
961.39	11852.00
962.11	11859.00
962.84	11824.00
963.56	11805.00
964.28	11669.00
965.00	11578.00
965.73	11462.00
966.45	11372.00
967.17	11300.00
967.89	11184.00
968.62	11038.00
969.34	10959.00
970.06	10840.00
970.78	10817.00
971.51	10804.00
972.23	10723.00
972.95	10633.00
973.67	10549.00
974.40	10447.00
975.12	10327.00
975.84	10228.00
976.56	10128.00
977.28	10049.00
978.00	9951.00
978.73	9922.00
979.45	9836.00
980.17	9818.00
980.89	9712.00
981.61	9714.00
982.33	9666.00
983.05	9595.00
983.77	9552.00
984.50	9509.00
985.22	9443.00
985.94	9456.00
986.66	9449.00
987.38	9361.00
988.10	9345.00
988.82	9330.00
989.54	9274.00
990.26	9173.00
990.98	9134.00
991.70	9017.00
992.42	8926.00
993.14	8832.00
993.86	8730.00
994.58	8650.00
995.30	8568.00
996.02	8472.00
996.74	8436.00
997.46	8399.00
998.18	8343.00
998.90	8255.00
999.62	8197.00
1000.34	8149.00
1001.06	8097.00
1001.78	8037.00
1002.50	7962.00
1003.22	7843.00
1003.94	7737.00
1004.66	7673.00
1005.38	7575.00
1006.09	7494.00
1006.81	7372.00
1007.53	7304.00
1008.25	7181.00
1008.97	7136.00
1009.69	7075.00
1010.41	7009.00
1011.13	6955.00
1011.84	6873.00
1012.56	6829.00
1013.28	6749.00
1014.00	6674.00
1014.72	6626.00
1015.44	6548.00
1016.15	6447.00
1016.87	6353.00
1017.59	6280.00
1018.31	6217.00
1019.03	6184.00
1019.74	6145.00
1020.46	6087.00
1021.18	6032.00
1021.90	5966.00
1022.61	5912.00
1023.33	5872.00
1024.05	5815.00
1024.76	5743.00
1025.48	5656.00
1026.20	5568.00
1026.92	5502.00
1027.63	5450.00
1028.35	5395.00
1029.07	5345.00
1029.78	5278.00
1030.50	5209.00
1031.22	5160.00
1031.93	5082.00
1032.65	5030.00
1033.37	4991.00
1034.08	4941.00
1034.80	4910.00
1035.52	4871.00
1036.23	4821.00
1036.95	4780.00
1037.66	4747.00
1038.38	4709.00
1039.10	4653.00
1039.81	4594.00
1040.53	4518.00
1041.24	4453.00
1041.96	4419.00
1042.67	4381.00
1043.39	4329.00
1044.10	4307.00
1044.82	4253.00
1045.54	4208.00
1046.25	4176.00
1046.97	4133.00
1047.68	4088.00
1048.40	4041.00
1049.11	3996.00
1049.83	3943.00
1050.54	3905.00
1051.26	3869.00
1051.97	3833.00
1052.68	3802.00
1053.40	3754.00
1054.11	3714.00
1054.83	3664.00
1055.54	3626.00
1056.26	3582.00
1056.97	3552.00
1057.69	3525.00
1058.40	3502.00
1059.11	3460.00
1059.83	3422.00
1060.54	3379.00
1061.25	3338.00
1061.97	3296.00
1062.68	3271.00
1063.40	3226.00
1064.11	3193.00
1064.82	3149.00
1065.54	3112.00
1066.25	2534.00
1066.96	2535.00
1067.68	2540.00
1068.39	2548.00
1069.10	2594.00
1069.82	2578.00
1070.53	2580.00
1071.24	2593.00
1071.95	2598.00
1072.67	2597.00
1073.38	3065.00
1074.09	3022.00
1074.80	2988.00
1075.52	2960.00
1076.23	2926.00
1076.94	2883.00
1077.65	2136.00
1078.37	2137.00
1079.08	2136.00
1079.79	2142.00
