300.47	2574.00
301.26	2565.00
302.04	2556.00
302.82	2563.00
303.60	2573.00
304.38	2567.00
305.17	2570.00
305.95	2557.00
306.73	2561.00
307.51	2572.00
308.29	2570.00
309.08	2574.00
309.86	2562.00
310.64	2563.00
311.42	2567.00
312.20	2569.00
312.98	2571.00
313.76	2554.00
314.55	2561.00
315.33	2566.00
316.11	2570.00
316.89	2567.00
317.67	2561.00
318.45	2554.00
319.23	2568.00
320.01	2571.00
320.79	2569.00
321.57	2559.00
322.35	2553.00
323.13	2561.00
323.91	2571.00
324.69	2566.00
325.47	2562.00
326.25	2552.00
327.03	2556.00
327.81	2567.00
328.59	2571.00
329.37	2566.00
330.15	2550.00
330.93	2557.00
331.71	2569.00
332.49	2568.00
333.27	2569.00
334.05	2553.00
334.83	2563.00
335.61	2571.00
336.39	2574.00
337.17	2565.00
337.95	2555.00
338.73	2565.00
339.51	2576.00
340.29	2574.00
341.07	2567.00
341.84	2559.00
342.62	2566.00
343.40	2572.00
344.18	2573.00
344.96	2578.00
345.74	2578.00
346.52	2583.00
347.29	2584.00
348.07	2587.00
348.85	2582.00
349.63	2591.00
350.41	2572.00
351.18	2587.00
351.96	2593.00
352.74	2603.00
353.52	2596.00
354.30	2593.00
355.07	2593.00
355.85	2605.00
356.63	2613.00
357.41	2616.00
358.18	2611.00
358.96	2608.00
359.74	2624.00
360.52	2635.00
361.29	2635.00
362.07	2627.00
362.85	2633.00
363.62	2644.00
364.40	2660.00
365.18	2661.00
365.95	2655.00
366.73	2658.00
367.51	2667.00
368.28	2680.00
369.06	2685.00
369.84	2689.00
370.61	2685.00
371.39	2695.00
372.17	2715.00
372.94	2725.00
373.72	2725.00
374.49	2724.00
375.27	2737.00
376.05	2744.00
376.82	2752.00
377.60	2769.00
378.37	2775.00
379.15	2793.00
379.92	2806.00
380.70	2818.00
381.47	2837.00
382.25	2836.00
383.02	2845.00
383.80	2860.00
384.58	2869.00
385.35	2890.00
386.13	2904.00
386.90	2908.00
387.67	2926.00
388.45	2933.00
389.22	2971.00
390.00	2978.00
390.77	2983.00
391.55	2985.00
392.32	3012.00
393.10	3036.00
393.87	3055.00
394.65	3066.00
395.42	3063.00
396.19	3084.00
396.97	3108.00
397.74	3127.00
398.52	3160.00
399.29	3158.00
400.06	3185.00
400.84	3205.00
401.61	3223.00
402.38	3240.00
403.16	3255.00
403.93	3275.00
404.70	3298.00
405.48	3324.00
406.25	3341.00
407.02	3364.00
407.80	3378.00
408.57	3410.00
409.34	3425.00
410.12	3436.00
410.89	3461.00
411.66	3465.00
412.43	3493.00
413.21	3520.00
413.98	3550.00
414.75	3582.00
415.52	3576.00
416.30	3621.00
417.07	3651.00
417.84	3675.00
418.61	3688.00
419.39	3697.00
420.16	3742.00
420.93	3778.00
421.70	3795.00
422.47	3810.00
423.24	3827.00
424.02	3861.00
424.79	3898.00
425.56	3930.00
426.33	3954.00
427.10	3989.00
427.87	4003.00
428.64	4045.00
429.42	4084.00
430.19	4098.00
430.96	4139.00
431.73	4185.00
432.50	4206.00
433.27	4234.00
434.04	4293.00
434.81	4313.00
435.58	4358.00
436.35	4393.00
437.12	4441.00
437.89	4472.00
438.67	4528.00
439.44	4573.00
440.21	4605.00
440.98	4679.00
441.75	4713.00
442.52	4745.00
443.29	4788.00
444.06	4841.00
444.83	4885.00
445.60	4949.00
446.37	5007.00
447.13	5028.00
447.90	5064.00
448.67	5127.00
449.44	5236.00
450.21	5260.00
450.98	5319.00
451.75	5341.00
452.52	5427.00
453.29	5497.00
454.06	5558.00
454.83	5624.00
455.60	5686.00
456.37	5741.00
457.13	5789.00
457.90	5855.00
458.67	5915.00
459.44	6009.00
460.21	6058.00
460.98	6125.00
461.75	6205.00
462.51	6272.00
463.28	6383.00
464.05	6413.00
464.82	6525.00
465.59	6565.00
466.35	6653.00
467.12	6711.00
467.89	6825.00
468.66	6890.00
469.43	6987.00
470.19	7035.00
470.96	7106.00
471.73	7243.00
472.50	7309.00
473.26	7385.00
474.03	7473.00
474.80	7587.00
475.56	7647.00
476.33	7744.00
477.10	7839.00
477.87	7931.00
478.63	8034.00
479.40	8104.00
480.17	8225.00
480.93	8306.00
481.70	8369.00
482.47	8509.00
483.23	8607.00
484.00	8713.00
484.76	8819.00
485.53	8949.00
486.30	9032.00
487.06	9109.00
487.83	9213.00
488.60	9374.00
489.36	9459.00
490.13	9529.00
490.89	9637.00
491.66	9767.00
492.42	9834.00
493.19	9984.00
493.96	10079.00
494.72	10220.00
495.49	10344.00
496.25	10427.00
497.02	10520.00
497.78	10674.00
498.55	10775.00
499.31	10873.00
500.08	11008.00
500.84	11120.00
501.61	11214.00
502.37	11335.00
503.14	11477.00
503.90	11628.00
504.67	11755.00
505.43	11883.00
506.20	12014.00
506.96	12158.00
507.72	12258.00
508.49	12394.00
509.25	12524.00
510.02	12659.00
510.78	12829.00
511.54	12949.00
512.31	13075.00
513.07	13199.00
513.84	13375.00
514.60	13470.00
515.36	13602.00
516.13	13732.00
516.89	13845.00
517.65	13913.00
518.42	14120.00
519.18	14158.00
519.94	14297.00
520.71	14451.00
521.47	14558.00
522.23	14723.00
523.00	14953.00
523.76	15031.00
524.52	15194.00
525.28	15373.00
526.05	15533.00
526.81	15704.00
527.57	15818.00
528.33	15936.00
529.10	16114.00
529.86	16208.00
530.62	16352.00
531.38	16504.00
532.15	16652.00
532.91	16780.00
533.67	16918.00
534.43	17100.00
535.19	17253.00
535.96	17426.00
536.72	17536.00
537.48	17624.00
538.24	17834.00
539.00	17951.00
539.76	18117.00
540.53	18307.00
541.29	18435.00
542.05	18610.00
542.81	18768.00
543.57	18918.00
544.33	19084.00
545.09	19245.00
545.85	19424.00
546.61	19566.00
547.38	19697.00
548.14	19852.00
548.90	20044.00
549.66	20193.00
550.42	20334.00
551.18	20550.00
551.94	20646.00
552.70	20779.00
553.46	20937.00
554.22	21112.00
554.98	21260.00
555.74	21318.00
556.50	21439.00
557.26	21654.00
558.02	21816.00
558.78	22082.00
559.54	22196.00
560.30	22301.00
561.06	22466.00
561.82	22737.00
562.58	22862.00
563.34	23041.00
564.10	23201.00
564.86	23316.00
565.61	23438.00
566.37	23694.00
567.13	23855.00
567.89	23978.00
568.65	24203.00
569.41	24317.00
570.17	24508.00
570.93	24663.00
571.69	24898.00
572.44	25047.00
573.20	25230.00
573.96	25331.00
574.72	25433.00
575.48	25551.00
576.24	25699.00
576.99	25818.00
577.75	25995.00
578.51	26142.00
579.27	26290.00
580.03	26512.00
580.78	26730.00
581.54	26925.00
582.30	27039.00
583.06	27167.00
583.82	27277.00
584.57	27510.00
585.33	27624.00
586.09	27772.00
586.84	27837.00
587.60	27916.00
588.36	28057.00
589.12	28249.00
589.87	28462.00
590.63	28624.00
591.39	28766.00
592.14	28829.00
592.90	29025.00
593.66	29185.00
594.41	29368.00
595.17	29519.00
595.93	29580.00
596.68	29685.00
597.44	29858.00
598.20	29999.00
598.95	30279.00
599.71	30411.00
600.46	30548.00
601.22	30612.00
601.98	30897.00
602.73	31110.00
603.49	31323.00
604.24	31473.00
605.00	31648.00
605.76	31778.00
606.51	31923.00
607.27	32060.00
608.02	32271.00
608.78	32366.00
609.53	32678.00
610.29	32742.00
611.04	32913.00
611.80	33097.00
612.55	33255.00
613.31	33438.00
614.06	33699.00
614.82	33779.00
615.57	33977.00
616.33	34001.00
617.08	34146.00
617.84	34256.00
618.59	34281.00
619.35	34285.00
620.10	34334.00
620.85	34241.00
621.61	34317.00
622.36	34419.00
623.12	34467.00
623.87	34517.00
624.62	34718.00
625.38	34852.00
626.13	34861.00
626.89	35037.00
627.64	35197.00
628.39	35218.00
629.15	35250.00
629.90	35232.00
630.65	35280.00
631.41	35278.00
632.16	35232.00
632.91	35182.00
633.67	35181.00
634.42	35282.00
635.17	35484.00
635.92	35802.00
636.68	36214.00
637.43	36685.00
638.18	36962.00
638.94	37407.00
639.69	37800.00
640.44	38074.00
641.19	38474.00
641.95	38725.00
642.70	38972.00
643.45	39208.00
644.20	39353.00
644.95	39513.00
645.71	39576.00
646.46	39661.00
647.21	39741.00
647.96	39846.00
648.71	39898.00
649.47	40104.00
650.22	40291.00
650.97	40340.00
651.72	40515.00
652.47	40619.00
653.22	40619.00
653.97	40818.00
654.73	40810.00
655.48	40949.00
656.23	41068.00
656.98	41216.00
657.73	41352.00
658.48	41450.00
659.23	41593.00
659.98	41558.00
660.73	41625.00
661.48	41839.00
662.23	41910.00
662.99	41932.00
663.74	41854.00
664.49	41963.00
665.24	42261.00
665.99	42457.00
666.74	42656.00
667.49	42748.00
668.24	42804.00
668.99	42851.00
669.74	42995.00
670.49	43190.00
671.24	43410.00
671.99	43660.00
672.74	43703.00
673.48	43650.00
674.23	43683.00
674.98	43616.00
675.73	43714.00
676.48	43970.00
677.23	43965.00
677.98	43979.00
678.73	43941.00
679.48	44027.00
680.23	44082.00
680.98	44107.00
681.73	44214.00
682.47	44180.00
683.22	44102.00
683.97	44163.00
684.72	44276.00
685.47	44279.00
686.22	44347.00
686.97	44491.00
687.71	44546.00
688.46	44590.00
689.21	44520.00
689.96	44503.00
690.71	44450.00
691.45	44498.00
692.20	44503.00
692.95	44489.00
693.70	44654.00
694.44	44719.00
695.19	44940.00
695.94	44899.00
696.69	45078.00
697.43	45081.00
698.18	45162.00
698.93	45150.00
699.68	45143.00
700.42	45092.00
701.17	45032.00
701.92	45162.00
702.66	45102.00
703.41	45170.00
704.16	45070.00
704.90	45055.00
705.65	45082.00
706.40	45050.00
707.14	45051.00
707.89	45154.00
708.64	45075.00
709.38	45120.00
710.13	45106.00
710.88	45103.00
711.62	45057.00
712.37	44997.00
713.11	44998.00
713.86	44979.00
714.61	44984.00
715.35	44994.00
716.10	44843.00
716.84	44791.00
717.59	44758.00
718.33	44752.00
719.08	44722.00
719.83	44834.00
720.57	44756.00
721.32	44550.00
722.06	44437.00
722.81	44252.00
723.55	44065.00
724.30	44043.00
725.04	43937.00
725.79	43826.00
726.53	43751.00
727.28	43681.00
728.02	43716.00
728.76	43855.00
729.51	43936.00
730.25	43886.00
731.00	43940.00
731.74	43855.00
732.49	43795.00
733.23	43572.00
733.97	43447.00
734.72	43316.00
735.46	43148.00
736.21	43101.00
736.95	43014.00
737.69	43203.00
738.44	43356.00
739.18	43459.00
739.92	43608.00
740.67	43683.00
741.41	43951.00
742.15	44064.00
742.90	44147.00
743.64	44243.00
744.38	44236.00
745.13	44091.00
745.87	44033.00
746.61	43978.00
747.36	43860.00
748.10	43727.00
748.84	43469.00
749.58	43279.00
750.33	43221.00
751.07	43156.00
751.81	42984.00
752.55	42774.00
753.30	42690.00
754.04	42596.00
754.78	42514.00
755.52	42465.00
756.27	42225.00
757.01	42160.00
757.75	42102.00
758.49	42305.00
759.23	42270.00
759.97	42157.00
760.72	42047.00
761.46	42028.00
762.20	41973.00
762.94	42039.00
763.68	41956.00
764.42	41762.00
765.16	41636.00
765.91	41619.00
766.65	41643.00
767.39	41463.00
768.13	41488.00
768.87	41341.00
769.61	41199.00
770.35	41081.00
771.09	40949.00
771.83	40812.00
772.57	40623.00
773.31	40728.00
774.05	40849.00
774.80	40807.00
775.54	40835.00
776.28	40627.00
777.02	40533.00
777.76	40365.00
778.50	40118.00
779.24	39922.00
779.98	39718.00
780.72	39429.00
781.46	39372.00
782.20	39235.00
782.93	39213.00
783.67	39174.00
784.41	39073.00
785.15	38941.00
785.89	38716.00
786.63	38677.00
787.37	38640.00
788.11	38530.00
788.85	38412.00
789.59	38484.00
790.33	38466.00
791.07	38436.00
791.81	38360.00
792.54	38098.00
793.28	37880.00
794.02	37582.00
794.76	37193.00
795.50	36914.00
796.24	36618.00
796.97	36308.00
797.71	36005.00
798.45	35898.00
799.19	35747.00
799.93	35700.00
800.67	35538.00
801.40	35469.00
802.14	35624.00
802.88	35660.00
803.62	35686.00
804.35	35551.00
805.09	35458.00
805.83	35307.00
806.57	35232.00
807.30	35141.00
808.04	35043.00
808.78	34885.00
809.52	34463.00
810.25	34254.00
810.99	34093.00
811.73	33978.00
812.46	33840.00
813.20	33772.00
813.94	33635.00
814.68	33551.00
815.41	33475.00
816.15	33545.00
816.88	33413.00
817.62	33198.00
818.36	33017.00
819.09	32726.00
819.83	32570.00
820.57	32462.00
821.30	32307.00
822.04	32197.00
822.77	31979.00
823.51	31883.00
824.25	31934.00
824.98	31977.00
825.72	31963.00
826.45	31891.00
827.19	31819.00
827.92	31576.00
828.66	31464.00
829.40	31190.00
830.13	31163.00
830.87	30986.00
831.60	30893.00
832.34	30693.00
833.07	30601.00
833.81	30641.00
834.54	30600.00
835.28	30598.00
836.01	30617.00
836.75	30391.00
837.48	30194.00
838.22	30025.00
838.95	29911.00
839.68	29799.00
840.42	29828.00
841.15	29680.00
841.89	29482.00
842.62	29237.00
843.36	29025.00
844.09	28821.00
844.82	28784.00
845.56	28632.00
846.29	28325.00
847.02	28115.00
847.76	27932.00
848.49	27799.00
849.23	27904.00
849.96	27992.00
850.69	28074.00
851.43	27965.00
852.16	27732.00
852.89	27582.00
853.63	27502.00
854.36	27500.00
855.09	27456.00
855.82	27427.00
856.56	27216.00
857.29	26991.00
858.02	26766.00
858.76	26701.00
859.49	26537.00
860.22	26499.00
860.95	26434.00
861.69	26178.00
862.42	26058.00
863.15	26027.00
863.88	25984.00
864.61	25919.00
865.35	26030.00
866.08	25887.00
866.81	25634.00
867.54	25279.00
868.27	25196.00
869.01	25077.00
869.74	25096.00
870.47	25044.00
871.20	24914.00
871.93	24786.00
872.66	24704.00
873.40	24526.00
874.13	24404.00
874.86	24300.00
875.59	24280.00
876.32	24132.00
877.05	24053.00
877.78	23831.00
878.51	23606.00
879.24	23287.00
879.97	23104.00
880.71	22905.00
881.44	22752.00
882.17	22708.00
882.90	22598.00
883.63	22534.00
884.36	22605.00
885.09	22692.00
885.82	22738.00
886.55	22779.00
887.28	22739.00
888.01	22616.00
888.74	22573.00
889.47	22263.00
890.20	22019.00
890.93	21692.00
891.66	21546.00
892.39	21488.00
893.12	21413.00
893.85	21319.00
894.57	21173.00
895.30	20969.00
896.03	20833.00
896.76	20689.00
897.49	20571.00
898.22	20480.00
898.95	20424.00
899.68	20408.00
900.41	20412.00
901.14	20378.00
901.86	20352.00
902.59	20321.00
903.32	20276.00
904.05	20197.00
904.78	20052.00
905.51	19821.00
906.24	19538.00
906.96	19321.00
907.69	19038.00
908.42	18937.00
909.15	18794.00
909.88	18679.00
910.60	18567.00
911.33	18469.00
912.06	18476.00
912.79	18413.00
913.52	18361.00
914.24	18226.00
914.97	18179.00
915.70	17961.00
916.42	17861.00
917.15	17673.00
917.88	17482.00
918.61	17343.00
919.33	17128.00
920.06	16999.00
920.79	16896.00
921.51	16800.00
922.24	16740.00
922.97	16616.00
923.69	16468.00
924.42	16339.00
925.15	16185.00
925.87	15961.00
926.60	15691.00
927.33	15515.00
928.05	15290.00
928.78	15129.00
929.51	14935.00
930.23	14775.00
930.96	14545.00
931.68	14296.00
932.41	14137.00
933.14	13920.00
933.86	13633.00
934.59	13360.00
935.31	13092.00
936.04	12736.00
936.76	12400.00
937.49	12042.00
938.21	11683.00
938.94	11355.00
939.66	11115.00
940.39	10815.00
941.11	10575.00
941.84	10422.00
942.56	10264.00
943.29	10189.00
944.01	10112.00
944.74	10078.00
945.46	10082.00
946.19	10103.00
946.91	10147.00
947.64	10156.00
948.36	10175.00
949.09	10192.00
949.81	10206.00
950.53	10260.00
951.26	10276.00
951.98	10239.00
952.71	10255.00
953.43	10272.00
954.15	10323.00
954.88	10385.00
955.60	10394.00
956.33	10370.00
957.05	10353.00
957.77	10350.00
958.50	10358.00
959.22	10365.00
959.94	10329.00
960.67	10276.00
961.39	10199.00
962.11	10227.00
962.84	10206.00
963.56	10143.00
964.28	10078.00
965.00	9993.00
965.73	9877.00
966.45	9816.00
967.17	9776.00
967.89	9667.00
968.62	9545.00
969.34	9477.00
970.06	9374.00
970.78	9384.00
971.51	9325.00
972.23	9262.00
972.95	9199.00
973.67	9117.00
974.40	9028.00
975.12	8959.00
975.84	8890.00
976.56	8814.00
977.28	8709.00
978.00	8667.00
978.73	8616.00
979.45	8565.00
980.17	8505.00
980.89	8487.00
981.61	8460.00
982.33	8413.00
983.05	8378.00
983.77	8335.00
984.50	8279.00
985.22	8255.00
985.94	8230.00
986.66	8204.00
987.38	8182.00
988.10	8157.00
988.82	8139.00
989.54	8066.00
990.26	8021.00
990.98	7961.00
991.70	7861.00
992.42	7804.00
993.14	7756.00
993.86	7649.00
994.58	7578.00
995.30	7510.00
996.02	7463.00
996.74	7421.00
997.46	7358.00
998.18	7332.00
998.90	7257.00
999.62	7226.00
1000.34	7152.00
1001.06	7130.00
1001.78	7069.00
1002.50	7010.00
1003.22	6921.00
1003.94	6831.00
1004.66	6768.00
1005.38	6707.00
1006.09	6612.00
1006.81	6530.00
1007.53	6458.00
1008.25	6380.00
1008.97	6301.00
1009.69	6286.00
1010.41	6214.00
1011.13	6171.00
1011.84	6110.00
1012.56	6036.00
1013.28	5983.00
1014.00	5953.00
1014.72	5898.00
1015.44	5856.00
1016.15	5768.00
1016.87	5684.00
1017.59	5620.00
1018.31	5557.00
1019.03	5544.00
1019.74	5512.00
1020.46	5476.00
1021.18	5418.00
1021.90	5356.00
1022.61	5324.00
1023.33	5271.00
1024.05	5227.00
1024.76	5162.00
1025.48	5093.00
1026.20	5027.00
1026.92	4966.00
1027.63	4911.00
1028.35	4872.00
1029.07	4829.00
1029.78	4792.00
1030.50	4725.00
1031.22	4675.00
1031.93	4609.00
1032.65	4567.00
1033.37	4538.00
1034.08	4498.00
1034.80	4465.00
1035.52	4443.00
1036.23	4390.00
1036.95	4363.00
1037.66	4330.00
1038.38	4303.00
1039.10	4252.00
1039.81	4190.00
1040.53	4152.00
1041.24	4103.00
1041.96	4066.00
1042.67	4021.00
1043.39	3988.00
1044.10	3954.00
1044.82	3919.00
1045.54	3882.00
1046.25	3841.00
1046.97	3808.00
1047.68	3782.00
1048.40	3737.00
1049.11	3695.00
1049.83	3659.00
1050.54	3608.00
1051.26	3588.00
1051.97	3556.00
1052.68	3530.00
1053.40	3503.00
1054.11	3457.00
1054.83	3421.00
1055.54	3384.00
1056.26	3356.00
1056.97	3321.00
1057.69	3311.00
1058.40	3271.00
1059.11	3241.00
1059.83	3217.00
1060.54	3186.00
1061.25	3142.00
1061.97	3109.00
1062.68	3080.00
1063.40	3050.00
1064.11	3019.00
1064.82	2984.00
1065.54	2946.00
1066.25	2533.00
1066.96	2523.00
1067.68	2517.00
1068.39	2511.00
1069.10	2570.00
1069.82	2574.00
1070.53	2571.00
1071.24	2567.00
1071.95	2563.00
1072.67	2578.00
1073.38	2906.00
1074.09	2871.00
1074.80	2843.00
1075.52	2813.00
1076.23	2786.00
1076.94	2759.00
1077.65	2109.00
1078.37	2109.00
1079.08	2111.00
1079.79	2116.00
