300.47	2616.00
301.26	2619.00
302.04	2606.00
302.82	2627.00
303.60	2613.00
304.38	2615.00
305.17	2623.00
305.95	2606.00
306.73	2619.00
307.51	2620.00
308.29	2602.00
309.08	2621.00
309.86	2606.00
310.64	2614.00
311.42	2617.00
312.20	2604.00
312.98	2621.00
313.76	2617.00
314.55	2602.00
315.33	2622.00
316.11	2612.00
316.89	2605.00
317.67	2620.00
318.45	2606.00
319.23	2620.00
320.01	2618.00
320.79	2603.00
321.57	2627.00
322.35	2615.00
323.13	2605.00
323.91	2622.00
324.69	2611.00
325.47	2605.00
326.25	2621.00
327.03	2609.00
327.81	2612.00
328.59	2617.00
329.37	2602.00
330.15	2624.00
330.93	2616.00
331.71	2598.00
332.49	2621.00
333.27	2614.00
334.05	2613.00
334.83	2618.00
335.61	2613.00
336.39	2619.00
337.17	2627.00
337.95	2605.00
338.73	2629.00
339.51	2624.00
340.29	2608.00
341.07	2633.00
341.84	2622.00
342.62	2617.00
343.40	2629.00
344.18	2619.00
344.96	2634.00
345.74	2628.00
346.52	2616.00
347.29	2642.00
348.07	2637.00
348.85	2621.00
349.63	2646.00
350.41	2637.00
351.18	2637.00
351.96	2646.00
352.74	2645.00
353.52	2654.00
354.30	2655.00
355.07	2641.00
355.85	2667.00
356.63	2664.00
357.41	2655.00
358.18	2675.00
358.96	2669.00
359.74	2674.00
360.52	2685.00
361.29	2681.00
362.07	2697.00
362.85	2706.00
363.62	2690.00
364.40	2719.00
365.18	2711.00
365.95	2701.00
366.73	2734.00
367.51	2732.00
368.28	2737.00
369.06	2746.00
369.84	2737.00
370.61	2762.00
371.39	2763.00
372.17	2752.00
372.94	2791.00
373.72	2785.00
374.49	2785.00
375.27	2811.00
376.05	2815.00
376.82	2815.00
377.60	2838.00
378.37	2838.00
379.15	2859.00
379.92	2865.00
380.70	2857.00
381.47	2904.00
382.25	2911.00
383.02	2899.00
383.80	2940.00
384.58	2933.00
385.35	2952.00
386.13	2969.00
386.90	2972.00
387.67	3005.00
388.45	3010.00
389.22	3018.00
390.00	3050.00
390.77	3059.00
391.55	3057.00
392.32	3098.00
393.10	3100.00
393.87	3112.00
394.65	3146.00
395.42	3153.00
396.19	3188.00
396.97	3206.00
397.74	3208.00
398.52	3220.00
399.29	3243.00
400.06	3279.00
400.84	3283.00
401.61	3300.00
402.38	3327.00
403.16	3337.00
403.93	3382.00
404.70	3398.00
405.48	3411.00
406.25	3430.00
407.02	3459.00
407.80	3477.00
408.57	3497.00
409.34	3507.00
410.12	3548.00
410.89	3563.00
411.66	3573.00
412.43	3602.00
413.21	3632.00
413.98	3653.00
414.75	3669.00
415.52	3697.00
416.30	3728.00
417.07	3762.00
417.84	3781.00
418.61	3796.00
419.39	3825.00
420.16	3846.00
420.93	3881.00
421.70	3921.00
422.47	3940.00
423.24	3951.00
424.02	3992.00
424.79	4025.00
425.56	4061.00
426.33	4071.00
427.10	4126.00
427.87	4175.00
428.64	4183.00
429.42	4219.00
430.19	4237.00
430.96	4318.00
431.73	4335.00
432.50	4361.00
433.27	4389.00
434.04	4450.00
434.81	4488.00
435.58	4540.00
436.35	4580.00
437.12	4595.00
437.89	4652.00
438.67	4708.00
439.44	4730.00
440.21	4819.00
440.98	4854.00
441.75	4878.00
442.52	4942.00
443.29	4964.00
444.06	5031.00
444.83	5095.00
445.60	5150.00
446.37	5204.00
447.13	5270.00
447.90	5282.00
448.67	5385.00
449.44	5423.00
450.21	5468.00
450.98	5540.00
451.75	5586.00
452.52	5650.00
453.29	5736.00
454.06	5780.00
454.83	5871.00
455.60	5943.00
456.37	5956.00
457.13	6089.00
457.90	6164.00
458.67	6223.00
459.44	6257.00
460.21	6343.00
460.98	6411.00
461.75	6525.00
462.51	6588.00
463.28	6665.00
464.05	6765.00
464.82	6851.00
465.59	6913.00
466.35	6953.00
467.12	7079.00
467.89	7159.00
468.66	7252.00
469.43	7318.00
470.19	7390.00
470.96	7502.00
471.73	7616.00
472.50	7696.00
473.26	7786.00
474.03	7897.00
474.80	8005.00
475.56	8066.00
476.33	8165.00
477.10	8242.00
477.87	8352.00
478.63	8469.00
479.40	8571.00
480.17	8665.00
480.93	8783.00
481.70	8853.00
482.47	8956.00
483.23	9075.00
484.00	9188.00
484.76	9312.00
485.53	9438.00
486.30	9530.00
487.06	9651.00
487.83	9753.00
488.60	9876.00
489.36	10009.00
490.13	10126.00
490.89	10207.00
491.66	10347.00
492.42	10469.00
493.19	10589.00
493.96	10687.00
494.72	10842.00
495.49	10939.00
496.25	11083.00
497.02	11185.00
497.78	11335.00
498.55	11459.00
499.31	11526.00
500.08	11733.00
500.84	11806.00
501.61	11930.00
502.37	12014.00
503.14	12198.00
503.90	12359.00
504.67	12461.00
505.43	12576.00
506.20	12775.00
506.96	12889.00
507.72	13044.00
508.49	13209.00
509.25	13309.00
510.02	13532.00
510.78	13596.00
511.54	13733.00
512.31	13908.00
513.07	14026.00
513.84	14197.00
514.60	14346.00
515.36	14486.00
516.13	14596.00
516.89	14716.00
517.65	14874.00
518.42	14984.00
519.18	15119.00
519.94	15265.00
520.71	15383.00
521.47	15536.00
522.23	15670.00
523.00	15856.00
523.76	16013.00
524.52	16187.00
525.28	16357.00
526.05	16514.00
526.81	16690.00
527.57	16831.00
528.33	17025.00
529.10	17094.00
529.86	17323.00
530.62	17507.00
531.38	17582.00
532.15	17803.00
532.91	17920.00
533.67	18074.00
534.43	18236.00
535.19	18375.00
535.96	18555.00
536.72	18701.00
537.48	18868.00
538.24	18952.00
539.00	19160.00
539.76	19345.00
540.53	19528.00
541.29	19707.00
542.05	19822.00
542.81	20022.00
543.57	20232.00
544.33	20365.00
545.09	20588.00
545.85	20763.00
546.61	20913.00
547.38	21030.00
548.14	21197.00
548.90	21411.00
549.66	21589.00
550.42	21811.00
551.18	21924.00
551.94	22065.00
552.70	22225.00
553.46	22345.00
554.22	22558.00
554.98	22632.00
555.74	22780.00
556.50	22977.00
557.26	23112.00
558.02	23291.00
558.78	23576.00
559.54	23629.00
560.30	23810.00
561.06	24057.00
561.82	24202.00
562.58	24482.00
563.34	24633.00
564.10	24772.00
564.86	24888.00
565.61	25051.00
566.37	25243.00
567.13	25474.00
567.89	25705.00
568.65	25834.00
569.41	26014.00
570.17	26251.00
570.93	26437.00
571.69	26572.00
572.44	26791.00
573.20	26998.00
573.96	27120.00
574.72	27187.00
575.48	27361.00
576.24	27429.00
576.99	27592.00
577.75	27731.00
578.51	27979.00
579.27	28196.00
580.03	28357.00
580.78	28600.00
581.54	28816.00
582.30	28938.00
583.06	29040.00
583.82	29142.00
584.57	29381.00
585.33	29490.00
586.09	29626.00
586.84	29746.00
587.60	29819.00
588.36	29984.00
589.12	30244.00
589.87	30359.00
590.63	30565.00
591.39	30678.00
592.14	30790.00
592.90	30960.00
593.66	31128.00
594.41	31363.00
595.17	31548.00
595.93	31657.00
596.68	31732.00
597.44	31904.00
598.20	32080.00
598.95	32317.00
599.71	32553.00
600.46	32653.00
601.22	32775.00
601.98	32986.00
602.73	33156.00
603.49	33472.00
604.24	33672.00
605.00	33891.00
605.76	34003.00
606.51	34115.00
607.27	34329.00
608.02	34452.00
608.78	34635.00
609.53	34894.00
610.29	35006.00
611.04	35176.00
611.80	35345.00
612.55	35506.00
613.31	35745.00
614.06	35976.00
614.82	36175.00
615.57	36293.00
616.33	36479.00
617.08	36461.00
617.84	36609.00
618.59	36728.00
619.35	36727.00
620.10	36786.00
620.85	36841.00
621.61	36802.00
622.36	36864.00
623.12	36935.00
623.87	37006.00
624.62	37144.00
625.38	37263.00
626.13	37426.00
626.89	37703.00
627.64	37685.00
628.39	37800.00
629.15	37833.00
629.90	37874.00
630.65	37947.00
631.41	37911.00
632.16	37740.00
632.91	37769.00
633.67	37873.00
634.42	37921.00
635.17	38198.00
635.92	38469.00
636.68	38965.00
637.43	39472.00
638.18	39853.00
638.94	40130.00
639.69	40589.00
640.44	40916.00
641.19	41307.00
641.95	41639.00
642.70	41863.00
643.45	41969.00
644.20	42204.00
644.95	42210.00
645.71	42393.00
646.46	42414.00
647.21	42593.00
647.96	42609.00
648.71	42826.00
649.47	43040.00
650.22	43125.00
650.97	43347.00
651.72	43550.00
652.47	43620.00
653.22	43657.00
653.97	43776.00
654.73	43784.00
655.48	43971.00
656.23	44053.00
656.98	44267.00
657.73	44315.00
658.48	44476.00
659.23	44575.00
659.98	44573.00
660.73	44743.00
661.48	44958.00
662.23	44975.00
662.99	44977.00
663.74	44991.00
664.49	45163.00
665.24	45512.00
665.99	45791.00
666.74	45904.00
667.49	45964.00
668.24	46137.00
668.99	46155.00
669.74	46405.00
670.49	46605.00
671.24	46802.00
671.99	46905.00
672.74	47129.00
673.48	47079.00
674.23	47046.00
674.98	47093.00
675.73	47108.00
676.48	47356.00
677.23	47470.00
677.98	47561.00
678.73	47510.00
679.48	47601.00
680.23	47644.00
680.98	47671.00
681.73	47755.00
682.47	47734.00
683.22	47742.00
683.97	47825.00
684.72	47893.00
685.47	47971.00
686.22	48064.00
686.97	48113.00
687.71	48209.00
688.46	48213.00
689.21	48289.00
689.96	48243.00
690.71	48237.00
691.45	48254.00
692.20	48240.00
692.95	48348.00
693.70	48528.00
694.44	48667.00
695.19	48781.00
695.94	48885.00
696.69	48873.00
697.43	48967.00
698.18	49084.00
698.93	49147.00
699.68	49260.00
700.42	49081.00
701.17	49007.00
701.92	49120.00
702.66	49117.00
703.41	49033.00
704.16	49091.00
704.90	49180.00
705.65	49287.00
706.40	49199.00
707.14	49355.00
707.89	49426.00
708.64	49409.00
709.38	49360.00
710.13	49484.00
710.88	49510.00
711.62	49458.00
712.37	49457.00
713.11	49351.00
713.86	49416.00
714.61	49393.00
715.35	49337.00
716.10	49278.00
716.84	49275.00
717.59	49255.00
718.33	49203.00
719.08	49264.00
719.83	49313.00
720.57	49267.00
721.32	49121.00
722.06	48945.00
722.81	48812.00
723.55	48712.00
724.30	48719.00
725.04	48519.00
725.79	48535.00
726.53	48422.00
727.28	48468.00
728.02	48547.00
728.76	48654.00
729.51	48723.00
730.25	48815.00
731.00	48669.00
731.74	48702.00
732.49	48650.00
733.23	48264.00
733.97	48264.00
734.72	48114.00
735.46	47972.00
736.21	48010.00
736.95	47932.00
737.69	47963.00
738.44	48200.00
739.18	48361.00
739.92	48664.00
740.67	48806.00
741.41	48964.00
742.15	49117.00
742.90	49226.00
743.64	49304.00
744.38	49372.00
745.13	49224.00
745.87	49179.00
746.61	49062.00
747.36	49082.00
748.10	48986.00
748.84	48699.00
749.58	48486.00
750.33	48494.00
751.07	48445.00
751.81	48355.00
752.55	48271.00
753.30	48124.00
754.04	48050.00
754.78	47923.00
755.52	47912.00
756.27	47849.00
757.01	47738.00
757.75	47885.00
758.49	47861.00
759.23	47878.00
759.97	47875.00
760.72	47711.00
761.46	47718.00
762.20	47863.00
762.94	47886.00
763.68	47815.00
764.42	47558.00
765.16	47563.00
765.91	47646.00
766.65	47446.00
767.39	47517.00
768.13	47476.00
768.87	47321.00
769.61	47262.00
770.35	47125.00
771.09	46968.00
771.83	46863.00
772.57	46750.00
773.31	46865.00
774.05	46911.00
774.80	46952.00
775.54	46951.00
776.28	46839.00
777.02	46730.00
777.76	46631.00
778.50	46410.00
779.24	46123.00
779.98	45902.00
780.72	45679.00
781.46	45490.00
782.20	45472.00
782.93	45507.00
783.67	45404.00
784.41	45237.00
785.15	45178.00
785.89	45021.00
786.63	44992.00
787.37	44962.00
788.11	44815.00
788.85	44793.00
789.59	44818.00
790.33	45001.00
791.07	45008.00
791.81	44897.00
792.54	44712.00
793.28	44418.00
794.02	44144.00
794.76	43871.00
795.50	43572.00
796.24	43210.00
796.97	42891.00
797.71	42663.00
798.45	42529.00
799.19	42341.00
799.93	42328.00
800.67	42276.00
801.40	42175.00
802.14	42328.00
802.88	42415.00
803.62	42475.00
804.35	42375.00
805.09	42257.00
805.83	42165.00
806.57	42013.00
807.30	42068.00
808.04	42045.00
808.78	41794.00
809.52	41474.00
810.25	41216.00
810.99	41041.00
811.73	40965.00
812.46	40844.00
813.20	40842.00
813.94	40677.00
814.68	40680.00
815.41	40589.00
816.15	40678.00
816.88	40666.00
817.62	40534.00
818.36	40200.00
819.09	39949.00
819.83	39801.00
820.57	39739.00
821.30	39662.00
822.04	39427.00
822.77	39278.00
823.51	39146.00
824.25	39183.00
824.98	39180.00
825.72	39225.00
826.45	39249.00
827.19	39060.00
827.92	38874.00
828.66	38647.00
829.40	38607.00
830.13	38475.00
830.87	38316.00
831.60	38276.00
832.34	38117.00
833.07	37979.00
833.81	38052.00
834.54	38049.00
835.28	38118.00
836.01	38090.00
836.75	37874.00
837.48	37741.00
838.22	37637.00
838.95	37548.00
839.68	37451.00
840.42	37358.00
841.15	37268.00
841.89	37172.00
842.62	36931.00
843.36	36673.00
844.09	36561.00
844.82	36506.00
845.56	36368.00
846.29	36140.00
847.02	35826.00
847.76	35657.00
848.49	35622.00
849.23	35658.00
849.96	35777.00
850.69	35874.00
851.43	35814.00
852.16	35577.00
852.89	35425.00
853.63	35320.00
854.36	35318.00
855.09	35449.00
855.82	35301.00
856.56	35168.00
857.29	34874.00
858.02	34702.00
858.76	34602.00
859.49	34507.00
860.22	34446.00
860.95	34346.00
861.69	34181.00
862.42	33969.00
863.15	33915.00
863.88	33886.00
864.61	33967.00
865.35	33965.00
866.08	33847.00
866.81	33539.00
867.54	33205.00
868.27	33083.00
869.01	33001.00
869.74	32988.00
870.47	33035.00
871.20	32982.00
871.93	32923.00
872.66	32794.00
873.40	32682.00
874.13	32555.00
874.86	32431.00
875.59	32297.00
876.32	32330.00
877.05	32183.00
877.78	31965.00
878.51	31730.00
879.24	31478.00
879.97	31277.00
880.71	31053.00
881.44	30879.00
882.17	30754.00
882.90	30587.00
883.63	30594.00
884.36	30632.00
885.09	30785.00
885.82	30966.00
886.55	30964.00
887.28	31132.00
888.01	31042.00
888.74	30920.00
889.47	30699.00
890.20	30398.00
890.93	29976.00
891.66	29732.00
892.39	29703.00
893.12	29534.00
893.85	29490.00
894.57	29371.00
895.30	29106.00
896.03	29069.00
896.76	28893.00
897.49	28744.00
898.22	28590.00
898.95	28538.00
899.68	28462.00
900.41	28389.00
901.14	28445.00
901.86	28485.00
902.59	28456.00
903.32	28365.00
904.05	28341.00
904.78	28252.00
905.51	28018.00
906.24	27716.00
906.96	27377.00
907.69	27183.00
908.42	26954.00
909.15	26844.00
909.88	26751.00
910.60	26557.00
911.33	26549.00
912.06	26588.00
912.79	26570.00
913.52	26372.00
914.24	26212.00
914.97	26096.00
915.70	25969.00
916.42	25766.00
917.15	25607.00
917.88	25388.00
918.61	25299.00
919.33	25095.00
920.06	24877.00
920.79	24732.00
921.51	24646.00
922.24	24568.00
922.97	24291.00
923.69	24202.00
924.42	24060.00
925.15	23891.00
925.87	23596.00
926.60	23311.00
927.33	23095.00
928.05	22802.00
928.78	22691.00
929.51	22396.00
930.23	22188.00
930.96	21935.00
931.68	21728.00
932.41	21435.00
933.14	21155.00
933.86	20885.00
934.59	20509.00
935.31	20110.00
936.04	19564.00
936.76	19081.00
937.49	18577.00
938.21	18134.00
938.94	17688.00
939.66	17288.00
940.39	16852.00
941.11	16530.00
941.84	16275.00
942.56	16088.00
943.29	15978.00
944.01	15893.00
944.74	15782.00
945.46	15841.00
946.19	15841.00
946.91	15906.00
947.64	15983.00
948.36	15998.00
949.09	16039.00
949.81	16076.00
950.53	16124.00
951.26	16209.00
951.98	16220.00
952.71	16201.00
953.43	16244.00
954.15	16332.00
954.88	16385.00
955.60	16417.00
956.33	16419.00
957.05	16385.00
957.77	16419.00
958.50	16401.00
959.22	16418.00
959.94	16400.00
960.67	16252.00
961.39	16233.00
962.11	16181.00
962.84	16198.00
963.56	16172.00
964.28	16072.00
965.00	15989.00
965.73	15777.00
966.45	15639.00
967.17	15602.00
967.89	15470.00
968.62	15291.00
969.34	15181.00
970.06	15011.00
970.78	14989.00
971.51	14971.00
972.23	14924.00
972.95	14752.00
973.67	14654.00
974.40	14529.00
975.12	14428.00
975.84	14301.00
976.56	14166.00
977.28	13993.00
978.00	13975.00
978.73	13842.00
979.45	13831.00
980.17	13769.00
980.89	13718.00
981.61	13662.00
982.33	13588.00
983.05	13540.00
983.77	13480.00
984.50	13442.00
985.22	13363.00
985.94	13387.00
986.66	13355.00
987.38	13287.00
988.10	13249.00
988.82	13255.00
989.54	13109.00
990.26	13037.00
990.98	12971.00
991.70	12805.00
992.42	12674.00
993.14	12551.00
993.86	12413.00
994.58	12299.00
995.30	12214.00
996.02	12070.00
996.74	12021.00
997.46	11961.00
998.18	11878.00
998.90	11811.00
999.62	11695.00
1000.34	11621.00
1001.06	11553.00
1001.78	11479.00
1002.50	11317.00
1003.22	11232.00
1003.94	11095.00
1004.66	11001.00
1005.38	10868.00
1006.09	10741.00
1006.81	10590.00
1007.53	10465.00
1008.25	10336.00
1008.97	10208.00
1009.69	10131.00
1010.41	10067.00
1011.13	9969.00
1011.84	9892.00
1012.56	9774.00
1013.28	9705.00
1014.00	9630.00
1014.72	9522.00
1015.44	9391.00
1016.15	9319.00
1016.87	9138.00
1017.59	9004.00
1018.31	8904.00
1019.03	8878.00
1019.74	8783.00
1020.46	8706.00
1021.18	8592.00
1021.90	8527.00
1022.61	8464.00
1023.33	8388.00
1024.05	8311.00
1024.76	8214.00
1025.48	8090.00
1026.20	7982.00
1026.92	7832.00
1027.63	7759.00
1028.35	7692.00
1029.07	7575.00
1029.78	7492.00
1030.50	7401.00
1031.22	7273.00
1031.93	7197.00
1032.65	7086.00
1033.37	7021.00
1034.08	6961.00
1034.80	6889.00
1035.52	6841.00
1036.23	6766.00
1036.95	6748.00
1037.66	6667.00
1038.38	6602.00
1039.10	6503.00
1039.81	6416.00
1040.53	6324.00
1041.24	6251.00
1041.96	6115.00
1042.67	6055.00
1043.39	5999.00
1044.10	5941.00
1044.82	5864.00
1045.54	5806.00
1046.25	5756.00
1046.97	5702.00
1047.68	5621.00
1048.40	5533.00
1049.11	5443.00
1049.83	5396.00
1050.54	5304.00
1051.26	5271.00
1051.97	5216.00
1052.68	5155.00
1053.40	5068.00
1054.11	5009.00
1054.83	4923.00
1055.54	4860.00
1056.26	4800.00
1056.97	4758.00
1057.69	4702.00
1058.40	4648.00
1059.11	4600.00
1059.83	4526.00
1060.54	4435.00
1061.25	4372.00
1061.97	4320.00
1062.68	4252.00
1063.40	4185.00
1064.11	4112.00
1064.82	4059.00
1065.54	3993.00
1066.25	2561.00
1066.96	2574.00
1067.68	2557.00
1068.39	2576.00
1069.10	2619.00
1069.82	2607.00
1070.53	2622.00
1071.24	2609.00
1071.95	2625.00
1072.67	2623.00
1073.38	3915.00
1074.09	3852.00
1074.80	3767.00
1075.52	3711.00
1076.23	3657.00
1076.94	3602.00
1077.65	2266.00
1078.37	2257.00
1079.08	2253.00
1079.79	2266.00
