300.47	2604.00
301.26	2618.00
302.04	2605.00
302.82	2612.00
303.60	2616.00
304.38	2603.00
305.17	2621.00
305.95	2614.00
306.73	2599.00
307.51	2618.00
308.29	2615.00
309.08	2605.00
309.86	2621.00
310.64	2606.00
311.42	2612.00
312.20	2613.00
312.98	2597.00
313.76	2621.00
314.55	2617.00
315.33	2596.00
316.11	2619.00
316.89	2611.00
317.67	2602.00
318.45	2613.00
319.23	2603.00
320.01	2612.00
320.79	2611.00
321.57	2595.00
322.35	2624.00
323.13	2610.00
323.91	2597.00
324.69	2617.00
325.47	2609.00
326.25	2606.00
327.03	2613.00
327.81	2601.00
328.59	2611.00
329.37	2614.00
330.15	2597.00
330.93	2619.00
331.71	2610.00
332.49	2597.00
333.27	2616.00
334.05	2607.00
334.83	2603.00
335.61	2615.00
336.39	2604.00
337.17	2615.00
337.95	2615.00
338.73	2599.00
339.51	2620.00
340.29	2620.00
341.07	2601.00
341.84	2627.00
342.62	2618.00
343.40	2610.00
344.18	2621.00
344.96	2614.00
345.74	2628.00
346.52	2627.00
347.29	2613.00
348.07	2635.00
348.85	2629.00
349.63	2621.00
350.41	2640.00
351.18	2642.00
351.96	2632.00
352.74	2645.00
353.52	2629.00
354.30	2652.00
355.07	2653.00
355.85	2637.00
356.63	2663.00
357.41	2665.00
358.18	2647.00
358.96	2673.00
359.74	2669.00
360.52	2673.00
361.29	2681.00
362.07	2668.00
362.85	2688.00
363.62	2696.00
364.40	2688.00
365.18	2696.00
365.95	2707.00
366.73	2718.00
367.51	2728.00
368.28	2713.00
369.06	2727.00
369.84	2740.00
370.61	2753.00
371.39	2761.00
372.17	2747.00
372.94	2767.00
373.72	2777.00
374.49	2792.00
375.27	2797.00
376.05	2798.00
376.82	2819.00
377.60	2832.00
378.37	2823.00
379.15	2852.00
379.92	2860.00
380.70	2849.00
381.47	2887.00
382.25	2898.00
383.02	2891.00
383.80	2914.00
384.58	2940.00
385.35	2946.00
386.13	2963.00
386.90	2956.00
387.67	2983.00
388.45	3017.00
389.22	3022.00
390.00	3032.00
390.77	3032.00
391.55	3065.00
392.32	3082.00
393.10	3097.00
393.87	3112.00
394.65	3122.00
395.42	3142.00
396.19	3161.00
396.97	3190.00
397.74	3206.00
398.52	3216.00
399.29	3240.00
400.06	3269.00
400.84	3280.00
401.61	3294.00
402.38	3307.00
403.16	3344.00
403.93	3374.00
404.70	3382.00
405.48	3390.00
406.25	3411.00
407.02	3438.00
407.80	3465.00
408.57	3479.00
409.34	3490.00
410.12	3520.00
410.89	3551.00
411.66	3575.00
412.43	3588.00
413.21	3602.00
413.98	3641.00
414.75	3667.00
415.52	3694.00
416.30	3709.00
417.07	3724.00
417.84	3760.00
418.61	3786.00
419.39	3806.00
420.16	3828.00
420.93	3873.00
421.70	3898.00
422.47	3916.00
423.24	3936.00
424.02	3990.00
424.79	4025.00
425.56	4050.00
426.33	4054.00
427.10	4099.00
427.87	4135.00
428.64	4176.00
429.42	4190.00
430.19	4225.00
430.96	4264.00
431.73	4334.00
432.50	4324.00
433.27	4414.00
434.04	4424.00
434.81	4439.00
435.58	4527.00
436.35	4550.00
437.12	4583.00
437.89	4656.00
438.67	4677.00
439.44	4732.00
440.21	4773.00
440.98	4808.00
441.75	4858.00
442.52	4916.00
443.29	4959.00
444.06	5004.00
444.83	5056.00
445.60	5119.00
446.37	5171.00
447.13	5242.00
447.90	5265.00
448.67	5336.00
449.44	5407.00
450.21	5439.00
450.98	5513.00
451.75	5529.00
452.52	5596.00
453.29	5689.00
454.06	5782.00
454.83	5812.00
455.60	5893.00
456.37	5931.00
457.13	6017.00
457.90	6104.00
458.67	6165.00
459.44	6232.00
460.21	6295.00
460.98	6367.00
461.75	6439.00
462.51	6547.00
463.28	6622.00
464.05	6744.00
464.82	6785.00
465.59	6851.00
466.35	6925.00
467.12	7027.00
467.89	7094.00
468.66	7193.00
469.43	7243.00
470.19	7340.00
470.96	7424.00
471.73	7560.00
472.50	7621.00
473.26	7711.00
474.03	7798.00
474.80	7899.00
475.56	8008.00
476.33	8099.00
477.10	8191.00
477.87	8252.00
478.63	8396.00
479.40	8481.00
480.17	8587.00
480.93	8713.00
481.70	8800.00
482.47	8883.00
483.23	8984.00
484.00	9113.00
484.76	9221.00
485.53	9325.00
486.30	9442.00
487.06	9535.00
487.83	9646.00
488.60	9767.00
489.36	9895.00
490.13	9991.00
490.89	10090.00
491.66	10213.00
492.42	10323.00
493.19	10446.00
493.96	10548.00
494.72	10697.00
495.49	10826.00
496.25	10957.00
497.02	11093.00
497.78	11182.00
498.55	11340.00
499.31	11416.00
500.08	11550.00
500.84	11637.00
501.61	11773.00
502.37	11908.00
503.14	12053.00
503.90	12119.00
504.67	12282.00
505.43	12460.00
506.20	12620.00
506.96	12705.00
507.72	12885.00
508.49	13024.00
509.25	13181.00
510.02	13292.00
510.78	13467.00
511.54	13583.00
512.31	13684.00
513.07	13881.00
513.84	14018.00
514.60	14149.00
515.36	14259.00
516.13	14421.00
516.89	14485.00
517.65	14648.00
518.42	14772.00
519.18	14895.00
519.94	15012.00
520.71	15174.00
521.47	15295.00
522.23	15480.00
523.00	15621.00
523.76	15766.00
524.52	15944.00
525.28	16144.00
526.05	16290.00
526.81	16458.00
527.57	16607.00
528.33	16719.00
529.10	16863.00
529.86	17054.00
530.62	17232.00
531.38	17314.00
532.15	17472.00
532.91	17652.00
533.67	17788.00
534.43	17952.00
535.19	18084.00
535.96	18249.00
536.72	18386.00
537.48	18521.00
538.24	18670.00
539.00	18879.00
539.76	19061.00
540.53	19238.00
541.29	19376.00
542.05	19523.00
542.81	19737.00
543.57	19934.00
544.33	20113.00
545.09	20271.00
545.85	20352.00
546.61	20560.00
547.38	20716.00
548.14	20860.00
548.90	21119.00
549.66	21185.00
550.42	21413.00
551.18	21519.00
551.94	21720.00
552.70	21856.00
553.46	22041.00
554.22	22143.00
554.98	22284.00
555.74	22402.00
556.50	22612.00
557.26	22822.00
558.02	22953.00
558.78	23165.00
559.54	23246.00
560.30	23436.00
561.06	23671.00
561.82	23796.00
562.58	24045.00
563.34	24227.00
564.10	24398.00
564.86	24476.00
565.61	24694.00
566.37	24860.00
567.13	25042.00
567.89	25273.00
568.65	25498.00
569.41	25580.00
570.17	25862.00
570.93	26007.00
571.69	26195.00
572.44	26358.00
573.20	26491.00
573.96	26659.00
574.72	26821.00
575.48	26895.00
576.24	27010.00
576.99	27187.00
577.75	27317.00
578.51	27500.00
579.27	27708.00
580.03	27884.00
580.78	28158.00
581.54	28318.00
582.30	28453.00
583.06	28593.00
583.82	28743.00
584.57	28872.00
585.33	29050.00
586.09	29212.00
586.84	29221.00
587.60	29349.00
588.36	29496.00
589.12	29708.00
589.87	29956.00
590.63	30039.00
591.39	30205.00
592.14	30324.00
592.90	30458.00
593.66	30698.00
594.41	30925.00
595.17	31112.00
595.93	31169.00
596.68	31323.00
597.44	31412.00
598.20	31656.00
598.95	31824.00
599.71	32024.00
600.46	32136.00
601.22	32323.00
601.98	32471.00
602.73	32673.00
603.49	32961.00
604.24	33124.00
605.00	33293.00
605.76	33469.00
606.51	33673.00
607.27	33819.00
608.02	33956.00
608.78	34175.00
609.53	34359.00
610.29	34522.00
611.04	34633.00
611.80	34866.00
612.55	35068.00
613.31	35249.00
614.06	35412.00
614.82	35605.00
615.57	35812.00
616.33	35909.00
617.08	35981.00
617.84	36032.00
618.59	36152.00
619.35	36213.00
620.10	36239.00
620.85	36342.00
621.61	36275.00
622.36	36359.00
623.12	36369.00
623.87	36509.00
624.62	36641.00
625.38	36867.00
626.13	36861.00
626.89	37041.00
627.64	37312.00
628.39	37262.00
629.15	37364.00
629.90	37311.00
630.65	37428.00
631.41	37339.00
632.16	37326.00
632.91	37262.00
633.67	37350.00
634.42	37489.00
635.17	37674.00
635.92	38007.00
636.68	38449.00
637.43	38938.00
638.18	39314.00
638.94	39735.00
639.69	40055.00
640.44	40418.00
641.19	40837.00
641.95	41042.00
642.70	41314.00
643.45	41451.00
644.20	41649.00
644.95	41814.00
645.71	41876.00
646.46	42026.00
647.21	42133.00
647.96	42064.00
648.71	42239.00
649.47	42539.00
650.22	42792.00
650.97	42851.00
651.72	42943.00
652.47	43080.00
653.22	43113.00
653.97	43229.00
654.73	43281.00
655.48	43356.00
656.23	43593.00
656.98	43868.00
657.73	43963.00
658.48	44016.00
659.23	44149.00
659.98	44157.00
660.73	44308.00
661.48	44494.00
662.23	44557.00
662.99	44508.00
663.74	44471.00
664.49	44614.00
665.24	45069.00
665.99	45358.00
666.74	45541.00
667.49	45514.00
668.24	45667.00
668.99	45728.00
669.74	45959.00
670.49	46135.00
671.24	46385.00
671.99	46561.00
672.74	46730.00
673.48	46751.00
674.23	46692.00
674.98	46666.00
675.73	46799.00
676.48	46943.00
677.23	47004.00
677.98	47145.00
678.73	47202.00
679.48	47222.00
680.23	47361.00
680.98	47305.00
681.73	47367.00
682.47	47537.00
683.22	47357.00
683.97	47575.00
684.72	47585.00
685.47	47583.00
686.22	47668.00
686.97	47776.00
687.71	47929.00
688.46	47971.00
689.21	47931.00
689.96	47928.00
690.71	47966.00
691.45	47935.00
692.20	48022.00
692.95	48023.00
693.70	48158.00
694.44	48415.00
695.19	48499.00
695.94	48517.00
696.69	48640.00
697.43	48849.00
698.18	48811.00
698.93	48899.00
699.68	48912.00
700.42	48826.00
701.17	48803.00
701.92	48705.00
702.66	48866.00
703.41	48878.00
704.16	48858.00
704.90	48880.00
705.65	48934.00
706.40	48963.00
707.14	49060.00
707.89	49107.00
708.64	49109.00
709.38	49125.00
710.13	49117.00
710.88	49205.00
711.62	49166.00
712.37	49137.00
713.11	49164.00
713.86	49015.00
714.61	49073.00
715.35	49021.00
716.10	49031.00
716.84	49001.00
717.59	48979.00
718.33	48914.00
719.08	48928.00
719.83	49021.00
720.57	48857.00
721.32	48882.00
722.06	48644.00
722.81	48488.00
723.55	48370.00
724.30	48336.00
725.04	48278.00
725.79	48188.00
726.53	48150.00
727.28	48076.00
728.02	48200.00
728.76	48268.00
729.51	48440.00
730.25	48417.00
731.00	48296.00
731.74	48245.00
732.49	48185.00
733.23	47966.00
733.97	47894.00
734.72	47633.00
735.46	47653.00
736.21	47517.00
736.95	47514.00
737.69	47621.00
738.44	47837.00
739.18	48007.00
739.92	48136.00
740.67	48388.00
741.41	48491.00
742.15	48705.00
742.90	48761.00
743.64	48826.00
744.38	48899.00
745.13	48782.00
745.87	48702.00
746.61	48713.00
747.36	48665.00
748.10	48407.00
748.84	48325.00
749.58	48064.00
750.33	47984.00
751.07	47899.00
751.81	47757.00
752.55	47625.00
753.30	47606.00
754.04	47475.00
754.78	47385.00
755.52	47408.00
756.27	47254.00
757.01	47212.00
757.75	47197.00
758.49	47305.00
759.23	47262.00
759.97	47237.00
760.72	47176.00
761.46	47173.00
762.20	47266.00
762.94	47245.00
763.68	47085.00
764.42	47033.00
765.16	47047.00
765.91	46970.00
766.65	46941.00
767.39	46774.00
768.13	46781.00
768.87	46752.00
769.61	46573.00
770.35	46490.00
771.09	46417.00
771.83	46205.00
772.57	46129.00
773.31	46124.00
774.05	46220.00
774.80	46289.00
775.54	46271.00
776.28	46185.00
777.02	46019.00
777.76	45890.00
778.50	45685.00
779.24	45429.00
779.98	45150.00
780.72	44963.00
781.46	44780.00
782.20	44693.00
782.93	44680.00
783.67	44735.00
784.41	44535.00
785.15	44392.00
785.89	44304.00
786.63	44171.00
787.37	44127.00
788.11	44014.00
788.85	43926.00
789.59	43984.00
790.33	44151.00
791.07	44227.00
791.81	44106.00
792.54	43875.00
793.28	43702.00
794.02	43353.00
794.76	43040.00
795.50	42771.00
796.24	42392.00
796.97	42054.00
797.71	41736.00
798.45	41635.00
799.19	41481.00
799.93	41522.00
800.67	41357.00
801.40	41354.00
802.14	41328.00
802.88	41532.00
803.62	41548.00
804.35	41496.00
805.09	41356.00
805.83	41266.00
806.57	41146.00
807.30	41056.00
808.04	41087.00
808.78	40836.00
809.52	40485.00
810.25	40226.00
810.99	40048.00
811.73	39953.00
812.46	39888.00
813.20	39823.00
813.94	39769.00
814.68	39557.00
815.41	39545.00
816.15	39641.00
816.88	39568.00
817.62	39372.00
818.36	39063.00
819.09	38836.00
819.83	38660.00
820.57	38580.00
821.30	38562.00
822.04	38409.00
822.77	38100.00
823.51	38024.00
824.25	38009.00
824.98	38025.00
825.72	38074.00
826.45	37972.00
827.19	37844.00
827.92	37751.00
828.66	37582.00
829.40	37504.00
830.13	37326.00
830.87	37159.00
831.60	37118.00
832.34	36932.00
833.07	36726.00
833.81	36834.00
834.54	36824.00
835.28	36877.00
836.01	36736.00
836.75	36594.00
837.48	36533.00
838.22	36387.00
838.95	36219.00
839.68	36194.00
840.42	36142.00
841.15	35949.00
841.89	35820.00
842.62	35595.00
843.36	35391.00
844.09	35214.00
844.82	35153.00
845.56	35013.00
846.29	34764.00
847.02	34349.00
847.76	34237.00
848.49	34221.00
849.23	34240.00
849.96	34380.00
850.69	34487.00
851.43	34417.00
852.16	34115.00
852.89	34085.00
853.63	33962.00
854.36	33925.00
855.09	33975.00
855.82	33870.00
856.56	33758.00
857.29	33449.00
858.02	33267.00
858.76	33172.00
859.49	33134.00
860.22	32997.00
860.95	32903.00
861.69	32737.00
862.42	32507.00
863.15	32415.00
863.88	32376.00
864.61	32448.00
865.35	32425.00
866.08	32296.00
866.81	32037.00
867.54	31794.00
868.27	31514.00
869.01	31506.00
869.74	31367.00
870.47	31362.00
871.20	31359.00
871.93	31313.00
872.66	31251.00
873.40	31070.00
874.13	30933.00
874.86	30786.00
875.59	30715.00
876.32	30680.00
877.05	30617.00
877.78	30377.00
878.51	30149.00
879.24	29891.00
879.97	29662.00
880.71	29493.00
881.44	29259.00
882.17	29137.00
882.90	29021.00
883.63	29009.00
884.36	29000.00
885.09	29244.00
885.82	29366.00
886.55	29342.00
887.28	29455.00
888.01	29308.00
888.74	29197.00
889.47	28991.00
890.20	28661.00
890.93	28320.00
891.66	28130.00
892.39	27942.00
893.12	27876.00
893.85	27794.00
894.57	27697.00
895.30	27435.00
896.03	27294.00
896.76	27106.00
897.49	27015.00
898.22	26975.00
898.95	26806.00
899.68	26829.00
900.41	26734.00
901.14	26724.00
901.86	26785.00
902.59	26686.00
903.32	26726.00
904.05	26623.00
904.78	26442.00
905.51	26197.00
906.24	25903.00
906.96	25632.00
907.69	25400.00
908.42	25226.00
909.15	25109.00
909.88	24941.00
910.60	24788.00
911.33	24757.00
912.06	24689.00
912.79	24540.00
913.52	24585.00
914.24	24373.00
914.97	24364.00
915.70	24086.00
916.42	23970.00
917.15	23783.00
917.88	23596.00
918.61	23408.00
919.33	23290.00
920.06	23033.00
920.79	22905.00
921.51	22821.00
922.24	22717.00
922.97	22533.00
923.69	22371.00
924.42	22173.00
925.15	21964.00
925.87	21718.00
926.60	21441.00
927.33	21215.00
928.05	20905.00
928.78	20739.00
929.51	20578.00
930.23	20357.00
930.96	20073.00
931.68	19784.00
932.41	19616.00
933.14	19320.00
933.86	19041.00
934.59	18675.00
935.31	18285.00
936.04	17813.00
936.76	17331.00
937.49	16888.00
938.21	16440.00
938.94	15993.00
939.66	15618.00
940.39	15221.00
941.11	14901.00
941.84	14625.00
942.56	14469.00
943.29	14375.00
944.01	14259.00
944.74	14264.00
945.46	14254.00
946.19	14286.00
946.91	14368.00
947.64	14351.00
948.36	14384.00
949.09	14383.00
949.81	14442.00
950.53	14462.00
951.26	14567.00
951.98	14534.00
952.71	14544.00
953.43	14611.00
954.15	14690.00
954.88	14704.00
955.60	14765.00
956.33	14720.00
957.05	14728.00
957.77	14742.00
958.50	14734.00
959.22	14739.00
959.94	14716.00
960.67	14614.00
961.39	14512.00
962.11	14520.00
962.84	14523.00
963.56	14525.00
964.28	14422.00
965.00	14311.00
965.73	14180.00
966.45	14017.00
967.17	13937.00
967.89	13761.00
968.62	13633.00
969.34	13536.00
970.06	13451.00
970.78	13395.00
971.51	13352.00
972.23	13255.00
972.95	13165.00
973.67	13036.00
974.40	12946.00
975.12	12839.00
975.84	12742.00
976.56	12615.00
977.28	12463.00
978.00	12397.00
978.73	12332.00
979.45	12244.00
980.17	12206.00
980.89	12173.00
981.61	12092.00
982.33	12033.00
983.05	12013.00
983.77	11966.00
984.50	11902.00
985.22	11872.00
985.94	11804.00
986.66	11811.00
987.38	11715.00
988.10	11732.00
988.82	11705.00
989.54	11588.00
990.26	11547.00
990.98	11436.00
991.70	11280.00
992.42	11170.00
993.14	11106.00
993.86	10974.00
994.58	10832.00
995.30	10693.00
996.02	10624.00
996.74	10575.00
997.46	10519.00
998.18	10411.00
998.90	10355.00
999.62	10282.00
1000.34	10199.00
1001.06	10124.00
1001.78	10017.00
1002.50	9966.00
1003.22	9834.00
1003.94	9723.00
1004.66	9615.00
1005.38	9468.00
1006.09	9403.00
1006.81	9245.00
1007.53	9145.00
1008.25	9016.00
1008.97	8919.00
1009.69	8823.00
1010.41	8752.00
1011.13	8670.00
1011.84	8592.00
1012.56	8532.00
1013.28	8442.00
1014.00	8386.00
1014.72	8304.00
1015.44	8211.00
1016.15	8107.00
1016.87	7937.00
1017.59	7835.00
1018.31	7759.00
1019.03	7700.00
1019.74	7666.00
1020.46	7588.00
1021.18	7517.00
1021.90	7441.00
1022.61	7382.00
1023.33	7291.00
1024.05	7244.00
1024.76	7165.00
1025.48	7041.00
1026.20	6940.00
1026.92	6822.00
1027.63	6766.00
1028.35	6705.00
1029.07	6624.00
1029.78	6561.00
1030.50	6443.00
1031.22	6337.00
1031.93	6265.00
1032.65	6195.00
1033.37	6125.00
1034.08	6079.00
1034.80	6052.00
1035.52	5974.00
1036.23	5930.00
1036.95	5889.00
1037.66	5830.00
1038.38	5770.00
1039.10	5678.00
1039.81	5607.00
1040.53	5532.00
1041.24	5469.00
1041.96	5382.00
1042.67	5298.00
1043.39	5283.00
1044.10	5217.00
1044.82	5151.00
1045.54	5110.00
1046.25	5044.00
1046.97	4998.00
1047.68	4956.00
1048.40	4878.00
1049.11	4824.00
1049.83	4752.00
1050.54	4692.00
1051.26	4632.00
1051.97	4598.00
1052.68	4556.00
1053.40	4487.00
1054.11	4417.00
1054.83	4374.00
1055.54	4313.00
1056.26	4251.00
1056.97	4228.00
1057.69	4174.00
1058.40	4124.00
1059.11	4099.00
1059.83	4035.00
1060.54	3966.00
1061.25	3910.00
1061.97	3848.00
1062.68	3796.00
1063.40	3755.00
1064.11	3692.00
1064.82	3641.00
1065.54	3584.00
1066.25	2577.00
1066.96	2563.00
1067.68	2565.00
1068.39	2566.00
1069.10	2599.00
1069.82	2623.00
1070.53	2619.00
1071.24	2605.00
1071.95	2620.00
1072.67	2615.00
1073.38	3529.00
1074.09	3482.00
1074.80	3424.00
1075.52	3363.00
1076.23	3323.00
1076.94	3267.00
1077.65	2209.00
1078.37	2205.00
1079.08	2199.00
1079.79	2208.00
