300.47	2593.00
301.26	2580.00
302.04	2581.00
302.82	2586.00
303.60	2589.00
304.38	2590.00
305.17	2581.00
305.95	2576.00
306.73	2586.00
307.51	2590.00
308.29	2587.00
309.08	2580.00
309.86	2572.00
310.64	2584.00
311.42	2594.00
312.20	2592.00
312.98	2583.00
313.76	2576.00
314.55	2586.00
315.33	2588.00
316.11	2588.00
316.89	2577.00
317.67	2576.00
318.45	2590.00
319.23	2589.00
320.01	2577.00
320.79	2584.00
321.57	2592.00
322.35	2591.00
323.13	2589.00
323.91	2577.00
324.69	2584.00
325.47	2588.00
326.25	2593.00
327.03	2591.00
327.81	2578.00
328.59	2583.00
329.37	2586.00
330.15	2595.00
330.93	2590.00
331.71	2581.00
332.49	2585.00
333.27	2585.00
334.05	2593.00
334.83	2589.00
335.61	2593.00
336.39	2577.00
337.17	2590.00
337.95	2602.00
338.73	2589.00
339.51	2593.00
340.29	2580.00
341.07	2589.00
341.84	2602.00
342.62	2597.00
343.40	2598.00
344.18	2589.00
344.96	2594.00
345.74	2606.00
346.52	2606.00
347.29	2606.00
348.07	2596.00
348.85	2605.00
349.63	2618.00
350.41	2621.00
351.18	2620.00
351.96	2606.00
352.74	2613.00
353.52	2630.00
354.30	2634.00
355.07	2638.00
355.85	2622.00
356.63	2629.00
357.41	2641.00
358.18	2642.00
358.96	2648.00
359.74	2639.00
360.52	2646.00
361.29	2663.00
362.07	2667.00
362.85	2667.00
363.62	2665.00
364.40	2677.00
365.18	2689.00
365.95	2690.00
366.73	2696.00
367.51	2689.00
368.28	2699.00
369.06	2715.00
369.84	2724.00
370.61	2729.00
371.39	2721.00
372.17	2740.00
372.94	2748.00
373.72	2765.00
374.49	2769.00
375.27	2762.00
376.05	2777.00
376.82	2793.00
377.60	2813.00
378.37	2813.00
379.15	2805.00
379.92	2828.00
380.70	2843.00
381.47	2865.00
382.25	2876.00
383.02	2873.00
383.80	2880.00
384.58	2911.00
385.35	2929.00
386.13	2938.00
386.90	2950.00
387.67	2952.00
388.45	2970.00
389.22	3004.00
390.00	3012.00
390.77	3031.00
391.55	3015.00
392.32	3047.00
393.10	3075.00
393.87	3103.00
394.65	3110.00
395.42	3104.00
396.19	3135.00
396.97	3157.00
397.74	3169.00
398.52	3204.00
399.29	3204.00
400.06	3217.00
400.84	3255.00
401.61	3269.00
402.38	3285.00
403.16	3289.00
403.93	3319.00
404.70	3349.00
405.48	3369.00
406.25	3397.00
407.02	3385.00
407.80	3420.00
408.57	3447.00
409.34	3463.00
410.12	3489.00
410.89	3500.00
411.66	3530.00
412.43	3561.00
413.21	3578.00
413.98	3610.00
414.75	3624.00
415.52	3649.00
416.30	3669.00
417.07	3699.00
417.84	3723.00
418.61	3751.00
419.39	3765.00
420.16	3796.00
420.93	3839.00
421.70	3847.00
422.47	3876.00
423.24	3881.00
424.02	3922.00
424.79	3963.00
425.56	3995.00
426.33	4024.00
427.10	4044.00
427.87	4072.00
428.64	4123.00
429.42	4167.00
430.19	4190.00
430.96	4205.00
431.73	4250.00
432.50	4289.00
433.27	4339.00
434.04	4366.00
434.81	4412.00
435.58	4423.00
436.35	4480.00
437.12	4527.00
437.89	4571.00
438.67	4617.00
439.44	4642.00
440.21	4685.00
440.98	4753.00
441.75	4785.00
442.52	4847.00
443.29	4858.00
444.06	4922.00
444.83	4986.00
445.60	5039.00
446.37	5089.00
447.13	5123.00
447.90	5187.00
448.67	5245.00
449.44	5326.00
450.21	5368.00
450.98	5404.00
451.75	5462.00
452.52	5540.00
453.29	5585.00
454.06	5669.00
454.83	5711.00
455.60	5767.00
456.37	5855.00
457.13	5942.00
457.90	5986.00
458.67	6058.00
459.44	6131.00
460.21	6181.00
460.98	6287.00
461.75	6331.00
462.51	6437.00
463.28	6519.00
464.05	6574.00
464.82	6662.00
465.59	6717.00
466.35	6811.00
467.12	6894.00
467.89	6987.00
468.66	7064.00
469.43	7147.00
470.19	7210.00
470.96	7318.00
471.73	7393.00
472.50	7474.00
473.26	7568.00
474.03	7672.00
474.80	7765.00
475.56	7848.00
476.33	7950.00
477.10	8049.00
477.87	8132.00
478.63	8222.00
479.40	8325.00
480.17	8439.00
480.93	8536.00
481.70	8619.00
482.47	8713.00
483.23	8800.00
484.00	8955.00
484.76	9041.00
485.53	9163.00
486.30	9270.00
487.06	9355.00
487.83	9503.00
488.60	9601.00
489.36	9724.00
490.13	9814.00
490.89	9941.00
491.66	10049.00
492.42	10165.00
493.19	10275.00
493.96	10375.00
494.72	10485.00
495.49	10592.00
496.25	10760.00
497.02	10868.00
497.78	10967.00
498.55	11105.00
499.31	11223.00
500.08	11329.00
500.84	11490.00
501.61	11584.00
502.37	11722.00
503.14	11882.00
503.90	11981.00
504.67	12115.00
505.43	12269.00
506.20	12383.00
506.96	12516.00
507.72	12689.00
508.49	12828.00
509.25	12973.00
510.02	13094.00
510.78	13246.00
511.54	13332.00
512.31	13507.00
513.07	13678.00
513.84	13810.00
514.60	13959.00
515.36	14081.00
516.13	14175.00
516.89	14312.00
517.65	14435.00
518.42	14570.00
519.18	14718.00
519.94	14843.00
520.71	14951.00
521.47	15128.00
522.23	15299.00
523.00	15426.00
523.76	15590.00
524.52	15780.00
525.28	15942.00
526.05	16138.00
526.81	16235.00
527.57	16370.00
528.33	16598.00
529.10	16685.00
529.86	16822.00
530.62	16956.00
531.38	17088.00
532.15	17277.00
532.91	17388.00
533.67	17596.00
534.43	17719.00
535.19	17922.00
535.96	18064.00
536.72	18192.00
537.48	18305.00
538.24	18511.00
539.00	18649.00
539.76	18849.00
540.53	19046.00
541.29	19177.00
542.05	19287.00
542.81	19422.00
543.57	19679.00
544.33	19843.00
545.09	20011.00
545.85	20193.00
546.61	20321.00
547.38	20465.00
548.14	20684.00
548.90	20845.00
549.66	21057.00
550.42	21201.00
551.18	21383.00
551.94	21511.00
552.70	21601.00
553.46	21777.00
554.22	22000.00
554.98	22100.00
555.74	22149.00
556.50	22351.00
557.26	22577.00
558.02	22759.00
558.78	22962.00
559.54	23018.00
560.30	23211.00
561.06	23399.00
561.82	23651.00
562.58	23852.00
563.34	24063.00
564.10	24152.00
564.86	24371.00
565.61	24456.00
566.37	24655.00
567.13	24933.00
567.89	25037.00
568.65	25190.00
569.41	25376.00
570.17	25608.00
570.93	25744.00
571.69	25986.00
572.44	26146.00
573.20	26288.00
573.96	26451.00
574.72	26592.00
575.48	26661.00
576.24	26843.00
576.99	27035.00
577.75	27128.00
578.51	27298.00
579.27	27555.00
580.03	27670.00
580.78	27881.00
581.54	28107.00
582.30	28209.00
583.06	28341.00
583.82	28521.00
584.57	28769.00
585.33	28887.00
586.09	28971.00
586.84	29081.00
587.60	29235.00
588.36	29361.00
589.12	29584.00
589.87	29791.00
590.63	29942.00
591.39	30075.00
592.14	30164.00
592.90	30358.00
593.66	30534.00
594.41	30767.00
595.17	30915.00
595.93	30960.00
596.68	31051.00
597.44	31279.00
598.20	31398.00
598.95	31682.00
599.71	31936.00
600.46	32011.00
601.22	32054.00
601.98	32364.00
602.73	32490.00
603.49	32759.00
604.24	33010.00
605.00	33086.00
605.76	33354.00
606.51	33474.00
607.27	33631.00
608.02	33761.00
608.78	33974.00
609.53	34209.00
610.29	34287.00
611.04	34570.00
611.80	34764.00
612.55	34815.00
613.31	35082.00
614.06	35220.00
614.82	35462.00
615.57	35579.00
616.33	35709.00
617.08	35806.00
617.84	35859.00
618.59	36008.00
619.35	35970.00
620.10	36048.00
620.85	36035.00
621.61	36040.00
622.36	36125.00
623.12	36075.00
623.87	36199.00
624.62	36376.00
625.38	36584.00
626.13	36668.00
626.89	36902.00
627.64	36869.00
628.39	37017.00
629.15	37095.00
629.90	37178.00
630.65	37107.00
631.41	37064.00
632.16	36937.00
632.91	36948.00
633.67	36978.00
634.42	37098.00
635.17	37361.00
635.92	37647.00
636.68	38077.00
637.43	38550.00
638.18	38880.00
638.94	39361.00
639.69	39747.00
640.44	39997.00
641.19	40400.00
641.95	40717.00
642.70	41037.00
643.45	41185.00
644.20	41368.00
644.95	41446.00
645.71	41548.00
646.46	41686.00
647.21	41684.00
647.96	41909.00
648.71	42019.00
649.47	42069.00
650.22	42298.00
650.97	42436.00
651.72	42505.00
652.47	42642.00
653.22	42783.00
653.97	42924.00
654.73	42959.00
655.48	42972.00
656.23	43173.00
656.98	43421.00
657.73	43516.00
658.48	43682.00
659.23	43686.00
659.98	43727.00
660.73	43779.00
661.48	44019.00
662.23	44161.00
662.99	43992.00
663.74	43966.00
664.49	44064.00
665.24	44458.00
665.99	44727.00
666.74	44897.00
667.49	44999.00
668.24	45056.00
668.99	45041.00
669.74	45216.00
670.49	45512.00
671.24	45709.00
671.99	45835.00
672.74	46006.00
673.48	46018.00
674.23	46001.00
674.98	45980.00
675.73	46082.00
676.48	46273.00
677.23	46279.00
677.98	46261.00
678.73	46358.00
679.48	46430.00
680.23	46510.00
680.98	46475.00
681.73	46589.00
682.47	46521.00
683.22	46535.00
683.97	46541.00
684.72	46715.00
685.47	46710.00
686.22	46846.00
686.97	46930.00
687.71	47006.00
688.46	46964.00
689.21	46996.00
689.96	47029.00
690.71	46914.00
691.45	46986.00
692.20	46991.00
692.95	47129.00
693.70	47190.00
694.44	47371.00
695.19	47440.00
695.94	47497.00
696.69	47553.00
697.43	47658.00
698.18	47608.00
698.93	47787.00
699.68	47797.00
700.42	47696.00
701.17	47667.00
701.92	47726.00
702.66	47774.00
703.41	47707.00
704.16	47730.00
704.90	47643.00
705.65	47666.00
706.40	47666.00
707.14	47730.00
707.89	47711.00
708.64	47763.00
709.38	47758.00
710.13	47715.00
710.88	47744.00
711.62	47758.00
712.37	47752.00
713.11	47684.00
713.86	47663.00
714.61	47640.00
715.35	47662.00
716.10	47552.00
716.84	47461.00
717.59	47538.00
718.33	47413.00
719.08	47554.00
719.83	47581.00
720.57	47429.00
721.32	47304.00
722.06	47197.00
722.81	47034.00
723.55	46899.00
724.30	46803.00
725.04	46778.00
725.79	46645.00
726.53	46547.00
727.28	46529.00
728.02	46516.00
728.76	46753.00
729.51	46758.00
730.25	46711.00
731.00	46716.00
731.74	46674.00
732.49	46599.00
733.23	46443.00
733.97	46291.00
734.72	46112.00
735.46	46071.00
736.21	46017.00
736.95	46020.00
737.69	46068.00
738.44	46213.00
739.18	46414.00
739.92	46498.00
740.67	46651.00
741.41	46899.00
742.15	46937.00
742.90	47139.00
743.64	47173.00
744.38	47112.00
745.13	47010.00
745.87	46944.00
746.61	46975.00
747.36	46815.00
748.10	46620.00
748.84	46576.00
749.58	46293.00
750.33	46175.00
751.07	46089.00
751.81	46017.00
752.55	45782.00
753.30	45726.00
754.04	45581.00
754.78	45604.00
755.52	45459.00
756.27	45358.00
757.01	45212.00
757.75	45254.00
758.49	45356.00
759.23	45307.00
759.97	45146.00
760.72	45209.00
761.46	44959.00
762.20	45061.00
762.94	45091.00
763.68	44940.00
764.42	44785.00
765.16	44705.00
765.91	44728.00
766.65	44676.00
767.39	44617.00
768.13	44610.00
768.87	44535.00
769.61	44380.00
770.35	44354.00
771.09	44105.00
771.83	43885.00
772.57	43811.00
773.31	43783.00
774.05	43960.00
774.80	44040.00
775.54	43957.00
776.28	43805.00
777.02	43756.00
777.76	43574.00
778.50	43343.00
779.24	43036.00
779.98	42864.00
780.72	42697.00
781.46	42494.00
782.20	42457.00
782.93	42475.00
783.67	42453.00
784.41	42298.00
785.15	42183.00
785.89	42022.00
786.63	41929.00
787.37	41863.00
788.11	41722.00
788.85	41632.00
789.59	41678.00
790.33	41822.00
791.07	41743.00
791.81	41604.00
792.54	41428.00
793.28	41150.00
794.02	40876.00
794.76	40607.00
795.50	40205.00
796.24	39924.00
796.97	39586.00
797.71	39243.00
798.45	39151.00
799.19	39027.00
799.93	38899.00
800.67	38893.00
801.40	38776.00
802.14	38929.00
802.88	39069.00
803.62	39024.00
804.35	39006.00
805.09	38754.00
805.83	38590.00
806.57	38488.00
807.30	38412.00
808.04	38411.00
808.78	38182.00
809.52	37796.00
810.25	37565.00
810.99	37446.00
811.73	37266.00
812.46	37140.00
813.20	37096.00
813.94	37071.00
814.68	36977.00
815.41	36830.00
816.15	36861.00
816.88	36874.00
817.62	36598.00
818.36	36336.00
819.09	36053.00
819.83	35873.00
820.57	35839.00
821.30	35753.00
822.04	35561.00
822.77	35337.00
823.51	35328.00
824.25	35327.00
824.98	35343.00
825.72	35339.00
826.45	35314.00
827.19	35234.00
827.92	34943.00
828.66	34729.00
829.40	34552.00
830.13	34495.00
830.87	34380.00
831.60	34209.00
832.34	34087.00
833.07	33980.00
833.81	34035.00
834.54	34013.00
835.28	33996.00
836.01	33883.00
836.75	33793.00
837.48	33611.00
838.22	33416.00
838.95	33284.00
839.68	33218.00
840.42	33128.00
841.15	33022.00
841.89	32879.00
842.62	32601.00
843.36	32454.00
844.09	32205.00
844.82	32108.00
845.56	32051.00
846.29	31758.00
847.02	31471.00
847.76	31257.00
848.49	31177.00
849.23	31209.00
849.96	31396.00
850.69	31443.00
851.43	31387.00
852.16	31130.00
852.89	30904.00
853.63	30825.00
854.36	30828.00
855.09	30899.00
855.82	30758.00
856.56	30610.00
857.29	30314.00
858.02	30234.00
858.76	29973.00
859.49	29860.00
860.22	29809.00
860.95	29749.00
861.69	29624.00
862.42	29459.00
863.15	29343.00
863.88	29223.00
864.61	29310.00
865.35	29352.00
866.08	29187.00
866.81	28952.00
867.54	28679.00
868.27	28535.00
869.01	28406.00
869.74	28411.00
870.47	28337.00
871.20	28239.00
871.93	28086.00
872.66	28077.00
873.40	27834.00
874.13	27732.00
874.86	27470.00
875.59	27512.00
876.32	27484.00
877.05	27301.00
877.78	27103.00
878.51	26797.00
879.24	26523.00
879.97	26291.00
880.71	26145.00
881.44	25896.00
882.17	25846.00
882.90	25801.00
883.63	25722.00
884.36	25828.00
885.09	25850.00
885.82	25901.00
886.55	26010.00
887.28	26041.00
888.01	25906.00
888.74	25749.00
889.47	25531.00
890.20	25228.00
890.93	24857.00
891.66	24637.00
892.39	24520.00
893.12	24510.00
893.85	24396.00
894.57	24319.00
895.30	24093.00
896.03	23951.00
896.76	23770.00
897.49	23674.00
898.22	23575.00
898.95	23466.00
899.68	23450.00
900.41	23439.00
901.14	23371.00
901.86	23405.00
902.59	23342.00
903.32	23236.00
904.05	23203.00
904.78	23072.00
905.51	22759.00
906.24	22544.00
906.96	22228.00
907.69	22060.00
908.42	21833.00
909.15	21744.00
909.88	21579.00
910.60	21401.00
911.33	21361.00
912.06	21358.00
912.79	21383.00
913.52	21231.00
914.24	21136.00
914.97	21011.00
915.70	20833.00
916.42	20708.00
917.15	20453.00
917.88	20313.00
918.61	20032.00
919.33	19868.00
920.06	19769.00
920.79	19602.00
921.51	19534.00
922.24	19449.00
922.97	19336.00
923.69	19184.00
924.42	18973.00
925.15	18801.00
925.87	18547.00
926.60	18331.00
927.33	18027.00
928.05	17810.00
928.78	17619.00
929.51	17412.00
930.23	17176.00
930.96	16969.00
931.68	16715.00
932.41	16444.00
933.14	16218.00
933.86	15948.00
934.59	15652.00
935.31	15229.00
936.04	14818.00
936.76	14451.00
937.49	14063.00
938.21	13640.00
938.94	13263.00
939.66	12938.00
940.39	12610.00
941.11	12348.00
941.84	12130.00
942.56	11980.00
943.29	11853.00
944.01	11777.00
944.74	11741.00
945.46	11721.00
946.19	11742.00
946.91	11762.00
947.64	11785.00
948.36	11802.00
949.09	11869.00
949.81	11896.00
950.53	11899.00
951.26	11933.00
951.98	11917.00
952.71	11912.00
953.43	11953.00
954.15	11998.00
954.88	12054.00
955.60	12052.00
956.33	12061.00
957.05	12030.00
957.77	12040.00
958.50	12045.00
959.22	12034.00
959.94	11970.00
960.67	11922.00
961.39	11897.00
962.11	11858.00
962.84	11866.00
963.56	11768.00
964.28	11730.00
965.00	11610.00
965.73	11481.00
966.45	11401.00
967.17	11333.00
967.89	11216.00
968.62	11072.00
969.34	10987.00
970.06	10879.00
970.78	10841.00
971.51	10805.00
972.23	10741.00
972.95	10663.00
973.67	10548.00
974.40	10438.00
975.12	10385.00
975.84	10258.00
976.56	10145.00
977.28	10080.00
978.00	10008.00
978.73	9961.00
979.45	9880.00
980.17	9854.00
980.89	9766.00
981.61	9778.00
982.33	9699.00
983.05	9644.00
983.77	9623.00
984.50	9557.00
985.22	9513.00
985.94	9488.00
986.66	9453.00
987.38	9432.00
988.10	9380.00
988.82	9375.00
989.54	9298.00
990.26	9235.00
990.98	9163.00
991.70	9066.00
992.42	8971.00
993.14	8887.00
993.86	8809.00
994.58	8703.00
995.30	8604.00
996.02	8528.00
996.74	8484.00
997.46	8438.00
998.18	8400.00
998.90	8316.00
999.62	8232.00
1000.34	8188.00
1001.06	8142.00
1001.78	8106.00
1002.50	8012.00
1003.22	7890.00
1003.94	7777.00
1004.66	7704.00
1005.38	7627.00
1006.09	7533.00
1006.81	7429.00
1007.53	7348.00
1008.25	7253.00
1008.97	7163.00
1009.69	7112.00
1010.41	7075.00
1011.13	6989.00
1011.84	6908.00
1012.56	6844.00
1013.28	6798.00
1014.00	6736.00
1014.72	6649.00
1015.44	6586.00
1016.15	6509.00
1016.87	6396.00
1017.59	6332.00
1018.31	6266.00
1019.03	6236.00
1019.74	6192.00
1020.46	6143.00
1021.18	6070.00
1021.90	6017.00
1022.61	5967.00
1023.33	5905.00
1024.05	5862.00
1024.76	5798.00
1025.48	5697.00
1026.20	5609.00
1026.92	5550.00
1027.63	5485.00
1028.35	5435.00
1029.07	5377.00
1029.78	5321.00
1030.50	5250.00
1031.22	5169.00
1031.93	5124.00
1032.65	5064.00
1033.37	5033.00
1034.08	4980.00
1034.80	4934.00
1035.52	4894.00
1036.23	4865.00
1036.95	4823.00
1037.66	4779.00
1038.38	4738.00
1039.10	4685.00
1039.81	4614.00
1040.53	4565.00
1041.24	4506.00
1041.96	4461.00
1042.67	4409.00
1043.39	4376.00
1044.10	4332.00
1044.82	4271.00
1045.54	4243.00
1046.25	4208.00
1046.97	4158.00
1047.68	4126.00
1048.40	4061.00
1049.11	4014.00
1049.83	3977.00
1050.54	3938.00
1051.26	3896.00
1051.97	3860.00
1052.68	3822.00
1053.40	3790.00
1054.11	3734.00
1054.83	3688.00
1055.54	3648.00
1056.26	3609.00
1056.97	3580.00
1057.69	3553.00
1058.40	3520.00
1059.11	3494.00
1059.83	3454.00
1060.54	3395.00
1061.25	3355.00
1061.97	3315.00
1062.68	3278.00
1063.40	3245.00
1064.11	3204.00
1064.82	3170.00
1065.54	3128.00
1066.25	2543.00
1066.96	2524.00
1067.68	2533.00
1068.39	2541.00
1069.10	2590.00
1069.82	2588.00
1070.53	2574.00
1071.24	2582.00
1071.95	2590.00
1072.67	2594.00
1073.38	3095.00
1074.09	3038.00
1074.80	3004.00
1075.52	2971.00
1076.23	2938.00
1076.94	2898.00
1077.65	2139.00
1078.37	2138.00
1079.08	2138.00
1079.79	2140.00
