300.47	2624.00
301.26	2613.00
302.04	2606.00
302.82	2615.00
303.60	2608.00
304.38	2615.00
305.17	2621.00
305.95	2596.00
306.73	2624.00
307.51	2615.00
308.29	2600.00
309.08	2620.00
309.86	2609.00
310.64	2599.00
311.42	2611.00
312.20	2605.00
312.98	2613.00
313.76	2615.00
314.55	2593.00
315.33	2618.00
316.11	2611.00
316.89	2601.00
317.67	2615.00
318.45	2606.00
319.23	2605.00
320.01	2613.00
320.79	2603.00
321.57	2614.00
322.35	2612.00
323.13	2592.00
323.91	2619.00
324.69	2608.00
325.47	2593.00
326.25	2606.00
327.03	2617.00
327.81	2612.00
328.59	2601.00
329.37	2595.00
330.15	2618.00
330.93	2612.00
331.71	2597.00
332.49	2615.00
333.27	2607.00
334.05	2611.00
334.83	2613.00
335.61	2599.00
336.39	2610.00
337.17	2617.00
337.95	2613.00
338.73	2609.00
339.51	2608.00
340.29	2616.00
341.07	2627.00
341.84	2619.00
342.62	2605.00
343.40	2627.00
344.18	2618.00
344.96	2609.00
345.74	2630.00
346.52	2625.00
347.29	2611.00
348.07	2639.00
348.85	2633.00
349.63	2628.00
350.41	2622.00
351.18	2637.00
351.96	2647.00
352.74	2642.00
353.52	2644.00
354.30	2638.00
355.07	2646.00
355.85	2662.00
356.63	2661.00
357.41	2659.00
358.18	2650.00
358.96	2661.00
359.74	2678.00
360.52	2685.00
361.29	2685.00
362.07	2675.00
362.85	2683.00
363.62	2704.00
364.40	2704.00
365.18	2702.00
365.95	2698.00
366.73	2713.00
367.51	2729.00
368.28	2735.00
369.06	2724.00
369.84	2738.00
370.61	2752.00
371.39	2762.00
372.17	2771.00
372.94	2768.00
373.72	2776.00
374.49	2802.00
375.27	2802.00
376.05	2804.00
376.82	2809.00
377.60	2826.00
378.37	2845.00
379.15	2844.00
379.92	2864.00
380.70	2873.00
381.47	2870.00
382.25	2896.00
383.02	2918.00
383.80	2909.00
384.58	2946.00
385.35	2953.00
386.13	2952.00
386.90	2987.00
387.67	2987.00
388.45	3007.00
389.22	3031.00
390.00	3024.00
390.77	3062.00
391.55	3071.00
392.32	3069.00
393.10	3106.00
393.87	3118.00
394.65	3118.00
395.42	3161.00
396.19	3167.00
396.97	3177.00
397.74	3216.00
398.52	3216.00
399.29	3251.00
400.06	3251.00
400.84	3281.00
401.61	3315.00
402.38	3321.00
403.16	3340.00
403.93	3344.00
404.70	3376.00
405.48	3404.00
406.25	3423.00
407.02	3442.00
407.80	3456.00
408.57	3494.00
409.34	3524.00
410.12	3529.00
410.89	3560.00
411.66	3573.00
412.43	3604.00
413.21	3635.00
413.98	3655.00
414.75	3660.00
415.52	3687.00
416.30	3726.00
417.07	3743.00
417.84	3780.00
418.61	3795.00
419.39	3820.00
420.16	3867.00
420.93	3868.00
421.70	3898.00
422.47	3918.00
423.24	3969.00
424.02	3981.00
424.79	4040.00
425.56	4046.00
426.33	4042.00
427.10	4124.00
427.87	4148.00
428.64	4175.00
429.42	4195.00
430.19	4236.00
430.96	4274.00
431.73	4321.00
432.50	4358.00
433.27	4389.00
434.04	4407.00
434.81	4461.00
435.58	4520.00
436.35	4563.00
437.12	4588.00
437.89	4645.00
438.67	4683.00
439.44	4740.00
440.21	4775.00
440.98	4825.00
441.75	4860.00
442.52	4915.00
443.29	4981.00
444.06	5020.00
444.83	5064.00
445.60	5118.00
446.37	5188.00
447.13	5242.00
447.90	5261.00
448.67	5326.00
449.44	5408.00
450.21	5459.00
450.98	5516.00
451.75	5578.00
452.52	5648.00
453.29	5687.00
454.06	5760.00
454.83	5853.00
455.60	5897.00
456.37	5976.00
457.13	6027.00
457.90	6082.00
458.67	6199.00
459.44	6260.00
460.21	6305.00
460.98	6383.00
461.75	6450.00
462.51	6546.00
463.28	6657.00
464.05	6724.00
464.82	6768.00
465.59	6827.00
466.35	6961.00
467.12	7041.00
467.89	7143.00
468.66	7233.00
469.43	7274.00
470.19	7361.00
470.96	7461.00
471.73	7526.00
472.50	7610.00
473.26	7739.00
474.03	7801.00
474.80	7941.00
475.56	8030.00
476.33	8081.00
477.10	8197.00
477.87	8281.00
478.63	8373.00
479.40	8466.00
480.17	8612.00
480.93	8719.00
481.70	8799.00
482.47	8854.00
483.23	9003.00
484.00	9157.00
484.76	9229.00
485.53	9313.00
486.30	9401.00
487.06	9525.00
487.83	9684.00
488.60	9824.00
489.36	9901.00
490.13	9988.00
490.89	10114.00
491.66	10246.00
492.42	10352.00
493.19	10499.00
493.96	10579.00
494.72	10688.00
495.49	10839.00
496.25	10951.00
497.02	11071.00
497.78	11172.00
498.55	11346.00
499.31	11440.00
500.08	11528.00
500.84	11713.00
501.61	11793.00
502.37	11906.00
503.14	12096.00
503.90	12190.00
504.67	12280.00
505.43	12472.00
506.20	12659.00
506.96	12762.00
507.72	12882.00
508.49	13047.00
509.25	13166.00
510.02	13302.00
510.78	13503.00
511.54	13591.00
512.31	13719.00
513.07	13856.00
513.84	14014.00
514.60	14180.00
515.36	14295.00
516.13	14418.00
516.89	14524.00
517.65	14629.00
518.42	14785.00
519.18	14969.00
519.94	15081.00
520.71	15193.00
521.47	15262.00
522.23	15476.00
523.00	15636.00
523.76	15831.00
524.52	15953.00
525.28	16169.00
526.05	16274.00
526.81	16476.00
527.57	16617.00
528.33	16775.00
529.10	16909.00
529.86	17110.00
530.62	17190.00
531.38	17377.00
532.15	17515.00
532.91	17689.00
533.67	17834.00
534.43	17921.00
535.19	18136.00
535.96	18329.00
536.72	18403.00
537.48	18497.00
538.24	18678.00
539.00	18866.00
539.76	19052.00
540.53	19221.00
541.29	19419.00
542.05	19550.00
542.81	19731.00
543.57	19927.00
544.33	20041.00
545.09	20217.00
545.85	20376.00
546.61	20581.00
547.38	20700.00
548.14	20879.00
548.90	21037.00
549.66	21239.00
550.42	21432.00
551.18	21594.00
551.94	21697.00
552.70	21867.00
553.46	22000.00
554.22	22158.00
554.98	22290.00
555.74	22382.00
556.50	22572.00
557.26	22731.00
558.02	22991.00
558.78	23149.00
559.54	23269.00
560.30	23430.00
561.06	23650.00
561.82	23823.00
562.58	23998.00
563.34	24211.00
564.10	24345.00
564.86	24515.00
565.61	24648.00
566.37	24848.00
567.13	25033.00
567.89	25186.00
568.65	25359.00
569.41	25562.00
570.17	25776.00
570.93	25941.00
571.69	26159.00
572.44	26297.00
573.20	26446.00
573.96	26607.00
574.72	26678.00
575.48	26832.00
576.24	26961.00
576.99	27112.00
577.75	27199.00
578.51	27395.00
579.27	27632.00
580.03	27801.00
580.78	28059.00
581.54	28227.00
582.30	28323.00
583.06	28451.00
583.82	28612.00
584.57	28748.00
585.33	28904.00
586.09	29037.00
586.84	29198.00
587.60	29233.00
588.36	29391.00
589.12	29553.00
589.87	29839.00
590.63	29943.00
591.39	30072.00
592.14	30180.00
592.90	30310.00
593.66	30482.00
594.41	30749.00
595.17	30887.00
595.93	31054.00
596.68	31143.00
597.44	31289.00
598.20	31490.00
598.95	31631.00
599.71	31860.00
600.46	31971.00
601.22	32121.00
601.98	32316.00
602.73	32512.00
603.49	32668.00
604.24	32886.00
605.00	33092.00
605.76	33300.00
606.51	33410.00
607.27	33581.00
608.02	33661.00
608.78	33821.00
609.53	34097.00
610.29	34278.00
611.04	34488.00
611.80	34619.00
612.55	34821.00
613.31	34949.00
614.06	35225.00
614.82	35423.00
615.57	35515.00
616.33	35559.00
617.08	35745.00
617.84	35734.00
618.59	35935.00
619.35	35883.00
620.10	35972.00
620.85	35978.00
621.61	36015.00
622.36	36046.00
623.12	36140.00
623.87	36302.00
624.62	36376.00
625.38	36528.00
626.13	36636.00
626.89	36828.00
627.64	36916.00
628.39	37022.00
629.15	37089.00
629.90	37155.00
630.65	37105.00
631.41	36994.00
632.16	37065.00
632.91	36979.00
633.67	37023.00
634.42	37151.00
635.17	37367.00
635.92	37697.00
636.68	38174.00
637.43	38578.00
638.18	38973.00
638.94	39347.00
639.69	39790.00
640.44	40031.00
641.19	40352.00
641.95	40688.00
642.70	40973.00
643.45	41119.00
644.20	41276.00
644.95	41416.00
645.71	41596.00
646.46	41553.00
647.21	41718.00
647.96	41838.00
648.71	41893.00
649.47	42114.00
650.22	42310.00
650.97	42545.00
651.72	42655.00
652.47	42730.00
653.22	42854.00
653.97	42917.00
654.73	42957.00
655.48	43144.00
656.23	43302.00
656.98	43587.00
657.73	43537.00
658.48	43569.00
659.23	43675.00
659.98	43845.00
660.73	43943.00
661.48	44107.00
662.23	44241.00
662.99	44157.00
663.74	44089.00
664.49	44325.00
665.24	44640.00
665.99	44882.00
666.74	45222.00
667.49	45249.00
668.24	45376.00
668.99	45425.00
669.74	45583.00
670.49	45828.00
671.24	46071.00
671.99	46138.00
672.74	46355.00
673.48	46322.00
674.23	46238.00
674.98	46393.00
675.73	46455.00
676.48	46521.00
677.23	46583.00
677.98	46766.00
678.73	46725.00
679.48	46839.00
680.23	46854.00
680.98	46999.00
681.73	46886.00
682.47	47018.00
683.22	46953.00
683.97	46968.00
684.72	47156.00
685.47	47162.00
686.22	47201.00
686.97	47323.00
687.71	47443.00
688.46	47394.00
689.21	47403.00
689.96	47427.00
690.71	47502.00
691.45	47339.00
692.20	47514.00
692.95	47509.00
693.70	47624.00
694.44	47863.00
695.19	48007.00
695.94	47965.00
696.69	48110.00
697.43	48194.00
698.18	48338.00
698.93	48370.00
699.68	48370.00
700.42	48289.00
701.17	48206.00
701.92	48197.00
702.66	48291.00
703.41	48296.00
704.16	48362.00
704.90	48256.00
705.65	48373.00
706.40	48491.00
707.14	48546.00
707.89	48552.00
708.64	48554.00
709.38	48633.00
710.13	48581.00
710.88	48571.00
711.62	48564.00
712.37	48586.00
713.11	48553.00
713.86	48468.00
714.61	48474.00
715.35	48532.00
716.10	48416.00
716.84	48403.00
717.59	48372.00
718.33	48433.00
719.08	48413.00
719.83	48384.00
720.57	48319.00
721.32	48220.00
722.06	48099.00
722.81	48009.00
723.55	47856.00
724.30	47728.00
725.04	47712.00
725.79	47626.00
726.53	47675.00
727.28	47568.00
728.02	47658.00
728.76	47792.00
729.51	47901.00
730.25	47872.00
731.00	47769.00
731.74	47712.00
732.49	47617.00
733.23	47440.00
733.97	47256.00
734.72	47134.00
735.46	47069.00
736.21	47006.00
736.95	46883.00
737.69	47103.00
738.44	47204.00
739.18	47367.00
739.92	47525.00
740.67	47688.00
741.41	47856.00
742.15	47927.00
742.90	48216.00
743.64	48376.00
744.38	48303.00
745.13	48161.00
745.87	48128.00
746.61	48032.00
747.36	47956.00
748.10	47868.00
748.84	47546.00
749.58	47456.00
750.33	47393.00
751.07	47347.00
751.81	47261.00
752.55	47058.00
753.30	46935.00
754.04	46897.00
754.78	46783.00
755.52	46839.00
756.27	46614.00
757.01	46428.00
757.75	46489.00
758.49	46621.00
759.23	46616.00
759.97	46560.00
760.72	46553.00
761.46	46550.00
762.20	46564.00
762.94	46564.00
763.68	46452.00
764.42	46333.00
765.16	46196.00
765.91	46317.00
766.65	46275.00
767.39	46144.00
768.13	46086.00
768.87	45956.00
769.61	45971.00
770.35	45866.00
771.09	45737.00
771.83	45405.00
772.57	45351.00
773.31	45458.00
774.05	45665.00
774.80	45661.00
775.54	45579.00
776.28	45414.00
777.02	45301.00
777.76	45178.00
778.50	44891.00
779.24	44802.00
779.98	44431.00
780.72	44206.00
781.46	44015.00
782.20	44007.00
782.93	44132.00
783.67	44018.00
784.41	43859.00
785.15	43598.00
785.89	43598.00
786.63	43525.00
787.37	43454.00
788.11	43274.00
788.85	43234.00
789.59	43335.00
790.33	43449.00
791.07	43470.00
791.81	43365.00
792.54	43142.00
793.28	42920.00
794.02	42648.00
794.76	42286.00
795.50	42006.00
796.24	41613.00
796.97	41279.00
797.71	41003.00
798.45	40968.00
799.19	40819.00
799.93	40790.00
800.67	40624.00
801.40	40648.00
802.14	40669.00
802.88	40813.00
803.62	40905.00
804.35	40875.00
805.09	40619.00
805.83	40451.00
806.57	40439.00
807.30	40370.00
808.04	40341.00
808.78	40224.00
809.52	39721.00
810.25	39444.00
810.99	39370.00
811.73	39274.00
812.46	39171.00
813.20	39094.00
813.94	39003.00
814.68	38935.00
815.41	38863.00
816.15	38866.00
816.88	38884.00
817.62	38695.00
818.36	38419.00
819.09	38188.00
819.83	37996.00
820.57	37891.00
821.30	37832.00
822.04	37614.00
822.77	37342.00
823.51	37281.00
824.25	37368.00
824.98	37231.00
825.72	37298.00
826.45	37281.00
827.19	37210.00
827.92	36955.00
828.66	36804.00
829.40	36654.00
830.13	36535.00
830.87	36449.00
831.60	36332.00
832.34	36238.00
833.07	36119.00
833.81	36085.00
834.54	36045.00
835.28	36056.00
836.01	36026.00
836.75	35892.00
837.48	35752.00
838.22	35600.00
838.95	35535.00
839.68	35486.00
840.42	35422.00
841.15	35290.00
841.89	35101.00
842.62	34862.00
843.36	34690.00
844.09	34446.00
844.82	34399.00
845.56	34365.00
846.29	34038.00
847.02	33780.00
847.76	33531.00
848.49	33582.00
849.23	33549.00
849.96	33608.00
850.69	33760.00
851.43	33635.00
852.16	33403.00
852.89	33268.00
853.63	33133.00
854.36	33133.00
855.09	33217.00
855.82	33165.00
856.56	33031.00
857.29	32749.00
858.02	32490.00
858.76	32453.00
859.49	32313.00
860.22	32248.00
860.95	32191.00
861.69	32055.00
862.42	31741.00
863.15	31774.00
863.88	31671.00
864.61	31695.00
865.35	31692.00
866.08	31570.00
866.81	31275.00
867.54	30974.00
868.27	30841.00
869.01	30738.00
869.74	30754.00
870.47	30719.00
871.20	30620.00
871.93	30548.00
872.66	30528.00
873.40	30366.00
874.13	30223.00
874.86	30073.00
875.59	30033.00
876.32	30045.00
877.05	29925.00
877.78	29676.00
878.51	29424.00
879.24	29077.00
879.97	28885.00
880.71	28702.00
881.44	28529.00
882.17	28390.00
882.90	28301.00
883.63	28221.00
884.36	28297.00
885.09	28434.00
885.82	28528.00
886.55	28538.00
887.28	28654.00
888.01	28550.00
888.74	28523.00
889.47	28165.00
890.20	27833.00
890.93	27566.00
891.66	27345.00
892.39	27221.00
893.12	27148.00
893.85	27041.00
894.57	26906.00
895.30	26674.00
896.03	26525.00
896.76	26493.00
897.49	26278.00
898.22	26170.00
898.95	25993.00
899.68	25993.00
900.41	26022.00
901.14	26006.00
901.86	26024.00
902.59	25911.00
903.32	25905.00
904.05	25914.00
904.78	25685.00
905.51	25405.00
906.24	25202.00
906.96	24874.00
907.69	24666.00
908.42	24555.00
909.15	24442.00
909.88	24232.00
910.60	24057.00
911.33	23996.00
912.06	24011.00
912.79	23916.00
913.52	23790.00
914.24	23791.00
914.97	23564.00
915.70	23431.00
916.42	23241.00
917.15	23060.00
917.88	22887.00
918.61	22688.00
919.33	22485.00
920.06	22342.00
920.79	22177.00
921.51	22078.00
922.24	21958.00
922.97	21785.00
923.69	21624.00
924.42	21474.00
925.15	21255.00
925.87	21046.00
926.60	20768.00
927.33	20493.00
928.05	20301.00
928.78	20071.00
929.51	19917.00
930.23	19683.00
930.96	19432.00
931.68	19248.00
932.41	18908.00
933.14	18638.00
933.86	18361.00
934.59	18036.00
935.31	17677.00
936.04	17230.00
936.76	16739.00
937.49	16333.00
938.21	15848.00
938.94	15489.00
939.66	15067.00
940.39	14689.00
941.11	14337.00
941.84	14205.00
942.56	13989.00
943.29	13885.00
944.01	13784.00
944.74	13708.00
945.46	13708.00
946.19	13777.00
946.91	13838.00
947.64	13832.00
948.36	13871.00
949.09	13888.00
949.81	13925.00
950.53	14011.00
951.26	14079.00
951.98	14047.00
952.71	14073.00
953.43	14031.00
954.15	14150.00
954.88	14173.00
955.60	14220.00
956.33	14211.00
957.05	14184.00
957.77	14200.00
958.50	14208.00
959.22	14234.00
959.94	14175.00
960.67	14089.00
961.39	14026.00
962.11	14043.00
962.84	14042.00
963.56	13949.00
964.28	13899.00
965.00	13738.00
965.73	13625.00
966.45	13532.00
967.17	13458.00
967.89	13299.00
968.62	13176.00
969.34	13050.00
970.06	12963.00
970.78	12890.00
971.51	12861.00
972.23	12770.00
972.95	12702.00
973.67	12581.00
974.40	12474.00
975.12	12374.00
975.84	12205.00
976.56	12142.00
977.28	11992.00
978.00	11938.00
978.73	11859.00
979.45	11824.00
980.17	11749.00
980.89	11671.00
981.61	11672.00
982.33	11614.00
983.05	11577.00
983.77	11502.00
984.50	11453.00
985.22	11420.00
985.94	11415.00
986.66	11367.00
987.38	11335.00
988.10	11288.00
988.82	11253.00
989.54	11180.00
990.26	11090.00
990.98	11043.00
991.70	10900.00
992.42	10828.00
993.14	10667.00
993.86	10555.00
994.58	10424.00
995.30	10342.00
996.02	10245.00
996.74	10198.00
997.46	10160.00
998.18	10034.00
998.90	9977.00
999.62	9896.00
1000.34	9815.00
1001.06	9775.00
1001.78	9685.00
1002.50	9589.00
1003.22	9457.00
1003.94	9377.00
1004.66	9237.00
1005.38	9144.00
1006.09	9059.00
1006.81	8952.00
1007.53	8821.00
1008.25	8714.00
1008.97	8589.00
1009.69	8536.00
1010.41	8460.00
1011.13	8364.00
1011.84	8291.00
1012.56	8232.00
1013.28	8132.00
1014.00	8068.00
1014.72	8014.00
1015.44	7931.00
1016.15	7819.00
1016.87	7708.00
1017.59	7572.00
1018.31	7515.00
1019.03	7447.00
1019.74	7392.00
1020.46	7317.00
1021.18	7234.00
1021.90	7182.00
1022.61	7093.00
1023.33	7044.00
1024.05	6981.00
1024.76	6896.00
1025.48	6788.00
1026.20	6687.00
1026.92	6613.00
1027.63	6527.00
1028.35	6455.00
1029.07	6382.00
1029.78	6291.00
1030.50	6222.00
1031.22	6145.00
1031.93	6043.00
1032.65	5977.00
1033.37	5907.00
1034.08	5864.00
1034.80	5810.00
1035.52	5769.00
1036.23	5721.00
1036.95	5664.00
1037.66	5614.00
1038.38	5593.00
1039.10	5499.00
1039.81	5423.00
1040.53	5351.00
1041.24	5266.00
1041.96	5182.00
1042.67	5158.00
1043.39	5087.00
1044.10	5024.00
1044.82	4983.00
1045.54	4941.00
1046.25	4899.00
1046.97	4845.00
1047.68	4781.00
1048.40	4709.00
1049.11	4661.00
1049.83	4603.00
1050.54	4544.00
1051.26	4501.00
1051.97	4462.00
1052.68	4399.00
1053.40	4360.00
1054.11	4299.00
1054.83	4237.00
1055.54	4180.00
1056.26	4137.00
1056.97	4091.00
1057.69	4057.00
1058.40	4013.00
1059.11	3967.00
1059.83	3918.00
1060.54	3862.00
1061.25	3815.00
1061.97	3754.00
1062.68	3706.00
1063.40	3654.00
1064.11	3596.00
1064.82	3553.00
1065.54	3505.00
1066.25	2568.00
1066.96	2559.00
1067.68	2574.00
1068.39	2561.00
1069.10	2617.00
1069.82	2617.00
1070.53	2603.00
1071.24	2623.00
1071.95	2615.00
1072.67	2604.00
1073.38	3453.00
1074.09	3392.00
1074.80	3347.00
1075.52	3289.00
1076.23	3239.00
1076.94	3208.00
1077.65	2195.00
1078.37	2191.00
1079.08	2183.00
1079.79	2196.00
