300.47	2597.00
301.26	2623.00
302.04	2619.00
302.82	2602.00
303.60	2620.00
304.38	2613.00
305.17	2615.00
305.95	2615.00
306.73	2603.00
307.51	2621.00
308.29	2616.00
309.08	2599.00
309.86	2623.00
310.64	2619.00
311.42	2603.00
312.20	2619.00
312.98	2608.00
313.76	2607.00
314.55	2614.00
315.33	2603.00
316.11	2615.00
316.89	2615.00
317.67	2593.00
318.45	2620.00
319.23	2610.00
320.01	2602.00
320.79	2617.00
321.57	2603.00
322.35	2612.00
323.13	2617.00
323.91	2600.00
324.69	2615.00
325.47	2614.00
326.25	2595.00
327.03	2618.00
327.81	2613.00
328.59	2599.00
329.37	2620.00
330.15	2605.00
330.93	2609.00
331.71	2614.00
332.49	2601.00
333.27	2619.00
334.05	2614.00
334.83	2596.00
335.61	2621.00
336.39	2617.00
337.17	2601.00
337.95	2616.00
338.73	2608.00
339.51	2614.00
340.29	2617.00
341.07	2606.00
341.84	2622.00
342.62	2620.00
343.40	2609.00
344.18	2628.00
344.96	2623.00
345.74	2614.00
346.52	2627.00
347.29	2620.00
348.07	2628.00
348.85	2630.00
349.63	2619.00
350.41	2643.00
351.18	2646.00
351.96	2624.00
352.74	2651.00
353.52	2652.00
354.30	2636.00
355.07	2655.00
355.85	2647.00
356.63	2655.00
357.41	2663.00
358.18	2647.00
358.96	2675.00
359.74	2678.00
360.52	2659.00
361.29	2688.00
362.07	2685.00
362.85	2675.00
363.62	2699.00
364.40	2695.00
365.18	2700.00
365.95	2716.00
366.73	2707.00
367.51	2713.00
368.28	2725.00
369.06	2741.00
369.84	2746.00
370.61	2744.00
371.39	2740.00
372.17	2760.00
372.94	2777.00
373.72	2779.00
374.49	2780.00
375.27	2785.00
376.05	2802.00
376.82	2817.00
377.60	2829.00
378.37	2833.00
379.15	2838.00
379.92	2848.00
380.70	2877.00
381.47	2879.00
382.25	2885.00
383.02	2890.00
383.80	2915.00
384.58	2949.00
385.35	2948.00
386.13	2961.00
386.90	2969.00
387.67	2983.00
388.45	3007.00
389.22	3025.00
390.00	3022.00
390.77	3036.00
391.55	3057.00
392.32	3092.00
393.10	3098.00
393.87	3108.00
394.65	3128.00
395.42	3160.00
396.19	3175.00
396.97	3182.00
397.74	3188.00
398.52	3218.00
399.29	3241.00
400.06	3264.00
400.84	3284.00
401.61	3293.00
402.38	3320.00
403.16	3340.00
403.93	3356.00
404.70	3373.00
405.48	3391.00
406.25	3410.00
407.02	3448.00
407.80	3458.00
408.57	3490.00
409.34	3505.00
410.12	3512.00
410.89	3560.00
411.66	3572.00
412.43	3581.00
413.21	3630.00
413.98	3647.00
414.75	3657.00
415.52	3693.00
416.30	3716.00
417.07	3741.00
417.84	3761.00
418.61	3767.00
419.39	3819.00
420.16	3843.00
420.93	3863.00
421.70	3901.00
422.47	3925.00
423.24	3941.00
424.02	3990.00
424.79	4001.00
425.56	4031.00
426.33	4082.00
427.10	4099.00
427.87	4124.00
428.64	4168.00
429.42	4211.00
430.19	4221.00
430.96	4269.00
431.73	4318.00
432.50	4335.00
433.27	4373.00
434.04	4416.00
434.81	4461.00
435.58	4496.00
436.35	4562.00
437.12	4600.00
437.89	4648.00
438.67	4677.00
439.44	4708.00
440.21	4751.00
440.98	4830.00
441.75	4894.00
442.52	4901.00
443.29	4963.00
444.06	4999.00
444.83	5061.00
445.60	5127.00
446.37	5167.00
447.13	5217.00
447.90	5264.00
448.67	5331.00
449.44	5419.00
450.21	5454.00
450.98	5509.00
451.75	5529.00
452.52	5598.00
453.29	5700.00
454.06	5743.00
454.83	5830.00
455.60	5865.00
456.37	5942.00
457.13	6028.00
457.90	6083.00
458.67	6167.00
459.44	6230.00
460.21	6294.00
460.98	6380.00
461.75	6465.00
462.51	6542.00
463.28	6637.00
464.05	6710.00
464.82	6763.00
465.59	6837.00
466.35	6903.00
467.12	7007.00
467.89	7094.00
468.66	7188.00
469.43	7236.00
470.19	7337.00
470.96	7461.00
471.73	7531.00
472.50	7611.00
473.26	7697.00
474.03	7820.00
474.80	7907.00
475.56	7987.00
476.33	8091.00
477.10	8189.00
477.87	8277.00
478.63	8382.00
479.40	8467.00
480.17	8577.00
480.93	8689.00
481.70	8747.00
482.47	8837.00
483.23	8977.00
484.00	9096.00
484.76	9219.00
485.53	9330.00
486.30	9439.00
487.06	9555.00
487.83	9654.00
488.60	9786.00
489.36	9875.00
490.13	9970.00
490.89	10107.00
491.66	10213.00
492.42	10363.00
493.19	10439.00
493.96	10544.00
494.72	10658.00
495.49	10807.00
496.25	10924.00
497.02	11069.00
497.78	11171.00
498.55	11264.00
499.31	11394.00
500.08	11541.00
500.84	11661.00
501.61	11782.00
502.37	11899.00
503.14	11969.00
503.90	12177.00
504.67	12285.00
505.43	12411.00
506.20	12613.00
506.96	12725.00
507.72	12838.00
508.49	13013.00
509.25	13137.00
510.02	13287.00
510.78	13459.00
511.54	13552.00
512.31	13700.00
513.07	13857.00
513.84	14005.00
514.60	14163.00
515.36	14258.00
516.13	14393.00
516.89	14493.00
517.65	14591.00
518.42	14712.00
519.18	14907.00
519.94	15037.00
520.71	15167.00
521.47	15256.00
522.23	15479.00
523.00	15644.00
523.76	15793.00
524.52	15952.00
525.28	16087.00
526.05	16281.00
526.81	16443.00
527.57	16576.00
528.33	16755.00
529.10	16917.00
529.86	17048.00
530.62	17122.00
531.38	17352.00
532.15	17525.00
532.91	17652.00
533.67	17817.00
534.43	17939.00
535.19	18084.00
535.96	18305.00
536.72	18372.00
537.48	18509.00
538.24	18712.00
539.00	18808.00
539.76	19027.00
540.53	19258.00
541.29	19389.00
542.05	19510.00
542.81	19684.00
543.57	19873.00
544.33	20048.00
545.09	20189.00
545.85	20380.00
546.61	20560.00
547.38	20733.00
548.14	20810.00
548.90	21041.00
549.66	21229.00
550.42	21358.00
551.18	21565.00
551.94	21726.00
552.70	21823.00
553.46	21985.00
554.22	22127.00
554.98	22269.00
555.74	22375.00
556.50	22591.00
557.26	22811.00
558.02	22958.00
558.78	23093.00
559.54	23257.00
560.30	23383.00
561.06	23586.00
561.82	23806.00
562.58	23975.00
563.34	24146.00
564.10	24299.00
564.86	24491.00
565.61	24624.00
566.37	24799.00
567.13	25091.00
567.89	25232.00
568.65	25369.00
569.41	25572.00
570.17	25675.00
570.93	25994.00
571.69	26107.00
572.44	26311.00
573.20	26458.00
573.96	26597.00
574.72	26701.00
575.48	26813.00
576.24	27023.00
576.99	27077.00
577.75	27213.00
578.51	27394.00
579.27	27656.00
580.03	27861.00
580.78	27987.00
581.54	28188.00
582.30	28307.00
583.06	28528.00
583.82	28615.00
584.57	28699.00
585.33	28886.00
586.09	29070.00
586.84	29081.00
587.60	29262.00
588.36	29355.00
589.12	29666.00
589.87	29859.00
590.63	29921.00
591.39	30067.00
592.14	30127.00
592.90	30328.00
593.66	30528.00
594.41	30713.00
595.17	30844.00
595.93	30941.00
596.68	31081.00
597.44	31222.00
598.20	31349.00
598.95	31623.00
599.71	31796.00
600.46	31971.00
601.22	32096.00
601.98	32323.00
602.73	32412.00
603.49	32715.00
604.24	32991.00
605.00	33078.00
605.76	33255.00
606.51	33412.00
607.27	33530.00
608.02	33698.00
608.78	33882.00
609.53	34125.00
610.29	34214.00
611.04	34411.00
611.80	34542.00
612.55	34811.00
613.31	34973.00
614.06	35208.00
614.82	35405.00
615.57	35544.00
616.33	35548.00
617.08	35721.00
617.84	35864.00
618.59	35835.00
619.35	35926.00
620.10	35951.00
620.85	35949.00
621.61	36028.00
622.36	36065.00
623.12	36081.00
623.87	36179.00
624.62	36348.00
625.38	36472.00
626.13	36629.00
626.89	36794.00
627.64	36899.00
628.39	36947.00
629.15	37024.00
629.90	36999.00
630.65	37102.00
631.41	37042.00
632.16	36977.00
632.91	36975.00
633.67	37043.00
634.42	37112.00
635.17	37323.00
635.92	37642.00
636.68	38119.00
637.43	38567.00
638.18	38979.00
638.94	39350.00
639.69	39669.00
640.44	40067.00
641.19	40408.00
641.95	40733.00
642.70	40923.00
643.45	41162.00
644.20	41278.00
644.95	41354.00
645.71	41425.00
646.46	41567.00
647.21	41669.00
647.96	41797.00
648.71	41934.00
649.47	42077.00
650.22	42315.00
650.97	42487.00
651.72	42574.00
652.47	42703.00
653.22	42762.00
653.97	42891.00
654.73	42926.00
655.48	43044.00
656.23	43244.00
656.98	43369.00
657.73	43577.00
658.48	43693.00
659.23	43701.00
659.98	43747.00
660.73	43759.00
661.48	44012.00
662.23	44117.00
662.99	44068.00
663.74	44093.00
664.49	44288.00
665.24	44701.00
665.99	44912.00
666.74	45076.00
667.49	45209.00
668.24	45175.00
668.99	45404.00
669.74	45500.00
670.49	45770.00
671.24	46029.00
671.99	46121.00
672.74	46237.00
673.48	46340.00
674.23	46277.00
674.98	46167.00
675.73	46397.00
676.48	46507.00
677.23	46580.00
677.98	46731.00
678.73	46772.00
679.48	46882.00
680.23	46891.00
680.98	46949.00
681.73	46975.00
682.47	46981.00
683.22	46973.00
683.97	47093.00
684.72	47129.00
685.47	47134.00
686.22	47196.00
686.97	47356.00
687.71	47485.00
688.46	47523.00
689.21	47520.00
689.96	47415.00
690.71	47483.00
691.45	47377.00
692.20	47594.00
692.95	47612.00
693.70	47736.00
694.44	47886.00
695.19	47920.00
695.94	48038.00
696.69	48097.00
697.43	48241.00
698.18	48270.00
698.93	48400.00
699.68	48381.00
700.42	48241.00
701.17	48201.00
701.92	48309.00
702.66	48341.00
703.41	48273.00
704.16	48291.00
704.90	48394.00
705.65	48411.00
706.40	48502.00
707.14	48537.00
707.89	48502.00
708.64	48615.00
709.38	48583.00
710.13	48520.00
710.88	48650.00
711.62	48524.00
712.37	48475.00
713.11	48503.00
713.86	48525.00
714.61	48477.00
715.35	48473.00
716.10	48489.00
716.84	48445.00
717.59	48380.00
718.33	48317.00
719.08	48367.00
719.83	48387.00
720.57	48280.00
721.32	48235.00
722.06	48180.00
722.81	47991.00
723.55	47795.00
724.30	47747.00
725.04	47639.00
725.79	47586.00
726.53	47497.00
727.28	47529.00
728.02	47495.00
728.76	47671.00
729.51	47776.00
730.25	47809.00
731.00	47728.00
731.74	47643.00
732.49	47583.00
733.23	47344.00
733.97	47245.00
734.72	47039.00
735.46	46956.00
736.21	46922.00
736.95	46937.00
737.69	47026.00
738.44	47154.00
739.18	47356.00
739.92	47470.00
740.67	47708.00
741.41	47840.00
742.15	47998.00
742.90	48112.00
743.64	48300.00
744.38	48201.00
745.13	48121.00
745.87	48056.00
746.61	48077.00
747.36	47995.00
748.10	47763.00
748.84	47527.00
749.58	47377.00
750.33	47356.00
751.07	47232.00
751.81	47113.00
752.55	47014.00
753.30	46838.00
754.04	46761.00
754.78	46634.00
755.52	46622.00
756.27	46445.00
757.01	46452.00
757.75	46412.00
758.49	46529.00
759.23	46569.00
759.97	46511.00
760.72	46401.00
761.46	46506.00
762.20	46434.00
762.94	46471.00
763.68	46489.00
764.42	46249.00
765.16	46225.00
765.91	46242.00
766.65	46146.00
767.39	45979.00
768.13	45920.00
768.87	45974.00
769.61	45823.00
770.35	45626.00
771.09	45492.00
771.83	45389.00
772.57	45302.00
773.31	45320.00
774.05	45515.00
774.80	45489.00
775.54	45475.00
776.28	45355.00
777.02	45209.00
777.76	45090.00
778.50	44855.00
779.24	44579.00
779.98	44368.00
780.72	44101.00
781.46	43942.00
782.20	43845.00
782.93	43949.00
783.67	43918.00
784.41	43673.00
785.15	43569.00
785.89	43380.00
786.63	43290.00
787.37	43252.00
788.11	43100.00
788.85	43130.00
789.59	43149.00
790.33	43203.00
791.07	43305.00
791.81	43289.00
792.54	43107.00
793.28	42751.00
794.02	42456.00
794.76	42212.00
795.50	41774.00
796.24	41413.00
796.97	41174.00
797.71	40882.00
798.45	40701.00
799.19	40607.00
799.93	40542.00
800.67	40397.00
801.40	40410.00
802.14	40459.00
802.88	40605.00
803.62	40626.00
804.35	40524.00
805.09	40386.00
805.83	40185.00
806.57	40205.00
807.30	40179.00
808.04	40050.00
808.78	39863.00
809.52	39542.00
810.25	39236.00
810.99	39129.00
811.73	39084.00
812.46	38851.00
813.20	38884.00
813.94	38832.00
814.68	38604.00
815.41	38563.00
816.15	38641.00
816.88	38688.00
817.62	38346.00
818.36	38096.00
819.09	37950.00
819.83	37681.00
820.57	37650.00
821.30	37564.00
822.04	37375.00
822.77	37171.00
823.51	37015.00
824.25	37010.00
824.98	36975.00
825.72	37021.00
826.45	36997.00
827.19	36839.00
827.92	36676.00
828.66	36465.00
829.40	36354.00
830.13	36239.00
830.87	36152.00
831.60	35977.00
832.34	35848.00
833.07	35757.00
833.81	35813.00
834.54	35717.00
835.28	35830.00
836.01	35742.00
836.75	35569.00
837.48	35449.00
838.22	35328.00
838.95	35279.00
839.68	35217.00
840.42	35054.00
841.15	34989.00
841.89	34807.00
842.62	34638.00
843.36	34396.00
844.09	34113.00
844.82	34100.00
845.56	34003.00
846.29	33667.00
847.02	33455.00
847.76	33257.00
848.49	33153.00
849.23	33149.00
849.96	33362.00
850.69	33443.00
851.43	33366.00
852.16	33175.00
852.89	32946.00
853.63	32843.00
854.36	32920.00
855.09	32853.00
855.82	32862.00
856.56	32674.00
857.29	32452.00
858.02	32271.00
858.76	32066.00
859.49	32028.00
860.22	32013.00
860.95	31795.00
861.69	31660.00
862.42	31421.00
863.15	31327.00
863.88	31292.00
864.61	31381.00
865.35	31415.00
866.08	31216.00
866.81	30987.00
867.54	30611.00
868.27	30498.00
869.01	30400.00
869.74	30391.00
870.47	30331.00
871.20	30272.00
871.93	30201.00
872.66	30119.00
873.40	30040.00
874.13	29927.00
874.86	29727.00
875.59	29647.00
876.32	29707.00
877.05	29548.00
877.78	29338.00
878.51	29045.00
879.24	28858.00
879.97	28592.00
880.71	28370.00
881.44	28204.00
882.17	27992.00
882.90	27928.00
883.63	27933.00
884.36	27944.00
885.09	28073.00
885.82	28150.00
886.55	28219.00
887.28	28315.00
888.01	28209.00
888.74	28056.00
889.47	27915.00
890.20	27531.00
890.93	27163.00
891.66	27005.00
892.39	26833.00
893.12	26779.00
893.85	26647.00
894.57	26509.00
895.30	26324.00
896.03	26199.00
896.76	26021.00
897.49	25864.00
898.22	25752.00
898.95	25669.00
899.68	25595.00
900.41	25583.00
901.14	25601.00
901.86	25534.00
902.59	25556.00
903.32	25461.00
904.05	25427.00
904.78	25209.00
905.51	25065.00
906.24	24812.00
906.96	24452.00
907.69	24232.00
908.42	24043.00
909.15	23914.00
909.88	23726.00
910.60	23568.00
911.33	23544.00
912.06	23559.00
912.79	23496.00
913.52	23382.00
914.24	23264.00
914.97	23112.00
915.70	22933.00
916.42	22798.00
917.15	22587.00
917.88	22446.00
918.61	22268.00
919.33	22062.00
920.06	21890.00
920.79	21744.00
921.51	21625.00
922.24	21555.00
922.97	21367.00
923.69	21169.00
924.42	21014.00
925.15	20738.00
925.87	20520.00
926.60	20302.00
927.33	20071.00
928.05	19897.00
928.78	19623.00
929.51	19496.00
930.23	19226.00
930.96	19013.00
931.68	18756.00
932.41	18537.00
933.14	18277.00
933.86	17950.00
934.59	17620.00
935.31	17248.00
936.04	16749.00
936.76	16386.00
937.49	15868.00
938.21	15513.00
938.94	15048.00
939.66	14706.00
940.39	14293.00
941.11	13981.00
941.84	13762.00
942.56	13646.00
943.29	13488.00
944.01	13419.00
944.74	13363.00
945.46	13350.00
946.19	13389.00
946.91	13432.00
947.64	13456.00
948.36	13503.00
949.09	13532.00
949.81	13530.00
950.53	13610.00
951.26	13612.00
951.98	13675.00
952.71	13666.00
953.43	13680.00
954.15	13752.00
954.88	13798.00
955.60	13782.00
956.33	13805.00
957.05	13792.00
957.77	13787.00
958.50	13801.00
959.22	13770.00
959.94	13761.00
960.67	13659.00
961.39	13655.00
962.11	13604.00
962.84	13601.00
963.56	13548.00
964.28	13477.00
965.00	13332.00
965.73	13205.00
966.45	13110.00
967.17	13003.00
967.89	12912.00
968.62	12775.00
969.34	12652.00
970.06	12524.00
970.78	12514.00
971.51	12440.00
972.23	12382.00
972.95	12255.00
973.67	12180.00
974.40	12060.00
975.12	11939.00
975.84	11829.00
976.56	11712.00
977.28	11606.00
978.00	11510.00
978.73	11502.00
979.45	11391.00
980.17	11332.00
980.89	11299.00
981.61	11215.00
982.33	11207.00
983.05	11165.00
983.77	11122.00
984.50	11035.00
985.22	11009.00
985.94	11034.00
986.66	10956.00
987.38	10941.00
988.10	10877.00
988.82	10824.00
989.54	10800.00
990.26	10699.00
990.98	10583.00
991.70	10500.00
992.42	10399.00
993.14	10269.00
993.86	10182.00
994.58	10064.00
995.30	9943.00
996.02	9876.00
996.74	9822.00
997.46	9750.00
998.18	9697.00
998.90	9601.00
999.62	9509.00
1000.34	9444.00
1001.06	9442.00
1001.78	9349.00
1002.50	9264.00
1003.22	9150.00
1003.94	9010.00
1004.66	8919.00
1005.38	8833.00
1006.09	8713.00
1006.81	8599.00
1007.53	8468.00
1008.25	8375.00
1008.97	8285.00
1009.69	8221.00
1010.41	8145.00
1011.13	8063.00
1011.84	7988.00
1012.56	7929.00
1013.28	7873.00
1014.00	7780.00
1014.72	7715.00
1015.44	7633.00
1016.15	7515.00
1016.87	7418.00
1017.59	7319.00
1018.31	7229.00
1019.03	7188.00
1019.74	7128.00
1020.46	7049.00
1021.18	7008.00
1021.90	6918.00
1022.61	6885.00
1023.33	6781.00
1024.05	6747.00
1024.76	6650.00
1025.48	6557.00
1026.20	6473.00
1026.92	6376.00
1027.63	6303.00
1028.35	6270.00
1029.07	6185.00
1029.78	6098.00
1030.50	6011.00
1031.22	5932.00
1031.93	5856.00
1032.65	5786.00
1033.37	5748.00
1034.08	5680.00
1034.80	5648.00
1035.52	5599.00
1036.23	5553.00
1036.95	5526.00
1037.66	5467.00
1038.38	5405.00
1039.10	5345.00
1039.81	5278.00
1040.53	5178.00
1041.24	5111.00
1041.96	5055.00
1042.67	5000.00
1043.39	4953.00
1044.10	4896.00
1044.82	4837.00
1045.54	4794.00
1046.25	4741.00
1046.97	4705.00
1047.68	4663.00
1048.40	4580.00
1049.11	4529.00
1049.83	4481.00
1050.54	4427.00
1051.26	4390.00
1051.97	4338.00
1052.68	4289.00
1053.40	4253.00
1054.11	4177.00
1054.83	4126.00
1055.54	4076.00
1056.26	4032.00
1056.97	4001.00
1057.69	3955.00
1058.40	3927.00
1059.11	3868.00
1059.83	3831.00
1060.54	3772.00
1061.25	3710.00
1061.97	3663.00
1062.68	3618.00
1063.40	3581.00
1064.11	3541.00
1064.82	3486.00
1065.54	3435.00
1066.25	2577.00
1066.96	2570.00
1067.68	2557.00
1068.39	2571.00
1069.10	2614.00
1069.82	2615.00
1070.53	2618.00
1071.24	2605.00
1071.95	2626.00
1072.67	2618.00
1073.38	3377.00
1074.09	3327.00
1074.80	3280.00
1075.52	3233.00
1076.23	3190.00
1076.94	3146.00
1077.65	2179.00
1078.37	2181.00
1079.08	2183.00
1079.79	2188.00
