300.47	2620.00
301.26	2617.00
302.04	2605.00
302.82	2624.00
303.60	2617.00
304.38	2604.00
305.17	2625.00
305.95	2613.00
306.73	2610.00
307.51	2621.00
308.29	2603.00
309.08	2617.00
309.86	2615.00
310.64	2603.00
311.42	2622.00
312.20	2619.00
312.98	2608.00
313.76	2621.00
314.55	2611.00
315.33	2615.00
316.11	2614.00
316.89	2607.00
317.67	2621.00
318.45	2618.00
319.23	2599.00
320.01	2622.00
320.79	2613.00
321.57	2602.00
322.35	2620.00
323.13	2609.00
323.91	2605.00
324.69	2613.00
325.47	2605.00
326.25	2616.00
327.03	2617.00
327.81	2591.00
328.59	2622.00
329.37	2621.00
330.15	2604.00
330.93	2616.00
331.71	2613.00
332.49	2613.00
333.27	2620.00
334.05	2602.00
334.83	2616.00
335.61	2619.00
336.39	2600.00
337.17	2628.00
337.95	2619.00
338.73	2600.00
339.51	2625.00
340.29	2617.00
341.07	2616.00
341.84	2621.00
342.62	2613.00
343.40	2626.00
344.18	2625.00
344.96	2626.00
345.74	2617.00
346.52	2625.00
347.29	2634.00
348.07	2638.00
348.85	2621.00
349.63	2646.00
350.41	2635.00
351.18	2625.00
351.96	2656.00
352.74	2651.00
353.52	2642.00
354.30	2659.00
355.07	2657.00
355.85	2646.00
356.63	2654.00
357.41	2666.00
358.18	2667.00
358.96	2672.00
359.74	2667.00
360.52	2687.00
361.29	2690.00
362.07	2676.00
362.85	2702.00
363.62	2699.00
364.40	2698.00
365.18	2701.00
365.95	2716.00
366.73	2733.00
367.51	2730.00
368.28	2732.00
369.06	2732.00
369.84	2757.00
370.61	2764.00
371.39	2764.00
372.17	2757.00
372.94	2775.00
373.72	2786.00
374.49	2801.00
375.27	2798.00
376.05	2821.00
376.82	2827.00
377.60	2815.00
378.37	2849.00
379.15	2856.00
379.92	2865.00
380.70	2884.00
381.47	2886.00
382.25	2907.00
383.02	2917.00
383.80	2911.00
384.58	2956.00
385.35	2957.00
386.13	2964.00
386.90	2991.00
387.67	3001.00
388.45	3013.00
389.22	3033.00
390.00	3038.00
390.77	3074.00
391.55	3077.00
392.32	3082.00
393.10	3123.00
393.87	3128.00
394.65	3137.00
395.42	3171.00
396.19	3174.00
396.97	3199.00
397.74	3220.00
398.52	3229.00
399.29	3265.00
400.06	3276.00
400.84	3285.00
401.61	3315.00
402.38	3339.00
403.16	3336.00
403.93	3376.00
404.70	3384.00
405.48	3425.00
406.25	3444.00
407.02	3457.00
407.80	3474.00
408.57	3515.00
409.34	3516.00
410.12	3564.00
410.89	3580.00
411.66	3585.00
412.43	3624.00
413.21	3662.00
413.98	3681.00
414.75	3681.00
415.52	3686.00
416.30	3735.00
417.07	3780.00
417.84	3789.00
418.61	3808.00
419.39	3836.00
420.16	3874.00
420.93	3896.00
421.70	3916.00
422.47	3937.00
423.24	3972.00
424.02	4044.00
424.79	4041.00
425.56	4053.00
426.33	4098.00
427.10	4142.00
427.87	4167.00
428.64	4212.00
429.42	4236.00
430.19	4269.00
430.96	4310.00
431.73	4344.00
432.50	4388.00
433.27	4405.00
434.04	4452.00
434.81	4511.00
435.58	4549.00
436.35	4581.00
437.12	4617.00
437.89	4686.00
438.67	4724.00
439.44	4755.00
440.21	4825.00
440.98	4864.00
441.75	4894.00
442.52	4967.00
443.29	5003.00
444.06	5034.00
444.83	5112.00
445.60	5199.00
446.37	5223.00
447.13	5265.00
447.90	5308.00
448.67	5384.00
449.44	5454.00
450.21	5529.00
450.98	5567.00
451.75	5598.00
452.52	5665.00
453.29	5741.00
454.06	5821.00
454.83	5885.00
455.60	5943.00
456.37	5983.00
457.13	6091.00
457.90	6164.00
458.67	6258.00
459.44	6295.00
460.21	6394.00
460.98	6469.00
461.75	6546.00
462.51	6607.00
463.28	6697.00
464.05	6798.00
464.82	6867.00
465.59	6926.00
466.35	7024.00
467.12	7102.00
467.89	7194.00
468.66	7273.00
469.43	7362.00
470.19	7449.00
470.96	7525.00
471.73	7613.00
472.50	7720.00
473.26	7806.00
474.03	7900.00
474.80	7982.00
475.56	8102.00
476.33	8187.00
477.10	8263.00
477.87	8362.00
478.63	8500.00
479.40	8609.00
480.17	8696.00
480.93	8814.00
481.70	8880.00
482.47	9032.00
483.23	9129.00
484.00	9246.00
484.76	9341.00
485.53	9483.00
486.30	9551.00
487.06	9675.00
487.83	9820.00
488.60	9914.00
489.36	10037.00
490.13	10128.00
490.89	10216.00
491.66	10337.00
492.42	10508.00
493.19	10610.00
493.96	10740.00
494.72	10809.00
495.49	10999.00
496.25	11123.00
497.02	11218.00
497.78	11330.00
498.55	11497.00
499.31	11595.00
500.08	11736.00
500.84	11785.00
501.61	11973.00
502.37	12119.00
503.14	12223.00
503.90	12404.00
504.67	12453.00
505.43	12635.00
506.20	12844.00
506.96	12933.00
507.72	13077.00
508.49	13214.00
509.25	13331.00
510.02	13501.00
510.78	13664.00
511.54	13812.00
512.31	13950.00
513.07	14059.00
513.84	14244.00
514.60	14359.00
515.36	14538.00
516.13	14591.00
516.89	14748.00
517.65	14877.00
518.42	15019.00
519.18	15140.00
519.94	15269.00
520.71	15417.00
521.47	15559.00
522.23	15701.00
523.00	15854.00
523.76	16060.00
524.52	16215.00
525.28	16358.00
526.05	16529.00
526.81	16700.00
527.57	16907.00
528.33	17043.00
529.10	17126.00
529.86	17317.00
530.62	17513.00
531.38	17620.00
532.15	17813.00
532.91	17951.00
533.67	18140.00
534.43	18235.00
535.19	18373.00
535.96	18587.00
536.72	18692.00
537.48	18850.00
538.24	19001.00
539.00	19151.00
539.76	19347.00
540.53	19567.00
541.29	19667.00
542.05	19818.00
542.81	20002.00
543.57	20224.00
544.33	20419.00
545.09	20619.00
545.85	20748.00
546.61	20897.00
547.38	21085.00
548.14	21229.00
548.90	21398.00
549.66	21579.00
550.42	21785.00
551.18	21937.00
551.94	22059.00
552.70	22255.00
553.46	22330.00
554.22	22499.00
554.98	22625.00
555.74	22793.00
556.50	22915.00
557.26	23108.00
558.02	23379.00
558.78	23499.00
559.54	23620.00
560.30	23843.00
561.06	24043.00
561.82	24213.00
562.58	24456.00
563.34	24648.00
564.10	24773.00
564.86	24905.00
565.61	25117.00
566.37	25217.00
567.13	25509.00
567.89	25676.00
568.65	25886.00
569.41	25984.00
570.17	26212.00
570.93	26407.00
571.69	26582.00
572.44	26723.00
573.20	26920.00
573.96	27040.00
574.72	27242.00
575.48	27220.00
576.24	27441.00
576.99	27578.00
577.75	27677.00
578.51	27916.00
579.27	28161.00
580.03	28350.00
580.78	28576.00
581.54	28689.00
582.30	28866.00
583.06	28998.00
583.82	29169.00
584.57	29290.00
585.33	29462.00
586.09	29678.00
586.84	29713.00
587.60	29793.00
588.36	30005.00
589.12	30196.00
589.87	30369.00
590.63	30528.00
591.39	30692.00
592.14	30775.00
592.90	30942.00
593.66	31110.00
594.41	31378.00
595.17	31524.00
595.93	31696.00
596.68	31757.00
597.44	31860.00
598.20	32036.00
598.95	32306.00
599.71	32538.00
600.46	32633.00
601.22	32716.00
601.98	32930.00
602.73	33151.00
603.49	33403.00
604.24	33698.00
605.00	33824.00
605.76	33907.00
606.51	34138.00
607.27	34308.00
608.02	34432.00
608.78	34613.00
609.53	34834.00
610.29	34970.00
611.04	35173.00
611.80	35333.00
612.55	35533.00
613.31	35732.00
614.06	35977.00
614.82	36196.00
615.57	36363.00
616.33	36403.00
617.08	36495.00
617.84	36587.00
618.59	36691.00
619.35	36682.00
620.10	36769.00
620.85	36774.00
621.61	36692.00
622.36	36813.00
623.12	36911.00
623.87	37056.00
624.62	37097.00
625.38	37321.00
626.13	37469.00
626.89	37597.00
627.64	37696.00
628.39	37739.00
629.15	37842.00
629.90	37852.00
630.65	37895.00
631.41	37879.00
632.16	37815.00
632.91	37792.00
633.67	37821.00
634.42	37921.00
635.17	38156.00
635.92	38505.00
636.68	38924.00
637.43	39415.00
638.18	39735.00
638.94	40110.00
639.69	40539.00
640.44	40855.00
641.19	41227.00
641.95	41589.00
642.70	41766.00
643.45	41936.00
644.20	42127.00
644.95	42213.00
645.71	42302.00
646.46	42387.00
647.21	42553.00
647.96	42596.00
648.71	42831.00
649.47	42945.00
650.22	43077.00
650.97	43213.00
651.72	43411.00
652.47	43589.00
653.22	43596.00
653.97	43656.00
654.73	43783.00
655.48	43871.00
656.23	44041.00
656.98	44175.00
657.73	44341.00
658.48	44424.00
659.23	44491.00
659.98	44654.00
660.73	44617.00
661.48	44822.00
662.23	44980.00
662.99	44925.00
663.74	44795.00
664.49	45014.00
665.24	45433.00
665.99	45691.00
666.74	45864.00
667.49	46012.00
668.24	46010.00
668.99	46128.00
669.74	46334.00
670.49	46527.00
671.24	46754.00
671.99	46958.00
672.74	47012.00
673.48	47042.00
674.23	47059.00
674.98	47066.00
675.73	47104.00
676.48	47338.00
677.23	47358.00
677.98	47398.00
678.73	47533.00
679.48	47511.00
680.23	47672.00
680.98	47690.00
681.73	47667.00
682.47	47682.00
683.22	47680.00
683.97	47796.00
684.72	47882.00
685.47	47909.00
686.22	47990.00
686.97	48119.00
687.71	48211.00
688.46	48195.00
689.21	48154.00
689.96	48293.00
690.71	48204.00
691.45	48132.00
692.20	48245.00
692.95	48351.00
693.70	48459.00
694.44	48619.00
695.19	48747.00
695.94	48786.00
696.69	48857.00
697.43	49048.00
698.18	49163.00
698.93	49166.00
699.68	49095.00
700.42	49021.00
701.17	48991.00
701.92	49092.00
702.66	49021.00
703.41	49082.00
704.16	49114.00
704.90	49204.00
705.65	49223.00
706.40	49173.00
707.14	49276.00
707.89	49399.00
708.64	49356.00
709.38	49369.00
710.13	49279.00
710.88	49395.00
711.62	49414.00
712.37	49333.00
713.11	49296.00
713.86	49332.00
714.61	49265.00
715.35	49242.00
716.10	49212.00
716.84	49189.00
717.59	49252.00
718.33	49106.00
719.08	49186.00
719.83	49288.00
720.57	49122.00
721.32	48983.00
722.06	48850.00
722.81	48791.00
723.55	48624.00
724.30	48509.00
725.04	48526.00
725.79	48352.00
726.53	48308.00
727.28	48400.00
728.02	48432.00
728.76	48513.00
729.51	48640.00
730.25	48668.00
731.00	48623.00
731.74	48506.00
732.49	48452.00
733.23	48291.00
733.97	48003.00
734.72	47887.00
735.46	47871.00
736.21	47721.00
736.95	47822.00
737.69	47902.00
738.44	48022.00
739.18	48170.00
739.92	48401.00
740.67	48551.00
741.41	48707.00
742.15	48877.00
742.90	49165.00
743.64	49213.00
744.38	49118.00
745.13	49035.00
745.87	48985.00
746.61	48930.00
747.36	48863.00
748.10	48737.00
748.84	48553.00
749.58	48183.00
750.33	48274.00
751.07	48241.00
751.81	48085.00
752.55	47943.00
753.30	47878.00
754.04	47803.00
754.78	47679.00
755.52	47662.00
756.27	47563.00
757.01	47460.00
757.75	47508.00
758.49	47571.00
759.23	47571.00
759.97	47549.00
760.72	47422.00
761.46	47520.00
762.20	47573.00
762.94	47619.00
763.68	47539.00
764.42	47399.00
765.16	47267.00
765.91	47299.00
766.65	47239.00
767.39	47239.00
768.13	47104.00
768.87	47139.00
769.61	46908.00
770.35	46789.00
771.09	46697.00
771.83	46545.00
772.57	46453.00
773.31	46484.00
774.05	46632.00
774.80	46625.00
775.54	46592.00
776.28	46534.00
777.02	46360.00
777.76	46271.00
778.50	46073.00
779.24	45845.00
779.98	45533.00
780.72	45346.00
781.46	45138.00
782.20	45083.00
782.93	45122.00
783.67	45104.00
784.41	45011.00
785.15	44786.00
785.89	44680.00
786.63	44657.00
787.37	44557.00
788.11	44464.00
788.85	44415.00
789.59	44473.00
790.33	44566.00
791.07	44633.00
791.81	44525.00
792.54	44395.00
793.28	44135.00
794.02	43842.00
794.76	43568.00
795.50	43084.00
796.24	42858.00
796.97	42515.00
797.71	42207.00
798.45	42081.00
799.19	42033.00
799.93	42001.00
800.67	41831.00
801.40	41779.00
802.14	41915.00
802.88	42063.00
803.62	42075.00
804.35	42043.00
805.09	41838.00
805.83	41656.00
806.57	41724.00
807.30	41577.00
808.04	41608.00
808.78	41442.00
809.52	41036.00
810.25	40795.00
810.99	40638.00
811.73	40530.00
812.46	40451.00
813.20	40375.00
813.94	40315.00
814.68	40186.00
815.41	40068.00
816.15	40199.00
816.88	40217.00
817.62	40017.00
818.36	39730.00
819.09	39545.00
819.83	39293.00
820.57	39250.00
821.30	39097.00
822.04	39031.00
822.77	38732.00
823.51	38598.00
824.25	38572.00
824.98	38648.00
825.72	38696.00
826.45	38725.00
827.19	38571.00
827.92	38320.00
828.66	38198.00
829.40	38059.00
830.13	37936.00
830.87	37859.00
831.60	37722.00
832.34	37540.00
833.07	37513.00
833.81	37447.00
834.54	37493.00
835.28	37432.00
836.01	37486.00
836.75	37430.00
837.48	37171.00
838.22	37017.00
838.95	36967.00
839.68	36944.00
840.42	36867.00
841.15	36750.00
841.89	36700.00
842.62	36325.00
843.36	36083.00
844.09	35908.00
844.82	35884.00
845.56	35777.00
846.29	35528.00
847.02	35186.00
847.76	35101.00
848.49	34925.00
849.23	35025.00
849.96	35133.00
850.69	35192.00
851.43	35168.00
852.16	34917.00
852.89	34803.00
853.63	34739.00
854.36	34696.00
855.09	34757.00
855.82	34744.00
856.56	34536.00
857.29	34351.00
858.02	34147.00
858.76	34013.00
859.49	33884.00
860.22	33895.00
860.95	33797.00
861.69	33574.00
862.42	33331.00
863.15	33194.00
863.88	33217.00
864.61	33314.00
865.35	33338.00
866.08	33169.00
866.81	32859.00
867.54	32638.00
868.27	32463.00
869.01	32316.00
869.74	32332.00
870.47	32283.00
871.20	32285.00
871.93	32230.00
872.66	32160.00
873.40	31978.00
874.13	31851.00
874.86	31726.00
875.59	31719.00
876.32	31679.00
877.05	31478.00
877.78	31348.00
878.51	31088.00
879.24	30868.00
879.97	30624.00
880.71	30400.00
881.44	30176.00
882.17	30087.00
882.90	29992.00
883.63	29938.00
884.36	30008.00
885.09	30077.00
885.82	30196.00
886.55	30248.00
887.28	30348.00
888.01	30336.00
888.74	30177.00
889.47	29951.00
890.20	29624.00
890.93	29304.00
891.66	29040.00
892.39	28961.00
893.12	28905.00
893.85	28819.00
894.57	28574.00
895.30	28454.00
896.03	28380.00
896.76	28143.00
897.49	28098.00
898.22	27936.00
898.95	27811.00
899.68	27815.00
900.41	27725.00
901.14	27735.00
901.86	27734.00
902.59	27670.00
903.32	27653.00
904.05	27693.00
904.78	27469.00
905.51	27228.00
906.24	26947.00
906.96	26627.00
907.69	26388.00
908.42	26246.00
909.15	26150.00
909.88	25983.00
910.60	25799.00
911.33	25756.00
912.06	25746.00
912.79	25656.00
913.52	25539.00
914.24	25476.00
914.97	25338.00
915.70	25199.00
916.42	25031.00
917.15	24809.00
917.88	24670.00
918.61	24445.00
919.33	24323.00
920.06	24119.00
920.79	23965.00
921.51	23840.00
922.24	23760.00
922.97	23492.00
923.69	23428.00
924.42	23205.00
925.15	22985.00
925.87	22829.00
926.60	22508.00
927.33	22261.00
928.05	22010.00
928.78	21823.00
929.51	21654.00
930.23	21368.00
930.96	21149.00
931.68	20881.00
932.41	20643.00
933.14	20360.00
933.86	20052.00
934.59	19697.00
935.31	19265.00
936.04	18786.00
936.76	18315.00
937.49	17847.00
938.21	17389.00
938.94	16947.00
939.66	16537.00
940.39	16114.00
941.11	15829.00
941.84	15596.00
942.56	15402.00
943.29	15293.00
944.01	15213.00
944.74	15106.00
945.46	15102.00
946.19	15140.00
946.91	15244.00
947.64	15205.00
948.36	15302.00
949.09	15307.00
949.81	15382.00
950.53	15425.00
951.26	15458.00
951.98	15490.00
952.71	15477.00
953.43	15534.00
954.15	15585.00
954.88	15676.00
955.60	15684.00
956.33	15695.00
957.05	15655.00
957.77	15625.00
958.50	15712.00
959.22	15732.00
959.94	15660.00
960.67	15561.00
961.39	15492.00
962.11	15501.00
962.84	15492.00
963.56	15447.00
964.28	15375.00
965.00	15277.00
965.73	15127.00
966.45	14982.00
967.17	14907.00
967.89	14772.00
968.62	14588.00
969.34	14455.00
970.06	14352.00
970.78	14270.00
971.51	14276.00
972.23	14155.00
972.95	14060.00
973.67	14012.00
974.40	13848.00
975.12	13724.00
975.84	13604.00
976.56	13465.00
977.28	13319.00
978.00	13255.00
978.73	13227.00
979.45	13149.00
980.17	13057.00
980.89	13076.00
981.61	12999.00
982.33	12989.00
983.05	12900.00
983.77	12848.00
984.50	12781.00
985.22	12775.00
985.94	12723.00
986.66	12671.00
987.38	12650.00
988.10	12633.00
988.82	12606.00
989.54	12516.00
990.26	12407.00
990.98	12313.00
991.70	12209.00
992.42	12045.00
993.14	11916.00
993.86	11879.00
994.58	11733.00
995.30	11583.00
996.02	11484.00
996.74	11387.00
997.46	11375.00
998.18	11296.00
998.90	11195.00
999.62	11102.00
1000.34	11060.00
1001.06	10976.00
1001.78	10870.00
1002.50	10791.00
1003.22	10631.00
1003.94	10536.00
1004.66	10399.00
1005.38	10314.00
1006.09	10181.00
1006.81	10062.00
1007.53	9895.00
1008.25	9793.00
1008.97	9680.00
1009.69	9597.00
1010.41	9536.00
1011.13	9411.00
1011.84	9350.00
1012.56	9241.00
1013.28	9170.00
1014.00	9091.00
1014.72	9025.00
1015.44	8920.00
1016.15	8783.00
1016.87	8663.00
1017.59	8512.00
1018.31	8440.00
1019.03	8398.00
1019.74	8332.00
1020.46	8203.00
1021.18	8113.00
1021.90	8043.00
1022.61	8013.00
1023.33	7946.00
1024.05	7852.00
1024.76	7727.00
1025.48	7644.00
1026.20	7518.00
1026.92	7396.00
1027.63	7313.00
1028.35	7253.00
1029.07	7162.00
1029.78	7051.00
1030.50	6978.00
1031.22	6882.00
1031.93	6763.00
1032.65	6689.00
1033.37	6644.00
1034.08	6565.00
1034.80	6505.00
1035.52	6429.00
1036.23	6397.00
1036.95	6338.00
1037.66	6294.00
1038.38	6223.00
1039.10	6130.00
1039.81	6037.00
1040.53	5940.00
1041.24	5886.00
1041.96	5798.00
1042.67	5718.00
1043.39	5644.00
1044.10	5598.00
1044.82	5541.00
1045.54	5481.00
1046.25	5420.00
1046.97	5377.00
1047.68	5289.00
1048.40	5226.00
1049.11	5164.00
1049.83	5079.00
1050.54	5017.00
1051.26	4966.00
1051.97	4913.00
1052.68	4855.00
1053.40	4796.00
1054.11	4718.00
1054.83	4652.00
1055.54	4596.00
1056.26	4555.00
1056.97	4499.00
1057.69	4456.00
1058.40	4393.00
1059.11	4349.00
1059.83	4292.00
1060.54	4237.00
1061.25	4150.00
1061.97	4091.00
1062.68	4045.00
1063.40	3985.00
1064.11	3932.00
1064.82	3865.00
1065.54	3797.00
1066.25	2573.00
1066.96	2553.00
1067.68	2577.00
1068.39	2573.00
1069.10	2604.00
1069.82	2624.00
1070.53	2617.00
1071.24	2617.00
1071.95	2623.00
1072.67	2607.00
1073.38	3724.00
1074.09	3676.00
1074.80	3624.00
1075.52	3556.00
1076.23	3507.00
1076.94	3447.00
1077.65	2228.00
1078.37	2226.00
1079.08	2233.00
1079.79	2243.00
