174.03	849.70
174.41	849.70
174.78	849.70
175.16	806.76
175.54	788.68
175.92	768.34
176.30	763.82
176.67	757.04
177.05	790.94
177.43	858.73
177.81	874.55
178.19	849.70
178.56	892.63
178.94	845.18
179.32	863.25
179.70	840.66
180.08	899.41
180.45	989.80
180.83	969.47
181.21	1012.40
181.59	1044.04
181.96	1019.18
182.34	1044.04
182.72	1050.82
183.10	1082.46
183.48	1062.12
183.85	1102.80
184.23	1055.34
184.61	1118.61
184.99	1093.76
185.36	1093.76
185.74	1138.95
186.12	1177.37
186.50	1111.84
186.87	1188.67
187.25	1163.81
187.63	1179.63
188.01	1116.35
188.38	1118.61
188.76	1202.23
189.14	1129.91
189.52	1188.67
189.89	1141.21
190.27	1172.85
190.65	1170.59
191.02	1114.10
191.40	1125.39
191.78	1202.23
192.16	1181.89
192.53	1163.81
192.91	1238.39
193.29	1202.23
193.66	1154.77
194.04	1193.19
194.42	1107.32
194.79	1141.21
195.17	1195.45
195.55	1161.55
195.93	1161.55
196.30	1166.07
196.68	1166.07
197.06	1193.19
197.43	1098.28
197.81	1197.71
198.19	1186.41
198.56	1177.37
198.94	1181.89
199.32	1152.51
199.69	1224.83
200.07	1168.33
200.45	1143.47
200.82	1163.81
201.20	1086.98
201.58	1161.55
201.95	1091.50
202.33	1141.21
202.71	1147.99
203.08	1170.59
203.46	1157.03
203.84	1132.17
204.21	1186.41
204.59	1168.33
204.96	1152.51
205.34	1159.29
205.72	1186.41
206.09	1134.43
206.47	1132.17
206.85	1161.55
207.22	1154.77
207.60	1190.93
207.97	1125.39
208.35	1213.53
208.73	1154.77
209.10	1111.84
209.48	1170.59
209.85	1197.71
210.23	1186.41
210.61	1096.02
210.98	1168.33
211.36	1138.95
211.73	1105.06
212.11	1080.20
212.49	1120.87
212.86	1136.69
213.24	1154.77
213.61	1107.32
213.99	1211.27
214.37	1163.81
214.74	1089.24
215.12	1127.65
215.49	1161.55
215.87	1199.97
216.24	1145.73
216.62	1193.19
216.99	1086.98
217.37	1098.28
217.75	1181.89
218.12	1186.41
218.50	1136.69
218.87	1195.45
219.25	1175.11
219.62	1136.69
220.00	1184.15
220.37	1161.55
220.75	1177.37
221.12	1147.99
221.50	1154.77
221.87	1211.27
222.25	1166.07
222.63	1143.47
223.00	1161.55
223.38	1175.11
223.75	1184.15
224.13	1168.33
224.50	1136.69
224.88	1163.81
225.25	1168.33
225.63	1129.91
226.00	1251.94
226.38	1114.10
226.75	1118.61
227.13	1116.35
227.50	1202.23
227.88	1199.97
228.25	1197.71
228.63	1120.87
229.00	1111.84
229.37	1107.32
229.75	1202.23
230.12	1195.45
230.50	1166.07
230.87	1166.07
231.25	1136.69
231.62	1175.11
232.00	1141.21
232.37	1168.33
232.75	1136.69
233.12	1163.81
233.50	1068.90
233.87	1172.85
234.24	1152.51
234.62	1143.47
234.99	1222.57
235.37	1159.29
235.74	1132.17
236.12	1159.29
236.49	1120.87
236.86	1152.51
237.24	1157.03
237.61	1170.59
237.99	1143.47
238.36	1159.29
238.74	1143.47
239.11	1120.87
239.48	1138.95
239.86	1184.15
240.23	1218.05
240.61	1211.27
240.98	1179.63
241.35	1150.25
241.73	1091.50
242.10	1188.67
242.48	1159.29
242.85	1123.13
243.22	1188.67
243.60	1211.27
243.97	1184.15
244.34	1114.10
244.72	1190.93
245.09	1220.31
245.47	1209.01
245.84	1175.11
246.21	1193.19
246.59	1127.65
246.96	1147.99
247.33	1177.37
247.71	1186.41
248.08	1227.09
248.45	1118.61
248.83	1177.37
249.20	1170.59
249.57	1125.39
249.95	1172.85
250.32	1145.73
250.69	1157.03
251.07	1229.35
251.44	1197.71
251.81	1147.99
252.19	1123.13
252.56	1166.07
252.93	1150.25
253.31	1152.51
253.68	1118.61
254.05	1123.13
254.43	1197.71
254.80	1147.99
255.17	1141.21
255.55	1197.71
255.92	1199.97
256.29	1141.21
256.66	1157.03
257.04	1141.21
257.41	1163.81
257.78	1064.38
258.16	1285.84
258.53	1168.33
258.90	1129.91
259.27	1109.58
259.65	1193.19
260.02	1152.51
260.39	1190.93
260.76	1190.93
261.14	1166.07
261.51	1150.25
261.88	1202.23
262.25	1118.61
262.63	1206.75
263.00	1190.93
263.37	1157.03
263.74	1118.61
264.12	1145.73
264.49	1127.65
264.86	1177.37
265.23	1147.99
265.61	1166.07
265.98	1186.41
266.35	1222.57
266.72	1177.37
267.09	1147.99
267.47	1197.71
267.84	1179.63
268.21	1138.95
268.58	1220.31
268.95	1197.71
269.33	1224.83
269.70	1184.15
270.07	1193.19
270.44	1179.63
270.81	1166.07
271.19	1166.07
271.56	1179.63
271.93	1138.95
272.30	1163.81
272.67	1211.27
273.05	1188.67
273.42	1195.45
273.79	1229.35
274.16	1199.97
274.53	1163.81
274.90	1211.27
275.28	1168.33
275.65	1107.32
276.02	1152.51
276.39	1179.63
276.76	1138.95
277.13	1168.33
277.50	1202.23
277.88	1220.31
278.25	1222.57
278.62	1211.27
278.99	1193.19
279.36	1193.19
279.73	1195.45
280.10	1157.03
280.47	1181.89
280.85	1197.71
281.22	1256.46
281.59	1193.19
281.96	1197.71
282.33	1143.47
282.70	1213.53
283.07	1206.75
283.44	1154.77
283.81	1263.24
284.18	1145.73
284.56	1145.73
284.93	1168.33
285.30	1159.29
285.67	1193.19
286.04	1168.33
286.41	1093.76
286.78	1186.41
287.15	1152.51
287.52	1184.15
287.89	1227.09
288.26	1193.19
288.63	1202.23
289.00	1229.35
289.37	1233.87
289.75	1186.41
290.12	1127.65
290.49	1220.31
290.86	1202.23
291.23	1184.15
291.60	1206.75
291.97	1220.31
292.34	1206.75
292.71	1202.23
293.08	1177.37
293.45	1218.05
293.82	1231.61
294.19	1145.73
294.56	1199.97
294.93	1184.15
295.30	1227.09
295.67	1190.93
296.04	1247.42
296.41	1202.23
296.78	1211.27
297.15	1276.80
297.52	1184.15
297.89	1161.55
298.26	1179.63
298.63	1240.65
299.00	1256.46
299.37	1166.07
299.74	1166.07
300.11	1215.79
300.48	1213.53
300.85	1215.79
301.22	1184.15
301.59	1172.85
301.96	1152.51
302.33	1251.94
302.70	1184.15
303.07	1166.07
303.43	1190.93
303.80	1152.51
304.17	1215.79
304.54	1157.03
304.91	1199.97
305.28	1204.49
305.65	1157.03
306.02	1220.31
306.39	1154.77
306.76	1184.15
307.13	1249.68
307.50	1218.05
307.87	1170.59
308.24	1258.72
308.60	1227.09
308.97	1231.61
309.34	1204.49
309.71	1231.61
310.08	1263.24
310.45	1166.07
310.82	1254.20
311.19	1193.19
311.56	1256.46
311.92	1190.93
312.29	1249.68
312.66	1197.71
313.03	1242.91
313.40	1172.85
313.77	1209.01
314.14	1260.98
314.51	1206.75
314.87	1229.35
315.24	1281.32
315.61	1199.97
315.98	1202.23
316.35	1240.65
316.72	1161.55
317.09	1138.95
317.45	1188.67
317.82	1136.69
318.19	1236.13
318.56	1279.06
318.93	1245.16
319.30	1231.61
319.66	1211.27
320.03	1245.16
320.40	1134.43
320.77	1177.37
321.14	1215.79
321.50	1215.79
321.87	1233.87
322.24	1197.71
322.61	1152.51
322.98	1147.99
323.34	1188.67
323.71	1227.09
324.08	1181.89
324.45	1224.83
324.82	1199.97
325.18	1229.35
325.55	1240.65
325.92	1260.98
326.29	1199.97
326.65	1233.87
327.02	1218.05
327.39	1240.65
327.76	1251.94
328.12	1229.35
328.49	1184.15
328.86	1202.23
329.23	1247.42
329.59	1218.05
329.96	1184.15
330.33	1175.11
330.70	1215.79
331.06	1209.01
331.43	1213.53
331.80	1242.91
332.17	1258.72
332.53	1290.36
332.90	1256.46
333.27	1283.58
333.63	1240.65
334.00	1251.94
334.37	1172.85
334.74	1213.53
335.10	1213.53
335.47	1197.71
335.84	1247.42
336.20	1218.05
336.57	1231.61
336.94	1213.53
337.30	1294.88
337.67	1249.68
338.04	1274.54
338.40	1227.09
338.77	1260.98
339.14	1224.83
339.50	1213.53
339.87	1267.76
340.24	1211.27
340.60	1188.67
340.97	1267.76
341.34	1213.53
341.70	1238.39
342.07	1236.13
342.44	1227.09
342.80	1213.53
343.17	1181.89
343.53	1245.16
343.90	1209.01
344.27	1272.28
344.63	1195.45
345.00	1199.97
345.37	1270.02
345.73	1274.54
346.10	1299.40
346.46	1222.57
346.83	1197.71
347.20	1263.24
347.56	1240.65
347.93	1229.35
348.29	1279.06
348.66	1233.87
349.03	1236.13
349.39	1251.94
349.76	1263.24
350.12	1245.16
350.49	1290.36
350.85	1204.49
351.22	1238.39
351.59	1229.35
351.95	1292.62
352.32	1265.50
352.68	1303.92
353.05	1285.84
353.41	1236.13
353.78	1227.09
354.14	1315.22
354.51	1270.02
354.88	1236.13
355.24	1294.88
355.61	1294.88
355.97	1301.66
356.34	1227.09
356.70	1218.05
357.07	1263.24
357.43	1254.20
357.80	1213.53
358.16	1319.74
358.53	1242.91
358.89	1227.09
359.26	1227.09
359.62	1281.32
359.99	1315.22
360.35	1274.54
360.72	1249.68
361.08	1303.92
361.45	1297.14
361.81	1315.22
362.18	1283.58
362.54	1294.88
362.91	1297.14
363.27	1346.86
363.63	1331.04
364.00	1322.00
364.36	1319.74
364.73	1249.68
365.09	1319.74
365.46	1346.86
365.82	1340.08
366.19	1306.18
366.55	1401.09
366.91	1403.35
367.28	1367.20
367.64	1319.74
368.01	1398.83
368.37	1367.20
368.74	1299.40
369.10	1367.20
369.46	1342.34
369.83	1362.68
370.19	1364.94
370.56	1337.82
370.92	1360.42
371.28	1401.09
371.65	1358.16
372.01	1416.91
372.38	1392.05
372.74	1376.24
373.10	1464.37
373.47	1378.49
373.83	1432.73
374.19	1410.13
374.56	1489.23
374.92	1387.53
375.29	1464.37
375.65	1466.63
376.01	1425.95
376.38	1459.85
376.74	1466.63
377.10	1545.72
377.47	1405.61
377.83	1455.33
378.19	1595.44
378.56	1595.44
378.92	1624.82
379.28	1688.09
379.65	1742.33
380.01	1679.05
380.37	1737.81
380.74	1839.50
381.10	1825.94
381.46	1812.38
381.83	1889.22
382.19	1900.52
382.55	1966.05
382.91	2033.84
383.28	2117.46
383.64	2192.03
384.00	2302.76
384.37	2483.55
384.73	2567.16
385.09	2707.27
385.45	2754.73
385.82	2971.67
386.18	3107.26
386.54	3430.42
386.91	3556.97
387.27	3938.88
387.63	4078.99
387.99	4284.63
388.36	4677.84
388.72	5030.38
389.08	5448.44
389.44	5796.46
389.80	6219.05
390.17	6752.36
390.53	7358.00
390.89	8085.66
391.25	8444.98
391.62	9018.97
391.98	10063.01
392.34	10969.20
392.70	11669.75
393.06	12438.09
393.43	13330.72
393.79	14243.69
394.15	14993.96
394.51	15963.42
394.87	17190.51
395.24	18709.11
395.60	19931.68
395.96	21423.17
396.32	23086.40
396.68	24986.91
397.04	27117.93
397.41	29361.94
397.77	31174.32
398.13	33913.23
398.49	35664.60
398.85	38412.55
399.21	42823.73
399.58	44984.13
399.94	47490.28
400.30	51167.02
400.66	52988.44
401.02	55743.17
401.38	57593.97
401.74	59182.62
402.11	61189.35
402.47	62344.12
402.83	63458.22
403.19	64963.26
403.55	65535.00
403.91	65535.00
404.27	65535.00
404.63	65535.00
404.99	65535.00
405.35	65535.00
405.72	65535.00
406.08	65535.00
406.44	65535.00
406.80	65535.00
407.16	65535.00
407.52	65535.00
407.88	65535.00
408.24	65535.00
408.60	65535.00
408.96	65535.00
409.32	65535.00
409.68	65535.00
410.04	65535.00
410.40	65535.00
410.76	65535.00
411.13	65535.00
411.49	65535.00
411.85	63889.85
412.21	62470.67
412.57	61623.24
412.93	60454.91
413.29	58744.22
413.65	57193.98
414.01	55539.78
414.37	53169.22
414.73	51639.32
415.09	49402.09
415.45	48349.01
415.81	45926.48
416.17	43088.13
416.53	41924.32
416.89	40195.55
417.25	38177.53
417.61	35877.02
417.97	34778.75
418.33	33834.14
418.69	32738.12
419.05	31011.61
419.41	30114.46
419.77	29538.21
420.12	27461.42
420.48	26001.58
420.84	25802.71
421.20	24268.29
421.56	22986.97
421.92	22869.46
422.28	21264.98
422.64	19768.97
423.00	19086.50
423.36	18670.70
423.72	17421.01
424.08	16266.24
424.44	15242.54
424.80	14745.38
425.16	14503.57
425.51	13516.03
425.87	13229.03
426.23	11961.27
426.59	11581.62
426.95	11436.99
427.31	10440.40
427.67	10422.32
428.03	9672.06
428.39	9378.28
428.74	8725.19
429.10	8239.33
429.46	8047.25
429.82	7439.35
430.18	7186.25
430.54	6985.13
430.90	6829.20
431.26	6594.18
431.61	6368.19
431.97	6164.81
432.33	5800.98
432.69	5900.41
433.05	5755.78
433.41	5428.11
433.76	5156.93
434.12	5041.68
434.48	4811.17
434.84	4643.95
435.20	4535.47
435.55	4424.74
435.91	4323.05
436.27	4198.76
436.63	4008.93
436.99	3877.86
437.34	3828.15
437.70	3694.82
438.06	3559.23
438.42	3432.68
438.78	3269.97
439.13	3204.44
439.49	3177.32
439.85	2982.97
440.21	3062.07
440.56	3001.05
440.92	2811.23
441.28	2671.12
441.64	2641.74
441.99	2553.61
442.35	2610.10
442.71	2485.81
443.07	2418.02
443.42	2454.17
443.78	2273.39
444.14	2325.36
444.50	2314.06
444.85	2266.61
445.21	2248.53
445.57	2223.67
445.93	2097.12
446.28	2070.00
446.64	2045.14
447.00	2088.08
447.35	2097.12
447.71	2036.10
448.07	2065.48
448.42	1984.13
448.78	1929.89
449.14	1943.45
449.49	1857.58
449.85	1844.02
450.21	1807.86
450.56	1764.93
450.92	1773.96
451.28	1660.97
451.63	1676.79
451.99	1715.21
452.35	1731.03
452.70	1703.91
453.06	1721.99
453.42	1602.22
453.77	1599.96
454.13	1627.08
454.49	1606.74
454.84	1606.74
455.20	1597.70
455.55	1566.06
455.91	1538.94
456.27	1509.56
456.62	1529.90
456.98	1498.27
457.33	1437.25
457.69	1496.01
458.05	1507.30
458.40	1419.17
458.76	1468.89
459.11	1444.03
459.47	1378.49
459.83	1444.03
460.18	1355.90
460.54	1477.93
460.89	1419.17
461.25	1425.95
461.60	1419.17
461.96	1398.83
462.31	1367.20
462.67	1371.72
463.03	1310.70
463.38	1340.08
463.74	1324.26
464.09	1312.96
464.45	1335.56
464.80	1362.68
465.16	1403.35
465.51	1340.08
465.87	1337.82
466.22	1364.94
466.58	1346.86
466.93	1290.36
467.29	1285.84
467.64	1340.08
468.00	1389.79
468.35	1310.70
468.71	1346.86
469.06	1387.53
469.42	1299.40
469.77	1335.56
470.13	1283.58
470.48	1270.02
470.84	1267.76
471.19	1328.78
471.54	1247.42
471.90	1299.40
472.25	1306.18
472.61	1251.94
472.96	1292.62
473.32	1324.26
473.67	1355.90
474.03	1260.98
474.38	1360.42
474.73	1285.84
475.09	1245.16
475.44	1270.02
475.80	1190.93
476.15	1315.22
476.50	1335.56
476.86	1322.00
477.21	1294.88
477.57	1290.36
477.92	1315.22
478.27	1324.26
478.63	1238.39
478.98	1299.40
479.34	1265.50
479.69	1211.27
480.04	1283.58
480.40	1294.88
480.75	1297.14
481.10	1249.68
481.46	1258.72
481.81	1297.14
482.16	1288.10
482.52	1297.14
482.87	1285.84
483.22	1265.50
483.58	1247.42
483.93	1276.80
484.28	1322.00
484.64	1260.98
484.99	1297.14
485.34	1297.14
485.70	1267.76
486.05	1331.04
486.40	1249.68
486.76	1315.22
487.11	1303.92
487.46	1251.94
487.81	1270.02
488.17	1297.14
488.52	1256.46
488.87	1349.12
489.23	1297.14
489.58	1317.48
489.93	1308.44
490.28	1312.96
490.64	1274.54
490.99	1306.18
491.34	1340.08
491.69	1331.04
492.05	1376.24
492.40	1317.48
492.75	1328.78
493.10	1383.01
493.46	1333.30
493.81	1360.42
494.16	1358.16
494.51	1403.35
494.86	1369.46
495.22	1477.93
495.57	1364.94
495.92	1421.43
496.27	1441.77
496.62	1468.89
496.98	1459.85
497.33	1532.16
497.68	1457.59
498.03	1466.63
498.38	1493.75
498.74	1473.41
499.09	1511.82
499.44	1486.97
499.79	1622.56
500.14	1532.16
500.49	1590.92
500.85	1656.45
501.20	1595.44
501.55	1665.49
501.90	1679.05
502.25	1672.27
502.60	1651.93
502.95	1762.67
503.30	1683.57
503.66	1731.03
504.01	1810.12
504.36	1848.54
504.71	1853.06
505.06	1871.14
505.41	1853.06
505.76	1884.70
506.11	2024.81
506.46	1898.26
506.82	1981.87
507.17	2106.16
507.52	2056.44
507.87	2065.48
508.22	2131.02
508.57	2198.81
508.92	2244.01
509.27	2262.09
509.62	2350.22
509.97	2406.72
510.32	2318.58
510.67	2519.71
511.02	2560.38
511.37	2492.59
511.72	2544.57
512.07	2644.00
512.42	2671.12
512.77	2736.65
513.12	2775.07
513.47	2854.16
513.82	2928.74
514.17	2912.92
514.52	2962.63
514.87	3233.81
515.22	3095.96
515.57	3231.55
515.92	3330.99
516.27	3324.21
516.62	3355.84
516.97	3373.92
517.32	3405.56
517.67	3471.10
518.02	3649.62
518.37	3681.26
518.72	3726.46
519.07	3638.32
519.42	3848.49
519.77	3850.75
520.12	3902.72
520.47	4020.23
520.82	4067.69
521.17	4115.15
521.52	4234.92
521.87	4099.33
522.22	4379.55
522.56	4438.30
522.91	4589.71
523.26	4530.95
523.61	4506.10
523.96	4664.28
524.31	4684.62
524.66	4741.12
525.01	4838.29
525.36	4793.09
525.71	4928.68
526.05	4894.79
526.40	5080.09
526.75	5109.47
527.10	4919.64
527.45	5138.85
527.80	5213.42
528.15	5202.12
528.49	5288.00
528.84	5278.96
529.19	5391.95
529.54	5339.97
529.89	5380.65
530.24	5446.18
530.58	5387.43
530.93	5391.95
531.28	5527.54
531.63	5545.62
531.98	5629.23
532.33	5550.14
532.67	5581.77
533.02	5518.50
533.37	5588.55
533.72	5742.22
534.07	5717.36
534.41	5782.90
534.76	5724.14
535.11	5807.76
535.46	5735.44
535.80	5841.65
536.15	5767.08
536.50	5880.07
536.85	5810.02
537.19	5909.45
537.54	5848.43
537.89	5936.57
538.24	5920.75
538.58	5916.23
538.93	5861.99
539.28	5934.31
539.63	5873.29
539.97	5979.50
540.32	5814.54
540.67	5846.17
541.01	5952.39
541.36	5823.58
541.71	6015.66
542.06	5810.02
542.40	5880.07
542.75	5970.46
543.10	6017.92
543.44	5990.80
543.79	5753.52
544.14	5814.54
544.48	5891.37
544.83	5816.80
545.18	5848.43
545.52	5819.06
545.87	5861.99
546.22	5762.56
546.56	5800.98
546.91	5708.32
547.25	5724.14
547.60	5697.03
547.95	5710.58
548.29	5807.76
548.64	5574.99
548.99	5595.33
549.33	5699.29
549.68	5703.80
550.02	5563.70
550.37	5654.09
550.72	5771.60
551.06	5586.29
551.41	5606.63
551.75	5568.22
552.10	5561.44
552.45	5584.03
552.79	5532.06
553.14	5403.25
553.48	5455.22
553.83	5520.76
554.17	5491.38
554.52	5455.22
554.87	5516.24
555.21	5480.08
555.56	5396.47
555.90	5507.20
556.25	5579.51
556.59	5349.01
556.94	5290.26
557.28	5308.34
557.63	5263.14
557.97	5231.50
558.32	5274.44
558.66	5265.40
559.01	5245.06
559.35	5410.03
559.70	5154.67
560.04	5226.98
560.39	5062.01
560.73	5163.71
561.08	5102.69
561.42	5217.94
561.77	5120.77
562.11	5231.50
562.46	5048.45
562.80	5181.78
563.14	5012.30
563.49	4899.31
563.83	4998.74
564.18	4980.66
564.52	5001.00
564.87	4777.28
565.21	4960.32
565.56	4858.63
565.90	5019.08
566.24	4849.59
566.59	5043.94
566.93	4829.25
567.28	4944.50
567.62	4910.61
567.96	4935.46
568.31	4872.19
568.65	4761.46
569.00	4867.67
569.34	4768.24
569.68	4594.23
570.03	4788.57
570.37	4738.86
570.71	4747.90
571.06	4641.69
571.40	4533.21
571.74	4562.59
572.09	4564.85
572.43	4420.22
572.78	4560.33
573.12	4436.04
573.46	4510.62
573.80	4508.36
574.15	4463.16
574.49	4404.40
574.83	4404.40
575.18	4361.47
575.52	4388.59
575.86	4354.69
576.21	4345.65
576.55	4216.84
576.89	4309.49
577.24	4277.85
577.58	4158.08
577.92	4246.22
578.26	4264.29
578.61	4262.03
578.95	4187.46
579.29	4225.88
579.63	4144.52
579.98	4092.55
580.32	4155.82
580.66	4076.73
581.00	4049.61
581.35	4083.51
581.69	4155.82
582.03	4040.57
582.37	3963.74
582.72	4060.91
583.06	4011.19
583.40	4045.09
583.74	3966.00
584.08	3828.15
584.43	3909.50
584.77	3886.90
585.11	3859.79
585.45	3918.54
585.79	3880.12
586.13	3875.60
586.48	3843.97
586.82	3740.01
587.16	3712.90
587.50	3751.31
587.84	3688.04
588.18	3753.57
588.53	3649.62
588.87	3717.42
589.21	3694.82
589.55	3559.23
589.89	3538.89
590.23	3504.99
590.57	3599.91
590.92	3457.54
591.26	3559.23
591.60	3559.23
591.94	3486.91
592.28	3554.71
592.62	3511.77
592.96	3534.37
593.30	3534.37
593.64	3536.63
593.98	3367.14
594.32	3369.40
594.67	3455.28
595.01	3385.22
595.35	3288.05
595.69	3319.69
596.03	3346.80
596.37	3263.19
596.71	3371.66
597.05	3265.45
597.39	3364.88
597.73	3227.03
598.07	3186.36
598.41	3134.38
598.75	3145.68
599.09	3208.96
599.43	3217.99
599.77	3156.98
600.11	3075.63
600.45	3012.35
600.79	3181.84
601.13	3023.65
601.47	3093.70
601.81	3057.55
602.15	3098.22
602.49	2962.63
602.83	2964.89
603.17	2885.80
603.51	2987.49
603.85	2926.48
604.19	2892.58
604.53	2833.82
604.87	2869.98
605.21	2921.96
605.55	2833.82
605.89	2928.74
606.23	2836.08
606.56	2860.94
606.90	2820.26
607.24	2822.52
607.58	2725.35
607.92	2695.97
608.26	2766.03
608.60	2607.84
608.94	2641.74
609.28	2610.10
609.62	2634.96
609.95	2524.23
610.29	2619.14
610.63	2614.62
610.97	2603.32
611.31	2524.23
611.65	2564.90
611.99	2567.16
612.33	2632.70
612.66	2521.97
613.00	2540.05
613.34	2535.53
613.68	2449.65
614.02	2442.87
614.36	2454.17
614.69	2445.13
615.03	2442.87
615.37	2465.47
615.71	2384.12
616.05	2449.65
616.38	2501.63
616.72	2384.12
617.06	2384.12
617.40	2399.94
617.74	2282.43
618.07	2302.76
618.41	2384.12
618.75	2309.54
619.09	2370.56
619.42	2314.06
619.76	2289.21
620.10	2345.70
620.44	2255.31
620.77	2284.69
621.11	2307.28
621.45	2237.23
621.79	2244.01
622.12	2221.41
622.46	2273.39
622.80	2192.03
623.13	2305.02
623.47	2198.81
623.81	2192.03
624.15	2155.88
624.48	2225.93
624.82	2155.88
625.16	2171.69
625.49	2178.47
625.83	2135.54
626.17	2135.54
626.50	2189.77
626.84	2099.38
627.18	2090.34
627.51	2072.26
627.85	2131.02
628.19	2126.50
628.52	2058.70
628.86	2054.18
629.20	2085.82
629.53	2112.94
629.87	2008.99
630.20	2033.84
630.54	2029.33
630.88	2063.22
631.21	2015.77
631.55	1925.37
631.89	1945.71
632.22	1997.69
632.56	1954.75
632.89	1999.95
633.23	1963.79
633.56	1909.55
633.90	1911.81
634.24	1898.26
634.57	1929.89
634.91	1844.02
635.24	1918.59
635.58	1945.71
635.91	1877.92
636.25	1875.66
636.58	1819.16
636.92	1868.88
637.26	1898.26
637.59	1943.45
637.93	1923.11
638.26	1816.90
638.60	1891.48
638.93	1957.01
639.27	1927.63
639.60	1882.44
639.94	1877.92
640.27	1812.38
640.61	1787.52
640.94	1855.32
641.28	1801.08
641.61	1776.22
641.94	1767.19
642.28	1801.08
642.61	1746.85
642.95	1773.96
643.28	1717.47
643.62	1665.49
643.95	1740.07
644.29	1694.87
644.62	1746.85
644.95	1683.57
645.29	1724.25
645.62	1735.55
645.96	1690.35
646.29	1676.79
646.63	1701.65
646.96	1692.61
647.29	1717.47
647.63	1656.45
647.96	1710.69
648.29	1681.31
648.63	1692.61
648.96	1647.41
649.30	1692.61
649.63	1624.82
649.96	1633.86
650.30	1692.61
650.63	1636.12
650.96	1631.60
651.30	1651.93
651.63	1672.27
651.96	1604.48
652.30	1579.62
652.63	1590.92
652.96	1647.41
653.30	1579.62
653.63	1636.12
653.96	1572.84
654.30	1613.52
654.63	1613.52
654.96	1611.26
655.29	1665.49
655.63	1570.58
655.96	1570.58
656.29	1570.58
656.63	1550.24
656.96	1545.72
657.29	1586.40
657.62	1622.56
657.96	1602.22
658.29	1538.94
658.62	1516.34
658.95	1557.02
659.29	1559.28
659.62	1514.08
659.95	1541.20
660.28	1455.33
660.61	1575.10
660.95	1529.90
661.28	1425.95
661.61	1496.01
661.94	1496.01
662.27	1550.24
662.61	1441.77
662.94	1453.07
663.27	1554.76
663.60	1473.41
663.93	1491.49
664.27	1509.56
664.60	1477.93
664.93	1398.83
665.26	1423.69
665.59	1509.56
665.92	1412.39
666.25	1541.20
666.59	1493.75
666.92	1441.77
667.25	1482.45
667.58	1419.17
667.91	1489.23
668.24	1473.41
668.57	1464.37
668.90	1432.73
669.23	1482.45
669.57	1477.93
669.90	1496.01
670.23	1405.61
670.56	1401.09
670.89	1430.47
671.22	1444.03
671.55	1455.33
671.88	1425.95
672.21	1362.68
672.54	1405.61
672.87	1407.87
673.20	1394.31
673.53	1423.69
673.86	1385.27
674.19	1342.34
674.52	1371.72
674.85	1412.39
675.18	1394.31
675.51	1349.12
675.84	1407.87
676.17	1398.83
676.50	1378.49
676.83	1362.68
677.16	1423.69
677.49	1380.75
677.82	1331.04
678.15	1380.75
678.48	1340.08
678.81	1303.92
679.14	1369.46
679.47	1324.26
679.80	1396.57
680.13	1335.56
680.46	1412.39
680.79	1344.60
681.12	1371.72
681.45	1319.74
681.78	1312.96
682.11	1373.98
682.44	1346.86
682.77	1283.58
683.09	1306.18
683.42	1240.65
683.75	1373.98
684.08	1267.76
684.41	1360.42
684.74	1283.58
685.07	1299.40
685.40	1355.90
685.72	1317.48
686.05	1312.96
686.38	1267.76
686.71	1324.26
687.04	1344.60
687.37	1267.76
687.70	1218.05
688.02	1333.30
688.35	1367.20
688.68	1315.22
689.01	1240.65
689.34	1333.30
689.67	1290.36
689.99	1303.92
690.32	1333.30
690.65	1299.40
690.98	1267.76
691.30	1337.82
691.63	1247.42
691.96	1265.50
692.29	1258.72
692.62	1281.32
692.94	1285.84
693.27	1188.67
693.60	1238.39
693.93	1224.83
694.25	1229.35
694.58	1337.82
694.91	1346.86
695.24	1258.72
695.56	1328.78
695.89	1238.39
696.22	1202.23
696.54	1242.91
696.87	1242.91
697.20	1272.28
697.53	1337.82
697.85	1319.74
698.18	1288.10
698.51	1254.20
698.83	1276.80
699.16	1301.66
699.49	1206.75
699.81	1303.92
700.14	1285.84
700.47	1190.93
700.79	1242.91
701.12	1254.20
701.45	1306.18
701.77	1245.16
702.10	1236.13
702.42	1242.91
702.75	1258.72
703.08	1260.98
703.40	1290.36
703.73	1292.62
704.05	1258.72
704.38	1242.91
704.71	1163.81
705.03	1168.33
705.36	1195.45
705.68	1283.58
706.01	1186.41
706.34	1213.53
706.66	1229.35
706.99	1166.07
707.31	1186.41
707.64	1263.24
707.96	1195.45
708.29	1236.13
708.61	1260.98
708.94	1254.20
709.26	1276.80
709.59	1222.57
709.92	1256.46
710.24	1288.10
710.57	1204.49
710.89	1306.18
711.22	1238.39
711.54	1227.09
711.87	1229.35
712.19	1229.35
712.51	1154.77
712.84	1157.03
713.16	1233.87
713.49	1168.33
713.81	1254.20
714.14	1170.59
714.46	1229.35
714.79	1274.54
715.11	1147.99
715.44	1258.72
715.76	1134.43
716.08	1123.13
716.41	1211.27
716.73	1249.68
717.06	1195.45
717.38	1206.75
717.70	1179.63
718.03	1267.76
718.35	1258.72
718.68	1179.63
719.00	1218.05
719.32	1188.67
719.65	1193.19
719.97	1222.57
720.29	1199.97
720.62	1193.19
720.94	1195.45
721.27	1179.63
721.59	1170.59
721.91	1258.72
722.24	1150.25
722.56	1195.45
722.88	1211.27
723.21	1215.79
723.53	1209.01
723.85	1202.23
724.17	1229.35
724.50	1179.63
724.82	1222.57
725.14	1233.87
725.47	1242.91
725.79	1204.49
726.11	1215.79
726.43	1125.39
726.76	1240.65
727.08	1143.47
727.40	1249.68
727.72	1184.15
728.05	1168.33
728.37	1188.67
728.69	1202.23
729.01	1199.97
729.34	1175.11
729.66	1231.61
729.98	1211.27
730.30	1240.65
730.62	1136.69
730.95	1168.33
731.27	1209.01
731.59	1197.71
731.91	1195.45
732.23	1186.41
732.56	1258.72
732.88	1236.13
733.20	1138.95
733.52	1170.59
733.84	1166.07
734.16	1127.65
734.49	1186.41
734.81	1240.65
735.13	1218.05
735.45	1206.75
735.77	1186.41
736.09	1132.17
736.41	1199.97
736.73	1157.03
737.06	1152.51
737.38	1245.16
737.70	1195.45
738.02	1177.37
738.34	1188.67
738.66	1134.43
738.98	1222.57
739.30	1163.81
739.62	1184.15
739.94	1202.23
740.26	1204.49
740.58	1114.10
740.90	1206.75
741.23	1166.07
741.55	1168.33
741.87	1175.11
742.19	1157.03
742.51	1123.13
742.83	1258.72
743.15	1184.15
743.47	1195.45
743.79	1186.41
744.11	1188.67
744.43	1163.81
744.75	1222.57
745.07	1204.49
745.39	1175.11
745.71	1168.33
746.03	1166.07
746.35	1166.07
746.67	1179.63
746.98	1179.63
747.30	1175.11
747.62	1218.05
747.94	1227.09
748.26	1172.85
748.58	1152.51
748.90	1260.98
749.22	1161.55
749.54	1190.93
749.86	1233.87
750.18	1181.89
750.50	1118.61
750.82	1114.10
751.13	1123.13
751.45	1147.99
751.77	1168.33
752.09	1157.03
752.41	1172.85
752.73	1168.33
753.05	1111.84
753.36	1120.87
753.68	1193.19
754.00	1159.29
754.32	1172.85
754.64	1175.11
754.96	1127.65
755.28	1211.27
755.59	1159.29
755.91	1202.23
756.23	1175.11
756.55	1172.85
756.87	1206.75
757.18	1134.43
757.50	1175.11
757.82	1186.41
758.14	1163.81
758.45	1125.39
758.77	1114.10
759.09	1218.05
759.41	1209.01
759.73	1184.15
760.04	1129.91
760.36	1213.53
760.68	1125.39
760.99	1132.17
761.31	1213.53
761.63	1161.55
761.95	1215.79
762.26	1240.65
762.58	1220.31
762.90	1134.43
763.21	1179.63
763.53	1209.01
763.85	1172.85
764.17	1206.75
764.48	1141.21
764.80	1179.63
765.12	1168.33
765.43	1195.45
765.75	1141.21
766.07	1168.33
766.38	1166.07
766.70	1161.55
767.01	1190.93
767.33	1177.37
767.65	1168.33
767.96	1141.21
768.28	1177.37
768.60	1143.47
768.91	1145.73
769.23	1147.99
769.54	1109.58
769.86	1204.49
770.18	1222.57
770.49	1211.27
770.81	1204.49
771.12	1168.33
771.44	1172.85
771.75	1181.89
772.07	1125.39
772.38	1193.19
772.70	1127.65
773.02	1152.51
773.33	1184.15
773.65	1186.41
773.96	1125.39
774.28	1150.25
774.59	1195.45
774.91	1213.53
775.22	1129.91
775.54	1177.37
775.85	1145.73
776.17	1184.15
776.48	1143.47
776.80	1190.93
777.11	1190.93
777.43	1154.77
777.74	1159.29
778.05	1184.15
778.37	1141.21
778.68	1188.67
779.00	1231.61
779.31	1136.69
779.63	1150.25
779.94	1125.39
780.26	1168.33
780.57	1145.73
780.88	1145.73
781.20	1175.11
781.51	1152.51
781.83	1154.77
782.14	1179.63
782.45	1143.47
782.77	1179.63
783.08	1231.61
783.39	1166.07
783.71	1143.47
784.02	1197.71
784.34	1179.63
784.65	1213.53
784.96	1197.71
785.28	1177.37
785.59	1168.33
785.90	1084.72
786.22	1141.21
786.53	1186.41
786.84	1163.81
787.15	1193.19
787.47	1114.10
787.78	1093.76
788.09	1125.39
788.41	1159.29
788.72	1222.57
789.03	1209.01
789.35	1138.95
789.66	1179.63
789.97	1195.45
790.28	1134.43
790.60	1161.55
790.91	1109.58
791.22	1129.91
791.53	1161.55
791.84	1211.27
792.16	1209.01
792.47	1138.95
792.78	1199.97
793.09	1240.65
793.41	1168.33
793.72	1141.21
794.03	1206.75
794.34	1109.58
794.65	1161.55
794.96	1211.27
795.28	1209.01
795.59	1116.35
795.90	1136.69
796.21	1197.71
796.52	1206.75
796.83	1213.53
797.15	1197.71
797.46	1184.15
797.77	1170.59
798.08	1181.89
798.39	1157.03
798.70	1159.29
799.01	1147.99
799.32	1186.41
799.63	1222.57
799.95	1107.32
800.26	1213.53
800.57	1168.33
800.88	1181.89
801.19	1181.89
801.50	1188.67
801.81	1125.39
802.12	1152.51
802.43	1159.29
802.74	1227.09
803.05	1188.67
803.36	1213.53
803.67	1091.50
803.98	1166.07
804.29	1175.11
804.60	1166.07
804.91	1129.91
805.22	1168.33
805.53	1143.47
805.84	1166.07
806.15	1197.71
806.46	1163.81
806.77	1157.03
807.08	1129.91
807.39	1222.57
807.70	1220.31
808.01	1188.67
808.32	1159.29
808.63	1204.49
808.94	1197.71
809.25	1181.89
809.56	1147.99
809.87	1136.69
810.18	1147.99
810.49	1141.21
810.79	1184.15
811.10	1197.71
811.41	1109.58
811.72	1107.32
812.03	1172.85
812.34	1179.63
812.65	1224.83
812.96	1127.65
813.27	1098.28
813.57	1116.35
813.88	1152.51
814.19	1159.29
814.50	1107.32
814.81	1132.17
815.12	1190.93
815.42	1172.85
815.73	1179.63
816.04	1175.11
816.35	1218.05
816.66	1193.19
816.97	1175.11
817.27	1179.63
817.58	1157.03
817.89	1211.27
818.20	1179.63
818.50	1181.89
818.81	1166.07
819.12	1190.93
819.43	1114.10
819.73	1204.49
820.04	1147.99
820.35	1157.03
820.66	1154.77
820.96	1159.29
821.27	1166.07
821.58	1111.84
821.89	1152.51
822.19	1147.99
822.50	1166.07
822.81	1147.99
823.11	1213.53
823.42	1238.39
823.73	1150.25
824.03	1168.33
824.34	1195.45
824.65	1170.59
824.95	1136.69
825.26	1105.06
825.57	1114.10
825.87	1188.67
826.18	1132.17
826.49	1193.19
826.79	1127.65
827.10	1154.77
827.40	1120.87
827.71	1166.07
828.02	1163.81
828.32	1084.72
828.63	1190.93
828.93	1150.25
829.24	1127.65
829.55	1141.21
829.85	1161.55
830.16	1154.77
830.46	1211.27
830.77	1186.41
831.07	1193.19
831.38	1111.84
831.69	1150.25
831.99	1227.09
832.30	1227.09
832.60	1132.17
832.91	1116.35
833.21	1123.13
833.52	1193.19
833.82	1145.73
834.13	1107.32
834.43	1186.41
834.74	1245.16
835.04	1181.89
835.35	1143.47
835.65	1132.17
835.96	1143.47
836.26	1161.55
836.56	1127.65
836.87	1184.15
837.17	1193.19
837.48	1132.17
837.78	1170.59
838.09	1116.35
838.39	1118.61
838.69	1177.37
839.00	1147.99
839.30	1161.55
839.61	1179.63
839.91	1204.49
840.21	1170.59
840.52	1179.63
840.82	1134.43
841.13	1209.01
841.43	1143.47
841.73	1227.09
842.04	1147.99
842.34	1134.43
842.64	1157.03
842.95	1127.65
843.25	1179.63
843.55	1172.85
843.86	1161.55
844.16	1227.09
844.46	1209.01
844.77	1170.59
845.07	1136.69
845.37	1220.31
845.68	1163.81
845.98	1193.19
846.28	1181.89
846.58	1159.29
846.89	1170.59
847.19	1166.07
847.49	1175.11
847.79	1181.89
848.10	1125.39
848.40	1116.35
848.70	1197.71
849.00	1154.77
849.31	1132.17
849.61	1163.81
849.91	1179.63
850.21	1249.68
850.51	1168.33
850.82	1145.73
851.12	1166.07
851.42	1138.95
851.72	1172.85
852.02	1166.07
852.32	1123.13
852.63	1190.93
852.93	1204.49
853.23	1222.57
853.53	1136.69
853.83	1224.83
854.13	1213.53
854.43	1157.03
854.74	1215.79
855.04	1154.77
855.34	1227.09
855.64	1154.77
855.94	1125.39
856.24	1184.15
856.54	1127.65
856.84	1150.25
857.14	1197.71
857.44	1215.79
857.74	1136.69
858.05	1098.28
858.35	1166.07
858.65	1138.95
858.95	1172.85
859.25	1190.93
859.55	1184.15
859.85	1134.43
860.15	1184.15
860.45	1195.45
860.75	1129.91
861.05	1195.45
861.35	1109.58
861.65	1163.81
861.95	1132.17
862.25	1197.71
862.55	1145.73
862.85	1168.33
863.15	1211.27
863.45	1170.59
863.75	1238.39
864.05	1204.49
864.35	1168.33
864.64	1125.39
864.94	1186.41
865.24	1177.37
865.54	1150.25
865.84	1159.29
866.14	1138.95
866.44	1147.99
866.74	1147.99
867.04	1147.99
867.34	1154.77
867.64	1175.11
867.93	1168.33
868.23	1188.67
868.53	1193.19
868.83	1111.84
869.13	1197.71
869.43	1175.11
869.73	1134.43
870.02	1177.37
870.32	1152.51
870.62	1179.63
870.92	1102.80
871.22	1145.73
871.51	1204.49
871.81	1147.99
872.11	1132.17
872.41	1179.63
872.71	1197.71
873.00	1181.89
873.30	1175.11
873.60	1179.63
873.90	1199.97
874.19	1166.07
874.49	1123.13
874.79	1170.59
875.09	1204.49
875.38	1159.29
875.68	1199.97
875.98	1211.27
876.28	1166.07
876.57	1204.49
876.87	1204.49
877.17	1204.49
