174.03	759.30
174.41	759.30
174.78	759.30
175.16	741.22
175.54	707.33
175.92	763.82
176.30	702.81
176.67	754.78
177.05	714.11
177.43	840.66
177.81	845.18
178.19	829.36
178.56	917.49
178.94	833.88
179.32	964.95
179.70	840.66
180.08	949.13
180.45	996.58
180.83	953.65
181.21	978.51
181.59	985.28
181.96	1016.92
182.34	1064.38
182.72	1073.42
183.10	1030.48
183.48	1041.78
183.85	1109.58
184.23	1127.65
184.61	1132.17
184.99	1125.39
185.36	1166.07
185.74	1089.24
186.12	1138.95
186.50	1105.06
186.87	1159.29
187.25	1161.55
187.63	1118.61
188.01	1202.23
188.38	1150.25
188.76	1188.67
189.14	1186.41
189.52	1107.32
189.89	1141.21
190.27	1161.55
190.65	1199.97
191.02	1152.51
191.40	1159.29
191.78	1193.19
192.16	1204.49
192.53	1125.39
192.91	1147.99
193.29	1136.69
193.66	1145.73
194.04	1181.89
194.42	1166.07
194.79	1123.13
195.17	1166.07
195.55	1080.20
195.93	1166.07
196.30	1166.07
196.68	1129.91
197.06	1105.06
197.43	1114.10
197.81	1179.63
198.19	1163.81
198.56	1143.47
198.94	1190.93
199.32	1138.95
199.69	1143.47
200.07	1138.95
200.45	1154.77
200.82	1120.87
201.20	1105.06
201.58	1136.69
201.95	1111.84
202.33	1190.93
202.71	1066.64
203.08	1118.61
203.46	1105.06
203.84	1136.69
204.21	1181.89
204.59	1062.12
204.96	1157.03
205.34	1102.80
205.72	1163.81
206.09	1190.93
206.47	1166.07
206.85	1166.07
207.22	1190.93
207.60	1163.81
207.97	1161.55
208.35	1096.02
208.73	1157.03
209.10	1154.77
209.48	1138.95
209.85	1172.85
210.23	1157.03
210.61	1136.69
210.98	1082.46
211.36	1195.45
211.73	1107.32
212.11	1134.43
212.49	1114.10
212.86	1136.69
213.24	1102.80
213.61	1168.33
213.99	1152.51
214.37	1175.11
214.74	1127.65
215.12	1177.37
215.49	1150.25
215.87	1093.76
216.24	1098.28
216.62	1161.55
216.99	1175.11
217.37	1177.37
217.75	1154.77
218.12	1125.39
218.50	1177.37
218.87	1152.51
219.25	1147.99
219.62	1168.33
220.00	1125.39
220.37	1204.49
220.75	1161.55
221.12	1132.17
221.50	1109.58
221.87	1138.95
222.25	1138.95
222.63	1134.43
223.00	1150.25
223.38	1195.45
223.75	1190.93
224.13	1132.17
224.50	1181.89
224.88	1157.03
225.25	1170.59
225.63	1220.31
226.00	1123.13
226.38	1161.55
226.75	1204.49
227.13	1157.03
227.50	1125.39
227.88	1120.87
228.25	1170.59
228.63	1188.67
229.00	1163.81
229.37	1127.65
229.75	1157.03
230.12	1175.11
230.50	1222.57
230.87	1145.73
231.25	1159.29
231.62	1181.89
232.00	1211.27
232.37	1168.33
232.75	1202.23
233.12	1163.81
233.50	1154.77
233.87	1152.51
234.24	1147.99
234.62	1105.06
234.99	1143.47
235.37	1141.21
235.74	1206.75
236.12	1157.03
236.49	1150.25
236.86	1125.39
237.24	1211.27
237.61	1127.65
237.99	1215.79
238.36	1143.47
238.74	1123.13
239.11	1084.72
239.48	1175.11
239.86	1150.25
240.23	1211.27
240.61	1120.87
240.98	1109.58
241.35	1159.29
241.73	1195.45
242.10	1181.89
242.48	1184.15
242.85	1172.85
243.22	1181.89
243.60	1127.65
243.97	1211.27
244.34	1188.67
244.72	1172.85
245.09	1141.21
245.47	1204.49
245.84	1152.51
246.21	1181.89
246.59	1199.97
246.96	1229.35
247.33	1172.85
247.71	1179.63
248.08	1116.35
248.45	1129.91
248.83	1195.45
249.20	1177.37
249.57	1179.63
249.95	1168.33
250.32	1152.51
250.69	1129.91
251.07	1251.94
251.44	1213.53
251.81	1145.73
252.19	1224.83
252.56	1152.51
252.93	1150.25
253.31	1147.99
253.68	1229.35
254.05	1184.15
254.43	1215.79
254.80	1168.33
255.17	1181.89
255.55	1260.98
255.92	1240.65
256.29	1170.59
256.66	1159.29
257.04	1127.65
257.41	1218.05
257.78	1256.46
258.16	1150.25
258.53	1175.11
258.90	1184.15
259.27	1177.37
259.65	1150.25
260.02	1152.51
260.39	1168.33
260.76	1098.28
261.14	1245.16
261.51	1224.83
261.88	1170.59
262.25	1184.15
262.63	1209.01
263.00	1152.51
263.37	1147.99
263.74	1138.95
264.12	1215.79
264.49	1136.69
264.86	1172.85
265.23	1215.79
265.61	1134.43
265.98	1211.27
266.35	1233.87
266.72	1179.63
267.09	1096.02
267.47	1150.25
267.84	1177.37
268.21	1159.29
268.58	1197.71
268.95	1251.94
269.33	1116.35
269.70	1168.33
270.07	1152.51
270.44	1218.05
270.81	1143.47
271.19	1172.85
271.56	1136.69
271.93	1218.05
272.30	1138.95
272.67	1245.16
273.05	1175.11
273.42	1204.49
273.79	1220.31
274.16	1184.15
274.53	1152.51
274.90	1222.57
275.28	1136.69
275.65	1177.37
276.02	1175.11
276.39	1193.19
276.76	1175.11
277.13	1138.95
277.50	1285.84
277.88	1184.15
278.25	1145.73
278.62	1145.73
278.99	1175.11
279.36	1199.97
279.73	1242.91
280.10	1152.51
280.47	1161.55
280.85	1161.55
281.22	1154.77
281.59	1199.97
281.96	1222.57
282.33	1218.05
282.70	1175.11
283.07	1206.75
283.44	1229.35
283.81	1179.63
284.18	1247.42
284.56	1270.02
284.93	1195.45
285.30	1186.41
285.67	1157.03
286.04	1175.11
286.41	1236.13
286.78	1213.53
287.15	1107.32
287.52	1177.37
287.89	1181.89
288.26	1265.50
288.63	1222.57
289.00	1229.35
289.37	1175.11
289.75	1218.05
290.12	1193.19
290.49	1170.59
290.86	1209.01
291.23	1179.63
291.60	1256.46
291.97	1236.13
292.34	1150.25
292.71	1143.47
293.08	1168.33
293.45	1222.57
293.82	1147.99
294.19	1285.84
294.56	1231.61
294.93	1247.42
295.30	1211.27
295.67	1166.07
296.04	1157.03
296.41	1224.83
296.78	1247.42
297.15	1227.09
297.52	1195.45
297.89	1242.91
298.26	1209.01
298.63	1236.13
299.00	1172.85
299.37	1163.81
299.74	1163.81
300.11	1134.43
300.48	1197.71
300.85	1168.33
301.22	1209.01
301.59	1209.01
301.96	1138.95
302.33	1224.83
302.70	1238.39
303.07	1281.32
303.43	1188.67
303.80	1150.25
304.17	1163.81
304.54	1222.57
304.91	1270.02
305.28	1168.33
305.65	1224.83
306.02	1236.13
306.39	1227.09
306.76	1254.20
307.13	1229.35
307.50	1199.97
307.87	1202.23
308.24	1265.50
308.60	1222.57
308.97	1202.23
309.34	1159.29
309.71	1184.15
310.08	1175.11
310.45	1222.57
310.82	1177.37
311.19	1170.59
311.56	1233.87
311.92	1157.03
312.29	1249.68
312.66	1184.15
313.03	1220.31
313.40	1276.80
313.77	1256.46
314.14	1213.53
314.51	1145.73
314.87	1159.29
315.24	1202.23
315.61	1188.67
315.98	1224.83
316.35	1240.65
316.72	1138.95
317.09	1290.36
317.45	1211.27
317.82	1254.20
318.19	1163.81
318.56	1138.95
318.93	1249.68
319.30	1290.36
319.66	1215.79
320.03	1238.39
320.40	1247.42
320.77	1229.35
321.14	1260.98
321.50	1249.68
321.87	1274.54
322.24	1172.85
322.61	1166.07
322.98	1181.89
323.34	1175.11
323.71	1270.02
324.08	1220.31
324.45	1272.28
324.82	1172.85
325.18	1193.19
325.55	1206.75
325.92	1265.50
326.29	1238.39
326.65	1220.31
327.02	1170.59
327.39	1206.75
327.76	1231.61
328.12	1229.35
328.49	1254.20
328.86	1184.15
329.23	1270.02
329.59	1231.61
329.96	1240.65
330.33	1206.75
330.70	1247.42
331.06	1260.98
331.43	1272.28
331.80	1254.20
332.17	1256.46
332.53	1362.68
332.90	1209.01
333.27	1233.87
333.63	1222.57
334.00	1242.91
334.37	1238.39
334.74	1204.49
335.10	1215.79
335.47	1206.75
335.84	1218.05
336.20	1220.31
336.57	1254.20
336.94	1231.61
337.30	1240.65
337.67	1238.39
338.04	1170.59
338.40	1209.01
338.77	1229.35
339.14	1274.54
339.50	1224.83
339.87	1242.91
340.24	1294.88
340.60	1224.83
340.97	1209.01
341.34	1227.09
341.70	1249.68
342.07	1263.24
342.44	1186.41
342.80	1247.42
343.17	1256.46
343.53	1306.18
343.90	1292.62
344.27	1215.79
344.63	1258.72
345.00	1188.67
345.37	1270.02
345.73	1242.91
346.10	1245.16
346.46	1247.42
346.83	1215.79
347.20	1270.02
347.56	1152.51
347.93	1263.24
348.29	1290.36
348.66	1272.28
349.03	1297.14
349.39	1249.68
349.76	1213.53
350.12	1240.65
350.49	1315.22
350.85	1283.58
351.22	1245.16
351.59	1270.02
351.95	1319.74
352.32	1276.80
352.68	1245.16
353.05	1188.67
353.41	1233.87
353.78	1258.72
354.14	1290.36
354.51	1272.28
354.88	1218.05
355.24	1233.87
355.61	1260.98
355.97	1283.58
356.34	1254.20
356.70	1346.86
357.07	1342.34
357.43	1281.32
357.80	1209.01
358.16	1258.72
358.53	1267.76
358.89	1335.56
359.26	1315.22
359.62	1265.50
359.99	1272.28
360.35	1306.18
360.72	1337.82
361.08	1319.74
361.45	1322.00
361.81	1344.60
362.18	1340.08
362.54	1326.52
362.91	1369.46
363.27	1297.14
363.63	1337.82
364.00	1383.01
364.36	1224.83
364.73	1274.54
365.09	1308.44
365.46	1306.18
365.82	1301.66
366.19	1308.44
366.55	1367.20
366.91	1308.44
367.28	1340.08
367.64	1331.04
368.01	1342.34
368.37	1364.94
368.74	1312.96
369.10	1274.54
369.46	1337.82
369.83	1430.47
370.19	1328.78
370.56	1425.95
370.92	1378.49
371.28	1355.90
371.65	1389.79
372.01	1387.53
372.38	1421.43
372.74	1351.38
373.10	1412.39
373.47	1471.15
373.83	1410.13
374.19	1387.53
374.56	1455.33
374.92	1486.97
375.29	1486.97
375.65	1455.33
376.01	1489.23
376.38	1502.79
376.74	1509.56
377.10	1520.86
377.47	1518.60
377.83	1482.45
378.19	1543.46
378.56	1595.44
378.92	1611.26
379.28	1597.70
379.65	1733.29
380.01	1690.35
380.37	1812.38
380.74	1783.00
381.10	1893.74
381.46	1880.18
381.83	1943.45
382.19	2027.07
382.55	2042.88
382.91	2126.50
383.28	2203.33
383.64	2393.16
384.00	2463.21
384.37	2469.99
384.73	2646.26
385.09	2892.58
385.45	2931.00
385.82	3053.03
386.18	3330.99
386.54	3541.15
386.91	3683.52
387.27	3952.44
387.63	4237.18
387.99	4361.47
388.36	4820.21
388.72	5163.71
389.08	5681.21
389.44	6085.72
389.80	6494.74
390.17	6781.74
390.53	7518.45
390.89	8363.62
391.25	8795.25
391.62	9538.73
391.98	10575.99
392.34	11561.28
392.70	11945.45
393.06	13050.50
393.43	13717.15
393.79	14869.67
394.15	15753.26
394.51	16865.09
394.87	17816.48
395.24	19542.99
395.60	20928.26
395.96	22442.35
396.32	24336.08
396.68	26091.97
397.04	28087.40
397.41	30993.54
397.77	32900.83
398.13	35235.23
398.49	37226.14
398.85	40484.81
399.21	44586.40
399.58	47384.06
399.94	49722.99
400.30	53144.37
400.66	54814.38
401.02	57130.70
401.38	58884.33
401.74	60174.69
402.11	62317.01
402.47	63761.04
402.83	64649.15
403.19	65535.00
403.55	65535.00
403.91	65535.00
404.27	65535.00
404.63	65535.00
404.99	65535.00
405.35	65535.00
405.72	65535.00
406.08	65535.00
406.44	65535.00
406.80	65535.00
407.16	65535.00
407.52	65535.00
407.88	65535.00
408.24	65535.00
408.60	65535.00
408.96	65535.00
409.32	65535.00
409.68	65535.00
410.04	65535.00
410.40	65535.00
410.76	65535.00
411.13	65535.00
411.49	65535.00
411.85	65293.20
412.21	63846.91
412.57	63024.33
412.93	61835.66
413.29	60247.00
413.65	58753.26
414.01	56949.92
414.37	54875.39
414.73	53533.06
415.09	51788.47
415.45	50254.05
415.81	47621.35
416.17	45458.69
416.53	43786.42
416.89	42148.04
417.25	40078.04
417.61	37971.88
417.97	37138.01
418.33	35196.81
418.69	34236.39
419.05	32925.69
419.41	31795.77
419.77	30961.90
420.12	29059.12
420.48	27789.10
420.84	27061.44
421.20	25728.14
421.56	24367.72
421.92	24017.45
422.28	22442.35
422.64	21423.17
423.00	20397.20
423.36	19748.63
423.72	18239.07
424.08	17183.73
424.44	16413.13
424.80	15653.83
425.16	15280.95
425.51	14013.19
425.87	14049.35
426.23	12704.75
426.59	11913.81
426.95	11956.75
427.31	11197.45
427.67	11122.87
428.03	10209.90
428.39	9968.10
428.74	9107.11
429.10	8727.45
429.46	8336.50
429.82	7983.97
430.18	7522.97
430.54	7351.22
430.90	7312.80
431.26	6881.18
431.61	6637.11
431.97	6370.45
432.33	6264.24
432.69	6135.43
433.05	5837.13
433.41	5638.27
433.76	5423.59
434.12	5312.85
434.48	5165.97
434.84	4919.64
435.20	4763.72
435.55	4625.87
435.91	4451.86
436.27	4363.73
436.63	4223.62
436.99	4094.81
437.34	3825.89
437.70	3832.67
438.06	3690.30
438.42	3541.15
438.78	3425.90
439.13	3389.74
439.49	3281.27
439.85	3308.39
440.21	3102.74
440.56	3048.51
440.92	2879.02
441.28	2822.52
441.64	2827.04
441.99	2732.13
442.35	2666.60
442.71	2634.96
443.07	2646.26
443.42	2540.05
443.78	2463.21
444.14	2354.74
444.50	2368.30
444.85	2368.30
445.21	2277.91
445.57	2248.53
445.93	2099.38
446.28	2149.10
446.64	2146.84
447.00	2070.00
447.35	2185.25
447.71	2106.16
448.07	2088.08
448.42	2058.70
448.78	2072.26
449.14	1934.41
449.49	1950.23
449.85	1938.93
450.21	1884.70
450.56	1769.44
450.92	1805.60
451.28	1726.51
451.63	1794.30
451.99	1728.77
452.35	1708.43
452.70	1746.85
453.06	1703.91
453.42	1679.05
453.77	1672.27
454.13	1593.18
454.49	1631.60
454.84	1627.08
455.20	1609.00
455.55	1514.08
455.91	1584.14
456.27	1518.60
456.62	1588.66
456.98	1640.63
457.33	1471.15
457.69	1538.94
458.05	1480.19
458.40	1453.07
458.76	1450.81
459.11	1473.41
459.47	1423.69
459.83	1428.21
460.18	1385.27
460.54	1453.07
460.89	1364.94
461.25	1385.27
461.60	1414.65
461.96	1326.52
462.31	1428.21
462.67	1405.61
463.03	1398.83
463.38	1410.13
463.74	1362.68
464.09	1369.46
464.45	1387.53
464.80	1419.17
465.16	1392.05
465.51	1387.53
465.87	1340.08
466.22	1333.30
466.58	1394.31
466.93	1371.72
467.29	1324.26
467.64	1301.66
468.00	1303.92
468.35	1290.36
468.71	1342.34
469.06	1421.43
469.42	1294.88
469.77	1337.82
470.13	1380.75
470.48	1364.94
470.84	1317.48
471.19	1288.10
471.54	1358.16
471.90	1342.34
472.25	1362.68
472.61	1355.90
472.96	1308.44
473.32	1276.80
473.67	1306.18
474.03	1301.66
474.38	1378.49
474.73	1274.54
475.09	1301.66
475.44	1344.60
475.80	1283.58
476.15	1310.70
476.50	1303.92
476.86	1288.10
477.21	1351.38
477.57	1251.94
477.92	1231.61
478.27	1301.66
478.63	1331.04
478.98	1294.88
479.34	1260.98
479.69	1299.40
480.04	1299.40
480.40	1328.78
480.75	1337.82
481.10	1310.70
481.46	1274.54
481.81	1306.18
482.16	1351.38
482.52	1283.58
482.87	1292.62
483.22	1272.28
483.58	1294.88
483.93	1270.02
484.28	1369.46
484.64	1378.49
484.99	1292.62
485.34	1297.14
485.70	1331.04
486.05	1371.72
486.40	1229.35
486.76	1301.66
487.11	1312.96
487.46	1349.12
487.81	1326.52
488.17	1312.96
488.52	1319.74
488.87	1326.52
489.23	1319.74
489.58	1308.44
489.93	1367.20
490.28	1290.36
490.64	1340.08
490.99	1376.24
491.34	1410.13
491.69	1380.75
492.05	1367.20
492.40	1401.09
492.75	1462.11
493.10	1455.33
493.46	1448.55
493.81	1403.35
494.16	1441.77
494.51	1523.12
494.86	1502.79
495.22	1520.86
495.57	1371.72
495.92	1496.01
496.27	1489.23
496.62	1484.71
496.98	1446.29
497.33	1532.16
497.68	1545.72
498.03	1491.49
498.38	1568.32
498.74	1595.44
499.09	1622.56
499.44	1633.86
499.79	1658.71
500.14	1688.09
500.49	1690.35
500.85	1717.47
501.20	1744.59
501.55	1726.51
501.90	1773.96
502.25	1760.41
502.60	1787.52
502.95	1794.30
503.30	1862.10
503.66	1990.91
504.01	1909.55
504.36	1959.27
504.71	1995.43
505.06	2051.92
505.41	2015.77
505.76	2115.20
506.11	2223.67
506.46	2185.25
506.82	2205.59
507.17	2225.93
507.52	2259.83
507.87	2377.34
508.22	2406.72
508.57	2467.73
508.92	2501.63
509.27	2499.37
509.62	2564.90
509.97	2700.49
510.32	2709.53
510.67	2788.63
511.02	2833.82
511.37	2869.98
511.72	2998.79
512.07	2989.75
512.42	3109.52
512.77	3111.78
513.12	3071.11
513.47	3301.61
513.82	3371.66
514.17	3342.28
514.52	3441.72
514.87	3493.69
515.22	3547.93
515.57	3787.47
515.92	3791.99
516.27	3898.20
516.62	3843.97
516.97	4024.75
517.32	4099.33
517.67	4158.08
518.02	4291.41
518.37	4370.51
518.72	4420.22
519.07	4420.22
519.42	4460.90
519.77	4650.73
520.12	4695.92
520.47	4842.81
520.82	4741.12
521.17	4890.27
521.52	4980.66
521.87	5014.56
522.22	5071.05
522.56	5179.52
522.91	5285.74
523.26	5301.56
523.61	5385.17
523.96	5428.11
524.31	5518.50
524.66	5710.58
525.01	5911.71
525.36	5990.80
525.71	5891.37
526.05	5857.47
526.40	5947.87
526.75	6137.69
527.10	6106.05
527.45	6198.71
527.80	6246.16
528.15	6214.53
528.49	6293.62
528.84	6433.73
529.19	6424.69
529.54	6356.90
529.89	6544.46
530.24	6402.09
530.58	6605.48
530.93	6630.33
531.28	6779.48
531.63	6598.70
531.98	6562.54
532.33	6646.15
532.67	6948.97
533.02	6842.76
533.37	6797.56
533.72	6960.27
534.07	6806.60
534.41	6924.11
534.76	6756.88
535.11	7021.28
535.46	7057.44
535.80	6996.43
536.15	6942.19
536.50	6969.31
536.85	7048.40
537.19	7107.16
537.54	7204.33
537.89	7012.24
538.24	6985.13
538.58	7073.26
538.93	7258.57
539.28	7177.21
539.63	7177.21
539.97	7120.72
540.32	7052.92
540.67	7091.34
541.01	7028.06
541.36	7111.68
541.71	6894.73
542.06	7156.87
542.40	7165.91
542.75	7109.42
543.10	7046.14
543.44	7276.64
543.79	6960.27
544.14	6935.41
544.48	7208.85
544.83	7215.63
545.18	7122.98
545.52	6926.37
545.87	6849.54
546.22	6948.97
546.56	6935.41
546.91	6892.47
547.25	7028.06
547.60	7000.95
547.95	6976.09
548.29	6804.34
548.64	6835.98
548.99	6921.85
549.33	6747.85
549.68	6634.85
550.02	6677.79
550.37	6806.60
550.72	6822.42
551.06	6802.08
551.41	6781.74
551.75	6673.27
552.10	6686.83
552.45	6680.05
552.79	6675.53
553.14	6677.79
553.48	6546.72
553.83	6503.78
554.17	6684.57
554.52	6440.51
554.87	6562.54
555.21	6492.48
555.56	6449.55
555.90	6580.62
556.25	6422.43
556.59	6447.29
556.94	6370.45
557.28	6216.79
557.63	6359.15
557.97	6313.96
558.32	6377.23
558.66	6377.23
559.01	6329.78
559.35	6291.36
559.70	6422.43
560.04	6237.12
560.39	6248.42
560.73	6024.70
561.08	6232.60
561.42	6124.13
561.77	6176.11
562.11	6289.10
562.46	6045.04
562.80	5972.72
563.14	5968.20
563.49	5956.91
563.83	5993.06
564.18	5839.39
564.52	5877.81
564.87	5868.77
565.21	5918.49
565.56	5780.64
565.90	5913.97
566.24	5814.54
566.59	5900.41
566.93	5893.63
567.28	5798.72
567.62	5721.88
567.96	5685.73
568.31	5755.78
568.65	5730.92
569.00	5685.73
569.34	5676.69
569.68	5807.76
570.03	5608.89
570.37	5500.42
570.71	5504.94
571.06	5559.18
571.40	5502.68
571.74	5430.37
572.09	5421.33
572.43	5416.81
572.78	5319.63
573.12	5344.49
573.46	5258.62
573.80	5423.59
574.15	5190.82
574.49	5236.02
574.83	5190.82
575.18	5215.68
575.52	5163.71
575.86	5109.47
576.21	5034.90
576.55	5145.63
576.89	5145.63
577.24	5082.35
577.58	5048.45
577.92	5014.56
578.26	4964.84
578.61	4949.02
578.95	5030.38
579.29	4770.50
579.63	4967.10
579.98	4930.94
580.32	4939.98
580.66	4849.59
581.00	4675.58
581.35	4806.65
581.69	4747.90
582.03	4838.29
582.37	4786.31
582.72	4727.56
583.06	4732.08
583.40	4714.00
583.74	4549.03
584.08	4612.31
584.43	4612.31
584.77	4591.97
585.11	4442.82
585.45	4517.40
585.79	4397.62
586.13	4397.62
586.48	4447.34
586.82	4456.38
587.16	4264.29
587.50	4399.88
587.84	4408.92
588.18	4372.77
588.53	4250.74
588.87	4320.79
589.21	4243.96
589.55	4259.78
589.89	4262.03
590.23	4298.19
590.57	4151.30
590.92	4151.30
591.26	4103.85
591.60	4063.17
591.94	4065.43
592.28	4002.15
592.62	4112.89
592.96	3981.82
593.30	3975.04
593.64	3961.48
593.98	3979.56
594.32	3904.98
594.67	3941.14
595.01	3882.38
595.35	3880.12
595.69	3708.38
596.03	3726.46
596.37	3832.67
596.71	3846.23
597.05	3785.21
597.39	3812.33
597.73	3660.92
598.07	3706.12
598.41	3617.98
598.75	3685.78
599.09	3692.56
599.43	3586.35
599.77	3636.06
600.11	3651.88
600.45	3663.18
600.79	3477.87
601.13	3561.49
601.47	3556.97
601.81	3464.32
602.15	3504.99
602.49	3362.62
602.83	3373.92
603.17	3258.67
603.51	3466.58
603.85	3324.21
604.19	3364.88
604.53	3254.15
604.87	3242.85
605.21	3238.33
605.55	3181.84
605.89	3197.66
606.23	3211.22
606.56	3247.37
606.90	3168.28
607.24	3138.90
607.58	3141.16
607.92	3048.51
608.26	3055.29
608.60	3125.34
608.94	2969.41
609.28	3007.83
609.62	3003.31
609.95	3059.81
610.29	2903.88
610.63	3100.48
610.97	2962.63
611.31	2978.45
611.65	2933.26
611.99	2976.19
612.33	3039.47
612.66	2869.98
613.00	2831.56
613.34	2840.60
613.68	2815.75
614.02	2824.78
614.36	2806.71
614.69	2766.03
615.03	2723.09
615.37	2790.89
615.71	2763.77
616.05	2623.66
616.38	2623.66
616.72	2702.75
617.06	2761.51
617.40	2702.75
617.74	2653.04
618.07	2729.87
618.41	2632.70
618.75	2657.56
619.09	2623.66
619.42	2662.08
619.76	2598.80
620.10	2700.49
620.44	2546.83
620.77	2445.13
621.11	2460.95
621.45	2553.61
621.79	2578.46
622.12	2458.69
622.46	2619.14
622.80	2384.12
623.13	2485.81
623.47	2469.99
623.81	2402.20
624.15	2354.74
624.48	2386.38
624.82	2379.60
625.16	2445.13
625.49	2422.54
625.83	2429.31
626.17	2449.65
626.50	2264.35
626.84	2309.54
627.18	2246.27
627.51	2375.08
627.85	2300.50
628.19	2341.18
628.52	2253.05
628.86	2221.41
629.20	2350.22
629.53	2255.31
629.87	2268.87
630.20	2246.27
630.54	2221.41
630.88	2234.97
631.21	2196.55
631.55	2239.49
631.89	2216.89
632.22	2232.71
632.56	2160.40
632.89	2083.56
633.23	2137.80
633.56	2142.32
633.90	2151.36
634.24	2185.25
634.57	2081.30
634.91	2142.32
635.24	2137.80
635.58	2056.44
635.91	2051.92
636.25	2164.91
636.58	2103.90
636.92	2131.02
637.26	1981.87
637.59	1997.69
637.93	2060.96
638.26	1981.87
638.60	1981.87
638.93	2108.42
639.27	1981.87
639.60	1945.71
639.94	1945.71
640.27	1911.81
640.61	2083.56
640.94	1963.79
641.28	2033.84
641.61	1988.65
641.94	1918.59
642.28	1898.26
642.61	1934.41
642.95	1963.79
643.28	1834.98
643.62	1925.37
643.95	1898.26
644.29	1884.70
644.62	1855.32
644.95	1850.80
645.29	1853.06
645.62	1877.92
645.96	1893.74
646.29	1839.50
646.63	1936.67
646.96	1923.11
647.29	1798.82
647.63	1778.48
647.96	1825.94
648.29	1816.90
648.63	1823.68
648.96	1737.81
649.30	1742.33
649.63	1792.04
649.96	1776.22
650.30	1785.26
650.63	1805.60
650.96	1749.11
651.30	1807.86
651.63	1706.17
651.96	1789.78
652.30	1712.95
652.63	1715.21
652.96	1676.79
653.30	1685.83
653.63	1676.79
653.96	1667.75
654.30	1663.23
654.63	1629.34
654.96	1647.41
655.29	1685.83
655.63	1638.38
655.96	1663.23
656.29	1719.73
656.63	1660.97
656.96	1744.59
657.29	1638.38
657.62	1609.00
657.96	1572.84
658.29	1706.17
658.62	1633.86
658.95	1694.87
659.29	1613.52
659.62	1597.70
659.95	1545.72
660.28	1566.06
660.61	1645.15
660.95	1615.78
661.28	1586.40
661.61	1645.15
661.94	1579.62
662.27	1554.76
662.61	1645.15
662.94	1566.06
663.27	1570.58
663.60	1584.14
663.93	1611.26
664.27	1597.70
664.60	1543.46
664.93	1570.58
665.26	1541.20
665.59	1500.53
665.92	1550.24
666.25	1514.08
666.59	1541.20
666.92	1547.98
667.25	1468.89
667.58	1484.71
667.91	1523.12
668.24	1507.30
668.57	1496.01
668.90	1511.82
669.23	1529.90
669.57	1500.53
669.90	1509.56
670.23	1453.07
670.56	1475.67
670.89	1437.25
671.22	1428.21
671.55	1491.49
671.88	1550.24
672.21	1480.19
672.54	1489.23
672.87	1453.07
673.20	1507.30
673.53	1434.99
673.86	1423.69
674.19	1466.63
674.52	1383.01
674.85	1414.65
675.18	1477.93
675.51	1419.17
675.84	1475.67
676.17	1423.69
676.50	1491.49
676.83	1419.17
677.16	1398.83
677.49	1412.39
677.82	1385.27
678.15	1405.61
678.48	1414.65
678.81	1455.33
679.14	1376.24
679.47	1385.27
679.80	1376.24
680.13	1396.57
680.46	1416.91
680.79	1328.78
681.12	1437.25
681.45	1428.21
681.78	1364.94
682.11	1432.73
682.44	1421.43
682.77	1385.27
683.09	1428.21
683.42	1342.34
683.75	1396.57
684.08	1387.53
684.41	1394.31
684.74	1346.86
685.07	1351.38
685.40	1385.27
685.72	1369.46
686.05	1335.56
686.38	1324.26
686.71	1362.68
687.04	1387.53
687.37	1340.08
687.70	1385.27
688.02	1425.95
688.35	1355.90
688.68	1405.61
689.01	1303.92
689.34	1326.52
689.67	1310.70
689.99	1319.74
690.32	1346.86
690.65	1371.72
690.98	1373.98
691.30	1308.44
691.63	1383.01
691.96	1308.44
692.29	1355.90
692.62	1285.84
692.94	1351.38
693.27	1344.60
693.60	1324.26
693.93	1306.18
694.25	1263.24
694.58	1317.48
694.91	1224.83
695.24	1292.62
695.56	1297.14
695.89	1290.36
696.22	1263.24
696.54	1362.68
696.87	1267.76
697.20	1272.28
697.53	1258.72
697.85	1358.16
698.18	1254.20
698.51	1281.32
698.83	1294.88
699.16	1283.58
699.49	1272.28
699.81	1322.00
700.14	1276.80
700.47	1310.70
700.79	1240.65
701.12	1312.96
701.45	1294.88
701.77	1215.79
702.10	1303.92
702.42	1220.31
702.75	1279.06
703.08	1166.07
703.40	1306.18
703.73	1297.14
704.05	1265.50
704.38	1249.68
704.71	1315.22
705.03	1312.96
705.36	1276.80
705.68	1249.68
706.01	1258.72
706.34	1249.68
706.66	1118.61
706.99	1294.88
707.31	1213.53
707.64	1251.94
707.96	1285.84
708.29	1285.84
708.61	1260.98
708.94	1285.84
709.26	1276.80
709.59	1245.16
709.92	1170.59
710.24	1236.13
710.57	1251.94
710.89	1294.88
711.22	1249.68
711.54	1236.13
711.87	1240.65
712.19	1283.58
712.51	1267.76
712.84	1254.20
713.16	1209.01
713.49	1211.27
713.81	1218.05
714.14	1274.54
714.46	1213.53
714.79	1242.91
715.11	1163.81
715.44	1238.39
715.76	1260.98
716.08	1240.65
716.41	1218.05
716.73	1254.20
717.06	1276.80
717.38	1245.16
717.70	1312.96
718.03	1233.87
718.35	1236.13
718.68	1285.84
719.00	1175.11
719.32	1238.39
719.65	1215.79
719.97	1190.93
720.29	1184.15
720.62	1199.97
720.94	1281.32
721.27	1272.28
721.59	1245.16
721.91	1195.45
722.24	1233.87
722.56	1245.16
722.88	1215.79
723.21	1238.39
723.53	1186.41
723.85	1181.89
724.17	1247.42
724.50	1175.11
724.82	1247.42
725.14	1206.75
725.47	1236.13
725.79	1213.53
726.11	1245.16
726.43	1199.97
726.76	1218.05
727.08	1202.23
727.40	1209.01
727.72	1238.39
728.05	1242.91
728.37	1270.02
728.69	1224.83
729.01	1159.29
729.34	1215.79
729.66	1179.63
729.98	1211.27
730.30	1168.33
730.62	1168.33
730.95	1220.31
731.27	1184.15
731.59	1152.51
731.91	1195.45
732.23	1154.77
732.56	1199.97
732.88	1199.97
733.20	1213.53
733.52	1132.17
733.84	1175.11
734.16	1175.11
734.49	1220.31
734.81	1227.09
735.13	1213.53
735.45	1154.77
735.77	1150.25
736.09	1213.53
736.41	1213.53
736.73	1190.93
737.06	1229.35
737.38	1159.29
737.70	1163.81
738.02	1211.27
738.34	1190.93
738.66	1141.21
738.98	1204.49
739.30	1242.91
739.62	1170.59
739.94	1147.99
740.26	1186.41
740.58	1254.20
740.90	1231.61
741.23	1195.45
741.55	1181.89
741.87	1190.93
742.19	1190.93
742.51	1179.63
742.83	1157.03
743.15	1172.85
743.47	1147.99
743.79	1197.71
744.11	1190.93
744.43	1190.93
744.75	1107.32
745.07	1100.54
745.39	1161.55
745.71	1157.03
746.03	1195.45
746.35	1145.73
746.67	1213.53
746.98	1145.73
747.30	1184.15
747.62	1199.97
747.94	1179.63
748.26	1150.25
748.58	1238.39
748.90	1242.91
749.22	1129.91
749.54	1168.33
749.86	1238.39
750.18	1236.13
750.50	1138.95
750.82	1184.15
751.13	1154.77
751.45	1199.97
751.77	1229.35
752.09	1190.93
752.41	1227.09
752.73	1231.61
753.05	1154.77
753.36	1166.07
753.68	1184.15
754.00	1213.53
754.32	1181.89
754.64	1181.89
754.96	1150.25
755.28	1190.93
755.59	1190.93
755.91	1184.15
756.23	1150.25
756.55	1157.03
756.87	1157.03
757.18	1224.83
757.50	1220.31
757.82	1179.63
758.14	1222.57
758.45	1184.15
758.77	1132.17
759.09	1204.49
759.41	1220.31
759.73	1190.93
760.04	1091.50
760.36	1161.55
760.68	1177.37
760.99	1220.31
761.31	1231.61
761.63	1141.21
761.95	1215.79
762.26	1159.29
762.58	1147.99
762.90	1172.85
763.21	1163.81
763.53	1141.21
763.85	1186.41
764.17	1222.57
764.48	1129.91
764.80	1145.73
765.12	1177.37
765.43	1091.50
765.75	1177.37
766.07	1181.89
766.38	1211.27
766.70	1138.95
767.01	1193.19
767.33	1150.25
767.65	1147.99
767.96	1152.51
768.28	1177.37
768.60	1206.75
768.91	1127.65
769.23	1145.73
769.54	1127.65
769.86	1166.07
770.18	1154.77
770.49	1184.15
770.81	1147.99
771.12	1190.93
771.44	1152.51
771.75	1195.45
772.07	1188.67
772.38	1154.77
772.70	1195.45
773.02	1186.41
773.33	1143.47
773.65	1136.69
773.96	1136.69
774.28	1089.24
774.59	1184.15
774.91	1152.51
775.22	1147.99
775.54	1132.17
775.85	1150.25
776.17	1159.29
776.48	1188.67
776.80	1195.45
777.11	1134.43
777.43	1199.97
777.74	1222.57
778.05	1163.81
778.37	1233.87
778.68	1184.15
779.00	1141.21
779.31	1152.51
779.63	1145.73
779.94	1163.81
780.26	1125.39
780.57	1186.41
780.88	1195.45
781.20	1172.85
781.51	1218.05
781.83	1195.45
782.14	1206.75
782.45	1172.85
782.77	1168.33
783.08	1209.01
783.39	1195.45
783.71	1168.33
784.02	1161.55
784.34	1188.67
784.65	1154.77
784.96	1096.02
785.28	1161.55
785.59	1188.67
785.90	1211.27
786.22	1224.83
786.53	1111.84
786.84	1154.77
787.15	1111.84
787.47	1147.99
787.78	1082.46
788.09	1166.07
788.41	1116.35
788.72	1129.91
789.03	1150.25
789.35	1145.73
789.66	1195.45
789.97	1163.81
790.28	1181.89
790.60	1157.03
790.91	1157.03
791.22	1136.69
791.53	1147.99
791.84	1157.03
792.16	1125.39
792.47	1177.37
792.78	1184.15
793.09	1199.97
793.41	1161.55
793.72	1157.03
794.03	1184.15
794.34	1190.93
794.65	1150.25
794.96	1181.89
795.28	1218.05
795.59	1186.41
795.90	1193.19
796.21	1127.65
796.52	1145.73
796.83	1134.43
797.15	1107.32
797.46	1166.07
797.77	1129.91
798.08	1202.23
798.39	1179.63
798.70	1150.25
799.01	1118.61
799.32	1211.27
799.63	1136.69
799.95	1181.89
800.26	1136.69
800.57	1215.79
800.88	1202.23
801.19	1157.03
801.50	1147.99
801.81	1179.63
802.12	1195.45
802.43	1129.91
802.74	1125.39
803.05	1181.89
803.36	1127.65
803.67	1172.85
803.98	1172.85
804.29	1152.51
804.60	1193.19
804.91	1213.53
805.22	1161.55
805.53	1177.37
805.84	1127.65
806.15	1091.50
806.46	1236.13
806.77	1211.27
807.08	1084.72
807.39	1143.47
807.70	1197.71
808.01	1109.58
808.32	1161.55
808.63	1154.77
808.94	1136.69
809.25	1238.39
809.56	1168.33
809.87	1152.51
810.18	1157.03
810.49	1177.37
810.79	1154.77
811.10	1136.69
811.41	1159.29
811.72	1163.81
812.03	1134.43
812.34	1211.27
812.65	1168.33
812.96	1218.05
813.27	1199.97
813.57	1168.33
813.88	1132.17
814.19	1166.07
814.50	1091.50
814.81	1154.77
815.12	1116.35
815.42	1123.13
815.73	1209.01
816.04	1138.95
816.35	1059.86
816.66	1120.87
816.97	1177.37
817.27	1134.43
817.58	1134.43
817.89	1150.25
818.20	1145.73
818.50	1134.43
818.81	1161.55
819.12	1186.41
819.43	1188.67
819.73	1143.47
820.04	1132.17
820.35	1175.11
820.66	1211.27
820.96	1159.29
821.27	1141.21
821.58	1197.71
821.89	1141.21
822.19	1098.28
822.50	1186.41
822.81	1170.59
823.11	1136.69
823.42	1159.29
823.73	1181.89
824.03	1116.35
824.34	1152.51
824.65	1125.39
824.95	1202.23
825.26	1161.55
825.57	1197.71
825.87	1197.71
826.18	1150.25
826.49	1147.99
826.79	1199.97
827.10	1159.29
827.40	1147.99
827.71	1154.77
828.02	1166.07
828.32	1193.19
828.63	1199.97
828.93	1172.85
829.24	1202.23
829.55	1175.11
829.85	1152.51
830.16	1179.63
830.46	1109.58
830.77	1134.43
831.07	1168.33
831.38	1152.51
831.69	1114.10
831.99	1150.25
832.30	1098.28
832.60	1215.79
832.91	1218.05
833.21	1202.23
833.52	1190.93
833.82	1129.91
834.13	1163.81
834.43	1213.53
834.74	1120.87
835.04	1177.37
835.35	1179.63
835.65	1168.33
835.96	1202.23
836.26	1152.51
836.56	1170.59
836.87	1116.35
837.17	1209.01
837.48	1163.81
837.78	1184.15
838.09	1116.35
838.39	1161.55
838.69	1157.03
839.00	1147.99
839.30	1109.58
839.61	1181.89
839.91	1145.73
840.21	1105.06
840.52	1143.47
840.82	1204.49
841.13	1209.01
841.43	1195.45
841.73	1138.95
842.04	1129.91
842.34	1143.47
842.64	1096.02
842.95	1179.63
843.25	1107.32
843.55	1238.39
843.86	1098.28
844.16	1136.69
844.46	1202.23
844.77	1170.59
845.07	1152.51
845.37	1132.17
845.68	1134.43
845.98	1163.81
846.28	1220.31
846.58	1147.99
846.89	1179.63
847.19	1111.84
847.49	1127.65
847.79	1170.59
848.10	1181.89
848.40	1147.99
848.70	1136.69
849.00	1157.03
849.31	1150.25
849.61	1179.63
849.91	1152.51
850.21	1202.23
850.51	1199.97
850.82	1152.51
851.12	1127.65
851.42	1093.76
851.72	1136.69
852.02	1175.11
852.32	1163.81
852.63	1175.11
852.93	1089.24
853.23	1132.17
853.53	1123.13
853.83	1138.95
854.13	1181.89
854.43	1263.24
854.74	1161.55
855.04	1161.55
855.34	1125.39
855.64	1166.07
855.94	1168.33
856.24	1179.63
856.54	1175.11
856.84	1229.35
857.14	1120.87
857.44	1129.91
857.74	1111.84
858.05	1147.99
858.35	1181.89
858.65	1170.59
858.95	1134.43
859.25	1199.97
859.55	1186.41
859.85	1154.77
860.15	1154.77
860.45	1240.65
860.75	1184.15
861.05	1227.09
861.35	1258.72
861.65	1195.45
861.95	1251.94
862.25	1127.65
862.55	1184.15
862.85	1138.95
863.15	1179.63
863.45	1181.89
863.75	1154.77
864.05	1202.23
864.35	1161.55
864.64	1102.80
864.94	1114.10
865.24	1152.51
865.54	1159.29
865.84	1114.10
866.14	1159.29
866.44	1145.73
866.74	1184.15
867.04	1111.84
867.34	1147.99
867.64	1150.25
867.93	1188.67
868.23	1175.11
868.53	1168.33
868.83	1168.33
869.13	1138.95
869.43	1141.21
869.73	1125.39
870.02	1179.63
870.32	1166.07
870.62	1157.03
870.92	1181.89
871.22	1204.49
871.51	1166.07
871.81	1188.67
872.11	1109.58
872.41	1170.59
872.71	1193.19
873.00	1152.51
873.30	1141.21
873.60	1138.95
873.90	1179.63
874.19	1175.11
874.49	1147.99
874.79	1202.23
875.09	1102.80
875.38	1150.25
875.68	1195.45
875.98	1150.25
876.28	1089.24
876.57	1168.33
876.87	1168.33
877.17	1168.33
