174.03	698.29
174.41	698.29
174.78	698.29
175.16	720.88
175.54	743.48
175.92	714.11
176.30	723.14
176.67	693.77
177.05	790.94
177.43	750.26
177.81	736.70
178.19	784.16
178.56	757.04
178.94	768.34
179.32	711.85
179.70	874.55
180.08	863.25
180.45	872.29
180.83	865.51
181.21	942.35
181.59	908.45
181.96	951.39
182.34	980.77
182.72	940.09
183.10	1010.14
183.48	1012.40
183.85	1100.54
184.23	1105.06
184.61	1064.38
184.99	1053.08
185.36	1046.30
185.74	1118.61
186.12	1023.70
186.50	1082.46
186.87	1107.32
187.25	1059.86
187.63	1086.98
188.01	1098.28
188.38	1050.82
188.76	1021.44
189.14	1068.90
189.52	1096.02
189.89	1098.28
190.27	1120.87
190.65	1138.95
191.02	1091.50
191.40	1035.00
191.78	1123.13
192.16	1147.99
192.53	1068.90
192.91	1064.38
193.29	1105.06
193.66	1093.76
194.04	1086.98
194.42	1055.34
194.79	1057.60
195.17	1132.17
195.55	1107.32
195.93	1084.72
196.30	1100.54
196.68	1154.77
197.06	1089.24
197.43	1066.64
197.81	1086.98
198.19	1012.40
198.56	1111.84
198.94	1093.76
199.32	1025.96
199.69	1111.84
200.07	1007.88
200.45	1071.16
200.82	1109.58
201.20	1120.87
201.58	1071.16
201.95	1048.56
202.33	1059.86
202.71	1053.08
203.08	1021.44
203.46	1048.56
203.84	1035.00
204.21	1096.02
204.59	1053.08
204.96	1066.64
205.34	1025.96
205.72	1071.16
206.09	1035.00
206.47	1098.28
206.85	1102.80
207.22	1089.24
207.60	1075.68
207.97	1044.04
208.35	1138.95
208.73	1107.32
209.10	1012.40
209.48	1062.12
209.85	1021.44
210.23	1116.35
210.61	1116.35
210.98	1109.58
211.36	1093.76
211.73	1125.39
212.11	1098.28
212.49	1046.30
212.86	1023.70
213.24	1071.16
213.61	1093.76
213.99	1086.98
214.37	1032.74
214.74	1105.06
215.12	1098.28
215.49	1053.08
215.87	1105.06
216.24	1068.90
216.62	1105.06
216.99	1068.90
217.37	1118.61
217.75	1109.58
218.12	1014.66
218.50	1109.58
218.87	1111.84
219.25	1064.38
219.62	1141.21
220.00	1129.91
220.37	1132.17
220.75	1053.08
221.12	1098.28
221.50	1035.00
221.87	1125.39
222.25	1161.55
222.63	1091.50
223.00	1064.38
223.38	1125.39
223.75	1111.84
224.13	1114.10
224.50	1107.32
224.88	1030.48
225.25	1127.65
225.63	1134.43
226.00	1068.90
226.38	1030.48
226.75	1152.51
227.13	1066.64
227.50	1089.24
227.88	1107.32
228.25	1086.98
228.63	1037.26
229.00	1039.52
229.37	1136.69
229.75	1186.41
230.12	1111.84
230.50	1005.62
230.87	1064.38
231.25	1129.91
231.62	1123.13
232.00	1145.73
232.37	1123.13
232.75	1114.10
233.12	1107.32
233.50	1073.42
233.87	1129.91
234.24	1111.84
234.62	1082.46
234.99	1105.06
235.37	1075.68
235.74	1084.72
236.12	1125.39
236.49	1084.72
236.86	1073.42
237.24	1082.46
237.61	1107.32
237.99	1048.56
238.36	1075.68
238.74	1098.28
239.11	1059.86
239.48	1105.06
239.86	1123.13
240.23	1086.98
240.61	1096.02
240.98	1179.63
241.35	1086.98
241.73	1077.94
242.10	1120.87
242.48	1111.84
242.85	1138.95
243.22	1075.68
243.60	1134.43
243.97	1046.30
244.34	1091.50
244.72	1075.68
245.09	1041.78
245.47	1109.58
245.84	1084.72
246.21	1107.32
246.59	1093.76
246.96	1091.50
247.33	1141.21
247.71	1098.28
248.08	1064.38
248.45	1093.76
248.83	1125.39
249.20	1089.24
249.57	1163.81
249.95	1114.10
250.32	1132.17
250.69	1075.68
251.07	1107.32
251.44	1077.94
251.81	1084.72
252.19	1123.13
252.56	1071.16
252.93	1080.20
253.31	1077.94
253.68	1077.94
254.05	1084.72
254.43	1059.86
254.80	1154.77
255.17	1091.50
255.55	1107.32
255.92	1152.51
256.29	1157.03
256.66	1086.98
257.04	1114.10
257.41	1152.51
257.78	1111.84
258.16	1132.17
258.53	1084.72
258.90	1118.61
259.27	1050.82
259.65	1123.13
260.02	1080.20
260.39	1116.35
260.76	1066.64
261.14	1107.32
261.51	1059.86
261.88	1127.65
262.25	1132.17
262.63	1120.87
263.00	1064.38
263.37	1145.73
263.74	1084.72
264.12	1127.65
264.49	1053.08
264.86	1068.90
265.23	1111.84
265.61	1084.72
265.98	1150.25
266.35	1093.76
266.72	1132.17
267.09	1123.13
267.47	1143.47
267.84	1143.47
268.21	1102.80
268.58	1080.20
268.95	1118.61
269.33	1177.37
269.70	1143.47
270.07	1055.34
270.44	1044.04
270.81	1098.28
271.19	1091.50
271.56	1116.35
271.93	1064.38
272.30	1111.84
272.67	1064.38
273.05	1125.39
273.42	1175.11
273.79	1129.91
274.16	1064.38
274.53	1055.34
274.90	1127.65
275.28	1116.35
275.65	1077.94
276.02	1116.35
276.39	1066.64
276.76	1136.69
277.13	1184.15
277.50	1114.10
277.88	1127.65
278.25	1111.84
278.62	1123.13
278.99	1077.94
279.36	1116.35
279.73	1082.46
280.10	1084.72
280.47	1107.32
280.85	1132.17
281.22	1053.08
281.59	1096.02
281.96	1055.34
282.33	1109.58
282.70	1213.53
283.07	1096.02
283.44	1098.28
283.81	1098.28
284.18	1120.87
284.56	1136.69
284.93	1114.10
285.30	1100.54
285.67	1118.61
286.04	1132.17
286.41	1177.37
286.78	1166.07
287.15	1125.39
287.52	1100.54
287.89	1123.13
288.26	1080.20
288.63	1082.46
289.00	1093.76
289.37	1111.84
289.75	1082.46
290.12	1071.16
290.49	1134.43
290.86	1195.45
291.23	1170.59
291.60	1127.65
291.97	1168.33
292.34	1141.21
292.71	1105.06
293.08	1125.39
293.45	1213.53
293.82	1150.25
294.19	1143.47
294.56	1114.10
294.93	1177.37
295.30	1071.16
295.67	1170.59
296.04	1100.54
296.41	1132.17
296.78	1170.59
297.15	1107.32
297.52	1109.58
297.89	1057.60
298.26	1118.61
298.63	1136.69
299.00	1172.85
299.37	1127.65
299.74	1093.76
300.11	1132.17
300.48	1093.76
300.85	1161.55
301.22	1096.02
301.59	1154.77
301.96	1114.10
302.33	1197.71
302.70	1084.72
303.07	1086.98
303.43	1120.87
303.80	1098.28
304.17	1186.41
304.54	1102.80
304.91	1141.21
305.28	1143.47
305.65	1179.63
306.02	1109.58
306.39	1150.25
306.76	1168.33
307.13	1120.87
307.50	1127.65
307.87	1154.77
308.24	1136.69
308.60	1141.21
308.97	1136.69
309.34	1075.68
309.71	1129.91
310.08	1138.95
310.45	1150.25
310.82	1152.51
311.19	1154.77
311.56	1068.90
311.92	1098.28
312.29	1075.68
312.66	1116.35
313.03	1105.06
313.40	1179.63
313.77	1188.67
314.14	1136.69
314.51	1127.65
314.87	1132.17
315.24	1109.58
315.61	1132.17
315.98	1068.90
316.35	1179.63
316.72	1138.95
317.09	1170.59
317.45	1107.32
317.82	1138.95
318.19	1050.82
318.56	1145.73
318.93	1091.50
319.30	1120.87
319.66	1100.54
320.03	1161.55
320.40	1109.58
320.77	1089.24
321.14	1177.37
321.50	1120.87
321.87	1145.73
322.24	1152.51
322.61	1177.37
322.98	1107.32
323.34	1161.55
323.71	1132.17
324.08	1136.69
324.45	1141.21
324.82	1179.63
325.18	1172.85
325.55	1141.21
325.92	1154.77
326.29	1136.69
326.65	1127.65
327.02	1161.55
327.39	1152.51
327.76	1116.35
328.12	1116.35
328.49	1107.32
328.86	1168.33
329.23	1127.65
329.59	1102.80
329.96	1199.97
330.33	1118.61
330.70	1206.75
331.06	1073.42
331.43	1150.25
331.80	1218.05
332.17	1152.51
332.53	1312.96
332.90	1136.69
333.27	1175.11
333.63	1175.11
334.00	1154.77
334.37	1080.20
334.74	1141.21
335.10	1170.59
335.47	1211.27
335.84	1188.67
336.20	1159.29
336.57	1236.13
336.94	1100.54
337.30	1186.41
337.67	1118.61
338.04	1123.13
338.40	1150.25
338.77	1229.35
339.14	1163.81
339.50	1170.59
339.87	1199.97
340.24	1227.09
340.60	1118.61
340.97	1068.90
341.34	1177.37
341.70	1184.15
342.07	1213.53
342.44	1154.77
342.80	1145.73
343.17	1215.79
343.53	1231.61
343.90	1222.57
344.27	1141.21
344.63	1190.93
345.00	1107.32
345.37	1166.07
345.73	1150.25
346.10	1129.91
346.46	1163.81
346.83	1145.73
347.20	1166.07
347.56	1123.13
347.93	1134.43
348.29	1181.89
348.66	1193.19
349.03	1170.59
349.39	1179.63
349.76	1152.51
350.12	1186.41
350.49	1199.97
350.85	1220.31
351.22	1136.69
351.59	1166.07
351.95	1247.42
352.32	1163.81
352.68	1179.63
353.05	1181.89
353.41	1181.89
353.78	1170.59
354.14	1159.29
354.51	1179.63
354.88	1247.42
355.24	1247.42
355.61	1170.59
355.97	1211.27
356.34	1175.11
356.70	1172.85
357.07	1138.95
357.43	1159.29
357.80	1181.89
358.16	1227.09
358.53	1245.16
358.89	1134.43
359.26	1272.28
359.62	1213.53
359.99	1209.01
360.35	1150.25
360.72	1290.36
361.08	1190.93
361.45	1229.35
361.81	1224.83
362.18	1251.94
362.54	1251.94
362.91	1179.63
363.27	1227.09
363.63	1249.68
364.00	1179.63
364.36	1272.28
364.73	1254.20
365.09	1283.58
365.46	1242.91
365.82	1301.66
366.19	1301.66
366.55	1251.94
366.91	1281.32
367.28	1231.61
367.64	1229.35
368.01	1188.67
368.37	1251.94
368.74	1272.28
369.10	1322.00
369.46	1181.89
369.83	1263.24
370.19	1267.76
370.56	1340.08
370.92	1324.26
371.28	1231.61
371.65	1267.76
372.01	1362.68
372.38	1283.58
372.74	1274.54
373.10	1283.58
373.47	1324.26
373.83	1398.83
374.19	1333.30
374.56	1396.57
374.92	1434.99
375.29	1364.94
375.65	1355.90
376.01	1355.90
376.38	1421.43
376.74	1416.91
377.10	1349.12
377.47	1457.59
377.83	1405.61
378.19	1453.07
378.56	1505.05
378.92	1511.82
379.28	1509.56
379.65	1520.86
380.01	1622.56
380.37	1609.00
380.74	1633.86
381.10	1744.59
381.46	1647.41
381.83	1864.36
382.19	1805.60
382.55	1941.19
382.91	1920.85
383.28	2036.10
383.64	2070.00
384.00	2178.47
384.37	2370.56
384.73	2420.28
385.09	2465.47
385.45	2628.18
385.82	2867.72
386.18	2903.88
386.54	3245.11
386.91	3290.31
387.27	3568.27
387.63	3984.08
387.99	4158.08
388.36	4469.94
388.72	4793.09
389.08	5134.33
389.44	5500.42
389.80	5697.03
390.17	6203.23
390.53	6930.89
390.89	7484.55
391.25	8092.44
391.62	8564.75
391.98	9452.86
392.34	10417.81
392.70	10763.56
393.06	11956.75
393.43	12499.11
393.79	13364.62
394.15	14252.73
394.51	15177.00
394.87	16189.40
395.24	17305.76
395.60	18659.40
395.96	20270.65
396.32	21979.08
396.68	23287.52
397.04	25447.92
397.41	27748.42
397.77	29689.61
398.13	32161.87
398.49	33608.16
398.85	36435.20
399.21	39910.82
399.58	42419.22
399.94	44805.60
400.30	49155.77
400.66	51011.09
401.02	53546.61
401.38	55331.88
401.74	57137.48
402.11	59275.28
402.47	60940.77
402.83	61837.92
403.19	63338.45
403.55	64635.59
403.91	65535.00
404.27	65535.00
404.63	65535.00
404.99	65535.00
405.35	65535.00
405.72	65535.00
406.08	65535.00
406.44	65535.00
406.80	65535.00
407.16	65535.00
407.52	65535.00
407.88	65535.00
408.24	65535.00
408.60	65535.00
408.96	65535.00
409.32	65535.00
409.68	65535.00
410.04	65535.00
410.40	65535.00
410.76	65535.00
411.13	64167.80
411.49	63747.48
411.85	61867.30
412.21	60759.98
412.57	59521.60
412.93	58289.99
413.29	56601.90
413.65	54787.26
414.01	52599.75
414.37	49982.87
414.73	48728.66
415.09	45996.53
415.45	44462.11
415.81	42231.66
416.17	39770.71
416.53	38577.52
416.89	36597.91
417.25	35397.94
417.61	32758.46
417.97	31978.82
418.33	30905.40
418.69	29906.56
419.05	28819.58
419.41	27716.79
419.77	27041.10
420.12	25097.65
420.48	23967.73
420.84	23601.64
421.20	22148.57
421.56	20932.78
421.92	20860.47
422.28	19524.91
422.64	18401.78
423.00	17590.50
423.36	16905.77
423.72	15723.88
424.08	14998.48
424.44	13958.96
424.80	13403.04
425.16	13030.17
425.51	12374.82
425.87	12194.03
426.23	10994.06
426.59	10386.17
426.95	10139.85
427.31	9672.06
427.67	9477.72
428.03	8693.56
428.39	8555.71
428.74	7965.89
429.10	7631.44
429.46	7294.72
429.82	6811.12
430.18	6596.44
430.54	6447.29
430.90	6248.42
431.26	5886.85
431.61	5712.84
431.97	5389.69
432.33	5274.44
432.69	5278.96
433.05	5037.16
433.41	4824.73
433.76	4698.18
434.12	4619.09
434.48	4275.59
434.84	4234.92
435.20	4140.00
435.55	3990.86
435.91	3868.82
436.27	3794.25
436.63	3685.78
436.99	3552.45
437.34	3493.69
437.70	3299.35
438.06	3222.51
438.42	3114.04
438.78	3068.85
439.13	2942.30
439.49	3021.39
439.85	2867.72
440.21	2822.52
440.56	2727.61
440.92	2677.90
441.28	2440.61
441.64	2544.57
441.99	2277.91
442.35	2354.74
442.71	2264.35
443.07	2302.76
443.42	2176.21
443.78	2119.72
444.14	2124.24
444.50	2092.60
444.85	2067.74
445.21	1905.03
445.57	1938.93
445.93	1952.49
446.28	1927.63
446.64	1966.05
447.00	1837.24
447.35	1832.72
447.71	1825.94
448.07	1789.78
448.42	1753.63
448.78	1710.69
449.14	1749.11
449.49	1753.63
449.85	1654.19
450.21	1670.01
450.56	1566.06
450.92	1568.32
451.28	1586.40
451.63	1697.13
451.99	1518.60
452.35	1575.10
452.70	1511.82
453.06	1534.42
453.42	1525.38
453.77	1505.05
454.13	1464.37
454.49	1502.79
454.84	1545.72
455.20	1520.86
455.55	1543.46
455.91	1473.41
456.27	1405.61
456.62	1367.20
456.98	1448.55
457.33	1358.16
457.69	1299.40
458.05	1383.01
458.40	1355.90
458.76	1367.20
459.11	1317.48
459.47	1294.88
459.83	1272.28
460.18	1319.74
460.54	1333.30
460.89	1267.76
461.25	1301.66
461.60	1299.40
461.96	1299.40
462.31	1283.58
462.67	1240.65
463.03	1184.15
463.38	1247.42
463.74	1215.79
464.09	1254.20
464.45	1227.09
464.80	1301.66
465.16	1238.39
465.51	1177.37
465.87	1279.06
466.22	1179.63
466.58	1161.55
466.93	1229.35
467.29	1233.87
467.64	1233.87
468.00	1193.19
468.35	1143.47
468.71	1179.63
469.06	1209.01
469.42	1247.42
469.77	1227.09
470.13	1224.83
470.48	1172.85
470.84	1190.93
471.19	1220.31
471.54	1179.63
471.90	1249.68
472.25	1197.71
472.61	1177.37
472.96	1240.65
473.32	1190.93
473.67	1224.83
474.03	1199.97
474.38	1186.41
474.73	1114.10
475.09	1231.61
475.44	1175.11
475.80	1202.23
476.15	1202.23
476.50	1175.11
476.86	1125.39
477.21	1190.93
477.57	1129.91
477.92	1190.93
478.27	1143.47
478.63	1161.55
478.98	1152.51
479.34	1150.25
479.69	1181.89
480.04	1163.81
480.40	1107.32
480.75	1123.13
481.10	1170.59
481.46	1172.85
481.81	1163.81
482.16	1227.09
482.52	1134.43
482.87	1199.97
483.22	1190.93
483.58	1125.39
483.93	1202.23
484.28	1231.61
484.64	1118.61
484.99	1209.01
485.34	1172.85
485.70	1152.51
486.05	1127.65
486.40	1145.73
486.76	1141.21
487.11	1188.67
487.46	1100.54
487.81	1206.75
488.17	1179.63
488.52	1147.99
488.87	1134.43
489.23	1206.75
489.58	1179.63
489.93	1098.28
490.28	1152.51
490.64	1161.55
490.99	1152.51
491.34	1132.17
491.69	1084.72
492.05	1172.85
492.40	1138.95
492.75	1157.03
493.10	1111.84
493.46	1161.55
493.81	1163.81
494.16	1157.03
494.51	1086.98
494.86	1184.15
495.22	1138.95
495.57	1145.73
495.92	1193.19
496.27	1098.28
496.62	1141.21
496.98	1195.45
497.33	1145.73
497.68	1120.87
498.03	1179.63
498.38	1138.95
498.74	1123.13
499.09	1157.03
499.44	1177.37
499.79	1109.58
500.14	1150.25
500.49	1188.67
500.85	1202.23
501.20	1068.90
501.55	1098.28
501.90	1190.93
502.25	1082.46
502.60	1136.69
502.95	1202.23
503.30	1111.84
503.66	1082.46
504.01	1138.95
504.36	1166.07
504.71	1109.58
505.06	1143.47
505.41	1195.45
505.76	1123.13
506.11	1123.13
506.46	1127.65
506.82	1197.71
507.17	1123.13
507.52	1136.69
507.87	1154.77
508.22	1100.54
508.57	1123.13
508.92	1120.87
509.27	1195.45
509.62	1177.37
509.97	1136.69
510.32	1188.67
510.67	1193.19
511.02	1152.51
511.37	1136.69
511.72	1132.17
512.07	1188.67
512.42	1179.63
512.77	1109.58
513.12	1186.41
513.47	1195.45
513.82	1093.76
514.17	1204.49
514.52	1152.51
514.87	1120.87
515.22	1227.09
515.57	1193.19
515.92	1145.73
516.27	1143.47
516.62	1177.37
516.97	1145.73
517.32	1100.54
517.67	1188.67
518.02	1213.53
518.37	1181.89
518.72	1190.93
519.07	1138.95
519.42	1170.59
519.77	1143.47
520.12	1143.47
520.47	1145.73
520.82	1154.77
521.17	1199.97
521.52	1145.73
521.87	1147.99
522.22	1236.13
522.56	1202.23
522.91	1177.37
523.26	1147.99
523.61	1199.97
523.96	1161.55
524.31	1211.27
524.66	1202.23
525.01	1220.31
525.36	1179.63
525.71	1209.01
526.05	1168.33
526.40	1190.93
526.75	1206.75
527.10	1172.85
527.45	1193.19
527.80	1197.71
528.15	1209.01
528.49	1204.49
528.84	1150.25
529.19	1166.07
529.54	1170.59
529.89	1145.73
530.24	1107.32
530.58	1147.99
530.93	1163.81
531.28	1227.09
531.63	1202.23
531.98	1184.15
532.33	1229.35
532.67	1132.17
533.02	1190.93
533.37	1136.69
533.72	1197.71
534.07	1254.20
534.41	1166.07
534.76	1166.07
535.11	1107.32
535.46	1195.45
535.80	1188.67
536.15	1184.15
536.50	1134.43
536.85	1233.87
537.19	1159.29
537.54	1118.61
537.89	1236.13
538.24	1251.94
538.58	1114.10
538.93	1141.21
539.28	1233.87
539.63	1220.31
539.97	1204.49
540.32	1233.87
540.67	1222.57
541.01	1154.77
541.36	1186.41
541.71	1206.75
542.06	1134.43
542.40	1150.25
542.75	1188.67
543.10	1116.35
543.44	1114.10
543.79	1114.10
544.14	1125.39
544.48	1132.17
544.83	1179.63
545.18	1231.61
545.52	1157.03
545.87	1166.07
546.22	1157.03
546.56	1177.37
546.91	1161.55
547.25	1154.77
547.60	1086.98
547.95	1143.47
548.29	1143.47
548.64	1224.83
548.99	1138.95
549.33	1170.59
549.68	1172.85
550.02	1080.20
550.37	1125.39
550.72	1175.11
551.06	1177.37
551.41	1179.63
551.75	1175.11
552.10	1138.95
552.45	1177.37
552.79	1152.51
553.14	1127.65
553.48	1145.73
553.83	1258.72
554.17	1172.85
554.52	1170.59
554.87	1132.17
555.21	1147.99
555.56	1170.59
555.90	1170.59
556.25	1132.17
556.59	1136.69
556.94	1125.39
557.28	1145.73
557.63	1188.67
557.97	1157.03
558.32	1161.55
558.66	1111.84
559.01	1190.93
559.35	1102.80
559.70	1138.95
560.04	1202.23
560.39	1209.01
560.73	1168.33
561.08	1145.73
561.42	1209.01
561.77	1154.77
562.11	1195.45
562.46	1172.85
562.80	1195.45
563.14	1206.75
563.49	1141.21
563.83	1100.54
564.18	1143.47
564.52	1150.25
564.87	1154.77
565.21	1157.03
565.56	1150.25
565.90	1077.94
566.24	1136.69
566.59	1152.51
566.93	1073.42
567.28	1157.03
567.62	1177.37
567.96	1152.51
568.31	1181.89
568.65	1188.67
569.00	1168.33
569.34	1211.27
569.68	1209.01
570.03	1109.58
570.37	1166.07
570.71	1129.91
571.06	1179.63
571.40	1116.35
571.74	1159.29
572.09	1100.54
572.43	1159.29
572.78	1138.95
573.12	1118.61
573.46	1143.47
573.80	1136.69
574.15	1141.21
574.49	1138.95
574.83	1138.95
575.18	1159.29
575.52	1177.37
575.86	1143.47
576.21	1161.55
576.55	1129.91
576.89	1109.58
577.24	1080.20
577.58	1068.90
577.92	1161.55
578.26	1147.99
578.61	1129.91
578.95	1134.43
579.29	1172.85
579.63	1168.33
579.98	1150.25
580.32	1068.90
580.66	1091.50
581.00	1199.97
581.35	1116.35
581.69	1114.10
582.03	1084.72
582.37	1053.08
582.72	1170.59
583.06	1116.35
583.40	1091.50
583.74	1161.55
584.08	1179.63
584.43	1046.30
584.77	1206.75
585.11	1143.47
585.45	1152.51
585.79	1105.06
586.13	1154.77
586.48	1028.22
586.82	1091.50
587.16	1096.02
587.50	1163.81
587.84	1168.33
588.18	1136.69
588.53	1186.41
588.87	1143.47
589.21	1084.72
589.55	1143.47
589.89	1044.04
590.23	1152.51
590.57	1147.99
590.92	1062.12
591.26	1141.21
591.60	1100.54
591.94	1114.10
592.28	1096.02
592.62	1199.97
592.96	1118.61
593.30	1175.11
593.64	1215.79
593.98	1179.63
594.32	1118.61
594.67	1120.87
595.01	1109.58
595.35	1179.63
595.69	1163.81
596.03	1138.95
596.37	1150.25
596.71	1107.32
597.05	1080.20
597.39	1141.21
597.73	1084.72
598.07	1107.32
598.41	1125.39
598.75	1116.35
599.09	1093.76
599.43	1048.56
599.77	1123.13
600.11	1166.07
600.45	1138.95
600.79	1161.55
601.13	1136.69
601.47	1116.35
601.81	1193.19
602.15	1048.56
602.49	1109.58
602.83	1141.21
603.17	1127.65
603.51	1091.50
603.85	1073.42
604.19	1098.28
604.53	1127.65
604.87	1145.73
605.21	1082.46
605.55	1141.21
605.89	1125.39
606.23	1159.29
606.56	1170.59
606.90	1125.39
607.24	1147.99
607.58	1107.32
607.92	1136.69
608.26	1016.92
608.60	1098.28
608.94	1109.58
609.28	1118.61
609.62	1123.13
609.95	1109.58
610.29	1134.43
610.63	1157.03
610.97	1145.73
611.31	1150.25
611.65	1105.06
611.99	1120.87
612.33	1172.85
612.66	1080.20
613.00	1080.20
613.34	1179.63
613.68	1138.95
614.02	1064.38
614.36	1157.03
614.69	1123.13
615.03	1105.06
615.37	1118.61
615.71	1093.76
616.05	1091.50
616.38	1093.76
616.72	1170.59
617.06	1159.29
617.40	1114.10
617.74	1075.68
618.07	1127.65
618.41	1157.03
618.75	1129.91
619.09	1114.10
619.42	1091.50
619.76	1059.86
620.10	1105.06
620.44	1071.16
620.77	1118.61
621.11	1102.80
621.45	1077.94
621.79	1114.10
622.12	1123.13
622.46	1114.10
622.80	1116.35
623.13	1046.30
623.47	1138.95
623.81	1125.39
624.15	1147.99
624.48	1111.84
624.82	1150.25
625.16	1091.50
625.49	1118.61
625.83	1152.51
626.17	1107.32
626.50	1177.37
626.84	1136.69
627.18	1098.28
627.51	1129.91
627.85	1114.10
628.19	1098.28
628.52	1138.95
628.86	1080.20
629.20	1091.50
629.53	1093.76
629.87	1102.80
630.20	1197.71
630.54	1186.41
630.88	1057.60
631.21	1120.87
631.55	1109.58
631.89	1120.87
632.22	1114.10
632.56	1062.12
632.89	1141.21
633.23	1154.77
633.56	1107.32
633.90	1093.76
634.24	1161.55
634.57	1143.47
634.91	1091.50
635.24	1127.65
635.58	1159.29
635.91	1179.63
636.25	1129.91
636.58	1068.90
636.92	1098.28
637.26	1170.59
637.59	1123.13
637.93	1086.98
638.26	1111.84
638.60	1062.12
638.93	1084.72
639.27	1143.47
639.60	1071.16
639.94	1129.91
640.27	1064.38
640.61	1116.35
640.94	1089.24
641.28	1118.61
641.61	1073.42
641.94	1118.61
642.28	1150.25
642.61	1118.61
642.95	1114.10
643.28	1127.65
643.62	1116.35
643.95	1129.91
644.29	1147.99
644.62	1123.13
644.95	1114.10
645.29	1105.06
645.62	1035.00
645.96	1059.86
646.29	1129.91
646.63	1098.28
646.96	1125.39
647.29	1098.28
647.63	1107.32
647.96	1062.12
648.29	1138.95
648.63	1107.32
648.96	1107.32
649.30	1066.64
649.63	1082.46
649.96	1100.54
650.30	1116.35
650.63	1132.17
650.96	1107.32
651.30	1082.46
651.63	1071.16
651.96	1161.55
652.30	1138.95
652.63	1145.73
652.96	1120.87
653.30	1055.34
653.63	1062.12
653.96	1125.39
654.30	1141.21
654.63	1120.87
654.96	1170.59
655.29	1138.95
655.63	1080.20
655.96	1105.06
656.29	1100.54
656.63	1096.02
656.96	1157.03
657.29	1118.61
657.62	1050.82
657.96	1021.44
658.29	1086.98
658.62	1062.12
658.95	1091.50
659.29	1150.25
659.62	1127.65
659.95	1111.84
660.28	1098.28
660.61	1123.13
660.95	1125.39
661.28	1134.43
661.61	1089.24
661.94	1084.72
662.27	1055.34
662.61	1116.35
662.94	1073.42
663.27	1091.50
663.60	1129.91
663.93	1111.84
664.27	1123.13
664.60	1136.69
664.93	1098.28
665.26	1145.73
665.59	1118.61
665.92	1127.65
666.25	1080.20
666.59	1059.86
666.92	1150.25
667.25	1064.38
667.58	1132.17
667.91	1109.58
668.24	1138.95
668.57	1089.24
668.90	1127.65
669.23	1093.76
669.57	1102.80
669.90	1111.84
670.23	1068.90
670.56	1134.43
670.89	1089.24
671.22	1084.72
671.55	1127.65
671.88	1127.65
672.21	1093.76
672.54	1073.42
672.87	1086.98
673.20	1147.99
673.53	1086.98
673.86	1096.02
674.19	1159.29
674.52	1041.78
674.85	1080.20
675.18	1109.58
675.51	1091.50
675.84	1098.28
676.17	1055.34
676.50	1098.28
676.83	1123.13
677.16	1109.58
677.49	1109.58
677.82	1073.42
678.15	1105.06
678.48	1138.95
678.81	1071.16
679.14	1093.76
679.47	1086.98
679.80	1098.28
680.13	1157.03
680.46	1093.76
680.79	1109.58
681.12	1075.68
681.45	1025.96
681.78	1089.24
682.11	1120.87
682.44	1098.28
682.77	1091.50
683.09	1048.56
683.42	1098.28
683.75	1082.46
684.08	1109.58
684.41	1084.72
684.74	1114.10
685.07	1111.84
685.40	1080.20
685.72	1041.78
686.05	1143.47
686.38	1141.21
686.71	1055.34
687.04	1068.90
687.37	1057.60
687.70	1057.60
688.02	1084.72
688.35	1190.93
688.68	1091.50
689.01	1073.42
689.34	1073.42
689.67	1120.87
689.99	1105.06
690.32	1143.47
690.65	1143.47
690.98	1111.84
691.30	1082.46
691.63	1161.55
691.96	1080.20
692.29	1116.35
692.62	1111.84
692.94	1138.95
693.27	1096.02
693.60	1046.30
693.93	1066.64
694.25	1120.87
694.58	1129.91
694.91	1039.52
695.24	1107.32
695.56	1096.02
695.89	1098.28
696.22	1053.08
696.54	1132.17
696.87	1084.72
697.20	1138.95
697.53	1152.51
697.85	1055.34
698.18	1127.65
698.51	1143.47
698.83	1073.42
699.16	1150.25
699.49	1127.65
699.81	1096.02
700.14	1046.30
700.47	1154.77
700.79	1134.43
701.12	1096.02
701.45	1125.39
701.77	1068.90
702.10	1082.46
702.42	1116.35
702.75	1147.99
703.08	1093.76
703.40	1062.12
703.73	1086.98
704.05	1057.60
704.38	1120.87
704.71	1127.65
705.03	1059.86
705.36	1118.61
705.68	1080.20
706.01	1073.42
706.34	1143.47
706.66	1071.16
706.99	1084.72
707.31	1134.43
707.64	1136.69
707.96	1077.94
708.29	1062.12
708.61	1057.60
708.94	1123.13
709.26	1147.99
709.59	1062.12
709.92	1100.54
710.24	1068.90
710.57	1129.91
710.89	1111.84
711.22	1098.28
711.54	1084.72
711.87	1098.28
712.19	1086.98
712.51	1071.16
712.84	1055.34
713.16	1118.61
713.49	1075.68
713.81	1109.58
714.14	1075.68
714.46	1075.68
714.79	1132.17
715.11	1143.47
715.44	1157.03
715.76	1109.58
716.08	1057.60
716.41	1123.13
716.73	1089.24
717.06	1116.35
717.38	1138.95
717.70	1064.38
718.03	1107.32
718.35	1075.68
718.68	1096.02
719.00	1134.43
719.32	1157.03
719.65	1093.76
719.97	1118.61
720.29	1093.76
720.62	1048.56
720.94	1035.00
721.27	1152.51
721.59	1064.38
721.91	1093.76
722.24	1077.94
722.56	1023.70
722.88	1123.13
723.21	1136.69
723.53	1064.38
723.85	1068.90
724.17	1048.56
724.50	1055.34
724.82	1152.51
725.14	1116.35
725.47	1105.06
725.79	1096.02
726.11	1066.64
726.43	1107.32
726.76	1096.02
727.08	1091.50
727.40	1080.20
727.72	1080.20
728.05	1111.84
728.37	1093.76
728.69	1132.17
729.01	1080.20
729.34	1091.50
729.66	1118.61
729.98	1143.47
730.30	1118.61
730.62	1138.95
730.95	1068.90
731.27	1132.17
731.59	1071.16
731.91	1084.72
732.23	1062.12
732.56	1086.98
732.88	1161.55
733.20	1077.94
733.52	1147.99
733.84	1071.16
734.16	1064.38
734.49	1147.99
734.81	1050.82
735.13	1093.76
735.45	1161.55
735.77	1091.50
736.09	1048.56
736.41	1064.38
736.73	1084.72
737.06	1005.62
737.38	1048.56
737.70	1041.78
738.02	1107.32
738.34	1091.50
738.66	1073.42
738.98	1127.65
739.30	1093.76
739.62	1134.43
739.94	1143.47
740.26	1118.61
740.58	1098.28
740.90	1150.25
741.23	1093.76
741.55	1091.50
741.87	1064.38
742.19	1021.44
742.51	1084.72
742.83	1050.82
743.15	1046.30
743.47	1089.24
743.79	1111.84
744.11	1096.02
744.43	1134.43
744.75	1132.17
745.07	1123.13
745.39	1134.43
745.71	1127.65
746.03	1086.98
746.35	1134.43
746.67	1073.42
746.98	1120.87
747.30	1120.87
747.62	1073.42
747.94	1073.42
748.26	1064.38
748.58	1080.20
748.90	1053.08
749.22	1150.25
749.54	1089.24
749.86	1071.16
750.18	1125.39
750.50	1145.73
750.82	1050.82
751.13	1077.94
751.45	1084.72
751.77	1032.74
752.09	1129.91
752.41	1170.59
752.73	1143.47
753.05	1096.02
753.36	1086.98
753.68	1125.39
754.00	1150.25
754.32	1080.20
754.64	1080.20
754.96	1100.54
755.28	1059.86
755.59	1055.34
755.91	1107.32
756.23	1118.61
756.55	1143.47
756.87	1129.91
757.18	1059.86
757.50	1089.24
757.82	1071.16
758.14	1127.65
758.45	1068.90
758.77	1039.52
759.09	1109.58
759.41	1062.12
759.73	1118.61
760.04	1138.95
760.36	1064.38
760.68	1062.12
760.99	992.06
761.31	1075.68
761.63	1080.20
761.95	1096.02
762.26	1152.51
762.58	1134.43
762.90	1089.24
763.21	1030.48
763.53	1082.46
763.85	1107.32
764.17	1116.35
764.48	1075.68
764.80	994.32
765.12	1107.32
765.43	1068.90
765.75	1141.21
766.07	1100.54
766.38	1091.50
766.70	1129.91
767.01	1100.54
767.33	1064.38
767.65	969.47
767.96	1075.68
768.28	1127.65
768.60	1096.02
768.91	1114.10
769.23	1134.43
769.54	1057.60
769.86	1075.68
770.18	1044.04
770.49	1091.50
770.81	1111.84
771.12	1175.11
771.44	1159.29
771.75	1091.50
772.07	1082.46
772.38	1134.43
772.70	1118.61
773.02	1089.24
773.33	1102.80
773.65	1134.43
773.96	1105.06
774.28	1093.76
774.59	1123.13
774.91	1120.87
775.22	1037.26
775.54	1100.54
775.85	1129.91
776.17	1057.60
776.48	1100.54
776.80	1125.39
777.11	1118.61
777.43	1091.50
777.74	1082.46
778.05	1100.54
778.37	1001.10
778.68	1100.54
779.00	1120.87
779.31	1125.39
779.63	1080.20
779.94	1118.61
780.26	1096.02
780.57	1136.69
780.88	1073.42
781.20	1084.72
781.51	1147.99
781.83	1105.06
782.14	1055.34
782.45	1102.80
782.77	1039.52
783.08	1062.12
783.39	1084.72
783.71	1129.91
784.02	1134.43
784.34	1091.50
784.65	1147.99
784.96	1086.98
785.28	1107.32
785.59	1093.76
785.90	1059.86
786.22	1059.86
786.53	1050.82
786.84	1082.46
787.15	1129.91
787.47	1102.80
787.78	1080.20
788.09	1082.46
788.41	1100.54
788.72	1080.20
789.03	1096.02
789.35	1143.47
789.66	1059.86
789.97	1044.04
790.28	1059.86
790.60	1066.64
790.91	1039.52
791.22	1143.47
791.53	1025.96
791.84	1100.54
792.16	1057.60
792.47	1116.35
792.78	1093.76
793.09	1077.94
793.41	1098.28
793.72	1071.16
794.03	1041.78
794.34	1048.56
794.65	1066.64
794.96	1082.46
795.28	1134.43
795.59	1091.50
795.90	1044.04
796.21	1141.21
796.52	1089.24
796.83	1066.64
797.15	1125.39
797.46	1086.98
797.77	1019.18
798.08	1102.80
798.39	1161.55
798.70	1157.03
799.01	1105.06
799.32	1093.76
799.63	1107.32
799.95	1116.35
800.26	1102.80
800.57	1086.98
800.88	1073.42
801.19	1093.76
801.50	1105.06
801.81	1136.69
802.12	1039.52
802.43	1100.54
802.74	1048.56
803.05	1068.90
803.36	1080.20
803.67	1093.76
803.98	1132.17
804.29	1091.50
804.60	1132.17
804.91	1064.38
805.22	1157.03
805.53	1109.58
805.84	1075.68
806.15	1071.16
806.46	1141.21
806.77	1125.39
807.08	1077.94
807.39	1089.24
807.70	1062.12
808.01	1084.72
808.32	1030.48
808.63	1080.20
808.94	1118.61
809.25	1071.16
809.56	1102.80
809.87	1068.90
810.18	1059.86
810.49	1132.17
810.79	1129.91
811.10	1114.10
811.41	1050.82
811.72	1134.43
812.03	1109.58
812.34	1102.80
812.65	1086.98
812.96	1050.82
813.27	1053.08
813.57	1077.94
813.88	1071.16
814.19	1107.32
814.50	1005.62
814.81	1035.00
815.12	1109.58
815.42	1116.35
815.73	1037.26
816.04	1025.96
816.35	1059.86
816.66	1068.90
816.97	1073.42
817.27	1089.24
817.58	1055.34
817.89	1053.08
818.20	1150.25
818.50	1150.25
818.81	1129.91
819.12	1109.58
819.43	1100.54
819.73	1057.60
820.04	1059.86
820.35	1107.32
820.66	1118.61
820.96	1129.91
821.27	1093.76
821.58	1102.80
821.89	1082.46
822.19	1084.72
822.50	1109.58
822.81	1096.02
823.11	1073.42
823.42	1098.28
823.73	1152.51
824.03	1136.69
824.34	1080.20
824.65	1107.32
824.95	1066.64
825.26	1134.43
825.57	1098.28
825.87	1096.02
826.18	996.58
826.49	1089.24
826.79	1107.32
827.10	1093.76
827.40	1105.06
827.71	1152.51
828.02	1041.78
828.32	1123.13
828.63	1084.72
828.93	1118.61
829.24	1096.02
829.55	1046.30
829.85	1143.47
830.16	1129.91
830.46	1114.10
830.77	1075.68
831.07	1134.43
831.38	1125.39
831.69	1170.59
831.99	1086.98
832.30	1053.08
832.60	1123.13
832.91	1032.74
833.21	1084.72
833.52	1028.22
833.82	1071.16
834.13	1181.89
834.43	1107.32
834.74	1093.76
835.04	1107.32
835.35	1116.35
835.65	1062.12
835.96	1147.99
836.26	1073.42
836.56	1084.72
836.87	1143.47
837.17	1082.46
837.48	1084.72
837.78	1129.91
838.09	1141.21
838.39	1102.80
838.69	1086.98
839.00	1046.30
839.30	1145.73
839.61	1086.98
839.91	1109.58
840.21	1111.84
840.52	1100.54
840.82	1098.28
841.13	1071.16
841.43	1068.90
841.73	1120.87
842.04	1127.65
842.34	1102.80
842.64	1025.96
842.95	1089.24
843.25	1116.35
843.55	1118.61
843.86	1071.16
844.16	1116.35
844.46	1071.16
844.77	1125.39
845.07	1127.65
845.37	1098.28
845.68	1046.30
845.98	1093.76
846.28	1041.78
846.58	1091.50
846.89	1143.47
847.19	1132.17
847.49	1075.68
847.79	1114.10
848.10	1118.61
848.40	1075.68
848.70	1071.16
849.00	1080.20
849.31	1098.28
849.61	1068.90
849.91	1019.18
850.21	1025.96
850.51	1055.34
850.82	1030.48
851.12	1071.16
851.42	1096.02
851.72	1100.54
852.02	1105.06
852.32	1132.17
852.63	1109.58
852.93	1143.47
853.23	1059.86
853.53	1145.73
853.83	1109.58
854.13	1035.00
854.43	1098.28
854.74	1145.73
855.04	1120.87
855.34	1179.63
855.64	1082.46
855.94	1001.10
856.24	1071.16
856.54	1096.02
856.84	1096.02
857.14	1147.99
857.44	1118.61
857.74	1016.92
858.05	1071.16
858.35	1084.72
858.65	1105.06
858.95	1123.13
859.25	1082.46
859.55	1084.72
859.85	1035.00
860.15	1059.86
860.45	1109.58
860.75	1098.28
861.05	1073.42
861.35	1154.77
861.65	1114.10
861.95	1120.87
862.25	1041.78
862.55	1098.28
862.85	1077.94
863.15	1091.50
863.45	1116.35
863.75	1098.28
864.05	1053.08
864.35	1050.82
864.64	1039.52
864.94	1132.17
865.24	1134.43
865.54	1086.98
865.84	1186.41
866.14	1098.28
866.44	1147.99
866.74	1100.54
867.04	1134.43
867.34	1048.56
867.64	1075.68
867.93	1091.50
868.23	1089.24
868.53	1091.50
868.83	1077.94
869.13	1059.86
869.43	1093.76
869.73	1116.35
870.02	1044.04
870.32	1161.55
870.62	1138.95
870.92	1025.96
871.22	1077.94
871.51	1145.73
871.81	1064.38
872.11	1084.72
872.41	1116.35
872.71	1082.46
873.00	1147.99
873.30	1145.73
873.60	1091.50
873.90	1080.20
874.19	1064.38
874.49	1114.10
874.79	1114.10
875.09	1143.47
875.38	1089.24
875.68	1123.13
875.98	1129.91
876.28	1132.17
876.57	1118.61
876.87	1118.61
877.17	1118.61
