174.03	698.29
174.41	698.29
174.78	698.29
175.16	662.13
175.54	686.99
175.92	716.37
176.30	714.11
176.67	754.78
177.05	795.46
177.43	763.82
177.81	788.68
178.19	786.42
178.56	748.00
178.94	815.80
179.32	845.18
179.70	860.99
180.08	833.88
180.45	890.37
180.83	912.97
181.21	951.39
181.59	949.13
181.96	1016.92
182.34	960.43
182.72	949.13
183.10	958.17
183.48	1019.18
183.85	1019.18
184.23	1032.74
184.61	971.73
184.99	985.28
185.36	1093.76
185.74	1093.76
186.12	1123.13
186.50	1123.13
186.87	1082.46
187.25	1068.90
187.63	1114.10
188.01	1157.03
188.38	1141.21
188.76	1091.50
189.14	1181.89
189.52	1071.16
189.89	1105.06
190.27	1123.13
190.65	1096.02
191.02	1141.21
191.40	1150.25
191.78	1096.02
192.16	1086.98
192.53	1138.95
192.91	1111.84
193.29	1127.65
193.66	1091.50
194.04	1109.58
194.42	1145.73
194.79	1127.65
195.17	1111.84
195.55	1025.96
195.93	1080.20
196.30	1035.00
196.68	1127.65
197.06	1111.84
197.43	1123.13
197.81	1096.02
198.19	1114.10
198.56	1093.76
198.94	1091.50
199.32	1032.74
199.69	1111.84
200.07	1105.06
200.45	1093.76
200.82	1098.28
201.20	1032.74
201.58	1125.39
201.95	1025.96
202.33	1086.98
202.71	1062.12
203.08	1118.61
203.46	1093.76
203.84	1107.32
204.21	1091.50
204.59	1134.43
204.96	1129.91
205.34	1123.13
205.72	1073.42
206.09	1127.65
206.47	1077.94
206.85	1193.19
207.22	1147.99
207.60	1129.91
207.97	1177.37
208.35	1044.04
208.73	1096.02
209.10	1096.02
209.48	1073.42
209.85	1084.72
210.23	1066.64
210.61	1089.24
210.98	1055.34
211.36	1064.38
211.73	1102.80
212.11	1055.34
212.49	1102.80
212.86	1091.50
213.24	1111.84
213.61	1100.54
213.99	1111.84
214.37	1138.95
214.74	1102.80
215.12	1086.98
215.49	1068.90
215.87	1111.84
216.24	1073.42
216.62	1019.18
216.99	1147.99
217.37	1098.28
217.75	1132.17
218.12	1116.35
218.50	1161.55
218.87	1120.87
219.25	1107.32
219.62	1093.76
220.00	1134.43
220.37	1071.16
220.75	1116.35
221.12	1093.76
221.50	1147.99
221.87	1105.06
222.25	1132.17
222.63	1093.76
223.00	1116.35
223.38	1086.98
223.75	1048.56
224.13	1116.35
224.50	1138.95
224.88	1064.38
225.25	1084.72
225.63	1107.32
226.00	1001.10
226.38	1084.72
226.75	1093.76
227.13	1120.87
227.50	1125.39
227.88	1141.21
228.25	1084.72
228.63	1129.91
229.00	1107.32
229.37	1147.99
229.75	1068.90
230.12	1035.00
230.50	1152.51
230.87	1107.32
231.25	1105.06
231.62	1084.72
232.00	1154.77
232.37	1059.86
232.75	1154.77
233.12	1107.32
233.50	1089.24
233.87	1143.47
234.24	1141.21
234.62	1071.16
234.99	1077.94
235.37	1125.39
235.74	1093.76
236.12	1132.17
236.49	1150.25
236.86	1120.87
237.24	1123.13
237.61	1143.47
237.99	1141.21
238.36	1172.85
238.74	1109.58
239.11	1037.26
239.48	1138.95
239.86	1136.69
240.23	1102.80
240.61	1197.71
240.98	1136.69
241.35	1098.28
241.73	1114.10
242.10	1147.99
242.48	1059.86
242.85	1125.39
243.22	1152.51
243.60	1145.73
243.97	1134.43
244.34	1032.74
244.72	1129.91
245.09	1177.37
245.47	1175.11
245.84	1109.58
246.21	1166.07
246.59	1157.03
246.96	1116.35
247.33	1141.21
247.71	1064.38
248.08	1080.20
248.45	1147.99
248.83	1096.02
249.20	1120.87
249.57	1154.77
249.95	1125.39
250.32	1107.32
250.69	1071.16
251.07	1080.20
251.44	1082.46
251.81	1181.89
252.19	1177.37
252.56	1077.94
252.93	1125.39
253.31	1071.16
253.68	1102.80
254.05	1080.20
254.43	1134.43
254.80	1035.00
255.17	1132.17
255.55	1159.29
255.92	1147.99
256.29	1186.41
256.66	1134.43
257.04	1075.68
257.41	1073.42
257.78	1134.43
258.16	1168.33
258.53	1098.28
258.90	1053.08
259.27	1098.28
259.65	1064.38
260.02	1145.73
260.39	1159.29
260.76	1107.32
261.14	1179.63
261.51	1116.35
261.88	1077.94
262.25	1161.55
262.63	1107.32
263.00	1127.65
263.37	1120.87
263.74	1141.21
264.12	1136.69
264.49	1084.72
264.86	1102.80
265.23	1134.43
265.61	1082.46
265.98	1166.07
266.35	1082.46
266.72	1150.25
267.09	1118.61
267.47	1138.95
267.84	1136.69
268.21	1138.95
268.58	1102.80
268.95	1102.80
269.33	1152.51
269.70	1168.33
270.07	1152.51
270.44	1084.72
270.81	1161.55
271.19	1181.89
271.56	1114.10
271.93	1114.10
272.30	1098.28
272.67	1116.35
273.05	1127.65
273.42	1093.76
273.79	1125.39
274.16	1098.28
274.53	1105.06
274.90	1123.13
275.28	1166.07
275.65	1159.29
276.02	1123.13
276.39	1109.58
276.76	1089.24
277.13	1175.11
277.50	1143.47
277.88	1109.58
278.25	1125.39
278.62	1218.05
278.99	1123.13
279.36	1100.54
279.73	1035.00
280.10	1157.03
280.47	1132.17
280.85	1066.64
281.22	1159.29
281.59	1166.07
281.96	1175.11
282.33	1082.46
282.70	1127.65
283.07	1150.25
283.44	1107.32
283.81	1127.65
284.18	1086.98
284.56	1127.65
284.93	1175.11
285.30	1166.07
285.67	1064.38
286.04	1120.87
286.41	1136.69
286.78	1134.43
287.15	1138.95
287.52	1134.43
287.89	1118.61
288.26	1132.17
288.63	1064.38
289.00	1152.51
289.37	1134.43
289.75	1141.21
290.12	1143.47
290.49	1123.13
290.86	1170.59
291.23	1157.03
291.60	1093.76
291.97	1127.65
292.34	1107.32
292.71	1123.13
293.08	1150.25
293.45	1170.59
293.82	1202.23
294.19	1193.19
294.56	1159.29
294.93	1145.73
295.30	1163.81
295.67	1123.13
296.04	1098.28
296.41	1154.77
296.78	1145.73
297.15	1150.25
297.52	1138.95
297.89	1168.33
298.26	1206.75
298.63	1109.58
299.00	1199.97
299.37	1172.85
299.74	1159.29
300.11	1157.03
300.48	1118.61
300.85	1188.67
301.22	1179.63
301.59	1118.61
301.96	1179.63
302.33	1179.63
302.70	1166.07
303.07	1129.91
303.43	1100.54
303.80	1170.59
304.17	1096.02
304.54	1175.11
304.91	1143.47
305.28	1177.37
305.65	1154.77
306.02	1195.45
306.39	1161.55
306.76	1120.87
307.13	1206.75
307.50	1172.85
307.87	1163.81
308.24	1193.19
308.60	1224.83
308.97	1150.25
309.34	1141.21
309.71	1163.81
310.08	1166.07
310.45	1147.99
310.82	1170.59
311.19	1125.39
311.56	1143.47
311.92	1086.98
312.29	1145.73
312.66	1163.81
313.03	1161.55
313.40	1218.05
313.77	1157.03
314.14	1107.32
314.51	1105.06
314.87	1231.61
315.24	1116.35
315.61	1107.32
315.98	1150.25
316.35	1159.29
316.72	1132.17
317.09	1114.10
317.45	1134.43
317.82	1168.33
318.19	1125.39
318.56	1195.45
318.93	1195.45
319.30	1141.21
319.66	1150.25
320.03	1193.19
320.40	1186.41
320.77	1107.32
321.14	1181.89
321.50	1222.57
321.87	1159.29
322.24	1186.41
322.61	1143.47
322.98	1211.27
323.34	1132.17
323.71	1163.81
324.08	1141.21
324.45	1096.02
324.82	1154.77
325.18	1147.99
325.55	1102.80
325.92	1143.47
326.29	1129.91
326.65	1118.61
327.02	1197.71
327.39	1177.37
327.76	1175.11
328.12	1188.67
328.49	1114.10
328.86	1204.49
329.23	1159.29
329.59	1218.05
329.96	1127.65
330.33	1190.93
330.70	1209.01
331.06	1157.03
331.43	1186.41
331.80	1177.37
332.17	1134.43
332.53	1353.64
332.90	1150.25
333.27	1195.45
333.63	1163.81
334.00	1229.35
334.37	1231.61
334.74	1179.63
335.10	1206.75
335.47	1204.49
335.84	1161.55
336.20	1089.24
336.57	1118.61
336.94	1166.07
337.30	1199.97
337.67	1197.71
338.04	1202.23
338.40	1227.09
338.77	1195.45
339.14	1145.73
339.50	1204.49
339.87	1188.67
340.24	1184.15
340.60	1215.79
340.97	1222.57
341.34	1193.19
341.70	1186.41
342.07	1218.05
342.44	1245.16
342.80	1177.37
343.17	1179.63
343.53	1184.15
343.90	1215.79
344.27	1188.67
344.63	1197.71
345.00	1220.31
345.37	1211.27
345.73	1175.11
346.10	1242.91
346.46	1184.15
346.83	1242.91
347.20	1206.75
347.56	1222.57
347.93	1145.73
348.29	1204.49
348.66	1220.31
349.03	1222.57
349.39	1154.77
349.76	1147.99
350.12	1242.91
350.49	1247.42
350.85	1231.61
351.22	1233.87
351.59	1186.41
351.95	1229.35
352.32	1240.65
352.68	1227.09
353.05	1231.61
353.41	1227.09
353.78	1231.61
354.14	1222.57
354.51	1227.09
354.88	1231.61
355.24	1138.95
355.61	1202.23
355.97	1251.94
356.34	1211.27
356.70	1227.09
357.07	1190.93
357.43	1224.83
357.80	1233.87
358.16	1188.67
358.53	1195.45
358.89	1184.15
359.26	1249.68
359.62	1199.97
359.99	1209.01
360.35	1254.20
360.72	1274.54
361.08	1299.40
361.45	1258.72
361.81	1254.20
362.18	1227.09
362.54	1288.10
362.91	1283.58
363.27	1279.06
363.63	1247.42
364.00	1267.76
364.36	1242.91
364.73	1260.98
365.09	1270.02
365.46	1303.92
365.82	1263.24
366.19	1322.00
366.55	1267.76
366.91	1254.20
367.28	1344.60
367.64	1310.70
368.01	1299.40
368.37	1247.42
368.74	1292.62
369.10	1342.34
369.46	1355.90
369.83	1317.48
370.19	1249.68
370.56	1294.88
370.92	1249.68
371.28	1324.26
371.65	1324.26
372.01	1299.40
372.38	1362.68
372.74	1315.22
373.10	1322.00
373.47	1367.20
373.83	1412.39
374.19	1392.05
374.56	1351.38
374.92	1362.68
375.29	1398.83
375.65	1428.21
376.01	1480.19
376.38	1444.03
376.74	1437.25
377.10	1437.25
377.47	1480.19
377.83	1505.05
378.19	1509.56
378.56	1602.22
378.92	1570.58
379.28	1550.24
379.65	1545.72
380.01	1590.92
380.37	1697.13
380.74	1663.23
381.10	1699.39
381.46	1758.15
381.83	1807.86
382.19	1891.48
382.55	1968.31
382.91	2065.48
383.28	2187.51
383.64	2214.63
384.00	2334.40
384.37	2449.65
384.73	2641.74
385.09	2662.08
385.45	2747.95
385.82	2908.40
386.18	3059.81
386.54	3360.36
386.91	3606.68
387.27	3914.02
387.63	4144.52
387.99	4311.75
388.36	4691.40
388.72	5138.85
389.08	5477.82
389.44	5828.10
389.80	6273.28
390.17	6614.52
390.53	7385.12
390.89	8230.29
391.25	8759.09
391.62	9265.29
391.98	10411.03
392.34	11197.45
392.70	11897.99
393.06	12697.97
393.43	13866.30
393.79	14304.71
394.15	15129.55
394.51	16349.85
394.87	17529.48
395.24	18711.37
395.60	20709.06
395.96	22017.50
396.32	23791.46
396.68	25174.48
397.04	27567.64
397.41	30367.56
397.77	32324.57
398.13	34699.65
398.49	36756.10
398.85	39558.28
399.21	43402.25
399.58	46389.74
399.94	48997.58
400.30	52995.22
400.66	54161.29
401.02	56748.79
401.38	58432.36
401.74	59926.11
402.11	61819.84
402.47	63372.34
402.83	64305.65
403.19	65535.00
403.55	65535.00
403.91	65535.00
404.27	65535.00
404.63	65535.00
404.99	65535.00
405.35	65535.00
405.72	65535.00
406.08	65535.00
406.44	65535.00
406.80	65535.00
407.16	65535.00
407.52	65535.00
407.88	65535.00
408.24	65535.00
408.60	65535.00
408.96	65535.00
409.32	65535.00
409.68	65535.00
410.04	65535.00
410.40	65535.00
410.76	65535.00
411.13	65535.00
411.49	65535.00
411.85	64818.63
412.21	63424.32
412.57	62131.70
412.93	61191.61
413.29	59625.55
413.65	57980.40
414.01	56486.65
414.37	54012.14
414.73	52911.60
415.09	50861.94
415.45	49501.52
415.81	46712.90
416.17	44455.33
416.53	42735.60
416.89	40536.79
417.25	38975.25
417.61	37158.34
417.97	36021.65
418.33	34148.25
418.69	33242.06
419.05	32062.43
419.41	30964.16
419.77	30543.83
420.12	28491.91
420.48	27002.68
420.84	26299.87
421.20	24785.79
421.56	23689.77
421.92	23574.52
422.28	22141.79
422.64	20641.27
423.00	19671.80
423.36	18980.29
423.72	17567.90
424.08	16571.32
424.44	16019.92
424.80	15276.43
425.16	14467.42
425.51	13671.96
425.87	13717.15
426.23	12221.15
426.59	11613.25
426.95	11491.22
427.31	10815.53
427.67	10544.36
428.03	9848.33
428.39	9606.53
428.74	8935.36
429.10	8515.03
429.46	7981.71
429.82	7602.06
430.18	7396.42
430.54	7235.97
430.90	7009.99
431.26	6750.10
431.61	6318.48
431.97	6101.53
432.33	6058.60
432.69	5900.41
433.05	5538.84
433.41	5328.67
433.76	5197.60
434.12	5100.43
434.48	4939.98
434.84	4684.62
435.20	4625.87
435.55	4490.28
435.91	4438.30
436.27	4207.80
436.63	4083.51
436.99	3891.42
437.34	3699.34
437.70	3699.34
438.06	3545.67
438.42	3414.60
438.78	3360.36
439.13	3279.01
439.49	3202.18
439.85	3129.86
440.21	2960.37
440.56	2747.95
440.92	2876.76
441.28	2777.33
441.64	2822.52
441.99	2634.96
442.35	2592.02
442.71	2442.87
443.07	2415.76
443.42	2395.42
443.78	2275.65
444.14	2393.16
444.50	2282.43
444.85	2169.43
445.21	2119.72
445.57	2119.72
445.93	2090.34
446.28	2047.40
446.64	2092.60
447.00	1990.91
447.35	2004.47
447.71	1959.27
448.07	2008.99
448.42	1868.88
448.78	1947.97
449.14	1873.40
449.49	1776.22
449.85	1821.42
450.21	1830.46
450.56	1746.85
450.92	1642.89
451.28	1703.91
451.63	1740.07
451.99	1701.65
452.35	1708.43
452.70	1681.31
453.06	1681.31
453.42	1543.46
453.77	1586.40
454.13	1541.20
454.49	1518.60
454.84	1557.02
455.20	1532.16
455.55	1545.72
455.91	1466.63
456.27	1496.01
456.62	1477.93
456.98	1394.31
457.33	1369.46
457.69	1364.94
458.05	1428.21
458.40	1398.83
458.76	1428.21
459.11	1369.46
459.47	1392.05
459.83	1383.01
460.18	1355.90
460.54	1378.49
460.89	1410.13
461.25	1344.60
461.60	1333.30
461.96	1355.90
462.31	1367.20
462.67	1263.24
463.03	1308.44
463.38	1333.30
463.74	1344.60
464.09	1312.96
464.45	1340.08
464.80	1299.40
465.16	1326.52
465.51	1270.02
465.87	1303.92
466.22	1276.80
466.58	1288.10
466.93	1199.97
467.29	1245.16
467.64	1236.13
468.00	1353.64
468.35	1349.12
468.71	1265.50
469.06	1222.57
469.42	1249.68
469.77	1263.24
470.13	1236.13
470.48	1274.54
470.84	1272.28
471.19	1238.39
471.54	1227.09
471.90	1236.13
472.25	1242.91
472.61	1254.20
472.96	1206.75
473.32	1193.19
473.67	1220.31
474.03	1242.91
474.38	1229.35
474.73	1240.65
475.09	1236.13
475.44	1195.45
475.80	1251.94
476.15	1218.05
476.50	1197.71
476.86	1188.67
477.21	1247.42
477.57	1166.07
477.92	1202.23
478.27	1134.43
478.63	1177.37
478.98	1206.75
479.34	1301.66
479.69	1272.28
480.04	1229.35
480.40	1175.11
480.75	1224.83
481.10	1247.42
481.46	1209.01
481.81	1193.19
482.16	1163.81
482.52	1211.27
482.87	1272.28
483.22	1215.79
483.58	1199.97
483.93	1242.91
484.28	1134.43
484.64	1254.20
484.99	1138.95
485.34	1220.31
485.70	1267.76
486.05	1213.53
486.40	1224.83
486.76	1166.07
487.11	1242.91
487.46	1247.42
487.81	1258.72
488.17	1265.50
488.52	1199.97
488.87	1215.79
489.23	1270.02
489.58	1170.59
489.93	1242.91
490.28	1227.09
490.64	1184.15
490.99	1285.84
491.34	1202.23
491.69	1211.27
492.05	1283.58
492.40	1224.83
492.75	1222.57
493.10	1231.61
493.46	1274.54
493.81	1249.68
494.16	1258.72
494.51	1197.71
494.86	1172.85
495.22	1251.94
495.57	1211.27
495.92	1299.40
496.27	1215.79
496.62	1288.10
496.98	1247.42
497.33	1251.94
497.68	1322.00
498.03	1240.65
498.38	1258.72
498.74	1285.84
499.09	1288.10
499.44	1247.42
499.79	1274.54
500.14	1315.22
500.49	1328.78
500.85	1310.70
501.20	1283.58
501.55	1281.32
501.90	1328.78
502.25	1394.31
502.60	1299.40
502.95	1342.34
503.30	1434.99
503.66	1448.55
504.01	1414.65
504.36	1407.87
504.71	1405.61
505.06	1473.41
505.41	1421.43
505.76	1468.89
506.11	1450.81
506.46	1502.79
506.82	1432.73
507.17	1523.12
507.52	1484.71
507.87	1536.68
508.22	1538.94
508.57	1620.30
508.92	1595.44
509.27	1529.90
509.62	1604.48
509.97	1627.08
510.32	1703.91
510.67	1710.69
511.02	1708.43
511.37	1778.48
511.72	1751.37
512.07	1726.51
512.42	1785.26
512.77	1819.16
513.12	1871.14
513.47	1830.46
513.82	1821.42
514.17	1805.60
514.52	1832.72
514.87	1907.29
515.22	2015.77
515.57	1966.05
515.92	2051.92
516.27	2033.84
516.62	2031.58
516.97	2088.08
517.32	2117.46
517.67	2176.21
518.02	2185.25
518.37	2187.51
518.72	2196.55
519.07	2323.10
519.42	2300.50
519.77	2314.06
520.12	2327.62
520.47	2341.18
520.82	2323.10
521.17	2420.28
521.52	2442.87
521.87	2447.39
522.22	2420.28
522.56	2485.81
522.91	2542.31
523.26	2560.38
523.61	2533.27
523.96	2580.72
524.31	2648.52
524.66	2634.96
525.01	2596.54
525.36	2693.71
525.71	2610.10
526.05	2727.61
526.40	2662.08
526.75	2784.11
527.10	2793.15
527.45	2741.17
527.80	2804.45
528.15	2897.10
528.49	2829.30
528.84	2901.62
529.19	2797.67
529.54	2845.12
529.89	2933.26
530.24	2869.98
530.58	3012.35
530.93	2869.98
531.28	2964.89
531.63	3037.21
531.98	2926.48
532.33	2842.86
532.67	3007.83
533.02	3010.09
533.37	3066.59
533.72	2985.23
534.07	2992.01
534.41	3064.33
534.76	2976.19
535.11	3105.00
535.46	2933.26
535.80	2996.53
536.15	3071.11
536.50	3046.25
536.85	2960.37
537.19	2996.53
537.54	3150.20
537.89	3080.14
538.24	3030.43
538.58	3114.04
538.93	3123.08
539.28	3034.95
539.63	3136.64
539.97	3053.03
540.32	3136.64
540.67	3084.66
541.01	3066.59
541.36	3105.00
541.71	3041.73
542.06	3055.29
542.40	3030.43
542.75	3080.14
543.10	3086.92
543.44	3111.78
543.79	3005.57
544.14	3057.55
544.48	3003.31
544.83	2964.89
545.18	3037.21
545.52	3028.17
545.87	3050.77
546.22	3034.95
546.56	2985.23
546.91	2953.59
547.25	3053.03
547.60	3012.35
547.95	3141.16
548.29	2960.37
548.64	3016.87
548.99	2917.44
549.33	3043.99
549.68	2989.75
550.02	3034.95
550.37	2933.26
550.72	2946.82
551.06	3010.09
551.41	2980.71
551.75	2989.75
552.10	2931.00
552.45	2926.48
552.79	2901.62
553.14	2915.18
553.48	2935.52
553.83	2738.91
554.17	2903.88
554.52	2967.15
554.87	2903.88
555.21	2847.38
555.56	2856.42
555.90	2906.14
556.25	2869.98
556.59	2829.30
556.94	2743.43
557.28	2795.41
557.63	2806.71
557.97	2831.56
558.32	2820.26
558.66	2856.42
559.01	2766.03
559.35	2845.12
559.70	2732.13
560.04	2686.94
560.39	2734.39
560.73	2659.82
561.08	2664.34
561.42	2838.34
561.77	2630.44
562.11	2691.45
562.46	2720.83
562.80	2714.05
563.14	2666.60
563.49	2700.49
563.83	2675.64
564.18	2637.22
564.52	2601.06
564.87	2582.98
565.21	2616.88
565.56	2770.55
565.90	2686.94
566.24	2668.86
566.59	2677.90
566.93	2605.58
567.28	2517.45
567.62	2573.94
567.96	2662.08
568.31	2526.49
568.65	2540.05
569.00	2490.33
569.34	2623.66
569.68	2634.96
570.03	2659.82
570.37	2607.84
570.71	2508.41
571.06	2456.43
571.40	2569.42
571.74	2490.33
572.09	2508.41
572.43	2553.61
572.78	2569.42
573.12	2357.00
573.46	2427.05
573.80	2393.16
574.15	2481.29
574.49	2542.31
574.83	2481.29
575.18	2510.67
575.52	2535.53
575.86	2316.32
576.21	2449.65
576.55	2490.33
576.89	2413.50
577.24	2433.83
577.58	2467.73
577.92	2363.78
578.26	2307.28
578.61	2420.28
578.95	2393.16
579.29	2352.48
579.63	2431.57
579.98	2397.68
580.32	2320.84
580.66	2241.75
581.00	2381.86
581.35	2338.92
581.69	2291.47
582.03	2253.05
582.37	2357.00
582.72	2325.36
583.06	2277.91
583.40	2234.97
583.74	2286.95
584.08	2275.65
584.43	2291.47
584.77	2212.37
585.11	2149.10
585.45	2196.55
585.79	2162.66
586.13	2160.40
586.48	2239.49
586.82	2173.95
587.16	2246.27
587.50	2171.69
587.84	2210.11
588.18	2173.95
588.53	2121.98
588.87	2088.08
589.21	2128.76
589.55	2169.43
589.89	2144.58
590.23	2101.64
590.57	2167.17
590.92	2131.02
591.26	2079.04
591.60	2108.42
591.94	2024.81
592.28	2119.72
592.62	2006.73
592.96	2090.34
593.30	2038.36
593.64	2097.12
593.98	2097.12
594.32	1986.39
594.67	2076.78
595.01	2022.55
595.35	1911.81
595.69	2076.78
596.03	1929.89
596.37	1900.52
596.71	1993.17
597.05	1999.95
597.39	1925.37
597.73	2051.92
598.07	1905.03
598.41	1925.37
598.75	1907.29
599.09	1957.01
599.43	1923.11
599.77	1866.62
600.11	1945.71
600.45	1873.40
600.79	1907.29
601.13	1873.40
601.47	1877.92
601.81	1891.48
602.15	1841.76
602.49	1848.54
602.83	1758.15
603.17	1819.16
603.51	1778.48
603.85	1839.50
604.19	1801.08
604.53	1816.90
604.87	1767.19
605.21	1773.96
605.55	1744.59
605.89	1789.78
606.23	1783.00
606.56	1816.90
606.90	1776.22
607.24	1825.94
607.58	1728.77
607.92	1762.67
608.26	1771.70
608.60	1764.93
608.94	1710.69
609.28	1638.38
609.62	1672.27
609.95	1742.33
610.29	1692.61
610.63	1645.15
610.97	1706.17
611.31	1665.49
611.65	1703.91
611.99	1728.77
612.33	1681.31
612.66	1679.05
613.00	1647.41
613.34	1665.49
613.68	1651.93
614.02	1708.43
614.36	1663.23
614.69	1593.18
615.03	1541.20
615.37	1620.30
615.71	1697.13
616.05	1647.41
616.38	1554.76
616.72	1590.92
617.06	1604.48
617.40	1604.48
617.74	1602.22
618.07	1672.27
618.41	1633.86
618.75	1532.16
619.09	1588.66
619.42	1676.79
619.76	1520.86
620.10	1534.42
620.44	1552.50
620.77	1575.10
621.11	1505.05
621.45	1588.66
621.79	1545.72
622.12	1575.10
622.46	1473.41
622.80	1534.42
623.13	1559.28
623.47	1586.40
623.81	1570.58
624.15	1509.56
624.48	1518.60
624.82	1615.78
625.16	1568.32
625.49	1486.97
625.83	1550.24
626.17	1543.46
626.50	1462.11
626.84	1477.93
627.18	1437.25
627.51	1473.41
627.85	1520.86
628.19	1473.41
628.52	1439.51
628.86	1432.73
629.20	1543.46
629.53	1536.68
629.87	1486.97
630.20	1491.49
630.54	1496.01
630.88	1496.01
631.21	1432.73
631.55	1405.61
631.89	1425.95
632.22	1450.81
632.56	1428.21
632.89	1464.37
633.23	1500.53
633.56	1437.25
633.90	1496.01
634.24	1450.81
634.57	1371.72
634.91	1523.12
635.24	1441.77
635.58	1434.99
635.91	1303.92
636.25	1396.57
636.58	1432.73
636.92	1419.17
637.26	1403.35
637.59	1496.01
637.93	1403.35
638.26	1425.95
638.60	1407.87
638.93	1437.25
639.27	1450.81
639.60	1423.69
639.94	1425.95
640.27	1405.61
640.61	1369.46
640.94	1315.22
641.28	1373.98
641.61	1416.91
641.94	1312.96
642.28	1387.53
642.61	1317.48
642.95	1351.38
643.28	1344.60
643.62	1337.82
643.95	1405.61
644.29	1414.65
644.62	1358.16
644.95	1396.57
645.29	1337.82
645.62	1349.12
645.96	1353.64
646.29	1358.16
646.63	1398.83
646.96	1351.38
647.29	1290.36
647.63	1283.58
647.96	1371.72
648.29	1346.86
648.63	1294.88
648.96	1322.00
649.30	1326.52
649.63	1331.04
649.96	1333.30
650.30	1340.08
650.63	1303.92
650.96	1340.08
651.30	1242.91
651.63	1373.98
651.96	1254.20
652.30	1256.46
652.63	1288.10
652.96	1312.96
653.30	1285.84
653.63	1306.18
653.96	1290.36
654.30	1317.48
654.63	1274.54
654.96	1258.72
655.29	1288.10
655.63	1297.14
655.96	1279.06
656.29	1290.36
656.63	1326.52
656.96	1263.24
657.29	1279.06
657.62	1310.70
657.96	1306.18
658.29	1272.28
658.62	1324.26
658.95	1249.68
659.29	1319.74
659.62	1238.39
659.95	1294.88
660.28	1362.68
660.61	1206.75
660.95	1256.46
661.28	1236.13
661.61	1281.32
661.94	1276.80
662.27	1265.50
662.61	1303.92
662.94	1283.58
663.27	1331.04
663.60	1251.94
663.93	1276.80
664.27	1251.94
664.60	1206.75
664.93	1245.16
665.26	1184.15
665.59	1227.09
665.92	1215.79
666.25	1224.83
666.59	1220.31
666.92	1215.79
667.25	1213.53
667.58	1256.46
667.91	1175.11
668.24	1279.06
668.57	1251.94
668.90	1190.93
669.23	1161.55
669.57	1222.57
669.90	1279.06
670.23	1251.94
670.56	1109.58
670.89	1215.79
671.22	1229.35
671.55	1310.70
671.88	1197.71
672.21	1222.57
672.54	1179.63
672.87	1181.89
673.20	1251.94
673.53	1224.83
673.86	1233.87
674.19	1222.57
674.52	1184.15
674.85	1181.89
675.18	1175.11
675.51	1152.51
675.84	1247.42
676.17	1215.79
676.50	1179.63
676.83	1154.77
677.16	1159.29
677.49	1249.68
677.82	1213.53
678.15	1227.09
678.48	1195.45
678.81	1186.41
679.14	1247.42
679.47	1193.19
679.80	1211.27
680.13	1224.83
680.46	1222.57
680.79	1145.73
681.12	1123.13
681.45	1154.77
681.78	1211.27
682.11	1193.19
682.44	1211.27
682.77	1154.77
683.09	1157.03
683.42	1154.77
683.75	1172.85
684.08	1181.89
684.41	1157.03
684.74	1254.20
685.07	1188.67
685.40	1229.35
685.72	1181.89
686.05	1204.49
686.38	1132.17
686.71	1199.97
687.04	1206.75
687.37	1184.15
687.70	1197.71
688.02	1179.63
688.35	1204.49
688.68	1071.16
689.01	1147.99
689.34	1157.03
689.67	1089.24
689.99	1127.65
690.32	1132.17
690.65	1077.94
690.98	1154.77
691.30	1195.45
691.63	1179.63
691.96	1172.85
692.29	1138.95
692.62	1166.07
692.94	1145.73
693.27	1197.71
693.60	1080.20
693.93	1152.51
694.25	1170.59
694.58	1129.91
694.91	1195.45
695.24	1120.87
695.56	1233.87
695.89	1168.33
696.22	1120.87
696.54	1138.95
696.87	1170.59
697.20	1125.39
697.53	1118.61
697.85	1154.77
698.18	1082.46
698.51	1211.27
698.83	1199.97
699.16	1166.07
699.49	1143.47
699.81	1179.63
700.14	1107.32
700.47	1075.68
700.79	1132.17
701.12	1152.51
701.45	1123.13
701.77	1177.37
702.10	1145.73
702.42	1168.33
702.75	1197.71
703.08	1211.27
703.40	1111.84
703.73	1211.27
704.05	1109.58
704.38	1120.87
704.71	1118.61
705.03	1154.77
705.36	1125.39
705.68	1147.99
706.01	1190.93
706.34	1233.87
706.66	1184.15
706.99	1125.39
707.31	1159.29
707.64	1091.50
707.96	1118.61
708.29	1132.17
708.61	1100.54
708.94	1147.99
709.26	1138.95
709.59	1166.07
709.92	1107.32
710.24	1089.24
710.57	1125.39
710.89	1064.38
711.22	1175.11
711.54	1190.93
711.87	1152.51
712.19	1116.35
712.51	1143.47
712.84	1222.57
713.16	1138.95
713.49	1145.73
713.81	1157.03
714.14	1132.17
714.46	1129.91
714.79	1145.73
715.11	1154.77
715.44	1204.49
715.76	1114.10
716.08	1093.76
716.41	1134.43
716.73	1118.61
717.06	1145.73
717.38	1123.13
717.70	1199.97
718.03	1120.87
718.35	1152.51
718.68	1193.19
719.00	1116.35
719.32	1195.45
719.65	1100.54
719.97	1132.17
720.29	1118.61
720.62	1199.97
720.94	1082.46
721.27	1168.33
721.59	1125.39
721.91	1129.91
722.24	1118.61
722.56	1096.02
722.88	1141.21
723.21	1138.95
723.53	1177.37
723.85	1125.39
724.17	1080.20
724.50	1147.99
724.82	1143.47
725.14	1129.91
725.47	1195.45
725.79	1141.21
726.11	1177.37
726.43	1127.65
726.76	1147.99
727.08	1093.76
727.40	1134.43
727.72	1147.99
728.05	1109.58
728.37	1141.21
728.69	1168.33
729.01	1102.80
729.34	1170.59
729.66	1132.17
729.98	1086.98
730.30	1105.06
730.62	1127.65
730.95	1177.37
731.27	1134.43
731.59	1107.32
731.91	1120.87
732.23	1127.65
732.56	1134.43
732.88	1105.06
733.20	1143.47
733.52	1136.69
733.84	1136.69
734.16	1084.72
734.49	1161.55
734.81	1109.58
735.13	1141.21
735.45	1136.69
735.77	1100.54
736.09	1082.46
736.41	1154.77
736.73	1123.13
737.06	1136.69
737.38	1145.73
737.70	1127.65
738.02	1073.42
738.34	1084.72
738.66	1141.21
738.98	1100.54
739.30	1053.08
739.62	1190.93
739.94	1123.13
740.26	1125.39
740.58	1157.03
740.90	1086.98
741.23	1147.99
741.55	1154.77
741.87	1132.17
742.19	1186.41
742.51	1136.69
742.83	1046.30
743.15	1109.58
743.47	1118.61
743.79	1147.99
744.11	1100.54
744.43	1125.39
744.75	1134.43
745.07	1147.99
745.39	1032.74
745.71	1159.29
746.03	1100.54
746.35	1150.25
746.67	1109.58
746.98	1109.58
747.30	1100.54
747.62	1141.21
747.94	1166.07
748.26	1143.47
748.58	1132.17
748.90	1105.06
749.22	1075.68
749.54	1089.24
749.86	1175.11
750.18	1116.35
750.50	1181.89
750.82	1125.39
751.13	1134.43
751.45	1152.51
751.77	1159.29
752.09	1215.79
752.41	1102.80
752.73	1141.21
753.05	1059.86
753.36	1055.34
753.68	1093.76
754.00	1077.94
754.32	1066.64
754.64	1143.47
754.96	1114.10
755.28	1086.98
755.59	1091.50
755.91	1107.32
756.23	1080.20
756.55	1091.50
756.87	1064.38
757.18	1118.61
757.50	1177.37
757.82	1136.69
758.14	1120.87
758.45	1073.42
758.77	1136.69
759.09	1091.50
759.41	1143.47
759.73	1157.03
760.04	1166.07
760.36	1109.58
760.68	1089.24
760.99	1116.35
761.31	1125.39
761.63	1136.69
761.95	1059.86
762.26	1170.59
762.58	1123.13
762.90	1082.46
763.21	1107.32
763.53	1077.94
763.85	1066.64
764.17	1116.35
764.48	1132.17
764.80	1105.06
765.12	1118.61
765.43	1102.80
765.75	1114.10
766.07	1073.42
766.38	1147.99
766.70	1044.04
767.01	1091.50
767.33	1179.63
767.65	1136.69
767.96	1105.06
768.28	1039.52
768.60	1132.17
768.91	1098.28
769.23	1105.06
769.54	1098.28
769.86	1091.50
770.18	1138.95
770.49	1145.73
770.81	1096.02
771.12	1089.24
771.44	1157.03
771.75	1086.98
772.07	1082.46
772.38	1154.77
772.70	1091.50
773.02	1084.72
773.33	1175.11
773.65	1077.94
773.96	1071.16
774.28	1102.80
774.59	1116.35
774.91	1125.39
775.22	1120.87
775.54	1071.16
775.85	1077.94
776.17	1109.58
776.48	1177.37
776.80	1147.99
777.11	1109.58
777.43	1141.21
777.74	1035.00
778.05	1044.04
778.37	1157.03
778.68	1098.28
779.00	1046.30
779.31	1109.58
779.63	1109.58
779.94	1134.43
780.26	1111.84
780.57	1161.55
780.88	1116.35
781.20	1161.55
781.51	1064.38
781.83	1159.29
782.14	1109.58
782.45	1107.32
782.77	1071.16
783.08	1150.25
783.39	1028.22
783.71	1102.80
784.02	1100.54
784.34	1152.51
784.65	1062.12
784.96	1096.02
785.28	1125.39
785.59	1134.43
785.90	1093.76
786.22	1150.25
786.53	1120.87
786.84	1053.08
787.15	1129.91
787.47	1138.95
787.78	1123.13
788.09	1105.06
788.41	1089.24
788.72	1096.02
789.03	1141.21
789.35	1120.87
789.66	1107.32
789.97	1048.56
790.28	1053.08
790.60	1127.65
790.91	1127.65
791.22	1093.76
791.53	1109.58
791.84	1181.89
792.16	1145.73
792.47	1089.24
792.78	1134.43
793.09	1134.43
793.41	1086.98
793.72	1098.28
794.03	1129.91
794.34	1120.87
794.65	1089.24
794.96	1057.60
795.28	1096.02
795.59	1084.72
795.90	1050.82
796.21	1125.39
796.52	1109.58
796.83	1057.60
797.15	1157.03
797.46	1123.13
797.77	1093.76
798.08	1057.60
798.39	1086.98
798.70	1125.39
799.01	1157.03
799.32	1091.50
799.63	1107.32
799.95	1134.43
800.26	1098.28
800.57	1134.43
800.88	1136.69
801.19	1147.99
801.50	1161.55
801.81	1116.35
802.12	1105.06
802.43	1127.65
802.74	1152.51
803.05	1050.82
803.36	1150.25
803.67	1057.60
803.98	1145.73
804.29	1111.84
804.60	1100.54
804.91	1129.91
805.22	1109.58
805.53	1114.10
805.84	1152.51
806.15	1107.32
806.46	1105.06
806.77	1114.10
807.08	1152.51
807.39	1120.87
807.70	1118.61
808.01	1059.86
808.32	1096.02
808.63	1073.42
808.94	1068.90
809.25	1075.68
809.56	1077.94
809.87	1125.39
810.18	1075.68
810.49	1073.42
810.79	1127.65
811.10	1062.12
811.41	1163.81
811.72	1114.10
812.03	1089.24
812.34	1082.46
812.65	1109.58
812.96	1172.85
813.27	1089.24
813.57	1093.76
813.88	1118.61
814.19	1120.87
814.50	1111.84
814.81	1091.50
815.12	1077.94
815.42	1127.65
815.73	1125.39
816.04	1141.21
816.35	1120.87
816.66	1125.39
816.97	1154.77
817.27	1044.04
817.58	1084.72
817.89	1118.61
818.20	1093.76
818.50	1120.87
818.81	1068.90
819.12	1098.28
819.43	1080.20
819.73	1109.58
820.04	1089.24
820.35	1145.73
820.66	1132.17
820.96	1114.10
821.27	1080.20
821.58	1129.91
821.89	1143.47
822.19	1123.13
822.50	1093.76
822.81	1077.94
823.11	1041.78
823.42	1141.21
823.73	1186.41
824.03	1053.08
824.34	1118.61
824.65	1100.54
824.95	1066.64
825.26	1089.24
825.57	1134.43
825.87	1053.08
826.18	1082.46
826.49	1059.86
826.79	1157.03
827.10	1120.87
827.40	1050.82
827.71	1125.39
828.02	1102.80
828.32	1111.84
828.63	1184.15
828.93	1125.39
829.24	1068.90
829.55	1068.90
829.85	1102.80
830.16	1143.47
830.46	1127.65
830.77	1118.61
831.07	1127.65
831.38	1093.76
831.69	1050.82
831.99	1105.06
832.30	1136.69
832.60	1109.58
832.91	1077.94
833.21	1055.34
833.52	1082.46
833.82	1102.80
834.13	1059.86
834.43	1102.80
834.74	1109.58
835.04	1161.55
835.35	1120.87
835.65	1096.02
835.96	1125.39
836.26	1082.46
836.56	1066.64
836.87	1134.43
837.17	1059.86
837.48	1073.42
837.78	1134.43
838.09	1125.39
838.39	1188.67
838.69	1086.98
839.00	1100.54
839.30	1150.25
839.61	1114.10
839.91	1107.32
840.21	1141.21
840.52	1141.21
840.82	1066.64
841.13	1098.28
841.43	1025.96
841.73	1129.91
842.04	1114.10
842.34	1098.28
842.64	1107.32
842.95	1125.39
843.25	1109.58
843.55	1127.65
843.86	1116.35
844.16	1150.25
844.46	1064.38
844.77	1150.25
845.07	1098.28
845.37	1116.35
845.68	1075.68
845.98	1071.16
846.28	1050.82
846.58	1089.24
846.89	1154.77
847.19	1123.13
847.49	1118.61
847.79	1091.50
848.10	1134.43
848.40	1084.72
848.70	1084.72
849.00	1080.20
849.31	1075.68
849.61	1030.48
849.91	1123.13
850.21	1102.80
850.51	1116.35
850.82	1093.76
851.12	1077.94
851.42	1175.11
851.72	1141.21
852.02	1093.76
852.32	1005.62
852.63	1145.73
852.93	1096.02
853.23	1100.54
853.53	1136.69
853.83	1107.32
854.13	1093.76
854.43	1080.20
854.74	1179.63
855.04	1157.03
855.34	1059.86
855.64	1143.47
855.94	1118.61
856.24	1127.65
856.54	1091.50
856.84	1136.69
857.14	1206.75
857.44	1109.58
857.74	1050.82
858.05	1091.50
858.35	1136.69
858.65	1093.76
858.95	1184.15
859.25	1134.43
859.55	1141.21
859.85	1120.87
860.15	1071.16
860.45	1150.25
860.75	1141.21
861.05	1096.02
861.35	1138.95
861.65	1082.46
861.95	1152.51
862.25	1127.65
862.55	1053.08
862.85	1152.51
863.15	1118.61
863.45	1107.32
863.75	1120.87
864.05	1125.39
864.35	1059.86
864.64	1016.92
864.94	1125.39
865.24	1066.64
865.54	1107.32
865.84	1116.35
866.14	1086.98
866.44	1127.65
866.74	1089.24
867.04	1143.47
867.34	1125.39
867.64	1136.69
867.93	1132.17
868.23	1125.39
868.53	1116.35
868.83	1129.91
869.13	1100.54
869.43	1048.56
869.73	1111.84
870.02	1082.46
870.32	1168.33
870.62	1080.20
870.92	1109.58
871.22	1114.10
871.51	1152.51
871.81	1107.32
872.11	1116.35
872.41	1062.12
872.71	1170.59
873.00	1116.35
873.30	1107.32
873.60	1100.54
873.90	1089.24
874.19	1035.00
874.49	1089.24
874.79	1123.13
875.09	1050.82
875.38	1102.80
875.68	1080.20
875.98	1111.84
876.28	1073.42
876.57	1161.55
876.87	1161.55
877.17	1161.55
