174.03	775.12
174.41	775.12
174.78	775.12
175.16	682.47
175.54	664.39
175.92	693.77
176.30	745.74
176.67	736.70
177.05	793.20
177.43	781.90
177.81	763.82
178.19	754.78
178.56	824.84
178.94	865.51
179.32	768.34
179.70	849.70
180.08	897.15
180.45	912.97
180.83	940.09
181.21	892.63
181.59	960.43
181.96	1003.36
182.34	960.43
182.72	1005.62
183.10	1007.88
183.48	996.58
183.85	1046.30
184.23	1093.76
184.61	1109.58
184.99	1105.06
185.36	1143.47
185.74	1075.68
186.12	1091.50
186.50	1066.64
186.87	1080.20
187.25	1053.08
187.63	1123.13
188.01	1055.34
188.38	1080.20
188.76	1082.46
189.14	1062.12
189.52	1091.50
189.89	1066.64
190.27	1114.10
190.65	1073.42
191.02	1120.87
191.40	1096.02
191.78	1100.54
192.16	1107.32
192.53	1147.99
192.91	1093.76
193.29	1125.39
193.66	1136.69
194.04	1116.35
194.42	1057.60
194.79	1080.20
195.17	1098.28
195.55	1080.20
195.93	1044.04
196.30	1062.12
196.68	1077.94
197.06	1082.46
197.43	1105.06
197.81	1091.50
198.19	1041.78
198.56	1053.08
198.94	1084.72
199.32	1127.65
199.69	1096.02
200.07	1059.86
200.45	1111.84
200.82	1118.61
201.20	1150.25
201.58	1116.35
201.95	1044.04
202.33	1116.35
202.71	1150.25
203.08	1075.68
203.46	1086.98
203.84	1096.02
204.21	1077.94
204.59	1093.76
204.96	1134.43
205.34	1120.87
205.72	1055.34
206.09	1114.10
206.47	1120.87
206.85	1132.17
207.22	1109.58
207.60	1073.42
207.97	1123.13
208.35	1075.68
208.73	1086.98
209.10	1035.00
209.48	1109.58
209.85	1086.98
210.23	1055.34
210.61	1073.42
210.98	1109.58
211.36	1136.69
211.73	1132.17
212.11	1118.61
212.49	1068.90
212.86	1109.58
213.24	1021.44
213.61	1114.10
213.99	1046.30
214.37	1096.02
214.74	1068.90
215.12	1152.51
215.49	1109.58
215.87	1098.28
216.24	1138.95
216.62	1075.68
216.99	1059.86
217.37	1102.80
217.75	1147.99
218.12	1107.32
218.50	1105.06
218.87	1125.39
219.25	1114.10
219.62	1091.50
220.00	1127.65
220.37	1062.12
220.75	1096.02
221.12	1134.43
221.50	1057.60
221.87	1053.08
222.25	1073.42
222.63	1086.98
223.00	1053.08
223.38	1116.35
223.75	1116.35
224.13	1064.38
224.50	1064.38
224.88	1141.21
225.25	1093.76
225.63	1134.43
226.00	1107.32
226.38	1098.28
226.75	1089.24
227.13	1102.80
227.50	1105.06
227.88	1041.78
228.25	1102.80
228.63	1132.17
229.00	1163.81
229.37	1105.06
229.75	1145.73
230.12	1172.85
230.50	1179.63
230.87	1147.99
231.25	1163.81
231.62	1098.28
232.00	1102.80
232.37	1064.38
232.75	1091.50
233.12	1066.64
233.50	1086.98
233.87	1141.21
234.24	1125.39
234.62	1120.87
234.99	1057.60
235.37	1098.28
235.74	1114.10
236.12	1134.43
236.49	1138.95
236.86	1064.38
237.24	1059.86
237.61	1120.87
237.99	1134.43
238.36	1091.50
238.74	1166.07
239.11	1093.76
239.48	1116.35
239.86	1154.77
240.23	1129.91
240.61	1086.98
240.98	1111.84
241.35	1066.64
241.73	1143.47
242.10	1123.13
242.48	1118.61
242.85	1116.35
243.22	1075.68
243.60	1053.08
243.97	1141.21
244.34	1114.10
244.72	1118.61
245.09	1100.54
245.47	1125.39
245.84	1093.76
246.21	1071.16
246.59	1141.21
246.96	1096.02
247.33	1134.43
247.71	1186.41
248.08	1125.39
248.45	1175.11
248.83	1102.80
249.20	1181.89
249.57	1163.81
249.95	1145.73
250.32	1086.98
250.69	1163.81
251.07	1114.10
251.44	1102.80
251.81	1138.95
252.19	1177.37
252.56	1175.11
252.93	1041.78
253.31	1143.47
253.68	1089.24
254.05	1089.24
254.43	1134.43
254.80	1152.51
255.17	1129.91
255.55	1129.91
255.92	1123.13
256.29	1116.35
256.66	1096.02
257.04	1132.17
257.41	1082.46
257.78	1134.43
258.16	1168.33
258.53	1120.87
258.90	1120.87
259.27	1086.98
259.65	1109.58
260.02	1138.95
260.39	1077.94
260.76	1084.72
261.14	1071.16
261.51	1168.33
261.88	1109.58
262.25	1150.25
262.63	1089.24
263.00	1057.60
263.37	1064.38
263.74	1147.99
264.12	1105.06
264.49	1231.61
264.86	1161.55
265.23	1071.16
265.61	1125.39
265.98	1071.16
266.35	1161.55
266.72	1125.39
267.09	1123.13
267.47	1098.28
267.84	1084.72
268.21	1118.61
268.58	1109.58
268.95	1111.84
269.33	1132.17
269.70	1127.65
270.07	1141.21
270.44	1127.65
270.81	1107.32
271.19	1084.72
271.56	1138.95
271.93	1172.85
272.30	1107.32
272.67	1071.16
273.05	1157.03
273.42	1143.47
273.79	1166.07
274.16	1157.03
274.53	1086.98
274.90	1105.06
275.28	1159.29
275.65	1150.25
276.02	1091.50
276.39	1132.17
276.76	1170.59
277.13	1091.50
277.50	1105.06
277.88	1132.17
278.25	1077.94
278.62	1138.95
278.99	1138.95
279.36	1159.29
279.73	1172.85
280.10	1091.50
280.47	1159.29
280.85	1141.21
281.22	1141.21
281.59	1075.68
281.96	1120.87
282.33	1116.35
282.70	1091.50
283.07	1152.51
283.44	1145.73
283.81	1172.85
284.18	1134.43
284.56	1159.29
284.93	1120.87
285.30	1129.91
285.67	1129.91
286.04	1147.99
286.41	1209.01
286.78	1102.80
287.15	1120.87
287.52	1120.87
287.89	1089.24
288.26	1170.59
288.63	1175.11
289.00	1129.91
289.37	1116.35
289.75	1093.76
290.12	1181.89
290.49	1199.97
290.86	1120.87
291.23	1157.03
291.60	1132.17
291.97	1111.84
292.34	1044.04
292.71	1100.54
293.08	1129.91
293.45	1123.13
293.82	1111.84
294.19	1091.50
294.56	1132.17
294.93	1100.54
295.30	1057.60
295.67	1150.25
296.04	1127.65
296.41	1075.68
296.78	1080.20
297.15	1082.46
297.52	1138.95
297.89	1150.25
298.26	1145.73
298.63	1170.59
299.00	1152.51
299.37	1179.63
299.74	1145.73
300.11	1093.76
300.48	1175.11
300.85	1143.47
301.22	1186.41
301.59	1100.54
301.96	1188.67
302.33	1118.61
302.70	1089.24
303.07	1123.13
303.43	1118.61
303.80	1138.95
304.17	1188.67
304.54	1154.77
304.91	1154.77
305.28	1154.77
305.65	1199.97
306.02	1159.29
306.39	1152.51
306.76	1127.65
307.13	1123.13
307.50	1118.61
307.87	1114.10
308.24	1120.87
308.60	1080.20
308.97	1127.65
309.34	1184.15
309.71	1118.61
310.08	1125.39
310.45	1098.28
310.82	1161.55
311.19	1141.21
311.56	1089.24
311.92	1123.13
312.29	1134.43
312.66	1227.09
313.03	1163.81
313.40	1197.71
313.77	1157.03
314.14	1181.89
314.51	1175.11
314.87	1132.17
315.24	1166.07
315.61	1184.15
315.98	1199.97
316.35	1125.39
316.72	1125.39
317.09	1134.43
317.45	1100.54
317.82	1116.35
318.19	1116.35
318.56	1193.19
318.93	1159.29
319.30	1154.77
319.66	1204.49
320.03	1190.93
320.40	1132.17
320.77	1166.07
321.14	1161.55
321.50	1136.69
321.87	1098.28
322.24	1161.55
322.61	1118.61
322.98	1157.03
323.34	1193.19
323.71	1075.68
324.08	1118.61
324.45	1118.61
324.82	1134.43
325.18	1116.35
325.55	1084.72
325.92	1166.07
326.29	1202.23
326.65	1141.21
327.02	1134.43
327.39	1181.89
327.76	1138.95
328.12	1114.10
328.49	1168.33
328.86	1184.15
329.23	1150.25
329.59	1154.77
329.96	1154.77
330.33	1166.07
330.70	1181.89
331.06	1209.01
331.43	1204.49
331.80	1190.93
332.17	1168.33
332.53	1276.80
332.90	1150.25
333.27	1179.63
333.63	1170.59
334.00	1195.45
334.37	1179.63
334.74	1170.59
335.10	1188.67
335.47	1206.75
335.84	1159.29
336.20	1134.43
336.57	1181.89
336.94	1159.29
337.30	1157.03
337.67	1195.45
338.04	1190.93
338.40	1175.11
338.77	1186.41
339.14	1086.98
339.50	1193.19
339.87	1120.87
340.24	1247.42
340.60	1168.33
340.97	1197.71
341.34	1150.25
341.70	1177.37
342.07	1188.67
342.44	1179.63
342.80	1193.19
343.17	1159.29
343.53	1150.25
343.90	1120.87
344.27	1199.97
344.63	1118.61
345.00	1175.11
345.37	1220.31
345.73	1166.07
346.10	1168.33
346.46	1231.61
346.83	1193.19
347.20	1132.17
347.56	1247.42
347.93	1132.17
348.29	1150.25
348.66	1132.17
349.03	1251.94
349.39	1222.57
349.76	1199.97
350.12	1177.37
350.49	1170.59
350.85	1147.99
351.22	1197.71
351.59	1193.19
351.95	1251.94
352.32	1233.87
352.68	1175.11
353.05	1229.35
353.41	1199.97
353.78	1220.31
354.14	1213.53
354.51	1270.02
354.88	1181.89
355.24	1181.89
355.61	1206.75
355.97	1184.15
356.34	1166.07
356.70	1227.09
357.07	1263.24
357.43	1258.72
357.80	1265.50
358.16	1260.98
358.53	1247.42
358.89	1209.01
359.26	1172.85
359.62	1224.83
359.99	1215.79
360.35	1204.49
360.72	1238.39
361.08	1270.02
361.45	1344.60
361.81	1249.68
362.18	1240.65
362.54	1218.05
362.91	1328.78
363.27	1297.14
363.63	1238.39
364.00	1303.92
364.36	1301.66
364.73	1292.62
365.09	1227.09
365.46	1211.27
365.82	1211.27
366.19	1251.94
366.55	1227.09
366.91	1274.54
367.28	1256.46
367.64	1256.46
368.01	1290.36
368.37	1242.91
368.74	1249.68
369.10	1267.76
369.46	1288.10
369.83	1256.46
370.19	1319.74
370.56	1349.12
370.92	1285.84
371.28	1297.14
371.65	1308.44
372.01	1367.20
372.38	1335.56
372.74	1315.22
373.10	1285.84
373.47	1378.49
373.83	1428.21
374.19	1346.86
374.56	1355.90
374.92	1410.13
375.29	1358.16
375.65	1371.72
376.01	1416.91
376.38	1425.95
376.74	1432.73
377.10	1450.81
377.47	1414.65
377.83	1362.68
378.19	1466.63
378.56	1518.60
378.92	1482.45
379.28	1581.88
379.65	1545.72
380.01	1529.90
380.37	1667.75
380.74	1633.86
381.10	1706.17
381.46	1697.13
381.83	1767.19
382.19	1864.36
382.55	1846.28
382.91	1929.89
383.28	2036.10
383.64	2164.91
384.00	2246.27
384.37	2282.43
384.73	2481.29
385.09	2587.50
385.45	2662.08
385.82	2772.81
386.18	3032.69
386.54	3231.55
386.91	3353.58
387.27	3728.72
387.63	3918.54
387.99	4081.25
388.36	4494.80
388.72	4847.33
389.08	5202.12
389.44	5439.40
389.80	5943.35
390.17	6268.76
390.53	6876.66
390.89	7848.38
391.25	7995.27
391.62	8449.50
391.98	9556.81
392.34	10627.97
392.70	10625.71
393.06	11638.11
393.43	12589.50
393.79	13375.92
394.15	14085.51
394.51	15059.49
394.87	16345.33
395.24	17549.82
395.60	19208.53
395.96	20390.42
396.32	21823.16
396.68	23477.35
397.04	25452.44
397.41	27637.69
397.77	29113.36
398.13	32390.11
398.49	33603.64
398.85	36774.17
399.21	40021.55
399.58	42444.08
399.94	45571.68
400.30	49370.45
400.66	50785.11
401.02	53731.92
401.38	55677.63
401.74	57261.77
402.11	59311.43
402.47	60891.05
402.83	61901.20
403.19	63458.22
403.55	64773.44
403.91	65535.00
404.27	65535.00
404.63	65535.00
404.99	65535.00
405.35	65535.00
405.72	65535.00
406.08	65535.00
406.44	65535.00
406.80	65535.00
407.16	65535.00
407.52	65535.00
407.88	65535.00
408.24	65535.00
408.60	65535.00
408.96	65535.00
409.32	65535.00
409.68	65535.00
410.04	65535.00
410.40	65535.00
410.76	65535.00
411.13	64183.62
411.49	63797.19
411.85	62014.19
412.21	60692.19
412.57	59537.42
412.93	58515.98
413.29	56434.67
413.65	54834.72
414.01	52782.79
414.37	49919.59
414.73	48685.73
415.09	46276.75
415.45	45266.61
415.81	42319.79
416.17	39881.44
416.53	38907.45
416.89	36742.54
417.25	34792.31
417.61	33124.55
417.97	32557.34
418.33	30643.26
418.69	29497.53
419.05	28706.59
419.41	27569.90
419.77	27117.93
420.12	25513.45
420.48	23895.42
420.84	23841.18
421.20	22451.39
421.56	21296.62
421.92	20794.93
422.28	19285.37
422.64	18388.22
423.00	17565.64
423.36	17115.93
423.72	15631.23
424.08	15003.00
424.44	14001.89
424.80	13708.11
425.16	12984.97
425.51	12225.67
425.87	11900.25
426.23	10901.41
426.59	10453.96
426.95	10356.79
427.31	9701.44
427.67	9588.45
428.03	8842.71
428.39	8492.43
428.74	8092.44
429.10	7683.41
429.46	7294.72
429.82	6980.61
430.18	6666.49
430.54	6546.72
430.90	6343.34
431.26	6031.48
431.61	5654.09
431.97	5665.39
432.33	5369.35
432.69	5321.89
433.05	4946.76
433.41	4849.59
433.76	4797.61
434.12	4677.84
434.48	4454.12
434.84	4189.72
435.20	4029.27
435.55	3977.30
435.91	3891.42
436.27	3751.31
436.63	3654.14
436.99	3645.10
437.34	3378.44
437.70	3401.04
438.06	3367.14
438.42	3098.22
438.78	3007.83
439.13	3019.13
439.49	2851.90
439.85	2820.26
440.21	2723.09
440.56	2723.09
440.92	2596.54
441.28	2472.25
441.64	2458.69
441.99	2399.94
442.35	2314.06
442.71	2336.66
443.07	2268.87
443.42	2237.23
443.78	2085.82
444.14	2194.29
444.50	2115.20
444.85	2060.96
445.21	2133.28
445.57	1970.57
445.93	1984.13
446.28	1911.81
446.64	1889.22
447.00	1864.36
447.35	1900.52
447.71	1886.96
448.07	1848.54
448.42	1728.77
448.78	1889.22
449.14	1767.19
449.49	1656.45
449.85	1780.74
450.21	1685.83
450.56	1649.67
450.92	1627.08
451.28	1550.24
451.63	1640.63
451.99	1590.92
452.35	1590.92
452.70	1640.63
453.06	1557.02
453.42	1516.34
453.77	1520.86
454.13	1581.88
454.49	1425.95
454.84	1421.43
455.20	1480.19
455.55	1403.35
455.91	1457.59
456.27	1523.12
456.62	1362.68
456.98	1475.67
457.33	1369.46
457.69	1328.78
458.05	1378.49
458.40	1387.53
458.76	1344.60
459.11	1322.00
459.47	1340.08
459.83	1360.42
460.18	1292.62
460.54	1274.54
460.89	1328.78
461.25	1251.94
461.60	1335.56
461.96	1292.62
462.31	1281.32
462.67	1322.00
463.03	1276.80
463.38	1220.31
463.74	1285.84
464.09	1294.88
464.45	1245.16
464.80	1265.50
465.16	1209.01
465.51	1279.06
465.87	1193.19
466.22	1218.05
466.58	1247.42
466.93	1229.35
467.29	1202.23
467.64	1245.16
468.00	1170.59
468.35	1222.57
468.71	1315.22
469.06	1317.48
469.42	1251.94
469.77	1249.68
470.13	1159.29
470.48	1179.63
470.84	1218.05
471.19	1238.39
471.54	1218.05
471.90	1195.45
472.25	1215.79
472.61	1211.27
472.96	1233.87
473.32	1211.27
473.67	1209.01
474.03	1190.93
474.38	1236.13
474.73	1238.39
475.09	1229.35
475.44	1138.95
475.80	1161.55
476.15	1209.01
476.50	1240.65
476.86	1175.11
477.21	1249.68
477.57	1186.41
477.92	1143.47
478.27	1132.17
478.63	1209.01
478.98	1209.01
479.34	1181.89
479.69	1161.55
480.04	1215.79
480.40	1111.84
480.75	1150.25
481.10	1195.45
481.46	1242.91
481.81	1193.19
482.16	1154.77
482.52	1222.57
482.87	1125.39
483.22	1236.13
483.58	1152.51
483.93	1152.51
484.28	1170.59
484.64	1125.39
484.99	1211.27
485.34	1138.95
485.70	1206.75
486.05	1127.65
486.40	1188.67
486.76	1209.01
487.11	1166.07
487.46	1161.55
487.81	1209.01
488.17	1125.39
488.52	1172.85
488.87	1129.91
489.23	1143.47
489.58	1138.95
489.93	1120.87
490.28	1150.25
490.64	1190.93
490.99	1138.95
491.34	1111.84
491.69	1145.73
492.05	1118.61
492.40	1147.99
492.75	1170.59
493.10	1143.47
493.46	1091.50
493.81	1075.68
494.16	1138.95
494.51	1175.11
494.86	1168.33
495.22	1125.39
495.57	1150.25
495.92	1159.29
496.27	1152.51
496.62	1138.95
496.98	1188.67
497.33	1123.13
497.68	1071.16
498.03	1161.55
498.38	1138.95
498.74	1166.07
499.09	1127.65
499.44	1188.67
499.79	1190.93
500.14	1111.84
500.49	1209.01
500.85	1204.49
501.20	1195.45
501.55	1218.05
501.90	1114.10
502.25	1175.11
502.60	1177.37
502.95	1143.47
503.30	1193.19
503.66	1125.39
504.01	1159.29
504.36	1152.51
504.71	1091.50
505.06	1152.51
505.41	1134.43
505.76	1116.35
506.11	1129.91
506.46	1206.75
506.82	1177.37
507.17	1053.08
507.52	1193.19
507.87	1114.10
508.22	1229.35
508.57	1170.59
508.92	1145.73
509.27	1129.91
509.62	1127.65
509.97	1177.37
510.32	1138.95
510.67	1147.99
511.02	1170.59
511.37	1190.93
511.72	1163.81
512.07	1199.97
512.42	1157.03
512.77	1150.25
513.12	1170.59
513.47	1129.91
513.82	1157.03
514.17	1166.07
514.52	1109.58
514.87	1068.90
515.22	1132.17
515.57	1172.85
515.92	1145.73
516.27	1077.94
516.62	1181.89
516.97	1186.41
517.32	1202.23
517.67	1120.87
518.02	1166.07
518.37	1107.32
518.72	1211.27
519.07	1161.55
519.42	1127.65
519.77	1150.25
520.12	1172.85
520.47	1188.67
520.82	1211.27
521.17	1177.37
521.52	1197.71
521.87	1102.80
522.22	1120.87
522.56	1159.29
522.91	1143.47
523.26	1184.15
523.61	1111.84
523.96	1186.41
524.31	1184.15
524.66	1188.67
525.01	1175.11
525.36	1118.61
525.71	1193.19
526.05	1188.67
526.40	1161.55
526.75	1107.32
527.10	1127.65
527.45	1202.23
527.80	1163.81
528.15	1114.10
528.49	1089.24
528.84	1109.58
529.19	1152.51
529.54	1138.95
529.89	1186.41
530.24	1125.39
530.58	1152.51
530.93	1199.97
531.28	1166.07
531.63	1181.89
531.98	1105.06
532.33	1127.65
532.67	1120.87
533.02	1150.25
533.37	1159.29
533.72	1096.02
534.07	1161.55
534.41	1147.99
534.76	1186.41
535.11	1109.58
535.46	1107.32
535.80	1138.95
536.15	1188.67
536.50	1147.99
536.85	1147.99
537.19	1118.61
537.54	1120.87
537.89	1127.65
538.24	1184.15
538.58	1161.55
538.93	1152.51
539.28	1141.21
539.63	1193.19
539.97	1143.47
540.32	1114.10
540.67	1138.95
541.01	1184.15
541.36	1166.07
541.71	1154.77
542.06	1159.29
542.40	1120.87
542.75	1091.50
543.10	1080.20
543.44	1157.03
543.79	1068.90
544.14	1163.81
544.48	1127.65
544.83	1134.43
545.18	1141.21
545.52	1163.81
545.87	1170.59
546.22	1152.51
546.56	1127.65
546.91	1168.33
547.25	1177.37
547.60	1141.21
547.95	1084.72
548.29	1134.43
548.64	1181.89
548.99	1120.87
549.33	1159.29
549.68	1152.51
550.02	1163.81
550.37	1118.61
550.72	1105.06
551.06	1220.31
551.41	1150.25
551.75	1089.24
552.10	1157.03
552.45	1213.53
552.79	1168.33
553.14	1147.99
553.48	1186.41
553.83	1136.69
554.17	1082.46
554.52	1039.52
554.87	1114.10
555.21	1145.73
555.56	1190.93
555.90	1120.87
556.25	1199.97
556.59	1161.55
556.94	1143.47
557.28	1105.06
557.63	1138.95
557.97	1125.39
558.32	1109.58
558.66	1209.01
559.01	1100.54
559.35	1084.72
559.70	1118.61
560.04	1181.89
560.39	1181.89
560.73	1179.63
561.08	1136.69
561.42	1118.61
561.77	1120.87
562.11	1073.42
562.46	1125.39
562.80	1168.33
563.14	1186.41
563.49	1120.87
563.83	1157.03
564.18	1138.95
564.52	1120.87
564.87	1172.85
565.21	1123.13
565.56	1188.67
565.90	1163.81
566.24	1159.29
566.59	1138.95
566.93	1129.91
567.28	1154.77
567.62	1143.47
567.96	1120.87
568.31	1125.39
568.65	1179.63
569.00	1091.50
569.34	1125.39
569.68	1199.97
570.03	1127.65
570.37	1082.46
570.71	1125.39
571.06	1199.97
571.40	1163.81
571.74	1188.67
572.09	1136.69
572.43	1114.10
572.78	1152.51
573.12	1175.11
573.46	1118.61
573.80	1213.53
574.15	1159.29
574.49	1102.80
574.83	1150.25
575.18	1084.72
575.52	1136.69
575.86	1118.61
576.21	1114.10
576.55	1109.58
576.89	1129.91
577.24	1136.69
577.58	1172.85
577.92	1154.77
578.26	1150.25
578.61	1132.17
578.95	1163.81
579.29	1109.58
579.63	1105.06
579.98	1080.20
580.32	1143.47
580.66	1143.47
581.00	1143.47
581.35	1181.89
581.69	1107.32
582.03	1136.69
582.37	1132.17
582.72	1157.03
583.06	1109.58
583.40	1096.02
583.74	1136.69
584.08	1116.35
584.43	1111.84
584.77	1111.84
585.11	1075.68
585.45	1127.65
585.79	1152.51
586.13	1177.37
586.48	1138.95
586.82	1168.33
587.16	1134.43
587.50	1147.99
587.84	1143.47
588.18	1066.64
588.53	1123.13
588.87	1145.73
589.21	1186.41
589.55	1132.17
589.89	1125.39
590.23	1050.82
590.57	1114.10
590.92	1129.91
591.26	1150.25
591.60	1163.81
591.94	1120.87
592.28	1102.80
592.62	1172.85
592.96	1116.35
593.30	1071.16
593.64	1129.91
593.98	1062.12
594.32	1159.29
594.67	1147.99
595.01	1111.84
595.35	1100.54
595.69	1084.72
596.03	1073.42
596.37	1206.75
596.71	1123.13
597.05	1154.77
597.39	1037.26
597.73	1127.65
598.07	1134.43
598.41	1159.29
598.75	1089.24
599.09	1175.11
599.43	1111.84
599.77	1129.91
600.11	1118.61
600.45	1129.91
600.79	1170.59
601.13	1118.61
601.47	1093.76
601.81	1168.33
602.15	1053.08
602.49	1107.32
602.83	1116.35
603.17	1129.91
603.51	1098.28
603.85	1152.51
604.19	1105.06
604.53	1163.81
604.87	1143.47
605.21	1109.58
605.55	1168.33
605.89	1136.69
606.23	1109.58
606.56	1141.21
606.90	1120.87
607.24	1166.07
607.58	1096.02
607.92	1114.10
608.26	1091.50
608.60	1141.21
608.94	1093.76
609.28	1084.72
609.62	1147.99
609.95	1080.20
610.29	1168.33
610.63	1152.51
610.97	1134.43
611.31	1152.51
611.65	1093.76
611.99	1068.90
612.33	1134.43
612.66	1245.16
613.00	1082.46
613.34	1145.73
613.68	1068.90
614.02	1073.42
614.36	1141.21
614.69	1129.91
615.03	1125.39
615.37	1114.10
615.71	1138.95
616.05	1127.65
616.38	1150.25
616.72	1107.32
617.06	1145.73
617.40	1129.91
617.74	1120.87
618.07	1150.25
618.41	1120.87
618.75	1109.58
619.09	1107.32
619.42	1116.35
619.76	1132.17
620.10	1084.72
620.44	1114.10
620.77	1125.39
621.11	1157.03
621.45	1136.69
621.79	1143.47
622.12	1147.99
622.46	1105.06
622.80	1125.39
623.13	1080.20
623.47	1161.55
623.81	1105.06
624.15	1082.46
624.48	1123.13
624.82	1091.50
625.16	1138.95
625.49	1116.35
625.83	1102.80
626.17	1138.95
626.50	1118.61
626.84	1145.73
627.18	1114.10
627.51	1010.14
627.85	1082.46
628.19	1125.39
628.52	1132.17
628.86	1111.84
629.20	1111.84
629.53	1114.10
629.87	1206.75
630.20	1138.95
630.54	1071.16
630.88	1159.29
631.21	1075.68
631.55	1134.43
631.89	1120.87
632.22	1138.95
632.56	1075.68
632.89	1093.76
633.23	1071.16
633.56	1089.24
633.90	1125.39
634.24	1138.95
634.57	1134.43
634.91	1068.90
635.24	1116.35
635.58	1089.24
635.91	1091.50
636.25	1012.40
636.58	1127.65
636.92	1116.35
637.26	1111.84
637.59	1086.98
637.93	1109.58
638.26	1107.32
638.60	1159.29
638.93	1086.98
639.27	1154.77
639.60	1145.73
639.94	1089.24
640.27	1035.00
640.61	1134.43
640.94	1114.10
641.28	1134.43
641.61	1138.95
641.94	1120.87
642.28	1053.08
642.61	1098.28
642.95	1082.46
643.28	1125.39
643.62	1093.76
643.95	1172.85
644.29	1163.81
644.62	1105.06
644.95	1136.69
645.29	1102.80
645.62	1152.51
645.96	1116.35
646.29	1053.08
646.63	1120.87
646.96	1138.95
647.29	1154.77
647.63	1091.50
647.96	1111.84
648.29	1204.49
648.63	1154.77
648.96	1175.11
649.30	1066.64
649.63	1129.91
649.96	1086.98
650.30	1096.02
650.63	1075.68
650.96	1152.51
651.30	1102.80
651.63	1111.84
651.96	1136.69
652.30	1184.15
652.63	1145.73
652.96	1136.69
653.30	1102.80
653.63	1091.50
653.96	1118.61
654.30	1100.54
654.63	1077.94
654.96	1107.32
655.29	1118.61
655.63	1091.50
655.96	1157.03
656.29	1150.25
656.63	1111.84
656.96	1093.76
657.29	1114.10
657.62	1154.77
657.96	1138.95
658.29	1100.54
658.62	1129.91
658.95	1141.21
659.29	1118.61
659.62	1157.03
659.95	1127.65
660.28	1136.69
660.61	1143.47
660.95	1089.24
661.28	1102.80
661.61	1071.16
661.94	1143.47
662.27	1098.28
662.61	1105.06
662.94	1109.58
663.27	1147.99
663.60	1116.35
663.93	1073.42
664.27	1071.16
664.60	1195.45
664.93	1123.13
665.26	1096.02
665.59	1066.64
665.92	1086.98
666.25	1068.90
666.59	1116.35
666.92	1089.24
667.25	1107.32
667.58	1109.58
667.91	1041.78
668.24	1161.55
668.57	1105.06
668.90	1132.17
669.23	1044.04
669.57	1143.47
669.90	1152.51
670.23	1109.58
670.56	1147.99
670.89	1159.29
671.22	1080.20
671.55	1044.04
671.88	1016.92
672.21	1096.02
672.54	1093.76
672.87	1116.35
673.20	1120.87
673.53	1098.28
673.86	1107.32
674.19	1127.65
674.52	1161.55
674.85	1086.98
675.18	1102.80
675.51	1084.72
675.84	1086.98
676.17	1111.84
676.50	1062.12
676.83	1098.28
677.16	1147.99
677.49	1152.51
677.82	1062.12
678.15	1028.22
678.48	1116.35
678.81	1150.25
679.14	1075.68
679.47	1048.56
679.80	1111.84
680.13	1123.13
680.46	1114.10
680.79	1138.95
681.12	1109.58
681.45	1184.15
681.78	1093.76
682.11	1071.16
682.44	1123.13
682.77	1157.03
683.09	1077.94
683.42	1075.68
683.75	1147.99
684.08	1118.61
684.41	1073.42
684.74	1179.63
685.07	1098.28
685.40	1132.17
685.72	1138.95
686.05	1041.78
686.38	1093.76
686.71	1059.86
687.04	1116.35
687.37	1082.46
687.70	1143.47
688.02	1082.46
688.35	1071.16
688.68	1120.87
689.01	1098.28
689.34	1109.58
689.67	1059.86
689.99	1084.72
690.32	1152.51
690.65	1136.69
690.98	1059.86
691.30	1080.20
691.63	1048.56
691.96	1105.06
692.29	1086.98
692.62	1012.40
692.94	1116.35
693.27	1129.91
693.60	1163.81
693.93	1068.90
694.25	1089.24
694.58	1168.33
694.91	1080.20
695.24	1098.28
695.56	1116.35
695.89	1159.29
696.22	1073.42
696.54	1093.76
696.87	1057.60
697.20	1102.80
697.53	1120.87
697.85	1021.44
698.18	1150.25
698.51	1127.65
698.83	1138.95
699.16	1098.28
699.49	1111.84
699.81	1129.91
700.14	1138.95
700.47	1168.33
700.79	1016.92
701.12	1098.28
701.45	1138.95
701.77	1098.28
702.10	1138.95
702.42	1116.35
702.75	1073.42
703.08	1116.35
703.40	1107.32
703.73	1134.43
704.05	1064.38
704.38	1100.54
704.71	1123.13
705.03	1068.90
705.36	1080.20
705.68	1134.43
706.01	1132.17
706.34	1071.16
706.66	1039.52
706.99	1077.94
707.31	1093.76
707.64	1084.72
707.96	1168.33
708.29	1086.98
708.61	1143.47
708.94	1062.12
709.26	1080.20
709.59	1109.58
709.92	1050.82
710.24	1120.87
710.57	1084.72
710.89	1096.02
711.22	1107.32
711.54	1143.47
711.87	1120.87
712.19	1091.50
712.51	1118.61
712.84	1100.54
713.16	1046.30
713.49	1084.72
713.81	1096.02
714.14	1066.64
714.46	1134.43
714.79	1109.58
715.11	1132.17
715.44	1107.32
715.76	1093.76
716.08	1062.12
716.41	1089.24
716.73	1059.86
717.06	1057.60
717.38	1170.59
717.70	1116.35
718.03	1084.72
718.35	1143.47
718.68	1080.20
719.00	1157.03
719.32	1134.43
719.65	1080.20
719.97	1080.20
720.29	1120.87
720.62	1123.13
720.94	1086.98
721.27	1098.28
721.59	1044.04
721.91	1129.91
722.24	1016.92
722.56	1086.98
722.88	1123.13
723.21	1082.46
723.53	1098.28
723.85	1125.39
724.17	1075.68
724.50	1129.91
724.82	1089.24
725.14	1100.54
725.47	1098.28
725.79	1066.64
726.11	1161.55
726.43	1082.46
726.76	1138.95
727.08	1129.91
727.40	1105.06
727.72	1150.25
728.05	1129.91
728.37	1116.35
728.69	1127.65
729.01	1120.87
729.34	1084.72
729.66	1086.98
729.98	1147.99
730.30	1100.54
730.62	1114.10
730.95	1134.43
731.27	1109.58
731.59	1080.20
731.91	1100.54
732.23	1096.02
732.56	1048.56
732.88	1111.84
733.20	1107.32
733.52	1057.60
733.84	1096.02
734.16	1118.61
734.49	1093.76
734.81	1114.10
735.13	1096.02
735.45	1098.28
735.77	1098.28
736.09	1134.43
736.41	1086.98
736.73	1109.58
737.06	1107.32
737.38	1147.99
737.70	1077.94
738.02	1077.94
738.34	1118.61
738.66	1096.02
738.98	1096.02
739.30	1062.12
739.62	1141.21
739.94	1109.58
740.26	1084.72
740.58	1086.98
740.90	1134.43
741.23	1082.46
741.55	1071.16
741.87	1064.38
742.19	1116.35
742.51	1114.10
742.83	1145.73
743.15	1168.33
743.47	1100.54
743.79	1055.34
744.11	1138.95
744.43	1105.06
744.75	1089.24
745.07	1118.61
745.39	1077.94
745.71	1086.98
746.03	1050.82
746.35	1071.16
746.67	1086.98
746.98	1059.86
747.30	1066.64
747.62	1080.20
747.94	1190.93
748.26	1129.91
748.58	1123.13
748.90	1161.55
749.22	1134.43
749.54	1120.87
749.86	1141.21
750.18	1190.93
750.50	1105.06
750.82	1134.43
751.13	1107.32
751.45	1073.42
751.77	1141.21
752.09	1089.24
752.41	1132.17
752.73	1091.50
753.05	1084.72
753.36	1120.87
753.68	1048.56
754.00	1037.26
754.32	1064.38
754.64	1107.32
754.96	1053.08
755.28	1105.06
755.59	1091.50
755.91	1041.78
756.23	1057.60
756.55	1123.13
756.87	1086.98
757.18	1138.95
757.50	1057.60
757.82	1062.12
758.14	1062.12
758.45	1066.64
758.77	1129.91
759.09	1102.80
759.41	1159.29
759.73	1132.17
760.04	1089.24
760.36	1114.10
760.68	1114.10
760.99	1080.20
761.31	1053.08
761.63	1093.76
761.95	1107.32
762.26	1123.13
762.58	1084.72
762.90	1086.98
763.21	1129.91
763.53	1041.78
763.85	1193.19
764.17	1116.35
764.48	1136.69
764.80	1152.51
765.12	1150.25
765.43	1150.25
765.75	1093.76
766.07	1096.02
766.38	1118.61
766.70	1111.84
767.01	1086.98
767.33	1066.64
767.65	1096.02
767.96	1116.35
768.28	1136.69
768.60	1044.04
768.91	1114.10
769.23	1082.46
769.54	1053.08
769.86	1091.50
770.18	1059.86
770.49	1123.13
770.81	1125.39
771.12	1159.29
771.44	1086.98
771.75	1159.29
772.07	1093.76
772.38	1062.12
772.70	1132.17
773.02	1145.73
773.33	1100.54
773.65	1125.39
773.96	1075.68
774.28	1057.60
774.59	1082.46
774.91	1118.61
775.22	1127.65
775.54	1080.20
775.85	1096.02
776.17	1100.54
776.48	1086.98
776.80	1134.43
777.11	1080.20
777.43	1077.94
777.74	1098.28
778.05	1116.35
778.37	1141.21
778.68	1159.29
779.00	1032.74
779.31	1084.72
779.63	1102.80
779.94	1127.65
780.26	1091.50
780.57	1086.98
780.88	1152.51
781.20	1068.90
781.51	1086.98
781.83	1143.47
782.14	1145.73
782.45	1064.38
782.77	1086.98
783.08	1098.28
783.39	1086.98
783.71	1168.33
784.02	1075.68
784.34	1116.35
784.65	1111.84
784.96	1098.28
785.28	1050.82
785.59	1172.85
785.90	1159.29
786.22	1114.10
786.53	1168.33
786.84	1127.65
787.15	1084.72
787.47	1030.48
787.78	1123.13
788.09	1073.42
788.41	1062.12
788.72	1111.84
789.03	1109.58
789.35	1116.35
789.66	1107.32
789.97	1073.42
790.28	1086.98
790.60	1068.90
790.91	1150.25
791.22	1157.03
791.53	1059.86
791.84	1057.60
792.16	1136.69
792.47	1066.64
792.78	1129.91
793.09	1089.24
793.41	1086.98
793.72	1086.98
794.03	1071.16
794.34	1091.50
794.65	1114.10
794.96	1125.39
795.28	1109.58
795.59	1168.33
795.90	1071.16
796.21	1129.91
796.52	1048.56
796.83	1041.78
797.15	1114.10
797.46	1059.86
797.77	1116.35
798.08	1152.51
798.39	1138.95
798.70	1125.39
799.01	1064.38
799.32	1114.10
799.63	1084.72
799.95	1150.25
800.26	1098.28
800.57	1098.28
800.88	1114.10
801.19	1080.20
801.50	1073.42
801.81	1105.06
802.12	1105.06
802.43	1157.03
802.74	1064.38
803.05	1080.20
803.36	1161.55
803.67	1145.73
803.98	1062.12
804.29	1168.33
804.60	1136.69
804.91	1096.02
805.22	1125.39
805.53	1086.98
805.84	1134.43
806.15	1145.73
806.46	1093.76
806.77	1050.82
807.08	1111.84
807.39	1086.98
807.70	1064.38
808.01	1075.68
808.32	1129.91
808.63	1129.91
808.94	1159.29
809.25	1125.39
809.56	1150.25
809.87	1068.90
810.18	1136.69
810.49	1046.30
810.79	1041.78
811.10	1037.26
811.41	1041.78
811.72	1082.46
812.03	1073.42
812.34	1170.59
812.65	1102.80
812.96	1150.25
813.27	1145.73
813.57	1105.06
813.88	1080.20
814.19	1102.80
814.50	1080.20
814.81	1102.80
815.12	1071.16
815.42	1075.68
815.73	1066.64
816.04	1100.54
816.35	1107.32
816.66	1044.04
816.97	1062.12
817.27	1086.98
817.58	1136.69
817.89	1105.06
818.20	1102.80
818.50	1046.30
818.81	1114.10
819.12	1086.98
819.43	1055.34
819.73	1107.32
820.04	1123.13
820.35	1107.32
820.66	1105.06
820.96	1120.87
821.27	1163.81
821.58	1143.47
821.89	1114.10
822.19	1157.03
822.50	1084.72
822.81	1091.50
823.11	1048.56
823.42	1062.12
823.73	1129.91
824.03	1118.61
824.34	1102.80
824.65	1075.68
824.95	1123.13
825.26	1102.80
825.57	1080.20
825.87	1102.80
826.18	1046.30
826.49	1132.17
826.79	1138.95
827.10	1086.98
827.40	1077.94
827.71	1098.28
828.02	1084.72
828.32	1163.81
828.63	1025.96
828.93	1127.65
829.24	1105.06
829.55	1125.39
829.85	1080.20
830.16	1147.99
830.46	1136.69
830.77	1118.61
831.07	1136.69
831.38	1163.81
831.69	1044.04
831.99	1044.04
832.30	1075.68
832.60	1127.65
832.91	1030.48
833.21	1080.20
833.52	1145.73
833.82	1145.73
834.13	1066.64
834.43	1102.80
834.74	1039.52
835.04	1030.48
835.35	1080.20
835.65	1147.99
835.96	1046.30
836.26	1116.35
836.56	1107.32
836.87	1102.80
837.17	1154.77
837.48	1147.99
837.78	1114.10
838.09	1129.91
838.39	1066.64
838.69	1050.82
839.00	1143.47
839.30	1068.90
839.61	1145.73
839.91	1143.47
840.21	1080.20
840.52	1136.69
840.82	1120.87
841.13	1102.80
841.43	1120.87
841.73	1136.69
842.04	1118.61
842.34	1089.24
842.64	1050.82
842.95	1077.94
843.25	1084.72
843.55	1071.16
843.86	1091.50
844.16	1138.95
844.46	1120.87
844.77	1114.10
845.07	1057.60
845.37	1068.90
845.68	1134.43
845.98	1048.56
846.28	1046.30
846.58	1114.10
846.89	1044.04
847.19	1118.61
847.49	1075.68
847.79	1098.28
848.10	1143.47
848.40	1053.08
848.70	1136.69
849.00	1129.91
849.31	1102.80
849.61	1084.72
849.91	1086.98
850.21	1120.87
850.51	1114.10
850.82	1089.24
851.12	1170.59
851.42	1109.58
851.72	1105.06
852.02	1161.55
852.32	1091.50
852.63	1089.24
852.93	1068.90
853.23	1123.13
853.53	1075.68
853.83	1055.34
854.13	1080.20
854.43	1073.42
854.74	1059.86
855.04	1118.61
855.34	1127.65
855.64	1120.87
855.94	1188.67
856.24	1114.10
856.54	1109.58
856.84	1163.81
857.14	1102.80
857.44	1050.82
857.74	1075.68
858.05	1086.98
858.35	1116.35
858.65	1077.94
858.95	1107.32
859.25	1035.00
859.55	1125.39
859.85	1041.78
860.15	1025.96
860.45	1073.42
860.75	1127.65
861.05	1093.76
861.35	1111.84
861.65	1107.32
861.95	1086.98
862.25	1127.65
862.55	1141.21
862.85	1057.60
863.15	1093.76
863.45	1066.64
863.75	1098.28
864.05	1093.76
864.35	1152.51
864.64	1005.62
864.94	1077.94
865.24	1073.42
865.54	1116.35
865.84	1116.35
866.14	1068.90
866.44	1111.84
866.74	1136.69
867.04	1111.84
867.34	1089.24
867.64	1100.54
867.93	1134.43
868.23	1123.13
868.53	1147.99
868.83	1132.17
869.13	1064.38
869.43	1100.54
869.73	1080.20
870.02	1134.43
870.32	1037.26
870.62	1138.95
870.92	1098.28
871.22	1107.32
871.51	1075.68
871.81	1100.54
872.11	1093.76
872.41	1152.51
872.71	1163.81
873.00	1132.17
873.30	1107.32
873.60	1062.12
873.90	1080.20
874.19	1154.77
874.49	1152.51
874.79	1111.84
875.09	1086.98
875.38	1184.15
875.68	1098.28
875.98	1093.76
876.28	1062.12
876.57	1098.28
876.87	1098.28
877.17	1098.28
