174.03	775.12
174.41	775.12
174.78	775.12
175.16	716.37
175.54	696.03
175.92	711.85
176.30	711.85
176.67	711.85
177.05	761.56
177.43	754.78
177.81	750.26
178.19	736.70
178.56	842.92
178.94	849.70
179.32	793.20
179.70	890.37
180.08	912.97
180.45	811.28
180.83	906.19
181.21	910.71
181.59	899.41
181.96	973.99
182.34	1019.18
182.72	994.32
183.10	1093.76
183.48	1025.96
183.85	1096.02
184.23	1055.34
184.61	1102.80
184.99	1080.20
185.36	1102.80
185.74	1127.65
186.12	1077.94
186.50	1168.33
186.87	1091.50
187.25	1091.50
187.63	1181.89
188.01	1111.84
188.38	1150.25
188.76	1086.98
189.14	1093.76
189.52	1064.38
189.89	1157.03
190.27	1086.98
190.65	1138.95
191.02	1132.17
191.40	1118.61
191.78	1064.38
192.16	1107.32
192.53	1147.99
192.91	1181.89
193.29	1132.17
193.66	1147.99
194.04	1105.06
194.42	1075.68
194.79	1161.55
195.17	1068.90
195.55	1075.68
195.93	1109.58
196.30	1077.94
196.68	1068.90
197.06	1048.56
197.43	1082.46
197.81	1123.13
198.19	1098.28
198.56	1082.46
198.94	1066.64
199.32	1062.12
199.69	1166.07
200.07	1019.18
200.45	1127.65
200.82	1136.69
201.20	1118.61
201.58	1084.72
201.95	1080.20
202.33	1014.66
202.71	1111.84
203.08	1107.32
203.46	1111.84
203.84	1044.04
204.21	1077.94
204.59	1077.94
204.96	1118.61
205.34	1105.06
205.72	1057.60
206.09	1138.95
206.47	1041.78
206.85	1120.87
207.22	1082.46
207.60	1084.72
207.97	1120.87
208.35	1129.91
208.73	1084.72
209.10	1080.20
209.48	1077.94
209.85	1071.16
210.23	1089.24
210.61	1080.20
210.98	1100.54
211.36	1053.08
211.73	1044.04
212.11	1077.94
212.49	1109.58
212.86	1046.30
213.24	1075.68
213.61	1068.90
213.99	1123.13
214.37	1091.50
214.74	1166.07
215.12	1080.20
215.49	1105.06
215.87	1080.20
216.24	1066.64
216.62	1073.42
216.99	1082.46
217.37	1071.16
217.75	1066.64
218.12	1107.32
218.50	1073.42
218.87	1089.24
219.25	1096.02
219.62	1059.86
220.00	969.47
220.37	1089.24
220.75	1096.02
221.12	1080.20
221.50	1057.60
221.87	1129.91
222.25	1132.17
222.63	1062.12
223.00	1062.12
223.38	1107.32
223.75	1048.56
224.13	1053.08
224.50	1111.84
224.88	1150.25
225.25	1120.87
225.63	1116.35
226.00	1114.10
226.38	1116.35
226.75	1096.02
227.13	1159.29
227.50	1118.61
227.88	1107.32
228.25	1084.72
228.63	1143.47
229.00	1116.35
229.37	1120.87
229.75	1062.12
230.12	1132.17
230.50	1077.94
230.87	1136.69
231.25	1082.46
231.62	1123.13
232.00	1123.13
232.37	1147.99
232.75	1125.39
233.12	1163.81
233.50	1100.54
233.87	1086.98
234.24	1129.91
234.62	1145.73
234.99	1197.71
235.37	1089.24
235.74	1091.50
236.12	1132.17
236.49	1059.86
236.86	1123.13
237.24	1143.47
237.61	1044.04
237.99	1064.38
238.36	1066.64
238.74	1107.32
239.11	1147.99
239.48	1116.35
239.86	1053.08
240.23	1150.25
240.61	1224.83
240.98	1152.51
241.35	1163.81
241.73	1068.90
242.10	1089.24
242.48	1091.50
242.85	1089.24
243.22	1098.28
243.60	1109.58
243.97	1145.73
244.34	1075.68
244.72	1161.55
245.09	1091.50
245.47	1127.65
245.84	1170.59
246.21	1093.76
246.59	1086.98
246.96	1166.07
247.33	1091.50
247.71	1123.13
248.08	1175.11
248.45	1066.64
248.83	1068.90
249.20	1111.84
249.57	1138.95
249.95	1132.17
250.32	1109.58
250.69	1100.54
251.07	1050.82
251.44	1084.72
251.81	1096.02
252.19	1075.68
252.56	1175.11
252.93	1114.10
253.31	1118.61
253.68	1123.13
254.05	1129.91
254.43	1114.10
254.80	1143.47
255.17	1125.39
255.55	1195.45
255.92	1046.30
256.29	1138.95
256.66	1220.31
257.04	1134.43
257.41	1179.63
257.78	1093.76
258.16	1091.50
258.53	1147.99
258.90	1086.98
259.27	1098.28
259.65	1120.87
260.02	1109.58
260.39	1116.35
260.76	1093.76
261.14	1105.06
261.51	1188.67
261.88	1062.12
262.25	1123.13
262.63	1109.58
263.00	1193.19
263.37	1071.16
263.74	1159.29
264.12	1186.41
264.49	1159.29
264.86	1114.10
265.23	1073.42
265.61	1129.91
265.98	1114.10
266.35	1064.38
266.72	1138.95
267.09	1068.90
267.47	1114.10
267.84	1145.73
268.21	1107.32
268.58	1127.65
268.95	1125.39
269.33	1107.32
269.70	1082.46
270.07	1145.73
270.44	1129.91
270.81	1114.10
271.19	1170.59
271.56	1105.06
271.93	1071.16
272.30	1120.87
272.67	1132.17
273.05	1154.77
273.42	1145.73
273.79	1091.50
274.16	1147.99
274.53	1163.81
274.90	1215.79
275.28	1168.33
275.65	1129.91
276.02	1129.91
276.39	1100.54
276.76	1170.59
277.13	1154.77
277.50	1166.07
277.88	1152.51
278.25	1134.43
278.62	1046.30
278.99	1190.93
279.36	1091.50
279.73	1098.28
280.10	1175.11
280.47	1136.69
280.85	1170.59
281.22	1181.89
281.59	1168.33
281.96	1134.43
282.33	1145.73
282.70	1147.99
283.07	1082.46
283.44	1086.98
283.81	1175.11
284.18	1114.10
284.56	1136.69
284.93	1111.84
285.30	1134.43
285.67	1114.10
286.04	1175.11
286.41	1129.91
286.78	1129.91
287.15	1166.07
287.52	1057.60
287.89	1066.64
288.26	1150.25
288.63	1168.33
289.00	1147.99
289.37	1163.81
289.75	1102.80
290.12	1102.80
290.49	1175.11
290.86	1138.95
291.23	1129.91
291.60	1181.89
291.97	1116.35
292.34	1093.76
292.71	1150.25
293.08	1109.58
293.45	1073.42
293.82	1127.65
294.19	1091.50
294.56	1134.43
294.93	1170.59
295.30	1109.58
295.67	1195.45
296.04	1077.94
296.41	1098.28
296.78	1134.43
297.15	1098.28
297.52	1105.06
297.89	1188.67
298.26	1170.59
298.63	1107.32
299.00	1170.59
299.37	1132.17
299.74	1193.19
300.11	1102.80
300.48	1100.54
300.85	1138.95
301.22	1179.63
301.59	1109.58
301.96	1089.24
302.33	1086.98
302.70	1157.03
303.07	1197.71
303.43	1172.85
303.80	1154.77
304.17	1168.33
304.54	1134.43
304.91	1175.11
305.28	1091.50
305.65	1147.99
306.02	1129.91
306.39	1114.10
306.76	1136.69
307.13	1152.51
307.50	1136.69
307.87	1202.23
308.24	1116.35
308.60	1125.39
308.97	1166.07
309.34	1204.49
309.71	1161.55
310.08	1093.76
310.45	1166.07
310.82	1114.10
311.19	1118.61
311.56	1107.32
311.92	1170.59
312.29	1114.10
312.66	1181.89
313.03	1145.73
313.40	1166.07
313.77	1166.07
314.14	1157.03
314.51	1111.84
314.87	1157.03
315.24	1175.11
315.61	1195.45
315.98	1120.87
316.35	1154.77
316.72	1220.31
317.09	1168.33
317.45	1116.35
317.82	1157.03
318.19	1134.43
318.56	1202.23
318.93	1163.81
319.30	1150.25
319.66	1147.99
320.03	1098.28
320.40	1175.11
320.77	1157.03
321.14	1123.13
321.50	1141.21
321.87	1157.03
322.24	1145.73
322.61	1132.17
322.98	1143.47
323.34	1179.63
323.71	1199.97
324.08	1138.95
324.45	1157.03
324.82	1141.21
325.18	1154.77
325.55	1143.47
325.92	1186.41
326.29	1154.77
326.65	1102.80
327.02	1118.61
327.39	1086.98
327.76	1175.11
328.12	1154.77
328.49	1154.77
328.86	1188.67
329.23	1159.29
329.59	1240.65
329.96	1175.11
330.33	1211.27
330.70	1204.49
331.06	1154.77
331.43	1190.93
331.80	1134.43
332.17	1136.69
332.53	1229.35
332.90	1193.19
333.27	1141.21
333.63	1195.45
334.00	1204.49
334.37	1147.99
334.74	1157.03
335.10	1136.69
335.47	1116.35
335.84	1181.89
336.20	1190.93
336.57	1184.15
336.94	1179.63
337.30	1188.67
337.67	1220.31
338.04	1227.09
338.40	1202.23
338.77	1204.49
339.14	1181.89
339.50	1218.05
339.87	1172.85
340.24	1172.85
340.60	1175.11
340.97	1100.54
341.34	1145.73
341.70	1181.89
342.07	1150.25
342.44	1134.43
342.80	1147.99
343.17	1213.53
343.53	1177.37
343.90	1172.85
344.27	1204.49
344.63	1168.33
345.00	1218.05
345.37	1181.89
345.73	1179.63
346.10	1213.53
346.46	1199.97
346.83	1215.79
347.20	1125.39
347.56	1181.89
347.93	1184.15
348.29	1204.49
348.66	1154.77
349.03	1132.17
349.39	1188.67
349.76	1170.59
350.12	1204.49
350.49	1240.65
350.85	1147.99
351.22	1224.83
351.59	1152.51
351.95	1220.31
352.32	1199.97
352.68	1267.76
353.05	1197.71
353.41	1240.65
353.78	1236.13
354.14	1301.66
354.51	1141.21
354.88	1240.65
355.24	1283.58
355.61	1242.91
355.97	1206.75
356.34	1163.81
356.70	1218.05
357.07	1215.79
357.43	1175.11
357.80	1159.29
358.16	1256.46
358.53	1179.63
358.89	1301.66
359.26	1251.94
359.62	1209.01
359.99	1242.91
360.35	1258.72
360.72	1202.23
361.08	1227.09
361.45	1206.75
361.81	1175.11
362.18	1222.57
362.54	1301.66
362.91	1260.98
363.27	1276.80
363.63	1231.61
364.00	1340.08
364.36	1387.53
364.73	1270.02
365.09	1294.88
365.46	1267.76
365.82	1190.93
366.19	1204.49
366.55	1240.65
366.91	1249.68
367.28	1340.08
367.64	1281.32
368.01	1256.46
368.37	1265.50
368.74	1290.36
369.10	1351.38
369.46	1279.06
369.83	1371.72
370.19	1251.94
370.56	1242.91
370.92	1258.72
371.28	1308.44
371.65	1279.06
372.01	1373.98
372.38	1340.08
372.74	1312.96
373.10	1360.42
373.47	1342.34
373.83	1387.53
374.19	1360.42
374.56	1364.94
374.92	1396.57
375.29	1471.15
375.65	1457.59
376.01	1425.95
376.38	1450.81
376.74	1462.11
377.10	1414.65
377.47	1468.89
377.83	1505.05
378.19	1516.34
378.56	1523.12
378.92	1577.36
379.28	1518.60
379.65	1620.30
380.01	1604.48
380.37	1667.75
380.74	1670.01
381.10	1767.19
381.46	1708.43
381.83	1900.52
382.19	1911.81
382.55	1923.11
382.91	2029.33
383.28	2036.10
383.64	2178.47
384.00	2320.84
384.37	2318.58
384.73	2594.28
385.09	2662.08
385.45	2784.11
385.82	2987.49
386.18	3136.64
386.54	3251.89
386.91	3525.33
387.27	3853.01
387.63	4182.94
387.99	4289.15
388.36	4727.56
388.72	5005.52
389.08	5536.58
389.44	5859.73
389.80	6101.53
390.17	6632.59
390.53	7457.43
390.89	8282.27
391.25	8707.12
391.62	9120.66
391.98	10232.50
392.34	11281.06
392.70	11608.73
393.06	12772.55
393.43	13491.17
393.79	14322.79
394.15	15495.64
394.51	16510.30
394.87	17590.50
395.24	18939.62
395.60	20727.14
395.96	21888.69
396.32	23696.55
396.68	25373.34
397.04	27515.66
397.41	29879.44
397.77	32024.02
398.13	34715.47
398.49	36335.77
398.85	39273.54
399.21	43359.31
399.58	45885.80
399.94	48956.90
400.30	52437.04
400.66	53774.86
401.02	56430.15
401.38	57996.22
401.74	59652.67
402.11	61643.58
402.47	63001.73
402.83	64068.37
403.19	65329.36
403.55	65535.00
403.91	65535.00
404.27	65535.00
404.63	65535.00
404.99	65535.00
405.35	65535.00
405.72	65535.00
406.08	65535.00
406.44	65535.00
406.80	65535.00
407.16	65535.00
407.52	65535.00
407.88	65535.00
408.24	65535.00
408.60	65535.00
408.96	65535.00
409.32	65535.00
409.68	65535.00
410.04	65535.00
410.40	65535.00
410.76	65535.00
411.13	65535.00
411.49	65535.00
411.85	64296.61
412.21	62997.21
412.57	62025.49
412.93	60857.16
413.29	59492.22
413.65	57650.46
414.01	55923.95
414.37	53612.15
414.73	52238.17
415.09	50339.92
415.45	48875.55
415.81	46968.26
416.17	44267.76
416.53	43061.01
416.89	40699.49
417.25	38846.44
417.61	37054.39
417.97	35736.91
418.33	34301.92
418.69	33126.81
419.05	31764.14
419.41	30616.14
419.77	29974.35
420.12	28245.58
420.48	26575.57
420.84	26324.73
421.20	24704.44
421.56	23314.64
421.92	23518.03
422.28	21714.68
422.64	20455.96
423.00	19463.90
423.36	19136.22
423.72	17694.45
424.08	16668.49
424.44	15391.69
424.80	15064.01
425.16	14207.54
425.51	13870.82
425.87	13531.85
426.23	12270.86
426.59	11511.56
426.95	11041.52
427.31	10790.68
427.67	10424.58
428.03	9757.94
428.39	9520.65
428.74	8813.33
429.10	8472.09
429.46	7934.25
429.82	7522.97
430.18	7231.45
430.54	7084.56
430.90	6980.61
431.26	6553.50
431.61	6352.38
431.97	6144.47
432.33	5961.43
432.69	5846.17
433.05	5758.04
433.41	5425.85
433.76	5032.64
434.12	5163.71
434.48	4894.79
434.84	4691.40
435.20	4650.73
435.55	4510.62
435.91	4327.57
436.27	4291.41
436.63	4027.01
436.99	3941.14
437.34	3724.20
437.70	3581.83
438.06	3532.11
438.42	3453.02
438.78	3306.13
439.13	3188.62
439.49	3206.70
439.85	3064.33
440.21	3003.31
440.56	2822.52
440.92	2836.08
441.28	2716.31
441.64	2646.26
441.99	2533.27
442.35	2422.54
442.71	2397.68
443.07	2438.35
443.42	2357.00
443.78	2295.98
444.14	2332.14
444.50	2309.54
444.85	2244.01
445.21	2049.66
445.57	2153.62
445.93	2083.56
446.28	2079.04
446.64	2036.10
447.00	1945.71
447.35	1961.53
447.71	1972.83
448.07	1957.01
448.42	1941.19
448.78	1837.24
449.14	1789.78
449.49	1785.26
449.85	1823.68
450.21	1737.81
450.56	1667.75
450.92	1692.61
451.28	1692.61
451.63	1758.15
451.99	1613.52
452.35	1681.31
452.70	1681.31
453.06	1624.82
453.42	1584.14
453.77	1532.16
454.13	1606.74
454.49	1498.27
454.84	1529.90
455.20	1561.54
455.55	1480.19
455.91	1534.42
456.27	1405.61
456.62	1373.98
456.98	1416.91
457.33	1385.27
457.69	1416.91
458.05	1369.46
458.40	1403.35
458.76	1389.79
459.11	1491.49
459.47	1369.46
459.83	1358.16
460.18	1401.09
460.54	1410.13
460.89	1423.69
461.25	1324.26
461.60	1319.74
461.96	1281.32
462.31	1346.86
462.67	1303.92
463.03	1317.48
463.38	1306.18
463.74	1211.27
464.09	1337.82
464.45	1285.84
464.80	1281.32
465.16	1285.84
465.51	1303.92
465.87	1331.04
466.22	1256.46
466.58	1306.18
466.93	1231.61
467.29	1317.48
467.64	1251.94
468.00	1236.13
468.35	1215.79
468.71	1270.02
469.06	1209.01
469.42	1281.32
469.77	1337.82
470.13	1256.46
470.48	1288.10
470.84	1242.91
471.19	1258.72
471.54	1290.36
471.90	1231.61
472.25	1265.50
472.61	1263.24
472.96	1240.65
473.32	1229.35
473.67	1236.13
474.03	1238.39
474.38	1184.15
474.73	1222.57
475.09	1245.16
475.44	1195.45
475.80	1199.97
476.15	1245.16
476.50	1199.97
476.86	1272.28
477.21	1215.79
477.57	1193.19
477.92	1270.02
478.27	1247.42
478.63	1220.31
478.98	1215.79
479.34	1218.05
479.69	1231.61
480.04	1240.65
480.40	1188.67
480.75	1186.41
481.10	1184.15
481.46	1204.49
481.81	1249.68
482.16	1170.59
482.52	1166.07
482.87	1222.57
483.22	1222.57
483.58	1141.21
483.93	1220.31
484.28	1222.57
484.64	1202.23
484.99	1265.50
485.34	1220.31
485.70	1186.41
486.05	1179.63
486.40	1220.31
486.76	1233.87
487.11	1213.53
487.46	1188.67
487.81	1245.16
488.17	1157.03
488.52	1220.31
488.87	1181.89
489.23	1211.27
489.58	1209.01
489.93	1290.36
490.28	1175.11
490.64	1123.13
490.99	1098.28
491.34	1175.11
491.69	1236.13
492.05	1202.23
492.40	1197.71
492.75	1213.53
493.10	1270.02
493.46	1222.57
493.81	1224.83
494.16	1236.13
494.51	1240.65
494.86	1184.15
495.22	1315.22
495.57	1256.46
495.92	1249.68
496.27	1242.91
496.62	1240.65
496.98	1299.40
497.33	1236.13
497.68	1260.98
498.03	1346.86
498.38	1260.98
498.74	1270.02
499.09	1335.56
499.44	1326.52
499.79	1306.18
500.14	1326.52
500.49	1274.54
500.85	1331.04
501.20	1360.42
501.55	1358.16
501.90	1367.20
502.25	1355.90
502.60	1414.65
502.95	1383.01
503.30	1412.39
503.66	1416.91
504.01	1380.75
504.36	1432.73
504.71	1484.71
505.06	1473.41
505.41	1516.34
505.76	1439.51
506.11	1516.34
506.46	1554.76
506.82	1590.92
507.17	1532.16
507.52	1613.52
507.87	1559.28
508.22	1613.52
508.57	1703.91
508.92	1633.86
509.27	1787.52
509.62	1670.01
509.97	1740.07
510.32	1731.03
510.67	1744.59
511.02	1810.12
511.37	1841.76
511.72	1871.14
512.07	1952.49
512.42	1898.26
512.77	1979.61
513.12	1995.43
513.47	2083.56
513.82	2042.88
514.17	2099.38
514.52	2083.56
514.87	2160.40
515.22	2133.28
515.57	2164.91
515.92	2207.85
516.27	2280.17
516.62	2325.36
516.97	2359.26
517.32	2350.22
517.67	2481.29
518.02	2458.69
518.37	2526.49
518.72	2469.99
519.07	2551.35
519.42	2587.50
519.77	2646.26
520.12	2639.48
520.47	2700.49
520.82	2732.13
521.17	2793.15
521.52	2734.39
521.87	2942.30
522.22	2827.04
522.56	2888.06
522.91	2960.37
523.26	3041.73
523.61	3053.03
523.96	3125.34
524.31	3213.47
524.66	3263.19
525.01	3355.84
525.36	3208.96
525.71	3319.69
526.05	3330.99
526.40	3364.88
526.75	3419.12
527.10	3407.82
527.45	3373.92
527.80	3581.83
528.15	3511.77
528.49	3477.87
528.84	3536.63
529.19	3541.15
529.54	3697.08
529.89	3631.54
530.24	3683.52
530.58	3764.87
530.93	3728.72
531.28	3794.25
531.63	3737.75
531.98	3753.57
532.33	3900.46
532.67	3927.58
533.02	3963.74
533.37	3943.40
533.72	3966.00
534.07	3977.30
534.41	3918.54
534.76	4036.05
535.11	3956.96
535.46	4072.21
535.80	4090.29
536.15	3981.82
536.50	4140.00
536.85	4178.42
537.19	4036.05
537.54	4196.50
537.89	4033.79
538.24	4097.07
538.58	4180.68
538.93	4146.78
539.28	4124.19
539.63	4049.61
539.97	4194.24
540.32	4216.84
540.67	4140.00
541.01	4126.45
541.36	4225.88
541.71	4094.81
542.06	4137.74
542.40	4223.62
542.75	4130.96
543.10	4187.46
543.44	4124.19
543.79	4255.26
544.14	4110.63
544.48	4142.26
544.83	4214.58
545.18	4223.62
545.52	4106.11
545.87	4135.48
546.22	4135.48
546.56	4045.09
546.91	4013.45
547.25	4119.67
547.60	4040.57
547.95	4119.67
548.29	4121.93
548.64	4029.27
548.99	4085.77
549.33	4054.13
549.68	4126.45
550.02	3941.14
550.37	3945.66
550.72	4092.55
551.06	4024.75
551.41	3997.64
551.75	3997.64
552.10	4004.41
552.45	3979.56
552.79	3929.84
553.14	3986.34
553.48	3941.14
553.83	3984.08
554.17	3984.08
554.52	3902.72
554.87	3846.23
555.21	4004.41
555.56	3812.33
555.90	3936.62
556.25	3853.01
556.59	3814.59
556.94	3751.31
557.28	3801.03
557.63	3726.46
557.97	3771.65
558.32	3873.34
558.66	3918.54
559.01	3823.63
559.35	3764.87
559.70	3821.37
560.04	3681.26
560.39	3683.52
560.73	3690.30
561.08	3778.43
561.42	3701.60
561.77	3685.78
562.11	3706.12
562.46	3615.72
562.80	3595.39
563.14	3654.14
563.49	3615.72
563.83	3579.57
564.18	3697.08
564.52	3676.74
564.87	3613.46
565.21	3547.93
565.56	3529.85
565.90	3608.94
566.24	3568.27
566.59	3486.91
566.93	3572.79
567.28	3502.73
567.62	3423.64
567.96	3566.01
568.31	3523.07
568.65	3394.26
569.00	3416.86
569.34	3471.10
569.68	3403.30
570.03	3443.98
570.37	3430.42
570.71	3498.21
571.06	3403.30
571.40	3283.53
571.74	3335.51
572.09	3292.57
572.43	3333.25
572.78	3321.95
573.12	3326.47
573.46	3254.15
573.80	3217.99
574.15	3333.25
574.49	3294.83
574.83	3242.85
575.18	3308.39
575.52	3333.25
575.86	3215.73
576.21	3098.22
576.55	3186.36
576.89	3217.99
577.24	3204.44
577.58	3163.76
577.92	2989.75
578.26	3163.76
578.61	3111.78
578.95	3168.28
579.29	3114.04
579.63	3055.29
579.98	3012.35
580.32	2973.93
580.66	3107.26
581.00	3055.29
581.35	2944.56
581.69	3021.39
582.03	3001.05
582.37	2980.71
582.72	3014.61
583.06	3001.05
583.40	2917.44
583.74	2971.67
584.08	2854.16
584.43	2964.89
584.77	2876.76
585.11	2879.02
585.45	2836.08
585.79	2756.99
586.13	2793.15
586.48	2718.57
586.82	2869.98
587.16	2781.85
587.50	2734.39
587.84	2718.57
588.18	2779.59
588.53	2815.75
588.87	2815.75
589.21	2680.16
589.55	2646.26
589.89	2770.55
590.23	2770.55
590.57	2619.14
590.92	2603.32
591.26	2775.07
591.60	2634.96
591.94	2598.80
592.28	2564.90
592.62	2512.93
592.96	2515.19
593.30	2650.78
593.64	2558.12
593.98	2603.32
594.32	2551.35
594.67	2549.09
595.01	2535.53
595.35	2506.15
595.69	2503.89
596.03	2467.73
596.37	2420.28
596.71	2472.25
597.05	2506.15
597.39	2494.85
597.73	2569.42
598.07	2472.25
598.41	2422.54
598.75	2440.61
599.09	2418.02
599.43	2413.50
599.77	2386.38
600.11	2445.13
600.45	2368.30
600.79	2250.79
601.13	2368.30
601.47	2347.96
601.81	2366.04
602.15	2318.58
602.49	2271.13
602.83	2275.65
603.17	2277.91
603.51	2268.87
603.85	2262.09
604.19	2277.91
604.53	2291.47
604.87	2219.15
605.21	2182.99
605.55	2169.43
605.89	2173.95
606.23	2162.66
606.56	2185.25
606.90	2205.59
607.24	2137.80
607.58	2115.20
607.92	2169.43
608.26	2126.50
608.60	2049.66
608.94	2192.03
609.28	2088.08
609.62	2074.52
609.95	2099.38
610.29	2065.48
610.63	2076.78
610.97	2002.21
611.31	2056.44
611.65	2002.21
611.99	2015.77
612.33	2013.51
612.66	1975.09
613.00	1988.65
613.34	1997.69
613.68	2006.73
614.02	2011.25
614.36	2011.25
614.69	1995.43
615.03	1927.63
615.37	1968.31
615.71	1936.67
616.05	1884.70
616.38	1862.10
616.72	1889.22
617.06	1920.85
617.40	1918.59
617.74	1898.26
618.07	1868.88
618.41	1857.58
618.75	1875.66
619.09	1884.70
619.42	1787.52
619.76	1972.83
620.10	1911.81
620.44	1855.32
620.77	1857.58
621.11	1758.15
621.45	1832.72
621.79	1731.03
622.12	1898.26
622.46	1812.38
622.80	1825.94
623.13	1737.81
623.47	1762.67
623.81	1864.36
624.15	1749.11
624.48	1778.48
624.82	1758.15
625.16	1751.37
625.49	1760.41
625.83	1821.42
626.17	1780.74
626.50	1796.56
626.84	1690.35
627.18	1679.05
627.51	1751.37
627.85	1699.39
628.19	1699.39
628.52	1735.55
628.86	1676.79
629.20	1721.99
629.53	1622.56
629.87	1701.65
630.20	1651.93
630.54	1654.19
630.88	1647.41
631.21	1719.73
631.55	1726.51
631.89	1613.52
632.22	1654.19
632.56	1618.04
632.89	1615.78
633.23	1593.18
633.56	1615.78
633.90	1572.84
634.24	1672.27
634.57	1654.19
634.91	1647.41
635.24	1581.88
635.58	1692.61
635.91	1618.04
636.25	1631.60
636.58	1629.34
636.92	1688.09
637.26	1579.62
637.59	1602.22
637.93	1532.16
638.26	1566.06
638.60	1511.82
638.93	1525.38
639.27	1554.76
639.60	1523.12
639.94	1509.56
640.27	1602.22
640.61	1511.82
640.94	1563.80
641.28	1520.86
641.61	1575.10
641.94	1552.50
642.28	1532.16
642.61	1466.63
642.95	1543.46
643.28	1541.20
643.62	1486.97
643.95	1498.27
644.29	1550.24
644.62	1514.08
644.95	1491.49
645.29	1455.33
645.62	1477.93
645.96	1514.08
646.29	1462.11
646.63	1448.55
646.96	1423.69
647.29	1464.37
647.63	1428.21
647.96	1473.41
648.29	1434.99
648.63	1369.46
648.96	1412.39
649.30	1430.47
649.63	1405.61
649.96	1514.08
650.30	1398.83
650.63	1394.31
650.96	1475.67
651.30	1480.19
651.63	1475.67
651.96	1387.53
652.30	1385.27
652.63	1412.39
652.96	1380.75
653.30	1394.31
653.63	1378.49
653.96	1392.05
654.30	1455.33
654.63	1369.46
654.96	1425.95
655.29	1439.51
655.63	1401.09
655.96	1432.73
656.29	1324.26
656.63	1373.98
656.96	1308.44
657.29	1423.69
657.62	1392.05
657.96	1401.09
658.29	1428.21
658.62	1430.47
658.95	1319.74
659.29	1380.75
659.62	1335.56
659.95	1331.04
660.28	1421.43
660.61	1407.87
660.95	1373.98
661.28	1319.74
661.61	1324.26
661.94	1340.08
662.27	1317.48
662.61	1301.66
662.94	1265.50
663.27	1342.34
663.60	1367.20
663.93	1335.56
664.27	1349.12
664.60	1276.80
664.93	1301.66
665.26	1315.22
665.59	1310.70
665.92	1319.74
666.25	1312.96
666.59	1355.90
666.92	1315.22
667.25	1242.91
667.58	1292.62
667.91	1369.46
668.24	1297.14
668.57	1263.24
668.90	1319.74
669.23	1254.20
669.57	1265.50
669.90	1299.40
670.23	1274.54
670.56	1231.61
670.89	1288.10
671.22	1249.68
671.55	1267.76
671.88	1211.27
672.21	1292.62
672.54	1364.94
672.87	1267.76
673.20	1204.49
673.53	1231.61
673.86	1265.50
674.19	1297.14
674.52	1358.16
674.85	1258.72
675.18	1247.42
675.51	1270.02
675.84	1236.13
676.17	1270.02
676.50	1240.65
676.83	1199.97
677.16	1224.83
677.49	1292.62
677.82	1240.65
678.15	1267.76
678.48	1204.49
678.81	1238.39
679.14	1324.26
679.47	1254.20
679.80	1247.42
680.13	1236.13
680.46	1231.61
680.79	1227.09
681.12	1240.65
681.45	1172.85
681.78	1222.57
682.11	1231.61
682.44	1227.09
682.77	1247.42
683.09	1220.31
683.42	1190.93
683.75	1179.63
684.08	1218.05
684.41	1220.31
684.74	1177.37
685.07	1229.35
685.40	1242.91
685.72	1220.31
686.05	1195.45
686.38	1265.50
686.71	1233.87
687.04	1199.97
687.37	1229.35
687.70	1231.61
688.02	1179.63
688.35	1175.11
688.68	1204.49
689.01	1238.39
689.34	1242.91
689.67	1188.67
689.99	1211.27
690.32	1224.83
690.65	1197.71
690.98	1204.49
691.30	1193.19
691.63	1166.07
691.96	1272.28
692.29	1154.77
692.62	1190.93
692.94	1175.11
693.27	1116.35
693.60	1170.59
693.93	1206.75
694.25	1123.13
694.58	1211.27
694.91	1184.15
695.24	1111.84
695.56	1157.03
695.89	1175.11
696.22	1218.05
696.54	1159.29
696.87	1166.07
697.20	1123.13
697.53	1215.79
697.85	1238.39
698.18	1154.77
698.51	1120.87
698.83	1134.43
699.16	1154.77
699.49	1209.01
699.81	1206.75
700.14	1123.13
700.47	1172.85
700.79	1197.71
701.12	1179.63
701.45	1202.23
701.77	1138.95
702.10	1177.37
702.42	1206.75
702.75	1220.31
703.08	1145.73
703.40	1199.97
703.73	1199.97
704.05	1145.73
704.38	1152.51
704.71	1188.67
705.03	1163.81
705.36	1134.43
705.68	1154.77
706.01	1111.84
706.34	1170.59
706.66	1080.20
706.99	1152.51
707.31	1134.43
707.64	1132.17
707.96	1138.95
708.29	1168.33
708.61	1147.99
708.94	1075.68
709.26	1202.23
709.59	1102.80
709.92	1075.68
710.24	1147.99
710.57	1093.76
710.89	1229.35
711.22	1116.35
711.54	1154.77
711.87	1145.73
712.19	1127.65
712.51	1138.95
712.84	1147.99
713.16	1143.47
713.49	1195.45
713.81	1206.75
714.14	1100.54
714.46	1107.32
714.79	1116.35
715.11	1186.41
715.44	1107.32
715.76	1086.98
716.08	1068.90
716.41	1098.28
716.73	1129.91
717.06	1145.73
717.38	1118.61
717.70	1102.80
718.03	1159.29
718.35	1118.61
718.68	1080.20
719.00	1125.39
719.32	1120.87
719.65	1209.01
719.97	1147.99
720.29	1086.98
720.62	1123.13
720.94	1138.95
721.27	1062.12
721.59	1116.35
721.91	1195.45
722.24	1096.02
722.56	1116.35
722.88	1132.17
723.21	1129.91
723.53	1098.28
723.85	1118.61
724.17	1172.85
724.50	1096.02
724.82	1116.35
725.14	1161.55
725.47	1150.25
725.79	1136.69
726.11	1091.50
726.43	1084.72
726.76	1100.54
727.08	1111.84
727.40	1179.63
727.72	1184.15
728.05	1105.06
728.37	1084.72
728.69	1080.20
729.01	1114.10
729.34	1123.13
729.66	1107.32
729.98	1071.16
730.30	1166.07
730.62	1073.42
730.95	1143.47
731.27	1159.29
731.59	1111.84
731.91	1125.39
732.23	1107.32
732.56	1138.95
732.88	1123.13
733.20	1152.51
733.52	1118.61
733.84	1161.55
734.16	1114.10
734.49	1109.58
734.81	1105.06
735.13	1053.08
735.45	1161.55
735.77	1118.61
736.09	1091.50
736.41	1132.17
736.73	1105.06
737.06	1111.84
737.38	1132.17
737.70	1100.54
738.02	1080.20
738.34	1145.73
738.66	1111.84
738.98	1084.72
739.30	1150.25
739.62	1107.32
739.94	1114.10
740.26	1091.50
740.58	1100.54
740.90	1111.84
741.23	1089.24
741.55	1143.47
741.87	1123.13
742.19	1107.32
742.51	1102.80
742.83	1152.51
743.15	1152.51
743.47	1134.43
743.79	1077.94
744.11	1120.87
744.43	1086.98
744.75	1116.35
745.07	1084.72
745.39	1127.65
745.71	1143.47
746.03	1098.28
746.35	1057.60
746.67	1102.80
746.98	1055.34
747.30	1123.13
747.62	1186.41
747.94	1127.65
748.26	1123.13
748.58	1123.13
748.90	1154.77
749.22	1091.50
749.54	1129.91
749.86	1136.69
750.18	1206.75
750.50	1107.32
750.82	1084.72
751.13	1147.99
751.45	1109.58
751.77	1134.43
752.09	1147.99
752.41	1084.72
752.73	1127.65
753.05	1159.29
753.36	1062.12
753.68	1105.06
754.00	1138.95
754.32	1120.87
754.64	1166.07
754.96	1143.47
755.28	1073.42
755.59	1116.35
755.91	1132.17
756.23	1071.16
756.55	1098.28
756.87	1116.35
757.18	1143.47
757.50	1184.15
757.82	1084.72
758.14	1073.42
758.45	1107.32
758.77	1141.21
759.09	1057.60
759.41	1075.68
759.73	1098.28
760.04	1039.52
760.36	1050.82
760.68	1102.80
760.99	1075.68
761.31	1132.17
761.63	1057.60
761.95	1100.54
762.26	1143.47
762.58	1102.80
762.90	1109.58
763.21	1089.24
763.53	1057.60
763.85	1107.32
764.17	1170.59
764.48	1105.06
764.80	1084.72
765.12	1150.25
765.43	1154.77
765.75	1123.13
766.07	1082.46
766.38	1127.65
766.70	1105.06
767.01	1120.87
767.33	1168.33
767.65	1080.20
767.96	1077.94
768.28	1093.76
768.60	1111.84
768.91	1150.25
769.23	1080.20
769.54	1041.78
769.86	1086.98
770.18	1114.10
770.49	1082.46
770.81	1111.84
771.12	1109.58
771.44	1100.54
771.75	1111.84
772.07	1134.43
772.38	1147.99
772.70	1089.24
773.02	1145.73
773.33	1166.07
773.65	1053.08
773.96	1141.21
774.28	1089.24
774.59	1068.90
774.91	1147.99
775.22	1118.61
775.54	1077.94
775.85	1082.46
776.17	1068.90
776.48	1064.38
776.80	1138.95
777.11	1086.98
777.43	1120.87
777.74	1116.35
778.05	1120.87
778.37	1093.76
778.68	1062.12
779.00	1129.91
779.31	1177.37
779.63	1086.98
779.94	1116.35
780.26	1046.30
780.57	1080.20
780.88	1093.76
781.20	1039.52
781.51	1147.99
781.83	1062.12
782.14	1075.68
782.45	1129.91
782.77	1123.13
783.08	1062.12
783.39	1071.16
783.71	1096.02
784.02	1091.50
784.34	1035.00
784.65	1096.02
784.96	1096.02
785.28	1053.08
785.59	1080.20
785.90	1077.94
786.22	1035.00
786.53	1055.34
786.84	1105.06
787.15	1102.80
787.47	1091.50
787.78	1188.67
788.09	1138.95
788.41	1050.82
788.72	1010.14
789.03	1098.28
789.35	1098.28
789.66	1107.32
789.97	1068.90
790.28	1084.72
790.60	1107.32
790.91	1066.64
791.22	1111.84
791.53	1039.52
791.84	1073.42
792.16	1086.98
792.47	1157.03
792.78	1138.95
793.09	1118.61
793.41	1073.42
793.72	1109.58
794.03	1075.68
794.34	1127.65
794.65	1102.80
794.96	1059.86
795.28	1147.99
795.59	1127.65
795.90	1107.32
796.21	1116.35
796.52	1125.39
796.83	1102.80
797.15	1086.98
797.46	1143.47
797.77	1152.51
798.08	1118.61
798.39	1116.35
798.70	1098.28
799.01	1089.24
799.32	1100.54
799.63	1098.28
799.95	1170.59
800.26	1064.38
800.57	1132.17
800.88	1111.84
801.19	1073.42
801.50	1109.58
801.81	1041.78
802.12	1116.35
802.43	1066.64
802.74	1138.95
803.05	1100.54
803.36	1132.17
803.67	1096.02
803.98	1134.43
804.29	1077.94
804.60	1138.95
804.91	1116.35
805.22	1138.95
805.53	1123.13
805.84	1109.58
806.15	1120.87
806.46	1093.76
806.77	1084.72
807.08	1089.24
807.39	1062.12
807.70	1086.98
808.01	1089.24
808.32	1129.91
808.63	1125.39
808.94	1114.10
809.25	1143.47
809.56	1091.50
809.87	1111.84
810.18	1053.08
810.49	1125.39
810.79	1025.96
811.10	1066.64
811.41	1111.84
811.72	1050.82
812.03	1044.04
812.34	1157.03
812.65	1102.80
812.96	1111.84
813.27	1075.68
813.57	1102.80
813.88	1179.63
814.19	1111.84
814.50	1111.84
814.81	1075.68
815.12	1071.16
815.42	1093.76
815.73	1082.46
816.04	1102.80
816.35	1109.58
816.66	1080.20
816.97	1102.80
817.27	1127.65
817.58	1066.64
817.89	1084.72
818.20	1035.00
818.50	1073.42
818.81	1091.50
819.12	1145.73
819.43	1141.21
819.73	1129.91
820.04	1123.13
820.35	1116.35
820.66	1132.17
820.96	1080.20
821.27	1068.90
821.58	1172.85
821.89	1093.76
822.19	1102.80
822.50	1046.30
822.81	1055.34
823.11	1132.17
823.42	1075.68
823.73	1073.42
824.03	1096.02
824.34	1109.58
824.65	1086.98
824.95	1048.56
825.26	1150.25
825.57	1073.42
825.87	1134.43
826.18	1102.80
826.49	1086.98
826.79	1179.63
827.10	1082.46
827.40	1145.73
827.71	1086.98
828.02	1080.20
828.32	1071.16
828.63	1062.12
828.93	1129.91
829.24	1105.06
829.55	1100.54
829.85	1037.26
830.16	1071.16
830.46	1150.25
830.77	1082.46
831.07	1096.02
831.38	1098.28
831.69	1089.24
831.99	1010.14
832.30	1102.80
832.60	1102.80
832.91	1129.91
833.21	1143.47
833.52	1059.86
833.82	1107.32
834.13	1111.84
834.43	1159.29
834.74	1093.76
835.04	1127.65
835.35	1109.58
835.65	1093.76
835.96	1109.58
836.26	1059.86
836.56	1075.68
836.87	1145.73
837.17	1118.61
837.48	1107.32
837.78	1125.39
838.09	1098.28
838.39	1114.10
838.69	1086.98
839.00	1109.58
839.30	1114.10
839.61	1084.72
839.91	1098.28
840.21	1100.54
840.52	1080.20
840.82	1118.61
841.13	1102.80
841.43	1053.08
841.73	1150.25
842.04	1127.65
842.34	1141.21
842.64	1096.02
842.95	1163.81
843.25	1109.58
843.55	1120.87
843.86	1181.89
844.16	1161.55
844.46	1096.02
844.77	1100.54
845.07	1134.43
845.37	1073.42
845.68	1129.91
845.98	1134.43
846.28	1102.80
846.58	1125.39
846.89	1062.12
847.19	1071.16
847.49	1129.91
847.79	1062.12
848.10	1062.12
848.40	1080.20
848.70	1057.60
849.00	1150.25
849.31	1071.16
849.61	1077.94
849.91	1125.39
850.21	1123.13
850.51	1111.84
850.82	1161.55
851.12	1159.29
851.42	1064.38
851.72	1062.12
852.02	1064.38
852.32	1116.35
852.63	1127.65
852.93	1057.60
853.23	1134.43
853.53	1154.77
853.83	1136.69
854.13	1064.38
854.43	1077.94
854.74	1044.04
855.04	1102.80
855.34	1159.29
855.64	1141.21
855.94	1118.61
856.24	1136.69
856.54	1105.06
856.84	1145.73
857.14	1073.42
857.44	1023.70
857.74	1125.39
858.05	1064.38
858.35	1134.43
858.65	1102.80
858.95	1105.06
859.25	1120.87
859.55	1118.61
859.85	1111.84
860.15	1109.58
860.45	1152.51
860.75	1152.51
861.05	1075.68
861.35	1048.56
861.65	1125.39
861.95	1157.03
862.25	1077.94
862.55	1100.54
862.85	1109.58
863.15	1177.37
863.45	1062.12
863.75	1030.48
864.05	1082.46
864.35	1021.44
864.64	1048.56
864.94	1105.06
865.24	1077.94
865.54	1068.90
865.84	1037.26
866.14	1154.77
866.44	1066.64
866.74	1077.94
867.04	1114.10
867.34	1091.50
867.64	1134.43
867.93	1057.60
868.23	1080.20
868.53	1055.34
868.83	1066.64
869.13	1080.20
869.43	1068.90
869.73	1096.02
870.02	1136.69
870.32	1134.43
870.62	1044.04
870.92	1091.50
871.22	1066.64
871.51	1077.94
871.81	1141.21
872.11	1035.00
872.41	1118.61
872.71	1091.50
873.00	1050.82
873.30	1141.21
873.60	1055.34
873.90	1032.74
874.19	1080.20
874.49	1021.44
874.79	1066.64
875.09	1132.17
875.38	1116.35
875.68	1147.99
875.98	1039.52
876.28	1105.06
876.57	1089.24
876.87	1089.24
877.17	1089.24
