174.03	833.88
174.41	833.88
174.78	833.88
175.16	865.51
175.54	763.82
175.92	768.34
176.30	802.24
176.67	759.30
177.05	809.02
177.43	804.50
177.81	854.21
178.19	851.96
178.56	856.47
178.94	840.66
179.32	858.73
179.70	865.51
180.08	964.95
180.45	1019.18
180.83	1021.44
181.21	978.51
181.59	1086.98
181.96	1048.56
182.34	1019.18
182.72	1075.68
183.10	1053.08
183.48	1102.80
183.85	1157.03
184.23	1127.65
184.61	1048.56
184.99	1132.17
185.36	1129.91
185.74	1202.23
186.12	1159.29
186.50	1159.29
186.87	1116.35
187.25	1175.11
187.63	1229.35
188.01	1229.35
188.38	1175.11
188.76	1134.43
189.14	1159.29
189.52	1190.93
189.89	1172.85
190.27	1179.63
190.65	1150.25
191.02	1107.32
191.40	1204.49
191.78	1138.95
192.16	1175.11
192.53	1136.69
192.91	1218.05
193.29	1154.77
193.66	1218.05
194.04	1202.23
194.42	1138.95
194.79	1120.87
195.17	1168.33
195.55	1186.41
195.93	1163.81
196.30	1143.47
196.68	1197.71
197.06	1102.80
197.43	1222.57
197.81	1120.87
198.19	1190.93
198.56	1116.35
198.94	1098.28
199.32	1066.64
199.69	1199.97
200.07	1127.65
200.45	1166.07
200.82	1177.37
201.20	1091.50
201.58	1129.91
201.95	1193.19
202.33	1188.67
202.71	1195.45
203.08	1166.07
203.46	1218.05
203.84	1150.25
204.21	1129.91
204.59	1141.21
204.96	1184.15
205.34	1177.37
205.72	1125.39
206.09	1181.89
206.47	1143.47
206.85	1222.57
207.22	1159.29
207.60	1170.59
207.97	1152.51
208.35	1154.77
208.73	1147.99
209.10	1215.79
209.48	1125.39
209.85	1166.07
210.23	1150.25
210.61	1193.19
210.98	1147.99
211.36	1127.65
211.73	1157.03
212.11	1195.45
212.49	1181.89
212.86	1152.51
213.24	1136.69
213.61	1154.77
213.99	1147.99
214.37	1152.51
214.74	1118.61
215.12	1220.31
215.49	1172.85
215.87	1202.23
216.24	1175.11
216.62	1152.51
216.99	1170.59
217.37	1161.55
217.75	1188.67
218.12	1134.43
218.50	1163.81
218.87	1111.84
219.25	1134.43
219.62	1172.85
220.00	1172.85
220.37	1152.51
220.75	1166.07
221.12	1166.07
221.50	1195.45
221.87	1177.37
222.25	1181.89
222.63	1163.81
223.00	1154.77
223.38	1202.23
223.75	1170.59
224.13	1193.19
224.50	1186.41
224.88	1179.63
225.25	1138.95
225.63	1100.54
226.00	1218.05
226.38	1211.27
226.75	1215.79
227.13	1143.47
227.50	1190.93
227.88	1152.51
228.25	1222.57
228.63	1134.43
229.00	1168.33
229.37	1154.77
229.75	1199.97
230.12	1179.63
230.50	1206.75
230.87	1091.50
231.25	1159.29
231.62	1111.84
232.00	1179.63
232.37	1186.41
232.75	1157.03
233.12	1177.37
233.50	1172.85
233.87	1179.63
234.24	1172.85
234.62	1251.94
234.99	1159.29
235.37	1172.85
235.74	1229.35
236.12	1202.23
236.49	1240.65
236.86	1213.53
237.24	1181.89
237.61	1168.33
237.99	1204.49
238.36	1157.03
238.74	1204.49
239.11	1229.35
239.48	1179.63
239.86	1215.79
240.23	1150.25
240.61	1211.27
240.98	1127.65
241.35	1195.45
241.73	1159.29
242.10	1202.23
242.48	1161.55
242.85	1213.53
243.22	1166.07
243.60	1154.77
243.97	1224.83
244.34	1138.95
244.72	1213.53
245.09	1161.55
245.47	1179.63
245.84	1111.84
246.21	1159.29
246.59	1163.81
246.96	1195.45
247.33	1190.93
247.71	1209.01
248.08	1199.97
248.45	1220.31
248.83	1181.89
249.20	1157.03
249.57	1150.25
249.95	1132.17
250.32	1177.37
250.69	1184.15
251.07	1168.33
251.44	1202.23
251.81	1172.85
252.19	1127.65
252.56	1118.61
252.93	1163.81
253.31	1152.51
253.68	1132.17
254.05	1138.95
254.43	1186.41
254.80	1181.89
255.17	1179.63
255.55	1204.49
255.92	1161.55
256.29	1188.67
256.66	1150.25
257.04	1206.75
257.41	1172.85
257.78	1168.33
258.16	1204.49
258.53	1159.29
258.90	1220.31
259.27	1145.73
259.65	1197.71
260.02	1184.15
260.39	1195.45
260.76	1247.42
261.14	1175.11
261.51	1161.55
261.88	1188.67
262.25	1211.27
262.63	1150.25
263.00	1206.75
263.37	1224.83
263.74	1209.01
264.12	1166.07
264.49	1177.37
264.86	1227.09
265.23	1129.91
265.61	1297.14
265.98	1190.93
266.35	1204.49
266.72	1204.49
267.09	1193.19
267.47	1147.99
267.84	1202.23
268.21	1202.23
268.58	1166.07
268.95	1129.91
269.33	1211.27
269.70	1193.19
270.07	1233.87
270.44	1147.99
270.81	1179.63
271.19	1179.63
271.56	1175.11
271.93	1229.35
272.30	1195.45
272.67	1245.16
273.05	1116.35
273.42	1157.03
273.79	1127.65
274.16	1159.29
274.53	1249.68
274.90	1172.85
275.28	1227.09
275.65	1175.11
276.02	1175.11
276.39	1236.13
276.76	1179.63
277.13	1283.58
277.50	1195.45
277.88	1175.11
278.25	1213.53
278.62	1177.37
278.99	1163.81
279.36	1175.11
279.73	1206.75
280.10	1227.09
280.47	1193.19
280.85	1175.11
281.22	1134.43
281.59	1209.01
281.96	1197.71
282.33	1251.94
282.70	1215.79
283.07	1168.33
283.44	1157.03
283.81	1127.65
284.18	1193.19
284.56	1202.23
284.93	1209.01
285.30	1179.63
285.67	1233.87
286.04	1202.23
286.41	1197.71
286.78	1206.75
287.15	1193.19
287.52	1188.67
287.89	1195.45
288.26	1213.53
288.63	1175.11
289.00	1175.11
289.37	1177.37
289.75	1224.83
290.12	1170.59
290.49	1172.85
290.86	1123.13
291.23	1157.03
291.60	1206.75
291.97	1211.27
292.34	1152.51
292.71	1222.57
293.08	1218.05
293.45	1206.75
293.82	1233.87
294.19	1222.57
294.56	1209.01
294.93	1177.37
295.30	1199.97
295.67	1236.13
296.04	1141.21
296.41	1249.68
296.78	1215.79
297.15	1258.72
297.52	1224.83
297.89	1147.99
298.26	1249.68
298.63	1175.11
299.00	1175.11
299.37	1177.37
299.74	1213.53
300.11	1209.01
300.48	1202.23
300.85	1220.31
301.22	1224.83
301.59	1152.51
301.96	1197.71
302.33	1245.16
302.70	1168.33
303.07	1215.79
303.43	1242.91
303.80	1220.31
304.17	1270.02
304.54	1251.94
304.91	1204.49
305.28	1186.41
305.65	1251.94
306.02	1220.31
306.39	1281.32
306.76	1170.59
307.13	1288.10
307.50	1184.15
307.87	1186.41
308.24	1172.85
308.60	1190.93
308.97	1227.09
309.34	1163.81
309.71	1218.05
310.08	1254.20
310.45	1281.32
310.82	1193.19
311.19	1270.02
311.56	1204.49
311.92	1231.61
312.29	1256.46
312.66	1279.06
313.03	1276.80
313.40	1195.45
313.77	1193.19
314.14	1202.23
314.51	1254.20
314.87	1206.75
315.24	1231.61
315.61	1218.05
315.98	1206.75
316.35	1199.97
316.72	1218.05
317.09	1213.53
317.45	1238.39
317.82	1242.91
318.19	1184.15
318.56	1220.31
318.93	1288.10
319.30	1224.83
319.66	1249.68
320.03	1272.28
320.40	1211.27
320.77	1204.49
321.14	1238.39
321.50	1195.45
321.87	1202.23
322.24	1270.02
322.61	1249.68
322.98	1211.27
323.34	1218.05
323.71	1166.07
324.08	1285.84
324.45	1175.11
324.82	1247.42
325.18	1213.53
325.55	1184.15
325.92	1195.45
326.29	1222.57
326.65	1274.54
327.02	1188.67
327.39	1267.76
327.76	1190.93
328.12	1285.84
328.49	1199.97
328.86	1211.27
329.23	1211.27
329.59	1179.63
329.96	1172.85
330.33	1168.33
330.70	1288.10
331.06	1267.76
331.43	1224.83
331.80	1211.27
332.17	1224.83
332.53	1322.00
332.90	1236.13
333.27	1213.53
333.63	1288.10
334.00	1254.20
334.37	1190.93
334.74	1222.57
335.10	1231.61
335.47	1213.53
335.84	1276.80
336.20	1242.91
336.57	1209.01
336.94	1236.13
337.30	1272.28
337.67	1175.11
338.04	1175.11
338.40	1288.10
338.77	1317.48
339.14	1242.91
339.50	1251.94
339.87	1215.79
340.24	1215.79
340.60	1170.59
340.97	1254.20
341.34	1249.68
341.70	1197.71
342.07	1168.33
342.44	1263.24
342.80	1238.39
343.17	1229.35
343.53	1247.42
343.90	1249.68
344.27	1249.68
344.63	1213.53
345.00	1260.98
345.37	1251.94
345.73	1263.24
346.10	1285.84
346.46	1231.61
346.83	1240.65
347.20	1224.83
347.56	1224.83
347.93	1279.06
348.29	1238.39
348.66	1166.07
349.03	1197.71
349.39	1324.26
349.76	1197.71
350.12	1292.62
350.49	1247.42
350.85	1186.41
351.22	1283.58
351.59	1294.88
351.95	1247.42
352.32	1222.57
352.68	1231.61
353.05	1249.68
353.41	1247.42
353.78	1326.52
354.14	1224.83
354.51	1290.36
354.88	1233.87
355.24	1310.70
355.61	1254.20
355.97	1292.62
356.34	1279.06
356.70	1274.54
357.07	1215.79
357.43	1312.96
357.80	1267.76
358.16	1288.10
358.53	1292.62
358.89	1267.76
359.26	1290.36
359.62	1265.50
359.99	1199.97
360.35	1270.02
360.72	1292.62
361.08	1324.26
361.45	1288.10
361.81	1303.92
362.18	1301.66
362.54	1349.12
362.91	1281.32
363.27	1310.70
363.63	1355.90
364.00	1265.50
364.36	1279.06
364.73	1324.26
365.09	1398.83
365.46	1335.56
365.82	1254.20
366.19	1247.42
366.55	1312.96
366.91	1297.14
367.28	1342.34
367.64	1274.54
368.01	1342.34
368.37	1294.88
368.74	1398.83
369.10	1340.08
369.46	1351.38
369.83	1351.38
370.19	1312.96
370.56	1351.38
370.92	1290.36
371.28	1285.84
371.65	1373.98
372.01	1333.30
372.38	1378.49
372.74	1414.65
373.10	1432.73
373.47	1453.07
373.83	1376.24
374.19	1430.47
374.56	1401.09
374.92	1448.55
375.29	1471.15
375.65	1489.23
376.01	1462.11
376.38	1489.23
376.74	1484.71
377.10	1514.08
377.47	1473.41
377.83	1516.34
378.19	1541.20
378.56	1599.96
378.92	1572.84
379.28	1638.38
379.65	1597.70
380.01	1658.71
380.37	1710.69
380.74	1719.73
381.10	1717.47
381.46	1778.48
381.83	1864.36
382.19	1959.27
382.55	2015.77
382.91	1898.26
383.28	2146.84
383.64	2275.65
384.00	2223.67
384.37	2492.59
384.73	2488.07
385.09	2684.68
385.45	2707.27
385.82	2874.50
386.18	3105.00
386.54	3319.69
386.91	3536.63
387.27	3692.56
387.63	4027.01
387.99	4144.52
388.36	4637.17
388.72	4942.24
389.08	5283.48
389.44	5850.69
389.80	6117.35
390.17	6429.21
390.53	7057.44
390.89	7800.92
391.25	8196.39
391.62	8580.57
391.98	9425.74
392.34	10578.25
392.70	11061.86
393.06	11843.76
393.43	12786.10
393.79	13613.20
394.15	14157.82
394.51	15152.14
394.87	16392.79
395.24	17500.10
395.60	18957.69
395.96	20557.65
396.32	21902.25
396.68	23398.25
397.04	25346.23
397.41	28064.80
397.77	29384.54
398.13	32010.46
398.49	33931.31
398.85	36048.77
399.21	39885.96
399.58	42690.40
399.94	45135.54
400.30	49248.42
400.66	50999.79
401.02	53514.98
401.38	55991.75
401.74	57413.18
402.11	59376.97
402.47	60854.90
402.83	61930.58
403.19	63392.68
403.55	64504.52
403.91	65535.00
404.27	65535.00
404.63	65535.00
404.99	65535.00
405.35	65535.00
405.72	65535.00
406.08	65535.00
406.44	65535.00
406.80	65535.00
407.16	65535.00
407.52	65535.00
407.88	65535.00
408.24	65535.00
408.60	65535.00
408.96	65535.00
409.32	65535.00
409.68	65535.00
410.04	65535.00
410.40	65535.00
410.76	65535.00
411.13	64384.75
411.49	63785.89
411.85	62210.79
412.21	60633.43
412.57	59550.98
412.93	58341.97
413.29	56841.44
413.65	55051.66
414.01	52981.66
414.37	50179.47
414.73	48636.01
415.09	46145.68
415.45	44891.48
415.81	42523.18
416.17	40263.35
416.53	38769.60
416.89	37251.00
417.25	35056.71
417.61	33226.24
417.97	32272.60
418.33	30555.13
418.69	29933.68
419.05	28851.22
419.41	27655.77
419.77	27273.86
420.12	25617.41
420.48	24182.42
420.84	23678.47
421.20	22211.85
421.56	21165.55
421.92	20905.66
422.28	19561.07
422.64	18559.96
423.00	17624.40
423.36	17007.46
423.72	15995.06
424.08	14786.05
424.44	14114.88
424.80	13714.89
425.16	13172.54
425.51	12424.53
425.87	12166.91
426.23	10969.20
426.59	10327.41
426.95	10225.72
427.31	9832.51
427.67	9529.69
428.03	8736.49
428.39	8691.30
428.74	7900.36
429.10	7699.23
429.46	7326.36
429.82	6894.73
430.18	6756.88
430.54	6641.63
430.90	6594.18
431.26	6015.66
431.61	5692.51
431.97	5683.47
432.33	5500.42
432.69	5502.68
433.05	5050.71
433.41	4802.13
433.76	4845.07
434.12	4652.98
434.48	4612.31
434.84	4384.07
435.20	4173.90
435.55	4033.79
435.91	4067.69
436.27	3807.81
436.63	3749.05
436.99	3660.92
437.34	3455.28
437.70	3464.32
438.06	3308.39
438.42	3156.98
438.78	3161.50
439.13	3175.06
439.49	2973.93
439.85	2949.08
440.21	2795.41
440.56	2804.45
440.92	2772.81
441.28	2630.44
441.64	2560.38
441.99	2451.91
442.35	2442.87
442.71	2375.08
443.07	2354.74
443.42	2293.72
443.78	2228.19
444.14	2246.27
444.50	2092.60
444.85	2074.52
445.21	2106.16
445.57	2117.46
445.93	2018.03
446.28	2038.36
446.64	1918.59
447.00	1936.67
447.35	1957.01
447.71	1918.59
448.07	1884.70
448.42	1839.50
448.78	1796.56
449.14	1882.44
449.49	1801.08
449.85	1780.74
450.21	1744.59
450.56	1737.81
450.92	1670.01
451.28	1681.31
451.63	1690.35
451.99	1595.44
452.35	1681.31
452.70	1611.26
453.06	1581.88
453.42	1620.30
453.77	1550.24
454.13	1509.56
454.49	1588.66
454.84	1496.01
455.20	1507.30
455.55	1520.86
455.91	1509.56
456.27	1550.24
456.62	1516.34
456.98	1416.91
457.33	1403.35
457.69	1387.53
458.05	1425.95
458.40	1423.69
458.76	1358.16
459.11	1403.35
459.47	1371.72
459.83	1403.35
460.18	1355.90
460.54	1364.94
460.89	1380.75
461.25	1358.16
461.60	1419.17
461.96	1308.44
462.31	1394.31
462.67	1335.56
463.03	1376.24
463.38	1276.80
463.74	1360.42
464.09	1301.66
464.45	1369.46
464.80	1358.16
465.16	1331.04
465.51	1258.72
465.87	1419.17
466.22	1319.74
466.58	1285.84
466.93	1349.12
467.29	1218.05
467.64	1346.86
468.00	1306.18
468.35	1231.61
468.71	1285.84
469.06	1324.26
469.42	1299.40
469.77	1276.80
470.13	1315.22
470.48	1322.00
470.84	1308.44
471.19	1240.65
471.54	1279.06
471.90	1301.66
472.25	1299.40
472.61	1231.61
472.96	1292.62
473.32	1279.06
473.67	1276.80
474.03	1202.23
474.38	1312.96
474.73	1274.54
475.09	1251.94
475.44	1251.94
475.80	1301.66
476.15	1260.98
476.50	1242.91
476.86	1292.62
477.21	1222.57
477.57	1260.98
477.92	1285.84
478.27	1272.28
478.63	1263.24
478.98	1281.32
479.34	1206.75
479.69	1274.54
480.04	1213.53
480.40	1267.76
480.75	1260.98
481.10	1308.44
481.46	1245.16
481.81	1267.76
482.16	1299.40
482.52	1231.61
482.87	1247.42
483.22	1206.75
483.58	1288.10
483.93	1231.61
484.28	1240.65
484.64	1190.93
484.99	1218.05
485.34	1199.97
485.70	1270.02
486.05	1224.83
486.40	1206.75
486.76	1213.53
487.11	1236.13
487.46	1197.71
487.81	1279.06
488.17	1233.87
488.52	1306.18
488.87	1256.46
489.23	1233.87
489.58	1181.89
489.93	1218.05
490.28	1247.42
490.64	1168.33
490.99	1179.63
491.34	1270.02
491.69	1254.20
492.05	1202.23
492.40	1263.24
492.75	1281.32
493.10	1179.63
493.46	1227.09
493.81	1274.54
494.16	1242.91
494.51	1229.35
494.86	1238.39
495.22	1274.54
495.57	1220.31
495.92	1267.76
496.27	1233.87
496.62	1224.83
496.98	1229.35
497.33	1251.94
497.68	1251.94
498.03	1206.75
498.38	1227.09
498.74	1202.23
499.09	1224.83
499.44	1127.65
499.79	1152.51
500.14	1177.37
500.49	1213.53
500.85	1125.39
501.20	1227.09
501.55	1260.98
501.90	1249.68
502.25	1170.59
502.60	1229.35
502.95	1215.79
503.30	1134.43
503.66	1211.27
504.01	1179.63
504.36	1247.42
504.71	1249.68
505.06	1220.31
505.41	1188.67
505.76	1204.49
506.11	1195.45
506.46	1179.63
506.82	1236.13
507.17	1218.05
507.52	1211.27
507.87	1258.72
508.22	1211.27
508.57	1240.65
508.92	1233.87
509.27	1175.11
509.62	1202.23
509.97	1245.16
510.32	1229.35
510.67	1199.97
511.02	1224.83
511.37	1272.28
511.72	1254.20
512.07	1263.24
512.42	1215.79
512.77	1270.02
513.12	1222.57
513.47	1242.91
513.82	1209.01
514.17	1263.24
514.52	1218.05
514.87	1240.65
515.22	1222.57
515.57	1229.35
515.92	1229.35
516.27	1231.61
516.62	1215.79
516.97	1256.46
517.32	1260.98
517.67	1294.88
518.02	1260.98
518.37	1256.46
518.72	1303.92
519.07	1215.79
519.42	1240.65
519.77	1218.05
520.12	1251.94
520.47	1263.24
520.82	1236.13
521.17	1256.46
521.52	1265.50
521.87	1265.50
522.22	1240.65
522.56	1229.35
522.91	1294.88
523.26	1256.46
523.61	1236.13
523.96	1240.65
524.31	1272.28
524.66	1224.83
525.01	1213.53
525.36	1233.87
525.71	1222.57
526.05	1245.16
526.40	1236.13
526.75	1274.54
527.10	1215.79
527.45	1231.61
527.80	1288.10
528.15	1279.06
528.49	1211.27
528.84	1297.14
529.19	1279.06
529.54	1263.24
529.89	1272.28
530.24	1218.05
530.58	1211.27
530.93	1240.65
531.28	1270.02
531.63	1272.28
531.98	1274.54
532.33	1193.19
532.67	1340.08
533.02	1242.91
533.37	1240.65
533.72	1251.94
534.07	1220.31
534.41	1238.39
534.76	1279.06
535.11	1190.93
535.46	1272.28
535.80	1222.57
536.15	1224.83
536.50	1312.96
536.85	1242.91
537.19	1204.49
537.54	1240.65
537.89	1233.87
538.24	1218.05
538.58	1270.02
538.93	1240.65
539.28	1222.57
539.63	1233.87
539.97	1263.24
540.32	1168.33
540.67	1263.24
541.01	1215.79
541.36	1215.79
541.71	1224.83
542.06	1292.62
542.40	1245.16
542.75	1281.32
543.10	1256.46
543.44	1233.87
543.79	1279.06
544.14	1233.87
544.48	1274.54
544.83	1206.75
545.18	1245.16
545.52	1260.98
545.87	1209.01
546.22	1224.83
546.56	1274.54
546.91	1242.91
547.25	1204.49
547.60	1267.76
547.95	1260.98
548.29	1251.94
548.64	1231.61
548.99	1240.65
549.33	1236.13
549.68	1209.01
550.02	1263.24
550.37	1227.09
550.72	1175.11
551.06	1260.98
551.41	1218.05
551.75	1218.05
552.10	1260.98
552.45	1247.42
552.79	1249.68
553.14	1181.89
553.48	1199.97
553.83	1247.42
554.17	1238.39
554.52	1267.76
554.87	1254.20
555.21	1193.19
555.56	1193.19
555.90	1256.46
556.25	1218.05
556.59	1211.27
556.94	1247.42
557.28	1188.67
557.63	1315.22
557.97	1186.41
558.32	1184.15
558.66	1247.42
559.01	1229.35
559.35	1220.31
559.70	1211.27
560.04	1283.58
560.39	1220.31
560.73	1224.83
561.08	1179.63
561.42	1195.45
561.77	1256.46
562.11	1227.09
562.46	1238.39
562.80	1231.61
563.14	1297.14
563.49	1218.05
563.83	1245.16
564.18	1231.61
564.52	1231.61
564.87	1213.53
565.21	1188.67
565.56	1236.13
565.90	1258.72
566.24	1195.45
566.59	1186.41
566.93	1242.91
567.28	1177.37
567.62	1166.07
567.96	1236.13
568.31	1218.05
568.65	1240.65
569.00	1193.19
569.34	1170.59
569.68	1227.09
570.03	1190.93
570.37	1254.20
570.71	1283.58
571.06	1188.67
571.40	1220.31
571.74	1163.81
572.09	1166.07
572.43	1193.19
572.78	1224.83
573.12	1276.80
573.46	1195.45
573.80	1179.63
574.15	1204.49
574.49	1227.09
574.83	1233.87
575.18	1168.33
575.52	1206.75
575.86	1260.98
576.21	1247.42
576.55	1134.43
576.89	1204.49
577.24	1199.97
577.58	1256.46
577.92	1184.15
578.26	1199.97
578.61	1175.11
578.95	1197.71
579.29	1199.97
579.63	1209.01
579.98	1199.97
580.32	1206.75
580.66	1147.99
581.00	1224.83
581.35	1202.23
581.69	1270.02
582.03	1141.21
582.37	1120.87
582.72	1172.85
583.06	1175.11
583.40	1263.24
583.74	1254.20
584.08	1267.76
584.43	1222.57
584.77	1181.89
585.11	1211.27
585.45	1213.53
585.79	1179.63
586.13	1199.97
586.48	1222.57
586.82	1265.50
587.16	1258.72
587.50	1263.24
587.84	1193.19
588.18	1209.01
588.53	1184.15
588.87	1251.94
589.21	1150.25
589.55	1204.49
589.89	1190.93
590.23	1127.65
590.57	1172.85
590.92	1227.09
591.26	1179.63
591.60	1166.07
591.94	1215.79
592.28	1114.10
592.62	1175.11
592.96	1220.31
593.30	1147.99
593.64	1170.59
593.98	1231.61
594.32	1168.33
594.67	1181.89
595.01	1209.01
595.35	1152.51
595.69	1249.68
596.03	1134.43
596.37	1227.09
596.71	1179.63
597.05	1184.15
597.39	1179.63
597.73	1123.13
598.07	1163.81
598.41	1152.51
598.75	1209.01
599.09	1229.35
599.43	1206.75
599.77	1181.89
600.11	1129.91
600.45	1175.11
600.79	1224.83
601.13	1231.61
601.47	1211.27
601.81	1211.27
602.15	1188.67
602.49	1236.13
602.83	1154.77
603.17	1229.35
603.51	1154.77
603.85	1129.91
604.19	1202.23
604.53	1227.09
604.87	1150.25
605.21	1179.63
605.55	1188.67
605.89	1181.89
606.23	1247.42
606.56	1222.57
606.90	1184.15
607.24	1213.53
607.58	1188.67
607.92	1181.89
608.26	1152.51
608.60	1177.37
608.94	1220.31
609.28	1199.97
609.62	1204.49
609.95	1134.43
610.29	1136.69
610.63	1179.63
610.97	1179.63
611.31	1209.01
611.65	1172.85
611.99	1267.76
612.33	1181.89
612.66	1193.19
613.00	1215.79
613.34	1236.13
613.68	1202.23
614.02	1202.23
614.36	1193.19
614.69	1245.16
615.03	1254.20
615.37	1215.79
615.71	1238.39
616.05	1206.75
616.38	1181.89
616.72	1161.55
617.06	1256.46
617.40	1190.93
617.74	1168.33
618.07	1265.50
618.41	1197.71
618.75	1247.42
619.09	1172.85
619.42	1195.45
619.76	1211.27
620.10	1172.85
620.44	1215.79
620.77	1204.49
621.11	1220.31
621.45	1125.39
621.79	1177.37
622.12	1188.67
622.46	1258.72
622.80	1197.71
623.13	1242.91
623.47	1199.97
623.81	1161.55
624.15	1238.39
624.48	1177.37
624.82	1204.49
625.16	1179.63
625.49	1161.55
625.83	1224.83
626.17	1202.23
626.50	1202.23
626.84	1224.83
627.18	1127.65
627.51	1211.27
627.85	1132.17
628.19	1195.45
628.52	1159.29
628.86	1175.11
629.20	1188.67
629.53	1209.01
629.87	1159.29
630.20	1168.33
630.54	1150.25
630.88	1229.35
631.21	1242.91
631.55	1202.23
631.89	1077.94
632.22	1220.31
632.56	1118.61
632.89	1236.13
633.23	1152.51
633.56	1157.03
633.90	1172.85
634.24	1136.69
634.57	1181.89
634.91	1120.87
635.24	1134.43
635.58	1204.49
635.91	1166.07
636.25	1147.99
636.58	1163.81
636.92	1213.53
637.26	1206.75
637.59	1209.01
637.93	1209.01
638.26	1218.05
638.60	1181.89
638.93	1166.07
639.27	1116.35
639.60	1184.15
639.94	1143.47
640.27	1199.97
640.61	1136.69
640.94	1186.41
641.28	1188.67
641.61	1251.94
641.94	1209.01
642.28	1152.51
642.61	1254.20
642.95	1143.47
643.28	1184.15
643.62	1147.99
643.95	1274.54
644.29	1118.61
644.62	1236.13
644.95	1181.89
645.29	1161.55
645.62	1179.63
645.96	1224.83
646.29	1138.95
646.63	1175.11
646.96	1229.35
647.29	1163.81
647.63	1166.07
647.96	1141.21
648.29	1170.59
648.63	1193.19
648.96	1132.17
649.30	1184.15
649.63	1152.51
649.96	1170.59
650.30	1163.81
650.63	1170.59
650.96	1161.55
651.30	1125.39
651.63	1145.73
651.96	1179.63
652.30	1193.19
652.63	1195.45
652.96	1152.51
653.30	1220.31
653.63	1123.13
653.96	1181.89
654.30	1193.19
654.63	1166.07
654.96	1172.85
655.29	1161.55
655.63	1224.83
655.96	1254.20
656.29	1193.19
656.63	1213.53
656.96	1204.49
657.29	1193.19
657.62	1071.16
657.96	1166.07
658.29	1215.79
658.62	1204.49
658.95	1147.99
659.29	1193.19
659.62	1181.89
659.95	1204.49
660.28	1172.85
660.61	1195.45
660.95	1141.21
661.28	1215.79
661.61	1267.76
661.94	1166.07
662.27	1166.07
662.61	1154.77
662.94	1181.89
663.27	1170.59
663.60	1147.99
663.93	1186.41
664.27	1190.93
664.60	1179.63
664.93	1184.15
665.26	1152.51
665.59	1161.55
665.92	1134.43
666.25	1154.77
666.59	1204.49
666.92	1233.87
667.25	1184.15
667.58	1132.17
667.91	1145.73
668.24	1118.61
668.57	1127.65
668.90	1118.61
669.23	1125.39
669.57	1224.83
669.90	1134.43
670.23	1107.32
670.56	1141.21
670.89	1172.85
671.22	1166.07
671.55	1204.49
671.88	1157.03
672.21	1107.32
672.54	1175.11
672.87	1116.35
673.20	1213.53
673.53	1159.29
673.86	1195.45
674.19	1197.71
674.52	1159.29
674.85	1179.63
675.18	1168.33
675.51	1145.73
675.84	1175.11
676.17	1150.25
676.50	1213.53
676.83	1123.13
677.16	1211.27
677.49	1222.57
677.82	1220.31
678.15	1190.93
678.48	1179.63
678.81	1188.67
679.14	1186.41
679.47	1175.11
679.80	1168.33
680.13	1199.97
680.46	1163.81
680.79	1184.15
681.12	1175.11
681.45	1188.67
681.78	1127.65
682.11	1145.73
682.44	1215.79
682.77	1251.94
683.09	1193.19
683.42	1204.49
683.75	1136.69
684.08	1213.53
684.41	1143.47
684.74	1084.72
685.07	1168.33
685.40	1147.99
685.72	1181.89
686.05	1184.15
686.38	1159.29
686.71	1111.84
687.04	1195.45
687.37	1229.35
687.70	1107.32
688.02	1177.37
688.35	1197.71
688.68	1197.71
689.01	1247.42
689.34	1134.43
689.67	1184.15
689.99	1082.46
690.32	1184.15
690.65	1175.11
690.98	1134.43
691.30	1143.47
691.63	1134.43
691.96	1168.33
692.29	1175.11
692.62	1168.33
692.94	1147.99
693.27	1159.29
693.60	1166.07
693.93	1138.95
694.25	1138.95
694.58	1145.73
694.91	1186.41
695.24	1209.01
695.56	1238.39
695.89	1179.63
696.22	1159.29
696.54	1195.45
696.87	1166.07
697.20	1224.83
697.53	1181.89
697.85	1143.47
698.18	1190.93
698.51	1188.67
698.83	1168.33
699.16	1154.77
699.49	1175.11
699.81	1161.55
700.14	1161.55
700.47	1127.65
700.79	1242.91
701.12	1199.97
701.45	1163.81
701.77	1154.77
702.10	1163.81
702.42	1213.53
702.75	1181.89
703.08	1199.97
703.40	1143.47
703.73	1206.75
704.05	1181.89
704.38	1177.37
704.71	1184.15
705.03	1107.32
705.36	1163.81
705.68	1161.55
706.01	1274.54
706.34	1199.97
706.66	1175.11
706.99	1231.61
707.31	1204.49
707.64	1206.75
707.96	1166.07
708.29	1238.39
708.61	1184.15
708.94	1116.35
709.26	1175.11
709.59	1172.85
709.92	1218.05
710.24	1211.27
710.57	1181.89
710.89	1154.77
711.22	1197.71
711.54	1134.43
711.87	1170.59
712.19	1188.67
712.51	1172.85
712.84	1154.77
713.16	1172.85
713.49	1184.15
713.81	1172.85
714.14	1168.33
714.46	1179.63
714.79	1179.63
715.11	1150.25
715.44	1168.33
715.76	1188.67
716.08	1134.43
716.41	1141.21
716.73	1116.35
717.06	1163.81
717.38	1093.76
717.70	1120.87
718.03	1188.67
718.35	1242.91
718.68	1166.07
719.00	1159.29
719.32	1157.03
719.65	1157.03
719.97	1193.19
720.29	1143.47
720.62	1175.11
720.94	1197.71
721.27	1145.73
721.59	1168.33
721.91	1177.37
722.24	1154.77
722.56	1179.63
722.88	1177.37
723.21	1147.99
723.53	1152.51
723.85	1181.89
724.17	1209.01
724.50	1179.63
724.82	1134.43
725.14	1154.77
725.47	1159.29
725.79	1161.55
726.11	1159.29
726.43	1145.73
726.76	1057.60
727.08	1134.43
727.40	1136.69
727.72	1175.11
728.05	1190.93
728.37	1179.63
728.69	1143.47
729.01	1145.73
729.34	1186.41
729.66	1170.59
729.98	1190.93
730.30	1227.09
730.62	1229.35
730.95	1157.03
731.27	1147.99
731.59	1105.06
731.91	1159.29
732.23	1134.43
732.56	1179.63
732.88	1238.39
733.20	1233.87
733.52	1188.67
733.84	1177.37
734.16	1199.97
734.49	1190.93
734.81	1170.59
735.13	1109.58
735.45	1159.29
735.77	1211.27
736.09	1177.37
736.41	1129.91
736.73	1238.39
737.06	1179.63
737.38	1147.99
737.70	1193.19
738.02	1211.27
738.34	1163.81
738.66	1154.77
738.98	1188.67
739.30	1188.67
739.62	1109.58
739.94	1181.89
740.26	1170.59
740.58	1161.55
740.90	1166.07
741.23	1145.73
741.55	1138.95
741.87	1206.75
742.19	1161.55
742.51	1125.39
742.83	1132.17
743.15	1143.47
743.47	1218.05
743.79	1170.59
744.11	1222.57
744.43	1213.53
744.75	1163.81
745.07	1129.91
745.39	1120.87
745.71	1136.69
746.03	1199.97
746.35	1193.19
746.67	1168.33
746.98	1215.79
747.30	1154.77
747.62	1213.53
747.94	1186.41
748.26	1215.79
748.58	1211.27
748.90	1179.63
749.22	1168.33
749.54	1197.71
749.86	1179.63
750.18	1134.43
750.50	1116.35
750.82	1116.35
751.13	1213.53
751.45	1211.27
751.77	1177.37
752.09	1123.13
752.41	1098.28
752.73	1202.23
753.05	1136.69
753.36	1163.81
753.68	1141.21
754.00	1204.49
754.32	1202.23
754.64	1175.11
754.96	1172.85
755.28	1177.37
755.59	1105.06
755.91	1188.67
756.23	1125.39
756.55	1186.41
756.87	1193.19
757.18	1204.49
757.50	1195.45
757.82	1186.41
758.14	1197.71
758.45	1227.09
758.77	1168.33
759.09	1125.39
759.41	1206.75
759.73	1163.81
760.04	1179.63
760.36	1157.03
760.68	1157.03
760.99	1206.75
761.31	1220.31
761.63	1168.33
761.95	1184.15
762.26	1272.28
762.58	1181.89
762.90	1190.93
763.21	1227.09
763.53	1179.63
763.85	1184.15
764.17	1195.45
764.48	1227.09
764.80	1166.07
765.12	1209.01
765.43	1181.89
765.75	1166.07
766.07	1206.75
766.38	1157.03
766.70	1123.13
767.01	1118.61
767.33	1240.65
767.65	1143.47
767.96	1163.81
768.28	1197.71
768.60	1199.97
768.91	1224.83
769.23	1147.99
769.54	1163.81
769.86	1179.63
770.18	1204.49
770.49	1204.49
770.81	1163.81
771.12	1195.45
771.44	1202.23
771.75	1132.17
772.07	1184.15
772.38	1222.57
772.70	1179.63
773.02	1175.11
773.33	1145.73
773.65	1138.95
773.96	1179.63
774.28	1190.93
774.59	1188.67
774.91	1175.11
775.22	1179.63
775.54	1211.27
775.85	1222.57
776.17	1211.27
776.48	1152.51
776.80	1147.99
777.11	1118.61
777.43	1159.29
777.74	1240.65
778.05	1206.75
778.37	1215.79
778.68	1152.51
779.00	1190.93
779.31	1157.03
779.63	1109.58
779.94	1240.65
780.26	1154.77
780.57	1199.97
780.88	1172.85
781.20	1190.93
781.51	1166.07
781.83	1141.21
782.14	1170.59
782.45	1236.13
782.77	1222.57
783.08	1098.28
783.39	1100.54
783.71	1141.21
784.02	1186.41
784.34	1186.41
784.65	1181.89
784.96	1163.81
785.28	1233.87
785.59	1190.93
785.90	1154.77
786.22	1188.67
786.53	1123.13
786.84	1134.43
787.15	1199.97
787.47	1215.79
787.78	1215.79
788.09	1132.17
788.41	1168.33
788.72	1152.51
789.03	1157.03
789.35	1242.91
789.66	1204.49
789.97	1204.49
790.28	1145.73
790.60	1218.05
790.91	1181.89
791.22	1163.81
791.53	1224.83
791.84	1229.35
792.16	1179.63
792.47	1170.59
792.78	1177.37
793.09	1195.45
793.41	1150.25
793.72	1254.20
794.03	1193.19
794.34	1211.27
794.65	1220.31
794.96	1114.10
795.28	1143.47
795.59	1206.75
795.90	1181.89
796.21	1145.73
796.52	1195.45
796.83	1157.03
797.15	1143.47
797.46	1105.06
797.77	1206.75
798.08	1136.69
798.39	1206.75
798.70	1138.95
799.01	1181.89
799.32	1143.47
799.63	1150.25
799.95	1161.55
800.26	1143.47
800.57	1172.85
800.88	1166.07
801.19	1177.37
801.50	1032.74
801.81	1166.07
802.12	1163.81
802.43	1222.57
802.74	1206.75
803.05	1195.45
803.36	1181.89
803.67	1150.25
803.98	1170.59
804.29	1168.33
804.60	1170.59
804.91	1170.59
805.22	1145.73
805.53	1179.63
805.84	1143.47
806.15	1170.59
806.46	1129.91
806.77	1096.02
807.08	1138.95
807.39	1242.91
807.70	1141.21
808.01	1150.25
808.32	1129.91
808.63	1227.09
808.94	1143.47
809.25	1082.46
809.56	1157.03
809.87	1157.03
810.18	1195.45
810.49	1163.81
810.79	1166.07
811.10	1179.63
811.41	1166.07
811.72	1138.95
812.03	1154.77
812.34	1181.89
812.65	1249.68
812.96	1229.35
813.27	1157.03
813.57	1125.39
813.88	1123.13
814.19	1168.33
814.50	1170.59
814.81	1068.90
815.12	1193.19
815.42	1188.67
815.73	1163.81
816.04	1152.51
816.35	1152.51
816.66	1177.37
816.97	1127.65
817.27	1204.49
817.58	1238.39
817.89	1202.23
818.20	1211.27
818.50	1181.89
818.81	1222.57
819.12	1147.99
819.43	1150.25
819.73	1129.91
820.04	1157.03
820.35	1166.07
820.66	1181.89
820.96	1186.41
821.27	1193.19
821.58	1109.58
821.89	1190.93
822.19	1166.07
822.50	1132.17
822.81	1202.23
823.11	1220.31
823.42	1163.81
823.73	1136.69
824.03	1222.57
824.34	1195.45
824.65	1247.42
824.95	1157.03
825.26	1179.63
825.57	1102.80
825.87	1240.65
826.18	1159.29
826.49	1184.15
826.79	1152.51
827.10	1209.01
827.40	1134.43
827.71	1141.21
828.02	1127.65
828.32	1186.41
828.63	1161.55
828.93	1145.73
829.24	1166.07
829.55	1186.41
829.85	1188.67
830.16	1199.97
830.46	1184.15
830.77	1236.13
831.07	1177.37
831.38	1145.73
831.69	1123.13
831.99	1102.80
832.30	1202.23
832.60	1186.41
832.91	1179.63
833.21	1186.41
833.52	1161.55
833.82	1116.35
834.13	1154.77
834.43	1181.89
834.74	1166.07
835.04	1161.55
835.35	1163.81
835.65	1270.02
835.96	1186.41
836.26	1105.06
836.56	1170.59
836.87	1091.50
837.17	1179.63
837.48	1184.15
837.78	1199.97
838.09	1249.68
838.39	1227.09
838.69	1197.71
839.00	1175.11
839.30	1163.81
839.61	1172.85
839.91	1181.89
840.21	1188.67
840.52	1209.01
840.82	1218.05
841.13	1132.17
841.43	1150.25
841.73	1181.89
842.04	1143.47
842.34	1145.73
842.64	1166.07
842.95	1175.11
843.25	1218.05
843.55	1136.69
843.86	1163.81
844.16	1118.61
844.46	1175.11
844.77	1193.19
845.07	1111.84
845.37	1150.25
845.68	1163.81
845.98	1179.63
846.28	1204.49
846.58	1107.32
846.89	1202.23
847.19	1161.55
847.49	1145.73
847.79	1145.73
848.10	1166.07
848.40	1190.93
848.70	1150.25
849.00	1159.29
849.31	1147.99
849.61	1102.80
849.91	1209.01
850.21	1204.49
850.51	1172.85
850.82	1206.75
851.12	1258.72
851.42	1159.29
851.72	1123.13
852.02	1193.19
852.32	1188.67
852.63	1229.35
852.93	1105.06
853.23	1116.35
853.53	1143.47
853.83	1114.10
854.13	1141.21
854.43	1147.99
854.74	1184.15
855.04	1202.23
855.34	1109.58
855.64	1233.87
855.94	1204.49
856.24	1143.47
856.54	1199.97
856.84	1143.47
857.14	1181.89
857.44	1168.33
857.74	1157.03
858.05	1193.19
858.35	1186.41
858.65	1125.39
858.95	1150.25
859.25	1150.25
859.55	1161.55
859.85	1132.17
860.15	1129.91
860.45	1157.03
860.75	1193.19
861.05	1179.63
861.35	1177.37
861.65	1209.01
861.95	1163.81
862.25	1157.03
862.55	1168.33
862.85	1186.41
863.15	1213.53
863.45	1141.21
863.75	1206.75
864.05	1136.69
864.35	1172.85
864.64	1170.59
864.94	1190.93
865.24	1098.28
865.54	1220.31
865.84	1222.57
866.14	1157.03
866.44	1184.15
866.74	1172.85
867.04	1152.51
867.34	1172.85
867.64	1184.15
867.93	1091.50
868.23	1154.77
868.53	1134.43
868.83	1111.84
869.13	1129.91
869.43	1267.76
869.73	1163.81
870.02	1161.55
870.32	1215.79
870.62	1168.33
870.92	1143.47
871.22	1107.32
871.51	1227.09
871.81	1197.71
872.11	1145.73
872.41	1265.50
872.71	1132.17
873.00	1163.81
873.30	1193.19
873.60	1224.83
873.90	1202.23
874.19	1098.28
874.49	1147.99
874.79	1147.99
875.09	1098.28
875.38	1161.55
875.68	1206.75
875.98	1177.37
876.28	1227.09
876.57	1184.15
876.87	1184.15
877.17	1184.15
