174.03	797.72
174.41	797.72
174.78	797.72
175.16	811.28
175.54	809.02
175.92	790.94
176.30	831.62
176.67	831.62
177.05	872.29
177.43	786.42
177.81	829.36
178.19	901.67
178.56	931.05
178.94	867.77
179.32	917.49
179.70	983.02
180.08	935.57
180.45	944.61
180.83	969.47
181.21	937.83
181.59	1003.36
181.96	1041.78
182.34	1077.94
182.72	1109.58
183.10	1044.04
183.48	1168.33
183.85	1179.63
184.23	1150.25
184.61	1129.91
184.99	1129.91
185.36	1170.59
185.74	1245.16
186.12	1229.35
186.50	1181.89
186.87	1132.17
187.25	1170.59
187.63	1209.01
188.01	1184.15
188.38	1147.99
188.76	1179.63
189.14	1202.23
189.52	1123.13
189.89	1132.17
190.27	1179.63
190.65	1209.01
191.02	1227.09
191.40	1138.95
191.78	1157.03
192.16	1186.41
192.53	1188.67
192.91	1147.99
193.29	1154.77
193.66	1159.29
194.04	1177.37
194.42	1172.85
194.79	1188.67
195.17	1218.05
195.55	1125.39
195.93	1184.15
196.30	1111.84
196.68	1159.29
197.06	1193.19
197.43	1188.67
197.81	1170.59
198.19	1134.43
198.56	1145.73
198.94	1082.46
199.32	1136.69
199.69	1161.55
200.07	1136.69
200.45	1170.59
200.82	1150.25
201.20	1132.17
201.58	1127.65
201.95	1222.57
202.33	1127.65
202.71	1132.17
203.08	1132.17
203.46	1231.61
203.84	1213.53
204.21	1145.73
204.59	1166.07
204.96	1172.85
205.34	1147.99
205.72	1039.52
206.09	1195.45
206.47	1175.11
206.85	1179.63
207.22	1168.33
207.60	1172.85
207.97	1204.49
208.35	1206.75
208.73	1161.55
209.10	1224.83
209.48	1145.73
209.85	1229.35
210.23	1138.95
210.61	1100.54
210.98	1193.19
211.36	1184.15
211.73	1150.25
212.11	1172.85
212.49	1172.85
212.86	1184.15
213.24	1179.63
213.61	1224.83
213.99	1193.19
214.37	1188.67
214.74	1197.71
215.12	1147.99
215.49	1111.84
215.87	1170.59
216.24	1125.39
216.62	1168.33
216.99	1163.81
217.37	1150.25
217.75	1179.63
218.12	1147.99
218.50	1188.67
218.87	1145.73
219.25	1152.51
219.62	1125.39
220.00	1195.45
220.37	1125.39
220.75	1213.53
221.12	1111.84
221.50	1152.51
221.87	1179.63
222.25	1224.83
222.63	1254.20
223.00	1166.07
223.38	1179.63
223.75	1127.65
224.13	1190.93
224.50	1177.37
224.88	1215.79
225.25	1134.43
225.63	1116.35
226.00	1159.29
226.38	1132.17
226.75	1114.10
227.13	1181.89
227.50	1179.63
227.88	1147.99
228.25	1199.97
228.63	1168.33
229.00	1161.55
229.37	1229.35
229.75	1161.55
230.12	1098.28
230.50	1222.57
230.87	1193.19
231.25	1147.99
231.62	1168.33
232.00	1170.59
232.37	1107.32
232.75	1179.63
233.12	1150.25
233.50	1168.33
233.87	1138.95
234.24	1145.73
234.62	1159.29
234.99	1150.25
235.37	1175.11
235.74	1172.85
236.12	1218.05
236.49	1177.37
236.86	1168.33
237.24	1118.61
237.61	1159.29
237.99	1147.99
238.36	1177.37
238.74	1141.21
239.11	1150.25
239.48	1125.39
239.86	1184.15
240.23	1105.06
240.61	1177.37
240.98	1159.29
241.35	1163.81
241.73	1111.84
242.10	1157.03
242.48	1161.55
242.85	1136.69
243.22	1170.59
243.60	1215.79
243.97	1193.19
244.34	1150.25
244.72	1150.25
245.09	1157.03
245.47	1206.75
245.84	1179.63
246.21	1132.17
246.59	1202.23
246.96	1145.73
247.33	1227.09
247.71	1168.33
248.08	1206.75
248.45	1141.21
248.83	1220.31
249.20	1186.41
249.57	1138.95
249.95	1204.49
250.32	1168.33
250.69	1152.51
251.07	1147.99
251.44	1161.55
251.81	1204.49
252.19	1213.53
252.56	1172.85
252.93	1168.33
253.31	1116.35
253.68	1159.29
254.05	1199.97
254.43	1204.49
254.80	1190.93
255.17	1120.87
255.55	1206.75
255.92	1161.55
256.29	1229.35
256.66	1125.39
257.04	1231.61
257.41	1170.59
257.78	1213.53
258.16	1186.41
258.53	1199.97
258.90	1157.03
259.27	1175.11
259.65	1138.95
260.02	1123.13
260.39	1168.33
260.76	1172.85
261.14	1181.89
261.51	1224.83
261.88	1247.42
262.25	1166.07
262.63	1120.87
263.00	1134.43
263.37	1204.49
263.74	1175.11
264.12	1202.23
264.49	1195.45
264.86	1206.75
265.23	1209.01
265.61	1157.03
265.98	1093.76
266.35	1224.83
266.72	1279.06
267.09	1202.23
267.47	1152.51
267.84	1202.23
268.21	1193.19
268.58	1193.19
268.95	1123.13
269.33	1168.33
269.70	1242.91
270.07	1211.27
270.44	1152.51
270.81	1143.47
271.19	1211.27
271.56	1242.91
271.93	1172.85
272.30	1220.31
272.67	1229.35
273.05	1168.33
273.42	1147.99
273.79	1127.65
274.16	1195.45
274.53	1175.11
274.90	1118.61
275.28	1190.93
275.65	1154.77
276.02	1166.07
276.39	1170.59
276.76	1204.49
277.13	1218.05
277.50	1220.31
277.88	1195.45
278.25	1186.41
278.62	1197.71
278.99	1215.79
279.36	1195.45
279.73	1157.03
280.10	1179.63
280.47	1220.31
280.85	1175.11
281.22	1179.63
281.59	1170.59
281.96	1190.93
282.33	1224.83
282.70	1199.97
283.07	1190.93
283.44	1206.75
283.81	1181.89
284.18	1211.27
284.56	1193.19
284.93	1163.81
285.30	1188.67
285.67	1240.65
286.04	1199.97
286.41	1134.43
286.78	1195.45
287.15	1224.83
287.52	1227.09
287.89	1175.11
288.26	1190.93
288.63	1179.63
289.00	1195.45
289.37	1188.67
289.75	1279.06
290.12	1172.85
290.49	1224.83
290.86	1161.55
291.23	1136.69
291.60	1141.21
291.97	1181.89
292.34	1195.45
292.71	1179.63
293.08	1166.07
293.45	1260.98
293.82	1170.59
294.19	1197.71
294.56	1181.89
294.93	1224.83
295.30	1245.16
295.67	1170.59
296.04	1186.41
296.41	1240.65
296.78	1168.33
297.15	1184.15
297.52	1179.63
297.89	1211.27
298.26	1179.63
298.63	1195.45
299.00	1242.91
299.37	1209.01
299.74	1181.89
300.11	1179.63
300.48	1199.97
300.85	1222.57
301.22	1236.13
301.59	1218.05
301.96	1213.53
302.33	1184.15
302.70	1159.29
303.07	1231.61
303.43	1161.55
303.80	1236.13
304.17	1204.49
304.54	1177.37
304.91	1288.10
305.28	1242.91
305.65	1213.53
306.02	1159.29
306.39	1292.62
306.76	1256.46
307.13	1222.57
307.50	1193.19
307.87	1265.50
308.24	1247.42
308.60	1166.07
308.97	1256.46
309.34	1123.13
309.71	1224.83
310.08	1209.01
310.45	1254.20
310.82	1136.69
311.19	1233.87
311.56	1249.68
311.92	1202.23
312.29	1211.27
312.66	1179.63
313.03	1211.27
313.40	1231.61
313.77	1260.98
314.14	1190.93
314.51	1301.66
314.87	1190.93
315.24	1197.71
315.61	1199.97
315.98	1202.23
316.35	1238.39
316.72	1168.33
317.09	1220.31
317.45	1242.91
317.82	1199.97
318.19	1283.58
318.56	1260.98
318.93	1170.59
319.30	1242.91
319.66	1213.53
320.03	1188.67
320.40	1260.98
320.77	1229.35
321.14	1175.11
321.50	1281.32
321.87	1175.11
322.24	1193.19
322.61	1240.65
322.98	1233.87
323.34	1240.65
323.71	1159.29
324.08	1249.68
324.45	1206.75
324.82	1292.62
325.18	1172.85
325.55	1218.05
325.92	1220.31
326.29	1186.41
326.65	1209.01
327.02	1202.23
327.39	1263.24
327.76	1188.67
328.12	1175.11
328.49	1202.23
328.86	1209.01
329.23	1231.61
329.59	1238.39
329.96	1220.31
330.33	1211.27
330.70	1276.80
331.06	1229.35
331.43	1267.76
331.80	1294.88
332.17	1265.50
332.53	1312.96
332.90	1211.27
333.27	1267.76
333.63	1279.06
334.00	1231.61
334.37	1188.67
334.74	1213.53
335.10	1224.83
335.47	1204.49
335.84	1240.65
336.20	1209.01
336.57	1233.87
336.94	1211.27
337.30	1251.94
337.67	1202.23
338.04	1211.27
338.40	1152.51
338.77	1256.46
339.14	1224.83
339.50	1199.97
339.87	1240.65
340.24	1222.57
340.60	1265.50
340.97	1297.14
341.34	1315.22
341.70	1238.39
342.07	1290.36
342.44	1231.61
342.80	1267.76
343.17	1276.80
343.53	1159.29
343.90	1211.27
344.27	1265.50
344.63	1247.42
345.00	1211.27
345.37	1222.57
345.73	1193.19
346.10	1242.91
346.46	1276.80
346.83	1247.42
347.20	1181.89
347.56	1260.98
347.93	1231.61
348.29	1258.72
348.66	1213.53
349.03	1272.28
349.39	1260.98
349.76	1258.72
350.12	1251.94
350.49	1245.16
350.85	1166.07
351.22	1240.65
351.59	1260.98
351.95	1315.22
352.32	1276.80
352.68	1301.66
353.05	1333.30
353.41	1218.05
353.78	1240.65
354.14	1312.96
354.51	1236.13
354.88	1263.24
355.24	1263.24
355.61	1251.94
355.97	1310.70
356.34	1299.40
356.70	1242.91
357.07	1272.28
357.43	1197.71
357.80	1272.28
358.16	1306.18
358.53	1260.98
358.89	1312.96
359.26	1258.72
359.62	1279.06
359.99	1310.70
360.35	1263.24
360.72	1344.60
361.08	1260.98
361.45	1297.14
361.81	1238.39
362.18	1238.39
362.54	1344.60
362.91	1267.76
363.27	1292.62
363.63	1353.64
364.00	1344.60
364.36	1326.52
364.73	1306.18
365.09	1270.02
365.46	1270.02
365.82	1299.40
366.19	1292.62
366.55	1328.78
366.91	1303.92
367.28	1326.52
367.64	1328.78
368.01	1322.00
368.37	1337.82
368.74	1315.22
369.10	1373.98
369.46	1346.86
369.83	1373.98
370.19	1340.08
370.56	1333.30
370.92	1312.96
371.28	1294.88
371.65	1425.95
372.01	1453.07
372.38	1403.35
372.74	1405.61
373.10	1416.91
373.47	1378.49
373.83	1403.35
374.19	1412.39
374.56	1423.69
374.92	1430.47
375.29	1471.15
375.65	1403.35
376.01	1419.17
376.38	1502.79
376.74	1464.37
377.10	1509.56
377.47	1523.12
377.83	1536.68
378.19	1570.58
378.56	1572.84
378.92	1654.19
379.28	1568.32
379.65	1615.78
380.01	1726.51
380.37	1719.73
380.74	1821.42
381.10	1796.56
381.46	1834.98
381.83	1907.29
382.19	1893.74
382.55	2042.88
382.91	1993.17
383.28	2063.22
383.64	2212.37
384.00	2232.71
384.37	2406.72
384.73	2510.67
385.09	2614.62
385.45	2662.08
385.82	2829.30
386.18	2996.53
386.54	3263.19
386.91	3590.87
387.27	3755.83
387.63	3999.89
387.99	4099.33
388.36	4429.26
388.72	4890.27
389.08	5330.93
389.44	5572.73
389.80	5909.45
390.17	6316.22
390.53	6883.43
390.89	7656.30
391.25	8074.36
391.62	8447.24
391.98	9498.06
392.34	10503.68
392.70	10824.57
393.06	11983.87
393.43	12487.81
393.79	13283.27
394.15	14327.31
394.51	15215.42
394.87	16383.75
395.24	17527.22
395.60	18935.10
395.96	20189.30
396.32	21890.95
396.68	23371.14
397.04	25685.20
397.41	27194.77
397.77	29861.36
398.13	32044.36
398.49	33931.31
398.85	36724.46
399.21	39741.33
399.58	42439.56
399.94	44889.22
400.30	49087.97
400.66	50800.92
401.02	53824.57
401.38	55675.37
401.74	57250.47
402.11	59442.50
402.47	60985.97
402.83	61749.79
403.19	63342.97
403.55	64597.17
403.91	65535.00
404.27	65535.00
404.63	65535.00
404.99	65535.00
405.35	65535.00
405.72	65535.00
406.08	65535.00
406.44	65535.00
406.80	65535.00
407.16	65535.00
407.52	65535.00
407.88	65535.00
408.24	65535.00
408.60	65535.00
408.96	65535.00
409.32	65535.00
409.68	65535.00
410.04	65535.00
410.40	65535.00
410.76	65535.00
411.13	64371.19
411.49	63896.62
411.85	62190.46
412.21	60764.50
412.57	59833.46
412.93	58262.87
413.29	56730.71
413.65	54672.01
414.01	52789.57
414.37	50353.48
414.73	48509.46
415.09	46086.92
415.45	44642.89
415.81	42516.40
416.17	39845.28
416.53	38884.85
416.89	37230.66
417.25	34939.19
417.61	33533.58
417.97	32376.55
418.33	30697.50
418.69	29777.75
419.05	28699.81
419.41	27696.45
419.77	27298.72
420.12	25524.75
420.48	24324.78
420.84	23224.25
421.20	22422.01
421.56	21190.40
421.92	20901.15
422.28	19604.00
422.64	18444.71
423.00	17671.85
423.36	17050.40
423.72	15868.51
424.08	14691.14
424.44	14015.45
424.80	13529.59
425.16	13084.40
425.51	12246.01
425.87	12004.20
426.23	11240.38
426.59	10372.61
426.95	10327.41
427.31	9735.34
427.67	9475.46
428.03	8915.02
428.39	8731.97
428.74	8065.32
429.10	7541.04
429.46	7163.65
429.82	7005.47
430.18	6661.97
430.54	6607.74
430.90	6343.34
431.26	5943.35
431.61	5807.76
431.97	5665.39
432.33	5321.89
432.69	5450.70
433.05	5161.45
433.41	4946.76
433.76	4772.76
434.12	4752.42
434.48	4431.52
434.84	4275.59
435.20	4253.00
435.55	4031.53
435.91	3963.74
436.27	3886.90
436.63	3771.65
436.99	3611.20
437.34	3437.20
437.70	3464.32
438.06	3367.14
438.42	3145.68
438.78	3102.74
439.13	3098.22
439.49	3025.91
439.85	2883.54
440.21	2770.55
440.56	2707.27
440.92	2569.42
441.28	2521.97
441.64	2564.90
441.99	2447.39
442.35	2438.35
442.71	2309.54
443.07	2219.15
443.42	2332.14
443.78	2253.05
444.14	2173.95
444.50	2144.58
444.85	2027.07
445.21	2092.60
445.57	2101.64
445.93	2099.38
446.28	1986.39
446.64	1966.05
447.00	1997.69
447.35	2060.96
447.71	1916.33
448.07	1909.55
448.42	1846.28
448.78	1792.04
449.14	1862.10
449.49	1810.12
449.85	1823.68
450.21	1767.19
450.56	1683.57
450.92	1701.65
451.28	1674.53
451.63	1706.17
451.99	1584.14
452.35	1620.30
452.70	1609.00
453.06	1654.19
453.42	1620.30
453.77	1599.96
454.13	1538.94
454.49	1532.16
454.84	1464.37
455.20	1525.38
455.55	1489.23
455.91	1493.75
456.27	1444.03
456.62	1464.37
456.98	1457.59
457.33	1432.73
457.69	1523.12
458.05	1437.25
458.40	1484.71
458.76	1416.91
459.11	1403.35
459.47	1396.57
459.83	1412.39
460.18	1362.68
460.54	1360.42
460.89	1328.78
461.25	1337.82
461.60	1369.46
461.96	1319.74
462.31	1292.62
462.67	1364.94
463.03	1362.68
463.38	1346.86
463.74	1369.46
464.09	1340.08
464.45	1288.10
464.80	1301.66
465.16	1297.14
465.51	1349.12
465.87	1267.76
466.22	1315.22
466.58	1270.02
466.93	1317.48
467.29	1265.50
467.64	1294.88
468.00	1288.10
468.35	1322.00
468.71	1315.22
469.06	1358.16
469.42	1294.88
469.77	1279.06
470.13	1290.36
470.48	1274.54
470.84	1276.80
471.19	1215.79
471.54	1233.87
471.90	1281.32
472.25	1218.05
472.61	1290.36
472.96	1231.61
473.32	1224.83
473.67	1279.06
474.03	1260.98
474.38	1231.61
474.73	1236.13
475.09	1274.54
475.44	1333.30
475.80	1247.42
476.15	1290.36
476.50	1267.76
476.86	1274.54
477.21	1276.80
477.57	1276.80
477.92	1213.53
478.27	1288.10
478.63	1279.06
478.98	1285.84
479.34	1222.57
479.69	1270.02
480.04	1276.80
480.40	1238.39
480.75	1213.53
481.10	1249.68
481.46	1229.35
481.81	1193.19
482.16	1238.39
482.52	1301.66
482.87	1242.91
483.22	1229.35
483.58	1161.55
483.93	1222.57
484.28	1260.98
484.64	1240.65
484.99	1315.22
485.34	1281.32
485.70	1204.49
486.05	1231.61
486.40	1215.79
486.76	1199.97
487.11	1204.49
487.46	1172.85
487.81	1270.02
488.17	1227.09
488.52	1328.78
488.87	1215.79
489.23	1211.27
489.58	1247.42
489.93	1231.61
490.28	1249.68
490.64	1202.23
490.99	1170.59
491.34	1199.97
491.69	1238.39
492.05	1177.37
492.40	1188.67
492.75	1199.97
493.10	1197.71
493.46	1285.84
493.81	1254.20
494.16	1290.36
494.51	1254.20
494.86	1224.83
495.22	1238.39
495.57	1211.27
495.92	1184.15
496.27	1236.13
496.62	1254.20
496.98	1211.27
497.33	1224.83
497.68	1231.61
498.03	1186.41
498.38	1222.57
498.74	1161.55
499.09	1233.87
499.44	1240.65
499.79	1222.57
500.14	1224.83
500.49	1247.42
500.85	1229.35
501.20	1224.83
501.55	1353.64
501.90	1206.75
502.25	1195.45
502.60	1166.07
502.95	1260.98
503.30	1224.83
503.66	1265.50
504.01	1279.06
504.36	1215.79
504.71	1181.89
505.06	1272.28
505.41	1267.76
505.76	1238.39
506.11	1238.39
506.46	1245.16
506.82	1179.63
507.17	1172.85
507.52	1233.87
507.87	1218.05
508.22	1218.05
508.57	1197.71
508.92	1202.23
509.27	1236.13
509.62	1319.74
509.97	1281.32
510.32	1168.33
510.67	1240.65
511.02	1240.65
511.37	1242.91
511.72	1215.79
512.07	1202.23
512.42	1179.63
512.77	1222.57
513.12	1233.87
513.47	1224.83
513.82	1247.42
514.17	1199.97
514.52	1222.57
514.87	1211.27
515.22	1285.84
515.57	1242.91
515.92	1247.42
516.27	1129.91
516.62	1206.75
516.97	1247.42
517.32	1274.54
517.67	1213.53
518.02	1172.85
518.37	1190.93
518.72	1184.15
519.07	1240.65
519.42	1233.87
519.77	1184.15
520.12	1100.54
520.47	1224.83
520.82	1172.85
521.17	1166.07
521.52	1213.53
521.87	1245.16
522.22	1218.05
522.56	1242.91
522.91	1242.91
523.26	1233.87
523.61	1222.57
523.96	1290.36
524.31	1218.05
524.66	1265.50
525.01	1249.68
525.36	1231.61
525.71	1260.98
526.05	1233.87
526.40	1190.93
526.75	1274.54
527.10	1299.40
527.45	1290.36
527.80	1238.39
528.15	1218.05
528.49	1179.63
528.84	1251.94
529.19	1267.76
529.54	1290.36
529.89	1281.32
530.24	1265.50
530.58	1236.13
530.93	1245.16
531.28	1276.80
531.63	1267.76
531.98	1306.18
532.33	1193.19
532.67	1231.61
533.02	1245.16
533.37	1267.76
533.72	1222.57
534.07	1263.24
534.41	1195.45
534.76	1263.24
535.11	1222.57
535.46	1231.61
535.80	1206.75
536.15	1290.36
536.50	1301.66
536.85	1224.83
537.19	1288.10
537.54	1263.24
537.89	1188.67
538.24	1272.28
538.58	1213.53
538.93	1193.19
539.28	1279.06
539.63	1172.85
539.97	1229.35
540.32	1184.15
540.67	1270.02
541.01	1233.87
541.36	1206.75
541.71	1279.06
542.06	1188.67
542.40	1306.18
542.75	1236.13
543.10	1227.09
543.44	1247.42
543.79	1238.39
544.14	1193.19
544.48	1229.35
544.83	1270.02
545.18	1245.16
545.52	1236.13
545.87	1288.10
546.22	1312.96
546.56	1260.98
546.91	1218.05
547.25	1260.98
547.60	1224.83
547.95	1249.68
548.29	1206.75
548.64	1145.73
548.99	1175.11
549.33	1240.65
549.68	1188.67
550.02	1213.53
550.37	1322.00
550.72	1195.45
551.06	1179.63
551.41	1238.39
551.75	1220.31
552.10	1229.35
552.45	1197.71
552.79	1267.76
553.14	1256.46
553.48	1240.65
553.83	1245.16
554.17	1195.45
554.52	1236.13
554.87	1209.01
555.21	1211.27
555.56	1233.87
555.90	1260.98
556.25	1170.59
556.59	1229.35
556.94	1281.32
557.28	1152.51
557.63	1251.94
557.97	1181.89
558.32	1231.61
558.66	1229.35
559.01	1220.31
559.35	1279.06
559.70	1150.25
560.04	1233.87
560.39	1193.19
560.73	1306.18
561.08	1240.65
561.42	1229.35
561.77	1294.88
562.11	1218.05
562.46	1238.39
562.80	1222.57
563.14	1229.35
563.49	1220.31
563.83	1197.71
564.18	1202.23
564.52	1213.53
564.87	1229.35
565.21	1236.13
565.56	1206.75
565.90	1222.57
566.24	1247.42
566.59	1204.49
566.93	1213.53
567.28	1181.89
567.62	1209.01
567.96	1213.53
568.31	1206.75
568.65	1236.13
569.00	1254.20
569.34	1157.03
569.68	1215.79
570.03	1186.41
570.37	1385.27
570.71	1251.94
571.06	1177.37
571.40	1231.61
571.74	1195.45
572.09	1175.11
572.43	1240.65
572.78	1188.67
573.12	1229.35
573.46	1220.31
573.80	1209.01
574.15	1265.50
574.49	1218.05
574.83	1218.05
575.18	1157.03
575.52	1188.67
575.86	1197.71
576.21	1188.67
576.55	1224.83
576.89	1242.91
577.24	1211.27
577.58	1249.68
577.92	1215.79
578.26	1168.33
578.61	1197.71
578.95	1251.94
579.29	1224.83
579.63	1326.52
579.98	1190.93
580.32	1197.71
580.66	1224.83
581.00	1147.99
581.35	1233.87
581.69	1306.18
582.03	1181.89
582.37	1260.98
582.72	1188.67
583.06	1218.05
583.40	1179.63
583.74	1218.05
584.08	1168.33
584.43	1172.85
584.77	1197.71
585.11	1197.71
585.45	1204.49
585.79	1184.15
586.13	1245.16
586.48	1227.09
586.82	1175.11
587.16	1233.87
587.50	1227.09
587.84	1202.23
588.18	1251.94
588.53	1224.83
588.87	1224.83
589.21	1175.11
589.55	1222.57
589.89	1218.05
590.23	1231.61
590.57	1267.76
590.92	1184.15
591.26	1154.77
591.60	1236.13
591.94	1154.77
592.28	1159.29
592.62	1193.19
592.96	1206.75
593.30	1195.45
593.64	1215.79
593.98	1166.07
594.32	1150.25
594.67	1138.95
595.01	1209.01
595.35	1211.27
595.69	1245.16
596.03	1186.41
596.37	1188.67
596.71	1213.53
597.05	1166.07
597.39	1209.01
597.73	1240.65
598.07	1157.03
598.41	1154.77
598.75	1190.93
599.09	1168.33
599.43	1179.63
599.77	1209.01
600.11	1190.93
600.45	1197.71
600.79	1204.49
601.13	1154.77
601.47	1197.71
601.81	1231.61
602.15	1197.71
602.49	1218.05
602.83	1218.05
603.17	1159.29
603.51	1157.03
603.85	1233.87
604.19	1114.10
604.53	1175.11
604.87	1197.71
605.21	1184.15
605.55	1163.81
605.89	1109.58
606.23	1145.73
606.56	1161.55
606.90	1227.09
607.24	1227.09
607.58	1181.89
607.92	1138.95
608.26	1285.84
608.60	1211.27
608.94	1206.75
609.28	1170.59
609.62	1134.43
609.95	1143.47
610.29	1249.68
610.63	1168.33
610.97	1163.81
611.31	1197.71
611.65	1233.87
611.99	1152.51
612.33	1193.19
612.66	1141.21
613.00	1209.01
613.34	1181.89
613.68	1236.13
614.02	1166.07
614.36	1218.05
614.69	1157.03
615.03	1249.68
615.37	1145.73
615.71	1206.75
616.05	1134.43
616.38	1233.87
616.72	1159.29
617.06	1159.29
617.40	1157.03
617.74	1154.77
618.07	1181.89
618.41	1222.57
618.75	1222.57
619.09	1281.32
619.42	1184.15
619.76	1118.61
620.10	1193.19
620.44	1141.21
620.77	1134.43
621.11	1134.43
621.45	1145.73
621.79	1163.81
622.12	1188.67
622.46	1229.35
622.80	1172.85
623.13	1231.61
623.47	1172.85
623.81	1247.42
624.15	1213.53
624.48	1202.23
624.82	1114.10
625.16	1161.55
625.49	1152.51
625.83	1190.93
626.17	1138.95
626.50	1218.05
626.84	1134.43
627.18	1152.51
627.51	1175.11
627.85	1209.01
628.19	1177.37
628.52	1175.11
628.86	1154.77
629.20	1120.87
629.53	1181.89
629.87	1154.77
630.20	1204.49
630.54	1202.23
630.88	1145.73
631.21	1206.75
631.55	1175.11
631.89	1179.63
632.22	1123.13
632.56	1138.95
632.89	1111.84
633.23	1168.33
633.56	1175.11
633.90	1157.03
634.24	1188.67
634.57	1152.51
634.91	1231.61
635.24	1195.45
635.58	1197.71
635.91	1204.49
636.25	1159.29
636.58	1159.29
636.92	1190.93
637.26	1175.11
637.59	1218.05
637.93	1190.93
638.26	1177.37
638.60	1161.55
638.93	1215.79
639.27	1172.85
639.60	1138.95
639.94	1168.33
640.27	1177.37
640.61	1209.01
640.94	1233.87
641.28	1159.29
641.61	1154.77
641.94	1152.51
642.28	1186.41
642.61	1118.61
642.95	1197.71
643.28	1186.41
643.62	1175.11
643.95	1218.05
644.29	1195.45
644.62	1134.43
644.95	1222.57
645.29	1109.58
645.62	1206.75
645.96	1161.55
646.29	1179.63
646.63	1199.97
646.96	1152.51
647.29	1132.17
647.63	1136.69
647.96	1163.81
648.29	1125.39
648.63	1175.11
648.96	1161.55
649.30	1193.19
649.63	1159.29
649.96	1186.41
650.30	1127.65
650.63	1157.03
650.96	1120.87
651.30	1222.57
651.63	1170.59
651.96	1109.58
652.30	1184.15
652.63	1170.59
652.96	1199.97
653.30	1222.57
653.63	1147.99
653.96	1233.87
654.30	1166.07
654.63	1166.07
654.96	1193.19
655.29	1195.45
655.63	1089.24
655.96	1222.57
656.29	1197.71
656.63	1163.81
656.96	1170.59
657.29	1263.24
657.62	1195.45
657.96	1157.03
658.29	1150.25
658.62	1147.99
658.95	1199.97
659.29	1147.99
659.62	1199.97
659.95	1166.07
660.28	1263.24
660.61	1177.37
660.95	1195.45
661.28	1136.69
661.61	1150.25
661.94	1188.67
662.27	1107.32
662.61	1168.33
662.94	1181.89
663.27	1168.33
663.60	1179.63
663.93	1193.19
664.27	1157.03
664.60	1224.83
664.93	1172.85
665.26	1179.63
665.59	1231.61
665.92	1177.37
666.25	1166.07
666.59	1159.29
666.92	1168.33
667.25	1222.57
667.58	1107.32
667.91	1218.05
668.24	1175.11
668.57	1170.59
668.90	1224.83
669.23	1179.63
669.57	1125.39
669.90	1213.53
670.23	1211.27
670.56	1227.09
670.89	1166.07
671.22	1190.93
671.55	1186.41
671.88	1177.37
672.21	1132.17
672.54	1166.07
672.87	1193.19
673.20	1227.09
673.53	1238.39
673.86	1145.73
674.19	1157.03
674.52	1152.51
674.85	1204.49
675.18	1218.05
675.51	1168.33
675.84	1177.37
676.17	1152.51
676.50	1227.09
676.83	1170.59
677.16	1224.83
677.49	1213.53
677.82	1222.57
678.15	1179.63
678.48	1211.27
678.81	1211.27
679.14	1152.51
679.47	1204.49
679.80	1163.81
680.13	1134.43
680.46	1129.91
680.79	1132.17
681.12	1136.69
681.45	1195.45
681.78	1161.55
682.11	1184.15
682.44	1170.59
682.77	1175.11
683.09	1186.41
683.42	1134.43
683.75	1193.19
684.08	1170.59
684.41	1129.91
684.74	1161.55
685.07	1138.95
685.40	1168.33
685.72	1186.41
686.05	1181.89
686.38	1213.53
686.71	1186.41
687.04	1145.73
687.37	1163.81
687.70	1190.93
688.02	1152.51
688.35	1145.73
688.68	1157.03
689.01	1181.89
689.34	1123.13
689.67	1193.19
689.99	1175.11
690.32	1138.95
690.65	1211.27
690.98	1229.35
691.30	1177.37
691.63	1091.50
691.96	1211.27
692.29	1242.91
692.62	1157.03
692.94	1163.81
693.27	1186.41
693.60	1209.01
693.93	1145.73
694.25	1195.45
694.58	1179.63
694.91	1197.71
695.24	1181.89
695.56	1227.09
695.89	1195.45
696.22	1204.49
696.54	1222.57
696.87	1168.33
697.20	1190.93
697.53	1168.33
697.85	1132.17
698.18	1168.33
698.51	1154.77
698.83	1184.15
699.16	1202.23
699.49	1251.94
699.81	1152.51
700.14	1215.79
700.47	1166.07
700.79	1152.51
701.12	1177.37
701.45	1147.99
701.77	1227.09
702.10	1123.13
702.42	1193.19
702.75	1134.43
703.08	1141.21
703.40	1218.05
703.73	1193.19
704.05	1136.69
704.38	1211.27
704.71	1143.47
705.03	1132.17
705.36	1152.51
705.68	1143.47
706.01	1179.63
706.34	1184.15
706.66	1218.05
706.99	1141.21
707.31	1132.17
707.64	1209.01
707.96	1184.15
708.29	1224.83
708.61	1138.95
708.94	1222.57
709.26	1109.58
709.59	1152.51
709.92	1145.73
710.24	1190.93
710.57	1186.41
710.89	1168.33
711.22	1134.43
711.54	1125.39
711.87	1181.89
712.19	1107.32
712.51	1193.19
712.84	1181.89
713.16	1138.95
713.49	1186.41
713.81	1147.99
714.14	1143.47
714.46	1152.51
714.79	1109.58
715.11	1141.21
715.44	1152.51
715.76	1181.89
716.08	1190.93
716.41	1136.69
716.73	1163.81
717.06	1132.17
717.38	1168.33
717.70	1161.55
718.03	1263.24
718.35	1150.25
718.68	1233.87
719.00	1170.59
719.32	1118.61
719.65	1116.35
719.97	1175.11
720.29	1195.45
720.62	1195.45
720.94	1170.59
721.27	1181.89
721.59	1143.47
721.91	1125.39
722.24	1231.61
722.56	1159.29
722.88	1132.17
723.21	1138.95
723.53	1161.55
723.85	1197.71
724.17	1105.06
724.50	1109.58
724.82	1193.19
725.14	1172.85
725.47	1159.29
725.79	1209.01
726.11	1145.73
726.43	1242.91
726.76	1195.45
727.08	1188.67
727.40	1204.49
727.72	1188.67
728.05	1157.03
728.37	1096.02
728.69	1150.25
729.01	1157.03
729.34	1138.95
729.66	1116.35
729.98	1168.33
730.30	1195.45
730.62	1202.23
730.95	1159.29
731.27	1136.69
731.59	1206.75
731.91	1136.69
732.23	1159.29
732.56	1236.13
732.88	1206.75
733.20	1209.01
733.52	1150.25
733.84	1188.67
734.16	1179.63
734.49	1161.55
734.81	1181.89
735.13	1251.94
735.45	1238.39
735.77	1204.49
736.09	1202.23
736.41	1229.35
736.73	1170.59
737.06	1193.19
737.38	1166.07
737.70	1181.89
738.02	1184.15
738.34	1147.99
738.66	1154.77
738.98	1181.89
739.30	1134.43
739.62	1150.25
739.94	1206.75
740.26	1181.89
740.58	1147.99
740.90	1143.47
741.23	1172.85
741.55	1136.69
741.87	1188.67
742.19	1186.41
742.51	1159.29
742.83	1145.73
743.15	1125.39
743.47	1197.71
743.79	1145.73
744.11	1152.51
744.43	1181.89
744.75	1096.02
745.07	1195.45
745.39	1175.11
745.71	1197.71
746.03	1175.11
746.35	1134.43
746.67	1141.21
746.98	1172.85
747.30	1211.27
747.62	1147.99
747.94	1209.01
748.26	1181.89
748.58	1132.17
748.90	1222.57
749.22	1145.73
749.54	1157.03
749.86	1123.13
750.18	1120.87
750.50	1168.33
750.82	1195.45
751.13	1175.11
751.45	1145.73
751.77	1233.87
752.09	1188.67
752.41	1190.93
752.73	1150.25
753.05	1138.95
753.36	1111.84
753.68	1195.45
754.00	1129.91
754.32	1202.23
754.64	1157.03
754.96	1184.15
755.28	1161.55
755.59	1170.59
755.91	1143.47
756.23	1134.43
756.55	1168.33
756.87	1123.13
757.18	1218.05
757.50	1172.85
757.82	1163.81
758.14	1168.33
758.45	1188.67
758.77	1159.29
759.09	1242.91
759.41	1218.05
759.73	1190.93
760.04	1193.19
760.36	1157.03
760.68	1218.05
760.99	1179.63
761.31	1177.37
761.63	1202.23
761.95	1193.19
762.26	1188.67
762.58	1188.67
762.90	1211.27
763.21	1125.39
763.53	1184.15
763.85	1186.41
764.17	1229.35
764.48	1136.69
764.80	1213.53
765.12	1161.55
765.43	1147.99
765.75	1127.65
766.07	1159.29
766.38	1229.35
766.70	1222.57
767.01	1224.83
767.33	1186.41
767.65	1166.07
767.96	1170.59
768.28	1202.23
768.60	1159.29
768.91	1143.47
769.23	1161.55
769.54	1157.03
769.86	1177.37
770.18	1224.83
770.49	1215.79
770.81	1195.45
771.12	1224.83
771.44	1138.95
771.75	1184.15
772.07	1175.11
772.38	1163.81
772.70	1218.05
773.02	1206.75
773.33	1172.85
773.65	1177.37
773.96	1129.91
774.28	1150.25
774.59	1181.89
774.91	1231.61
775.22	1179.63
775.54	1197.71
775.85	1157.03
776.17	1166.07
776.48	1231.61
776.80	1125.39
777.11	1195.45
777.43	1172.85
777.74	1125.39
778.05	1150.25
778.37	1233.87
778.68	1125.39
779.00	1206.75
779.31	1159.29
779.63	1127.65
779.94	1147.99
780.26	1215.79
780.57	1220.31
780.88	1166.07
781.20	1202.23
781.51	1170.59
781.83	1154.77
782.14	1193.19
782.45	1206.75
782.77	1150.25
783.08	1233.87
783.39	1204.49
783.71	1163.81
784.02	1190.93
784.34	1215.79
784.65	1159.29
784.96	1186.41
785.28	1159.29
785.59	1224.83
785.90	1177.37
786.22	1141.21
786.53	1197.71
786.84	1163.81
787.15	1159.29
787.47	1143.47
787.78	1125.39
788.09	1181.89
788.41	1161.55
788.72	1154.77
789.03	1129.91
789.35	1134.43
789.66	1143.47
789.97	1172.85
790.28	1163.81
790.60	1197.71
790.91	1195.45
791.22	1109.58
791.53	1143.47
791.84	1181.89
792.16	1138.95
792.47	1134.43
792.78	1188.67
793.09	1154.77
793.41	1143.47
793.72	1163.81
794.03	1199.97
794.34	1193.19
794.65	1157.03
794.96	1159.29
795.28	1242.91
795.59	1204.49
795.90	1152.51
796.21	1181.89
796.52	1186.41
796.83	1184.15
797.15	1150.25
797.46	1188.67
797.77	1211.27
798.08	1238.39
798.39	1120.87
798.70	1206.75
799.01	1157.03
799.32	1125.39
799.63	1186.41
799.95	1163.81
800.26	1177.37
800.57	1193.19
800.88	1199.97
801.19	1163.81
801.50	1172.85
801.81	1175.11
802.12	1157.03
802.43	1222.57
802.74	1150.25
803.05	1114.10
803.36	1145.73
803.67	1163.81
803.98	1188.67
804.29	1132.17
804.60	1211.27
804.91	1150.25
805.22	1204.49
805.53	1206.75
805.84	1166.07
806.15	1211.27
806.46	1170.59
806.77	1157.03
807.08	1111.84
807.39	1093.76
807.70	1195.45
808.01	1129.91
808.32	1220.31
808.63	1213.53
808.94	1202.23
809.25	1211.27
809.56	1204.49
809.87	1184.15
810.18	1209.01
810.49	1175.11
810.79	1199.97
811.10	1204.49
811.41	1224.83
811.72	1209.01
812.03	1218.05
812.34	1138.95
812.65	1227.09
812.96	1193.19
813.27	1193.19
813.57	1163.81
813.88	1227.09
814.19	1161.55
814.50	1179.63
814.81	1157.03
815.12	1154.77
815.42	1154.77
815.73	1111.84
816.04	1168.33
816.35	1143.47
816.66	1188.67
816.97	1132.17
817.27	1136.69
817.58	1125.39
817.89	1184.15
818.20	1204.49
818.50	1231.61
818.81	1245.16
819.12	1161.55
819.43	1163.81
819.73	1161.55
820.04	1132.17
820.35	1195.45
820.66	1143.47
820.96	1188.67
821.27	1109.58
821.58	1190.93
821.89	1138.95
822.19	1168.33
822.50	1152.51
822.81	1195.45
823.11	1204.49
823.42	1147.99
823.73	1177.37
824.03	1166.07
824.34	1107.32
824.65	1184.15
824.95	1136.69
825.26	1129.91
825.57	1231.61
825.87	1209.01
826.18	1233.87
826.49	1211.27
826.79	1145.73
827.10	1141.21
827.40	1105.06
827.71	1184.15
828.02	1157.03
828.32	1129.91
828.63	1188.67
828.93	1206.75
829.24	1224.83
829.55	1147.99
829.85	1215.79
830.16	1147.99
830.46	1141.21
830.77	1138.95
831.07	1166.07
831.38	1175.11
831.69	1138.95
831.99	1091.50
832.30	1202.23
832.60	1127.65
832.91	1195.45
833.21	1204.49
833.52	1193.19
833.82	1132.17
834.13	1197.71
834.43	1188.67
834.74	1177.37
835.04	1170.59
835.35	1098.28
835.65	1181.89
835.96	1181.89
836.26	1152.51
836.56	1136.69
836.87	1238.39
837.17	1093.76
837.48	1186.41
837.78	1150.25
838.09	1166.07
838.39	1143.47
838.69	1206.75
839.00	1100.54
839.30	1154.77
839.61	1166.07
839.91	1161.55
840.21	1145.73
840.52	1159.29
840.82	1143.47
841.13	1150.25
841.43	1141.21
841.73	1134.43
842.04	1157.03
842.34	1154.77
842.64	1077.94
842.95	1138.95
843.25	1172.85
843.55	1199.97
843.86	1152.51
844.16	1197.71
844.46	1145.73
844.77	1120.87
845.07	1143.47
845.37	1177.37
845.68	1199.97
845.98	1147.99
846.28	1179.63
846.58	1181.89
846.89	1093.76
847.19	1166.07
847.49	1220.31
847.79	1170.59
848.10	1188.67
848.40	1147.99
848.70	1147.99
849.00	1231.61
849.31	1188.67
849.61	1184.15
849.91	1220.31
850.21	1222.57
850.51	1132.17
850.82	1136.69
851.12	1150.25
851.42	1107.32
851.72	1136.69
852.02	1143.47
852.32	1157.03
852.63	1154.77
852.93	1181.89
853.23	1179.63
853.53	1213.53
853.83	1147.99
854.13	1147.99
854.43	1116.35
854.74	1134.43
855.04	1199.97
855.34	1190.93
855.64	1132.17
855.94	1166.07
856.24	1175.11
856.54	1132.17
856.84	1186.41
857.14	1168.33
857.44	1211.27
857.74	1166.07
858.05	1177.37
858.35	1168.33
858.65	1134.43
858.95	1172.85
859.25	1236.13
859.55	1134.43
859.85	1147.99
860.15	1118.61
860.45	1145.73
860.75	1141.21
861.05	1227.09
861.35	1188.67
861.65	1147.99
861.95	1143.47
862.25	1190.93
862.55	1091.50
862.85	1168.33
863.15	1177.37
863.45	1161.55
863.75	1132.17
864.05	1184.15
864.35	1172.85
864.64	1168.33
864.94	1213.53
865.24	1197.71
865.54	1114.10
865.84	1157.03
866.14	1181.89
866.44	1220.31
866.74	1177.37
867.04	1170.59
867.34	1120.87
867.64	1150.25
867.93	1138.95
868.23	1084.72
868.53	1170.59
868.83	1172.85
869.13	1152.51
869.43	1114.10
869.73	1172.85
870.02	1141.21
870.32	1145.73
870.62	1179.63
870.92	1170.59
871.22	1152.51
871.51	1218.05
871.81	1161.55
872.11	1181.89
872.41	1163.81
872.71	1188.67
873.00	1141.21
873.30	1077.94
873.60	1166.07
873.90	1118.61
874.19	1163.81
874.49	1197.71
874.79	1209.01
875.09	1138.95
875.38	1141.21
875.68	1227.09
875.98	1211.27
876.28	1147.99
876.57	1186.41
876.87	1186.41
877.17	1186.41
