174.03	775.12
174.41	775.12
174.78	775.12
175.16	786.42
175.54	711.85
175.92	761.56
176.30	827.10
176.67	788.68
177.05	815.80
177.43	831.62
177.81	802.24
178.19	829.36
178.56	840.66
178.94	865.51
179.32	860.99
179.70	899.41
180.08	953.65
180.45	962.69
180.83	931.05
181.21	953.65
181.59	978.51
181.96	1035.00
182.34	1055.34
182.72	1071.16
183.10	1068.90
183.48	1096.02
183.85	1105.06
184.23	1152.51
184.61	1098.28
184.99	1134.43
185.36	1150.25
185.74	1134.43
186.12	1147.99
186.50	1197.71
186.87	1190.93
187.25	1190.93
187.63	1125.39
188.01	1168.33
188.38	1166.07
188.76	1123.13
189.14	1211.27
189.52	1163.81
189.89	1220.31
190.27	1170.59
190.65	1157.03
191.02	1179.63
191.40	1220.31
191.78	1134.43
192.16	1179.63
192.53	1218.05
192.91	1195.45
193.29	1163.81
193.66	1150.25
194.04	1188.67
194.42	1116.35
194.79	1107.32
195.17	1138.95
195.55	1157.03
195.93	1181.89
196.30	1179.63
196.68	1132.17
197.06	1175.11
197.43	1123.13
197.81	1134.43
198.19	1150.25
198.56	1188.67
198.94	1141.21
199.32	1143.47
199.69	1136.69
200.07	1141.21
200.45	1195.45
200.82	1136.69
201.20	1147.99
201.58	1141.21
201.95	1109.58
202.33	1147.99
202.71	1125.39
203.08	1136.69
203.46	1136.69
203.84	1170.59
204.21	1166.07
204.59	1199.97
204.96	1114.10
205.34	1143.47
205.72	1181.89
206.09	1218.05
206.47	1132.17
206.85	1143.47
207.22	1096.02
207.60	1141.21
207.97	1098.28
208.35	1163.81
208.73	1141.21
209.10	1048.56
209.48	1136.69
209.85	1152.51
210.23	1147.99
210.61	1186.41
210.98	1179.63
211.36	1209.01
211.73	1141.21
212.11	1218.05
212.49	1145.73
212.86	1186.41
213.24	1138.95
213.61	1168.33
213.99	1136.69
214.37	1125.39
214.74	1177.37
215.12	1134.43
215.49	1227.09
215.87	1143.47
216.24	1120.87
216.62	1197.71
216.99	1089.24
217.37	1123.13
217.75	1154.77
218.12	1143.47
218.50	1190.93
218.87	1141.21
219.25	1129.91
219.62	1168.33
220.00	1157.03
220.37	1136.69
220.75	1177.37
221.12	1172.85
221.50	1102.80
221.87	1179.63
222.25	1190.93
222.63	1170.59
223.00	1154.77
223.38	1206.75
223.75	1170.59
224.13	1159.29
224.50	1159.29
224.88	1175.11
225.25	1109.58
225.63	1161.55
226.00	1145.73
226.38	1177.37
226.75	1177.37
227.13	1177.37
227.50	1163.81
227.88	1166.07
228.25	1204.49
228.63	1199.97
229.00	1157.03
229.37	1150.25
229.75	1150.25
230.12	1181.89
230.50	1170.59
230.87	1231.61
231.25	1181.89
231.62	1229.35
232.00	1197.71
232.37	1152.51
232.75	1136.69
233.12	1172.85
233.50	1222.57
233.87	1093.76
234.24	1125.39
234.62	1202.23
234.99	1170.59
235.37	1179.63
235.74	1166.07
236.12	1141.21
236.49	1193.19
236.86	1186.41
237.24	1193.19
237.61	1132.17
237.99	1168.33
238.36	1179.63
238.74	1166.07
239.11	1138.95
239.48	1138.95
239.86	1064.38
240.23	1197.71
240.61	1186.41
240.98	1193.19
241.35	1199.97
241.73	1177.37
242.10	1184.15
242.48	1123.13
242.85	1184.15
243.22	1166.07
243.60	1166.07
243.97	1184.15
244.34	1172.85
244.72	1188.67
245.09	1166.07
245.47	1129.91
245.84	1098.28
246.21	1240.65
246.59	1231.61
246.96	1125.39
247.33	1154.77
247.71	1166.07
248.08	1236.13
248.45	1197.71
248.83	1206.75
249.20	1249.68
249.57	1134.43
249.95	1184.15
250.32	1143.47
250.69	1172.85
251.07	1188.67
251.44	1175.11
251.81	1218.05
252.19	1175.11
252.56	1129.91
252.93	1159.29
253.31	1202.23
253.68	1170.59
254.05	1175.11
254.43	1157.03
254.80	1172.85
255.17	1143.47
255.55	1204.49
255.92	1199.97
256.29	1193.19
256.66	1152.51
257.04	1172.85
257.41	1199.97
257.78	1166.07
258.16	1175.11
258.53	1238.39
258.90	1181.89
259.27	1163.81
259.65	1188.67
260.02	1197.71
260.39	1141.21
260.76	1170.59
261.14	1100.54
261.51	1172.85
261.88	1211.27
262.25	1170.59
262.63	1197.71
263.00	1195.45
263.37	1150.25
263.74	1170.59
264.12	1134.43
264.49	1152.51
264.86	1132.17
265.23	1114.10
265.61	1136.69
265.98	1166.07
266.35	1220.31
266.72	1218.05
267.09	1195.45
267.47	1145.73
267.84	1193.19
268.21	1231.61
268.58	1145.73
268.95	1152.51
269.33	1190.93
269.70	1184.15
270.07	1166.07
270.44	1177.37
270.81	1215.79
271.19	1190.93
271.56	1179.63
271.93	1236.13
272.30	1236.13
272.67	1181.89
273.05	1107.32
273.42	1159.29
273.79	1161.55
274.16	1197.71
274.53	1204.49
274.90	1222.57
275.28	1265.50
275.65	1129.91
276.02	1211.27
276.39	1143.47
276.76	1168.33
277.13	1143.47
277.50	1168.33
277.88	1143.47
278.25	1222.57
278.62	1204.49
278.99	1170.59
279.36	1211.27
279.73	1186.41
280.10	1168.33
280.47	1118.61
280.85	1177.37
281.22	1242.91
281.59	1134.43
281.96	1114.10
282.33	1190.93
282.70	1132.17
283.07	1168.33
283.44	1211.27
283.81	1159.29
284.18	1202.23
284.56	1168.33
284.93	1116.35
285.30	1215.79
285.67	1260.98
286.04	1179.63
286.41	1145.73
286.78	1242.91
287.15	1172.85
287.52	1175.11
287.89	1227.09
288.26	1231.61
288.63	1190.93
289.00	1199.97
289.37	1211.27
289.75	1175.11
290.12	1199.97
290.49	1188.67
290.86	1136.69
291.23	1168.33
291.60	1177.37
291.97	1181.89
292.34	1186.41
292.71	1166.07
293.08	1163.81
293.45	1170.59
293.82	1197.71
294.19	1254.20
294.56	1242.91
294.93	1227.09
295.30	1172.85
295.67	1175.11
296.04	1186.41
296.41	1096.02
296.78	1274.54
297.15	1186.41
297.52	1215.79
297.89	1195.45
298.26	1161.55
298.63	1190.93
299.00	1199.97
299.37	1197.71
299.74	1215.79
300.11	1199.97
300.48	1152.51
300.85	1199.97
301.22	1175.11
301.59	1267.76
301.96	1218.05
302.33	1202.23
302.70	1179.63
303.07	1193.19
303.43	1193.19
303.80	1186.41
304.17	1147.99
304.54	1175.11
304.91	1147.99
305.28	1114.10
305.65	1193.19
306.02	1193.19
306.39	1150.25
306.76	1224.83
307.13	1249.68
307.50	1184.15
307.87	1172.85
308.24	1240.65
308.60	1218.05
308.97	1211.27
309.34	1206.75
309.71	1172.85
310.08	1186.41
310.45	1150.25
310.82	1181.89
311.19	1193.19
311.56	1177.37
311.92	1193.19
312.29	1245.16
312.66	1154.77
313.03	1177.37
313.40	1175.11
313.77	1218.05
314.14	1231.61
314.51	1161.55
314.87	1206.75
315.24	1166.07
315.61	1224.83
315.98	1213.53
316.35	1260.98
316.72	1199.97
317.09	1276.80
317.45	1267.76
317.82	1215.79
318.19	1202.23
318.56	1159.29
318.93	1247.42
319.30	1260.98
319.66	1215.79
320.03	1281.32
320.40	1197.71
320.77	1186.41
321.14	1213.53
321.50	1229.35
321.87	1227.09
322.24	1260.98
322.61	1132.17
322.98	1254.20
323.34	1218.05
323.71	1143.47
324.08	1175.11
324.45	1166.07
324.82	1220.31
325.18	1260.98
325.55	1157.03
325.92	1195.45
326.29	1254.20
326.65	1199.97
327.02	1181.89
327.39	1206.75
327.76	1242.91
328.12	1231.61
328.49	1247.42
328.86	1211.27
329.23	1211.27
329.59	1263.24
329.96	1197.71
330.33	1229.35
330.70	1188.67
331.06	1184.15
331.43	1224.83
331.80	1195.45
332.17	1256.46
332.53	1294.88
332.90	1238.39
333.27	1213.53
333.63	1154.77
334.00	1267.76
334.37	1299.40
334.74	1247.42
335.10	1179.63
335.47	1143.47
335.84	1166.07
336.20	1202.23
336.57	1222.57
336.94	1254.20
337.30	1206.75
337.67	1233.87
338.04	1242.91
338.40	1218.05
338.77	1170.59
339.14	1292.62
339.50	1188.67
339.87	1276.80
340.24	1292.62
340.60	1175.11
340.97	1186.41
341.34	1213.53
341.70	1150.25
342.07	1177.37
342.44	1224.83
342.80	1227.09
343.17	1213.53
343.53	1260.98
343.90	1267.76
344.27	1283.58
344.63	1227.09
345.00	1195.45
345.37	1299.40
345.73	1215.79
346.10	1209.01
346.46	1202.23
346.83	1292.62
347.20	1163.81
347.56	1229.35
347.93	1222.57
348.29	1181.89
348.66	1312.96
349.03	1299.40
349.39	1190.93
349.76	1324.26
350.12	1283.58
350.49	1294.88
350.85	1288.10
351.22	1256.46
351.59	1258.72
351.95	1301.66
352.32	1218.05
352.68	1197.71
353.05	1213.53
353.41	1227.09
353.78	1218.05
354.14	1285.84
354.51	1218.05
354.88	1256.46
355.24	1260.98
355.61	1306.18
355.97	1292.62
356.34	1254.20
356.70	1204.49
357.07	1222.57
357.43	1285.84
357.80	1324.26
358.16	1299.40
358.53	1310.70
358.89	1301.66
359.26	1274.54
359.62	1270.02
359.99	1283.58
360.35	1267.76
360.72	1294.88
361.08	1233.87
361.45	1283.58
361.81	1299.40
362.18	1324.26
362.54	1274.54
362.91	1227.09
363.27	1258.72
363.63	1276.80
364.00	1290.36
364.36	1276.80
364.73	1317.48
365.09	1297.14
365.46	1346.86
365.82	1283.58
366.19	1279.06
366.55	1340.08
366.91	1353.64
367.28	1297.14
367.64	1425.95
368.01	1285.84
368.37	1319.74
368.74	1378.49
369.10	1389.79
369.46	1331.04
369.83	1324.26
370.19	1378.49
370.56	1394.31
370.92	1346.86
371.28	1371.72
371.65	1410.13
372.01	1392.05
372.38	1380.75
372.74	1364.94
373.10	1344.60
373.47	1401.09
373.83	1383.01
374.19	1444.03
374.56	1419.17
374.92	1425.95
375.29	1396.57
375.65	1401.09
376.01	1416.91
376.38	1407.87
376.74	1450.81
377.10	1453.07
377.47	1437.25
377.83	1575.10
378.19	1579.62
378.56	1529.90
378.92	1620.30
379.28	1613.52
379.65	1595.44
380.01	1676.79
380.37	1771.70
380.74	1688.09
381.10	1764.93
381.46	1755.89
381.83	1850.80
382.19	1979.61
382.55	1943.45
382.91	2063.22
383.28	2081.30
383.64	2169.43
384.00	2268.87
384.37	2413.50
384.73	2431.57
385.09	2605.58
385.45	2738.91
385.82	2879.02
386.18	3136.64
386.54	3190.88
386.91	3480.13
387.27	3715.16
387.63	4060.91
387.99	4142.26
388.36	4614.57
388.72	4854.11
389.08	5265.40
389.44	5595.33
389.80	6015.66
390.17	6384.01
390.53	6989.65
390.89	7710.53
391.25	8044.99
391.62	8682.26
391.98	9615.57
392.34	10404.25
392.70	10989.54
393.06	12026.80
393.43	12580.46
393.79	13362.36
394.15	14096.80
394.51	14849.33
394.87	16157.77
395.24	17536.26
395.60	18928.32
395.96	20487.60
396.32	21737.28
396.68	23576.78
397.04	25707.80
397.41	27278.38
397.77	29653.46
398.13	31816.11
398.49	33845.44
398.85	36304.13
399.21	39924.37
399.58	42570.63
399.94	44934.41
400.30	49517.34
400.66	50708.27
401.02	53806.49
401.38	55564.64
401.74	57354.42
402.11	59494.48
402.47	60793.88
402.83	61817.58
403.19	63306.81
403.55	64667.23
403.91	65535.00
404.27	65535.00
404.63	65535.00
404.99	65535.00
405.35	65535.00
405.72	65535.00
406.08	65535.00
406.44	65535.00
406.80	65535.00
407.16	65535.00
407.52	65535.00
407.88	65535.00
408.24	65535.00
408.60	65535.00
408.96	65535.00
409.32	65535.00
409.68	65535.00
410.04	65535.00
410.40	65535.00
410.76	65535.00
411.13	64332.77
411.49	63681.94
411.85	62201.75
412.21	60762.24
412.57	59729.50
412.93	58443.66
413.29	56805.29
413.65	54818.90
414.01	52818.95
414.37	49826.94
414.73	48516.24
415.09	46518.55
415.45	45124.24
415.81	42222.62
416.17	40638.48
416.53	38857.74
416.89	36697.34
417.25	35305.29
417.61	33124.55
417.97	32611.57
418.33	30394.68
418.69	30017.29
419.05	28817.32
419.41	27951.81
419.77	27391.37
420.12	25423.06
420.48	24037.79
420.84	23773.39
421.20	22123.71
421.56	21113.57
421.92	21176.84
422.28	19362.20
422.64	18474.09
423.00	17879.76
423.36	16944.19
423.72	15954.38
424.08	14476.46
424.44	14349.91
424.80	13732.97
425.16	13369.14
425.51	12259.56
425.87	12026.80
426.23	11109.31
426.59	10548.88
426.95	10331.93
427.31	9615.57
427.67	9527.43
428.03	8957.96
428.39	8632.54
428.74	7920.70
429.10	7581.72
429.46	7317.32
429.82	6921.85
430.18	6693.61
430.54	6485.71
430.90	6447.29
431.26	6108.31
431.61	5913.97
431.97	5606.63
432.33	5513.98
432.69	5330.93
433.05	5193.08
433.41	4906.09
433.76	4829.25
434.12	4652.98
434.48	4438.30
434.84	4320.79
435.20	4146.78
435.55	4067.69
435.91	3941.14
436.27	3891.42
436.63	3742.27
436.99	3672.22
437.34	3534.37
437.70	3450.76
438.06	3405.56
438.42	3199.92
438.78	3211.22
439.13	2962.63
439.49	2946.82
439.85	2709.53
440.21	2795.41
440.56	2698.23
440.92	2639.48
441.28	2551.35
441.64	2592.02
441.99	2481.29
442.35	2282.43
442.71	2350.22
443.07	2275.65
443.42	2271.13
443.78	2253.05
444.14	2201.07
444.50	2158.14
444.85	2126.50
445.21	2103.90
445.57	2085.82
445.93	2047.40
446.28	1920.85
446.64	1947.97
447.00	1905.03
447.35	1923.11
447.71	1909.55
448.07	1923.11
448.42	1769.44
448.78	1868.88
449.14	1848.54
449.49	1783.00
449.85	1807.86
450.21	1785.26
450.56	1715.21
450.92	1656.45
451.28	1658.71
451.63	1701.65
451.99	1758.15
452.35	1586.40
452.70	1615.78
453.06	1602.22
453.42	1480.19
453.77	1543.46
454.13	1568.32
454.49	1496.01
454.84	1538.94
455.20	1520.86
455.55	1507.30
455.91	1500.53
456.27	1502.79
456.62	1491.49
456.98	1446.29
457.33	1410.13
457.69	1428.21
458.05	1453.07
458.40	1360.42
458.76	1407.87
459.11	1378.49
459.47	1367.20
459.83	1416.91
460.18	1322.00
460.54	1430.47
460.89	1373.98
461.25	1362.68
461.60	1349.12
461.96	1292.62
462.31	1364.94
462.67	1312.96
463.03	1355.90
463.38	1344.60
463.74	1303.92
464.09	1290.36
464.45	1276.80
464.80	1324.26
465.16	1337.82
465.51	1288.10
465.87	1333.30
466.22	1315.22
466.58	1276.80
466.93	1319.74
467.29	1260.98
467.64	1258.72
468.00	1351.38
468.35	1276.80
468.71	1260.98
469.06	1279.06
469.42	1227.09
469.77	1306.18
470.13	1260.98
470.48	1233.87
470.84	1267.76
471.19	1308.44
471.54	1303.92
471.90	1299.40
472.25	1274.54
472.61	1245.16
472.96	1231.61
473.32	1206.75
473.67	1204.49
474.03	1227.09
474.38	1288.10
474.73	1251.94
475.09	1281.32
475.44	1265.50
475.80	1303.92
476.15	1274.54
476.50	1251.94
476.86	1265.50
477.21	1276.80
477.57	1247.42
477.92	1242.91
478.27	1249.68
478.63	1254.20
478.98	1240.65
479.34	1193.19
479.69	1263.24
480.04	1222.57
480.40	1233.87
480.75	1260.98
481.10	1245.16
481.46	1299.40
481.81	1297.14
482.16	1215.79
482.52	1190.93
482.87	1242.91
483.22	1274.54
483.58	1193.19
483.93	1236.13
484.28	1258.72
484.64	1181.89
484.99	1186.41
485.34	1245.16
485.70	1279.06
486.05	1197.71
486.40	1245.16
486.76	1274.54
487.11	1179.63
487.46	1267.76
487.81	1177.37
488.17	1270.02
488.52	1274.54
488.87	1254.20
489.23	1224.83
489.58	1263.24
489.93	1301.66
490.28	1227.09
490.64	1163.81
490.99	1161.55
491.34	1161.55
491.69	1197.71
492.05	1218.05
492.40	1206.75
492.75	1276.80
493.10	1157.03
493.46	1249.68
493.81	1231.61
494.16	1163.81
494.51	1233.87
494.86	1136.69
495.22	1157.03
495.57	1159.29
495.92	1204.49
496.27	1204.49
496.62	1222.57
496.98	1190.93
497.33	1175.11
497.68	1258.72
498.03	1199.97
498.38	1211.27
498.74	1186.41
499.09	1177.37
499.44	1181.89
499.79	1190.93
500.14	1254.20
500.49	1175.11
500.85	1166.07
501.20	1220.31
501.55	1218.05
501.90	1211.27
502.25	1209.01
502.60	1202.23
502.95	1294.88
503.30	1193.19
503.66	1256.46
504.01	1229.35
504.36	1229.35
504.71	1172.85
505.06	1211.27
505.41	1224.83
505.76	1159.29
506.11	1215.79
506.46	1202.23
506.82	1184.15
507.17	1220.31
507.52	1281.32
507.87	1256.46
508.22	1147.99
508.57	1231.61
508.92	1236.13
509.27	1186.41
509.62	1168.33
509.97	1141.21
510.32	1218.05
510.67	1242.91
511.02	1211.27
511.37	1260.98
511.72	1186.41
512.07	1193.19
512.42	1279.06
512.77	1211.27
513.12	1202.23
513.47	1211.27
513.82	1274.54
514.17	1150.25
514.52	1188.67
514.87	1270.02
515.22	1256.46
515.57	1346.86
515.92	1233.87
516.27	1247.42
516.62	1209.01
516.97	1283.58
517.32	1249.68
517.67	1190.93
518.02	1263.24
518.37	1276.80
518.72	1222.57
519.07	1224.83
519.42	1211.27
519.77	1195.45
520.12	1272.28
520.47	1279.06
520.82	1251.94
521.17	1204.49
521.52	1220.31
521.87	1224.83
522.22	1209.01
522.56	1199.97
522.91	1129.91
523.26	1211.27
523.61	1267.76
523.96	1236.13
524.31	1218.05
524.66	1276.80
525.01	1247.42
525.36	1238.39
525.71	1206.75
526.05	1209.01
526.40	1181.89
526.75	1283.58
527.10	1263.24
527.45	1204.49
527.80	1209.01
528.15	1181.89
528.49	1236.13
528.84	1283.58
529.19	1233.87
529.54	1231.61
529.89	1177.37
530.24	1247.42
530.58	1254.20
530.93	1292.62
531.28	1308.44
531.63	1299.40
531.98	1206.75
532.33	1324.26
532.67	1251.94
533.02	1242.91
533.37	1254.20
533.72	1227.09
534.07	1288.10
534.41	1258.72
534.76	1197.71
535.11	1281.32
535.46	1272.28
535.80	1256.46
536.15	1283.58
536.50	1288.10
536.85	1213.53
537.19	1317.48
537.54	1245.16
537.89	1231.61
538.24	1290.36
538.58	1247.42
538.93	1265.50
539.28	1245.16
539.63	1213.53
539.97	1193.19
540.32	1227.09
540.67	1312.96
541.01	1249.68
541.36	1260.98
541.71	1240.65
542.06	1227.09
542.40	1260.98
542.75	1340.08
543.10	1238.39
543.44	1229.35
543.79	1240.65
544.14	1218.05
544.48	1251.94
544.83	1229.35
545.18	1254.20
545.52	1224.83
545.87	1231.61
546.22	1281.32
546.56	1236.13
546.91	1215.79
547.25	1197.71
547.60	1206.75
547.95	1249.68
548.29	1267.76
548.64	1242.91
548.99	1272.28
549.33	1218.05
549.68	1242.91
550.02	1238.39
550.37	1276.80
550.72	1260.98
551.06	1294.88
551.41	1213.53
551.75	1238.39
552.10	1179.63
552.45	1335.56
552.79	1154.77
553.14	1256.46
553.48	1260.98
553.83	1254.20
554.17	1245.16
554.52	1188.67
554.87	1195.45
555.21	1211.27
555.56	1276.80
555.90	1231.61
556.25	1222.57
556.59	1258.72
556.94	1272.28
557.28	1222.57
557.63	1222.57
557.97	1168.33
558.32	1204.49
558.66	1209.01
559.01	1238.39
559.35	1222.57
559.70	1215.79
560.04	1204.49
560.39	1202.23
560.73	1213.53
561.08	1141.21
561.42	1188.67
561.77	1186.41
562.11	1209.01
562.46	1157.03
562.80	1188.67
563.14	1204.49
563.49	1161.55
563.83	1181.89
564.18	1242.91
564.52	1263.24
564.87	1233.87
565.21	1209.01
565.56	1220.31
565.90	1245.16
566.24	1190.93
566.59	1222.57
566.93	1190.93
567.28	1206.75
567.62	1274.54
567.96	1276.80
568.31	1197.71
568.65	1238.39
569.00	1204.49
569.34	1240.65
569.68	1193.19
570.03	1220.31
570.37	1190.93
570.71	1215.79
571.06	1283.58
571.40	1211.27
571.74	1256.46
572.09	1279.06
572.43	1229.35
572.78	1188.67
573.12	1150.25
573.46	1179.63
573.80	1204.49
574.15	1213.53
574.49	1215.79
574.83	1202.23
575.18	1233.87
575.52	1141.21
575.86	1184.15
576.21	1170.59
576.55	1186.41
576.89	1233.87
577.24	1190.93
577.58	1206.75
577.92	1222.57
578.26	1202.23
578.61	1283.58
578.95	1166.07
579.29	1199.97
579.63	1204.49
579.98	1188.67
580.32	1206.75
580.66	1150.25
581.00	1157.03
581.35	1190.93
581.69	1245.16
582.03	1222.57
582.37	1215.79
582.72	1184.15
583.06	1224.83
583.40	1202.23
583.74	1145.73
584.08	1188.67
584.43	1195.45
584.77	1159.29
585.11	1263.24
585.45	1134.43
585.79	1161.55
586.13	1157.03
586.48	1215.79
586.82	1236.13
587.16	1138.95
587.50	1170.59
587.84	1157.03
588.18	1227.09
588.53	1204.49
588.87	1190.93
589.21	1166.07
589.55	1188.67
589.89	1245.16
590.23	1238.39
590.57	1224.83
590.92	1197.71
591.26	1247.42
591.60	1166.07
591.94	1190.93
592.28	1215.79
592.62	1220.31
592.96	1157.03
593.30	1204.49
593.64	1211.27
593.98	1177.37
594.32	1181.89
594.67	1211.27
595.01	1172.85
595.35	1188.67
595.69	1181.89
596.03	1195.45
596.37	1157.03
596.71	1195.45
597.05	1209.01
597.39	1175.11
597.73	1227.09
598.07	1184.15
598.41	1127.65
598.75	1132.17
599.09	1132.17
599.43	1229.35
599.77	1163.81
600.11	1279.06
600.45	1240.65
600.79	1179.63
601.13	1159.29
601.47	1168.33
601.81	1258.72
602.15	1220.31
602.49	1170.59
602.83	1211.27
603.17	1222.57
603.51	1193.19
603.85	1209.01
604.19	1209.01
604.53	1161.55
604.87	1220.31
605.21	1170.59
605.55	1211.27
605.89	1132.17
606.23	1159.29
606.56	1134.43
606.90	1136.69
607.24	1195.45
607.58	1202.23
607.92	1175.11
608.26	1111.84
608.60	1154.77
608.94	1186.41
609.28	1166.07
609.62	1166.07
609.95	1179.63
610.29	1242.91
610.63	1222.57
610.97	1233.87
611.31	1220.31
611.65	1166.07
611.99	1157.03
612.33	1152.51
612.66	1168.33
613.00	1181.89
613.34	1236.13
613.68	1233.87
614.02	1129.91
614.36	1177.37
614.69	1190.93
615.03	1120.87
615.37	1150.25
615.71	1143.47
616.05	1134.43
616.38	1150.25
616.72	1170.59
617.06	1186.41
617.40	1215.79
617.74	1222.57
618.07	1145.73
618.41	1147.99
618.75	1184.15
619.09	1190.93
619.42	1224.83
619.76	1186.41
620.10	1177.37
620.44	1213.53
620.77	1116.35
621.11	1190.93
621.45	1127.65
621.79	1168.33
622.12	1224.83
622.46	1175.11
622.80	1197.71
623.13	1136.69
623.47	1186.41
623.81	1163.81
624.15	1141.21
624.48	1197.71
624.82	1152.51
625.16	1175.11
625.49	1193.19
625.83	1224.83
626.17	1190.93
626.50	1150.25
626.84	1186.41
627.18	1172.85
627.51	1177.37
627.85	1188.67
628.19	1175.11
628.52	1190.93
628.86	1184.15
629.20	1129.91
629.53	1150.25
629.87	1163.81
630.20	1161.55
630.54	1147.99
630.88	1166.07
631.21	1138.95
631.55	1184.15
631.89	1157.03
632.22	1181.89
632.56	1213.53
632.89	1197.71
633.23	1276.80
633.56	1184.15
633.90	1206.75
634.24	1175.11
634.57	1204.49
634.91	1143.47
635.24	1170.59
635.58	1150.25
635.91	1145.73
636.25	1186.41
636.58	1218.05
636.92	1179.63
637.26	1177.37
637.59	1186.41
637.93	1190.93
638.26	1184.15
638.60	1195.45
638.93	1170.59
639.27	1161.55
639.60	1109.58
639.94	1181.89
640.27	1206.75
640.61	1215.79
640.94	1163.81
641.28	1218.05
641.61	1157.03
641.94	1186.41
642.28	1102.80
642.61	1211.27
642.95	1129.91
643.28	1120.87
643.62	1195.45
643.95	1147.99
644.29	1161.55
644.62	1118.61
644.95	1073.42
645.29	1141.21
645.62	1147.99
645.96	1138.95
646.29	1150.25
646.63	1215.79
646.96	1209.01
647.29	1222.57
647.63	1184.15
647.96	1220.31
648.29	1247.42
648.63	1177.37
648.96	1138.95
649.30	1143.47
649.63	1152.51
649.96	1120.87
650.30	1177.37
650.63	1134.43
650.96	1154.77
651.30	1215.79
651.63	1098.28
651.96	1157.03
652.30	1161.55
652.63	1170.59
652.96	1172.85
653.30	1245.16
653.63	1159.29
653.96	1138.95
654.30	1111.84
654.63	1218.05
654.96	1123.13
655.29	1141.21
655.63	1159.29
655.96	1220.31
656.29	1161.55
656.63	1193.19
656.96	1163.81
657.29	1256.46
657.62	1193.19
657.96	1145.73
658.29	1168.33
658.62	1154.77
658.95	1245.16
659.29	1159.29
659.62	1170.59
659.95	1111.84
660.28	1141.21
660.61	1152.51
660.95	1179.63
661.28	1127.65
661.61	1168.33
661.94	1179.63
662.27	1238.39
662.61	1188.67
662.94	1152.51
663.27	1141.21
663.60	1190.93
663.93	1197.71
664.27	1204.49
664.60	1247.42
664.93	1179.63
665.26	1141.21
665.59	1163.81
665.92	1211.27
666.25	1157.03
666.59	1197.71
666.92	1168.33
667.25	1141.21
667.58	1172.85
667.91	1175.11
668.24	1152.51
668.57	1127.65
668.90	1161.55
669.23	1181.89
669.57	1154.77
669.90	1163.81
670.23	1120.87
670.56	1166.07
670.89	1136.69
671.22	1166.07
671.55	1161.55
671.88	1220.31
672.21	1188.67
672.54	1138.95
672.87	1175.11
673.20	1181.89
673.53	1138.95
673.86	1188.67
674.19	1136.69
674.52	1154.77
674.85	1172.85
675.18	1152.51
675.51	1159.29
675.84	1220.31
676.17	1123.13
676.50	1138.95
676.83	1163.81
677.16	1186.41
677.49	1177.37
677.82	1150.25
678.15	1152.51
678.48	1188.67
678.81	1152.51
679.14	1145.73
679.47	1147.99
679.80	1166.07
680.13	1231.61
680.46	1147.99
680.79	1145.73
681.12	1127.65
681.45	1215.79
681.78	1229.35
682.11	1163.81
682.44	1181.89
682.77	1168.33
683.09	1132.17
683.42	1147.99
683.75	1170.59
684.08	1143.47
684.41	1170.59
684.74	1136.69
685.07	1163.81
685.40	1134.43
685.72	1184.15
686.05	1186.41
686.38	1188.67
686.71	1179.63
687.04	1161.55
687.37	1143.47
687.70	1170.59
688.02	1197.71
688.35	1105.06
688.68	1125.39
689.01	1179.63
689.34	1166.07
689.67	1138.95
689.99	1125.39
690.32	1143.47
690.65	1125.39
690.98	1161.55
691.30	1152.51
691.63	1202.23
691.96	1154.77
692.29	1157.03
692.62	1150.25
692.94	1163.81
693.27	1150.25
693.60	1177.37
693.93	1147.99
694.25	1166.07
694.58	1145.73
694.91	1127.65
695.24	1184.15
695.56	1184.15
695.89	1193.19
696.22	1152.51
696.54	1129.91
696.87	1179.63
697.20	1175.11
697.53	1195.45
697.85	1145.73
698.18	1175.11
698.51	1138.95
698.83	1143.47
699.16	1114.10
699.49	1105.06
699.81	1258.72
700.14	1177.37
700.47	1209.01
700.79	1168.33
701.12	1132.17
701.45	1222.57
701.77	1186.41
702.10	1136.69
702.42	1161.55
702.75	1114.10
703.08	1166.07
703.40	1150.25
703.73	1199.97
704.05	1161.55
704.38	1175.11
704.71	1134.43
705.03	1206.75
705.36	1143.47
705.68	1179.63
706.01	1177.37
706.34	1166.07
706.66	1193.19
706.99	1166.07
707.31	1193.19
707.64	1159.29
707.96	1111.84
708.29	1175.11
708.61	1143.47
708.94	1089.24
709.26	1129.91
709.59	1157.03
709.92	1168.33
710.24	1145.73
710.57	1147.99
710.89	1114.10
711.22	1098.28
711.54	1179.63
711.87	1177.37
712.19	1222.57
712.51	1150.25
712.84	1238.39
713.16	1154.77
713.49	1168.33
713.81	1218.05
714.14	1177.37
714.46	1204.49
714.79	1166.07
715.11	1127.65
715.44	1168.33
715.76	1166.07
716.08	1147.99
716.41	1120.87
716.73	1127.65
717.06	1186.41
717.38	1181.89
717.70	1127.65
718.03	1154.77
718.35	1091.50
718.68	1118.61
719.00	1150.25
719.32	1086.98
719.65	1143.47
719.97	1096.02
720.29	1168.33
720.62	1163.81
720.94	1123.13
721.27	1134.43
721.59	1145.73
721.91	1159.29
722.24	1134.43
722.56	1132.17
722.88	1152.51
723.21	1188.67
723.53	1141.21
723.85	1109.58
724.17	1136.69
724.50	1166.07
724.82	1145.73
725.14	1143.47
725.47	1190.93
725.79	1172.85
726.11	1157.03
726.43	1163.81
726.76	1116.35
727.08	1247.42
727.40	1084.72
727.72	1215.79
728.05	1141.21
728.37	1150.25
728.69	1089.24
729.01	1141.21
729.34	1120.87
729.66	1260.98
729.98	1242.91
730.30	1161.55
730.62	1143.47
730.95	1073.42
731.27	1204.49
731.59	1159.29
731.91	1199.97
732.23	1220.31
732.56	1147.99
732.88	1123.13
733.20	1109.58
733.52	1181.89
733.84	1227.09
734.16	1118.61
734.49	1152.51
734.81	1145.73
735.13	1136.69
735.45	1089.24
735.77	1161.55
736.09	1206.75
736.41	1068.90
736.73	1193.19
737.06	1186.41
737.38	1120.87
737.70	1150.25
738.02	1170.59
738.34	1184.15
738.66	1123.13
738.98	1098.28
739.30	1109.58
739.62	1136.69
739.94	1129.91
740.26	1152.51
740.58	1195.45
740.90	1111.84
741.23	1170.59
741.55	1154.77
741.87	1177.37
742.19	1163.81
742.51	1166.07
742.83	1134.43
743.15	1215.79
743.47	1166.07
743.79	1163.81
744.11	1154.77
744.43	1190.93
744.75	1120.87
745.07	1096.02
745.39	1181.89
745.71	1136.69
746.03	1161.55
746.35	1159.29
746.67	1193.19
746.98	1152.51
747.30	1199.97
747.62	1141.21
747.94	1229.35
748.26	1125.39
748.58	1129.91
748.90	1172.85
749.22	1179.63
749.54	1227.09
749.86	1166.07
750.18	1129.91
750.50	1224.83
750.82	1147.99
751.13	1170.59
751.45	1170.59
751.77	1184.15
752.09	1132.17
752.41	1181.89
752.73	1199.97
753.05	1143.47
753.36	1129.91
753.68	1152.51
754.00	1150.25
754.32	1154.77
754.64	1143.47
754.96	1172.85
755.28	1184.15
755.59	1233.87
755.91	1172.85
756.23	1181.89
756.55	1231.61
756.87	1168.33
757.18	1157.03
757.50	1152.51
757.82	1154.77
758.14	1184.15
758.45	1143.47
758.77	1168.33
759.09	1132.17
759.41	1120.87
759.73	1141.21
760.04	1150.25
760.36	1157.03
760.68	1102.80
760.99	1163.81
761.31	1141.21
761.63	1068.90
761.95	1204.49
762.26	1177.37
762.58	1159.29
762.90	1080.20
763.21	1100.54
763.53	1163.81
763.85	1125.39
764.17	1177.37
764.48	1177.37
764.80	1163.81
765.12	1163.81
765.43	1159.29
765.75	1186.41
766.07	1197.71
766.38	1161.55
766.70	1195.45
767.01	1227.09
767.33	1188.67
767.65	1211.27
767.96	1177.37
768.28	1129.91
768.60	1188.67
768.91	1141.21
769.23	1145.73
769.54	1150.25
769.86	1170.59
770.18	1159.29
770.49	1098.28
770.81	1175.11
771.12	1172.85
771.44	1220.31
771.75	1177.37
772.07	1168.33
772.38	1177.37
772.70	1218.05
773.02	1181.89
773.33	1170.59
773.65	1120.87
773.96	1134.43
774.28	1186.41
774.59	1190.93
774.91	1147.99
775.22	1159.29
775.54	1168.33
775.85	1190.93
776.17	1150.25
776.48	1227.09
776.80	1147.99
777.11	1152.51
777.43	1209.01
777.74	1161.55
778.05	1120.87
778.37	1136.69
778.68	1172.85
779.00	1170.59
779.31	1190.93
779.63	1195.45
779.94	1154.77
780.26	1157.03
780.57	1129.91
780.88	1132.17
781.20	1111.84
781.51	1170.59
781.83	1132.17
782.14	1150.25
782.45	1129.91
782.77	1111.84
783.08	1127.65
783.39	1186.41
783.71	1107.32
784.02	1163.81
784.34	1136.69
784.65	1143.47
784.96	1159.29
785.28	1188.67
785.59	1159.29
785.90	1220.31
786.22	1134.43
786.53	1154.77
786.84	1181.89
787.15	1143.47
787.47	1166.07
787.78	1132.17
788.09	1188.67
788.41	1150.25
788.72	1147.99
789.03	1123.13
789.35	1159.29
789.66	1114.10
789.97	1150.25
790.28	1177.37
790.60	1127.65
790.91	1129.91
791.22	1213.53
791.53	1091.50
791.84	1163.81
792.16	1145.73
792.47	1211.27
792.78	1136.69
793.09	1209.01
793.41	1159.29
793.72	1175.11
794.03	1154.77
794.34	1175.11
794.65	1159.29
794.96	1168.33
795.28	1215.79
795.59	1177.37
795.90	1129.91
796.21	1129.91
796.52	1170.59
796.83	1075.68
797.15	1179.63
797.46	1193.19
797.77	1193.19
798.08	1134.43
798.39	1152.51
798.70	1159.29
799.01	1105.06
799.32	1161.55
799.63	1186.41
799.95	1166.07
800.26	1134.43
800.57	1209.01
800.88	1154.77
801.19	1188.67
801.50	1111.84
801.81	1145.73
802.12	1120.87
802.43	1193.19
802.74	1143.47
803.05	1163.81
803.36	1247.42
803.67	1202.23
803.98	1163.81
804.29	1161.55
804.60	1179.63
804.91	1143.47
805.22	1186.41
805.53	1096.02
805.84	1166.07
806.15	1129.91
806.46	1096.02
806.77	1118.61
807.08	1134.43
807.39	1166.07
807.70	1118.61
808.01	1111.84
808.32	1177.37
808.63	1193.19
808.94	1168.33
809.25	1199.97
809.56	1206.75
809.87	1138.95
810.18	1199.97
810.49	1125.39
810.79	1147.99
811.10	1102.80
811.41	1152.51
811.72	1188.67
812.03	1127.65
812.34	1152.51
812.65	1209.01
812.96	1181.89
813.27	1206.75
813.57	1197.71
813.88	1150.25
814.19	1120.87
814.50	1166.07
814.81	1138.95
815.12	1186.41
815.42	1129.91
815.73	1179.63
816.04	1193.19
816.35	1098.28
816.66	1154.77
816.97	1161.55
817.27	1166.07
817.58	1141.21
817.89	1096.02
818.20	1120.87
818.50	1202.23
818.81	1102.80
819.12	1184.15
819.43	1177.37
819.73	1170.59
820.04	1177.37
820.35	1220.31
820.66	1136.69
820.96	1197.71
821.27	1193.19
821.58	1118.61
821.89	1170.59
822.19	1197.71
822.50	1179.63
822.81	1157.03
823.11	1172.85
823.42	1136.69
823.73	1166.07
824.03	1168.33
824.34	1125.39
824.65	1134.43
824.95	1159.29
825.26	1175.11
825.57	1177.37
825.87	1161.55
826.18	1172.85
826.49	1123.13
826.79	1107.32
827.10	1114.10
827.40	1100.54
827.71	1186.41
828.02	1159.29
828.32	1166.07
828.63	1193.19
828.93	1136.69
829.24	1186.41
829.55	1150.25
829.85	1134.43
830.16	1127.65
830.46	1138.95
830.77	1143.47
831.07	1251.94
831.38	1213.53
831.69	1096.02
831.99	1161.55
832.30	1152.51
832.60	1125.39
832.91	1175.11
833.21	1197.71
833.52	1193.19
833.82	1134.43
834.13	1161.55
834.43	1143.47
834.74	1152.51
835.04	1118.61
835.35	1102.80
835.65	1127.65
835.96	1166.07
836.26	1181.89
836.56	1218.05
836.87	1102.80
837.17	1202.23
837.48	1143.47
837.78	1170.59
838.09	1163.81
838.39	1204.49
838.69	1168.33
839.00	1202.23
839.30	1123.13
839.61	1170.59
839.91	1134.43
840.21	1161.55
840.52	1129.91
840.82	1150.25
841.13	1206.75
841.43	1134.43
841.73	1206.75
842.04	1170.59
842.34	1179.63
842.64	1134.43
842.95	1195.45
843.25	1125.39
843.55	1141.21
843.86	1138.95
844.16	1175.11
844.46	1193.19
844.77	1166.07
845.07	1129.91
845.37	1188.67
845.68	1166.07
845.98	1138.95
846.28	1136.69
846.58	1141.21
846.89	1190.93
847.19	1152.51
847.49	1114.10
847.79	1159.29
848.10	1204.49
848.40	1236.13
848.70	1218.05
849.00	1184.15
849.31	1159.29
849.61	1181.89
849.91	1170.59
850.21	1175.11
850.51	1240.65
850.82	1188.67
851.12	1168.33
851.42	1154.77
851.72	1127.65
852.02	1175.11
852.32	1177.37
852.63	1206.75
852.93	1199.97
853.23	1177.37
853.53	1145.73
853.83	1195.45
854.13	1220.31
854.43	1116.35
854.74	1195.45
855.04	1145.73
855.34	1129.91
855.64	1170.59
855.94	1154.77
856.24	1141.21
856.54	1127.65
856.84	1154.77
857.14	1166.07
857.44	1136.69
857.74	1197.71
858.05	1188.67
858.35	1202.23
858.65	1199.97
858.95	1152.51
859.25	1166.07
859.55	1204.49
859.85	1107.32
860.15	1157.03
860.45	1170.59
860.75	1152.51
861.05	1159.29
861.35	1238.39
861.65	1143.47
861.95	1116.35
862.25	1150.25
862.55	1199.97
862.85	1186.41
863.15	1098.28
863.45	1177.37
863.75	1120.87
864.05	1120.87
864.35	1197.71
864.64	1141.21
864.94	1172.85
865.24	1123.13
865.54	1163.81
865.84	1240.65
866.14	1179.63
866.44	1129.91
866.74	1229.35
867.04	1089.24
867.34	1116.35
867.64	1150.25
867.93	1084.72
868.23	1190.93
868.53	1193.19
868.83	1147.99
869.13	1123.13
869.43	1118.61
869.73	1147.99
870.02	1136.69
870.32	1206.75
870.62	1227.09
870.92	1152.51
871.22	1209.01
871.51	1175.11
871.81	1123.13
872.11	1132.17
872.41	1143.47
872.71	1091.50
873.00	1181.89
873.30	1159.29
873.60	1202.23
873.90	1163.81
874.19	1161.55
874.49	1186.41
874.79	1161.55
875.09	1163.81
875.38	1132.17
875.68	1188.67
875.98	1188.67
876.28	1195.45
876.57	1163.81
876.87	1163.81
877.17	1163.81
