174.03	779.64
174.41	779.64
174.78	779.64
175.16	718.63
175.54	743.48
175.92	716.37
176.30	716.37
176.67	711.85
177.05	745.74
177.43	768.34
177.81	738.96
178.19	720.88
178.56	890.37
178.94	851.96
179.32	836.14
179.70	849.70
180.08	897.15
180.45	876.81
180.83	935.57
181.21	942.35
181.59	949.13
181.96	960.43
182.34	1010.14
182.72	1028.22
183.10	994.32
183.48	1035.00
183.85	1075.68
184.23	1059.86
184.61	1021.44
184.99	1077.94
185.36	1175.11
185.74	1109.58
186.12	1098.28
186.50	1089.24
186.87	1118.61
187.25	1082.46
187.63	1102.80
188.01	1161.55
188.38	1143.47
188.76	1152.51
189.14	1195.45
189.52	1068.90
189.89	1129.91
190.27	1077.94
190.65	1055.34
191.02	1107.32
191.40	1109.58
191.78	1125.39
192.16	1116.35
192.53	1084.72
192.91	1066.64
193.29	1147.99
193.66	1071.16
194.04	1118.61
194.42	1166.07
194.79	1127.65
195.17	1062.12
195.55	1086.98
195.93	1118.61
196.30	1089.24
196.68	1064.38
197.06	1077.94
197.43	1030.48
197.81	1071.16
198.19	1075.68
198.56	1086.98
198.94	1046.30
199.32	1023.70
199.69	1127.65
200.07	1089.24
200.45	1111.84
200.82	1166.07
201.20	1100.54
201.58	1134.43
201.95	1059.86
202.33	1147.99
202.71	1093.76
203.08	1084.72
203.46	1075.68
203.84	1091.50
204.21	1075.68
204.59	1050.82
204.96	1096.02
205.34	1107.32
205.72	1096.02
206.09	1102.80
206.47	1127.65
206.85	1118.61
207.22	1116.35
207.60	1143.47
207.97	1096.02
208.35	1084.72
208.73	1071.16
209.10	1188.67
209.48	1147.99
209.85	1084.72
210.23	1059.86
210.61	1086.98
210.98	1102.80
211.36	1059.86
211.73	1082.46
212.11	1107.32
212.49	1143.47
212.86	1143.47
213.24	1098.28
213.61	1132.17
213.99	1080.20
214.37	1093.76
214.74	1116.35
215.12	1089.24
215.49	1159.29
215.87	1161.55
216.24	1143.47
216.62	1129.91
216.99	1181.89
217.37	1177.37
217.75	1118.61
218.12	1075.68
218.50	1084.72
218.87	1107.32
219.25	1116.35
219.62	1109.58
220.00	1145.73
220.37	1222.57
220.75	1157.03
221.12	1136.69
221.50	1114.10
221.87	1111.84
222.25	1093.76
222.63	1152.51
223.00	1132.17
223.38	1059.86
223.75	1127.65
224.13	1089.24
224.50	1179.63
224.88	1141.21
225.25	1118.61
225.63	1105.06
226.00	1202.23
226.38	1123.13
226.75	1102.80
227.13	1161.55
227.50	1125.39
227.88	1107.32
228.25	1145.73
228.63	1105.06
229.00	1120.87
229.37	1098.28
229.75	1154.77
230.12	1100.54
230.50	1102.80
230.87	1091.50
231.25	1116.35
231.62	1071.16
232.00	1125.39
232.37	1188.67
232.75	1123.13
233.12	1082.46
233.50	1129.91
233.87	1125.39
234.24	1086.98
234.62	1098.28
234.99	1114.10
235.37	1150.25
235.74	1100.54
236.12	1150.25
236.49	1114.10
236.86	1089.24
237.24	1098.28
237.61	1159.29
237.99	1116.35
238.36	1116.35
238.74	1091.50
239.11	1147.99
239.48	1100.54
239.86	1134.43
240.23	1118.61
240.61	1084.72
240.98	1086.98
241.35	1109.58
241.73	1077.94
242.10	1204.49
242.48	1041.78
242.85	1170.59
243.22	1195.45
243.60	1125.39
243.97	1132.17
244.34	1136.69
244.72	1172.85
245.09	1150.25
245.47	1150.25
245.84	1150.25
246.21	1093.76
246.59	1077.94
246.96	1163.81
247.33	1129.91
247.71	1161.55
248.08	1138.95
248.45	1059.86
248.83	1199.97
249.20	1161.55
249.57	1111.84
249.95	1129.91
250.32	1080.20
250.69	1114.10
251.07	1166.07
251.44	1109.58
251.81	1132.17
252.19	1075.68
252.56	1134.43
252.93	1111.84
253.31	1091.50
253.68	1179.63
254.05	1141.21
254.43	1116.35
254.80	1134.43
255.17	1127.65
255.55	1075.68
255.92	1143.47
256.29	1175.11
256.66	1134.43
257.04	1197.71
257.41	1163.81
257.78	1161.55
258.16	1170.59
258.53	1120.87
258.90	1175.11
259.27	1114.10
259.65	1138.95
260.02	1152.51
260.39	1186.41
260.76	1062.12
261.14	1132.17
261.51	1177.37
261.88	1096.02
262.25	1116.35
262.63	1145.73
263.00	1071.16
263.37	1186.41
263.74	1082.46
264.12	1193.19
264.49	1179.63
264.86	1089.24
265.23	1084.72
265.61	1116.35
265.98	1046.30
266.35	1091.50
266.72	1120.87
267.09	1109.58
267.47	1120.87
267.84	1184.15
268.21	1116.35
268.58	1114.10
268.95	1118.61
269.33	1116.35
269.70	1091.50
270.07	1109.58
270.44	1118.61
270.81	1134.43
271.19	1082.46
271.56	1071.16
271.93	1157.03
272.30	1157.03
272.67	1096.02
273.05	1186.41
273.42	1109.58
273.79	1114.10
274.16	1154.77
274.53	1143.47
274.90	1134.43
275.28	1107.32
275.65	1125.39
276.02	1118.61
276.39	1098.28
276.76	1172.85
277.13	1175.11
277.50	1145.73
277.88	1177.37
278.25	1141.21
278.62	1172.85
278.99	1147.99
279.36	1136.69
279.73	1138.95
280.10	1114.10
280.47	1175.11
280.85	1136.69
281.22	1134.43
281.59	1138.95
281.96	1152.51
282.33	1141.21
282.70	1125.39
283.07	1175.11
283.44	1123.13
283.81	1105.06
284.18	1145.73
284.56	1145.73
284.93	1147.99
285.30	1114.10
285.67	1204.49
286.04	1170.59
286.41	1107.32
286.78	1066.64
287.15	1163.81
287.52	1184.15
287.89	1096.02
288.26	1150.25
288.63	1175.11
289.00	1150.25
289.37	1166.07
289.75	1111.84
290.12	1175.11
290.49	1175.11
290.86	1154.77
291.23	1138.95
291.60	1157.03
291.97	1166.07
292.34	1163.81
292.71	1077.94
293.08	1116.35
293.45	1204.49
293.82	1147.99
294.19	1170.59
294.56	1120.87
294.93	1157.03
295.30	1177.37
295.67	1152.51
296.04	1206.75
296.41	1161.55
296.78	1213.53
297.15	1118.61
297.52	1152.51
297.89	1170.59
298.26	1168.33
298.63	1134.43
299.00	1132.17
299.37	1143.47
299.74	1143.47
300.11	1175.11
300.48	1127.65
300.85	1098.28
301.22	1129.91
301.59	1195.45
301.96	1168.33
302.33	1157.03
302.70	1111.84
303.07	1082.46
303.43	1141.21
303.80	1150.25
304.17	1256.46
304.54	1138.95
304.91	1163.81
305.28	1127.65
305.65	1129.91
306.02	1206.75
306.39	1163.81
306.76	1134.43
307.13	1170.59
307.50	1186.41
307.87	1166.07
308.24	1168.33
308.60	1138.95
308.97	1154.77
309.34	1188.67
309.71	1154.77
310.08	1154.77
310.45	1154.77
310.82	1181.89
311.19	1188.67
311.56	1138.95
311.92	1136.69
312.29	1147.99
312.66	1093.76
313.03	1096.02
313.40	1129.91
313.77	1170.59
314.14	1179.63
314.51	1166.07
314.87	1206.75
315.24	1127.65
315.61	1091.50
315.98	1161.55
316.35	1157.03
316.72	1193.19
317.09	1202.23
317.45	1188.67
317.82	1098.28
318.19	1181.89
318.56	1220.31
318.93	1170.59
319.30	1175.11
319.66	1138.95
320.03	1227.09
320.40	1111.84
320.77	1161.55
321.14	1175.11
321.50	1254.20
321.87	1170.59
322.24	1134.43
322.61	1190.93
322.98	1218.05
323.34	1107.32
323.71	1222.57
324.08	1260.98
324.45	1166.07
324.82	1224.83
325.18	1147.99
325.55	1179.63
325.92	1161.55
326.29	1168.33
326.65	1181.89
327.02	1179.63
327.39	1129.91
327.76	1188.67
328.12	1204.49
328.49	1154.77
328.86	1118.61
329.23	1147.99
329.59	1166.07
329.96	1197.71
330.33	1204.49
330.70	1206.75
331.06	1134.43
331.43	1143.47
331.80	1227.09
332.17	1132.17
332.53	1254.20
332.90	1199.97
333.27	1168.33
333.63	1129.91
334.00	1143.47
334.37	1147.99
334.74	1254.20
335.10	1206.75
335.47	1190.93
335.84	1193.19
336.20	1127.65
336.57	1154.77
336.94	1199.97
337.30	1147.99
337.67	1168.33
338.04	1222.57
338.40	1129.91
338.77	1254.20
339.14	1236.13
339.50	1193.19
339.87	1184.15
340.24	1227.09
340.60	1254.20
340.97	1213.53
341.34	1193.19
341.70	1177.37
342.07	1249.68
342.44	1161.55
342.80	1209.01
343.17	1184.15
343.53	1233.87
343.90	1150.25
344.27	1168.33
344.63	1229.35
345.00	1222.57
345.37	1193.19
345.73	1136.69
346.10	1227.09
346.46	1199.97
346.83	1242.91
347.20	1193.19
347.56	1166.07
347.93	1206.75
348.29	1168.33
348.66	1199.97
349.03	1184.15
349.39	1175.11
349.76	1161.55
350.12	1220.31
350.49	1220.31
350.85	1206.75
351.22	1211.27
351.59	1168.33
351.95	1206.75
352.32	1179.63
352.68	1231.61
353.05	1199.97
353.41	1236.13
353.78	1245.16
354.14	1215.79
354.51	1204.49
354.88	1211.27
355.24	1195.45
355.61	1215.79
355.97	1206.75
356.34	1274.54
356.70	1272.28
357.07	1195.45
357.43	1188.67
357.80	1240.65
358.16	1184.15
358.53	1195.45
358.89	1229.35
359.26	1233.87
359.62	1258.72
359.99	1247.42
360.35	1218.05
360.72	1251.94
361.08	1229.35
361.45	1229.35
361.81	1224.83
362.18	1256.46
362.54	1364.94
362.91	1299.40
363.27	1254.20
363.63	1206.75
364.00	1299.40
364.36	1292.62
364.73	1274.54
365.09	1385.27
365.46	1254.20
365.82	1301.66
366.19	1267.76
366.55	1373.98
366.91	1220.31
367.28	1315.22
367.64	1272.28
368.01	1349.12
368.37	1367.20
368.74	1331.04
369.10	1326.52
369.46	1369.46
369.83	1322.00
370.19	1276.80
370.56	1317.48
370.92	1249.68
371.28	1260.98
371.65	1326.52
372.01	1292.62
372.38	1387.53
372.74	1376.24
373.10	1371.72
373.47	1387.53
373.83	1337.82
374.19	1416.91
374.56	1360.42
374.92	1398.83
375.29	1489.23
375.65	1396.57
376.01	1444.03
376.38	1385.27
376.74	1505.05
377.10	1421.43
377.47	1403.35
377.83	1536.68
378.19	1547.98
378.56	1552.50
378.92	1536.68
379.28	1547.98
379.65	1654.19
380.01	1627.08
380.37	1685.83
380.74	1726.51
381.10	1767.19
381.46	1853.06
381.83	1925.37
382.19	1875.66
382.55	1993.17
382.91	2074.52
383.28	2090.34
383.64	2327.62
384.00	2298.24
384.37	2395.42
384.73	2456.43
385.09	2723.09
385.45	2829.30
385.82	3080.14
386.18	3120.82
386.54	3500.47
386.91	3712.90
387.27	3875.60
387.63	4112.89
387.99	4239.44
388.36	4630.39
388.72	5113.99
389.08	5321.89
389.44	5889.11
389.80	6189.67
390.17	6709.43
390.53	7312.80
390.89	8157.98
391.25	8390.74
391.62	9100.33
391.98	10087.87
392.34	11378.23
392.70	11667.49
393.06	12621.14
393.43	13516.03
393.79	14132.96
394.15	15242.54
394.51	16239.12
394.87	17445.87
395.24	18907.98
395.60	20372.35
395.96	21762.14
396.32	23355.32
396.68	25056.97
397.04	27463.68
397.41	30076.05
397.77	32265.82
398.13	35029.59
398.49	36387.74
398.85	39034.00
399.21	43388.69
399.58	45919.70
399.94	48073.31
400.30	52841.55
400.66	54003.10
401.02	56742.01
401.38	58134.06
401.74	59772.44
402.11	61600.64
402.47	62866.14
402.83	64081.93
403.19	65327.10
403.55	65535.00
403.91	65535.00
404.27	65535.00
404.63	65535.00
404.99	65535.00
405.35	65535.00
405.72	65535.00
406.08	65535.00
406.44	65535.00
406.80	65535.00
407.16	65535.00
407.52	65535.00
407.88	65535.00
408.24	65535.00
408.60	65535.00
408.96	65535.00
409.32	65535.00
409.68	65535.00
410.04	65535.00
410.40	65535.00
410.76	65535.00
411.13	65535.00
411.49	65535.00
411.85	64305.65
412.21	63089.87
412.57	62086.50
412.93	61114.78
413.29	59234.60
413.65	57702.44
414.01	55962.37
414.37	53551.13
414.73	52721.78
415.09	50398.67
415.45	48837.13
415.81	46749.05
416.17	44125.39
416.53	42484.76
416.89	40722.09
417.25	38783.16
417.61	36828.41
417.97	35971.94
418.33	34256.73
418.69	33470.31
419.05	31933.62
419.41	30593.55
419.77	29926.90
420.12	27908.87
420.48	26943.92
420.84	26162.02
421.20	24568.85
421.56	23438.93
421.92	23109.00
422.28	21389.27
422.64	20681.94
423.00	19590.45
423.36	19091.02
423.72	17479.77
424.08	16630.07
424.44	15613.15
424.80	15262.88
425.16	14413.18
425.51	13717.15
425.87	13134.12
426.23	12175.95
426.59	11701.39
426.95	11477.66
427.31	10612.15
427.67	10537.58
428.03	9830.25
428.39	9651.72
428.74	8872.08
429.10	8347.80
429.46	8121.82
429.82	7586.24
430.18	7423.53
430.54	7104.90
430.90	7046.14
431.26	6607.74
431.61	6384.01
431.97	6212.27
432.33	5866.51
432.69	5995.32
433.05	5525.28
433.41	5263.14
433.76	5156.93
434.12	5064.27
434.48	4908.35
434.84	4786.31
435.20	4506.10
435.55	4537.73
435.91	4325.31
436.27	4180.68
436.63	4103.85
436.99	3925.32
437.34	3636.06
437.70	3611.20
438.06	3669.96
438.42	3412.34
438.78	3378.44
439.13	3308.39
439.49	3224.77
439.85	3048.51
440.21	2962.63
440.56	2851.90
440.92	2741.17
441.28	2644.00
441.64	2677.90
441.99	2546.83
442.35	2521.97
442.71	2528.75
443.07	2460.95
443.42	2332.14
443.78	2350.22
444.14	2336.66
444.50	2219.15
444.85	2225.93
445.21	2169.43
445.57	2205.59
445.93	2101.64
446.28	2110.68
446.64	2006.73
447.00	2013.51
447.35	2108.42
447.71	2029.33
448.07	2060.96
448.42	1859.84
448.78	1880.18
449.14	1844.02
449.49	1812.38
449.85	1785.26
450.21	1803.34
450.56	1798.82
450.92	1699.39
451.28	1649.67
451.63	1699.39
451.99	1647.41
452.35	1712.95
452.70	1636.12
453.06	1642.89
453.42	1651.93
453.77	1597.70
454.13	1577.36
454.49	1516.34
454.84	1525.38
455.20	1568.32
455.55	1450.81
455.91	1511.82
456.27	1464.37
456.62	1477.93
456.98	1351.38
457.33	1378.49
457.69	1416.91
458.05	1423.69
458.40	1351.38
458.76	1349.12
459.11	1353.64
459.47	1355.90
459.83	1389.79
460.18	1428.21
460.54	1371.72
460.89	1319.74
461.25	1405.61
461.60	1337.82
461.96	1335.56
462.31	1378.49
462.67	1358.16
463.03	1331.04
463.38	1310.70
463.74	1376.24
464.09	1312.96
464.45	1294.88
464.80	1267.76
465.16	1319.74
465.51	1299.40
465.87	1247.42
466.22	1270.02
466.58	1265.50
466.93	1260.98
467.29	1265.50
467.64	1337.82
468.00	1335.56
468.35	1227.09
468.71	1322.00
469.06	1308.44
469.42	1242.91
469.77	1260.98
470.13	1220.31
470.48	1199.97
470.84	1267.76
471.19	1294.88
471.54	1233.87
471.90	1224.83
472.25	1211.27
472.61	1224.83
472.96	1202.23
473.32	1276.80
473.67	1199.97
474.03	1236.13
474.38	1247.42
474.73	1319.74
475.09	1204.49
475.44	1215.79
475.80	1233.87
476.15	1195.45
476.50	1168.33
476.86	1279.06
477.21	1188.67
477.57	1213.53
477.92	1306.18
478.27	1166.07
478.63	1193.19
478.98	1256.46
479.34	1204.49
479.69	1218.05
480.04	1258.72
480.40	1170.59
480.75	1218.05
481.10	1251.94
481.46	1236.13
481.81	1168.33
482.16	1215.79
482.52	1204.49
482.87	1168.33
483.22	1285.84
483.58	1258.72
483.93	1224.83
484.28	1197.71
484.64	1138.95
484.99	1197.71
485.34	1188.67
485.70	1224.83
486.05	1209.01
486.40	1159.29
486.76	1179.63
487.11	1265.50
487.46	1188.67
487.81	1172.85
488.17	1188.67
488.52	1251.94
488.87	1184.15
489.23	1172.85
489.58	1247.42
489.93	1209.01
490.28	1157.03
490.64	1168.33
490.99	1238.39
491.34	1236.13
491.69	1224.83
492.05	1213.53
492.40	1258.72
492.75	1229.35
493.10	1224.83
493.46	1263.24
493.81	1186.41
494.16	1227.09
494.51	1168.33
494.86	1254.20
495.22	1272.28
495.57	1220.31
495.92	1274.54
496.27	1283.58
496.62	1279.06
496.98	1288.10
497.33	1263.24
497.68	1279.06
498.03	1301.66
498.38	1260.98
498.74	1299.40
499.09	1342.34
499.44	1283.58
499.79	1233.87
500.14	1267.76
500.49	1360.42
500.85	1346.86
501.20	1416.91
501.55	1407.87
501.90	1346.86
502.25	1285.84
502.60	1364.94
502.95	1410.13
503.30	1419.17
503.66	1414.65
504.01	1434.99
504.36	1448.55
504.71	1360.42
505.06	1421.43
505.41	1511.82
505.76	1507.30
506.11	1401.09
506.46	1430.47
506.82	1453.07
507.17	1437.25
507.52	1547.98
507.87	1541.20
508.22	1507.30
508.57	1595.44
508.92	1588.66
509.27	1654.19
509.62	1633.86
509.97	1656.45
510.32	1627.08
510.67	1676.79
511.02	1694.87
511.37	1753.63
511.72	1760.41
512.07	1807.86
512.42	1783.00
512.77	1828.20
513.12	1803.34
513.47	1855.32
513.82	1868.88
514.17	2029.33
514.52	1984.13
514.87	1925.37
515.22	1968.31
515.57	1963.79
515.92	2036.10
516.27	2081.30
516.62	2076.78
516.97	2182.99
517.32	2176.21
517.67	2293.72
518.02	2262.09
518.37	2255.31
518.72	2232.71
519.07	2341.18
519.42	2447.39
519.77	2370.56
520.12	2413.50
520.47	2535.53
520.82	2510.67
521.17	2553.61
521.52	2628.18
521.87	2693.71
522.22	2666.60
522.56	2768.29
522.91	2754.73
523.26	2806.71
523.61	2888.06
523.96	2829.30
524.31	2937.78
524.66	2978.45
525.01	3019.13
525.36	3037.21
525.71	3091.44
526.05	3184.10
526.40	3224.77
526.75	3127.60
527.10	3211.22
527.45	3147.94
527.80	3285.79
528.15	3330.99
528.49	3312.91
528.84	3346.80
529.19	3419.12
529.54	3482.39
529.89	3484.65
530.24	3394.26
530.58	3509.51
530.93	3556.97
531.28	3434.94
531.63	3706.12
531.98	3615.72
532.33	3681.26
532.67	3688.04
533.02	3773.91
533.37	3771.65
533.72	3801.03
534.07	3733.24
534.41	3796.51
534.76	3803.29
535.11	3782.95
535.46	3880.12
535.80	3975.04
536.15	3866.56
536.50	3891.42
536.85	4011.19
537.19	4076.73
537.54	4024.75
537.89	4029.27
538.24	4049.61
538.58	4191.98
538.93	4054.13
539.28	4042.83
539.63	4198.76
539.97	4121.93
540.32	4160.34
540.67	4097.07
541.01	4124.19
541.36	4151.30
541.71	4090.29
542.06	4092.55
542.40	4158.08
542.75	4146.78
543.10	4081.25
543.44	4094.81
543.79	4253.00
544.14	4078.99
544.48	4198.76
544.83	4189.72
545.18	4060.91
545.52	4137.74
545.87	4151.30
546.22	3997.64
546.56	4038.31
546.91	4051.87
547.25	4056.39
547.60	4117.41
547.95	4097.07
548.29	4069.95
548.64	4149.04
548.99	4121.93
549.33	4257.52
549.68	4160.34
550.02	4101.59
550.37	4130.96
550.72	4119.67
551.06	4085.77
551.41	4047.35
551.75	4078.99
552.10	3850.75
552.45	4011.19
552.79	3984.08
553.14	3864.31
553.48	4004.41
553.83	3984.08
554.17	3789.73
554.52	4042.83
554.87	3956.96
555.21	3938.88
555.56	3963.74
555.90	4024.75
556.25	3907.24
556.59	3830.41
556.94	3918.54
557.28	3920.80
557.63	3884.64
557.97	3807.81
558.32	3959.22
558.66	3945.66
559.01	3925.32
559.35	3760.35
559.70	3868.82
560.04	3916.28
560.39	3864.31
560.73	3839.45
561.08	3801.03
561.42	3749.05
561.77	3776.17
562.11	3778.43
562.46	3712.90
562.80	3767.13
563.14	3769.39
563.49	3801.03
563.83	3717.42
564.18	3769.39
564.52	3798.77
564.87	3627.02
565.21	3649.62
565.56	3654.14
565.90	3550.19
566.24	3448.50
566.59	3561.49
566.93	3538.89
567.28	3545.67
567.62	3545.67
567.96	3534.37
568.31	3484.65
568.65	3568.27
569.00	3660.92
569.34	3516.29
569.68	3556.97
570.03	3532.11
570.37	3507.25
570.71	3516.29
571.06	3450.76
571.40	3394.26
571.74	3473.36
572.09	3401.04
572.43	3373.92
572.78	3349.06
573.12	3434.94
573.46	3387.48
573.80	3369.40
574.15	3224.77
574.49	3337.77
574.83	3369.40
575.18	3360.36
575.52	3256.41
575.86	3224.77
576.21	3306.13
576.55	3256.41
576.89	3258.67
577.24	3204.44
577.58	3188.62
577.92	3163.76
578.26	3120.82
578.61	3080.14
578.95	3129.86
579.29	3147.94
579.63	3089.18
579.98	3046.25
580.32	3154.72
580.66	3143.42
581.00	3041.73
581.35	2978.45
581.69	3041.73
582.03	3043.99
582.37	2980.71
582.72	3098.22
583.06	3037.21
583.40	2973.93
583.74	2901.62
584.08	2951.33
584.43	2935.52
584.77	2919.70
585.11	2971.67
585.45	2921.96
585.79	2906.14
586.13	2908.40
586.48	2824.78
586.82	2885.80
587.16	2946.82
587.50	2867.72
587.84	2768.29
588.18	2856.42
588.53	2797.67
588.87	2714.05
589.21	2709.53
589.55	2779.59
589.89	2775.07
590.23	2702.75
590.57	2725.35
590.92	2745.69
591.26	2768.29
591.60	2686.94
591.94	2698.23
592.28	2555.86
592.62	2650.78
592.96	2671.12
593.30	2720.83
593.64	2571.68
593.98	2445.13
594.32	2537.79
594.67	2616.88
595.01	2630.44
595.35	2603.32
595.69	2675.64
596.03	2571.68
596.37	2537.79
596.71	2512.93
597.05	2582.98
597.39	2460.95
597.73	2515.19
598.07	2517.45
598.41	2481.29
598.75	2483.55
599.09	2361.52
599.43	2408.98
599.77	2408.98
600.11	2381.86
600.45	2429.31
600.79	2420.28
601.13	2375.08
601.47	2366.04
601.81	2300.50
602.15	2309.54
602.49	2381.86
602.83	2293.72
603.17	2375.08
603.51	2311.80
603.85	2255.31
604.19	2300.50
604.53	2219.15
604.87	2250.79
605.21	2277.91
605.55	2273.39
605.89	2228.19
606.23	2225.93
606.56	2167.17
606.90	2212.37
607.24	2164.91
607.58	2158.14
607.92	2264.35
608.26	2192.03
608.60	2076.78
608.94	2088.08
609.28	2076.78
609.62	2203.33
609.95	2067.74
610.29	2088.08
610.63	2103.90
610.97	2155.88
611.31	2045.14
611.65	2072.26
611.99	2063.22
612.33	2131.02
612.66	2119.72
613.00	1984.13
613.34	2013.51
613.68	2011.25
614.02	1954.75
614.36	1995.43
614.69	1963.79
615.03	1961.53
615.37	1961.53
615.71	1999.95
616.05	2024.81
616.38	2006.73
616.72	1961.53
617.06	1920.85
617.40	1966.05
617.74	1947.97
618.07	1916.33
618.41	1873.40
618.75	1896.00
619.09	1909.55
619.42	1873.40
619.76	1810.12
620.10	1859.84
620.44	1882.44
620.77	1850.80
621.11	1798.82
621.45	1909.55
621.79	1807.86
622.12	1803.34
622.46	1868.88
622.80	1821.42
623.13	1821.42
623.47	1758.15
623.81	1828.20
624.15	1773.96
624.48	1810.12
624.82	1825.94
625.16	1798.82
625.49	1708.43
625.83	1719.73
626.17	1715.21
626.50	1656.45
626.84	1724.25
627.18	1764.93
627.51	1731.03
627.85	1735.55
628.19	1712.95
628.52	1746.85
628.86	1726.51
629.20	1690.35
629.53	1760.41
629.87	1753.63
630.20	1631.60
630.54	1746.85
630.88	1681.31
631.21	1701.65
631.55	1647.41
631.89	1710.69
632.22	1620.30
632.56	1679.05
632.89	1656.45
633.23	1633.86
633.56	1658.71
633.90	1568.32
634.24	1631.60
634.57	1597.70
634.91	1636.12
635.24	1699.39
635.58	1615.78
635.91	1541.20
636.25	1604.48
636.58	1629.34
636.92	1638.38
637.26	1633.86
637.59	1636.12
637.93	1538.94
638.26	1547.98
638.60	1629.34
638.93	1561.54
639.27	1615.78
639.60	1590.92
639.94	1597.70
640.27	1523.12
640.61	1572.84
640.94	1581.88
641.28	1554.76
641.61	1509.56
641.94	1529.90
642.28	1516.34
642.61	1514.08
642.95	1575.10
643.28	1500.53
643.62	1507.30
643.95	1507.30
644.29	1441.77
644.62	1466.63
644.95	1547.98
645.29	1536.68
645.62	1507.30
645.96	1453.07
646.29	1425.95
646.63	1475.67
646.96	1491.49
647.29	1455.33
647.63	1527.64
647.96	1541.20
648.29	1459.85
648.63	1394.31
648.96	1419.17
649.30	1520.86
649.63	1466.63
649.96	1419.17
650.30	1434.99
650.63	1410.13
650.96	1500.53
651.30	1405.61
651.63	1360.42
651.96	1392.05
652.30	1446.29
652.63	1380.75
652.96	1407.87
653.30	1434.99
653.63	1437.25
653.96	1405.61
654.30	1448.55
654.63	1394.31
654.96	1419.17
655.29	1398.83
655.63	1392.05
655.96	1423.69
656.29	1396.57
656.63	1412.39
656.96	1360.42
657.29	1351.38
657.62	1441.77
657.96	1421.43
658.29	1466.63
658.62	1360.42
658.95	1333.30
659.29	1410.13
659.62	1331.04
659.95	1360.42
660.28	1364.94
660.61	1373.98
660.95	1349.12
661.28	1387.53
661.61	1387.53
661.94	1326.52
662.27	1351.38
662.61	1303.92
662.94	1315.22
663.27	1319.74
663.60	1335.56
663.93	1378.49
664.27	1326.52
664.60	1301.66
664.93	1317.48
665.26	1283.58
665.59	1319.74
665.92	1353.64
666.25	1353.64
666.59	1344.60
666.92	1331.04
667.25	1340.08
667.58	1270.02
667.91	1303.92
668.24	1344.60
668.57	1281.32
668.90	1308.44
669.23	1267.76
669.57	1270.02
669.90	1260.98
670.23	1317.48
670.56	1306.18
670.89	1272.28
671.22	1276.80
671.55	1292.62
671.88	1256.46
672.21	1315.22
672.54	1306.18
672.87	1303.92
673.20	1281.32
673.53	1333.30
673.86	1312.96
674.19	1267.76
674.52	1303.92
674.85	1238.39
675.18	1272.28
675.51	1276.80
675.84	1220.31
676.17	1213.53
676.50	1242.91
676.83	1245.16
677.16	1245.16
677.49	1236.13
677.82	1236.13
678.15	1227.09
678.48	1299.40
678.81	1188.67
679.14	1265.50
679.47	1231.61
679.80	1247.42
680.13	1227.09
680.46	1254.20
680.79	1238.39
681.12	1310.70
681.45	1242.91
681.78	1254.20
682.11	1168.33
682.44	1204.49
682.77	1199.97
683.09	1247.42
683.42	1211.27
683.75	1199.97
684.08	1245.16
684.41	1220.31
684.74	1215.79
685.07	1229.35
685.40	1236.13
685.72	1251.94
686.05	1163.81
686.38	1260.98
686.71	1231.61
687.04	1222.57
687.37	1222.57
687.70	1152.51
688.02	1199.97
688.35	1206.75
688.68	1204.49
689.01	1272.28
689.34	1218.05
689.67	1254.20
689.99	1238.39
690.32	1188.67
690.65	1222.57
690.98	1170.59
691.30	1245.16
691.63	1199.97
691.96	1233.87
692.29	1186.41
692.62	1177.37
692.94	1236.13
693.27	1170.59
693.60	1199.97
693.93	1247.42
694.25	1172.85
694.58	1172.85
694.91	1206.75
695.24	1138.95
695.56	1161.55
695.89	1184.15
696.22	1132.17
696.54	1181.89
696.87	1190.93
697.20	1199.97
697.53	1199.97
697.85	1238.39
698.18	1181.89
698.51	1188.67
698.83	1181.89
699.16	1143.47
699.49	1186.41
699.81	1179.63
700.14	1170.59
700.47	1193.19
700.79	1102.80
701.12	1145.73
701.45	1211.27
701.77	1199.97
702.10	1195.45
702.42	1211.27
702.75	1109.58
703.08	1233.87
703.40	1204.49
703.73	1197.71
704.05	1163.81
704.38	1211.27
704.71	1152.51
705.03	1102.80
705.36	1150.25
705.68	1120.87
706.01	1188.67
706.34	1118.61
706.66	1134.43
706.99	1161.55
707.31	1145.73
707.64	1211.27
707.96	1107.32
708.29	1177.37
708.61	1188.67
708.94	1154.77
709.26	1218.05
709.59	1170.59
709.92	1204.49
710.24	1157.03
710.57	1181.89
710.89	1129.91
711.22	1204.49
711.54	1123.13
711.87	1096.02
712.19	1123.13
712.51	1170.59
712.84	1163.81
713.16	1152.51
713.49	1116.35
713.81	1102.80
714.14	1172.85
714.46	1105.06
714.79	1166.07
715.11	1265.50
715.44	1159.29
715.76	1120.87
716.08	1147.99
716.41	1102.80
716.73	1141.21
717.06	1073.42
717.38	1136.69
717.70	1166.07
718.03	1227.09
718.35	1181.89
718.68	1206.75
719.00	1145.73
719.32	1170.59
719.65	1179.63
719.97	1102.80
720.29	1093.76
720.62	1084.72
720.94	1127.65
721.27	1138.95
721.59	1109.58
721.91	1068.90
722.24	1172.85
722.56	1213.53
722.88	1136.69
723.21	1100.54
723.53	1170.59
723.85	1109.58
724.17	1172.85
724.50	1147.99
724.82	1206.75
725.14	1138.95
725.47	1184.15
725.79	1159.29
726.11	1107.32
726.43	1086.98
726.76	1143.47
727.08	1166.07
727.40	1199.97
727.72	1136.69
728.05	1091.50
728.37	1120.87
728.69	1159.29
729.01	1161.55
729.34	1147.99
729.66	1166.07
729.98	1123.13
730.30	1166.07
730.62	1161.55
730.95	1138.95
731.27	1129.91
731.59	1179.63
731.91	1166.07
732.23	1096.02
732.56	1109.58
732.88	1184.15
733.20	1100.54
733.52	1071.16
733.84	1093.76
734.16	1159.29
734.49	1129.91
734.81	1084.72
735.13	1138.95
735.45	1166.07
735.77	1143.47
736.09	1123.13
736.41	1098.28
736.73	1141.21
737.06	1084.72
737.38	1145.73
737.70	1129.91
738.02	1111.84
738.34	1093.76
738.66	1136.69
738.98	1116.35
739.30	1075.68
739.62	1125.39
739.94	1186.41
740.26	1186.41
740.58	1116.35
740.90	1227.09
741.23	1251.94
741.55	1129.91
741.87	1125.39
742.19	1111.84
742.51	1152.51
742.83	1109.58
743.15	1120.87
743.47	1116.35
743.79	1145.73
744.11	1145.73
744.43	1152.51
744.75	1114.10
745.07	1193.19
745.39	1107.32
745.71	1138.95
746.03	1096.02
746.35	1138.95
746.67	1073.42
746.98	1163.81
747.30	1123.13
747.62	1109.58
747.94	1134.43
748.26	1141.21
748.58	1175.11
748.90	1141.21
749.22	1179.63
749.54	1186.41
749.86	1084.72
750.18	1077.94
750.50	1141.21
750.82	1053.08
751.13	1147.99
751.45	1175.11
751.77	1084.72
752.09	1127.65
752.41	1134.43
752.73	1163.81
753.05	1089.24
753.36	1100.54
753.68	1136.69
754.00	1125.39
754.32	1134.43
754.64	1154.77
754.96	1143.47
755.28	1152.51
755.59	1136.69
755.91	1073.42
756.23	1084.72
756.55	1098.28
756.87	1089.24
757.18	1166.07
757.50	1127.65
757.82	1091.50
758.14	1152.51
758.45	1091.50
758.77	1100.54
759.09	1105.06
759.41	1118.61
759.73	1107.32
760.04	1157.03
760.36	1107.32
760.68	1118.61
760.99	1181.89
761.31	1091.50
761.63	1068.90
761.95	1093.76
762.26	1129.91
762.58	1102.80
762.90	1080.20
763.21	1150.25
763.53	1181.89
763.85	1127.65
764.17	1107.32
764.48	1071.16
764.80	1129.91
765.12	1102.80
765.43	1102.80
765.75	1145.73
766.07	1123.13
766.38	1159.29
766.70	1082.46
767.01	1107.32
767.33	1143.47
767.65	1109.58
767.96	1109.58
768.28	1077.94
768.60	1062.12
768.91	1150.25
769.23	1046.30
769.54	1132.17
769.86	1066.64
770.18	1114.10
770.49	1102.80
770.81	1098.28
771.12	1082.46
771.44	1075.68
771.75	1132.17
772.07	1152.51
772.38	1096.02
772.70	1100.54
773.02	1114.10
773.33	1091.50
773.65	1141.21
773.96	1120.87
774.28	1116.35
774.59	1129.91
774.91	1143.47
775.22	1111.84
775.54	1071.16
775.85	1039.52
776.17	1188.67
776.48	1177.37
776.80	1068.90
777.11	1143.47
777.43	1188.67
777.74	1175.11
778.05	1050.82
778.37	1057.60
778.68	1134.43
779.00	1075.68
779.31	1105.06
779.63	1114.10
779.94	1193.19
780.26	1116.35
780.57	1105.06
780.88	1181.89
781.20	1105.06
781.51	1147.99
781.83	1202.23
782.14	1181.89
782.45	1102.80
782.77	1098.28
783.08	1100.54
783.39	1096.02
783.71	1138.95
784.02	1120.87
784.34	1077.94
784.65	1035.00
784.96	1118.61
785.28	1175.11
785.59	1098.28
785.90	1159.29
786.22	1073.42
786.53	1141.21
786.84	1116.35
787.15	1098.28
787.47	1154.77
787.78	1118.61
788.09	1188.67
788.41	1073.42
788.72	1098.28
789.03	1152.51
789.35	1175.11
789.66	1116.35
789.97	1102.80
790.28	1077.94
790.60	1102.80
790.91	1096.02
791.22	1075.68
791.53	1111.84
791.84	1098.28
792.16	1175.11
792.47	1152.51
792.78	1123.13
793.09	1046.30
793.41	1132.17
793.72	1100.54
794.03	1098.28
794.34	1021.44
794.65	976.25
794.96	1064.38
795.28	1114.10
795.59	1102.80
795.90	1118.61
796.21	1080.20
796.52	1098.28
796.83	1204.49
797.15	1105.06
797.46	1159.29
797.77	1159.29
798.08	1145.73
798.39	1157.03
798.70	1068.90
799.01	1168.33
799.32	1089.24
799.63	1138.95
799.95	1134.43
800.26	1068.90
800.57	1179.63
800.88	1102.80
801.19	1062.12
801.50	1111.84
801.81	1161.55
802.12	1184.15
802.43	1089.24
802.74	1086.98
803.05	1068.90
803.36	1093.76
803.67	1134.43
803.98	1098.28
804.29	1127.65
804.60	1082.46
804.91	1120.87
805.22	1114.10
805.53	1123.13
805.84	1080.20
806.15	1086.98
806.46	1100.54
806.77	1168.33
807.08	1150.25
807.39	1154.77
807.70	1082.46
808.01	1143.47
808.32	1107.32
808.63	1098.28
808.94	1134.43
809.25	1091.50
809.56	1138.95
809.87	1075.68
810.18	1120.87
810.49	1123.13
810.79	1114.10
811.10	1138.95
811.41	1141.21
811.72	1059.86
812.03	1062.12
812.34	1098.28
812.65	1098.28
812.96	1096.02
813.27	1102.80
813.57	1025.96
813.88	1129.91
814.19	1098.28
814.50	1084.72
814.81	1132.17
815.12	1075.68
815.42	1082.46
815.73	1109.58
816.04	1143.47
816.35	1093.76
816.66	1179.63
816.97	1163.81
817.27	1125.39
817.58	1132.17
817.89	1118.61
818.20	1134.43
818.50	1177.37
818.81	1157.03
819.12	1118.61
819.43	1073.42
819.73	1089.24
820.04	1102.80
820.35	1096.02
820.66	1109.58
820.96	1120.87
821.27	1107.32
821.58	1188.67
821.89	1096.02
822.19	1082.46
822.50	1154.77
822.81	1109.58
823.11	1077.94
823.42	1114.10
823.73	1077.94
824.03	1118.61
824.34	1177.37
824.65	1109.58
824.95	1145.73
825.26	1105.06
825.57	1141.21
825.87	1114.10
826.18	1138.95
826.49	1141.21
826.79	1100.54
827.10	1118.61
827.40	1107.32
827.71	1125.39
828.02	1125.39
828.32	1163.81
828.63	1116.35
828.93	1132.17
829.24	1066.64
829.55	1154.77
829.85	1111.84
830.16	1123.13
830.46	1123.13
830.77	1093.76
831.07	1129.91
831.38	1093.76
831.69	1098.28
831.99	1141.21
832.30	1086.98
832.60	1105.06
832.91	1129.91
833.21	1147.99
833.52	1102.80
833.82	1102.80
834.13	1143.47
834.43	1080.20
834.74	1118.61
835.04	1109.58
835.35	1120.87
835.65	1080.20
835.96	1129.91
836.26	1071.16
836.56	1123.13
836.87	1109.58
837.17	1132.17
837.48	1224.83
837.78	1111.84
838.09	1159.29
838.39	1114.10
838.69	1080.20
839.00	1059.86
839.30	1082.46
839.61	1080.20
839.91	1168.33
840.21	1057.60
840.52	1145.73
840.82	1062.12
841.13	1118.61
841.43	1105.06
841.73	1048.56
842.04	1073.42
842.34	1120.87
842.64	1190.93
842.95	1109.58
843.25	1062.12
843.55	1044.04
843.86	1127.65
844.16	1134.43
844.46	1062.12
844.77	1089.24
845.07	1109.58
845.37	1157.03
845.68	1134.43
845.98	1125.39
846.28	1120.87
846.58	1157.03
846.89	1114.10
847.19	1125.39
847.49	1147.99
847.79	1075.68
848.10	1134.43
848.40	1123.13
848.70	1105.06
849.00	1080.20
849.31	1100.54
849.61	1102.80
849.91	1132.17
850.21	1084.72
850.51	1132.17
850.82	1093.76
851.12	1123.13
851.42	1082.46
851.72	1109.58
852.02	1123.13
852.32	1073.42
852.63	1107.32
852.93	1082.46
853.23	1096.02
853.53	1100.54
853.83	1114.10
854.13	1170.59
854.43	1159.29
854.74	1123.13
855.04	1068.90
855.34	1159.29
855.64	1127.65
855.94	1086.98
856.24	1118.61
856.54	1116.35
856.84	1107.32
857.14	1075.68
857.44	1066.64
857.74	1053.08
858.05	1129.91
858.35	1105.06
858.65	1116.35
858.95	1100.54
859.25	1111.84
859.55	1082.46
859.85	1127.65
860.15	1086.98
860.45	1161.55
860.75	1132.17
861.05	1093.76
861.35	1147.99
861.65	1136.69
861.95	1068.90
862.25	1098.28
862.55	1037.26
862.85	1098.28
863.15	1111.84
863.45	1102.80
863.75	1134.43
864.05	1114.10
864.35	1145.73
864.64	1150.25
864.94	1098.28
865.24	1123.13
865.54	1089.24
865.84	1147.99
866.14	1123.13
866.44	1105.06
866.74	1055.34
867.04	1096.02
867.34	1168.33
867.64	1120.87
867.93	1166.07
868.23	1089.24
868.53	1123.13
868.83	1111.84
869.13	1093.76
869.43	1098.28
869.73	1177.37
870.02	1096.02
870.32	1059.86
870.62	1118.61
870.92	1118.61
871.22	1134.43
871.51	1098.28
871.81	1093.76
872.11	1084.72
872.41	1111.84
872.71	1105.06
873.00	1132.17
873.30	1066.64
873.60	1109.58
873.90	1044.04
874.19	1105.06
874.49	1170.59
874.79	1098.28
875.09	1082.46
875.38	1084.72
875.68	1120.87
875.98	1152.51
876.28	1181.89
876.57	1098.28
876.87	1098.28
877.17	1098.28
