174.03	766.08
174.41	766.08
174.78	766.08
175.16	781.90
175.54	664.39
175.92	750.26
176.30	745.74
176.67	736.70
177.05	766.08
177.43	775.12
177.81	775.12
178.19	788.68
178.56	759.30
178.94	763.82
179.32	894.89
179.70	813.54
180.08	872.29
180.45	910.71
180.83	949.13
181.21	924.27
181.59	885.85
181.96	964.95
182.34	949.13
182.72	1041.78
183.10	1084.72
183.48	1035.00
183.85	1030.48
184.23	1044.04
184.61	1098.28
184.99	1048.56
185.36	1118.61
185.74	1109.58
186.12	1109.58
186.50	1102.80
186.87	1089.24
187.25	1120.87
187.63	1123.13
188.01	1068.90
188.38	1114.10
188.76	1102.80
189.14	1102.80
189.52	1114.10
189.89	1091.50
190.27	1118.61
190.65	1150.25
191.02	1044.04
191.40	1141.21
191.78	1190.93
192.16	1120.87
192.53	1120.87
192.91	1145.73
193.29	1089.24
193.66	1086.98
194.04	1116.35
194.42	1089.24
194.79	1168.33
195.17	1143.47
195.55	1096.02
195.93	1091.50
196.30	1048.56
196.68	1096.02
197.06	1116.35
197.43	1118.61
197.81	1141.21
198.19	1118.61
198.56	1098.28
198.94	1125.39
199.32	1096.02
199.69	1089.24
200.07	1082.46
200.45	1100.54
200.82	1136.69
201.20	1077.94
201.58	1138.95
201.95	1111.84
202.33	1170.59
202.71	1080.20
203.08	1057.60
203.46	1082.46
203.84	1102.80
204.21	1077.94
204.59	1084.72
204.96	1066.64
205.34	1105.06
205.72	1068.90
206.09	1098.28
206.47	1073.42
206.85	1098.28
207.22	1145.73
207.60	1127.65
207.97	1071.16
208.35	1080.20
208.73	1084.72
209.10	1098.28
209.48	1098.28
209.85	1105.06
210.23	1116.35
210.61	1102.80
210.98	1093.76
211.36	1127.65
211.73	1080.20
212.11	1073.42
212.49	1163.81
212.86	1091.50
213.24	1098.28
213.61	1152.51
213.99	1044.04
214.37	1107.32
214.74	1129.91
215.12	1102.80
215.49	1066.64
215.87	1064.38
216.24	1046.30
216.62	1123.13
216.99	1071.16
217.37	1134.43
217.75	1068.90
218.12	1066.64
218.50	1163.81
218.87	1109.58
219.25	1150.25
219.62	1154.77
220.00	1136.69
220.37	1141.21
220.75	1080.20
221.12	1080.20
221.50	1123.13
221.87	1105.06
222.25	1143.47
222.63	1093.76
223.00	1184.15
223.38	1105.06
223.75	1134.43
224.13	1188.67
224.50	1125.39
224.88	1129.91
225.25	1143.47
225.63	1175.11
226.00	1055.34
226.38	1093.76
226.75	1039.52
227.13	1177.37
227.50	1084.72
227.88	1057.60
228.25	1125.39
228.63	1084.72
229.00	1098.28
229.37	1091.50
229.75	1082.46
230.12	1096.02
230.50	1084.72
230.87	1064.38
231.25	1111.84
231.62	1082.46
232.00	1091.50
232.37	1179.63
232.75	1084.72
233.12	1077.94
233.50	1145.73
233.87	1120.87
234.24	1129.91
234.62	1037.26
234.99	1111.84
235.37	1073.42
235.74	1098.28
236.12	1082.46
236.49	1114.10
236.86	1075.68
237.24	1089.24
237.61	1077.94
237.99	1089.24
238.36	1062.12
238.74	1035.00
239.11	1098.28
239.48	1091.50
239.86	1120.87
240.23	1077.94
240.61	1096.02
240.98	1080.20
241.35	1098.28
241.73	1105.06
242.10	1132.17
242.48	1127.65
242.85	1080.20
243.22	1134.43
243.60	1116.35
243.97	1105.06
244.34	1075.68
244.72	1073.42
245.09	1136.69
245.47	1075.68
245.84	1089.24
246.21	1107.32
246.59	1116.35
246.96	1111.84
247.33	1132.17
247.71	1179.63
248.08	1102.80
248.45	1116.35
248.83	1118.61
249.20	1143.47
249.57	1116.35
249.95	1091.50
250.32	1071.16
250.69	1145.73
251.07	1172.85
251.44	1177.37
251.81	1077.94
252.19	1125.39
252.56	1159.29
252.93	1166.07
253.31	1157.03
253.68	1206.75
254.05	1136.69
254.43	1084.72
254.80	1096.02
255.17	1109.58
255.55	1188.67
255.92	1118.61
256.29	1098.28
256.66	1143.47
257.04	1157.03
257.41	1159.29
257.78	1114.10
258.16	1084.72
258.53	1125.39
258.90	1159.29
259.27	1098.28
259.65	1093.76
260.02	1111.84
260.39	1175.11
260.76	1150.25
261.14	1161.55
261.51	1145.73
261.88	1082.46
262.25	1150.25
262.63	1123.13
263.00	1098.28
263.37	1050.82
263.74	1093.76
264.12	1091.50
264.49	1141.21
264.86	1118.61
265.23	1150.25
265.61	1150.25
265.98	1163.81
266.35	1125.39
266.72	1163.81
267.09	1105.06
267.47	1134.43
267.84	1141.21
268.21	1195.45
268.58	1123.13
268.95	1157.03
269.33	1172.85
269.70	1163.81
270.07	1143.47
270.44	1154.77
270.81	1096.02
271.19	1138.95
271.56	1209.01
271.93	1152.51
272.30	1163.81
272.67	1068.90
273.05	1105.06
273.42	1044.04
273.79	1114.10
274.16	1159.29
274.53	1141.21
274.90	1132.17
275.28	1179.63
275.65	1118.61
276.02	1120.87
276.39	1111.84
276.76	1075.68
277.13	1159.29
277.50	1120.87
277.88	1091.50
278.25	1138.95
278.62	1125.39
278.99	1145.73
279.36	1129.91
279.73	1195.45
280.10	1152.51
280.47	1170.59
280.85	1184.15
281.22	1120.87
281.59	1111.84
281.96	1080.20
282.33	1123.13
282.70	1107.32
283.07	1145.73
283.44	1116.35
283.81	1089.24
284.18	1123.13
284.56	1019.18
284.93	1102.80
285.30	1114.10
285.67	1143.47
286.04	1114.10
286.41	1123.13
286.78	1161.55
287.15	1127.65
287.52	1091.50
287.89	1199.97
288.26	1152.51
288.63	1118.61
289.00	1138.95
289.37	1166.07
289.75	1132.17
290.12	1118.61
290.49	1172.85
290.86	1161.55
291.23	1157.03
291.60	1188.67
291.97	1145.73
292.34	1163.81
292.71	1154.77
293.08	1190.93
293.45	1132.17
293.82	1202.23
294.19	1084.72
294.56	1116.35
294.93	1147.99
295.30	1143.47
295.67	1077.94
296.04	1181.89
296.41	1177.37
296.78	1127.65
297.15	1143.47
297.52	1125.39
297.89	1197.71
298.26	1195.45
298.63	1177.37
299.00	1136.69
299.37	1089.24
299.74	1179.63
300.11	1152.51
300.48	1089.24
300.85	1127.65
301.22	1215.79
301.59	1170.59
301.96	1105.06
302.33	1175.11
302.70	1066.64
303.07	1125.39
303.43	1080.20
303.80	1073.42
304.17	1150.25
304.54	1222.57
304.91	1177.37
305.28	1170.59
305.65	1120.87
306.02	1114.10
306.39	1141.21
306.76	1145.73
307.13	1138.95
307.50	1129.91
307.87	1134.43
308.24	1098.28
308.60	1186.41
308.97	1188.67
309.34	1161.55
309.71	1127.65
310.08	1163.81
310.45	1109.58
310.82	1154.77
311.19	1138.95
311.56	1206.75
311.92	1199.97
312.29	1120.87
312.66	1227.09
313.03	1129.91
313.40	1152.51
313.77	1195.45
314.14	1123.13
314.51	1154.77
314.87	1186.41
315.24	1175.11
315.61	1157.03
315.98	1193.19
316.35	1159.29
316.72	1102.80
317.09	1161.55
317.45	1159.29
317.82	1132.17
318.19	1093.76
318.56	1152.51
318.93	1134.43
319.30	1161.55
319.66	1163.81
320.03	1129.91
320.40	1150.25
320.77	1154.77
321.14	1129.91
321.50	1125.39
321.87	1129.91
322.24	1145.73
322.61	1136.69
322.98	1186.41
323.34	1166.07
323.71	1118.61
324.08	1186.41
324.45	1204.49
324.82	1073.42
325.18	1166.07
325.55	1163.81
325.92	1105.06
326.29	1186.41
326.65	1179.63
327.02	1166.07
327.39	1159.29
327.76	1161.55
328.12	1172.85
328.49	1143.47
328.86	1154.77
329.23	1168.33
329.59	1143.47
329.96	1240.65
330.33	1211.27
330.70	1166.07
331.06	1177.37
331.43	1181.89
331.80	1152.51
332.17	1193.19
332.53	1267.76
332.90	1134.43
333.27	1163.81
333.63	1127.65
334.00	1157.03
334.37	1150.25
334.74	1184.15
335.10	1159.29
335.47	1181.89
335.84	1256.46
336.20	1211.27
336.57	1186.41
336.94	1188.67
337.30	1145.73
337.67	1170.59
338.04	1199.97
338.40	1129.91
338.77	1193.19
339.14	1202.23
339.50	1218.05
339.87	1224.83
340.24	1172.85
340.60	1190.93
340.97	1163.81
341.34	1202.23
341.70	1190.93
342.07	1084.72
342.44	1175.11
342.80	1193.19
343.17	1177.37
343.53	1186.41
343.90	1166.07
344.27	1236.13
344.63	1231.61
345.00	1186.41
345.37	1224.83
345.73	1152.51
346.10	1224.83
346.46	1136.69
346.83	1118.61
347.20	1170.59
347.56	1227.09
347.93	1209.01
348.29	1218.05
348.66	1184.15
349.03	1197.71
349.39	1152.51
349.76	1170.59
350.12	1134.43
350.49	1211.27
350.85	1270.02
351.22	1213.53
351.59	1245.16
351.95	1258.72
352.32	1193.19
352.68	1197.71
353.05	1258.72
353.41	1145.73
353.78	1157.03
354.14	1247.42
354.51	1195.45
354.88	1215.79
355.24	1181.89
355.61	1184.15
355.97	1274.54
356.34	1240.65
356.70	1224.83
357.07	1236.13
357.43	1290.36
357.80	1211.27
358.16	1213.53
358.53	1204.49
358.89	1256.46
359.26	1204.49
359.62	1209.01
359.99	1233.87
360.35	1184.15
360.72	1163.81
361.08	1220.31
361.45	1197.71
361.81	1274.54
362.18	1288.10
362.54	1186.41
362.91	1285.84
363.27	1220.31
363.63	1231.61
364.00	1224.83
364.36	1220.31
364.73	1229.35
365.09	1270.02
365.46	1290.36
365.82	1308.44
366.19	1281.32
366.55	1229.35
366.91	1306.18
367.28	1233.87
367.64	1276.80
368.01	1281.32
368.37	1263.24
368.74	1281.32
369.10	1251.94
369.46	1285.84
369.83	1292.62
370.19	1317.48
370.56	1267.76
370.92	1317.48
371.28	1333.30
371.65	1258.72
372.01	1312.96
372.38	1335.56
372.74	1229.35
373.10	1387.53
373.47	1371.72
373.83	1317.48
374.19	1380.75
374.56	1328.78
374.92	1328.78
375.29	1385.27
375.65	1392.05
376.01	1383.01
376.38	1475.67
376.74	1428.21
377.10	1446.29
377.47	1457.59
377.83	1444.03
378.19	1514.08
378.56	1473.41
378.92	1498.27
379.28	1486.97
379.65	1534.42
380.01	1584.14
380.37	1701.65
380.74	1609.00
381.10	1769.44
381.46	1819.16
381.83	1812.38
382.19	1868.88
382.55	1848.54
382.91	1934.41
383.28	2065.48
383.64	2135.54
384.00	2203.33
384.37	2347.96
384.73	2451.91
385.09	2540.05
385.45	2616.88
385.82	2867.72
386.18	3037.21
386.54	3215.73
386.91	3464.32
387.27	3658.66
387.63	3904.98
387.99	4078.99
388.36	4393.10
388.72	4856.37
389.08	5077.83
389.44	5538.84
389.80	5932.05
390.17	6323.00
390.53	6989.65
390.89	7586.24
391.25	7990.75
391.62	8555.71
391.98	9608.79
392.34	10537.58
392.70	10912.71
393.06	11735.28
393.43	12634.70
393.79	13375.92
394.15	13949.92
394.51	15292.25
394.87	16413.13
395.24	17689.93
395.60	18779.17
395.96	20248.06
396.32	21990.38
396.68	23402.77
397.04	25490.86
397.41	27843.34
397.77	30078.31
398.13	32412.71
398.49	34084.98
398.85	36403.56
399.21	40322.10
399.58	42552.55
399.94	45049.66
400.30	49643.89
400.66	50882.28
401.02	53704.80
401.38	55494.59
401.74	57306.97
402.11	59453.80
402.47	60949.81
402.83	61968.99
403.19	63424.32
403.55	64658.19
403.91	65535.00
404.27	65535.00
404.63	65535.00
404.99	65535.00
405.35	65535.00
405.72	65535.00
406.08	65535.00
406.44	65535.00
406.80	65535.00
407.16	65535.00
407.52	65535.00
407.88	65535.00
408.24	65535.00
408.60	65535.00
408.96	65535.00
409.32	65535.00
409.68	65535.00
410.04	65535.00
410.40	65535.00
410.76	65535.00
411.13	64172.32
411.49	63657.08
411.85	62086.50
412.21	60667.33
412.57	59607.47
412.93	58683.20
413.29	56430.15
413.65	54791.78
414.01	52879.97
414.37	50333.14
414.73	48608.89
415.09	46697.08
415.45	44805.60
415.81	42550.29
416.17	40378.60
416.53	38514.24
416.89	36864.57
417.25	35058.97
417.61	32866.93
417.97	32326.83
418.33	30916.70
418.69	30048.93
419.05	28787.94
419.41	27517.92
419.77	27389.11
420.12	25364.30
420.48	24360.94
420.84	23642.32
421.20	22214.11
421.56	21138.43
421.92	21027.70
422.28	19292.15
422.64	18338.50
423.00	17583.72
423.36	17188.25
423.72	15705.80
424.08	14969.10
424.44	14038.05
424.80	13762.35
425.16	13073.10
425.51	12424.53
425.87	11936.41
426.23	10987.28
426.59	10422.32
426.95	10291.25
427.31	9715.00
427.67	9468.68
428.03	8860.78
428.39	8580.57
428.74	7706.01
429.10	7373.82
429.46	7346.70
429.82	6869.88
430.18	6788.52
430.54	6517.34
430.90	6402.09
431.26	5947.87
431.61	5742.22
431.97	5536.58
432.33	5464.26
432.69	5301.56
433.05	5059.75
433.41	4802.13
433.76	4689.14
434.12	4571.63
434.48	4503.84
434.84	4198.76
435.20	4372.77
435.55	4045.09
435.91	3907.24
436.27	3730.98
436.63	3633.80
436.99	3721.94
437.34	3405.56
437.70	3326.47
438.06	3349.06
438.42	3100.48
438.78	3066.59
439.13	2976.19
439.49	2942.30
439.85	2892.58
440.21	2754.73
440.56	2630.44
440.92	2623.66
441.28	2555.86
441.64	2469.99
441.99	2393.16
442.35	2325.36
442.71	2336.66
443.07	2167.17
443.42	2223.67
443.78	2223.67
444.14	2117.46
444.50	2013.51
444.85	2072.26
445.21	2051.92
445.57	1986.39
445.93	1975.09
446.28	1945.71
446.64	1977.35
447.00	1911.81
447.35	1911.81
447.71	1977.35
448.07	1925.37
448.42	1805.60
448.78	1746.85
449.14	1789.78
449.49	1780.74
449.85	1735.55
450.21	1681.31
450.56	1609.00
450.92	1658.71
451.28	1602.22
451.63	1699.39
451.99	1590.92
452.35	1590.92
452.70	1514.08
453.06	1536.68
453.42	1507.30
453.77	1477.93
454.13	1425.95
454.49	1464.37
454.84	1471.15
455.20	1367.20
455.55	1380.75
455.91	1387.53
456.27	1369.46
456.62	1405.61
456.98	1394.31
457.33	1407.87
457.69	1428.21
458.05	1380.75
458.40	1387.53
458.76	1342.34
459.11	1349.12
459.47	1297.14
459.83	1290.36
460.18	1322.00
460.54	1265.50
460.89	1270.02
461.25	1260.98
461.60	1290.36
461.96	1270.02
462.31	1317.48
462.67	1258.72
463.03	1319.74
463.38	1267.76
463.74	1267.76
464.09	1249.68
464.45	1308.44
464.80	1299.40
465.16	1251.94
465.51	1265.50
465.87	1249.68
466.22	1236.13
466.58	1267.76
466.93	1245.16
467.29	1224.83
467.64	1227.09
468.00	1288.10
468.35	1202.23
468.71	1193.19
469.06	1161.55
469.42	1254.20
469.77	1202.23
470.13	1213.53
470.48	1199.97
470.84	1231.61
471.19	1175.11
471.54	1236.13
471.90	1152.51
472.25	1233.87
472.61	1215.79
472.96	1170.59
473.32	1197.71
473.67	1159.29
474.03	1202.23
474.38	1193.19
474.73	1170.59
475.09	1190.93
475.44	1242.91
475.80	1258.72
476.15	1181.89
476.50	1141.21
476.86	1218.05
477.21	1202.23
477.57	1168.33
477.92	1193.19
478.27	1227.09
478.63	1184.15
478.98	1147.99
479.34	1211.27
479.69	1163.81
480.04	1199.97
480.40	1263.24
480.75	1220.31
481.10	1222.57
481.46	1175.11
481.81	1238.39
482.16	1170.59
482.52	1132.17
482.87	1199.97
483.22	1161.55
483.58	1193.19
483.93	1161.55
484.28	1227.09
484.64	1193.19
484.99	1179.63
485.34	1204.49
485.70	1179.63
486.05	1143.47
486.40	1170.59
486.76	1141.21
487.11	1136.69
487.46	1150.25
487.81	1120.87
488.17	1242.91
488.52	1096.02
488.87	1220.31
489.23	1211.27
489.58	1157.03
489.93	1159.29
490.28	1118.61
490.64	1116.35
490.99	1238.39
491.34	1188.67
491.69	1188.67
492.05	1233.87
492.40	1152.51
492.75	1184.15
493.10	1109.58
493.46	1150.25
493.81	1159.29
494.16	1166.07
494.51	1166.07
494.86	1152.51
495.22	1152.51
495.57	1224.83
495.92	1168.33
496.27	1184.15
496.62	1204.49
496.98	1123.13
497.33	1181.89
497.68	1109.58
498.03	1159.29
498.38	1150.25
498.74	1188.67
499.09	1199.97
499.44	1184.15
499.79	1175.11
500.14	1163.81
500.49	1215.79
500.85	1190.93
501.20	1236.13
501.55	1147.99
501.90	1206.75
502.25	1163.81
502.60	1224.83
502.95	1134.43
503.30	1170.59
503.66	1233.87
504.01	1181.89
504.36	1152.51
504.71	1177.37
505.06	1195.45
505.41	1188.67
505.76	1163.81
506.11	1209.01
506.46	1152.51
506.82	1170.59
507.17	1213.53
507.52	1177.37
507.87	1179.63
508.22	1206.75
508.57	1251.94
508.92	1218.05
509.27	1202.23
509.62	1229.35
509.97	1209.01
510.32	1213.53
510.67	1238.39
511.02	1227.09
511.37	1209.01
511.72	1215.79
512.07	1190.93
512.42	1236.13
512.77	1224.83
513.12	1279.06
513.47	1229.35
513.82	1292.62
514.17	1294.88
514.52	1220.31
514.87	1315.22
515.22	1240.65
515.57	1285.84
515.92	1258.72
516.27	1245.16
516.62	1265.50
516.97	1294.88
517.32	1267.76
517.67	1279.06
518.02	1274.54
518.37	1276.80
518.72	1233.87
519.07	1315.22
519.42	1337.82
519.77	1310.70
520.12	1272.28
520.47	1276.80
520.82	1398.83
521.17	1362.68
521.52	1335.56
521.87	1299.40
522.22	1362.68
522.56	1369.46
522.91	1351.38
523.26	1392.05
523.61	1358.16
523.96	1358.16
524.31	1333.30
524.66	1340.08
525.01	1383.01
525.36	1324.26
525.71	1342.34
526.05	1407.87
526.40	1448.55
526.75	1383.01
527.10	1331.04
527.45	1441.77
527.80	1432.73
528.15	1414.65
528.49	1351.38
528.84	1446.29
529.19	1389.79
529.54	1371.72
529.89	1412.39
530.24	1434.99
530.58	1412.39
530.93	1396.57
531.28	1387.53
531.63	1387.53
531.98	1398.83
532.33	1419.17
532.67	1439.51
533.02	1319.74
533.37	1378.49
533.72	1371.72
534.07	1482.45
534.41	1423.69
534.76	1439.51
535.11	1378.49
535.46	1439.51
535.80	1392.05
536.15	1423.69
536.50	1396.57
536.85	1425.95
537.19	1414.65
537.54	1407.87
537.89	1383.01
538.24	1414.65
538.58	1444.03
538.93	1493.75
539.28	1373.98
539.63	1416.91
539.97	1434.99
540.32	1367.20
540.67	1403.35
541.01	1385.27
541.36	1448.55
541.71	1376.24
542.06	1349.12
542.40	1403.35
542.75	1398.83
543.10	1392.05
543.44	1430.47
543.79	1437.25
544.14	1425.95
544.48	1532.16
544.83	1353.64
545.18	1346.86
545.52	1407.87
545.87	1401.09
546.22	1507.30
546.56	1364.94
546.91	1441.77
547.25	1394.31
547.60	1428.21
547.95	1407.87
548.29	1419.17
548.64	1416.91
548.99	1373.98
549.33	1342.34
549.68	1453.07
550.02	1394.31
550.37	1389.79
550.72	1412.39
551.06	1412.39
551.41	1378.49
551.75	1453.07
552.10	1349.12
552.45	1378.49
552.79	1369.46
553.14	1367.20
553.48	1349.12
553.83	1410.13
554.17	1340.08
554.52	1412.39
554.87	1403.35
555.21	1489.23
555.56	1362.68
555.90	1335.56
556.25	1333.30
556.59	1281.32
556.94	1387.53
557.28	1358.16
557.63	1333.30
557.97	1364.94
558.32	1353.64
558.66	1322.00
559.01	1340.08
559.35	1387.53
559.70	1385.27
560.04	1326.52
560.39	1371.72
560.73	1360.42
561.08	1294.88
561.42	1364.94
561.77	1437.25
562.11	1371.72
562.46	1358.16
562.80	1371.72
563.14	1337.82
563.49	1276.80
563.83	1394.31
564.18	1389.79
564.52	1378.49
564.87	1312.96
565.21	1351.38
565.56	1371.72
565.90	1303.92
566.24	1349.12
566.59	1310.70
566.93	1387.53
567.28	1340.08
567.62	1344.60
567.96	1292.62
568.31	1294.88
568.65	1362.68
569.00	1355.90
569.34	1308.44
569.68	1326.52
570.03	1260.98
570.37	1328.78
570.71	1288.10
571.06	1301.66
571.40	1303.92
571.74	1403.35
572.09	1342.34
572.43	1360.42
572.78	1315.22
573.12	1378.49
573.46	1360.42
573.80	1276.80
574.15	1292.62
574.49	1319.74
574.83	1281.32
575.18	1279.06
575.52	1331.04
575.86	1236.13
576.21	1303.92
576.55	1285.84
576.89	1260.98
577.24	1342.34
577.58	1249.68
577.92	1297.14
578.26	1351.38
578.61	1272.28
578.95	1389.79
579.29	1319.74
579.63	1297.14
579.98	1270.02
580.32	1358.16
580.66	1340.08
581.00	1272.28
581.35	1306.18
581.69	1303.92
582.03	1340.08
582.37	1276.80
582.72	1283.58
583.06	1306.18
583.40	1340.08
583.74	1247.42
584.08	1315.22
584.43	1310.70
584.77	1249.68
585.11	1265.50
585.45	1303.92
585.79	1204.49
586.13	1306.18
586.48	1283.58
586.82	1270.02
587.16	1292.62
587.50	1233.87
587.84	1288.10
588.18	1294.88
588.53	1254.20
588.87	1267.76
589.21	1301.66
589.55	1324.26
589.89	1283.58
590.23	1184.15
590.57	1310.70
590.92	1240.65
591.26	1177.37
591.60	1206.75
591.94	1258.72
592.28	1240.65
592.62	1258.72
592.96	1242.91
593.30	1199.97
593.64	1301.66
593.98	1251.94
594.32	1229.35
594.67	1267.76
595.01	1206.75
595.35	1306.18
595.69	1213.53
596.03	1233.87
596.37	1184.15
596.71	1193.19
597.05	1211.27
597.39	1224.83
597.73	1260.98
598.07	1263.24
598.41	1281.32
598.75	1188.67
599.09	1292.62
599.43	1222.57
599.77	1209.01
600.11	1163.81
600.45	1222.57
600.79	1249.68
601.13	1272.28
601.47	1199.97
601.81	1245.16
602.15	1220.31
602.49	1193.19
602.83	1181.89
603.17	1218.05
603.51	1206.75
603.85	1224.83
604.19	1204.49
604.53	1218.05
604.87	1301.66
605.21	1202.23
605.55	1227.09
605.89	1166.07
606.23	1267.76
606.56	1242.91
606.90	1177.37
607.24	1265.50
607.58	1168.33
607.92	1231.61
608.26	1242.91
608.60	1242.91
608.94	1222.57
609.28	1236.13
609.62	1211.27
609.95	1220.31
610.29	1190.93
610.63	1238.39
610.97	1206.75
611.31	1240.65
611.65	1231.61
611.99	1188.67
612.33	1224.83
612.66	1215.79
613.00	1197.71
613.34	1204.49
613.68	1236.13
614.02	1157.03
614.36	1215.79
614.69	1236.13
615.03	1258.72
615.37	1211.27
615.71	1175.11
616.05	1206.75
616.38	1231.61
616.72	1213.53
617.06	1147.99
617.40	1123.13
617.74	1170.59
618.07	1177.37
618.41	1222.57
618.75	1138.95
619.09	1138.95
619.42	1159.29
619.76	1105.06
620.10	1152.51
620.44	1240.65
620.77	1163.81
621.11	1193.19
621.45	1132.17
621.79	1166.07
622.12	1141.21
622.46	1188.67
622.80	1141.21
623.13	1204.49
623.47	1224.83
623.81	1186.41
624.15	1120.87
624.48	1209.01
624.82	1188.67
625.16	1193.19
625.49	1166.07
625.83	1159.29
626.17	1163.81
626.50	1186.41
626.84	1175.11
627.18	1145.73
627.51	1218.05
627.85	1154.77
628.19	1179.63
628.52	1161.55
628.86	1186.41
629.20	1163.81
629.53	1190.93
629.87	1152.51
630.20	1211.27
630.54	1199.97
630.88	1132.17
631.21	1152.51
631.55	1147.99
631.89	1129.91
632.22	1215.79
632.56	1116.35
632.89	1141.21
633.23	1188.67
633.56	1129.91
633.90	1150.25
634.24	1159.29
634.57	1125.39
634.91	1188.67
635.24	1138.95
635.58	1193.19
635.91	1177.37
636.25	1150.25
636.58	1175.11
636.92	1215.79
637.26	1168.33
637.59	1152.51
637.93	1159.29
638.26	1111.84
638.60	1105.06
638.93	1084.72
639.27	1161.55
639.60	1220.31
639.94	1177.37
640.27	1175.11
640.61	1166.07
640.94	1098.28
641.28	1157.03
641.61	1168.33
641.94	1177.37
642.28	1138.95
642.61	1125.39
642.95	1105.06
643.28	1138.95
643.62	1134.43
643.95	1134.43
644.29	1120.87
644.62	1118.61
644.95	1147.99
645.29	1127.65
645.62	1157.03
645.96	1175.11
646.29	1138.95
646.63	1172.85
646.96	1125.39
647.29	1179.63
647.63	1093.76
647.96	1138.95
648.29	1102.80
648.63	1048.56
648.96	1107.32
649.30	1068.90
649.63	1138.95
649.96	1206.75
650.30	1134.43
650.63	1120.87
650.96	1132.17
651.30	1120.87
651.63	1059.86
651.96	1190.93
652.30	1129.91
652.63	1123.13
652.96	1188.67
653.30	1168.33
653.63	1213.53
653.96	1157.03
654.30	1134.43
654.63	1111.84
654.96	1116.35
655.29	1129.91
655.63	1091.50
655.96	1118.61
656.29	1048.56
656.63	1118.61
656.96	1150.25
657.29	1152.51
657.62	1102.80
657.96	1157.03
658.29	1138.95
658.62	1114.10
658.95	1141.21
659.29	1172.85
659.62	1077.94
659.95	1114.10
660.28	1136.69
660.61	1134.43
660.95	1147.99
661.28	1179.63
661.61	1105.06
661.94	1109.58
662.27	1111.84
662.61	1096.02
662.94	1066.64
663.27	1116.35
663.60	1175.11
663.93	1157.03
664.27	1102.80
664.60	1166.07
664.93	1102.80
665.26	1134.43
665.59	1098.28
665.92	1166.07
666.25	1127.65
666.59	1114.10
666.92	1138.95
667.25	1080.20
667.58	1114.10
667.91	1147.99
668.24	1120.87
668.57	1175.11
668.90	1089.24
669.23	1184.15
669.57	1102.80
669.90	1111.84
670.23	1168.33
670.56	1166.07
670.89	1077.94
671.22	1136.69
671.55	1041.78
671.88	1186.41
672.21	1138.95
672.54	1157.03
672.87	1157.03
673.20	1170.59
673.53	1132.17
673.86	1089.24
674.19	1102.80
674.52	1132.17
674.85	1086.98
675.18	1114.10
675.51	1077.94
675.84	1082.46
676.17	1077.94
676.50	1062.12
676.83	1166.07
677.16	1136.69
677.49	1102.80
677.82	1116.35
678.15	1064.38
678.48	1127.65
678.81	1066.64
679.14	1190.93
679.47	1120.87
679.80	1129.91
680.13	1075.68
680.46	1129.91
680.79	1093.76
681.12	1064.38
681.45	1123.13
681.78	1120.87
682.11	1147.99
682.44	1145.73
682.77	1073.42
683.09	1132.17
683.42	1053.08
683.75	1129.91
684.08	1082.46
684.41	1168.33
684.74	1161.55
685.07	1120.87
685.40	1098.28
685.72	1179.63
686.05	1118.61
686.38	1116.35
686.71	1184.15
687.04	1073.42
687.37	1120.87
687.70	1170.59
688.02	1120.87
688.35	1107.32
688.68	1118.61
689.01	1089.24
689.34	1211.27
689.67	1136.69
689.99	1125.39
690.32	1172.85
690.65	1116.35
690.98	1138.95
691.30	1053.08
691.63	1100.54
691.96	1093.76
692.29	1116.35
692.62	1116.35
692.94	1118.61
693.27	1141.21
693.60	1114.10
693.93	1143.47
694.25	1125.39
694.58	1114.10
694.91	1116.35
695.24	1143.47
695.56	1118.61
695.89	1132.17
696.22	1125.39
696.54	1096.02
696.87	1089.24
697.20	1071.16
697.53	1109.58
697.85	1102.80
698.18	1080.20
698.51	1143.47
698.83	1073.42
699.16	1075.68
699.49	1132.17
699.81	1125.39
700.14	1091.50
700.47	1089.24
700.79	1147.99
701.12	1170.59
701.45	1141.21
701.77	1073.42
702.10	1073.42
702.42	1147.99
702.75	1084.72
703.08	1098.28
703.40	1159.29
703.73	1109.58
704.05	1143.47
704.38	1134.43
704.71	1125.39
705.03	1136.69
705.36	1120.87
705.68	1055.34
706.01	1116.35
706.34	1105.06
706.66	1039.52
706.99	1114.10
707.31	1129.91
707.64	1107.32
707.96	1084.72
708.29	1143.47
708.61	1132.17
708.94	1075.68
709.26	1125.39
709.59	1136.69
709.92	1098.28
710.24	1100.54
710.57	1138.95
710.89	1105.06
711.22	1190.93
711.54	1098.28
711.87	1125.39
712.19	1211.27
712.51	1127.65
712.84	1080.20
713.16	1143.47
713.49	1068.90
713.81	1025.96
714.14	1086.98
714.46	1125.39
714.79	1118.61
715.11	1098.28
715.44	1071.16
715.76	1152.51
716.08	1084.72
716.41	1068.90
716.73	1125.39
717.06	1102.80
717.38	1102.80
717.70	1091.50
718.03	1147.99
718.35	1123.13
718.68	1046.30
719.00	1093.76
719.32	1143.47
719.65	1062.12
719.97	1147.99
720.29	1154.77
720.62	1062.12
720.94	1120.87
721.27	1147.99
721.59	1062.12
721.91	1136.69
722.24	1073.42
722.56	1057.60
722.88	1105.06
723.21	1134.43
723.53	1100.54
723.85	1168.33
724.17	1080.20
724.50	1102.80
724.82	1107.32
725.14	1053.08
725.47	1109.58
725.79	1147.99
726.11	1152.51
726.43	1071.16
726.76	1105.06
727.08	1025.96
727.40	1120.87
727.72	1062.12
728.05	1080.20
728.37	1089.24
728.69	1071.16
729.01	1075.68
729.34	1134.43
729.66	1116.35
729.98	1082.46
730.30	1003.36
730.62	1080.20
730.95	1080.20
731.27	1120.87
731.59	1059.86
731.91	1073.42
732.23	1091.50
732.56	1080.20
732.88	1093.76
733.20	1141.21
733.52	1098.28
733.84	1177.37
734.16	1109.58
734.49	1050.82
734.81	1086.98
735.13	1100.54
735.45	1125.39
735.77	1116.35
736.09	1159.29
736.41	1114.10
736.73	1105.06
737.06	1141.21
737.38	1084.72
737.70	1098.28
738.02	1082.46
738.34	1150.25
738.66	1116.35
738.98	1096.02
739.30	1084.72
739.62	1098.28
739.94	1111.84
740.26	1107.32
740.58	1125.39
740.90	1084.72
741.23	1048.56
741.55	1107.32
741.87	1152.51
742.19	1050.82
742.51	1114.10
742.83	1123.13
743.15	1111.84
743.47	1109.58
743.79	1118.61
744.11	1107.32
744.43	1152.51
744.75	1080.20
745.07	1091.50
745.39	1071.16
745.71	1147.99
746.03	1127.65
746.35	1107.32
746.67	1077.94
746.98	1134.43
747.30	1127.65
747.62	1023.70
747.94	1136.69
748.26	1100.54
748.58	1080.20
748.90	1134.43
749.22	1143.47
749.54	1073.42
749.86	1116.35
750.18	1159.29
750.50	1120.87
750.82	1134.43
751.13	1080.20
751.45	1098.28
751.77	1134.43
752.09	1157.03
752.41	1068.90
752.73	1120.87
753.05	1080.20
753.36	1077.94
753.68	1096.02
754.00	1077.94
754.32	1109.58
754.64	1120.87
754.96	1120.87
755.28	1098.28
755.59	1100.54
755.91	1118.61
756.23	1041.78
756.55	1082.46
756.87	1141.21
757.18	1082.46
757.50	1048.56
757.82	1105.06
758.14	1105.06
758.45	1111.84
758.77	1062.12
759.09	1111.84
759.41	1114.10
759.73	1116.35
760.04	978.51
760.36	1053.08
760.68	1089.24
760.99	1138.95
761.31	1129.91
761.63	1138.95
761.95	1138.95
762.26	1136.69
762.58	1073.42
762.90	1134.43
763.21	1100.54
763.53	1138.95
763.85	1100.54
764.17	1086.98
764.48	1093.76
764.80	1089.24
765.12	1116.35
765.43	1150.25
765.75	1084.72
766.07	1143.47
766.38	1057.60
766.70	1123.13
767.01	1120.87
767.33	1152.51
767.65	1071.16
767.96	1062.12
768.28	1102.80
768.60	1141.21
768.91	1172.85
769.23	1132.17
769.54	1080.20
769.86	1093.76
770.18	1050.82
770.49	1105.06
770.81	1082.46
771.12	1211.27
771.44	1048.56
771.75	1129.91
772.07	1114.10
772.38	1096.02
772.70	1091.50
773.02	1136.69
773.33	1075.68
773.65	1109.58
773.96	1109.58
774.28	1102.80
774.59	1143.47
774.91	1193.19
775.22	1154.77
775.54	1109.58
775.85	1109.58
776.17	1073.42
776.48	1071.16
776.80	1143.47
777.11	1125.39
777.43	1084.72
777.74	1116.35
778.05	1111.84
778.37	1100.54
778.68	1077.94
779.00	1046.30
779.31	1145.73
779.63	1111.84
779.94	1163.81
780.26	1132.17
780.57	1111.84
780.88	1062.12
781.20	1050.82
781.51	1116.35
781.83	1118.61
782.14	1098.28
782.45	1091.50
782.77	1075.68
783.08	1125.39
783.39	1093.76
783.71	1077.94
784.02	1105.06
784.34	1102.80
784.65	1102.80
784.96	1129.91
785.28	1172.85
785.59	1188.67
785.90	1125.39
786.22	1136.69
786.53	1091.50
786.84	1136.69
787.15	1080.20
787.47	1127.65
787.78	1134.43
788.09	1118.61
788.41	1080.20
788.72	1157.03
789.03	1141.21
789.35	1147.99
789.66	1096.02
789.97	1136.69
790.28	1143.47
790.60	1105.06
790.91	1136.69
791.22	1064.38
791.53	1075.68
791.84	1062.12
792.16	1068.90
792.47	1107.32
792.78	1089.24
793.09	1163.81
793.41	1118.61
793.72	1109.58
794.03	1109.58
794.34	1039.52
794.65	1145.73
794.96	1077.94
795.28	1123.13
795.59	1075.68
795.90	1111.84
796.21	1075.68
796.52	1111.84
796.83	1084.72
797.15	1177.37
797.46	1077.94
797.77	1082.46
798.08	1118.61
798.39	1109.58
798.70	1114.10
799.01	1093.76
799.32	1116.35
799.63	1125.39
799.95	1023.70
800.26	1134.43
800.57	1134.43
800.88	1127.65
801.19	1100.54
801.50	1086.98
801.81	1068.90
802.12	1084.72
802.43	1132.17
802.74	1114.10
803.05	1037.26
803.36	1125.39
803.67	1125.39
803.98	1093.76
804.29	1059.86
804.60	1098.28
804.91	1080.20
805.22	1105.06
805.53	1120.87
805.84	1150.25
806.15	1136.69
806.46	1077.94
806.77	1114.10
807.08	1100.54
807.39	1096.02
807.70	1055.34
808.01	1116.35
808.32	1089.24
808.63	1147.99
808.94	1107.32
809.25	1109.58
809.56	1127.65
809.87	1118.61
810.18	1145.73
810.49	1141.21
810.79	1125.39
811.10	1111.84
811.41	1053.08
811.72	1109.58
812.03	1132.17
812.34	1105.06
812.65	1111.84
812.96	1152.51
813.27	1105.06
813.57	1118.61
813.88	1152.51
814.19	1129.91
814.50	1123.13
814.81	1080.20
815.12	1145.73
815.42	1116.35
815.73	1082.46
816.04	1102.80
816.35	1107.32
816.66	1096.02
816.97	1127.65
817.27	1145.73
817.58	1075.68
817.89	1127.65
818.20	1123.13
818.50	1152.51
818.81	1109.58
819.12	1096.02
819.43	1127.65
819.73	1068.90
820.04	1125.39
820.35	1134.43
820.66	1075.68
820.96	1120.87
821.27	1107.32
821.58	1080.20
821.89	1082.46
822.19	1136.69
822.50	1096.02
822.81	1084.72
823.11	1032.74
823.42	1102.80
823.73	1068.90
824.03	1096.02
824.34	1077.94
824.65	1064.38
824.95	1082.46
825.26	1098.28
825.57	1068.90
825.87	1102.80
826.18	1053.08
826.49	1082.46
826.79	1141.21
827.10	1159.29
827.40	1093.76
827.71	1064.38
828.02	1129.91
828.32	1181.89
828.63	1123.13
828.93	1152.51
829.24	1091.50
829.55	1105.06
829.85	1086.98
830.16	1071.16
830.46	1077.94
830.77	1129.91
831.07	1107.32
831.38	1109.58
831.69	1118.61
831.99	1059.86
832.30	1077.94
832.60	1105.06
832.91	1114.10
833.21	1109.58
833.52	1089.24
833.82	1059.86
834.13	1028.22
834.43	1012.40
834.74	1075.68
835.04	1125.39
835.35	1093.76
835.65	1098.28
835.96	1132.17
836.26	1114.10
836.56	1132.17
836.87	1150.25
837.17	1077.94
837.48	1116.35
837.78	1093.76
838.09	1093.76
838.39	1105.06
838.69	1055.34
839.00	1075.68
839.30	1132.17
839.61	1098.28
839.91	1055.34
840.21	1057.60
840.52	1086.98
840.82	1157.03
841.13	1096.02
841.43	1100.54
841.73	1175.11
842.04	1150.25
842.34	1082.46
842.64	1132.17
842.95	1114.10
843.25	1041.78
843.55	1044.04
843.86	1168.33
844.16	1107.32
844.46	1127.65
844.77	1129.91
845.07	1071.16
845.37	1123.13
845.68	1084.72
845.98	1098.28
846.28	1114.10
846.58	1114.10
846.89	1141.21
847.19	1057.60
847.49	1125.39
847.79	1107.32
848.10	1086.98
848.40	1125.39
848.70	1163.81
849.00	1157.03
849.31	1150.25
849.61	1082.46
849.91	1175.11
850.21	1077.94
850.51	1120.87
850.82	1057.60
851.12	1111.84
851.42	1082.46
851.72	1071.16
852.02	1082.46
852.32	1150.25
852.63	1120.87
852.93	1127.65
853.23	1098.28
853.53	1048.56
853.83	1077.94
854.13	1132.17
854.43	1109.58
854.74	1068.90
855.04	1145.73
855.34	1082.46
855.64	1111.84
855.94	1071.16
856.24	1120.87
856.54	1150.25
856.84	1105.06
857.14	1098.28
857.44	1086.98
857.74	1059.86
858.05	1107.32
858.35	1132.17
858.65	1118.61
858.95	1053.08
859.25	1150.25
859.55	1098.28
859.85	1091.50
860.15	1075.68
860.45	1111.84
860.75	1118.61
861.05	1082.46
861.35	1093.76
861.65	1084.72
861.95	1080.20
862.25	1141.21
862.55	1102.80
862.85	1080.20
863.15	1086.98
863.45	1147.99
863.75	1077.94
864.05	1048.56
864.35	1098.28
864.64	1111.84
864.94	1080.20
865.24	1084.72
865.54	1084.72
865.84	1114.10
866.14	1120.87
866.44	1064.38
866.74	1116.35
867.04	1123.13
867.34	1075.68
867.64	1123.13
867.93	1039.52
868.23	1186.41
868.53	1116.35
868.83	1068.90
869.13	1105.06
869.43	1084.72
869.73	1120.87
870.02	1048.56
870.32	1125.39
870.62	1096.02
870.92	1077.94
871.22	1136.69
871.51	1082.46
871.81	1039.52
872.11	1127.65
872.41	1089.24
872.71	1204.49
873.00	1098.28
873.30	1091.50
873.60	1143.47
873.90	1138.95
874.19	1093.76
874.49	1073.42
874.79	1080.20
875.09	1098.28
875.38	1080.20
875.68	1048.56
875.98	1161.55
876.28	1100.54
876.57	1109.58
876.87	1109.58
877.17	1109.58
