174.03	653.09
174.41	653.09
174.78	653.09
175.16	700.55
175.54	700.55
175.92	770.60
176.30	759.30
176.67	696.03
177.05	732.18
177.43	741.22
177.81	786.42
178.19	806.76
178.56	759.30
178.94	766.08
179.32	804.50
179.70	860.99
180.08	881.33
180.45	926.53
180.83	928.79
181.21	944.61
181.59	944.61
181.96	964.95
182.34	983.02
182.72	980.77
183.10	1066.64
183.48	1039.52
183.85	1012.40
184.23	1086.98
184.61	1080.20
184.99	1064.38
185.36	1039.52
185.74	1082.46
186.12	1109.58
186.50	1118.61
186.87	1082.46
187.25	1141.21
187.63	1062.12
188.01	1120.87
188.38	1195.45
188.76	1118.61
189.14	1127.65
189.52	1059.86
189.89	1062.12
190.27	1102.80
190.65	1120.87
191.02	1059.86
191.40	1123.13
191.78	1091.50
192.16	1166.07
192.53	1181.89
192.91	1163.81
193.29	1125.39
193.66	1127.65
194.04	1132.17
194.42	1143.47
194.79	1134.43
195.17	1084.72
195.55	1066.64
195.93	1120.87
196.30	1086.98
196.68	1086.98
197.06	1152.51
197.43	1093.76
197.81	1091.50
198.19	1053.08
198.56	1109.58
198.94	1143.47
199.32	1102.80
199.69	1147.99
200.07	1098.28
200.45	1071.16
200.82	1123.13
201.20	1075.68
201.58	1071.16
201.95	1105.06
202.33	1114.10
202.71	1084.72
203.08	1064.38
203.46	1157.03
203.84	1123.13
204.21	1102.80
204.59	1170.59
204.96	1068.90
205.34	1059.86
205.72	1068.90
206.09	1125.39
206.47	1080.20
206.85	1044.04
207.22	1037.26
207.60	1030.48
207.97	1064.38
208.35	1102.80
208.73	1098.28
209.10	1071.16
209.48	1057.60
209.85	1012.40
210.23	1114.10
210.61	1132.17
210.98	1105.06
211.36	1057.60
211.73	1109.58
212.11	1086.98
212.49	1064.38
212.86	1057.60
213.24	1163.81
213.61	1123.13
213.99	1091.50
214.37	1102.80
214.74	1143.47
215.12	1057.60
215.49	1120.87
215.87	1062.12
216.24	1071.16
216.62	1143.47
216.99	1118.61
217.37	1123.13
217.75	1077.94
218.12	1141.21
218.50	1120.87
218.87	1098.28
219.25	1129.91
219.62	1109.58
220.00	1086.98
220.37	1163.81
220.75	1152.51
221.12	1066.64
221.50	1096.02
221.87	994.32
222.25	1098.28
222.63	1086.98
223.00	1046.30
223.38	1091.50
223.75	1107.32
224.13	1059.86
224.50	1098.28
224.88	1202.23
225.25	1109.58
225.63	1157.03
226.00	1141.21
226.38	1093.76
226.75	1116.35
227.13	1089.24
227.50	1093.76
227.88	1059.86
228.25	1199.97
228.63	1120.87
229.00	1086.98
229.37	1093.76
229.75	1190.93
230.12	1132.17
230.50	1062.12
230.87	1132.17
231.25	1114.10
231.62	1050.82
232.00	1032.74
232.37	1062.12
232.75	1068.90
233.12	1062.12
233.50	1066.64
233.87	1091.50
234.24	1005.62
234.62	1093.76
234.99	1068.90
235.37	1157.03
235.74	1120.87
236.12	1111.84
236.49	1098.28
236.86	1073.42
237.24	1111.84
237.61	1100.54
237.99	1102.80
238.36	1145.73
238.74	1109.58
239.11	1057.60
239.48	1123.13
239.86	1111.84
240.23	1114.10
240.61	1057.60
240.98	1195.45
241.35	1053.08
241.73	1120.87
242.10	1096.02
242.48	1125.39
242.85	1035.00
243.22	1163.81
243.60	1141.21
243.97	1134.43
244.34	1102.80
244.72	1046.30
245.09	1071.16
245.47	1161.55
245.84	1044.04
246.21	1075.68
246.59	1132.17
246.96	1132.17
247.33	1170.59
247.71	1107.32
248.08	1116.35
248.45	1093.76
248.83	1136.69
249.20	1145.73
249.57	1123.13
249.95	1145.73
250.32	1143.47
250.69	1134.43
251.07	1086.98
251.44	1105.06
251.81	1129.91
252.19	1141.21
252.56	1066.64
252.93	1120.87
253.31	1134.43
253.68	1109.58
254.05	1152.51
254.43	1118.61
254.80	1062.12
255.17	1114.10
255.55	1111.84
255.92	1154.77
256.29	1127.65
256.66	1089.24
257.04	1084.72
257.41	1077.94
257.78	1086.98
258.16	1177.37
258.53	1100.54
258.90	1157.03
259.27	1161.55
259.65	1147.99
260.02	1177.37
260.39	1109.58
260.76	1152.51
261.14	1080.20
261.51	1080.20
261.88	1091.50
262.25	1107.32
262.63	1098.28
263.00	1118.61
263.37	1098.28
263.74	1091.50
264.12	1048.56
264.49	1064.38
264.86	1080.20
265.23	1080.20
265.61	1136.69
265.98	1136.69
266.35	1145.73
266.72	1093.76
267.09	1120.87
267.47	1098.28
267.84	1100.54
268.21	1116.35
268.58	1116.35
268.95	1134.43
269.33	1152.51
269.70	1134.43
270.07	1141.21
270.44	1138.95
270.81	1127.65
271.19	1145.73
271.56	1071.16
271.93	1120.87
272.30	1168.33
272.67	1127.65
273.05	1080.20
273.42	1177.37
273.79	1080.20
274.16	1123.13
274.53	1114.10
274.90	1154.77
275.28	1127.65
275.65	1143.47
276.02	1118.61
276.39	1111.84
276.76	1100.54
277.13	1134.43
277.50	1161.55
277.88	1152.51
278.25	1134.43
278.62	1134.43
278.99	1125.39
279.36	1127.65
279.73	1143.47
280.10	1102.80
280.47	1222.57
280.85	1100.54
281.22	1082.46
281.59	1170.59
281.96	1093.76
282.33	1129.91
282.70	1188.67
283.07	1177.37
283.44	1125.39
283.81	1172.85
284.18	1159.29
284.56	1186.41
284.93	1186.41
285.30	1114.10
285.67	1107.32
286.04	1093.76
286.41	1147.99
286.78	1116.35
287.15	1141.21
287.52	1114.10
287.89	1159.29
288.26	1177.37
288.63	1132.17
289.00	1136.69
289.37	1145.73
289.75	1096.02
290.12	1159.29
290.49	1197.71
290.86	1136.69
291.23	1091.50
291.60	1111.84
291.97	1143.47
292.34	1093.76
292.71	1193.19
293.08	1116.35
293.45	1152.51
293.82	1186.41
294.19	1134.43
294.56	1136.69
294.93	1197.71
295.30	1175.11
295.67	1159.29
296.04	1127.65
296.41	1127.65
296.78	1184.15
297.15	1147.99
297.52	1125.39
297.89	1138.95
298.26	1168.33
298.63	1138.95
299.00	1102.80
299.37	1134.43
299.74	1184.15
300.11	1147.99
300.48	1186.41
300.85	1136.69
301.22	1084.72
301.59	1093.76
301.96	1109.58
302.33	1111.84
302.70	1127.65
303.07	1193.19
303.43	1107.32
303.80	1093.76
304.17	1134.43
304.54	1120.87
304.91	1175.11
305.28	1138.95
305.65	1141.21
306.02	1109.58
306.39	1096.02
306.76	1089.24
307.13	1141.21
307.50	1147.99
307.87	1204.49
308.24	1118.61
308.60	1118.61
308.97	1105.06
309.34	1136.69
309.71	1152.51
310.08	1141.21
310.45	1161.55
310.82	1127.65
311.19	1105.06
311.56	1123.13
311.92	1129.91
312.29	1190.93
312.66	1161.55
313.03	1175.11
313.40	1125.39
313.77	1161.55
314.14	1114.10
314.51	1145.73
314.87	1157.03
315.24	1138.95
315.61	1166.07
315.98	1170.59
316.35	1188.67
316.72	1125.39
317.09	1157.03
317.45	1163.81
317.82	1193.19
318.19	1161.55
318.56	1181.89
318.93	1118.61
319.30	1111.84
319.66	1179.63
320.03	1143.47
320.40	1218.05
320.77	1152.51
321.14	1150.25
321.50	1177.37
321.87	1179.63
322.24	1166.07
322.61	1102.80
322.98	1102.80
323.34	1186.41
323.71	1166.07
324.08	1118.61
324.45	1179.63
324.82	1138.95
325.18	1114.10
325.55	1141.21
325.92	1096.02
326.29	1150.25
326.65	1132.17
327.02	1145.73
327.39	1132.17
327.76	1125.39
328.12	1159.29
328.49	1150.25
328.86	1114.10
329.23	1177.37
329.59	1134.43
329.96	1080.20
330.33	1218.05
330.70	1147.99
331.06	1143.47
331.43	1105.06
331.80	1154.77
332.17	1157.03
332.53	1270.02
332.90	1127.65
333.27	1159.29
333.63	1220.31
334.00	1188.67
334.37	1168.33
334.74	1143.47
335.10	1170.59
335.47	1147.99
335.84	1143.47
336.20	1150.25
336.57	1249.68
336.94	1129.91
337.30	1120.87
337.67	1195.45
338.04	1215.79
338.40	1166.07
338.77	1150.25
339.14	1188.67
339.50	1152.51
339.87	1206.75
340.24	1202.23
340.60	1141.21
340.97	1190.93
341.34	1181.89
341.70	1211.27
342.07	1152.51
342.44	1120.87
342.80	1166.07
343.17	1209.01
343.53	1211.27
343.90	1206.75
344.27	1222.57
344.63	1152.51
345.00	1143.47
345.37	1190.93
345.73	1179.63
346.10	1152.51
346.46	1204.49
346.83	1172.85
347.20	1157.03
347.56	1163.81
347.93	1195.45
348.29	1134.43
348.66	1229.35
349.03	1154.77
349.39	1199.97
349.76	1166.07
350.12	1220.31
350.49	1170.59
350.85	1190.93
351.22	1181.89
351.59	1177.37
351.95	1263.24
352.32	1197.71
352.68	1138.95
353.05	1249.68
353.41	1199.97
353.78	1163.81
354.14	1157.03
354.51	1209.01
354.88	1159.29
355.24	1197.71
355.61	1236.13
355.97	1175.11
356.34	1215.79
356.70	1177.37
357.07	1240.65
357.43	1206.75
357.80	1227.09
358.16	1218.05
358.53	1227.09
358.89	1238.39
359.26	1206.75
359.62	1170.59
359.99	1303.92
360.35	1238.39
360.72	1215.79
361.08	1240.65
361.45	1231.61
361.81	1202.23
362.18	1249.68
362.54	1222.57
362.91	1245.16
363.27	1222.57
363.63	1231.61
364.00	1236.13
364.36	1218.05
364.73	1213.53
365.09	1265.50
365.46	1197.71
365.82	1288.10
366.19	1249.68
366.55	1199.97
366.91	1249.68
367.28	1294.88
367.64	1276.80
368.01	1267.76
368.37	1306.18
368.74	1310.70
369.10	1299.40
369.46	1256.46
369.83	1285.84
370.19	1312.96
370.56	1260.98
370.92	1238.39
371.28	1317.48
371.65	1276.80
372.01	1324.26
372.38	1331.04
372.74	1331.04
373.10	1383.01
373.47	1319.74
373.83	1326.52
374.19	1328.78
374.56	1349.12
374.92	1392.05
375.29	1335.56
375.65	1335.56
376.01	1455.33
376.38	1376.24
376.74	1398.83
377.10	1355.90
377.47	1371.72
377.83	1430.47
378.19	1529.90
378.56	1491.49
378.92	1480.19
379.28	1491.49
379.65	1557.02
380.01	1545.72
380.37	1654.19
380.74	1604.48
381.10	1665.49
381.46	1715.21
381.83	1773.96
382.19	1916.33
382.55	1810.12
382.91	1979.61
383.28	1959.27
383.64	2248.53
384.00	2250.79
384.37	2318.58
384.73	2465.47
385.09	2634.96
385.45	2621.40
385.82	2741.17
386.18	3041.73
386.54	3175.06
386.91	3353.58
387.27	3649.62
387.63	3954.70
387.99	4128.70
388.36	4555.81
388.72	4750.16
389.08	5186.30
389.44	5523.02
389.80	5823.58
390.17	6295.88
390.53	6858.58
390.89	7588.50
391.25	7986.23
391.62	8485.65
391.98	9531.95
392.34	10458.48
392.70	10912.71
393.06	11746.58
393.43	12508.15
393.79	13260.67
394.15	14004.15
394.51	15012.03
394.87	16184.89
395.24	17583.72
395.60	18810.80
395.96	20415.28
396.32	22037.84
396.68	23414.07
397.04	25549.61
397.41	27723.56
397.77	29811.65
398.13	32184.46
398.49	33770.86
398.85	36184.36
399.21	40285.95
399.58	42979.66
399.94	44893.73
400.30	49318.48
400.66	50812.22
401.02	53797.46
401.38	55607.58
401.74	57343.12
402.11	59467.36
402.47	60933.99
402.83	62052.61
403.19	63587.03
403.55	64655.93
403.91	65535.00
404.27	65535.00
404.63	65535.00
404.99	65535.00
405.35	65535.00
405.72	65535.00
406.08	65535.00
406.44	65535.00
406.80	65535.00
407.16	65535.00
407.52	65535.00
407.88	65535.00
408.24	65535.00
408.60	65535.00
408.96	65535.00
409.32	65535.00
409.68	65535.00
410.04	65535.00
410.40	65535.00
410.76	65535.00
411.13	64242.38
411.49	63770.07
411.85	62018.71
412.21	60737.39
412.57	59596.17
412.93	58353.27
413.29	56647.10
413.65	54733.02
414.01	52692.40
414.37	49833.72
414.73	48529.80
415.09	46023.65
415.45	44936.67
415.81	42426.00
416.17	40468.99
416.53	38737.96
416.89	36846.49
417.25	34830.72
417.61	33172.01
417.97	32457.90
418.33	30681.68
418.69	29933.68
419.05	28396.99
419.41	27572.16
419.77	26774.44
420.12	25255.83
420.48	24444.56
420.84	23590.34
421.20	22266.08
421.56	21179.10
421.92	21203.96
422.28	19484.23
422.64	18541.89
423.00	17486.55
423.36	16946.45
423.72	15843.65
424.08	14824.47
424.44	14137.48
424.80	13520.55
425.16	13122.82
425.51	12336.40
425.87	11920.59
426.23	10838.13
426.59	10458.48
426.95	10316.11
427.31	9608.79
427.67	9233.66
428.03	8745.53
428.39	8553.45
428.74	7819.00
429.10	7626.92
429.46	7249.53
429.82	6813.38
430.18	6657.45
430.54	6510.56
430.90	6370.45
431.26	5968.20
431.61	5629.23
431.97	5543.36
432.33	5441.66
432.69	5288.00
433.05	5089.13
433.41	4804.39
433.76	4695.92
434.12	4691.40
434.48	4422.48
434.84	4271.07
435.20	4164.86
435.55	4108.37
435.91	3855.27
436.27	3751.31
436.63	3717.42
436.99	3577.31
437.34	3459.80
437.70	3362.62
438.06	3245.11
438.42	3134.38
438.78	3100.48
439.13	2944.56
439.49	2971.67
439.85	2711.79
440.21	2671.12
440.56	2650.78
440.92	2637.22
441.28	2519.71
441.64	2406.72
441.99	2381.86
442.35	2309.54
442.71	2336.66
443.07	2286.95
443.42	2207.85
443.78	2135.54
444.14	2212.37
444.50	2022.55
444.85	2045.14
445.21	2094.86
445.57	1984.13
445.93	1984.13
446.28	1812.38
446.64	1868.88
447.00	1850.80
447.35	1823.68
447.71	1798.82
448.07	1764.93
448.42	1742.33
448.78	1776.22
449.14	1726.51
449.49	1733.29
449.85	1721.99
450.21	1737.81
450.56	1697.13
450.92	1638.38
451.28	1599.96
451.63	1665.49
451.99	1575.10
452.35	1602.22
452.70	1595.44
453.06	1547.98
453.42	1554.76
453.77	1480.19
454.13	1482.45
454.49	1466.63
454.84	1448.55
455.20	1439.51
455.55	1362.68
455.91	1410.13
456.27	1403.35
456.62	1428.21
456.98	1371.72
457.33	1342.34
457.69	1340.08
458.05	1414.65
458.40	1373.98
458.76	1398.83
459.11	1378.49
459.47	1315.22
459.83	1265.50
460.18	1322.00
460.54	1312.96
460.89	1315.22
461.25	1344.60
461.60	1258.72
461.96	1245.16
462.31	1285.84
462.67	1285.84
463.03	1315.22
463.38	1265.50
463.74	1288.10
464.09	1301.66
464.45	1315.22
464.80	1211.27
465.16	1315.22
465.51	1188.67
465.87	1279.06
466.22	1267.76
466.58	1274.54
466.93	1260.98
467.29	1215.79
467.64	1315.22
468.00	1260.98
468.35	1197.71
468.71	1281.32
469.06	1220.31
469.42	1193.19
469.77	1154.77
470.13	1197.71
470.48	1177.37
470.84	1218.05
471.19	1199.97
471.54	1206.75
471.90	1224.83
472.25	1213.53
472.61	1179.63
472.96	1193.19
473.32	1236.13
473.67	1209.01
474.03	1206.75
474.38	1168.33
474.73	1168.33
475.09	1218.05
475.44	1220.31
475.80	1247.42
476.15	1240.65
476.50	1231.61
476.86	1209.01
477.21	1186.41
477.57	1105.06
477.92	1166.07
478.27	1161.55
478.63	1204.49
478.98	1184.15
479.34	1141.21
479.69	1245.16
480.04	1175.11
480.40	1202.23
480.75	1177.37
481.10	1202.23
481.46	1175.11
481.81	1152.51
482.16	1254.20
482.52	1161.55
482.87	1170.59
483.22	1168.33
483.58	1163.81
483.93	1193.19
484.28	1195.45
484.64	1181.89
484.99	1193.19
485.34	1143.47
485.70	1143.47
486.05	1154.77
486.40	1229.35
486.76	1190.93
487.11	1123.13
487.46	1199.97
487.81	1188.67
488.17	1197.71
488.52	1134.43
488.87	1166.07
489.23	1141.21
489.58	1170.59
489.93	1152.51
490.28	1166.07
490.64	1111.84
490.99	1168.33
491.34	1170.59
491.69	1154.77
492.05	1152.51
492.40	1188.67
492.75	1161.55
493.10	1161.55
493.46	1190.93
493.81	1179.63
494.16	1184.15
494.51	1197.71
494.86	1179.63
495.22	1150.25
495.57	1127.65
495.92	1141.21
496.27	1181.89
496.62	1152.51
496.98	1120.87
497.33	1181.89
497.68	1125.39
498.03	1152.51
498.38	1195.45
498.74	1202.23
499.09	1114.10
499.44	1152.51
499.79	1141.21
500.14	1136.69
500.49	1161.55
500.85	1163.81
501.20	1181.89
501.55	1170.59
501.90	1161.55
502.25	1166.07
502.60	1145.73
502.95	1199.97
503.30	1168.33
503.66	1170.59
504.01	1170.59
504.36	1123.13
504.71	1143.47
505.06	1125.39
505.41	1132.17
505.76	1150.25
506.11	1213.53
506.46	1177.37
506.82	1089.24
507.17	1077.94
507.52	1082.46
507.87	1199.97
508.22	1123.13
508.57	1100.54
508.92	1109.58
509.27	1111.84
509.62	1123.13
509.97	1166.07
510.32	1147.99
510.67	1166.07
511.02	1132.17
511.37	1138.95
511.72	1068.90
512.07	1222.57
512.42	1141.21
512.77	1096.02
513.12	1186.41
513.47	1068.90
513.82	1086.98
514.17	1077.94
514.52	1086.98
514.87	1199.97
515.22	1125.39
515.57	1154.77
515.92	1127.65
516.27	1082.46
516.62	1152.51
516.97	1175.11
517.32	1150.25
517.67	1154.77
518.02	1147.99
518.37	1089.24
518.72	1136.69
519.07	1227.09
519.42	1220.31
519.77	1150.25
520.12	1098.28
520.47	1157.03
520.82	1134.43
521.17	1150.25
521.52	1190.93
521.87	1175.11
522.22	1211.27
522.56	1145.73
522.91	1222.57
523.26	1116.35
523.61	1224.83
523.96	1127.65
524.31	1211.27
524.66	1134.43
525.01	1161.55
525.36	1145.73
525.71	1202.23
526.05	1111.84
526.40	1143.47
526.75	1193.19
527.10	1089.24
527.45	1195.45
527.80	1213.53
528.15	1129.91
528.49	1190.93
528.84	1136.69
529.19	1159.29
529.54	1184.15
529.89	1120.87
530.24	1134.43
530.58	1175.11
530.93	1177.37
531.28	1220.31
531.63	1209.01
531.98	1206.75
532.33	1179.63
532.67	1145.73
533.02	1166.07
533.37	1084.72
533.72	1125.39
534.07	1161.55
534.41	1141.21
534.76	1138.95
535.11	1116.35
535.46	1073.42
535.80	1116.35
536.15	1175.11
536.50	1199.97
536.85	1170.59
537.19	1161.55
537.54	1186.41
537.89	1159.29
538.24	1136.69
538.58	1175.11
538.93	1177.37
539.28	1145.73
539.63	1138.95
539.97	1157.03
540.32	1145.73
540.67	1161.55
541.01	1143.47
541.36	1150.25
541.71	1193.19
542.06	1138.95
542.40	1145.73
542.75	1143.47
543.10	1102.80
543.44	1163.81
543.79	1181.89
544.14	1107.32
544.48	1179.63
544.83	1107.32
545.18	1166.07
545.52	1170.59
545.87	1163.81
546.22	1152.51
546.56	1129.91
546.91	1152.51
547.25	1157.03
547.60	1150.25
547.95	1172.85
548.29	1109.58
548.64	1143.47
548.99	1102.80
549.33	1123.13
549.68	1125.39
550.02	1172.85
550.37	1127.65
550.72	1170.59
551.06	1100.54
551.41	1118.61
551.75	1102.80
552.10	1109.58
552.45	1172.85
552.79	1109.58
553.14	1256.46
553.48	1197.71
553.83	1134.43
554.17	1175.11
554.52	1132.17
554.87	1105.06
555.21	1206.75
555.56	1134.43
555.90	1143.47
556.25	1129.91
556.59	1197.71
556.94	1127.65
557.28	1075.68
557.63	1080.20
557.97	1132.17
558.32	1120.87
558.66	1141.21
559.01	1218.05
559.35	1181.89
559.70	1157.03
560.04	1123.13
560.39	1143.47
560.73	1105.06
561.08	1111.84
561.42	1125.39
561.77	1120.87
562.11	1150.25
562.46	1080.20
562.80	1145.73
563.14	1186.41
563.49	1123.13
563.83	1157.03
564.18	1177.37
564.52	1145.73
564.87	1147.99
565.21	1132.17
565.56	1197.71
565.90	1136.69
566.24	1089.24
566.59	1134.43
566.93	1059.86
567.28	1111.84
567.62	1116.35
567.96	1105.06
568.31	1086.98
568.65	1132.17
569.00	1132.17
569.34	1125.39
569.68	1186.41
570.03	1068.90
570.37	1125.39
570.71	1159.29
571.06	1138.95
571.40	1186.41
571.74	1080.20
572.09	1109.58
572.43	1150.25
572.78	1157.03
573.12	1145.73
573.46	1138.95
573.80	1152.51
574.15	1163.81
574.49	1154.77
574.83	1132.17
575.18	1111.84
575.52	1136.69
575.86	1152.51
576.21	1105.06
576.55	1152.51
576.89	1111.84
577.24	1145.73
577.58	1055.34
577.92	1125.39
578.26	1168.33
578.61	1118.61
578.95	1111.84
579.29	1050.82
579.63	1175.11
579.98	1114.10
580.32	1157.03
580.66	1150.25
581.00	1091.50
581.35	1089.24
581.69	1116.35
582.03	1089.24
582.37	1127.65
582.72	1120.87
583.06	1213.53
583.40	1084.72
583.74	1168.33
584.08	1166.07
584.43	1082.46
584.77	1143.47
585.11	1132.17
585.45	1181.89
585.79	1145.73
586.13	1116.35
586.48	1157.03
586.82	1107.32
587.16	1098.28
587.50	1089.24
587.84	1111.84
588.18	1035.00
588.53	1093.76
588.87	1143.47
589.21	1141.21
589.55	1089.24
589.89	1075.68
590.23	1134.43
590.57	1132.17
590.92	1125.39
591.26	1141.21
591.60	1080.20
591.94	1120.87
592.28	1129.91
592.62	1161.55
592.96	1091.50
593.30	1138.95
593.64	1044.04
593.98	1071.16
594.32	1082.46
594.67	1177.37
595.01	1147.99
595.35	1098.28
595.69	1068.90
596.03	1105.06
596.37	1077.94
596.71	1086.98
597.05	1152.51
597.39	1093.76
597.73	1109.58
598.07	1199.97
598.41	1152.51
598.75	1073.42
599.09	1163.81
599.43	1132.17
599.77	1134.43
600.11	1132.17
600.45	1105.06
600.79	1138.95
601.13	1084.72
601.47	1102.80
601.81	1118.61
602.15	1055.34
602.49	1138.95
602.83	1120.87
603.17	1109.58
603.51	1109.58
603.85	1109.58
604.19	1141.21
604.53	1116.35
604.87	1175.11
605.21	1175.11
605.55	1096.02
605.89	1125.39
606.23	1120.87
606.56	1120.87
606.90	1125.39
607.24	1107.32
607.58	1143.47
607.92	1179.63
608.26	1190.93
608.60	1152.51
608.94	1082.46
609.28	1136.69
609.62	1159.29
609.95	1184.15
610.29	1084.72
610.63	1134.43
610.97	1102.80
611.31	1105.06
611.65	1147.99
611.99	1071.16
612.33	1082.46
612.66	1066.64
613.00	1050.82
613.34	1073.42
613.68	1068.90
614.02	1082.46
614.36	1134.43
614.69	1163.81
615.03	1109.58
615.37	1134.43
615.71	1125.39
616.05	1098.28
616.38	1102.80
616.72	1170.59
617.06	1114.10
617.40	1168.33
617.74	1157.03
618.07	1109.58
618.41	1082.46
618.75	1114.10
619.09	1077.94
619.42	1118.61
619.76	1129.91
620.10	1147.99
620.44	1057.60
620.77	1071.16
621.11	1082.46
621.45	1136.69
621.79	1114.10
622.12	1134.43
622.46	1134.43
622.80	1080.20
623.13	1091.50
623.47	1120.87
623.81	1084.72
624.15	1050.82
624.48	1041.78
624.82	1132.17
625.16	1134.43
625.49	1064.38
625.83	1141.21
626.17	1145.73
626.50	1089.24
626.84	1030.48
627.18	1163.81
627.51	1093.76
627.85	1129.91
628.19	1147.99
628.52	1071.16
628.86	1071.16
629.20	1084.72
629.53	1114.10
629.87	1134.43
630.20	1111.84
630.54	1125.39
630.88	1118.61
631.21	1132.17
631.55	1118.61
631.89	1086.98
632.22	1093.76
632.56	1059.86
632.89	1166.07
633.23	1166.07
633.56	1193.19
633.90	1105.06
634.24	1134.43
634.57	1134.43
634.91	1107.32
635.24	1059.86
635.58	1073.42
635.91	1136.69
636.25	1129.91
636.58	1096.02
636.92	1127.65
637.26	1102.80
637.59	1152.51
637.93	1125.39
638.26	1093.76
638.60	1150.25
638.93	1159.29
639.27	1082.46
639.60	1138.95
639.94	1091.50
640.27	1129.91
640.61	1143.47
640.94	1080.20
641.28	1073.42
641.61	1111.84
641.94	1152.51
642.28	1120.87
642.61	1111.84
642.95	1037.26
643.28	1091.50
643.62	1161.55
643.95	1138.95
644.29	1086.98
644.62	1073.42
644.95	1129.91
645.29	1114.10
645.62	1120.87
645.96	1120.87
646.29	1096.02
646.63	1175.11
646.96	1150.25
647.29	1077.94
647.63	1082.46
647.96	1166.07
648.29	1150.25
648.63	1127.65
648.96	1136.69
649.30	1107.32
649.63	1125.39
649.96	1080.20
650.30	1166.07
650.63	1096.02
650.96	1134.43
651.30	1093.76
651.63	1073.42
651.96	1107.32
652.30	1109.58
652.63	1064.38
652.96	1068.90
653.30	1147.99
653.63	1102.80
653.96	1159.29
654.30	1068.90
654.63	1041.78
654.96	1105.06
655.29	1157.03
655.63	1114.10
655.96	1141.21
656.29	1048.56
656.63	1086.98
656.96	1059.86
657.29	1100.54
657.62	1150.25
657.96	1096.02
658.29	1075.68
658.62	1134.43
658.95	1127.65
659.29	1116.35
659.62	1116.35
659.95	1041.78
660.28	1102.80
660.61	1129.91
660.95	1062.12
661.28	1050.82
661.61	1111.84
661.94	1080.20
662.27	1125.39
662.61	1016.92
662.94	1041.78
663.27	1059.86
663.60	1055.34
663.93	1100.54
664.27	1111.84
664.60	1048.56
664.93	1062.12
665.26	1055.34
665.59	1111.84
665.92	1141.21
666.25	1086.98
666.59	1080.20
666.92	1075.68
667.25	1127.65
667.58	1066.64
667.91	1123.13
668.24	1059.86
668.57	1127.65
668.90	1127.65
669.23	1066.64
669.57	1071.16
669.90	1098.28
670.23	1136.69
670.56	1143.47
670.89	1105.06
671.22	1127.65
671.55	1023.70
671.88	1100.54
672.21	1159.29
672.54	1084.72
672.87	1098.28
673.20	1109.58
673.53	1116.35
673.86	1041.78
674.19	1102.80
674.52	1145.73
674.85	1116.35
675.18	1089.24
675.51	1125.39
675.84	1082.46
676.17	1096.02
676.50	1105.06
676.83	1071.16
677.16	1064.38
677.49	1129.91
677.82	1147.99
678.15	1091.50
678.48	1100.54
678.81	1138.95
679.14	1161.55
679.47	1089.24
679.80	1082.46
680.13	1096.02
680.46	1125.39
680.79	1143.47
681.12	1071.16
681.45	1120.87
681.78	1044.04
682.11	1100.54
682.44	1111.84
682.77	1143.47
683.09	1147.99
683.42	1120.87
683.75	1077.94
684.08	1123.13
684.41	1157.03
684.74	1084.72
685.07	1147.99
685.40	1109.58
685.72	1150.25
686.05	1068.90
686.38	1120.87
686.71	1082.46
687.04	1238.39
687.37	1132.17
687.70	1107.32
688.02	1057.60
688.35	1118.61
688.68	1084.72
689.01	1093.76
689.34	1098.28
689.67	1166.07
689.99	1091.50
690.32	1157.03
690.65	1028.22
690.98	1136.69
691.30	1096.02
691.63	1080.20
691.96	1055.34
692.29	1089.24
692.62	1068.90
692.94	1120.87
693.27	1084.72
693.60	1195.45
693.93	1089.24
694.25	1071.16
694.58	1044.04
694.91	1064.38
695.24	1107.32
695.56	1102.80
695.89	1175.11
696.22	1127.65
696.54	1105.06
696.87	1093.76
697.20	1129.91
697.53	1188.67
697.85	1120.87
698.18	1125.39
698.51	1154.77
698.83	1129.91
699.16	1125.39
699.49	1116.35
699.81	1091.50
700.14	1077.94
700.47	1154.77
700.79	1161.55
701.12	1116.35
701.45	1091.50
701.77	1084.72
702.10	1127.65
702.42	1114.10
702.75	1118.61
703.08	1105.06
703.40	1107.32
703.73	1068.90
704.05	1053.08
704.38	1138.95
704.71	1179.63
705.03	1100.54
705.36	1080.20
705.68	1089.24
706.01	1071.16
706.34	1150.25
706.66	1168.33
706.99	1132.17
707.31	1109.58
707.64	1141.21
707.96	1138.95
708.29	1073.42
708.61	1096.02
708.94	1075.68
709.26	1186.41
709.59	1129.91
709.92	1120.87
710.24	1091.50
710.57	1073.42
710.89	1066.64
711.22	1120.87
711.54	1120.87
711.87	1109.58
712.19	1152.51
712.51	1157.03
712.84	1109.58
713.16	1044.04
713.49	1075.68
713.81	1068.90
714.14	1098.28
714.46	1134.43
714.79	1030.48
715.11	1147.99
715.44	1102.80
715.76	1102.80
716.08	1134.43
716.41	1123.13
716.73	1073.42
717.06	1107.32
717.38	1107.32
717.70	1091.50
718.03	1089.24
718.35	1091.50
718.68	1105.06
719.00	1084.72
719.32	1120.87
719.65	1093.76
719.97	1075.68
720.29	1132.17
720.62	1127.65
720.94	1068.90
721.27	1125.39
721.59	1157.03
721.91	1111.84
722.24	1125.39
722.56	1100.54
722.88	1098.28
723.21	1152.51
723.53	1093.76
723.85	1089.24
724.17	1125.39
724.50	1053.08
724.82	1107.32
725.14	1055.34
725.47	1111.84
725.79	1129.91
726.11	1134.43
726.43	1109.58
726.76	1157.03
727.08	1127.65
727.40	1163.81
727.72	1053.08
728.05	1157.03
728.37	1098.28
728.69	1073.42
729.01	1075.68
729.34	1021.44
729.66	1096.02
729.98	1111.84
730.30	1091.50
730.62	1166.07
730.95	1096.02
731.27	1082.46
731.59	1125.39
731.91	1132.17
732.23	1132.17
732.56	1150.25
732.88	1107.32
733.20	1111.84
733.52	1129.91
733.84	1096.02
734.16	1172.85
734.49	1041.78
734.81	1086.98
735.13	1082.46
735.45	1143.47
735.77	1055.34
736.09	1062.12
736.41	1023.70
736.73	1073.42
737.06	1075.68
737.38	1134.43
737.70	1125.39
738.02	1129.91
738.34	1098.28
738.66	1062.12
738.98	1118.61
739.30	1089.24
739.62	1093.76
739.94	1091.50
740.26	1082.46
740.58	1096.02
740.90	1168.33
741.23	1125.39
741.55	1123.13
741.87	1136.69
742.19	1082.46
742.51	1001.10
742.83	1096.02
743.15	1084.72
743.47	1134.43
743.79	1120.87
744.11	1089.24
744.43	1098.28
744.75	1066.64
745.07	1150.25
745.39	1109.58
745.71	1166.07
746.03	1102.80
746.35	1082.46
746.67	1147.99
746.98	1091.50
747.30	1089.24
747.62	1138.95
747.94	1120.87
748.26	1116.35
748.58	1152.51
748.90	1127.65
749.22	1071.16
749.54	1166.07
749.86	1109.58
750.18	1098.28
750.50	1057.60
750.82	1109.58
751.13	1120.87
751.45	1116.35
751.77	1175.11
752.09	1093.76
752.41	1093.76
752.73	1091.50
753.05	1062.12
753.36	1138.95
753.68	1150.25
754.00	1080.20
754.32	1105.06
754.64	1157.03
754.96	1080.20
755.28	1102.80
755.59	1138.95
755.91	1134.43
756.23	1062.12
756.55	1062.12
756.87	1073.42
757.18	1111.84
757.50	1089.24
757.82	1014.66
758.14	1120.87
758.45	1107.32
758.77	1093.76
759.09	1114.10
759.41	1096.02
759.73	1066.64
760.04	1107.32
760.36	1100.54
760.68	1152.51
760.99	1089.24
761.31	1075.68
761.63	1086.98
761.95	1116.35
762.26	1111.84
762.58	1044.04
762.90	1055.34
763.21	1127.65
763.53	1091.50
763.85	1041.78
764.17	1109.58
764.48	1089.24
764.80	1154.77
765.12	1129.91
765.43	1084.72
765.75	1075.68
766.07	1136.69
766.38	1082.46
766.70	1100.54
767.01	1145.73
767.33	1080.20
767.65	1062.12
767.96	1093.76
768.28	1172.85
768.60	989.80
768.91	1105.06
769.23	1064.38
769.54	1086.98
769.86	1089.24
770.18	1118.61
770.49	1134.43
770.81	1123.13
771.12	1147.99
771.44	1098.28
771.75	1093.76
772.07	1091.50
772.38	1035.00
772.70	998.84
773.02	1084.72
773.33	1025.96
773.65	1136.69
773.96	1114.10
774.28	1059.86
774.59	1073.42
774.91	1152.51
775.22	1141.21
775.54	1091.50
775.85	1062.12
776.17	1161.55
776.48	1084.72
776.80	1037.26
777.11	1163.81
777.43	1091.50
777.74	1046.30
778.05	1107.32
778.37	1055.34
778.68	1145.73
779.00	1089.24
779.31	1071.16
779.63	1114.10
779.94	1100.54
780.26	1109.58
780.57	1127.65
780.88	1066.64
781.20	1136.69
781.51	1143.47
781.83	1127.65
782.14	1186.41
782.45	1082.46
782.77	1089.24
783.08	1091.50
783.39	1116.35
783.71	1030.48
784.02	1109.58
784.34	1118.61
784.65	1154.77
784.96	1062.12
785.28	1116.35
785.59	1086.98
785.90	1077.94
786.22	1114.10
786.53	1080.20
786.84	1141.21
787.15	1073.42
787.47	1057.60
787.78	1075.68
788.09	1114.10
788.41	1066.64
788.72	1145.73
789.03	1068.90
789.35	1107.32
789.66	1123.13
789.97	1053.08
790.28	1098.28
790.60	1109.58
790.91	1114.10
791.22	1100.54
791.53	1143.47
791.84	1082.46
792.16	1082.46
792.47	1082.46
792.78	1150.25
793.09	1046.30
793.41	1091.50
793.72	1064.38
794.03	1123.13
794.34	1132.17
794.65	1077.94
794.96	1102.80
795.28	1111.84
795.59	1096.02
795.90	1098.28
796.21	1138.95
796.52	1098.28
796.83	1105.06
797.15	1120.87
797.46	1118.61
797.77	1132.17
798.08	1111.84
798.39	1089.24
798.70	1089.24
799.01	1111.84
799.32	1066.64
799.63	1041.78
799.95	1077.94
800.26	1120.87
800.57	1116.35
800.88	1010.14
801.19	1093.76
801.50	1111.84
801.81	1132.17
802.12	1114.10
802.43	1132.17
802.74	1077.94
803.05	1132.17
803.36	1125.39
803.67	1057.60
803.98	1100.54
804.29	1105.06
804.60	1055.34
804.91	1059.86
805.22	1077.94
805.53	1096.02
805.84	1091.50
806.15	1134.43
806.46	1044.04
806.77	1111.84
807.08	1109.58
807.39	1114.10
807.70	1091.50
808.01	1096.02
808.32	1116.35
808.63	1125.39
808.94	1111.84
809.25	1025.96
809.56	1190.93
809.87	1039.52
810.18	1084.72
810.49	1077.94
810.79	1066.64
811.10	1077.94
811.41	1163.81
811.72	1044.04
812.03	1105.06
812.34	1116.35
812.65	1096.02
812.96	1098.28
813.27	1064.38
813.57	1077.94
813.88	1050.82
814.19	1084.72
814.50	1064.38
814.81	1093.76
815.12	1134.43
815.42	1161.55
815.73	1111.84
816.04	1143.47
816.35	1023.70
816.66	1145.73
816.97	1107.32
817.27	1127.65
817.58	1093.76
817.89	1120.87
818.20	1138.95
818.50	1091.50
818.81	1071.16
819.12	1125.39
819.43	1125.39
819.73	1132.17
820.04	1071.16
820.35	1077.94
820.66	1109.58
820.96	1077.94
821.27	1096.02
821.58	1152.51
821.89	1073.42
822.19	1059.86
822.50	1116.35
822.81	1066.64
823.11	1086.98
823.42	1120.87
823.73	1111.84
824.03	1105.06
824.34	1116.35
824.65	1132.17
824.95	1102.80
825.26	1012.40
825.57	1080.20
825.87	1089.24
826.18	1114.10
826.49	1145.73
826.79	1086.98
827.10	1068.90
827.40	1118.61
827.71	1150.25
828.02	1075.68
828.32	1086.98
828.63	1039.52
828.93	1179.63
829.24	1145.73
829.55	1102.80
829.85	1116.35
830.16	1098.28
830.46	1123.13
830.77	1059.86
831.07	1050.82
831.38	1118.61
831.69	1098.28
831.99	1057.60
832.30	1105.06
832.60	1138.95
832.91	1050.82
833.21	1145.73
833.52	1161.55
833.82	1109.58
834.13	1066.64
834.43	1080.20
834.74	1057.60
835.04	1039.52
835.35	1057.60
835.65	1084.72
835.96	1157.03
836.26	1111.84
836.56	1138.95
836.87	1129.91
837.17	1136.69
837.48	1084.72
837.78	1084.72
838.09	1118.61
838.39	1134.43
838.69	1132.17
839.00	1150.25
839.30	1107.32
839.61	1147.99
839.91	1129.91
840.21	1071.16
840.52	1062.12
840.82	1089.24
841.13	1118.61
841.43	1118.61
841.73	1100.54
842.04	1136.69
842.34	1127.65
842.64	1111.84
842.95	1116.35
843.25	1157.03
843.55	1116.35
843.86	1068.90
844.16	1064.38
844.46	1141.21
844.77	1123.13
845.07	1141.21
845.37	1129.91
845.68	1025.96
845.98	1025.96
846.28	1089.24
846.58	1138.95
846.89	1091.50
847.19	1114.10
847.49	1071.16
847.79	1066.64
848.10	1123.13
848.40	1125.39
848.70	1120.87
849.00	1053.08
849.31	1066.64
849.61	1150.25
849.91	1071.16
850.21	1055.34
850.51	1116.35
850.82	1132.17
851.12	1055.34
851.42	1107.32
851.72	1093.76
852.02	1163.81
852.32	1084.72
852.63	1082.46
852.93	1073.42
853.23	1089.24
853.53	1089.24
853.83	1109.58
854.13	1134.43
854.43	1071.16
854.74	1059.86
855.04	1129.91
855.34	1181.89
855.64	1100.54
855.94	1120.87
856.24	1168.33
856.54	1159.29
856.84	1066.64
857.14	1125.39
857.44	1118.61
857.74	1109.58
858.05	1118.61
858.35	1152.51
858.65	1057.60
858.95	1111.84
859.25	1105.06
859.55	1035.00
859.85	1114.10
860.15	1118.61
860.45	1059.86
860.75	1073.42
861.05	1039.52
861.35	1098.28
861.65	1111.84
861.95	1093.76
862.25	1152.51
862.55	1116.35
862.85	1071.16
863.15	1055.34
863.45	1172.85
863.75	1068.90
864.05	1064.38
864.35	1143.47
864.64	1118.61
864.94	1089.24
865.24	1152.51
865.54	1141.21
865.84	1066.64
866.14	1170.59
866.44	1123.13
866.74	1041.78
867.04	1111.84
867.34	1102.80
867.64	1120.87
867.93	1096.02
868.23	1125.39
868.53	1111.84
868.83	1086.98
869.13	1086.98
869.43	1035.00
869.73	1100.54
870.02	1132.17
870.32	1080.20
870.62	1138.95
870.92	1154.77
871.22	1082.46
871.51	1028.22
871.81	1086.98
872.11	1082.46
872.41	1129.91
872.71	1177.37
873.00	1089.24
873.30	1154.77
873.60	1073.42
873.90	1118.61
874.19	1129.91
874.49	1089.24
874.79	1093.76
875.09	1116.35
875.38	1116.35
875.68	1114.10
875.98	1145.73
876.28	1120.87
876.57	1107.32
876.87	1107.32
877.17	1107.32
