174.03	700.55
174.41	700.55
174.78	700.55
175.16	772.86
175.54	788.68
175.92	720.88
176.30	784.16
176.67	806.76
177.05	799.98
177.43	824.84
177.81	820.32
178.19	851.96
178.56	851.96
178.94	883.59
179.32	856.47
179.70	940.09
180.08	881.33
180.45	890.37
180.83	980.77
181.21	1028.22
181.59	1039.52
181.96	980.77
182.34	1007.88
182.72	1048.56
183.10	1062.12
183.48	1044.04
183.85	1073.42
184.23	1098.28
184.61	1157.03
184.99	1064.38
185.36	1152.51
185.74	1127.65
186.12	1105.06
186.50	1152.51
186.87	1136.69
187.25	1161.55
187.63	1170.59
188.01	1186.41
188.38	1136.69
188.76	1231.61
189.14	1195.45
189.52	1129.91
189.89	1161.55
190.27	1157.03
190.65	1177.37
191.02	1193.19
191.40	1190.93
191.78	1231.61
192.16	1132.17
192.53	1147.99
192.91	1175.11
193.29	1163.81
193.66	1114.10
194.04	1179.63
194.42	1166.07
194.79	1209.01
195.17	1195.45
195.55	1193.19
195.93	1102.80
196.30	1100.54
196.68	1150.25
197.06	1163.81
197.43	1116.35
197.81	1132.17
198.19	1150.25
198.56	1213.53
198.94	1186.41
199.32	1166.07
199.69	1129.91
200.07	1195.45
200.45	1213.53
200.82	1152.51
201.20	1120.87
201.58	1157.03
201.95	1125.39
202.33	1129.91
202.71	1107.32
203.08	1170.59
203.46	1129.91
203.84	1089.24
204.21	1107.32
204.59	1163.81
204.96	1143.47
205.34	1105.06
205.72	1150.25
206.09	1105.06
206.47	1136.69
206.85	1150.25
207.22	1181.89
207.60	1114.10
207.97	1145.73
208.35	1089.24
208.73	1206.75
209.10	1147.99
209.48	1172.85
209.85	1147.99
210.23	1116.35
210.61	1190.93
210.98	1206.75
211.36	1163.81
211.73	1123.13
212.11	1107.32
212.49	1197.71
212.86	1168.33
213.24	1159.29
213.61	1186.41
213.99	1159.29
214.37	1163.81
214.74	1071.16
215.12	1100.54
215.49	1116.35
215.87	1218.05
216.24	1179.63
216.62	1186.41
216.99	1116.35
217.37	1152.51
217.75	1166.07
218.12	1132.17
218.50	1213.53
218.87	1123.13
219.25	1209.01
219.62	1170.59
220.00	1215.79
220.37	1172.85
220.75	1125.39
221.12	1123.13
221.50	1199.97
221.87	1138.95
222.25	1141.21
222.63	1163.81
223.00	1177.37
223.38	1204.49
223.75	1134.43
224.13	1127.65
224.50	1159.29
224.88	1114.10
225.25	1145.73
225.63	1163.81
226.00	1170.59
226.38	1195.45
226.75	1197.71
227.13	1147.99
227.50	1177.37
227.88	1202.23
228.25	1170.59
228.63	1159.29
229.00	1154.77
229.37	1118.61
229.75	1206.75
230.12	1159.29
230.50	1181.89
230.87	1161.55
231.25	1188.67
231.62	1179.63
232.00	1227.09
232.37	1179.63
232.75	1211.27
233.12	1159.29
233.50	1190.93
233.87	1197.71
234.24	1206.75
234.62	1147.99
234.99	1209.01
235.37	1190.93
235.74	1177.37
236.12	1136.69
236.49	1096.02
236.86	1179.63
237.24	1181.89
237.61	1184.15
237.99	1190.93
238.36	1134.43
238.74	1175.11
239.11	1166.07
239.48	1123.13
239.86	1233.87
240.23	1224.83
240.61	1096.02
240.98	1181.89
241.35	1220.31
241.73	1265.50
242.10	1238.39
242.48	1111.84
242.85	1154.77
243.22	1177.37
243.60	1184.15
243.97	1184.15
244.34	1188.67
244.72	1209.01
245.09	1080.20
245.47	1181.89
245.84	1229.35
246.21	1197.71
246.59	1224.83
246.96	1184.15
247.33	1143.47
247.71	1190.93
248.08	1132.17
248.45	1163.81
248.83	1218.05
249.20	1141.21
249.57	1172.85
249.95	1199.97
250.32	1209.01
250.69	1193.19
251.07	1100.54
251.44	1199.97
251.81	1188.67
252.19	1123.13
252.56	1211.27
252.93	1227.09
253.31	1170.59
253.68	1218.05
254.05	1175.11
254.43	1190.93
254.80	1186.41
255.17	1150.25
255.55	1186.41
255.92	1127.65
256.29	1215.79
256.66	1204.49
257.04	1175.11
257.41	1172.85
257.78	1227.09
258.16	1184.15
258.53	1213.53
258.90	1195.45
259.27	1202.23
259.65	1195.45
260.02	1177.37
260.39	1145.73
260.76	1188.67
261.14	1170.59
261.51	1136.69
261.88	1141.21
262.25	1222.57
262.63	1179.63
263.00	1199.97
263.37	1163.81
263.74	1163.81
264.12	1202.23
264.49	1190.93
264.86	1199.97
265.23	1215.79
265.61	1136.69
265.98	1204.49
266.35	1172.85
266.72	1247.42
267.09	1188.67
267.47	1102.80
267.84	1098.28
268.21	1114.10
268.58	1143.47
268.95	1213.53
269.33	1202.23
269.70	1211.27
270.07	1166.07
270.44	1161.55
270.81	1188.67
271.19	1188.67
271.56	1161.55
271.93	1229.35
272.30	1150.25
272.67	1163.81
273.05	1204.49
273.42	1202.23
273.79	1127.65
274.16	1118.61
274.53	1105.06
274.90	1179.63
275.28	1184.15
275.65	1186.41
276.02	1161.55
276.39	1188.67
276.76	1186.41
277.13	1150.25
277.50	1224.83
277.88	1229.35
278.25	1170.59
278.62	1251.94
278.99	1143.47
279.36	1254.20
279.73	1179.63
280.10	1172.85
280.47	1181.89
280.85	1129.91
281.22	1204.49
281.59	1143.47
281.96	1220.31
282.33	1120.87
282.70	1204.49
283.07	1193.19
283.44	1215.79
283.81	1181.89
284.18	1199.97
284.56	1179.63
284.93	1125.39
285.30	1150.25
285.67	1218.05
286.04	1157.03
286.41	1195.45
286.78	1233.87
287.15	1147.99
287.52	1229.35
287.89	1247.42
288.26	1186.41
288.63	1145.73
289.00	1163.81
289.37	1184.15
289.75	1224.83
290.12	1197.71
290.49	1218.05
290.86	1199.97
291.23	1177.37
291.60	1125.39
291.97	1206.75
292.34	1211.27
292.71	1172.85
293.08	1238.39
293.45	1247.42
293.82	1134.43
294.19	1213.53
294.56	1204.49
294.93	1186.41
295.30	1190.93
295.67	1177.37
296.04	1186.41
296.41	1222.57
296.78	1240.65
297.15	1154.77
297.52	1206.75
297.89	1218.05
298.26	1172.85
298.63	1202.23
299.00	1143.47
299.37	1186.41
299.74	1204.49
300.11	1172.85
300.48	1138.95
300.85	1159.29
301.22	1163.81
301.59	1184.15
301.96	1179.63
302.33	1218.05
302.70	1204.49
303.07	1163.81
303.43	1190.93
303.80	1218.05
304.17	1251.94
304.54	1242.91
304.91	1186.41
305.28	1190.93
305.65	1184.15
306.02	1184.15
306.39	1195.45
306.76	1229.35
307.13	1247.42
307.50	1213.53
307.87	1204.49
308.24	1222.57
308.60	1193.19
308.97	1215.79
309.34	1233.87
309.71	1204.49
310.08	1199.97
310.45	1147.99
310.82	1272.28
311.19	1197.71
311.56	1202.23
311.92	1199.97
312.29	1172.85
312.66	1240.65
313.03	1209.01
313.40	1270.02
313.77	1218.05
314.14	1161.55
314.51	1168.33
314.87	1224.83
315.24	1245.16
315.61	1202.23
315.98	1204.49
316.35	1197.71
316.72	1238.39
317.09	1263.24
317.45	1236.13
317.82	1188.67
318.19	1177.37
318.56	1175.11
318.93	1206.75
319.30	1168.33
319.66	1184.15
320.03	1236.13
320.40	1161.55
320.77	1184.15
321.14	1195.45
321.50	1193.19
321.87	1197.71
322.24	1229.35
322.61	1154.77
322.98	1109.58
323.34	1204.49
323.71	1206.75
324.08	1190.93
324.45	1211.27
324.82	1227.09
325.18	1102.80
325.55	1215.79
325.92	1197.71
326.29	1227.09
326.65	1249.68
327.02	1233.87
327.39	1186.41
327.76	1202.23
328.12	1213.53
328.49	1193.19
328.86	1204.49
329.23	1227.09
329.59	1249.68
329.96	1199.97
330.33	1204.49
330.70	1166.07
331.06	1199.97
331.43	1238.39
331.80	1245.16
332.17	1260.98
332.53	1292.62
332.90	1285.84
333.27	1181.89
333.63	1279.06
334.00	1222.57
334.37	1251.94
334.74	1285.84
335.10	1308.44
335.47	1231.61
335.84	1199.97
336.20	1166.07
336.57	1281.32
336.94	1170.59
337.30	1179.63
337.67	1238.39
338.04	1211.27
338.40	1249.68
338.77	1195.45
339.14	1224.83
339.50	1238.39
339.87	1231.61
340.24	1229.35
340.60	1215.79
340.97	1258.72
341.34	1220.31
341.70	1270.02
342.07	1279.06
342.44	1242.91
342.80	1281.32
343.17	1177.37
343.53	1242.91
343.90	1215.79
344.27	1215.79
344.63	1233.87
345.00	1297.14
345.37	1213.53
345.73	1263.24
346.10	1308.44
346.46	1204.49
346.83	1249.68
347.20	1251.94
347.56	1220.31
347.93	1301.66
348.29	1274.54
348.66	1265.50
349.03	1283.58
349.39	1283.58
349.76	1220.31
350.12	1247.42
350.49	1312.96
350.85	1279.06
351.22	1240.65
351.59	1267.76
351.95	1238.39
352.32	1231.61
352.68	1211.27
353.05	1233.87
353.41	1247.42
353.78	1193.19
354.14	1290.36
354.51	1267.76
354.88	1303.92
355.24	1245.16
355.61	1249.68
355.97	1254.20
356.34	1290.36
356.70	1256.46
357.07	1260.98
357.43	1265.50
357.80	1247.42
358.16	1215.79
358.53	1247.42
358.89	1279.06
359.26	1315.22
359.62	1310.70
359.99	1317.48
360.35	1301.66
360.72	1281.32
361.08	1265.50
361.45	1256.46
361.81	1301.66
362.18	1349.12
362.54	1256.46
362.91	1299.40
363.27	1308.44
363.63	1308.44
364.00	1349.12
364.36	1349.12
364.73	1328.78
365.09	1317.48
365.46	1328.78
365.82	1344.60
366.19	1288.10
366.55	1317.48
366.91	1346.86
367.28	1285.84
367.64	1349.12
368.01	1322.00
368.37	1303.92
368.74	1351.38
369.10	1389.79
369.46	1301.66
369.83	1351.38
370.19	1315.22
370.56	1364.94
370.92	1294.88
371.28	1326.52
371.65	1297.14
372.01	1342.34
372.38	1340.08
372.74	1398.83
373.10	1369.46
373.47	1353.64
373.83	1355.90
374.19	1392.05
374.56	1462.11
374.92	1430.47
375.29	1432.73
375.65	1493.75
376.01	1482.45
376.38	1502.79
376.74	1477.93
377.10	1477.93
377.47	1520.86
377.83	1507.30
378.19	1509.56
378.56	1597.70
378.92	1563.80
379.28	1577.36
379.65	1685.83
380.01	1676.79
380.37	1667.75
380.74	1728.77
381.10	1726.51
381.46	1794.30
381.83	1916.33
382.19	1866.62
382.55	1923.11
382.91	2067.74
383.28	2074.52
383.64	2264.35
384.00	2246.27
384.37	2370.56
384.73	2564.90
385.09	2508.41
385.45	2743.43
385.82	2872.24
386.18	3059.81
386.54	3236.07
386.91	3575.05
387.27	3724.20
387.63	4008.93
387.99	4191.98
388.36	4510.62
388.72	4872.19
389.08	5206.64
389.44	5516.24
389.80	5877.81
390.17	6386.27
390.53	6989.65
390.89	7611.10
391.25	8035.95
391.62	8689.04
391.98	9739.86
392.34	10463.00
392.70	11003.10
393.06	12040.36
393.43	12469.73
393.79	13543.15
394.15	14132.96
394.51	15303.55
394.87	16336.29
395.24	17538.52
395.60	18871.82
395.96	20401.72
396.32	21947.45
396.68	23314.64
397.04	25242.27
397.41	27823.00
397.77	29963.05
398.13	32297.46
398.49	34019.44
398.85	36371.92
399.21	40261.09
399.58	42166.12
399.94	44941.19
400.30	49390.79
400.66	50599.80
401.02	53713.84
401.38	55390.63
401.74	57383.80
402.11	59442.50
402.47	60884.27
402.83	61788.21
403.19	63383.64
403.55	64662.71
403.91	65535.00
404.27	65535.00
404.63	65535.00
404.99	65535.00
405.35	65535.00
405.72	65535.00
406.08	65535.00
406.44	65535.00
406.80	65535.00
407.16	65535.00
407.52	65535.00
407.88	65535.00
408.24	65535.00
408.60	65535.00
408.96	65535.00
409.32	65535.00
409.68	65535.00
410.04	65535.00
410.40	65535.00
410.76	65535.00
411.13	64296.61
411.49	63790.41
411.85	62310.23
412.21	60750.94
412.57	59770.18
412.93	58398.46
413.29	56543.15
413.65	54857.31
414.01	52705.96
414.37	50019.02
414.73	48694.76
415.09	46355.84
415.45	44902.77
415.81	42075.73
416.17	40403.46
416.53	38523.28
416.89	37070.21
417.25	34918.86
417.61	33291.78
417.97	32383.33
418.33	30776.59
418.69	29929.16
419.05	28568.74
419.41	27585.72
419.77	27047.88
420.12	25723.62
420.48	24159.82
420.84	23545.14
421.20	22089.81
421.56	21122.61
421.92	20944.08
422.28	19251.47
422.64	18578.04
423.00	17565.64
423.36	17091.08
423.72	16024.44
424.08	14828.99
424.44	14196.24
424.80	13488.91
425.16	13088.92
425.51	12250.53
425.87	11748.84
426.23	11125.13
426.59	10442.66
426.95	10277.70
427.31	9771.49
427.67	9602.01
428.03	8872.08
428.39	8795.25
428.74	7868.72
429.10	7547.82
429.46	7260.83
429.82	6727.51
430.18	6637.11
430.54	6562.54
430.90	6368.19
431.26	6191.93
431.61	5735.44
431.97	5584.03
432.33	5593.07
432.69	5351.27
433.05	5059.75
433.41	4935.46
433.76	4777.28
434.12	4646.21
434.48	4492.54
434.84	4363.73
435.20	4178.42
435.55	4146.78
435.91	4013.45
436.27	3855.27
436.63	3710.64
436.99	3608.94
437.34	3507.25
437.70	3462.06
438.06	3353.58
438.42	3236.07
438.78	3102.74
439.13	3037.21
439.49	2872.24
439.85	2860.94
440.21	2734.39
440.56	2729.87
440.92	2603.32
441.28	2540.05
441.64	2607.84
441.99	2521.97
442.35	2472.25
442.71	2286.95
443.07	2372.82
443.42	2234.97
443.78	2234.97
444.14	2244.01
444.50	2167.17
444.85	2212.37
445.21	2031.58
445.57	2097.12
445.93	1981.87
446.28	1959.27
446.64	1986.39
447.00	1981.87
447.35	2045.14
447.71	1934.41
448.07	1929.89
448.42	1900.52
448.78	1839.50
449.14	1807.86
449.49	1753.63
449.85	1773.96
450.21	1721.99
450.56	1724.25
450.92	1690.35
451.28	1701.65
451.63	1674.53
451.99	1636.12
452.35	1701.65
452.70	1599.96
453.06	1613.52
453.42	1579.62
453.77	1541.20
454.13	1505.05
454.49	1586.40
454.84	1455.33
455.20	1606.74
455.55	1527.64
455.91	1514.08
456.27	1496.01
456.62	1475.67
456.98	1462.11
457.33	1416.91
457.69	1439.51
458.05	1464.37
458.40	1360.42
458.76	1428.21
459.11	1423.69
459.47	1414.65
459.83	1367.20
460.18	1387.53
460.54	1396.57
460.89	1367.20
461.25	1333.30
461.60	1389.79
461.96	1396.57
462.31	1319.74
462.67	1378.49
463.03	1328.78
463.38	1297.14
463.74	1360.42
464.09	1364.94
464.45	1324.26
464.80	1272.28
465.16	1342.34
465.51	1294.88
465.87	1306.18
466.22	1306.18
466.58	1297.14
466.93	1308.44
467.29	1267.76
467.64	1310.70
468.00	1337.82
468.35	1256.46
468.71	1292.62
469.06	1317.48
469.42	1276.80
469.77	1258.72
470.13	1272.28
470.48	1297.14
470.84	1283.58
471.19	1358.16
471.54	1328.78
471.90	1218.05
472.25	1292.62
472.61	1260.98
472.96	1175.11
473.32	1211.27
473.67	1270.02
474.03	1260.98
474.38	1249.68
474.73	1222.57
475.09	1288.10
475.44	1290.36
475.80	1276.80
476.15	1256.46
476.50	1224.83
476.86	1240.65
477.21	1227.09
477.57	1220.31
477.92	1238.39
478.27	1238.39
478.63	1240.65
478.98	1238.39
479.34	1290.36
479.69	1222.57
480.04	1215.79
480.40	1193.19
480.75	1272.28
481.10	1218.05
481.46	1279.06
481.81	1299.40
482.16	1229.35
482.52	1222.57
482.87	1224.83
483.22	1267.76
483.58	1229.35
483.93	1267.76
484.28	1254.20
484.64	1233.87
484.99	1224.83
485.34	1220.31
485.70	1254.20
486.05	1256.46
486.40	1211.27
486.76	1186.41
487.11	1209.01
487.46	1242.91
487.81	1229.35
488.17	1193.19
488.52	1231.61
488.87	1218.05
489.23	1285.84
489.58	1190.93
489.93	1265.50
490.28	1186.41
490.64	1272.28
490.99	1199.97
491.34	1213.53
491.69	1188.67
492.05	1188.67
492.40	1177.37
492.75	1227.09
493.10	1254.20
493.46	1202.23
493.81	1231.61
494.16	1199.97
494.51	1245.16
494.86	1254.20
495.22	1222.57
495.57	1163.81
495.92	1193.19
496.27	1202.23
496.62	1199.97
496.98	1240.65
497.33	1236.13
497.68	1181.89
498.03	1166.07
498.38	1204.49
498.74	1238.39
499.09	1224.83
499.44	1220.31
499.79	1251.94
500.14	1202.23
500.49	1186.41
500.85	1229.35
501.20	1179.63
501.55	1224.83
501.90	1179.63
502.25	1209.01
502.60	1247.42
502.95	1181.89
503.30	1195.45
503.66	1240.65
504.01	1258.72
504.36	1204.49
504.71	1260.98
505.06	1197.71
505.41	1249.68
505.76	1157.03
506.11	1254.20
506.46	1288.10
506.82	1202.23
507.17	1209.01
507.52	1303.92
507.87	1247.42
508.22	1202.23
508.57	1197.71
508.92	1247.42
509.27	1222.57
509.62	1188.67
509.97	1168.33
510.32	1236.13
510.67	1222.57
511.02	1197.71
511.37	1267.76
511.72	1247.42
512.07	1190.93
512.42	1213.53
512.77	1301.66
513.12	1138.95
513.47	1199.97
513.82	1202.23
514.17	1220.31
514.52	1220.31
514.87	1202.23
515.22	1195.45
515.57	1231.61
515.92	1222.57
516.27	1265.50
516.62	1242.91
516.97	1251.94
517.32	1220.31
517.67	1229.35
518.02	1279.06
518.37	1215.79
518.72	1233.87
519.07	1181.89
519.42	1249.68
519.77	1218.05
520.12	1211.27
520.47	1227.09
520.82	1197.71
521.17	1227.09
521.52	1272.28
521.87	1150.25
522.22	1258.72
522.56	1202.23
522.91	1265.50
523.26	1213.53
523.61	1254.20
523.96	1206.75
524.31	1247.42
524.66	1301.66
525.01	1247.42
525.36	1172.85
525.71	1213.53
526.05	1276.80
526.40	1292.62
526.75	1251.94
527.10	1204.49
527.45	1222.57
527.80	1254.20
528.15	1215.79
528.49	1231.61
528.84	1220.31
529.19	1215.79
529.54	1294.88
529.89	1224.83
530.24	1303.92
530.58	1211.27
530.93	1251.94
531.28	1213.53
531.63	1197.71
531.98	1211.27
532.33	1245.16
532.67	1224.83
533.02	1247.42
533.37	1254.20
533.72	1294.88
534.07	1222.57
534.41	1211.27
534.76	1258.72
535.11	1254.20
535.46	1238.39
535.80	1245.16
536.15	1317.48
536.50	1258.72
536.85	1195.45
537.19	1209.01
537.54	1222.57
537.89	1238.39
538.24	1222.57
538.58	1247.42
538.93	1220.31
539.28	1258.72
539.63	1188.67
539.97	1224.83
540.32	1190.93
540.67	1263.24
541.01	1204.49
541.36	1229.35
541.71	1324.26
542.06	1224.83
542.40	1218.05
542.75	1222.57
543.10	1270.02
543.44	1265.50
543.79	1202.23
544.14	1181.89
544.48	1213.53
544.83	1240.65
545.18	1215.79
545.52	1166.07
545.87	1213.53
546.22	1251.94
546.56	1294.88
546.91	1258.72
547.25	1274.54
547.60	1204.49
547.95	1292.62
548.29	1209.01
548.64	1218.05
548.99	1274.54
549.33	1249.68
549.68	1227.09
550.02	1152.51
550.37	1224.83
550.72	1249.68
551.06	1297.14
551.41	1229.35
551.75	1285.84
552.10	1236.13
552.45	1224.83
552.79	1267.76
553.14	1227.09
553.48	1245.16
553.83	1190.93
554.17	1265.50
554.52	1224.83
554.87	1229.35
555.21	1215.79
555.56	1240.65
555.90	1188.67
556.25	1249.68
556.59	1272.28
556.94	1177.37
557.28	1177.37
557.63	1249.68
557.97	1170.59
558.32	1238.39
558.66	1199.97
559.01	1256.46
559.35	1213.53
559.70	1267.76
560.04	1251.94
560.39	1254.20
560.73	1260.98
561.08	1276.80
561.42	1190.93
561.77	1199.97
562.11	1281.32
562.46	1242.91
562.80	1231.61
563.14	1206.75
563.49	1204.49
563.83	1331.04
564.18	1206.75
564.52	1195.45
564.87	1272.28
565.21	1220.31
565.56	1242.91
565.90	1175.11
566.24	1204.49
566.59	1218.05
566.93	1251.94
567.28	1206.75
567.62	1274.54
567.96	1251.94
568.31	1229.35
568.65	1249.68
569.00	1240.65
569.34	1199.97
569.68	1260.98
570.03	1181.89
570.37	1229.35
570.71	1199.97
571.06	1227.09
571.40	1204.49
571.74	1206.75
572.09	1177.37
572.43	1272.28
572.78	1256.46
573.12	1233.87
573.46	1193.19
573.80	1190.93
574.15	1209.01
574.49	1204.49
574.83	1218.05
575.18	1236.13
575.52	1170.59
575.86	1233.87
576.21	1199.97
576.55	1186.41
576.89	1175.11
577.24	1270.02
577.58	1159.29
577.92	1227.09
578.26	1229.35
578.61	1195.45
578.95	1306.18
579.29	1193.19
579.63	1220.31
579.98	1213.53
580.32	1179.63
580.66	1190.93
581.00	1179.63
581.35	1218.05
581.69	1227.09
582.03	1202.23
582.37	1206.75
582.72	1281.32
583.06	1260.98
583.40	1233.87
583.74	1184.15
584.08	1229.35
584.43	1258.72
584.77	1245.16
585.11	1190.93
585.45	1179.63
585.79	1236.13
586.13	1222.57
586.48	1179.63
586.82	1229.35
587.16	1218.05
587.50	1229.35
587.84	1129.91
588.18	1254.20
588.53	1197.71
588.87	1199.97
589.21	1274.54
589.55	1209.01
589.89	1172.85
590.23	1188.67
590.57	1168.33
590.92	1231.61
591.26	1177.37
591.60	1195.45
591.94	1190.93
592.28	1251.94
592.62	1141.21
592.96	1227.09
593.30	1267.76
593.64	1179.63
593.98	1213.53
594.32	1199.97
594.67	1125.39
595.01	1147.99
595.35	1209.01
595.69	1186.41
596.03	1204.49
596.37	1227.09
596.71	1150.25
597.05	1188.67
597.39	1150.25
597.73	1159.29
598.07	1190.93
598.41	1215.79
598.75	1166.07
599.09	1204.49
599.43	1096.02
599.77	1179.63
600.11	1204.49
600.45	1181.89
600.79	1186.41
601.13	1141.21
601.47	1150.25
601.81	1227.09
602.15	1193.19
602.49	1172.85
602.83	1227.09
603.17	1179.63
603.51	1213.53
603.85	1134.43
604.19	1193.19
604.53	1242.91
604.87	1190.93
605.21	1206.75
605.55	1215.79
605.89	1190.93
606.23	1202.23
606.56	1220.31
606.90	1172.85
607.24	1143.47
607.58	1195.45
607.92	1233.87
608.26	1170.59
608.60	1227.09
608.94	1229.35
609.28	1136.69
609.62	1170.59
609.95	1202.23
610.29	1204.49
610.63	1218.05
610.97	1170.59
611.31	1157.03
611.65	1143.47
611.99	1152.51
612.33	1206.75
612.66	1170.59
613.00	1152.51
613.34	1175.11
613.68	1209.01
614.02	1199.97
614.36	1184.15
614.69	1154.77
615.03	1211.27
615.37	1197.71
615.71	1154.77
616.05	1150.25
616.38	1218.05
616.72	1154.77
617.06	1163.81
617.40	1161.55
617.74	1161.55
618.07	1177.37
618.41	1195.45
618.75	1186.41
619.09	1168.33
619.42	1209.01
619.76	1227.09
620.10	1145.73
620.44	1154.77
620.77	1172.85
621.11	1172.85
621.45	1233.87
621.79	1236.13
622.12	1143.47
622.46	1179.63
622.80	1163.81
623.13	1186.41
623.47	1166.07
623.81	1213.53
624.15	1132.17
624.48	1145.73
624.82	1127.65
625.16	1129.91
625.49	1159.29
625.83	1215.79
626.17	1199.97
626.50	1111.84
626.84	1222.57
627.18	1249.68
627.51	1120.87
627.85	1109.58
628.19	1188.67
628.52	1215.79
628.86	1150.25
629.20	1186.41
629.53	1202.23
629.87	1181.89
630.20	1154.77
630.54	1186.41
630.88	1166.07
631.21	1170.59
631.55	1199.97
631.89	1206.75
632.22	1145.73
632.56	1181.89
632.89	1091.50
633.23	1227.09
633.56	1193.19
633.90	1089.24
634.24	1161.55
634.57	1179.63
634.91	1240.65
635.24	1193.19
635.58	1168.33
635.91	1238.39
636.25	1209.01
636.58	1179.63
636.92	1175.11
637.26	1150.25
637.59	1215.79
637.93	1105.06
638.26	1202.23
638.60	1186.41
638.93	1138.95
639.27	1204.49
639.60	1254.20
639.94	1175.11
640.27	1150.25
640.61	1229.35
640.94	1222.57
641.28	1129.91
641.61	1141.21
641.94	1193.19
642.28	1184.15
642.61	1177.37
642.95	1132.17
643.28	1231.61
643.62	1193.19
643.95	1145.73
644.29	1188.67
644.62	1193.19
644.95	1170.59
645.29	1170.59
645.62	1202.23
645.96	1197.71
646.29	1206.75
646.63	1143.47
646.96	1188.67
647.29	1181.89
647.63	1195.45
647.96	1206.75
648.29	1188.67
648.63	1181.89
648.96	1170.59
649.30	1166.07
649.63	1150.25
649.96	1147.99
650.30	1120.87
650.63	1152.51
650.96	1134.43
651.30	1123.13
651.63	1197.71
651.96	1159.29
652.30	1129.91
652.63	1141.21
652.96	1157.03
653.30	1186.41
653.63	1179.63
653.96	1147.99
654.30	1222.57
654.63	1175.11
654.96	1163.81
655.29	1147.99
655.63	1206.75
655.96	1157.03
656.29	1170.59
656.63	1157.03
656.96	1129.91
657.29	1145.73
657.62	1145.73
657.96	1141.21
658.29	1163.81
658.62	1166.07
658.95	1170.59
659.29	1138.95
659.62	1170.59
659.95	1188.67
660.28	1141.21
660.61	1209.01
660.95	1143.47
661.28	1193.19
661.61	1125.39
661.94	1263.24
662.27	1258.72
662.61	1150.25
662.94	1143.47
663.27	1129.91
663.60	1175.11
663.93	1157.03
664.27	1150.25
664.60	1154.77
664.93	1159.29
665.26	1184.15
665.59	1114.10
665.92	1127.65
666.25	1150.25
666.59	1224.83
666.92	1190.93
667.25	1154.77
667.58	1170.59
667.91	1154.77
668.24	1181.89
668.57	1114.10
668.90	1166.07
669.23	1150.25
669.57	1141.21
669.90	1107.32
670.23	1177.37
670.56	1184.15
670.89	1118.61
671.22	1116.35
671.55	1184.15
671.88	1202.23
672.21	1170.59
672.54	1204.49
672.87	1168.33
673.20	1143.47
673.53	1213.53
673.86	1181.89
674.19	1199.97
674.52	1134.43
674.85	1175.11
675.18	1152.51
675.51	1157.03
675.84	1199.97
676.17	1123.13
676.50	1127.65
676.83	1247.42
677.16	1175.11
677.49	1197.71
677.82	1132.17
678.15	1136.69
678.48	1213.53
678.81	1145.73
679.14	1172.85
679.47	1166.07
679.80	1154.77
680.13	1166.07
680.46	1159.29
680.79	1166.07
681.12	1211.27
681.45	1163.81
681.78	1138.95
682.11	1152.51
682.44	1136.69
682.77	1123.13
683.09	1111.84
683.42	1132.17
683.75	1206.75
684.08	1229.35
684.41	1152.51
684.74	1154.77
685.07	1193.19
685.40	1166.07
685.72	1175.11
686.05	1163.81
686.38	1141.21
686.71	1172.85
687.04	1213.53
687.37	1186.41
687.70	1218.05
688.02	1168.33
688.35	1197.71
688.68	1163.81
689.01	1116.35
689.34	1209.01
689.67	1202.23
689.99	1188.67
690.32	1132.17
690.65	1170.59
690.98	1227.09
691.30	1057.60
691.63	1159.29
691.96	1190.93
692.29	1075.68
692.62	1114.10
692.94	1195.45
693.27	1129.91
693.60	1152.51
693.93	1190.93
694.25	1222.57
694.58	1132.17
694.91	1195.45
695.24	1138.95
695.56	1179.63
695.89	1172.85
696.22	1186.41
696.54	1172.85
696.87	1120.87
697.20	1170.59
697.53	1134.43
697.85	1138.95
698.18	1141.21
698.51	1134.43
698.83	1177.37
699.16	1170.59
699.49	1202.23
699.81	1145.73
700.14	1147.99
700.47	1147.99
700.79	1163.81
701.12	1175.11
701.45	1143.47
701.77	1179.63
702.10	1170.59
702.42	1175.11
702.75	1184.15
703.08	1138.95
703.40	1163.81
703.73	1188.67
704.05	1179.63
704.38	1143.47
704.71	1163.81
705.03	1136.69
705.36	1129.91
705.68	1157.03
706.01	1175.11
706.34	1136.69
706.66	1161.55
706.99	1141.21
707.31	1152.51
707.64	1168.33
707.96	1227.09
708.29	1157.03
708.61	1159.29
708.94	1111.84
709.26	1163.81
709.59	1114.10
709.92	1118.61
710.24	1116.35
710.57	1152.51
710.89	1123.13
711.22	1199.97
711.54	1114.10
711.87	1179.63
712.19	1157.03
712.51	1145.73
712.84	1168.33
713.16	1211.27
713.49	1093.76
713.81	1170.59
714.14	1134.43
714.46	1202.23
714.79	1175.11
715.11	1179.63
715.44	1141.21
715.76	1161.55
716.08	1193.19
716.41	1224.83
716.73	1202.23
717.06	1163.81
717.38	1147.99
717.70	1147.99
718.03	1177.37
718.35	1125.39
718.68	1150.25
719.00	1154.77
719.32	1184.15
719.65	1190.93
719.97	1204.49
720.29	1170.59
720.62	1123.13
720.94	1163.81
721.27	1184.15
721.59	1175.11
721.91	1181.89
722.24	1143.47
722.56	1066.64
722.88	1143.47
723.21	1161.55
723.53	1181.89
723.85	1166.07
724.17	1193.19
724.50	1147.99
724.82	1127.65
725.14	1179.63
725.47	1152.51
725.79	1195.45
726.11	1181.89
726.43	1168.33
726.76	1147.99
727.08	1143.47
727.40	1163.81
727.72	1199.97
728.05	1129.91
728.37	1168.33
728.69	1168.33
729.01	1186.41
729.34	1209.01
729.66	1190.93
729.98	1206.75
730.30	1199.97
730.62	1161.55
730.95	1111.84
731.27	1218.05
731.59	1134.43
731.91	1168.33
732.23	1177.37
732.56	1197.71
732.88	1186.41
733.20	1195.45
733.52	1141.21
733.84	1141.21
734.16	1100.54
734.49	1172.85
734.81	1127.65
735.13	1127.65
735.45	1170.59
735.77	1190.93
736.09	1206.75
736.41	1150.25
736.73	1159.29
737.06	1129.91
737.38	1143.47
737.70	1152.51
738.02	1197.71
738.34	1145.73
738.66	1143.47
738.98	1170.59
739.30	1184.15
739.62	1209.01
739.94	1184.15
740.26	1129.91
740.58	1125.39
740.90	1166.07
741.23	1091.50
741.55	1107.32
741.87	1240.65
742.19	1170.59
742.51	1168.33
742.83	1163.81
743.15	1109.58
743.47	1175.11
743.79	1184.15
744.11	1145.73
744.43	1213.53
744.75	1168.33
745.07	1197.71
745.39	1175.11
745.71	1157.03
746.03	1166.07
746.35	1150.25
746.67	1132.17
746.98	1154.77
747.30	1129.91
747.62	1123.13
747.94	1204.49
748.26	1199.97
748.58	1175.11
748.90	1145.73
749.22	1177.37
749.54	1102.80
749.86	1157.03
750.18	1098.28
750.50	1161.55
750.82	1215.79
751.13	1218.05
751.45	1218.05
751.77	1134.43
752.09	1181.89
752.41	1105.06
752.73	1159.29
753.05	1170.59
753.36	1147.99
753.68	1141.21
754.00	1168.33
754.32	1197.71
754.64	1193.19
754.96	1123.13
755.28	1152.51
755.59	1096.02
755.91	1229.35
756.23	1127.65
756.55	1150.25
756.87	1186.41
757.18	1159.29
757.50	1166.07
757.82	1150.25
758.14	1116.35
758.45	1150.25
758.77	1125.39
759.09	1220.31
759.41	1141.21
759.73	1114.10
760.04	1193.19
760.36	1222.57
760.68	1129.91
760.99	1179.63
761.31	1166.07
761.63	1177.37
761.95	1132.17
762.26	1145.73
762.58	1120.87
762.90	1100.54
763.21	1127.65
763.53	1141.21
763.85	1159.29
764.17	1114.10
764.48	1138.95
764.80	1132.17
765.12	1188.67
765.43	1129.91
765.75	1147.99
766.07	1186.41
766.38	1186.41
766.70	1186.41
767.01	1175.11
767.33	1141.21
767.65	1170.59
767.96	1202.23
768.28	1172.85
768.60	1082.46
768.91	1199.97
769.23	1197.71
769.54	1168.33
769.86	1161.55
770.18	1118.61
770.49	1159.29
770.81	1166.07
771.12	1125.39
771.44	1175.11
771.75	1154.77
772.07	1179.63
772.38	1120.87
772.70	1150.25
773.02	1136.69
773.33	1186.41
773.65	1118.61
773.96	1093.76
774.28	1143.47
774.59	1172.85
774.91	1179.63
775.22	1125.39
775.54	1172.85
775.85	1184.15
776.17	1147.99
776.48	1118.61
776.80	1102.80
777.11	1172.85
777.43	1193.19
777.74	1175.11
778.05	1159.29
778.37	1184.15
778.68	1125.39
779.00	1202.23
779.31	1159.29
779.63	1224.83
779.94	1157.03
780.26	1197.71
780.57	1195.45
780.88	1197.71
781.20	1132.17
781.51	1179.63
781.83	1163.81
782.14	1220.31
782.45	1170.59
782.77	1105.06
783.08	1166.07
783.39	1161.55
783.71	1190.93
784.02	1157.03
784.34	1127.65
784.65	1150.25
784.96	1168.33
785.28	1170.59
785.59	1150.25
785.90	1125.39
786.22	1154.77
786.53	1197.71
786.84	1147.99
787.15	1213.53
787.47	1163.81
787.78	1195.45
788.09	1143.47
788.41	1222.57
788.72	1114.10
789.03	1143.47
789.35	1181.89
789.66	1247.42
789.97	1172.85
790.28	1168.33
790.60	1116.35
790.91	1089.24
791.22	1132.17
791.53	1159.29
791.84	1227.09
792.16	1163.81
792.47	1177.37
792.78	1204.49
793.09	1172.85
793.41	1204.49
793.72	1213.53
794.03	1197.71
794.34	1168.33
794.65	1143.47
794.96	1114.10
795.28	1175.11
795.59	1138.95
795.90	1172.85
796.21	1154.77
796.52	1197.71
796.83	1166.07
797.15	1159.29
797.46	1134.43
797.77	1202.23
798.08	1193.19
798.39	1132.17
798.70	1129.91
799.01	1159.29
799.32	1120.87
799.63	1125.39
799.95	1129.91
800.26	1127.65
800.57	1181.89
800.88	1166.07
801.19	1186.41
801.50	1141.21
801.81	1206.75
802.12	1170.59
802.43	1175.11
802.74	1152.51
803.05	1229.35
803.36	1161.55
803.67	1168.33
803.98	1190.93
804.29	1152.51
804.60	1206.75
804.91	1114.10
805.22	1197.71
805.53	1188.67
805.84	1193.19
806.15	1127.65
806.46	1125.39
806.77	1161.55
807.08	1218.05
807.39	1150.25
807.70	1116.35
808.01	1199.97
808.32	1175.11
808.63	1150.25
808.94	1132.17
809.25	1188.67
809.56	1134.43
809.87	1141.21
810.18	1138.95
810.49	1188.67
810.79	1170.59
811.10	1170.59
811.41	1202.23
811.72	1157.03
812.03	1127.65
812.34	1199.97
812.65	1141.21
812.96	1184.15
813.27	1168.33
813.57	1206.75
813.88	1179.63
814.19	1188.67
814.50	1202.23
814.81	1163.81
815.12	1166.07
815.42	1163.81
815.73	1188.67
816.04	1193.19
816.35	1172.85
816.66	1199.97
816.97	1154.77
817.27	1089.24
817.58	1141.21
817.89	1109.58
818.20	1236.13
818.50	1096.02
818.81	1143.47
819.12	1150.25
819.43	1177.37
819.73	1154.77
820.04	1150.25
820.35	1154.77
820.66	1138.95
820.96	1218.05
821.27	1193.19
821.58	1132.17
821.89	1129.91
822.19	1166.07
822.50	1184.15
822.81	1136.69
823.11	1138.95
823.42	1170.59
823.73	1138.95
824.03	1109.58
824.34	1141.21
824.65	1168.33
824.95	1204.49
825.26	1179.63
825.57	1188.67
825.87	1197.71
826.18	1134.43
826.49	1102.80
826.79	1166.07
827.10	1154.77
827.40	1161.55
827.71	1186.41
828.02	1093.76
828.32	1136.69
828.63	1206.75
828.93	1195.45
829.24	1163.81
829.55	1125.39
829.85	1138.95
830.16	1154.77
830.46	1096.02
830.77	1109.58
831.07	1107.32
831.38	1157.03
831.69	1249.68
831.99	1120.87
832.30	1193.19
832.60	1170.59
832.91	1166.07
833.21	1222.57
833.52	1125.39
833.82	1154.77
834.13	1206.75
834.43	1150.25
834.74	1152.51
835.04	1116.35
835.35	1152.51
835.65	1181.89
835.96	1188.67
836.26	1190.93
836.56	1260.98
836.87	1127.65
837.17	1123.13
837.48	1168.33
837.78	1157.03
838.09	1154.77
838.39	1145.73
838.69	1145.73
839.00	1161.55
839.30	1105.06
839.61	1147.99
839.91	1136.69
840.21	1170.59
840.52	1132.17
840.82	1147.99
841.13	1197.71
841.43	1170.59
841.73	1134.43
842.04	1159.29
842.34	1154.77
842.64	1199.97
842.95	1177.37
843.25	1154.77
843.55	1161.55
843.86	1105.06
844.16	1080.20
844.46	1118.61
844.77	1186.41
845.07	1168.33
845.37	1147.99
845.68	1084.72
845.98	1168.33
846.28	1093.76
846.58	1143.47
846.89	1143.47
847.19	1107.32
847.49	1147.99
847.79	1193.19
848.10	1161.55
848.40	1150.25
848.70	1161.55
849.00	1215.79
849.31	1109.58
849.61	1134.43
849.91	1109.58
850.21	1138.95
850.51	1179.63
850.82	1161.55
851.12	1141.21
851.42	1204.49
851.72	1195.45
852.02	1202.23
852.32	1215.79
852.63	1204.49
852.93	1154.77
853.23	1172.85
853.53	1159.29
853.83	1163.81
854.13	1179.63
854.43	1143.47
854.74	1188.67
855.04	1186.41
855.34	1206.75
855.64	1136.69
855.94	1181.89
856.24	1227.09
856.54	1116.35
856.84	1231.61
857.14	1080.20
857.44	1166.07
857.74	1172.85
858.05	1068.90
858.35	1125.39
858.65	1143.47
858.95	1177.37
859.25	1172.85
859.55	1197.71
859.85	1161.55
860.15	1132.17
860.45	1159.29
860.75	1163.81
861.05	1100.54
861.35	1157.03
861.65	1190.93
861.95	1134.43
862.25	1190.93
862.55	1163.81
862.85	1175.11
863.15	1125.39
863.45	1109.58
863.75	1111.84
864.05	1152.51
864.35	1161.55
864.64	1172.85
864.94	1150.25
865.24	1134.43
865.54	1195.45
865.84	1224.83
866.14	1179.63
866.44	1220.31
866.74	1152.51
867.04	1240.65
867.34	1172.85
867.64	1190.93
867.93	1120.87
868.23	1197.71
868.53	1086.98
868.83	1199.97
869.13	1111.84
869.43	1195.45
869.73	1179.63
870.02	1166.07
870.32	1163.81
870.62	1166.07
870.92	1166.07
871.22	1184.15
871.51	1251.94
871.81	1188.67
872.11	1181.89
872.41	1179.63
872.71	1229.35
873.00	1175.11
873.30	1190.93
873.60	1186.41
873.90	1204.49
874.19	1123.13
874.49	1102.80
874.79	1134.43
875.09	1186.41
875.38	1062.12
875.68	1175.11
875.98	1168.33
876.28	1161.55
876.57	1163.81
876.87	1163.81
877.17	1163.81
