174.03	777.38
174.41	777.38
174.78	777.38
175.16	736.70
175.54	705.07
175.92	714.11
176.30	684.73
176.67	723.14
177.05	790.94
177.43	768.34
177.81	702.81
178.19	806.76
178.56	874.55
178.94	799.98
179.32	831.62
179.70	879.07
180.08	917.49
180.45	892.63
180.83	854.21
181.21	962.69
181.59	962.69
181.96	969.47
182.34	949.13
182.72	973.99
183.10	1055.34
183.48	1005.62
183.85	1025.96
184.23	1053.08
184.61	1093.76
184.99	1059.86
185.36	1053.08
185.74	1010.14
186.12	1127.65
186.50	1084.72
186.87	1044.04
187.25	1125.39
187.63	1114.10
188.01	1107.32
188.38	1118.61
188.76	1073.42
189.14	1059.86
189.52	1111.84
189.89	1096.02
190.27	1116.35
190.65	1134.43
191.02	1161.55
191.40	1132.17
191.78	1050.82
192.16	1154.77
192.53	1073.42
192.91	1059.86
193.29	1093.76
193.66	1050.82
194.04	1109.58
194.42	1118.61
194.79	1111.84
195.17	1109.58
195.55	1181.89
195.93	1102.80
196.30	1055.34
196.68	1044.04
197.06	1111.84
197.43	1157.03
197.81	1123.13
198.19	1050.82
198.56	1096.02
198.94	1127.65
199.32	1152.51
199.69	1134.43
200.07	1093.76
200.45	1096.02
200.82	1111.84
201.20	1068.90
201.58	1109.58
201.95	1136.69
202.33	1168.33
202.71	1118.61
203.08	1091.50
203.46	1098.28
203.84	1111.84
204.21	1059.86
204.59	1105.06
204.96	1118.61
205.34	1116.35
205.72	1089.24
206.09	1109.58
206.47	1037.26
206.85	1068.90
207.22	1109.58
207.60	1186.41
207.97	1086.98
208.35	1080.20
208.73	1050.82
209.10	1080.20
209.48	1082.46
209.85	1032.74
210.23	1111.84
210.61	1091.50
210.98	1077.94
211.36	1075.68
211.73	1080.20
212.11	1048.56
212.49	1059.86
212.86	1168.33
213.24	1082.46
213.61	1118.61
213.99	1154.77
214.37	1089.24
214.74	1080.20
215.12	1089.24
215.49	1055.34
215.87	1114.10
216.24	1141.21
216.62	1089.24
216.99	1091.50
217.37	1091.50
217.75	1075.68
218.12	1136.69
218.50	1134.43
218.87	1111.84
219.25	1080.20
219.62	1136.69
220.00	1007.88
220.37	1118.61
220.75	1141.21
221.12	1107.32
221.50	1120.87
221.87	1116.35
222.25	1091.50
222.63	1096.02
223.00	1123.13
223.38	1114.10
223.75	1111.84
224.13	1075.68
224.50	1109.58
224.88	1109.58
225.25	1138.95
225.63	1057.60
226.00	1150.25
226.38	1125.39
226.75	1080.20
227.13	1143.47
227.50	1134.43
227.88	1021.44
228.25	1084.72
228.63	1129.91
229.00	1093.76
229.37	1111.84
229.75	1170.59
230.12	1159.29
230.50	1039.52
230.87	1075.68
231.25	1086.98
231.62	1134.43
232.00	1084.72
232.37	1107.32
232.75	1152.51
233.12	1096.02
233.50	1109.58
233.87	1111.84
234.24	1084.72
234.62	1129.91
234.99	1100.54
235.37	1123.13
235.74	1147.99
236.12	1075.68
236.49	1157.03
236.86	1066.64
237.24	1129.91
237.61	1044.04
237.99	1204.49
238.36	1109.58
238.74	1080.20
239.11	1125.39
239.48	1129.91
239.86	1141.21
240.23	1116.35
240.61	1116.35
240.98	1150.25
241.35	1075.68
241.73	1134.43
242.10	1080.20
242.48	1134.43
242.85	1168.33
243.22	1143.47
243.60	1120.87
243.97	1089.24
244.34	1114.10
244.72	1125.39
245.09	1114.10
245.47	1109.58
245.84	1080.20
246.21	1111.84
246.59	1111.84
246.96	1123.13
247.33	1159.29
247.71	1118.61
248.08	1107.32
248.45	1091.50
248.83	1159.29
249.20	1107.32
249.57	1080.20
249.95	1143.47
250.32	1105.06
250.69	1093.76
251.07	1073.42
251.44	1129.91
251.81	1127.65
252.19	1046.30
252.56	1089.24
252.93	1100.54
253.31	1048.56
253.68	1050.82
254.05	1125.39
254.43	1120.87
254.80	1111.84
255.17	1114.10
255.55	1105.06
255.92	1071.16
256.29	1071.16
256.66	1129.91
257.04	1152.51
257.41	1062.12
257.78	1109.58
258.16	1157.03
258.53	1129.91
258.90	1096.02
259.27	1075.68
259.65	1161.55
260.02	1132.17
260.39	1145.73
260.76	1055.34
261.14	1125.39
261.51	1116.35
261.88	1127.65
262.25	1120.87
262.63	1086.98
263.00	1132.17
263.37	1123.13
263.74	1125.39
264.12	1150.25
264.49	1161.55
264.86	1105.06
265.23	1102.80
265.61	1132.17
265.98	1098.28
266.35	1084.72
266.72	1057.60
267.09	1120.87
267.47	1091.50
267.84	1132.17
268.21	1123.13
268.58	1177.37
268.95	1127.65
269.33	1143.47
269.70	1143.47
270.07	1066.64
270.44	1157.03
270.81	1114.10
271.19	1215.79
271.56	1154.77
271.93	1127.65
272.30	1190.93
272.67	1136.69
273.05	1107.32
273.42	1134.43
273.79	1138.95
274.16	1138.95
274.53	1118.61
274.90	1179.63
275.28	1105.06
275.65	1109.58
276.02	1102.80
276.39	1062.12
276.76	1138.95
277.13	1125.39
277.50	1107.32
277.88	1116.35
278.25	1193.19
278.62	1145.73
278.99	1059.86
279.36	1091.50
279.73	1150.25
280.10	1068.90
280.47	1102.80
280.85	1118.61
281.22	1181.89
281.59	1120.87
281.96	1116.35
282.33	1170.59
282.70	1150.25
283.07	1138.95
283.44	1136.69
283.81	1105.06
284.18	1091.50
284.56	1181.89
284.93	1172.85
285.30	1062.12
285.67	1120.87
286.04	1127.65
286.41	1145.73
286.78	1114.10
287.15	1116.35
287.52	1107.32
287.89	1157.03
288.26	1125.39
288.63	1179.63
289.00	1102.80
289.37	1136.69
289.75	1172.85
290.12	1084.72
290.49	1163.81
290.86	1145.73
291.23	1141.21
291.60	1116.35
291.97	1154.77
292.34	1152.51
292.71	1118.61
293.08	1132.17
293.45	1089.24
293.82	1150.25
294.19	1138.95
294.56	1118.61
294.93	1147.99
295.30	1129.91
295.67	1105.06
296.04	1096.02
296.41	1161.55
296.78	1077.94
297.15	1044.04
297.52	1161.55
297.89	1134.43
298.26	1138.95
298.63	1089.24
299.00	1145.73
299.37	1218.05
299.74	1145.73
300.11	1181.89
300.48	1143.47
300.85	1152.51
301.22	1199.97
301.59	1134.43
301.96	1170.59
302.33	1129.91
302.70	1170.59
303.07	1152.51
303.43	1120.87
303.80	1093.76
304.17	1172.85
304.54	1157.03
304.91	1111.84
305.28	1159.29
305.65	1111.84
306.02	1136.69
306.39	1186.41
306.76	1145.73
307.13	1125.39
307.50	1118.61
307.87	1157.03
308.24	1141.21
308.60	1150.25
308.97	1154.77
309.34	1172.85
309.71	1129.91
310.08	1132.17
310.45	1233.87
310.82	1161.55
311.19	1082.46
311.56	1125.39
311.92	1116.35
312.29	1111.84
312.66	1109.58
313.03	1077.94
313.40	1172.85
313.77	1172.85
314.14	1195.45
314.51	1118.61
314.87	1147.99
315.24	1120.87
315.61	1143.47
315.98	1195.45
316.35	1211.27
316.72	1163.81
317.09	1240.65
317.45	1143.47
317.82	1163.81
318.19	1159.29
318.56	1129.91
318.93	1114.10
319.30	1134.43
319.66	1170.59
320.03	1141.21
320.40	1172.85
320.77	1161.55
321.14	1109.58
321.50	1161.55
321.87	1166.07
322.24	1111.84
322.61	1157.03
322.98	1163.81
323.34	1163.81
323.71	1138.95
324.08	1188.67
324.45	1150.25
324.82	1129.91
325.18	1141.21
325.55	1186.41
325.92	1184.15
326.29	1215.79
326.65	1186.41
327.02	1159.29
327.39	1206.75
327.76	1168.33
328.12	1209.01
328.49	1181.89
328.86	1138.95
329.23	1145.73
329.59	1098.28
329.96	1132.17
330.33	1129.91
330.70	1138.95
331.06	1240.65
331.43	1138.95
331.80	1204.49
332.17	1233.87
332.53	1254.20
332.90	1157.03
333.27	1145.73
333.63	1204.49
334.00	1181.89
334.37	1172.85
334.74	1141.21
335.10	1120.87
335.47	1197.71
335.84	1143.47
336.20	1186.41
336.57	1227.09
336.94	1197.71
337.30	1184.15
337.67	1170.59
338.04	1163.81
338.40	1213.53
338.77	1145.73
339.14	1181.89
339.50	1227.09
339.87	1143.47
340.24	1175.11
340.60	1154.77
340.97	1134.43
341.34	1177.37
341.70	1190.93
342.07	1227.09
342.44	1231.61
342.80	1249.68
343.17	1175.11
343.53	1222.57
343.90	1206.75
344.27	1199.97
344.63	1186.41
345.00	1190.93
345.37	1116.35
345.73	1249.68
346.10	1186.41
346.46	1199.97
346.83	1245.16
347.20	1157.03
347.56	1138.95
347.93	1199.97
348.29	1188.67
348.66	1220.31
349.03	1170.59
349.39	1184.15
349.76	1197.71
350.12	1188.67
350.49	1186.41
350.85	1188.67
351.22	1175.11
351.59	1179.63
351.95	1204.49
352.32	1150.25
352.68	1231.61
353.05	1179.63
353.41	1147.99
353.78	1147.99
354.14	1231.61
354.51	1236.13
354.88	1209.01
355.24	1229.35
355.61	1211.27
355.97	1213.53
356.34	1186.41
356.70	1224.83
357.07	1199.97
357.43	1132.17
357.80	1163.81
358.16	1218.05
358.53	1222.57
358.89	1188.67
359.26	1177.37
359.62	1220.31
359.99	1242.91
360.35	1166.07
360.72	1215.79
361.08	1256.46
361.45	1227.09
361.81	1220.31
362.18	1256.46
362.54	1195.45
362.91	1186.41
363.27	1211.27
363.63	1229.35
364.00	1213.53
364.36	1263.24
364.73	1231.61
365.09	1292.62
365.46	1263.24
365.82	1242.91
366.19	1249.68
366.55	1236.13
366.91	1292.62
367.28	1270.02
367.64	1263.24
368.01	1236.13
368.37	1337.82
368.74	1249.68
369.10	1294.88
369.46	1288.10
369.83	1251.94
370.19	1270.02
370.56	1299.40
370.92	1276.80
371.28	1242.91
371.65	1303.92
372.01	1312.96
372.38	1342.34
372.74	1407.87
373.10	1360.42
373.47	1281.32
373.83	1383.01
374.19	1274.54
374.56	1358.16
374.92	1335.56
375.29	1378.49
375.65	1423.69
376.01	1322.00
376.38	1444.03
376.74	1423.69
377.10	1446.29
377.47	1423.69
377.83	1383.01
378.19	1525.38
378.56	1552.50
378.92	1516.34
379.28	1498.27
379.65	1577.36
380.01	1584.14
380.37	1622.56
380.74	1590.92
381.10	1758.15
381.46	1742.33
381.83	1780.74
382.19	1864.36
382.55	1918.59
382.91	1988.65
383.28	2083.56
383.64	2194.29
384.00	2248.53
384.37	2302.76
384.73	2424.80
385.09	2562.64
385.45	2653.04
385.82	2854.16
386.18	3046.25
386.54	3170.54
386.91	3362.62
387.27	3663.18
387.63	3990.86
387.99	4160.34
388.36	4469.94
388.72	4779.54
389.08	5080.09
389.44	5586.29
389.80	5997.58
390.17	6117.35
390.53	6847.28
390.89	7645.00
391.25	8006.57
391.62	8390.74
391.98	9405.40
392.34	10512.72
392.70	10881.07
393.06	11812.12
393.43	12553.34
393.79	13281.01
394.15	14031.27
394.51	15034.63
394.87	16401.83
395.24	17301.24
395.60	18980.29
395.96	19976.88
396.32	22053.66
396.68	23536.10
397.04	25325.89
397.41	27608.31
397.77	29741.59
398.13	32057.91
398.49	33671.43
398.85	36412.60
399.21	39971.83
399.58	42446.34
399.94	44751.37
400.30	49284.58
400.66	50945.55
401.02	53847.17
401.38	55691.19
401.74	57367.98
402.11	59417.65
402.47	60956.59
402.83	61953.17
403.19	63417.54
403.55	64628.81
403.91	65535.00
404.27	65535.00
404.63	65535.00
404.99	65535.00
405.35	65535.00
405.72	65535.00
406.08	65535.00
406.44	65535.00
406.80	65535.00
407.16	65535.00
407.52	65535.00
407.88	65535.00
408.24	65535.00
408.60	65535.00
408.96	65535.00
409.32	65535.00
409.68	65535.00
410.04	65535.00
410.40	65535.00
410.76	65535.00
411.13	64176.84
411.49	63657.08
411.85	62154.30
412.21	60712.53
412.57	59367.93
412.93	58287.73
413.29	56251.63
413.65	54554.50
414.01	52701.44
414.37	49872.14
414.73	48471.04
415.09	46021.39
415.45	44536.68
415.81	42355.95
416.17	39849.80
416.53	38695.03
416.89	37031.79
417.25	35264.61
417.61	33045.46
417.97	32482.76
418.33	31027.43
418.69	29723.51
419.05	28537.10
419.41	27626.39
419.77	27056.92
420.12	25418.54
420.48	24162.08
420.84	23728.19
421.20	22241.22
421.56	21115.83
421.92	20835.61
422.28	19454.86
422.64	18523.81
423.00	17739.65
423.36	16770.18
423.72	15746.48
424.08	14876.44
424.44	14144.26
424.80	13502.47
425.16	13077.62
425.51	12130.75
425.87	11773.70
426.23	11018.92
426.59	10289.00
426.95	10155.67
427.31	9902.56
427.67	9434.78
428.03	8648.36
428.39	8768.13
428.74	7952.33
429.10	7489.07
429.46	7073.26
429.82	6833.72
430.18	6621.29
430.54	6490.22
430.90	6429.21
431.26	5816.80
431.61	5683.47
431.97	5482.34
432.33	5385.17
432.69	5204.38
433.05	5082.35
433.41	4985.18
433.76	4743.38
434.12	4628.13
434.48	4336.61
434.84	4381.81
435.20	4101.59
435.55	3900.46
435.91	3891.42
436.27	3785.21
436.63	3663.18
436.99	3620.24
437.34	3428.16
437.70	3443.98
438.06	3344.54
438.42	3118.56
438.78	3073.37
439.13	3053.03
439.49	2924.22
439.85	2829.30
440.21	2698.23
440.56	2709.53
440.92	2648.52
441.28	2395.42
441.64	2436.09
441.99	2479.03
442.35	2384.12
442.71	2284.69
443.07	2323.10
443.42	2173.95
443.78	2257.57
444.14	2085.82
444.50	2144.58
444.85	1995.43
445.21	2033.84
445.57	2067.74
445.93	1875.66
446.28	1981.87
446.64	1889.22
447.00	1918.59
447.35	1855.32
447.71	1920.85
448.07	1855.32
448.42	1832.72
448.78	1853.06
449.14	1778.48
449.49	1758.15
449.85	1706.17
450.21	1660.97
450.56	1717.47
450.92	1595.44
451.28	1627.08
451.63	1647.41
451.99	1624.82
452.35	1588.66
452.70	1552.50
453.06	1489.23
453.42	1496.01
453.77	1514.08
454.13	1491.49
454.49	1498.27
454.84	1534.42
455.20	1446.29
455.55	1403.35
455.91	1441.77
456.27	1428.21
456.62	1407.87
456.98	1434.99
457.33	1412.39
457.69	1322.00
458.05	1342.34
458.40	1333.30
458.76	1342.34
459.11	1378.49
459.47	1331.04
459.83	1358.16
460.18	1351.38
460.54	1355.90
460.89	1265.50
461.25	1224.83
461.60	1317.48
461.96	1288.10
462.31	1233.87
462.67	1308.44
463.03	1260.98
463.38	1258.72
463.74	1222.57
464.09	1229.35
464.45	1317.48
464.80	1283.58
465.16	1227.09
465.51	1236.13
465.87	1240.65
466.22	1227.09
466.58	1260.98
466.93	1267.76
467.29	1247.42
467.64	1220.31
468.00	1240.65
468.35	1281.32
468.71	1224.83
469.06	1224.83
469.42	1181.89
469.77	1206.75
470.13	1254.20
470.48	1211.27
470.84	1147.99
471.19	1236.13
471.54	1202.23
471.90	1231.61
472.25	1204.49
472.61	1256.46
472.96	1236.13
473.32	1204.49
473.67	1215.79
474.03	1215.79
474.38	1211.27
474.73	1249.68
475.09	1231.61
475.44	1238.39
475.80	1184.15
476.15	1213.53
476.50	1170.59
476.86	1283.58
477.21	1199.97
477.57	1227.09
477.92	1213.53
478.27	1233.87
478.63	1211.27
478.98	1175.11
479.34	1199.97
479.69	1184.15
480.04	1222.57
480.40	1175.11
480.75	1147.99
481.10	1206.75
481.46	1204.49
481.81	1181.89
482.16	1157.03
482.52	1136.69
482.87	1202.23
483.22	1215.79
483.58	1134.43
483.93	1202.23
484.28	1260.98
484.64	1215.79
484.99	1215.79
485.34	1204.49
485.70	1114.10
486.05	1222.57
486.40	1229.35
486.76	1168.33
487.11	1125.39
487.46	1186.41
487.81	1193.19
488.17	1202.23
488.52	1170.59
488.87	1147.99
489.23	1093.76
489.58	1188.67
489.93	1147.99
490.28	1150.25
490.64	1125.39
490.99	1218.05
491.34	1240.65
491.69	1145.73
492.05	1163.81
492.40	1143.47
492.75	1111.84
493.10	1179.63
493.46	1145.73
493.81	1152.51
494.16	1161.55
494.51	1184.15
494.86	1152.51
495.22	1145.73
495.57	1157.03
495.92	1157.03
496.27	1199.97
496.62	1170.59
496.98	1125.39
497.33	1181.89
497.68	1166.07
498.03	1199.97
498.38	1166.07
498.74	1116.35
499.09	1157.03
499.44	1143.47
499.79	1172.85
500.14	1254.20
500.49	1190.93
500.85	1188.67
501.20	1123.13
501.55	1202.23
501.90	1134.43
502.25	1071.16
502.60	1254.20
502.95	1114.10
503.30	1127.65
503.66	1161.55
504.01	1202.23
504.36	1190.93
504.71	1163.81
505.06	1236.13
505.41	1159.29
505.76	1157.03
506.11	1109.58
506.46	1152.51
506.82	1202.23
507.17	1123.13
507.52	1152.51
507.87	1129.91
508.22	1143.47
508.57	1195.45
508.92	1111.84
509.27	1098.28
509.62	1109.58
509.97	1109.58
510.32	1159.29
510.67	1111.84
511.02	1159.29
511.37	1145.73
511.72	1123.13
512.07	1147.99
512.42	1120.87
512.77	1111.84
513.12	1204.49
513.47	1145.73
513.82	1188.67
514.17	1197.71
514.52	1138.95
514.87	1199.97
515.22	1145.73
515.57	1197.71
515.92	1096.02
516.27	1193.19
516.62	1197.71
516.97	1105.06
517.32	1188.67
517.67	1152.51
518.02	1168.33
518.37	1154.77
518.72	1186.41
519.07	1120.87
519.42	1197.71
519.77	1166.07
520.12	1150.25
520.47	1161.55
520.82	1163.81
521.17	1116.35
521.52	1120.87
521.87	1136.69
522.22	1172.85
522.56	1118.61
522.91	1220.31
523.26	1231.61
523.61	1134.43
523.96	1136.69
524.31	1193.19
524.66	1220.31
525.01	1184.15
525.36	1138.95
525.71	1170.59
526.05	1141.21
526.40	1254.20
526.75	1138.95
527.10	1170.59
527.45	1206.75
527.80	1220.31
528.15	1181.89
528.49	1251.94
528.84	1175.11
529.19	1168.33
529.54	1209.01
529.89	1193.19
530.24	1134.43
530.58	1132.17
530.93	1111.84
531.28	1098.28
531.63	1152.51
531.98	1218.05
532.33	1123.13
532.67	1132.17
533.02	1236.13
533.37	1138.95
533.72	1143.47
534.07	1150.25
534.41	1109.58
534.76	1166.07
535.11	1127.65
535.46	1150.25
535.80	1111.84
536.15	1120.87
536.50	1143.47
536.85	1181.89
537.19	1184.15
537.54	1123.13
537.89	1166.07
538.24	1145.73
538.58	1163.81
538.93	1118.61
539.28	1186.41
539.63	1107.32
539.97	1109.58
540.32	1152.51
540.67	1116.35
541.01	1159.29
541.36	1134.43
541.71	1229.35
542.06	1213.53
542.40	1159.29
542.75	1154.77
543.10	1150.25
543.44	1179.63
543.79	1152.51
544.14	1188.67
544.48	1224.83
544.83	1141.21
545.18	1159.29
545.52	1233.87
545.87	1143.47
546.22	1161.55
546.56	1145.73
546.91	1114.10
547.25	1204.49
547.60	1091.50
547.95	1111.84
548.29	1157.03
548.64	1125.39
548.99	1138.95
549.33	1222.57
549.68	1175.11
550.02	1143.47
550.37	1055.34
550.72	1154.77
551.06	1190.93
551.41	1193.19
551.75	1170.59
552.10	1105.06
552.45	1102.80
552.79	1168.33
553.14	1111.84
553.48	1163.81
553.83	1127.65
554.17	1218.05
554.52	1218.05
554.87	1168.33
555.21	1184.15
555.56	1236.13
555.90	1125.39
556.25	1197.71
556.59	1129.91
556.94	1136.69
557.28	1170.59
557.63	1109.58
557.97	1093.76
558.32	1170.59
558.66	1159.29
559.01	1190.93
559.35	1127.65
559.70	1077.94
560.04	1159.29
560.39	1177.37
560.73	1145.73
561.08	1102.80
561.42	1141.21
561.77	1143.47
562.11	1129.91
562.46	1168.33
562.80	1129.91
563.14	1143.47
563.49	1152.51
563.83	1172.85
564.18	1096.02
564.52	1163.81
564.87	1175.11
565.21	1123.13
565.56	1168.33
565.90	1145.73
566.24	1263.24
566.59	1179.63
566.93	1143.47
567.28	1175.11
567.62	1118.61
567.96	1161.55
568.31	1096.02
568.65	1059.86
569.00	1179.63
569.34	1136.69
569.68	1150.25
570.03	1138.95
570.37	1172.85
570.71	1129.91
571.06	1206.75
571.40	1161.55
571.74	1181.89
572.09	1175.11
572.43	1220.31
572.78	1166.07
573.12	1186.41
573.46	1102.80
573.80	1127.65
574.15	1161.55
574.49	1093.76
574.83	1152.51
575.18	1154.77
575.52	1114.10
575.86	1145.73
576.21	1109.58
576.55	1184.15
576.89	1141.21
577.24	1152.51
577.58	1157.03
577.92	1152.51
578.26	1111.84
578.61	1123.13
578.95	1141.21
579.29	1114.10
579.63	1147.99
579.98	1186.41
580.32	1143.47
580.66	1068.90
581.00	1168.33
581.35	1166.07
581.69	1145.73
582.03	1179.63
582.37	1134.43
582.72	1172.85
583.06	1184.15
583.40	1168.33
583.74	1177.37
584.08	1152.51
584.43	1118.61
584.77	1102.80
585.11	1116.35
585.45	1154.77
585.79	1127.65
586.13	1105.06
586.48	1181.89
586.82	1170.59
587.16	1190.93
587.50	1114.10
587.84	1150.25
588.18	1077.94
588.53	1125.39
588.87	1066.64
589.21	1102.80
589.55	1179.63
589.89	1111.84
590.23	1053.08
590.57	1114.10
590.92	1116.35
591.26	1100.54
591.60	1134.43
591.94	1147.99
592.28	1120.87
592.62	1150.25
592.96	1161.55
593.30	1116.35
593.64	1188.67
593.98	1150.25
594.32	1105.06
594.67	1134.43
595.01	1096.02
595.35	1152.51
595.69	1147.99
596.03	1184.15
596.37	1136.69
596.71	1166.07
597.05	1132.17
597.39	1132.17
597.73	1098.28
598.07	1125.39
598.41	1114.10
598.75	1152.51
599.09	1152.51
599.43	1084.72
599.77	1123.13
600.11	1077.94
600.45	1118.61
600.79	1127.65
601.13	1170.59
601.47	1098.28
601.81	1150.25
602.15	1184.15
602.49	1084.72
602.83	1138.95
603.17	1093.76
603.51	1105.06
603.85	1059.86
604.19	1102.80
604.53	1102.80
604.87	1132.17
605.21	1152.51
605.55	1224.83
605.89	1170.59
606.23	1062.12
606.56	1096.02
606.90	1177.37
607.24	1145.73
607.58	1170.59
607.92	1177.37
608.26	1111.84
608.60	1147.99
608.94	1127.65
609.28	1163.81
609.62	1145.73
609.95	1141.21
610.29	1071.16
610.63	1073.42
610.97	1132.17
611.31	1105.06
611.65	1102.80
611.99	1120.87
612.33	1114.10
612.66	1197.71
613.00	1100.54
613.34	1159.29
613.68	1150.25
614.02	1089.24
614.36	1120.87
614.69	1125.39
615.03	1100.54
615.37	1093.76
615.71	1138.95
616.05	1107.32
616.38	1134.43
616.72	1114.10
617.06	1107.32
617.40	1093.76
617.74	1157.03
618.07	1096.02
618.41	1134.43
618.75	1102.80
619.09	1163.81
619.42	1134.43
619.76	1157.03
620.10	1107.32
620.44	1166.07
620.77	1127.65
621.11	1136.69
621.45	1170.59
621.79	1157.03
622.12	1125.39
622.46	1102.80
622.80	1138.95
623.13	1098.28
623.47	1057.60
623.81	1141.21
624.15	1100.54
624.48	1107.32
624.82	1084.72
625.16	1125.39
625.49	1114.10
625.83	1084.72
626.17	1116.35
626.50	1077.94
626.84	1206.75
627.18	1138.95
627.51	1089.24
627.85	1123.13
628.19	1145.73
628.52	1138.95
628.86	1141.21
629.20	1109.58
629.53	1116.35
629.87	1132.17
630.20	1080.20
630.54	1050.82
630.88	1132.17
631.21	1093.76
631.55	1111.84
631.89	1064.38
632.22	1100.54
632.56	1159.29
632.89	1136.69
633.23	1118.61
633.56	1125.39
633.90	1163.81
634.24	1129.91
634.57	1086.98
634.91	1120.87
635.24	1125.39
635.58	1157.03
635.91	1147.99
636.25	1059.86
636.58	1089.24
636.92	1111.84
637.26	1107.32
637.59	1080.20
637.93	1127.65
638.26	1145.73
638.60	1102.80
638.93	1163.81
639.27	1118.61
639.60	1098.28
639.94	1109.58
640.27	1109.58
640.61	1082.46
640.94	1107.32
641.28	1077.94
641.61	1172.85
641.94	1129.91
642.28	1109.58
642.61	1062.12
642.95	1143.47
643.28	1086.98
643.62	1154.77
643.95	1107.32
644.29	1152.51
644.62	1116.35
644.95	1109.58
645.29	1116.35
645.62	1177.37
645.96	1157.03
646.29	1082.46
646.63	1125.39
646.96	1143.47
647.29	1096.02
647.63	1057.60
647.96	1123.13
648.29	1123.13
648.63	1055.34
648.96	1141.21
649.30	1172.85
649.63	1143.47
649.96	1134.43
650.30	1098.28
650.63	1100.54
650.96	1057.60
651.30	1132.17
651.63	1091.50
651.96	1028.22
652.30	1129.91
652.63	1041.78
652.96	1080.20
653.30	1093.76
653.63	1111.84
653.96	1109.58
654.30	1125.39
654.63	1032.74
654.96	1145.73
655.29	1100.54
655.63	1152.51
655.96	1068.90
656.29	1077.94
656.63	1109.58
656.96	1168.33
657.29	1145.73
657.62	1129.91
657.96	1116.35
658.29	1086.98
658.62	1046.30
658.95	1125.39
659.29	1116.35
659.62	1143.47
659.95	1048.56
660.28	1123.13
660.61	1089.24
660.95	1071.16
661.28	1181.89
661.61	1055.34
661.94	1134.43
662.27	1105.06
662.61	1123.13
662.94	1159.29
663.27	1075.68
663.60	1107.32
663.93	1071.16
664.27	1059.86
664.60	1111.84
664.93	1134.43
665.26	1084.72
665.59	1105.06
665.92	1109.58
666.25	1096.02
666.59	1125.39
666.92	1125.39
667.25	1136.69
667.58	1138.95
667.91	1143.47
668.24	1068.90
668.57	1161.55
668.90	1105.06
669.23	1107.32
669.57	1093.76
669.90	1086.98
670.23	1100.54
670.56	1068.90
670.89	1114.10
671.22	1143.47
671.55	1053.08
671.88	1046.30
672.21	1093.76
672.54	1157.03
672.87	1114.10
673.20	1086.98
673.53	1105.06
673.86	1111.84
674.19	1055.34
674.52	1082.46
674.85	1136.69
675.18	1109.58
675.51	1055.34
675.84	1050.82
676.17	1105.06
676.50	1098.28
676.83	1138.95
677.16	1143.47
677.49	1136.69
677.82	1098.28
678.15	1159.29
678.48	1143.47
678.81	1062.12
679.14	1035.00
679.47	1089.24
679.80	1096.02
680.13	1141.21
680.46	1102.80
680.79	1111.84
681.12	1071.16
681.45	1111.84
681.78	1157.03
682.11	1127.65
682.44	1109.58
682.77	1161.55
683.09	1184.15
683.42	1141.21
683.75	1077.94
684.08	1134.43
684.41	1147.99
684.74	1111.84
685.07	1179.63
685.40	1098.28
685.72	1152.51
686.05	1100.54
686.38	1091.50
686.71	1120.87
687.04	1143.47
687.37	1190.93
687.70	1134.43
688.02	1132.17
688.35	1062.12
688.68	1114.10
689.01	1141.21
689.34	1125.39
689.67	1068.90
689.99	1071.16
690.32	1123.13
690.65	1132.17
690.98	1075.68
691.30	1141.21
691.63	1111.84
691.96	1116.35
692.29	1086.98
692.62	1114.10
692.94	1075.68
693.27	1023.70
693.60	1086.98
693.93	1147.99
694.25	1159.29
694.58	1062.12
694.91	1105.06
695.24	1098.28
695.56	1116.35
695.89	1132.17
696.22	1077.94
696.54	1098.28
696.87	1068.90
697.20	1089.24
697.53	1082.46
697.85	1120.87
698.18	1116.35
698.51	1084.72
698.83	1082.46
699.16	1021.44
699.49	1118.61
699.81	1123.13
700.14	1172.85
700.47	1116.35
700.79	1059.86
701.12	1125.39
701.45	1109.58
701.77	1098.28
702.10	1136.69
702.42	1073.42
702.75	1107.32
703.08	1154.77
703.40	1120.87
703.73	1080.20
704.05	1127.65
704.38	1159.29
704.71	1161.55
705.03	1105.06
705.36	1032.74
705.68	1147.99
706.01	1096.02
706.34	1089.24
706.66	1134.43
706.99	1098.28
707.31	1166.07
707.64	1125.39
707.96	1141.21
708.29	1059.86
708.61	1123.13
708.94	1091.50
709.26	1102.80
709.59	1098.28
709.92	1134.43
710.24	1168.33
710.57	1075.68
710.89	1068.90
711.22	1096.02
711.54	1143.47
711.87	1071.16
712.19	1091.50
712.51	1091.50
712.84	1102.80
713.16	1143.47
713.49	1120.87
713.81	1147.99
714.14	1152.51
714.46	1143.47
714.79	1068.90
715.11	1120.87
715.44	1059.86
715.76	1111.84
716.08	1086.98
716.41	1064.38
716.73	1089.24
717.06	1100.54
717.38	1080.20
717.70	1125.39
718.03	1064.38
718.35	1082.46
718.68	1086.98
719.00	1091.50
719.32	1125.39
719.65	1105.06
719.97	1107.32
720.29	1125.39
720.62	1098.28
720.94	1105.06
721.27	1100.54
721.59	1096.02
721.91	1152.51
722.24	1019.18
722.56	1118.61
722.88	1134.43
723.21	1062.12
723.53	1075.68
723.85	1120.87
724.17	1062.12
724.50	1102.80
724.82	1123.13
725.14	1100.54
725.47	1068.90
725.79	1016.92
726.11	1089.24
726.43	1096.02
726.76	1086.98
727.08	1147.99
727.40	1127.65
727.72	1123.13
728.05	1086.98
728.37	1098.28
728.69	1136.69
729.01	1093.76
729.34	1105.06
729.66	1080.20
729.98	1086.98
730.30	1134.43
730.62	1100.54
730.95	1120.87
731.27	1093.76
731.59	1161.55
731.91	1136.69
732.23	1138.95
732.56	1055.34
732.88	1141.21
733.20	1152.51
733.52	1163.81
733.84	1136.69
734.16	1105.06
734.49	1055.34
734.81	1102.80
735.13	1073.42
735.45	1129.91
735.77	1132.17
736.09	1172.85
736.41	1073.42
736.73	1089.24
737.06	1053.08
737.38	1096.02
737.70	1080.20
738.02	1202.23
738.34	1111.84
738.66	1098.28
738.98	1096.02
739.30	1086.98
739.62	1114.10
739.94	1055.34
740.26	1077.94
740.58	1109.58
740.90	1098.28
741.23	1134.43
741.55	1138.95
741.87	1145.73
742.19	1091.50
742.51	1129.91
742.83	1066.64
743.15	1073.42
743.47	1093.76
743.79	1147.99
744.11	1080.20
744.43	1100.54
744.75	1141.21
745.07	1129.91
745.39	1129.91
745.71	1175.11
746.03	1105.06
746.35	1129.91
746.67	1082.46
746.98	1025.96
747.30	1102.80
747.62	1129.91
747.94	1111.84
748.26	1041.78
748.58	1136.69
748.90	1111.84
749.22	1118.61
749.54	1116.35
749.86	1096.02
750.18	1084.72
750.50	1086.98
750.82	1084.72
751.13	1114.10
751.45	1114.10
751.77	1080.20
752.09	1157.03
752.41	1161.55
752.73	1096.02
753.05	1163.81
753.36	1102.80
753.68	1080.20
754.00	1064.38
754.32	1077.94
754.64	1098.28
754.96	1035.00
755.28	1125.39
755.59	1186.41
755.91	1125.39
756.23	1075.68
756.55	1120.87
756.87	1127.65
757.18	1179.63
757.50	1109.58
757.82	1125.39
758.14	1075.68
758.45	1082.46
758.77	1105.06
759.09	1086.98
759.41	1107.32
759.73	1086.98
760.04	1114.10
760.36	1075.68
760.68	1134.43
760.99	1102.80
761.31	1102.80
761.63	1127.65
761.95	1089.24
762.26	1120.87
762.58	1091.50
762.90	1118.61
763.21	1107.32
763.53	1109.58
763.85	1111.84
764.17	1138.95
764.48	1077.94
764.80	1102.80
765.12	1134.43
765.43	1093.76
765.75	1041.78
766.07	1127.65
766.38	1055.34
766.70	1120.87
767.01	1125.39
767.33	1071.16
767.65	1073.42
767.96	1141.21
768.28	1120.87
768.60	1073.42
768.91	1141.21
769.23	1102.80
769.54	1046.30
769.86	1073.42
770.18	1143.47
770.49	1005.62
770.81	1143.47
771.12	1127.65
771.44	1109.58
771.75	1123.13
772.07	1159.29
772.38	1111.84
772.70	1105.06
773.02	1120.87
773.33	1116.35
773.65	1082.46
773.96	1096.02
774.28	1068.90
774.59	1066.64
774.91	1125.39
775.22	1166.07
775.54	1098.28
775.85	1093.76
776.17	1084.72
776.48	1134.43
776.80	1138.95
777.11	1125.39
777.43	1091.50
777.74	1118.61
778.05	1134.43
778.37	1143.47
778.68	1116.35
779.00	1077.94
779.31	1057.60
779.63	1066.64
779.94	1125.39
780.26	1105.06
780.57	1073.42
780.88	1089.24
781.20	1091.50
781.51	1086.98
781.83	1080.20
782.14	1096.02
782.45	1091.50
782.77	1134.43
783.08	1143.47
783.39	1109.58
783.71	1089.24
784.02	1050.82
784.34	1107.32
784.65	1082.46
784.96	1077.94
785.28	1093.76
785.59	1080.20
785.90	1105.06
786.22	1107.32
786.53	1111.84
786.84	1159.29
787.15	1163.81
787.47	1154.77
787.78	1093.76
788.09	1132.17
788.41	1129.91
788.72	1091.50
789.03	1111.84
789.35	1129.91
789.66	1111.84
789.97	1050.82
790.28	1120.87
790.60	1109.58
790.91	1186.41
791.22	1157.03
791.53	1109.58
791.84	1114.10
792.16	1066.64
792.47	1068.90
792.78	1111.84
793.09	1105.06
793.41	1096.02
793.72	1141.21
794.03	1109.58
794.34	1044.04
794.65	1075.68
794.96	1082.46
795.28	1143.47
795.59	1125.39
795.90	1127.65
796.21	1071.16
796.52	1053.08
796.83	1044.04
797.15	1125.39
797.46	1080.20
797.77	1035.00
798.08	1134.43
798.39	1152.51
798.70	1066.64
799.01	1132.17
799.32	1109.58
799.63	1089.24
799.95	1118.61
800.26	1134.43
800.57	1098.28
800.88	1105.06
801.19	1080.20
801.50	1157.03
801.81	1075.68
802.12	1050.82
802.43	1118.61
802.74	1068.90
803.05	1071.16
803.36	1150.25
803.67	1129.91
803.98	1105.06
804.29	1105.06
804.60	1188.67
804.91	1116.35
805.22	1134.43
805.53	1041.78
805.84	1125.39
806.15	1186.41
806.46	1120.87
806.77	1109.58
807.08	1091.50
807.39	1109.58
807.70	1093.76
808.01	1010.14
808.32	1111.84
808.63	1120.87
808.94	1161.55
809.25	1127.65
809.56	1105.06
809.87	1064.38
810.18	1138.95
810.49	1098.28
810.79	1086.98
811.10	1136.69
811.41	1107.32
811.72	1093.76
812.03	1111.84
812.34	1120.87
812.65	1080.20
812.96	1066.64
813.27	1080.20
813.57	1093.76
813.88	1170.59
814.19	1109.58
814.50	1055.34
814.81	1143.47
815.12	1084.72
815.42	1127.65
815.73	1096.02
816.04	1082.46
816.35	1159.29
816.66	1084.72
816.97	1102.80
817.27	1157.03
817.58	1132.17
817.89	1102.80
818.20	1136.69
818.50	1114.10
818.81	1098.28
819.12	1064.38
819.43	1062.12
819.73	1041.78
820.04	1161.55
820.35	1159.29
820.66	1154.77
820.96	1098.28
821.27	1157.03
821.58	996.58
821.89	1089.24
822.19	1134.43
822.50	1138.95
822.81	1066.64
823.11	1091.50
823.42	1134.43
823.73	1138.95
824.03	1123.13
824.34	1096.02
824.65	1080.20
824.95	1053.08
825.26	1152.51
825.57	1141.21
825.87	1141.21
826.18	1096.02
826.49	1084.72
826.79	1073.42
827.10	1107.32
827.40	1089.24
827.71	1123.13
828.02	1138.95
828.32	1136.69
828.63	1107.32
828.93	1141.21
829.24	1091.50
829.55	1123.13
829.85	1127.65
830.16	1157.03
830.46	1152.51
830.77	1089.24
831.07	1102.80
831.38	1111.84
831.69	1080.20
831.99	1098.28
832.30	1136.69
832.60	1157.03
832.91	1100.54
833.21	1077.94
833.52	1107.32
833.82	1204.49
834.13	1111.84
834.43	1127.65
834.74	1127.65
835.04	1093.76
835.35	1077.94
835.65	1102.80
835.96	1107.32
836.26	1111.84
836.56	1066.64
836.87	1118.61
837.17	1098.28
837.48	1143.47
837.78	1134.43
838.09	1075.68
838.39	1093.76
838.69	1102.80
839.00	1111.84
839.30	1114.10
839.61	1138.95
839.91	1100.54
840.21	1080.20
840.52	1136.69
840.82	1116.35
841.13	1132.17
841.43	1109.58
841.73	1084.72
842.04	1114.10
842.34	1096.02
842.64	1138.95
842.95	1005.62
843.25	1107.32
843.55	1184.15
843.86	1080.20
844.16	1102.80
844.46	1154.77
844.77	1127.65
845.07	1132.17
845.37	1218.05
845.68	1127.65
845.98	1086.98
846.28	1071.16
846.58	1116.35
846.89	1150.25
847.19	1125.39
847.49	1032.74
847.79	1096.02
848.10	1129.91
848.40	1127.65
848.70	1120.87
849.00	1082.46
849.31	1084.72
849.61	1080.20
849.91	1098.28
850.21	1125.39
850.51	1125.39
850.82	1114.10
851.12	1116.35
851.42	1064.38
851.72	1132.17
852.02	1105.06
852.32	1093.76
852.63	1089.24
852.93	1098.28
853.23	1068.90
853.53	1193.19
853.83	1136.69
854.13	1141.21
854.43	1050.82
854.74	1123.13
855.04	1129.91
855.34	1071.16
855.64	1039.52
855.94	1152.51
856.24	1098.28
856.54	1118.61
856.84	1132.17
857.14	1080.20
857.44	1116.35
857.74	1050.82
858.05	1098.28
858.35	1109.58
858.65	1118.61
858.95	1143.47
859.25	1098.28
859.55	1127.65
859.85	1184.15
860.15	1107.32
860.45	1100.54
860.75	1168.33
861.05	1066.64
861.35	1096.02
861.65	1093.76
861.95	1154.77
862.25	1161.55
862.55	1046.30
862.85	1111.84
863.15	1136.69
863.45	1136.69
863.75	1100.54
864.05	1048.56
864.35	1073.42
864.64	1120.87
864.94	1118.61
865.24	1129.91
865.54	1077.94
865.84	1100.54
866.14	1068.90
866.44	1111.84
866.74	1025.96
867.04	1105.06
867.34	1114.10
867.64	1071.16
867.93	1041.78
868.23	1077.94
868.53	1159.29
868.83	1127.65
869.13	1145.73
869.43	1086.98
869.73	1093.76
870.02	1082.46
870.32	1120.87
870.62	1116.35
870.92	1082.46
871.22	1077.94
871.51	1152.51
871.81	1181.89
872.11	1091.50
872.41	1120.87
872.71	1132.17
873.00	1161.55
873.30	1111.84
873.60	1086.98
873.90	1123.13
874.19	1111.84
874.49	1107.32
874.79	1084.72
875.09	1118.61
875.38	1114.10
875.68	1046.30
875.98	1145.73
876.28	1096.02
876.57	1082.46
876.87	1082.46
877.17	1082.46
