174.03	777.38
174.41	777.38
174.78	777.38
175.16	729.92
175.54	671.17
175.92	684.73
176.30	745.74
176.67	720.88
177.05	795.46
177.43	750.26
177.81	757.04
178.19	743.48
178.56	784.16
178.94	849.70
179.32	820.32
179.70	908.45
180.08	833.88
180.45	908.45
180.83	881.33
181.21	922.01
181.59	962.69
181.96	987.54
182.34	937.83
182.72	1068.90
183.10	1062.12
183.48	1062.12
183.85	1019.18
184.23	1055.34
184.61	1084.72
184.99	1066.64
185.36	1134.43
185.74	1062.12
186.12	1118.61
186.50	1091.50
186.87	1068.90
187.25	1120.87
187.63	1093.76
188.01	1075.68
188.38	1134.43
188.76	1100.54
189.14	1123.13
189.52	1114.10
189.89	1157.03
190.27	1096.02
190.65	1136.69
191.02	1136.69
191.40	1048.56
191.78	1111.84
192.16	1132.17
192.53	1127.65
192.91	1114.10
193.29	1082.46
193.66	1111.84
194.04	1109.58
194.42	1111.84
194.79	1107.32
195.17	1190.93
195.55	1100.54
195.93	1080.20
196.30	1118.61
196.68	1125.39
197.06	1091.50
197.43	1073.42
197.81	1093.76
198.19	1118.61
198.56	1084.72
198.94	1028.22
199.32	1077.94
199.69	1098.28
200.07	1098.28
200.45	1091.50
200.82	1068.90
201.20	1116.35
201.58	1145.73
201.95	1041.78
202.33	1091.50
202.71	1102.80
203.08	1105.06
203.46	1086.98
203.84	1129.91
204.21	1127.65
204.59	1098.28
204.96	1170.59
205.34	1143.47
205.72	1152.51
206.09	1116.35
206.47	1100.54
206.85	1068.90
207.22	1032.74
207.60	1044.04
207.97	1161.55
208.35	1068.90
208.73	1166.07
209.10	1066.64
209.48	1089.24
209.85	1107.32
210.23	1105.06
210.61	1084.72
210.98	1111.84
211.36	1100.54
211.73	1073.42
212.11	1068.90
212.49	1163.81
212.86	1123.13
213.24	1152.51
213.61	1044.04
213.99	1048.56
214.37	1102.80
214.74	1093.76
215.12	1125.39
215.49	1055.34
215.87	1073.42
216.24	1071.16
216.62	1141.21
216.99	1136.69
217.37	1068.90
217.75	1114.10
218.12	1098.28
218.50	1145.73
218.87	1107.32
219.25	1109.58
219.62	1019.18
220.00	1138.95
220.37	1143.47
220.75	1114.10
221.12	1089.24
221.50	1143.47
221.87	1100.54
222.25	1096.02
222.63	1068.90
223.00	1109.58
223.38	1071.16
223.75	1089.24
224.13	1159.29
224.50	1084.72
224.88	1177.37
225.25	1089.24
225.63	1089.24
226.00	1150.25
226.38	1111.84
226.75	1129.91
227.13	1035.00
227.50	1062.12
227.88	1082.46
228.25	1197.71
228.63	1166.07
229.00	1136.69
229.37	1166.07
229.75	1159.29
230.12	1136.69
230.50	1111.84
230.87	1032.74
231.25	1030.48
231.62	1134.43
232.00	1123.13
232.37	1177.37
232.75	1089.24
233.12	1114.10
233.50	1059.86
233.87	1109.58
234.24	1114.10
234.62	1102.80
234.99	1107.32
235.37	1091.50
235.74	1127.65
236.12	1091.50
236.49	1107.32
236.86	1109.58
237.24	1152.51
237.61	1159.29
237.99	1096.02
238.36	1080.20
238.74	1055.34
239.11	1100.54
239.48	1102.80
239.86	1102.80
240.23	1109.58
240.61	1150.25
240.98	1111.84
241.35	1096.02
241.73	1166.07
242.10	1177.37
242.48	1152.51
242.85	1190.93
243.22	1077.94
243.60	1125.39
243.97	1120.87
244.34	1111.84
244.72	1129.91
245.09	1150.25
245.47	1064.38
245.84	1152.51
246.21	1143.47
246.59	1102.80
246.96	1116.35
247.33	1141.21
247.71	1116.35
248.08	1136.69
248.45	1111.84
248.83	1116.35
249.20	1123.13
249.57	1111.84
249.95	1114.10
250.32	1152.51
250.69	1098.28
251.07	1134.43
251.44	1096.02
251.81	1114.10
252.19	1138.95
252.56	1211.27
252.93	1116.35
253.31	1150.25
253.68	1120.87
254.05	1091.50
254.43	1116.35
254.80	1109.58
255.17	1129.91
255.55	1105.06
255.92	1159.29
256.29	1127.65
256.66	1118.61
257.04	1132.17
257.41	1098.28
257.78	1159.29
258.16	1138.95
258.53	1091.50
258.90	1118.61
259.27	1102.80
259.65	1055.34
260.02	1114.10
260.39	1111.84
260.76	1116.35
261.14	1132.17
261.51	1123.13
261.88	1141.21
262.25	1127.65
262.63	1134.43
263.00	1152.51
263.37	1166.07
263.74	1114.10
264.12	1080.20
264.49	1138.95
264.86	1132.17
265.23	1132.17
265.61	1120.87
265.98	1071.16
266.35	1129.91
266.72	1134.43
267.09	1213.53
267.47	1147.99
267.84	1096.02
268.21	1125.39
268.58	1123.13
268.95	1168.33
269.33	1132.17
269.70	1091.50
270.07	1154.77
270.44	1132.17
270.81	1159.29
271.19	1077.94
271.56	1152.51
271.93	1057.60
272.30	1147.99
272.67	1084.72
273.05	1118.61
273.42	1190.93
273.79	1195.45
274.16	1089.24
274.53	1093.76
274.90	1143.47
275.28	1132.17
275.65	1132.17
276.02	1082.46
276.39	1175.11
276.76	1118.61
277.13	1073.42
277.50	1129.91
277.88	1175.11
278.25	1152.51
278.62	1209.01
278.99	1125.39
279.36	1218.05
279.73	1157.03
280.10	1109.58
280.47	1127.65
280.85	1170.59
281.22	1236.13
281.59	1166.07
281.96	1096.02
282.33	1177.37
282.70	1233.87
283.07	1199.97
283.44	1184.15
283.81	1154.77
284.18	1098.28
284.56	1091.50
284.93	1134.43
285.30	1125.39
285.67	1154.77
286.04	1086.98
286.41	1093.76
286.78	1154.77
287.15	1098.28
287.52	1143.47
287.89	1109.58
288.26	1161.55
288.63	1147.99
289.00	1132.17
289.37	1141.21
289.75	1145.73
290.12	1118.61
290.49	1093.76
290.86	1125.39
291.23	1145.73
291.60	1195.45
291.97	1134.43
292.34	1096.02
292.71	1168.33
293.08	1147.99
293.45	1143.47
293.82	1154.77
294.19	1177.37
294.56	1100.54
294.93	1206.75
295.30	1166.07
295.67	1120.87
296.04	1134.43
296.41	1147.99
296.78	1159.29
297.15	1125.39
297.52	1145.73
297.89	1172.85
298.26	1055.34
298.63	1202.23
299.00	1233.87
299.37	1170.59
299.74	1179.63
300.11	1089.24
300.48	1186.41
300.85	1073.42
301.22	1132.17
301.59	1172.85
301.96	1170.59
302.33	1157.03
302.70	1136.69
303.07	1172.85
303.43	1204.49
303.80	1199.97
304.17	1127.65
304.54	1218.05
304.91	1213.53
305.28	1125.39
305.65	1129.91
306.02	1224.83
306.39	1127.65
306.76	1129.91
307.13	1141.21
307.50	1138.95
307.87	1141.21
308.24	1111.84
308.60	1179.63
308.97	1134.43
309.34	1204.49
309.71	1120.87
310.08	1141.21
310.45	1159.29
310.82	1125.39
311.19	1134.43
311.56	1145.73
311.92	1159.29
312.29	1152.51
312.66	1147.99
313.03	1154.77
313.40	1118.61
313.77	1100.54
314.14	1136.69
314.51	1175.11
314.87	1163.81
315.24	1177.37
315.61	1161.55
315.98	1193.19
316.35	1105.06
316.72	1145.73
317.09	1098.28
317.45	1168.33
317.82	1111.84
318.19	1143.47
318.56	1129.91
318.93	1134.43
319.30	1227.09
319.66	1229.35
320.03	1154.77
320.40	1152.51
320.77	1166.07
321.14	1163.81
321.50	1168.33
321.87	1150.25
322.24	1116.35
322.61	1213.53
322.98	1125.39
323.34	1136.69
323.71	1195.45
324.08	1175.11
324.45	1109.58
324.82	1147.99
325.18	1154.77
325.55	1166.07
325.92	1161.55
326.29	1096.02
326.65	1188.67
327.02	1136.69
327.39	1195.45
327.76	1166.07
328.12	1190.93
328.49	1152.51
328.86	1105.06
329.23	1096.02
329.59	1114.10
329.96	1197.71
330.33	1163.81
330.70	1163.81
331.06	1175.11
331.43	1181.89
331.80	1166.07
332.17	1109.58
332.53	1177.37
332.90	1154.77
333.27	1170.59
333.63	1181.89
334.00	1107.32
334.37	1152.51
334.74	1138.95
335.10	1159.29
335.47	1098.28
335.84	1181.89
336.20	1175.11
336.57	1152.51
336.94	1147.99
337.30	1150.25
337.67	1147.99
338.04	1204.49
338.40	1224.83
338.77	1154.77
339.14	1233.87
339.50	1213.53
339.87	1247.42
340.24	1157.03
340.60	1186.41
340.97	1186.41
341.34	1186.41
341.70	1202.23
342.07	1166.07
342.44	1157.03
342.80	1132.17
343.17	1197.71
343.53	1188.67
343.90	1199.97
344.27	1118.61
344.63	1114.10
345.00	1150.25
345.37	1206.75
345.73	1199.97
346.10	1236.13
346.46	1206.75
346.83	1132.17
347.20	1161.55
347.56	1186.41
347.93	1147.99
348.29	1197.71
348.66	1129.91
349.03	1218.05
349.39	1263.24
349.76	1190.93
350.12	1190.93
350.49	1256.46
350.85	1193.19
351.22	1177.37
351.59	1177.37
351.95	1116.35
352.32	1204.49
352.68	1170.59
353.05	1263.24
353.41	1229.35
353.78	1297.14
354.14	1236.13
354.51	1242.91
354.88	1184.15
355.24	1181.89
355.61	1233.87
355.97	1260.98
356.34	1213.53
356.70	1204.49
357.07	1231.61
357.43	1211.27
357.80	1188.67
358.16	1276.80
358.53	1263.24
358.89	1229.35
359.26	1222.57
359.62	1206.75
359.99	1209.01
360.35	1249.68
360.72	1206.75
361.08	1186.41
361.45	1242.91
361.81	1236.13
362.18	1202.23
362.54	1231.61
362.91	1233.87
363.27	1249.68
363.63	1236.13
364.00	1242.91
364.36	1267.76
364.73	1260.98
365.09	1227.09
365.46	1270.02
365.82	1227.09
366.19	1231.61
366.55	1224.83
366.91	1231.61
367.28	1258.72
367.64	1258.72
368.01	1242.91
368.37	1247.42
368.74	1297.14
369.10	1283.58
369.46	1360.42
369.83	1224.83
370.19	1312.96
370.56	1303.92
370.92	1274.54
371.28	1310.70
371.65	1274.54
372.01	1308.44
372.38	1349.12
372.74	1283.58
373.10	1256.46
373.47	1326.52
373.83	1362.68
374.19	1312.96
374.56	1373.98
374.92	1317.48
375.29	1437.25
375.65	1367.20
376.01	1383.01
376.38	1353.64
376.74	1416.91
377.10	1444.03
377.47	1412.39
377.83	1473.41
378.19	1500.53
378.56	1457.59
378.92	1547.98
379.28	1586.40
379.65	1581.88
380.01	1656.45
380.37	1584.14
380.74	1670.01
381.10	1676.79
381.46	1778.48
381.83	1798.82
382.19	1841.76
382.55	1947.97
382.91	1945.71
383.28	2045.14
383.64	2137.80
384.00	2182.99
384.37	2357.00
384.73	2406.72
385.09	2569.42
385.45	2621.40
385.82	2795.41
386.18	2874.50
386.54	3236.07
386.91	3346.80
387.27	3633.80
387.63	3952.44
387.99	4223.62
388.36	4478.98
388.72	4878.97
389.08	5118.51
389.44	5452.96
389.80	5988.54
390.17	6146.73
390.53	6985.13
390.89	7536.52
391.25	7846.12
391.62	8433.68
391.98	9608.79
392.34	10499.16
392.70	10840.39
393.06	11803.08
393.43	12426.79
393.79	13466.31
394.15	14076.47
394.51	15242.54
394.87	16058.33
395.24	17362.26
395.60	19030.01
395.96	20327.15
396.32	21958.74
396.68	23337.24
397.04	25502.15
397.41	28051.24
397.77	29682.84
398.13	31822.89
398.49	33847.70
398.85	36647.62
399.21	39833.98
399.58	42629.39
399.94	45201.07
400.30	49228.08
400.66	50873.24
401.02	53761.30
401.38	55652.77
401.74	57514.87
402.11	59458.32
402.47	60895.57
402.83	61788.21
403.19	63356.53
403.55	64513.56
403.91	65535.00
404.27	65535.00
404.63	65535.00
404.99	65535.00
405.35	65535.00
405.72	65535.00
406.08	65535.00
406.44	65535.00
406.80	65535.00
407.16	65535.00
407.52	65535.00
407.88	65535.00
408.24	65535.00
408.60	65535.00
408.96	65535.00
409.32	65535.00
409.68	65535.00
410.04	65535.00
410.40	65535.00
410.76	65535.00
411.13	64350.85
411.49	63822.05
411.85	62188.20
412.21	60667.33
412.57	59521.60
412.93	58393.94
413.29	56416.60
413.65	54622.29
414.01	52434.78
414.37	50118.46
414.73	48509.46
415.09	46231.55
415.45	44642.89
415.81	42541.25
416.17	40017.03
416.53	38301.82
416.89	37004.68
417.25	35031.85
417.61	33144.89
417.97	32494.06
418.33	30692.98
418.69	29847.80
419.05	28702.07
419.41	27757.46
419.77	27391.37
420.12	25334.93
420.48	24035.53
420.84	23560.96
421.20	22236.70
421.56	21005.10
421.92	20736.18
422.28	19445.82
422.64	18559.96
423.00	17755.47
423.36	17271.86
423.72	15590.55
424.08	15043.67
424.44	13956.70
424.80	13552.19
425.16	13113.78
425.51	12257.30
425.87	11959.01
426.23	11016.66
426.59	10406.51
426.95	10325.15
427.31	9622.35
427.67	9457.38
428.03	8813.33
428.39	8524.07
428.74	8033.69
429.10	7565.90
429.46	7197.55
429.82	6937.67
430.18	6722.99
430.54	6433.73
430.90	6449.55
431.26	6047.30
431.61	5767.08
431.97	5785.16
432.33	5394.21
432.69	5292.52
433.05	5098.17
433.41	4878.97
433.76	4829.25
434.12	4576.15
434.48	4266.55
434.84	4225.88
435.20	4203.28
435.55	4078.99
435.91	3918.54
436.27	3798.77
436.63	3674.48
436.99	3577.31
437.34	3378.44
437.70	3401.04
438.06	3315.17
438.42	3064.33
438.78	2989.75
439.13	3003.31
439.49	2874.50
439.85	2849.64
440.21	2781.85
440.56	2686.94
440.92	2567.16
441.28	2553.61
441.64	2415.76
441.99	2352.48
442.35	2325.36
442.71	2298.24
443.07	2223.67
443.42	2266.61
443.78	2131.02
444.14	2234.97
444.50	2081.30
444.85	2008.99
445.21	1997.69
445.57	2070.00
445.93	1934.41
446.28	1943.45
446.64	1938.93
447.00	1934.41
447.35	1952.49
447.71	1938.93
448.07	1893.74
448.42	1789.78
448.78	1821.42
449.14	1776.22
449.49	1731.03
449.85	1670.01
450.21	1651.93
450.56	1557.02
450.92	1572.84
451.28	1593.18
451.63	1645.15
451.99	1606.74
452.35	1624.82
452.70	1660.97
453.06	1570.58
453.42	1602.22
453.77	1446.29
454.13	1561.54
454.49	1459.85
454.84	1527.64
455.20	1459.85
455.55	1468.89
455.91	1407.87
456.27	1425.95
456.62	1396.57
456.98	1383.01
457.33	1369.46
457.69	1387.53
458.05	1355.90
458.40	1446.29
458.76	1317.48
459.11	1423.69
459.47	1389.79
459.83	1387.53
460.18	1319.74
460.54	1315.22
460.89	1328.78
461.25	1322.00
461.60	1308.44
461.96	1301.66
462.31	1285.84
462.67	1324.26
463.03	1224.83
463.38	1288.10
463.74	1349.12
464.09	1303.92
464.45	1260.98
464.80	1265.50
465.16	1240.65
465.51	1292.62
465.87	1236.13
466.22	1242.91
466.58	1270.02
466.93	1213.53
467.29	1283.58
467.64	1294.88
468.00	1247.42
468.35	1247.42
468.71	1292.62
469.06	1312.96
469.42	1247.42
469.77	1279.06
470.13	1204.49
470.48	1227.09
470.84	1206.75
471.19	1224.83
471.54	1193.19
471.90	1184.15
472.25	1211.27
472.61	1224.83
472.96	1188.67
473.32	1195.45
473.67	1123.13
474.03	1154.77
474.38	1190.93
474.73	1231.61
475.09	1231.61
475.44	1240.65
475.80	1213.53
476.15	1254.20
476.50	1233.87
476.86	1218.05
477.21	1154.77
477.57	1211.27
477.92	1227.09
478.27	1213.53
478.63	1218.05
478.98	1236.13
479.34	1184.15
479.69	1175.11
480.04	1184.15
480.40	1190.93
480.75	1188.67
481.10	1222.57
481.46	1202.23
481.81	1181.89
482.16	1236.13
482.52	1163.81
482.87	1247.42
483.22	1195.45
483.58	1204.49
483.93	1197.71
484.28	1170.59
484.64	1154.77
484.99	1224.83
485.34	1188.67
485.70	1163.81
486.05	1227.09
486.40	1147.99
486.76	1145.73
487.11	1229.35
487.46	1181.89
487.81	1157.03
488.17	1114.10
488.52	1202.23
488.87	1154.77
489.23	1206.75
489.58	1190.93
489.93	1145.73
490.28	1141.21
490.64	1206.75
490.99	1199.97
491.34	1134.43
491.69	1168.33
492.05	1118.61
492.40	1093.76
492.75	1204.49
493.10	1150.25
493.46	1134.43
493.81	1134.43
494.16	1168.33
494.51	1172.85
494.86	1150.25
495.22	1127.65
495.57	1184.15
495.92	1143.47
496.27	1082.46
496.62	1157.03
496.98	1157.03
497.33	1116.35
497.68	1197.71
498.03	1170.59
498.38	1127.65
498.74	1111.84
499.09	1102.80
499.44	1127.65
499.79	1125.39
500.14	1143.47
500.49	1197.71
500.85	1116.35
501.20	1147.99
501.55	1172.85
501.90	1224.83
502.25	1141.21
502.60	1204.49
502.95	1125.39
503.30	1098.28
503.66	1181.89
504.01	1209.01
504.36	1147.99
504.71	1096.02
505.06	1186.41
505.41	1089.24
505.76	1105.06
506.11	1127.65
506.46	1161.55
506.82	1141.21
507.17	1168.33
507.52	1227.09
507.87	1224.83
508.22	1231.61
508.57	1283.58
508.92	1154.77
509.27	1215.79
509.62	1190.93
509.97	1245.16
510.32	1147.99
510.67	1138.95
511.02	1197.71
511.37	1197.71
511.72	1159.29
512.07	1179.63
512.42	1193.19
512.77	1157.03
513.12	1150.25
513.47	1202.23
513.82	1186.41
514.17	1179.63
514.52	1147.99
514.87	1220.31
515.22	1177.37
515.57	1186.41
515.92	1145.73
516.27	1204.49
516.62	1190.93
516.97	1229.35
517.32	1193.19
517.67	1220.31
518.02	1227.09
518.37	1179.63
518.72	1240.65
519.07	1209.01
519.42	1184.15
519.77	1186.41
520.12	1129.91
520.47	1202.23
520.82	1193.19
521.17	1145.73
521.52	1175.11
521.87	1154.77
522.22	1123.13
522.56	1229.35
522.91	1197.71
523.26	1147.99
523.61	1184.15
523.96	1186.41
524.31	1161.55
524.66	1209.01
525.01	1147.99
525.36	1218.05
525.71	1224.83
526.05	1231.61
526.40	1197.71
526.75	1199.97
527.10	1118.61
527.45	1186.41
527.80	1129.91
528.15	1186.41
528.49	1175.11
528.84	1220.31
529.19	1193.19
529.54	1193.19
529.89	1209.01
530.24	1152.51
530.58	1168.33
530.93	1188.67
531.28	1175.11
531.63	1184.15
531.98	1168.33
532.33	1147.99
532.67	1215.79
533.02	1184.15
533.37	1193.19
533.72	1152.51
534.07	1184.15
534.41	1213.53
534.76	1175.11
535.11	1254.20
535.46	1204.49
535.80	1199.97
536.15	1152.51
536.50	1141.21
536.85	1154.77
537.19	1159.29
537.54	1136.69
537.89	1181.89
538.24	1086.98
538.58	1157.03
538.93	1089.24
539.28	1179.63
539.63	1202.23
539.97	1204.49
540.32	1147.99
540.67	1195.45
541.01	1172.85
541.36	1251.94
541.71	1152.51
542.06	1213.53
542.40	1175.11
542.75	1132.17
543.10	1236.13
543.44	1150.25
543.79	1166.07
544.14	1172.85
544.48	1116.35
544.83	1175.11
545.18	1168.33
545.52	1152.51
545.87	1184.15
546.22	1190.93
546.56	1170.59
546.91	1159.29
547.25	1204.49
547.60	1186.41
547.95	1161.55
548.29	1197.71
548.64	1154.77
548.99	1120.87
549.33	1098.28
549.68	1222.57
550.02	1152.51
550.37	1109.58
550.72	1161.55
551.06	1172.85
551.41	1159.29
551.75	1211.27
552.10	1224.83
552.45	1129.91
552.79	1157.03
553.14	1116.35
553.48	1199.97
553.83	1102.80
554.17	1184.15
554.52	1222.57
554.87	1209.01
555.21	1116.35
555.56	1202.23
555.90	1159.29
556.25	1143.47
556.59	1204.49
556.94	1154.77
557.28	1172.85
557.63	1236.13
557.97	1193.19
558.32	1123.13
558.66	1242.91
559.01	1202.23
559.35	1199.97
559.70	1236.13
560.04	1168.33
560.39	1166.07
560.73	1107.32
561.08	1229.35
561.42	1195.45
561.77	1211.27
562.11	1184.15
562.46	1134.43
562.80	1224.83
563.14	1172.85
563.49	1222.57
563.83	1096.02
564.18	1150.25
564.52	1188.67
564.87	1150.25
565.21	1181.89
565.56	1206.75
565.90	1159.29
566.24	1147.99
566.59	1138.95
566.93	1175.11
567.28	1157.03
567.62	1222.57
567.96	1102.80
568.31	1175.11
568.65	1120.87
569.00	1120.87
569.34	1166.07
569.68	1134.43
570.03	1138.95
570.37	1195.45
570.71	1181.89
571.06	1172.85
571.40	1154.77
571.74	1136.69
572.09	1186.41
572.43	1114.10
572.78	1066.64
573.12	1152.51
573.46	1123.13
573.80	1044.04
574.15	1166.07
574.49	1127.65
574.83	1123.13
575.18	1206.75
575.52	1166.07
575.86	1105.06
576.21	1157.03
576.55	1150.25
576.89	1147.99
577.24	1179.63
577.58	1138.95
577.92	1125.39
578.26	1233.87
578.61	1120.87
578.95	1114.10
579.29	1134.43
579.63	1152.51
579.98	1143.47
580.32	1161.55
580.66	1093.76
581.00	1215.79
581.35	1211.27
581.69	1163.81
582.03	1143.47
582.37	1125.39
582.72	1186.41
583.06	1152.51
583.40	1102.80
583.74	1177.37
584.08	1150.25
584.43	1147.99
584.77	1080.20
585.11	1114.10
585.45	1125.39
585.79	1134.43
586.13	1143.47
586.48	1132.17
586.82	1129.91
587.16	1127.65
587.50	1195.45
587.84	1116.35
588.18	1157.03
588.53	1193.19
588.87	1175.11
589.21	1114.10
589.55	1215.79
589.89	1251.94
590.23	1129.91
590.57	1150.25
590.92	1166.07
591.26	1166.07
591.60	1107.32
591.94	1168.33
592.28	1141.21
592.62	1170.59
592.96	1143.47
593.30	1132.17
593.64	1132.17
593.98	1073.42
594.32	1116.35
594.67	1111.84
595.01	1152.51
595.35	1211.27
595.69	1143.47
596.03	1143.47
596.37	1073.42
596.71	1154.77
597.05	1136.69
597.39	1077.94
597.73	1134.43
598.07	1168.33
598.41	1075.68
598.75	1082.46
599.09	1080.20
599.43	1125.39
599.77	1138.95
600.11	1168.33
600.45	1084.72
600.79	1138.95
601.13	1157.03
601.47	1116.35
601.81	1125.39
602.15	1105.06
602.49	1084.72
602.83	1125.39
603.17	1150.25
603.51	1100.54
603.85	1150.25
604.19	1141.21
604.53	1116.35
604.87	1118.61
605.21	1086.98
605.55	1125.39
605.89	1138.95
606.23	1073.42
606.56	1120.87
606.90	1080.20
607.24	1075.68
607.58	1141.21
607.92	1143.47
608.26	1053.08
608.60	1147.99
608.94	1132.17
609.28	1118.61
609.62	1109.58
609.95	1120.87
610.29	1134.43
610.63	1188.67
610.97	1096.02
611.31	1179.63
611.65	1118.61
611.99	1084.72
612.33	1066.64
612.66	1109.58
613.00	1080.20
613.34	1073.42
613.68	1184.15
614.02	1066.64
614.36	1138.95
614.69	1141.21
615.03	1141.21
615.37	1129.91
615.71	1132.17
616.05	1157.03
616.38	1100.54
616.72	1080.20
617.06	1197.71
617.40	1129.91
617.74	1129.91
618.07	1048.56
618.41	1082.46
618.75	1118.61
619.09	1181.89
619.42	1086.98
619.76	1082.46
620.10	1141.21
620.44	1170.59
620.77	1202.23
621.11	1114.10
621.45	1147.99
621.79	1138.95
622.12	1120.87
622.46	1073.42
622.80	1123.13
623.13	1143.47
623.47	1050.82
623.81	1129.91
624.15	1102.80
624.48	1096.02
624.82	1143.47
625.16	1170.59
625.49	1102.80
625.83	1105.06
626.17	1211.27
626.50	1154.77
626.84	1143.47
627.18	1105.06
627.51	1132.17
627.85	1132.17
628.19	1132.17
628.52	1118.61
628.86	1166.07
629.20	1157.03
629.53	1138.95
629.87	1127.65
630.20	1170.59
630.54	1096.02
630.88	1118.61
631.21	1080.20
631.55	1141.21
631.89	1157.03
632.22	1138.95
632.56	1116.35
632.89	1161.55
633.23	1116.35
633.56	1143.47
633.90	1143.47
634.24	1114.10
634.57	1179.63
634.91	1193.19
635.24	1114.10
635.58	1077.94
635.91	1082.46
636.25	1105.06
636.58	1093.76
636.92	1111.84
637.26	1141.21
637.59	1120.87
637.93	1116.35
638.26	1053.08
638.60	1082.46
638.93	1168.33
639.27	1170.59
639.60	1118.61
639.94	1077.94
640.27	1062.12
640.61	1089.24
640.94	1175.11
641.28	1127.65
641.61	1152.51
641.94	1179.63
642.28	1109.58
642.61	1091.50
642.95	1161.55
643.28	1120.87
643.62	1134.43
643.95	1109.58
644.29	1193.19
644.62	1080.20
644.95	1132.17
645.29	1123.13
645.62	1093.76
645.96	1166.07
646.29	1188.67
646.63	1114.10
646.96	1147.99
647.29	1118.61
647.63	1102.80
647.96	1114.10
648.29	1111.84
648.63	1129.91
648.96	1166.07
649.30	1109.58
649.63	1116.35
649.96	1075.68
650.30	1152.51
650.63	1152.51
650.96	1055.34
651.30	1111.84
651.63	1143.47
651.96	1050.82
652.30	1143.47
652.63	1082.46
652.96	1046.30
653.30	1098.28
653.63	1127.65
653.96	1132.17
654.30	1096.02
654.63	1093.76
654.96	1161.55
655.29	1118.61
655.63	1175.11
655.96	1071.16
656.29	1075.68
656.63	1141.21
656.96	1082.46
657.29	1102.80
657.62	1071.16
657.96	1116.35
658.29	1123.13
658.62	1136.69
658.95	1084.72
659.29	1188.67
659.62	1100.54
659.95	1127.65
660.28	1093.76
660.61	1102.80
660.95	1120.87
661.28	1175.11
661.61	1125.39
661.94	1077.94
662.27	1159.29
662.61	1098.28
662.94	1098.28
663.27	1159.29
663.60	1138.95
663.93	1143.47
664.27	1105.06
664.60	1116.35
664.93	1098.28
665.26	1100.54
665.59	1062.12
665.92	1111.84
666.25	1125.39
666.59	1107.32
666.92	1120.87
667.25	1091.50
667.58	1120.87
667.91	1091.50
668.24	1168.33
668.57	1213.53
668.90	1120.87
669.23	1136.69
669.57	1114.10
669.90	1141.21
670.23	1150.25
670.56	1147.99
670.89	1147.99
671.22	1114.10
671.55	1100.54
671.88	1105.06
672.21	1143.47
672.54	1109.58
672.87	1111.84
673.20	1053.08
673.53	1077.94
673.86	1098.28
674.19	1152.51
674.52	1141.21
674.85	1105.06
675.18	1141.21
675.51	1068.90
675.84	1007.88
676.17	1127.65
676.50	1138.95
676.83	1071.16
677.16	1134.43
677.49	1116.35
677.82	1136.69
678.15	1188.67
678.48	1093.76
678.81	1129.91
679.14	1116.35
679.47	1118.61
679.80	1145.73
680.13	1172.85
680.46	1150.25
680.79	1075.68
681.12	1209.01
681.45	1111.84
681.78	1098.28
682.11	1105.06
682.44	1125.39
682.77	1134.43
683.09	1120.87
683.42	1143.47
683.75	1105.06
684.08	1125.39
684.41	1057.60
684.74	1186.41
685.07	1179.63
685.40	1116.35
685.72	1068.90
686.05	1109.58
686.38	1163.81
686.71	1134.43
687.04	1111.84
687.37	1073.42
687.70	1134.43
688.02	1181.89
688.35	1138.95
688.68	1184.15
689.01	1098.28
689.34	1134.43
689.67	1080.20
689.99	1166.07
690.32	1118.61
690.65	1096.02
690.98	1073.42
691.30	1096.02
691.63	1163.81
691.96	1184.15
692.29	1125.39
692.62	1062.12
692.94	1111.84
693.27	1109.58
693.60	1154.77
693.93	1123.13
694.25	1138.95
694.58	1075.68
694.91	1123.13
695.24	1132.17
695.56	1111.84
695.89	1150.25
696.22	1096.02
696.54	1118.61
696.87	1129.91
697.20	1116.35
697.53	1098.28
697.85	1039.52
698.18	1168.33
698.51	1086.98
698.83	1123.13
699.16	1091.50
699.49	1143.47
699.81	1129.91
700.14	1145.73
700.47	1136.69
700.79	1152.51
701.12	1125.39
701.45	1109.58
701.77	1161.55
702.10	1075.68
702.42	1114.10
702.75	1116.35
703.08	1089.24
703.40	1129.91
703.73	1175.11
704.05	1082.46
704.38	1136.69
704.71	1111.84
705.03	1111.84
705.36	1086.98
705.68	1120.87
706.01	1107.32
706.34	1125.39
706.66	1118.61
706.99	1068.90
707.31	1080.20
707.64	1134.43
707.96	1193.19
708.29	1107.32
708.61	1136.69
708.94	1093.76
709.26	1080.20
709.59	1177.37
709.92	1157.03
710.24	1107.32
710.57	1120.87
710.89	1134.43
711.22	1147.99
711.54	1147.99
711.87	1102.80
712.19	1170.59
712.51	1136.69
712.84	1120.87
713.16	1098.28
713.49	1082.46
713.81	1105.06
714.14	1073.42
714.46	1089.24
714.79	1127.65
715.11	1068.90
715.44	1141.21
715.76	1100.54
716.08	1089.24
716.41	1107.32
716.73	1059.86
717.06	1098.28
717.38	1175.11
717.70	1193.19
718.03	1186.41
718.35	1096.02
718.68	1134.43
719.00	1073.42
719.32	1136.69
719.65	1132.17
719.97	1080.20
720.29	1118.61
720.62	1138.95
720.94	1123.13
721.27	1116.35
721.59	1080.20
721.91	1068.90
722.24	1111.84
722.56	1098.28
722.88	1096.02
723.21	1147.99
723.53	1077.94
723.85	1116.35
724.17	1082.46
724.50	1048.56
724.82	1129.91
725.14	1143.47
725.47	1107.32
725.79	1100.54
726.11	1145.73
726.43	1125.39
726.76	1105.06
727.08	1093.76
727.40	1084.72
727.72	1150.25
728.05	1134.43
728.37	1116.35
728.69	1030.48
729.01	1134.43
729.34	1114.10
729.66	1080.20
729.98	1136.69
730.30	1080.20
730.62	1084.72
730.95	1062.12
731.27	1168.33
731.59	1134.43
731.91	1109.58
732.23	1147.99
732.56	1096.02
732.88	1075.68
733.20	1111.84
733.52	1120.87
733.84	1084.72
734.16	1080.20
734.49	1179.63
734.81	1141.21
735.13	1114.10
735.45	1175.11
735.77	1184.15
736.09	1116.35
736.41	1120.87
736.73	1147.99
737.06	1096.02
737.38	1129.91
737.70	1041.78
738.02	1111.84
738.34	1073.42
738.66	1123.13
738.98	1075.68
739.30	1150.25
739.62	1100.54
739.94	1071.16
740.26	1093.76
740.58	1125.39
740.90	1125.39
741.23	1102.80
741.55	1111.84
741.87	1109.58
742.19	1064.38
742.51	1071.16
742.83	1136.69
743.15	1084.72
743.47	1059.86
743.79	1039.52
744.11	1086.98
744.43	1190.93
744.75	1105.06
745.07	1075.68
745.39	1068.90
745.71	1136.69
746.03	1114.10
746.35	1150.25
746.67	1098.28
746.98	1082.46
747.30	1102.80
747.62	1066.64
747.94	1123.13
748.26	1098.28
748.58	1132.17
748.90	1068.90
749.22	1075.68
749.54	1129.91
749.86	1120.87
750.18	1102.80
750.50	1107.32
750.82	1102.80
751.13	1123.13
751.45	1120.87
751.77	1118.61
752.09	1114.10
752.41	1105.06
752.73	1118.61
753.05	1102.80
753.36	1080.20
753.68	1125.39
754.00	1064.38
754.32	1105.06
754.64	1141.21
754.96	1089.24
755.28	1098.28
755.59	1141.21
755.91	1143.47
756.23	1077.94
756.55	1089.24
756.87	1080.20
757.18	1098.28
757.50	1111.84
757.82	1091.50
758.14	1057.60
758.45	1053.08
758.77	1114.10
759.09	1059.86
759.41	1143.47
759.73	1096.02
760.04	1170.59
760.36	1102.80
760.68	1136.69
760.99	1120.87
761.31	1077.94
761.63	1055.34
761.95	1093.76
762.26	1082.46
762.58	1111.84
762.90	1114.10
763.21	1107.32
763.53	1125.39
763.85	1050.82
764.17	1157.03
764.48	1093.76
764.80	1075.68
765.12	1109.58
765.43	1064.38
765.75	1075.68
766.07	1107.32
766.38	1154.77
766.70	1100.54
767.01	1096.02
767.33	1114.10
767.65	1084.72
767.96	1055.34
768.28	1091.50
768.60	1086.98
768.91	1145.73
769.23	1134.43
769.54	1114.10
769.86	1109.58
770.18	1084.72
770.49	1143.47
770.81	1163.81
771.12	1134.43
771.44	1141.21
771.75	1161.55
772.07	1132.17
772.38	1080.20
772.70	1114.10
773.02	1150.25
773.33	1132.17
773.65	1109.58
773.96	1134.43
774.28	1098.28
774.59	1166.07
774.91	1114.10
775.22	1096.02
775.54	1111.84
775.85	1116.35
776.17	1127.65
776.48	1134.43
776.80	1118.61
777.11	1132.17
777.43	1125.39
777.74	1046.30
778.05	1064.38
778.37	1179.63
778.68	1118.61
779.00	1159.29
779.31	1129.91
779.63	1073.42
779.94	1172.85
780.26	1066.64
780.57	1091.50
780.88	1125.39
781.20	1086.98
781.51	1080.20
781.83	1096.02
782.14	1091.50
782.45	1075.68
782.77	1138.95
783.08	1059.86
783.39	1075.68
783.71	1098.28
784.02	1098.28
784.34	1116.35
784.65	1107.32
784.96	1091.50
785.28	1206.75
785.59	1152.51
785.90	1134.43
786.22	1111.84
786.53	1109.58
786.84	1084.72
787.15	1134.43
787.47	1044.04
787.78	1071.16
788.09	1111.84
788.41	1109.58
788.72	1168.33
789.03	1138.95
789.35	1096.02
789.66	1084.72
789.97	1129.91
790.28	1046.30
790.60	1071.16
790.91	1096.02
791.22	1089.24
791.53	1093.76
791.84	1107.32
792.16	1077.94
792.47	1096.02
792.78	1082.46
793.09	1071.16
793.41	1093.76
793.72	1118.61
794.03	1136.69
794.34	1091.50
794.65	1132.17
794.96	1172.85
795.28	1062.12
795.59	1150.25
795.90	1161.55
796.21	1118.61
796.52	1125.39
796.83	1057.60
797.15	1120.87
797.46	1071.16
797.77	1152.51
798.08	1073.42
798.39	1105.06
798.70	1086.98
799.01	1118.61
799.32	1116.35
799.63	1080.20
799.95	1118.61
800.26	1111.84
800.57	1118.61
800.88	1116.35
801.19	1127.65
801.50	1111.84
801.81	1093.76
802.12	1136.69
802.43	1093.76
802.74	1125.39
803.05	1086.98
803.36	1123.13
803.67	1109.58
803.98	1098.28
804.29	1077.94
804.60	1152.51
804.91	1114.10
805.22	1055.34
805.53	1116.35
805.84	1143.47
806.15	1120.87
806.46	1143.47
806.77	1044.04
807.08	1127.65
807.39	1111.84
807.70	1152.51
808.01	1098.28
808.32	1105.06
808.63	1141.21
808.94	1105.06
809.25	1107.32
809.56	1129.91
809.87	1064.38
810.18	1145.73
810.49	1091.50
810.79	1068.90
811.10	1096.02
811.41	1107.32
811.72	1114.10
812.03	1086.98
812.34	1107.32
812.65	1138.95
812.96	1118.61
813.27	1116.35
813.57	1111.84
813.88	1091.50
814.19	1091.50
814.50	1109.58
814.81	1111.84
815.12	1073.42
815.42	1123.13
815.73	1132.17
816.04	1154.77
816.35	1102.80
816.66	1127.65
816.97	1123.13
817.27	1134.43
817.58	1068.90
817.89	1050.82
818.20	1123.13
818.50	1109.58
818.81	1082.46
819.12	1050.82
819.43	1109.58
819.73	1100.54
820.04	1084.72
820.35	1098.28
820.66	1118.61
820.96	1118.61
821.27	1181.89
821.58	1134.43
821.89	1120.87
822.19	1136.69
822.50	1105.06
822.81	1143.47
823.11	1125.39
823.42	1100.54
823.73	1132.17
824.03	1150.25
824.34	1071.16
824.65	1157.03
824.95	1068.90
825.26	1123.13
825.57	1116.35
825.87	1096.02
826.18	1118.61
826.49	1168.33
826.79	1096.02
827.10	1136.69
827.40	1125.39
827.71	1132.17
828.02	1136.69
828.32	1086.98
828.63	1125.39
828.93	1059.86
829.24	1057.60
829.55	1141.21
829.85	1109.58
830.16	1075.68
830.46	1057.60
830.77	1032.74
831.07	1211.27
831.38	1118.61
831.69	1177.37
831.99	1141.21
832.30	1105.06
832.60	1123.13
832.91	1030.48
833.21	1109.58
833.52	1129.91
833.82	1138.95
834.13	1109.58
834.43	1044.04
834.74	1098.28
835.04	1138.95
835.35	1048.56
835.65	1111.84
835.96	1170.59
836.26	1107.32
836.56	1120.87
836.87	1064.38
837.17	1105.06
837.48	1055.34
837.78	1091.50
838.09	1096.02
838.39	1134.43
838.69	1086.98
839.00	1066.64
839.30	1055.34
839.61	1048.56
839.91	1136.69
840.21	1105.06
840.52	1120.87
840.82	1129.91
841.13	1105.06
841.43	1118.61
841.73	1053.08
842.04	1120.87
842.34	1170.59
842.64	1125.39
842.95	1100.54
843.25	1123.13
843.55	1161.55
843.86	1116.35
844.16	1016.92
844.46	1154.77
844.77	1118.61
845.07	1168.33
845.37	1062.12
845.68	1075.68
845.98	1089.24
846.28	1129.91
846.58	1071.16
846.89	1086.98
847.19	1064.38
847.49	1193.19
847.79	1129.91
848.10	1107.32
848.40	1132.17
848.70	1163.81
849.00	1082.46
849.31	1086.98
849.61	1089.24
849.91	1077.94
850.21	1086.98
850.51	1143.47
850.82	1123.13
851.12	1053.08
851.42	1100.54
851.72	1091.50
852.02	1080.20
852.32	1136.69
852.63	1091.50
852.93	1109.58
853.23	1068.90
853.53	1175.11
853.83	1091.50
854.13	1025.96
854.43	1075.68
854.74	1118.61
855.04	1152.51
855.34	1145.73
855.64	1154.77
855.94	1098.28
856.24	1141.21
856.54	1120.87
856.84	1105.06
857.14	1141.21
857.44	1059.86
857.74	1143.47
858.05	1089.24
858.35	1145.73
858.65	1105.06
858.95	1062.12
859.25	1071.16
859.55	1064.38
859.85	1116.35
860.15	1111.84
860.45	1086.98
860.75	1116.35
861.05	1100.54
861.35	1147.99
861.65	1159.29
861.95	1188.67
862.25	1107.32
862.55	1035.00
862.85	1120.87
863.15	1145.73
863.45	1098.28
863.75	1154.77
864.05	1064.38
864.35	1105.06
864.64	1159.29
864.94	1098.28
865.24	1091.50
865.54	1114.10
865.84	1134.43
866.14	1109.58
866.44	1105.06
866.74	1086.98
867.04	1143.47
867.34	1209.01
867.64	1152.51
867.93	1177.37
868.23	1082.46
868.53	1091.50
868.83	1073.42
869.13	1091.50
869.43	1141.21
869.73	1111.84
870.02	1150.25
870.32	1129.91
870.62	1134.43
870.92	1136.69
871.22	1166.07
871.51	1166.07
871.81	1089.24
872.11	1123.13
872.41	1116.35
872.71	1080.20
873.00	1111.84
873.30	1150.25
873.60	1157.03
873.90	1116.35
874.19	1068.90
874.49	1057.60
874.79	1098.28
875.09	1177.37
875.38	1100.54
875.68	1109.58
875.98	1105.06
876.28	1089.24
876.57	1091.50
876.87	1091.50
877.17	1091.50
