174.03	802.24
174.41	802.24
174.78	802.24
175.16	793.20
175.54	793.20
175.92	813.54
176.30	763.82
176.67	820.32
177.05	827.10
177.43	858.73
177.81	829.36
178.19	827.10
178.56	840.66
178.94	924.27
179.32	872.29
179.70	892.63
180.08	994.32
180.45	989.80
180.83	994.32
181.21	1062.12
181.59	1023.70
181.96	1010.14
182.34	998.84
182.72	1114.10
183.10	1127.65
183.48	1150.25
183.85	1082.46
184.23	1114.10
184.61	1098.28
184.99	1098.28
185.36	1093.76
185.74	1136.69
186.12	1141.21
186.50	1195.45
186.87	1168.33
187.25	1170.59
187.63	1204.49
188.01	1193.19
188.38	1195.45
188.76	1186.41
189.14	1186.41
189.52	1211.27
189.89	1125.39
190.27	1195.45
190.65	1157.03
191.02	1084.72
191.40	1168.33
191.78	1224.83
192.16	1172.85
192.53	1202.23
192.91	1111.84
193.29	1129.91
193.66	1186.41
194.04	1129.91
194.42	1150.25
194.79	1127.65
195.17	1123.13
195.55	1143.47
195.93	1188.67
196.30	1159.29
196.68	1186.41
197.06	1143.47
197.43	1177.37
197.81	1136.69
198.19	1184.15
198.56	1168.33
198.94	1177.37
199.32	1145.73
199.69	1177.37
200.07	1181.89
200.45	1134.43
200.82	1147.99
201.20	1147.99
201.58	1179.63
201.95	1159.29
202.33	1125.39
202.71	1145.73
203.08	1199.97
203.46	1211.27
203.84	1195.45
204.21	1175.11
204.59	1141.21
204.96	1175.11
205.34	1118.61
205.72	1199.97
206.09	1170.59
206.47	1157.03
206.85	1138.95
207.22	1159.29
207.60	1190.93
207.97	1098.28
208.35	1238.39
208.73	1170.59
209.10	1145.73
209.48	1159.29
209.85	1084.72
210.23	1136.69
210.61	1138.95
210.98	1068.90
211.36	1159.29
211.73	1179.63
212.11	1166.07
212.49	1109.58
212.86	1215.79
213.24	1125.39
213.61	1186.41
213.99	1159.29
214.37	1199.97
214.74	1163.81
215.12	1159.29
215.49	1134.43
215.87	1114.10
216.24	1127.65
216.62	1089.24
216.99	1233.87
217.37	1202.23
217.75	1193.19
218.12	1218.05
218.50	1152.51
218.87	1215.79
219.25	1202.23
219.62	1166.07
220.00	1132.17
220.37	1188.67
220.75	1186.41
221.12	1186.41
221.50	1204.49
221.87	1177.37
222.25	1224.83
222.63	1231.61
223.00	1175.11
223.38	1213.53
223.75	1109.58
224.13	1159.29
224.50	1166.07
224.88	1147.99
225.25	1145.73
225.63	1134.43
226.00	1136.69
226.38	1193.19
226.75	1236.13
227.13	1168.33
227.50	1172.85
227.88	1163.81
228.25	1109.58
228.63	1197.71
229.00	1197.71
229.37	1186.41
229.75	1166.07
230.12	1206.75
230.50	1159.29
230.87	1166.07
231.25	1224.83
231.62	1161.55
232.00	1170.59
232.37	1147.99
232.75	1168.33
233.12	1206.75
233.50	1193.19
233.87	1147.99
234.24	1186.41
234.62	1138.95
234.99	1175.11
235.37	1134.43
235.74	1168.33
236.12	1188.67
236.49	1116.35
236.86	1123.13
237.24	1145.73
237.61	1098.28
237.99	1175.11
238.36	1231.61
238.74	1211.27
239.11	1154.77
239.48	1145.73
239.86	1168.33
240.23	1129.91
240.61	1188.67
240.98	1188.67
241.35	1190.93
241.73	1218.05
242.10	1096.02
242.48	1181.89
242.85	1184.15
243.22	1172.85
243.60	1209.01
243.97	1138.95
244.34	1193.19
244.72	1238.39
245.09	1222.57
245.47	1168.33
245.84	1138.95
246.21	1177.37
246.59	1168.33
246.96	1218.05
247.33	1145.73
247.71	1204.49
248.08	1143.47
248.45	1179.63
248.83	1175.11
249.20	1141.21
249.57	1172.85
249.95	1211.27
250.32	1125.39
250.69	1150.25
251.07	1147.99
251.44	1154.77
251.81	1186.41
252.19	1213.53
252.56	1157.03
252.93	1089.24
253.31	1233.87
253.68	1190.93
254.05	1172.85
254.43	1145.73
254.80	1179.63
255.17	1218.05
255.55	1204.49
255.92	1159.29
256.29	1134.43
256.66	1150.25
257.04	1181.89
257.41	1111.84
257.78	1166.07
258.16	1204.49
258.53	1143.47
258.90	1197.71
259.27	1147.99
259.65	1143.47
260.02	1145.73
260.39	1231.61
260.76	1141.21
261.14	1154.77
261.51	1132.17
261.88	1211.27
262.25	1193.19
262.63	1163.81
263.00	1229.35
263.37	1170.59
263.74	1100.54
264.12	1195.45
264.49	1222.57
264.86	1202.23
265.23	1195.45
265.61	1224.83
265.98	1134.43
266.35	1150.25
266.72	1134.43
267.09	1206.75
267.47	1195.45
267.84	1170.59
268.21	1204.49
268.58	1168.33
268.95	1175.11
269.33	1181.89
269.70	1168.33
270.07	1179.63
270.44	1229.35
270.81	1154.77
271.19	1179.63
271.56	1199.97
271.93	1152.51
272.30	1161.55
272.67	1143.47
273.05	1172.85
273.42	1206.75
273.79	1186.41
274.16	1227.09
274.53	1288.10
274.90	1209.01
275.28	1175.11
275.65	1202.23
276.02	1202.23
276.39	1224.83
276.76	1188.67
277.13	1154.77
277.50	1168.33
277.88	1197.71
278.25	1224.83
278.62	1215.79
278.99	1186.41
279.36	1193.19
279.73	1213.53
280.10	1179.63
280.47	1179.63
280.85	1193.19
281.22	1202.23
281.59	1233.87
281.96	1267.76
282.33	1184.15
282.70	1188.67
283.07	1224.83
283.44	1195.45
283.81	1170.59
284.18	1220.31
284.56	1209.01
284.93	1211.27
285.30	1161.55
285.67	1204.49
286.04	1188.67
286.41	1188.67
286.78	1138.95
287.15	1218.05
287.52	1206.75
287.89	1193.19
288.26	1265.50
288.63	1195.45
289.00	1206.75
289.37	1242.91
289.75	1145.73
290.12	1188.67
290.49	1177.37
290.86	1215.79
291.23	1197.71
291.60	1143.47
291.97	1224.83
292.34	1199.97
292.71	1209.01
293.08	1143.47
293.45	1245.16
293.82	1184.15
294.19	1163.81
294.56	1283.58
294.93	1227.09
295.30	1238.39
295.67	1154.77
296.04	1136.69
296.41	1204.49
296.78	1147.99
297.15	1181.89
297.52	1231.61
297.89	1154.77
298.26	1249.68
298.63	1224.83
299.00	1245.16
299.37	1213.53
299.74	1215.79
300.11	1186.41
300.48	1195.45
300.85	1202.23
301.22	1220.31
301.59	1170.59
301.96	1199.97
302.33	1184.15
302.70	1168.33
303.07	1166.07
303.43	1197.71
303.80	1127.65
304.17	1231.61
304.54	1213.53
304.91	1150.25
305.28	1157.03
305.65	1251.94
306.02	1242.91
306.39	1209.01
306.76	1209.01
307.13	1190.93
307.50	1166.07
307.87	1227.09
308.24	1211.27
308.60	1283.58
308.97	1218.05
309.34	1233.87
309.71	1186.41
310.08	1190.93
310.45	1222.57
310.82	1240.65
311.19	1215.79
311.56	1188.67
311.92	1202.23
312.29	1238.39
312.66	1195.45
313.03	1175.11
313.40	1184.15
313.77	1251.94
314.14	1193.19
314.51	1213.53
314.87	1231.61
315.24	1170.59
315.61	1236.13
315.98	1222.57
316.35	1306.18
316.72	1195.45
317.09	1222.57
317.45	1184.15
317.82	1238.39
318.19	1222.57
318.56	1154.77
318.93	1209.01
319.30	1240.65
319.66	1222.57
320.03	1231.61
320.40	1227.09
320.77	1190.93
321.14	1168.33
321.50	1181.89
321.87	1247.42
322.24	1190.93
322.61	1236.13
322.98	1279.06
323.34	1272.28
323.71	1204.49
324.08	1186.41
324.45	1193.19
324.82	1190.93
325.18	1195.45
325.55	1186.41
325.92	1247.42
326.29	1222.57
326.65	1186.41
327.02	1229.35
327.39	1145.73
327.76	1281.32
328.12	1213.53
328.49	1227.09
328.86	1258.72
329.23	1152.51
329.59	1242.91
329.96	1206.75
330.33	1179.63
330.70	1258.72
331.06	1197.71
331.43	1238.39
331.80	1147.99
332.17	1251.94
332.53	1303.92
332.90	1227.09
333.27	1199.97
333.63	1193.19
334.00	1245.16
334.37	1242.91
334.74	1251.94
335.10	1315.22
335.47	1270.02
335.84	1285.84
336.20	1215.79
336.57	1231.61
336.94	1209.01
337.30	1197.71
337.67	1204.49
338.04	1215.79
338.40	1202.23
338.77	1258.72
339.14	1197.71
339.50	1263.24
339.87	1202.23
340.24	1249.68
340.60	1260.98
340.97	1251.94
341.34	1236.13
341.70	1195.45
342.07	1247.42
342.44	1227.09
342.80	1301.66
343.17	1294.88
343.53	1249.68
343.90	1236.13
344.27	1283.58
344.63	1204.49
345.00	1202.23
345.37	1177.37
345.73	1267.76
346.10	1247.42
346.46	1276.80
346.83	1240.65
347.20	1256.46
347.56	1281.32
347.93	1267.76
348.29	1260.98
348.66	1202.23
349.03	1260.98
349.39	1315.22
349.76	1186.41
350.12	1297.14
350.49	1283.58
350.85	1213.53
351.22	1256.46
351.59	1251.94
351.95	1290.36
352.32	1274.54
352.68	1258.72
353.05	1276.80
353.41	1294.88
353.78	1222.57
354.14	1288.10
354.51	1265.50
354.88	1188.67
355.24	1281.32
355.61	1218.05
355.97	1260.98
356.34	1294.88
356.70	1274.54
357.07	1308.44
357.43	1383.01
357.80	1231.61
358.16	1251.94
358.53	1236.13
358.89	1222.57
359.26	1306.18
359.62	1267.76
359.99	1337.82
360.35	1315.22
360.72	1292.62
361.08	1290.36
361.45	1326.52
361.81	1306.18
362.18	1301.66
362.54	1308.44
362.91	1288.10
363.27	1306.18
363.63	1308.44
364.00	1317.48
364.36	1342.34
364.73	1360.42
365.09	1360.42
365.46	1405.61
365.82	1301.66
366.19	1317.48
366.55	1312.96
366.91	1441.77
367.28	1315.22
367.64	1283.58
368.01	1353.64
368.37	1315.22
368.74	1319.74
369.10	1392.05
369.46	1322.00
369.83	1401.09
370.19	1407.87
370.56	1371.72
370.92	1360.42
371.28	1306.18
371.65	1355.90
372.01	1421.43
372.38	1434.99
372.74	1351.38
373.10	1421.43
373.47	1401.09
373.83	1360.42
374.19	1480.19
374.56	1421.43
374.92	1434.99
375.29	1398.83
375.65	1398.83
376.01	1509.56
376.38	1434.99
376.74	1500.53
377.10	1507.30
377.47	1577.36
377.83	1459.85
378.19	1593.18
378.56	1496.01
378.92	1636.12
379.28	1636.12
379.65	1645.15
380.01	1597.70
380.37	1660.97
380.74	1724.25
381.10	1767.19
381.46	1764.93
381.83	1844.02
382.19	1850.80
382.55	1957.01
382.91	1993.17
383.28	2124.24
383.64	2232.71
384.00	2361.52
384.37	2381.86
384.73	2474.51
385.09	2680.16
385.45	2777.33
385.82	2865.46
386.18	3095.96
386.54	3258.67
386.91	3453.02
387.27	3681.26
387.63	3846.23
387.99	4101.59
388.36	4515.14
388.72	4784.06
389.08	5123.03
389.44	5728.66
389.80	5956.91
390.17	6338.82
390.53	6967.05
390.89	7647.26
391.25	7950.07
391.62	8738.75
391.98	9559.07
392.34	10573.73
392.70	10985.02
393.06	11723.99
393.43	12483.29
393.79	13351.06
394.15	14207.54
394.51	15068.53
394.87	16379.23
395.24	17579.20
395.60	18898.94
395.96	20426.58
396.32	21967.78
396.68	23551.92
397.04	25513.45
397.41	27495.32
397.77	29540.47
398.13	32304.24
398.49	33526.80
398.85	36249.89
399.21	40035.11
399.58	42889.27
399.94	45135.54
400.30	49232.60
400.66	50593.02
401.02	53657.35
401.38	55458.43
401.74	57431.26
402.11	59306.92
402.47	60680.89
402.83	61813.06
403.19	63451.44
403.55	64741.80
403.91	65535.00
404.27	65535.00
404.63	65535.00
404.99	65535.00
405.35	65535.00
405.72	65535.00
406.08	65535.00
406.44	65535.00
406.80	65535.00
407.16	65535.00
407.52	65535.00
407.88	65535.00
408.24	65535.00
408.60	65535.00
408.96	65535.00
409.32	65535.00
409.68	65535.00
410.04	65535.00
410.40	65535.00
410.76	65535.00
411.13	64377.97
411.49	63602.85
411.85	62111.36
412.21	60579.20
412.57	59541.94
412.93	58382.65
413.29	56622.24
413.65	54640.37
414.01	52687.88
414.37	50145.57
414.73	48764.82
415.09	46608.94
415.45	44421.43
415.81	42855.37
416.17	39847.54
416.53	38611.41
416.89	36979.82
417.25	35334.66
417.61	32704.22
417.97	32480.50
418.33	30839.87
418.69	29920.12
419.05	28611.68
419.41	28085.14
419.77	27210.58
420.12	25242.27
420.48	23979.03
420.84	23610.68
421.20	22286.42
421.56	20975.72
421.92	20733.92
422.28	19486.49
422.64	18282.01
423.00	17773.54
423.36	17167.91
423.72	16198.44
424.08	14849.33
424.44	14175.90
424.80	13708.11
425.16	12969.15
425.51	12250.53
425.87	12300.24
426.23	11073.16
426.59	10526.28
426.95	10318.37
427.31	9800.87
427.67	9441.56
428.03	8666.44
428.39	8632.54
428.74	7988.49
429.10	7559.12
429.46	7360.26
429.82	6948.97
430.18	6752.36
430.54	6445.03
430.90	6406.61
431.26	5993.06
431.61	5758.04
431.97	5710.58
432.33	5593.07
432.69	5371.61
433.05	5023.60
433.41	4849.59
433.76	4867.67
434.12	4598.75
434.48	4402.14
434.84	4187.46
435.20	4329.83
435.55	4137.74
435.91	3929.84
436.27	3850.75
436.63	3685.78
436.99	3604.42
437.34	3468.84
437.70	3394.26
438.06	3269.97
438.42	3161.50
438.78	3116.30
439.13	3129.86
439.49	2967.15
439.85	2874.50
440.21	2759.25
440.56	2763.77
440.92	2621.40
441.28	2528.75
441.64	2535.53
441.99	2458.69
442.35	2472.25
442.71	2388.64
443.07	2431.57
443.42	2185.25
443.78	2221.41
444.14	2205.59
444.50	2171.69
444.85	2085.82
445.21	2178.47
445.57	2094.86
445.93	2033.84
446.28	2015.77
446.64	1943.45
447.00	1927.63
447.35	2002.21
447.71	1889.22
448.07	1893.74
448.42	1864.36
448.78	1828.20
449.14	1819.16
449.49	1746.85
449.85	1798.82
450.21	1740.07
450.56	1656.45
450.92	1710.69
451.28	1618.04
451.63	1694.87
451.99	1624.82
452.35	1597.70
452.70	1570.58
453.06	1615.78
453.42	1550.24
453.77	1581.88
454.13	1536.68
454.49	1514.08
454.84	1516.34
455.20	1428.21
455.55	1486.97
455.91	1477.93
456.27	1405.61
456.62	1484.71
456.98	1446.29
457.33	1421.43
457.69	1477.93
458.05	1444.03
458.40	1455.33
458.76	1405.61
459.11	1405.61
459.47	1376.24
459.83	1423.69
460.18	1407.87
460.54	1428.21
460.89	1340.08
461.25	1349.12
461.60	1412.39
461.96	1319.74
462.31	1335.56
462.67	1328.78
463.03	1351.38
463.38	1340.08
463.74	1349.12
464.09	1324.26
464.45	1333.30
464.80	1322.00
465.16	1315.22
465.51	1335.56
465.87	1369.46
466.22	1303.92
466.58	1317.48
466.93	1324.26
467.29	1335.56
467.64	1276.80
468.00	1335.56
468.35	1360.42
468.71	1290.36
469.06	1301.66
469.42	1270.02
469.77	1346.86
470.13	1294.88
470.48	1337.82
470.84	1285.84
471.19	1299.40
471.54	1199.97
471.90	1312.96
472.25	1292.62
472.61	1285.84
472.96	1301.66
473.32	1231.61
473.67	1272.28
474.03	1249.68
474.38	1331.04
474.73	1256.46
475.09	1224.83
475.44	1260.98
475.80	1204.49
476.15	1229.35
476.50	1211.27
476.86	1260.98
477.21	1279.06
477.57	1254.20
477.92	1254.20
478.27	1312.96
478.63	1224.83
478.98	1233.87
479.34	1222.57
479.69	1179.63
480.04	1204.49
480.40	1270.02
480.75	1190.93
481.10	1247.42
481.46	1315.22
481.81	1331.04
482.16	1211.27
482.52	1265.50
482.87	1206.75
483.22	1274.54
483.58	1184.15
483.93	1218.05
484.28	1245.16
484.64	1236.13
484.99	1231.61
485.34	1251.94
485.70	1258.72
486.05	1231.61
486.40	1260.98
486.76	1229.35
487.11	1260.98
487.46	1215.79
487.81	1247.42
488.17	1224.83
488.52	1267.76
488.87	1319.74
489.23	1285.84
489.58	1218.05
489.93	1245.16
490.28	1150.25
490.64	1159.29
490.99	1231.61
491.34	1224.83
491.69	1231.61
492.05	1247.42
492.40	1272.28
492.75	1249.68
493.10	1193.19
493.46	1249.68
493.81	1288.10
494.16	1276.80
494.51	1209.01
494.86	1249.68
495.22	1249.68
495.57	1170.59
495.92	1229.35
496.27	1279.06
496.62	1222.57
496.98	1294.88
497.33	1290.36
497.68	1159.29
498.03	1181.89
498.38	1206.75
498.74	1215.79
499.09	1197.71
499.44	1288.10
499.79	1308.44
500.14	1254.20
500.49	1227.09
500.85	1181.89
501.20	1292.62
501.55	1218.05
501.90	1254.20
502.25	1206.75
502.60	1229.35
502.95	1172.85
503.30	1229.35
503.66	1281.32
504.01	1285.84
504.36	1240.65
504.71	1172.85
505.06	1220.31
505.41	1206.75
505.76	1227.09
506.11	1229.35
506.46	1274.54
506.82	1247.42
507.17	1211.27
507.52	1204.49
507.87	1294.88
508.22	1229.35
508.57	1233.87
508.92	1224.83
509.27	1227.09
509.62	1256.46
509.97	1267.76
510.32	1270.02
510.67	1213.53
511.02	1249.68
511.37	1297.14
511.72	1206.75
512.07	1188.67
512.42	1233.87
512.77	1247.42
513.12	1294.88
513.47	1292.62
513.82	1157.03
514.17	1274.54
514.52	1233.87
514.87	1258.72
515.22	1245.16
515.57	1258.72
515.92	1342.34
516.27	1283.58
516.62	1288.10
516.97	1306.18
517.32	1283.58
517.67	1222.57
518.02	1231.61
518.37	1272.28
518.72	1254.20
519.07	1288.10
519.42	1256.46
519.77	1215.79
520.12	1218.05
520.47	1233.87
520.82	1337.82
521.17	1294.88
521.52	1247.42
521.87	1270.02
522.22	1322.00
522.56	1355.90
522.91	1272.28
523.26	1242.91
523.61	1319.74
523.96	1396.57
524.31	1319.74
524.66	1303.92
525.01	1299.40
525.36	1206.75
525.71	1297.14
526.05	1322.00
526.40	1344.60
526.75	1294.88
527.10	1319.74
527.45	1331.04
527.80	1285.84
528.15	1319.74
528.49	1249.68
528.84	1285.84
529.19	1233.87
529.54	1376.24
529.89	1288.10
530.24	1373.98
530.58	1344.60
530.93	1267.76
531.28	1349.12
531.63	1355.90
531.98	1324.26
532.33	1279.06
532.67	1283.58
533.02	1274.54
533.37	1328.78
533.72	1337.82
534.07	1346.86
534.41	1351.38
534.76	1394.31
535.11	1290.36
535.46	1290.36
535.80	1383.01
536.15	1369.46
536.50	1294.88
536.85	1405.61
537.19	1360.42
537.54	1306.18
537.89	1369.46
538.24	1333.30
538.58	1373.98
538.93	1333.30
539.28	1448.55
539.63	1301.66
539.97	1360.42
540.32	1317.48
540.67	1340.08
541.01	1301.66
541.36	1249.68
541.71	1419.17
542.06	1353.64
542.40	1290.36
542.75	1328.78
543.10	1362.68
543.44	1335.56
543.79	1355.90
544.14	1324.26
544.48	1322.00
544.83	1283.58
545.18	1360.42
545.52	1340.08
545.87	1344.60
546.22	1398.83
546.56	1380.75
546.91	1319.74
547.25	1294.88
547.60	1358.16
547.95	1364.94
548.29	1319.74
548.64	1349.12
548.99	1290.36
549.33	1263.24
549.68	1301.66
550.02	1335.56
550.37	1392.05
550.72	1303.92
551.06	1322.00
551.41	1288.10
551.75	1328.78
552.10	1362.68
552.45	1281.32
552.79	1281.32
553.14	1292.62
553.48	1279.06
553.83	1276.80
554.17	1322.00
554.52	1335.56
554.87	1367.20
555.21	1306.18
555.56	1342.34
555.90	1294.88
556.25	1317.48
556.59	1346.86
556.94	1324.26
557.28	1337.82
557.63	1281.32
557.97	1297.14
558.32	1297.14
558.66	1260.98
559.01	1317.48
559.35	1292.62
559.70	1322.00
560.04	1412.39
560.39	1299.40
560.73	1310.70
561.08	1301.66
561.42	1308.44
561.77	1317.48
562.11	1301.66
562.46	1251.94
562.80	1256.46
563.14	1276.80
563.49	1331.04
563.83	1306.18
564.18	1247.42
564.52	1306.18
564.87	1288.10
565.21	1353.64
565.56	1306.18
565.90	1272.28
566.24	1312.96
566.59	1299.40
566.93	1279.06
567.28	1335.56
567.62	1308.44
567.96	1310.70
568.31	1283.58
568.65	1306.18
569.00	1333.30
569.34	1328.78
569.68	1303.92
570.03	1294.88
570.37	1342.34
570.71	1328.78
571.06	1337.82
571.40	1301.66
571.74	1272.28
572.09	1319.74
572.43	1283.58
572.78	1270.02
573.12	1270.02
573.46	1276.80
573.80	1233.87
574.15	1315.22
574.49	1310.70
574.83	1288.10
575.18	1364.94
575.52	1299.40
575.86	1247.42
576.21	1231.61
576.55	1260.98
576.89	1315.22
577.24	1251.94
577.58	1245.16
577.92	1283.58
578.26	1288.10
578.61	1251.94
578.95	1274.54
579.29	1267.76
579.63	1292.62
579.98	1301.66
580.32	1351.38
580.66	1294.88
581.00	1272.28
581.35	1251.94
581.69	1299.40
582.03	1249.68
582.37	1288.10
582.72	1258.72
583.06	1233.87
583.40	1249.68
583.74	1242.91
584.08	1256.46
584.43	1258.72
584.77	1204.49
585.11	1240.65
585.45	1328.78
585.79	1222.57
586.13	1224.83
586.48	1272.28
586.82	1333.30
587.16	1276.80
587.50	1227.09
587.84	1294.88
588.18	1258.72
588.53	1218.05
588.87	1308.44
589.21	1202.23
589.55	1211.27
589.89	1247.42
590.23	1224.83
590.57	1247.42
590.92	1310.70
591.26	1247.42
591.60	1213.53
591.94	1186.41
592.28	1222.57
592.62	1303.92
592.96	1233.87
593.30	1236.13
593.64	1283.58
593.98	1263.24
594.32	1281.32
594.67	1254.20
595.01	1272.28
595.35	1299.40
595.69	1231.61
596.03	1249.68
596.37	1247.42
596.71	1279.06
597.05	1254.20
597.39	1195.45
597.73	1245.16
598.07	1184.15
598.41	1227.09
598.75	1256.46
599.09	1197.71
599.43	1256.46
599.77	1256.46
600.11	1279.06
600.45	1199.97
600.79	1229.35
601.13	1220.31
601.47	1258.72
601.81	1283.58
602.15	1256.46
602.49	1186.41
602.83	1220.31
603.17	1114.10
603.51	1220.31
603.85	1206.75
604.19	1202.23
604.53	1233.87
604.87	1220.31
605.21	1213.53
605.55	1179.63
605.89	1157.03
606.23	1222.57
606.56	1236.13
606.90	1195.45
607.24	1236.13
607.58	1224.83
607.92	1218.05
608.26	1224.83
608.60	1209.01
608.94	1231.61
609.28	1267.76
609.62	1270.02
609.95	1288.10
610.29	1270.02
610.63	1177.37
610.97	1199.97
611.31	1199.97
611.65	1229.35
611.99	1197.71
612.33	1242.91
612.66	1170.59
613.00	1190.93
613.34	1256.46
613.68	1238.39
614.02	1220.31
614.36	1267.76
614.69	1202.23
615.03	1285.84
615.37	1157.03
615.71	1181.89
616.05	1199.97
616.38	1209.01
616.72	1247.42
617.06	1227.09
617.40	1218.05
617.74	1209.01
618.07	1188.67
618.41	1267.76
618.75	1240.65
619.09	1186.41
619.42	1233.87
619.76	1247.42
620.10	1175.11
620.44	1152.51
620.77	1145.73
621.11	1236.13
621.45	1202.23
621.79	1265.50
622.12	1206.75
622.46	1258.72
622.80	1206.75
623.13	1222.57
623.47	1138.95
623.81	1227.09
624.15	1172.85
624.48	1238.39
624.82	1303.92
625.16	1190.93
625.49	1184.15
625.83	1213.53
626.17	1134.43
626.50	1247.42
626.84	1166.07
627.18	1231.61
627.51	1224.83
627.85	1238.39
628.19	1181.89
628.52	1220.31
628.86	1247.42
629.20	1184.15
629.53	1209.01
629.87	1170.59
630.20	1218.05
630.54	1179.63
630.88	1161.55
631.21	1163.81
631.55	1233.87
631.89	1204.49
632.22	1249.68
632.56	1211.27
632.89	1218.05
633.23	1193.19
633.56	1233.87
633.90	1204.49
634.24	1190.93
634.57	1159.29
634.91	1172.85
635.24	1195.45
635.58	1220.31
635.91	1179.63
636.25	1193.19
636.58	1175.11
636.92	1233.87
637.26	1181.89
637.59	1213.53
637.93	1193.19
638.26	1184.15
638.60	1190.93
638.93	1199.97
639.27	1157.03
639.60	1150.25
639.94	1209.01
640.27	1134.43
640.61	1213.53
640.94	1175.11
641.28	1166.07
641.61	1193.19
641.94	1143.47
642.28	1184.15
642.61	1138.95
642.95	1204.49
643.28	1240.65
643.62	1188.67
643.95	1224.83
644.29	1177.37
644.62	1177.37
644.95	1186.41
645.29	1199.97
645.62	1224.83
645.96	1220.31
646.29	1272.28
646.63	1195.45
646.96	1184.15
647.29	1190.93
647.63	1125.39
647.96	1229.35
648.29	1206.75
648.63	1256.46
648.96	1213.53
649.30	1161.55
649.63	1141.21
649.96	1132.17
650.30	1213.53
650.63	1197.71
650.96	1222.57
651.30	1141.21
651.63	1197.71
651.96	1168.33
652.30	1172.85
652.63	1193.19
652.96	1168.33
653.30	1172.85
653.63	1199.97
653.96	1193.19
654.30	1220.31
654.63	1211.27
654.96	1224.83
655.29	1209.01
655.63	1186.41
655.96	1166.07
656.29	1147.99
656.63	1166.07
656.96	1145.73
657.29	1166.07
657.62	1186.41
657.96	1190.93
658.29	1215.79
658.62	1179.63
658.95	1195.45
659.29	1132.17
659.62	1236.13
659.95	1177.37
660.28	1186.41
660.61	1161.55
660.95	1197.71
661.28	1184.15
661.61	1245.16
661.94	1184.15
662.27	1204.49
662.61	1170.59
662.94	1199.97
663.27	1206.75
663.60	1161.55
663.93	1179.63
664.27	1195.45
664.60	1209.01
664.93	1154.77
665.26	1215.79
665.59	1157.03
665.92	1172.85
666.25	1204.49
666.59	1163.81
666.92	1197.71
667.25	1175.11
667.58	1147.99
667.91	1145.73
668.24	1172.85
668.57	1218.05
668.90	1233.87
669.23	1199.97
669.57	1168.33
669.90	1238.39
670.23	1161.55
670.56	1193.19
670.89	1184.15
671.22	1224.83
671.55	1184.15
671.88	1129.91
672.21	1199.97
672.54	1179.63
672.87	1134.43
673.20	1154.77
673.53	1138.95
673.86	1100.54
674.19	1138.95
674.52	1170.59
674.85	1177.37
675.18	1116.35
675.51	1184.15
675.84	1138.95
676.17	1233.87
676.50	1206.75
676.83	1152.51
677.16	1238.39
677.49	1229.35
677.82	1193.19
678.15	1114.10
678.48	1150.25
678.81	1157.03
679.14	1154.77
679.47	1249.68
679.80	1172.85
680.13	1150.25
680.46	1170.59
680.79	1150.25
681.12	1215.79
681.45	1209.01
681.78	1170.59
682.11	1064.38
682.44	1206.75
682.77	1188.67
683.09	1179.63
683.42	1233.87
683.75	1159.29
684.08	1215.79
684.41	1195.45
684.74	1157.03
685.07	1188.67
685.40	1181.89
685.72	1211.27
686.05	1181.89
686.38	1132.17
686.71	1082.46
687.04	1132.17
687.37	1129.91
687.70	1202.23
688.02	1204.49
688.35	1163.81
688.68	1233.87
689.01	1109.58
689.34	1170.59
689.67	1143.47
689.99	1199.97
690.32	1170.59
690.65	1236.13
690.98	1120.87
691.30	1211.27
691.63	1224.83
691.96	1152.51
692.29	1184.15
692.62	1161.55
692.94	1152.51
693.27	1218.05
693.60	1188.67
693.93	1161.55
694.25	1141.21
694.58	1222.57
694.91	1177.37
695.24	1168.33
695.56	1161.55
695.89	1211.27
696.22	1152.51
696.54	1202.23
696.87	1184.15
697.20	1125.39
697.53	1227.09
697.85	1109.58
698.18	1195.45
698.51	1240.65
698.83	1188.67
699.16	1202.23
699.49	1134.43
699.81	1166.07
700.14	1145.73
700.47	1220.31
700.79	1129.91
701.12	1204.49
701.45	1147.99
701.77	1116.35
702.10	1125.39
702.42	1206.75
702.75	1202.23
703.08	1159.29
703.40	1181.89
703.73	1138.95
704.05	1143.47
704.38	1179.63
704.71	1195.45
705.03	1177.37
705.36	1152.51
705.68	1263.24
706.01	1245.16
706.34	1161.55
706.66	1181.89
706.99	1184.15
707.31	1175.11
707.64	1172.85
707.96	1197.71
708.29	1129.91
708.61	1209.01
708.94	1199.97
709.26	1170.59
709.59	1181.89
709.92	1154.77
710.24	1152.51
710.57	1141.21
710.89	1138.95
711.22	1249.68
711.54	1152.51
711.87	1129.91
712.19	1161.55
712.51	1184.15
712.84	1168.33
713.16	1125.39
713.49	1118.61
713.81	1211.27
714.14	1084.72
714.46	1132.17
714.79	1098.28
715.11	1166.07
715.44	1161.55
715.76	1249.68
716.08	1204.49
716.41	1125.39
716.73	1179.63
717.06	1150.25
717.38	1166.07
717.70	1179.63
718.03	1258.72
718.35	1134.43
718.68	1177.37
719.00	1193.19
719.32	1077.94
719.65	1152.51
719.97	1227.09
720.29	1209.01
720.62	1163.81
720.94	1202.23
721.27	1143.47
721.59	1166.07
721.91	1238.39
722.24	1177.37
722.56	1213.53
722.88	1233.87
723.21	1213.53
723.53	1150.25
723.85	1199.97
724.17	1152.51
724.50	1143.47
724.82	1179.63
725.14	1159.29
725.47	1120.87
725.79	1224.83
726.11	1161.55
726.43	1199.97
726.76	1175.11
727.08	1166.07
727.40	1181.89
727.72	1166.07
728.05	1249.68
728.37	1114.10
728.69	1202.23
729.01	1141.21
729.34	1150.25
729.66	1184.15
729.98	1098.28
730.30	1136.69
730.62	1197.71
730.95	1109.58
731.27	1184.15
731.59	1179.63
731.91	1134.43
732.23	1163.81
732.56	1229.35
732.88	1163.81
733.20	1213.53
733.52	1136.69
733.84	1170.59
734.16	1186.41
734.49	1159.29
734.81	1177.37
735.13	1242.91
735.45	1150.25
735.77	1100.54
736.09	1114.10
736.41	1213.53
736.73	1157.03
737.06	1129.91
737.38	1129.91
737.70	1166.07
738.02	1181.89
738.34	1186.41
738.66	1166.07
738.98	1118.61
739.30	1186.41
739.62	1179.63
739.94	1229.35
740.26	1222.57
740.58	1127.65
740.90	1134.43
741.23	1163.81
741.55	1206.75
741.87	1157.03
742.19	1204.49
742.51	1177.37
742.83	1152.51
743.15	1166.07
743.47	1116.35
743.79	1141.21
744.11	1134.43
744.43	1152.51
744.75	1143.47
745.07	1163.81
745.39	1154.77
745.71	1154.77
746.03	1150.25
746.35	1175.11
746.67	1222.57
746.98	1213.53
747.30	1168.33
747.62	1206.75
747.94	1161.55
748.26	1129.91
748.58	1181.89
748.90	1152.51
749.22	1161.55
749.54	1181.89
749.86	1152.51
750.18	1175.11
750.50	1123.13
750.82	1190.93
751.13	1147.99
751.45	1218.05
751.77	1172.85
752.09	1211.27
752.41	1172.85
752.73	1184.15
753.05	1256.46
753.36	1211.27
753.68	1082.46
754.00	1109.58
754.32	1224.83
754.64	1177.37
754.96	1197.71
755.28	1166.07
755.59	1245.16
755.91	1199.97
756.23	1215.79
756.55	1125.39
756.87	1224.83
757.18	1166.07
757.50	1163.81
757.82	1179.63
758.14	1172.85
758.45	1209.01
758.77	1161.55
759.09	1150.25
759.41	1213.53
759.73	1123.13
760.04	1215.79
760.36	1154.77
760.68	1125.39
760.99	1186.41
761.31	1150.25
761.63	1188.67
761.95	1215.79
762.26	1170.59
762.58	1229.35
762.90	1172.85
763.21	1138.95
763.53	1127.65
763.85	1218.05
764.17	1147.99
764.48	1157.03
764.80	1193.19
765.12	1211.27
765.43	1184.15
765.75	1181.89
766.07	1190.93
766.38	1193.19
766.70	1206.75
767.01	1159.29
767.33	1147.99
767.65	1089.24
767.96	1107.32
768.28	1071.16
768.60	1150.25
768.91	1157.03
769.23	1213.53
769.54	1166.07
769.86	1254.20
770.18	1190.93
770.49	1102.80
770.81	1102.80
771.12	1134.43
771.44	1147.99
771.75	1170.59
772.07	1186.41
772.38	1193.19
772.70	1125.39
773.02	1197.71
773.33	1123.13
773.65	1152.51
773.96	1179.63
774.28	1170.59
774.59	1118.61
774.91	1218.05
775.22	1224.83
775.54	1125.39
775.85	1129.91
776.17	1163.81
776.48	1157.03
776.80	1166.07
777.11	1147.99
777.43	1168.33
777.74	1161.55
778.05	1202.23
778.37	1179.63
778.68	1132.17
779.00	1209.01
779.31	1093.76
779.63	1080.20
779.94	1184.15
780.26	1265.50
780.57	1125.39
780.88	1157.03
781.20	1136.69
781.51	1172.85
781.83	1193.19
782.14	1202.23
782.45	1213.53
782.77	1224.83
783.08	1132.17
783.39	1197.71
783.71	1127.65
784.02	1075.68
784.34	1111.84
784.65	1116.35
784.96	1179.63
785.28	1170.59
785.59	1163.81
785.90	1170.59
786.22	1150.25
786.53	1215.79
786.84	1100.54
787.15	1114.10
787.47	1218.05
787.78	1170.59
788.09	1175.11
788.41	1152.51
788.72	1184.15
789.03	1096.02
789.35	1132.17
789.66	1163.81
789.97	1150.25
790.28	1181.89
790.60	1186.41
790.91	1199.97
791.22	1220.31
791.53	1109.58
791.84	1143.47
792.16	1152.51
792.47	1227.09
792.78	1215.79
793.09	1186.41
793.41	1166.07
793.72	1233.87
794.03	1197.71
794.34	1236.13
794.65	1116.35
794.96	1227.09
795.28	1175.11
795.59	1157.03
795.90	1109.58
796.21	1120.87
796.52	1188.67
796.83	1213.53
797.15	1215.79
797.46	1206.75
797.77	1129.91
798.08	1179.63
798.39	1136.69
798.70	1161.55
799.01	1199.97
799.32	1172.85
799.63	1215.79
799.95	1184.15
800.26	1179.63
800.57	1227.09
800.88	1161.55
801.19	1116.35
801.50	1134.43
801.81	1168.33
802.12	1190.93
802.43	1152.51
802.74	1190.93
803.05	1163.81
803.36	1163.81
803.67	1147.99
803.98	1154.77
804.29	1136.69
804.60	1152.51
804.91	1166.07
805.22	1129.91
805.53	1190.93
805.84	1138.95
806.15	1150.25
806.46	1181.89
806.77	1154.77
807.08	1150.25
807.39	1193.19
807.70	1177.37
808.01	1166.07
808.32	1157.03
808.63	1204.49
808.94	1193.19
809.25	1213.53
809.56	1127.65
809.87	1218.05
810.18	1211.27
810.49	1204.49
810.79	1082.46
811.10	1111.84
811.41	1193.19
811.72	1172.85
812.03	1150.25
812.34	1177.37
812.65	1098.28
812.96	1129.91
813.27	1141.21
813.57	1170.59
813.88	1181.89
814.19	1096.02
814.50	1175.11
814.81	1190.93
815.12	1227.09
815.42	1184.15
815.73	1154.77
816.04	1215.79
816.35	1141.21
816.66	1163.81
816.97	1186.41
817.27	1177.37
817.58	1161.55
817.89	1166.07
818.20	1152.51
818.50	1177.37
818.81	1123.13
819.12	1163.81
819.43	1172.85
819.73	1116.35
820.04	1107.32
820.35	1213.53
820.66	1136.69
820.96	1181.89
821.27	1132.17
821.58	1166.07
821.89	1120.87
822.19	1136.69
822.50	1211.27
822.81	1172.85
823.11	1190.93
823.42	1161.55
823.73	1204.49
824.03	1202.23
824.34	1102.80
824.65	1129.91
824.95	1120.87
825.26	1199.97
825.57	1181.89
825.87	1120.87
826.18	1127.65
826.49	1127.65
826.79	1161.55
827.10	1127.65
827.40	1143.47
827.71	1168.33
828.02	1209.01
828.32	1175.11
828.63	1147.99
828.93	1215.79
829.24	1147.99
829.55	1179.63
829.85	1132.17
830.16	1195.45
830.46	1181.89
830.77	1154.77
831.07	1163.81
831.38	1218.05
831.69	1177.37
831.99	1195.45
832.30	1152.51
832.60	1150.25
832.91	1157.03
833.21	1141.21
833.52	1186.41
833.82	1186.41
834.13	1166.07
834.43	1186.41
834.74	1147.99
835.04	1229.35
835.35	1147.99
835.65	1229.35
835.96	1168.33
836.26	1127.65
836.56	1186.41
836.87	1152.51
837.17	1245.16
837.48	1141.21
837.78	1172.85
838.09	1204.49
838.39	1249.68
838.69	1238.39
839.00	1154.77
839.30	1129.91
839.61	1096.02
839.91	1204.49
840.21	1175.11
840.52	1136.69
840.82	1154.77
841.13	1163.81
841.43	1166.07
841.73	1193.19
842.04	1177.37
842.34	1231.61
842.64	1129.91
842.95	1125.39
843.25	1195.45
843.55	1062.12
843.86	1145.73
844.16	1175.11
844.46	1204.49
844.77	1184.15
845.07	1190.93
845.37	1136.69
845.68	1154.77
845.98	1118.61
846.28	1150.25
846.58	1197.71
846.89	1197.71
847.19	1188.67
847.49	1132.17
847.79	1175.11
848.10	1211.27
848.40	1102.80
848.70	1172.85
849.00	1199.97
849.31	1123.13
849.61	1186.41
849.91	1177.37
850.21	1197.71
850.51	1188.67
850.82	1159.29
851.12	1188.67
851.42	1157.03
851.72	1195.45
852.02	1147.99
852.32	1175.11
852.63	1138.95
852.93	1229.35
853.23	1138.95
853.53	1204.49
853.83	1233.87
854.13	1168.33
854.43	1209.01
854.74	1175.11
855.04	1116.35
855.34	1197.71
855.64	1166.07
855.94	1222.57
856.24	1204.49
856.54	1175.11
856.84	1118.61
857.14	1199.97
857.44	1123.13
857.74	1111.84
858.05	1197.71
858.35	1190.93
858.65	1102.80
858.95	1245.16
859.25	1199.97
859.55	1170.59
859.85	1132.17
860.15	1175.11
860.45	1157.03
860.75	1125.39
861.05	1204.49
861.35	1211.27
861.65	1152.51
861.95	1118.61
862.25	1118.61
862.55	1102.80
862.85	1161.55
863.15	1166.07
863.45	1197.71
863.75	1170.59
864.05	1163.81
864.35	1129.91
864.64	1136.69
864.94	1125.39
865.24	1177.37
865.54	1242.91
865.84	1141.21
866.14	1161.55
866.44	1199.97
866.74	1197.71
867.04	1138.95
867.34	1229.35
867.64	1206.75
867.93	1193.19
868.23	1145.73
868.53	1222.57
868.83	1136.69
869.13	1179.63
869.43	1181.89
869.73	1150.25
870.02	1163.81
870.32	1186.41
870.62	1143.47
870.92	1231.61
871.22	1181.89
871.51	1170.59
871.81	1166.07
872.11	1150.25
872.41	1215.79
872.71	1143.47
873.00	1209.01
873.30	1138.95
873.60	1138.95
873.90	1215.79
874.19	1147.99
874.49	1181.89
874.79	1125.39
875.09	1175.11
875.38	1138.95
875.68	1181.89
875.98	1157.03
876.28	1195.45
876.57	1134.43
876.87	1134.43
877.17	1134.43
