174.03	738.96
174.41	738.96
174.78	738.96
175.16	680.21
175.54	711.85
175.92	716.37
176.30	698.29
176.67	748.00
177.05	745.74
177.43	707.33
177.81	786.42
178.19	790.94
178.56	822.58
178.94	829.36
179.32	903.93
179.70	854.21
180.08	888.11
180.45	915.23
180.83	919.75
181.21	917.49
181.59	942.35
181.96	978.51
182.34	1005.62
182.72	1062.12
183.10	1044.04
183.48	1019.18
183.85	1035.00
184.23	1046.30
184.61	1021.44
184.99	1086.98
185.36	1075.68
185.74	1107.32
186.12	1111.84
186.50	1064.38
186.87	1105.06
187.25	1154.77
187.63	1134.43
188.01	1129.91
188.38	1107.32
188.76	1141.21
189.14	1100.54
189.52	1129.91
189.89	1132.17
190.27	1055.34
190.65	1102.80
191.02	1120.87
191.40	1089.24
191.78	1127.65
192.16	1154.77
192.53	1091.50
192.91	1084.72
193.29	1111.84
193.66	1143.47
194.04	1125.39
194.42	1114.10
194.79	1118.61
195.17	1105.06
195.55	1136.69
195.93	1098.28
196.30	1075.68
196.68	1118.61
197.06	1166.07
197.43	1161.55
197.81	1127.65
198.19	1055.34
198.56	1071.16
198.94	1134.43
199.32	1053.08
199.69	1030.48
200.07	1048.56
200.45	1100.54
200.82	1107.32
201.20	1093.76
201.58	1066.64
201.95	1037.26
202.33	1066.64
202.71	1062.12
203.08	1123.13
203.46	1021.44
203.84	1175.11
204.21	1136.69
204.59	1077.94
204.96	1084.72
205.34	1073.42
205.72	1057.60
206.09	1084.72
206.47	1055.34
206.85	1123.13
207.22	1100.54
207.60	1057.60
207.97	1084.72
208.35	1073.42
208.73	1132.17
209.10	1093.76
209.48	1107.32
209.85	1077.94
210.23	1157.03
210.61	1109.58
210.98	1091.50
211.36	1118.61
211.73	1039.52
212.11	1152.51
212.49	1116.35
212.86	1125.39
213.24	1145.73
213.61	1089.24
213.99	1075.68
214.37	1159.29
214.74	1120.87
215.12	1098.28
215.49	1075.68
215.87	1125.39
216.24	1111.84
216.62	1102.80
216.99	1066.64
217.37	1091.50
217.75	1120.87
218.12	1132.17
218.50	1143.47
218.87	1048.56
219.25	1025.96
219.62	1134.43
220.00	1055.34
220.37	1096.02
220.75	1100.54
221.12	1150.25
221.50	1129.91
221.87	1041.78
222.25	1066.64
222.63	1082.46
223.00	1134.43
223.38	1098.28
223.75	1073.42
224.13	1062.12
224.50	1080.20
224.88	1102.80
225.25	1107.32
225.63	1118.61
226.00	1093.76
226.38	1093.76
226.75	1071.16
227.13	1109.58
227.50	1157.03
227.88	1098.28
228.25	1141.21
228.63	1129.91
229.00	1091.50
229.37	1127.65
229.75	1073.42
230.12	1105.06
230.50	1152.51
230.87	1077.94
231.25	1134.43
231.62	1084.72
232.00	1111.84
232.37	1109.58
232.75	1098.28
233.12	1089.24
233.50	1150.25
233.87	1141.21
234.24	1143.47
234.62	1125.39
234.99	1098.28
235.37	1111.84
235.74	1132.17
236.12	1134.43
236.49	1102.80
236.86	1129.91
237.24	1123.13
237.61	1111.84
237.99	1075.68
238.36	1089.24
238.74	1077.94
239.11	1125.39
239.48	1181.89
239.86	1163.81
240.23	1127.65
240.61	1127.65
240.98	1111.84
241.35	1084.72
241.73	1143.47
242.10	1134.43
242.48	1145.73
242.85	1066.64
243.22	1161.55
243.60	1096.02
243.97	1175.11
244.34	1129.91
244.72	1075.68
245.09	1161.55
245.47	1132.17
245.84	1141.21
246.21	1163.81
246.59	1125.39
246.96	1116.35
247.33	1053.08
247.71	1127.65
248.08	1123.13
248.45	1132.17
248.83	1116.35
249.20	1111.84
249.57	1154.77
249.95	1111.84
250.32	1105.06
250.69	1168.33
251.07	1154.77
251.44	1098.28
251.81	1032.74
252.19	1073.42
252.56	1136.69
252.93	1125.39
253.31	1129.91
253.68	1089.24
254.05	1141.21
254.43	1098.28
254.80	1100.54
255.17	1125.39
255.55	1166.07
255.92	1138.95
256.29	1102.80
256.66	1159.29
257.04	1147.99
257.41	1120.87
257.78	1096.02
258.16	1150.25
258.53	1102.80
258.90	1125.39
259.27	1091.50
259.65	1163.81
260.02	1129.91
260.39	1143.47
260.76	1125.39
261.14	1116.35
261.51	1143.47
261.88	1120.87
262.25	1154.77
262.63	1098.28
263.00	1055.34
263.37	1132.17
263.74	1150.25
264.12	1080.20
264.49	1141.21
264.86	1123.13
265.23	1066.64
265.61	1190.93
265.98	1120.87
266.35	1123.13
266.72	1168.33
267.09	1120.87
267.47	1116.35
267.84	1100.54
268.21	1143.47
268.58	1150.25
268.95	1134.43
269.33	1127.65
269.70	1127.65
270.07	1125.39
270.44	1147.99
270.81	1168.33
271.19	1147.99
271.56	1181.89
271.93	1111.84
272.30	1209.01
272.67	1057.60
273.05	1141.21
273.42	1152.51
273.79	1159.29
274.16	1132.17
274.53	1118.61
274.90	1059.86
275.28	1125.39
275.65	1147.99
276.02	1138.95
276.39	1134.43
276.76	1082.46
277.13	1172.85
277.50	1168.33
277.88	1179.63
278.25	1120.87
278.62	1091.50
278.99	1086.98
279.36	1188.67
279.73	1166.07
280.10	1145.73
280.47	1116.35
280.85	1125.39
281.22	1147.99
281.59	1157.03
281.96	1157.03
282.33	1129.91
282.70	1077.94
283.07	1197.71
283.44	1145.73
283.81	1195.45
284.18	1145.73
284.56	1143.47
284.93	1105.06
285.30	1102.80
285.67	1147.99
286.04	1132.17
286.41	1197.71
286.78	1059.86
287.15	1175.11
287.52	1127.65
287.89	1118.61
288.26	1141.21
288.63	1150.25
289.00	1089.24
289.37	1147.99
289.75	1147.99
290.12	1118.61
290.49	1172.85
290.86	1186.41
291.23	1150.25
291.60	1152.51
291.97	1179.63
292.34	1127.65
292.71	1138.95
293.08	1127.65
293.45	1118.61
293.82	1116.35
294.19	1138.95
294.56	1157.03
294.93	1091.50
295.30	1145.73
295.67	1123.13
296.04	1143.47
296.41	1170.59
296.78	1073.42
297.15	1098.28
297.52	1147.99
297.89	1157.03
298.26	1188.67
298.63	1080.20
299.00	1199.97
299.37	1096.02
299.74	1086.98
300.11	1143.47
300.48	1154.77
300.85	1172.85
301.22	1168.33
301.59	1188.67
301.96	1150.25
302.33	1109.58
302.70	1220.31
303.07	1132.17
303.43	1181.89
303.80	1127.65
304.17	1170.59
304.54	1107.32
304.91	1177.37
305.28	1163.81
305.65	1116.35
306.02	1199.97
306.39	1100.54
306.76	1220.31
307.13	1125.39
307.50	1136.69
307.87	1193.19
308.24	1114.10
308.60	1091.50
308.97	1147.99
309.34	1161.55
309.71	1147.99
310.08	1116.35
310.45	1114.10
310.82	1127.65
311.19	1175.11
311.56	1227.09
311.92	1170.59
312.29	1125.39
312.66	1109.58
313.03	1170.59
313.40	1199.97
313.77	1125.39
314.14	1136.69
314.51	1132.17
314.87	1138.95
315.24	1082.46
315.61	1218.05
315.98	1161.55
316.35	1211.27
316.72	1163.81
317.09	1143.47
317.45	1186.41
317.82	1102.80
318.19	1107.32
318.56	1089.24
318.93	1220.31
319.30	1138.95
319.66	1181.89
320.03	1206.75
320.40	1184.15
320.77	1109.58
321.14	1236.13
321.50	1152.51
321.87	1136.69
322.24	1193.19
322.61	1152.51
322.98	1179.63
323.34	1116.35
323.71	1152.51
324.08	1109.58
324.45	1150.25
324.82	1177.37
325.18	1154.77
325.55	1111.84
325.92	1145.73
326.29	1206.75
326.65	1166.07
327.02	1209.01
327.39	1091.50
327.76	1204.49
328.12	1170.59
328.49	1197.71
328.86	1179.63
329.23	1159.29
329.59	1096.02
329.96	1125.39
330.33	1224.83
330.70	1123.13
331.06	1195.45
331.43	1136.69
331.80	1166.07
332.17	1163.81
332.53	1247.42
332.90	1179.63
333.27	1157.03
333.63	1159.29
334.00	1125.39
334.37	1213.53
334.74	1229.35
335.10	1175.11
335.47	1220.31
335.84	1249.68
336.20	1249.68
336.57	1129.91
336.94	1161.55
337.30	1129.91
337.67	1177.37
338.04	1141.21
338.40	1154.77
338.77	1229.35
339.14	1204.49
339.50	1166.07
339.87	1177.37
340.24	1222.57
340.60	1224.83
340.97	1258.72
341.34	1233.87
341.70	1247.42
342.07	1179.63
342.44	1240.65
342.80	1233.87
343.17	1251.94
343.53	1236.13
343.90	1209.01
344.27	1240.65
344.63	1166.07
345.00	1175.11
345.37	1163.81
345.73	1218.05
346.10	1202.23
346.46	1175.11
346.83	1276.80
347.20	1285.84
347.56	1224.83
347.93	1147.99
348.29	1227.09
348.66	1211.27
349.03	1193.19
349.39	1211.27
349.76	1202.23
350.12	1163.81
350.49	1177.37
350.85	1184.15
351.22	1159.29
351.59	1190.93
351.95	1267.76
352.32	1197.71
352.68	1152.51
353.05	1197.71
353.41	1195.45
353.78	1274.54
354.14	1211.27
354.51	1193.19
354.88	1190.93
355.24	1163.81
355.61	1202.23
355.97	1195.45
356.34	1229.35
356.70	1215.79
357.07	1242.91
357.43	1218.05
357.80	1227.09
358.16	1199.97
358.53	1186.41
358.89	1224.83
359.26	1256.46
359.62	1211.27
359.99	1206.75
360.35	1236.13
360.72	1245.16
361.08	1270.02
361.45	1229.35
361.81	1283.58
362.18	1238.39
362.54	1263.24
362.91	1251.94
363.27	1211.27
363.63	1301.66
364.00	1279.06
364.36	1260.98
364.73	1215.79
365.09	1245.16
365.46	1263.24
365.82	1263.24
366.19	1274.54
366.55	1281.32
366.91	1224.83
367.28	1260.98
367.64	1270.02
368.01	1340.08
368.37	1333.30
368.74	1306.18
369.10	1308.44
369.46	1380.75
369.83	1328.78
370.19	1324.26
370.56	1342.34
370.92	1276.80
371.28	1362.68
371.65	1274.54
372.01	1303.92
372.38	1396.57
372.74	1362.68
373.10	1344.60
373.47	1378.49
373.83	1437.25
374.19	1416.91
374.56	1353.64
374.92	1364.94
375.29	1416.91
375.65	1403.35
376.01	1346.86
376.38	1466.63
376.74	1475.67
377.10	1462.11
377.47	1505.05
377.83	1527.64
378.19	1557.02
378.56	1559.28
378.92	1597.70
379.28	1566.06
379.65	1642.89
380.01	1654.19
380.37	1654.19
380.74	1749.11
381.10	1819.16
381.46	1848.54
381.83	1862.10
382.19	1907.29
382.55	1929.89
382.91	2045.14
383.28	2117.46
383.64	2219.15
384.00	2343.44
384.37	2413.50
384.73	2625.92
385.09	2659.82
385.45	2833.82
385.82	2980.71
386.18	3193.14
386.54	3380.70
386.91	3645.10
387.27	3873.34
387.63	4225.88
387.99	4573.89
388.36	4704.96
388.72	5181.78
389.08	5597.59
389.44	5911.71
389.80	6291.36
390.17	6856.32
390.53	7385.12
390.89	8185.10
391.25	8657.40
391.62	9324.05
391.98	10286.74
392.34	11281.06
392.70	11931.89
393.06	12765.77
393.43	13916.02
393.79	14410.92
394.15	15436.88
394.51	16532.90
394.87	17778.06
395.24	19278.59
395.60	20971.20
395.96	22462.69
396.32	24028.75
396.68	25339.45
397.04	28107.74
397.41	30672.64
397.77	32672.59
398.13	35504.15
398.49	37662.29
398.85	40285.95
399.21	43971.73
399.58	46909.50
399.94	49512.82
400.30	52922.90
400.66	54656.19
401.02	57042.57
401.38	58920.48
401.74	60439.09
402.11	61980.29
402.47	63652.56
402.83	64617.51
403.19	65535.00
403.55	65535.00
403.91	65535.00
404.27	65535.00
404.63	65535.00
404.99	65535.00
405.35	65535.00
405.72	65535.00
406.08	65535.00
406.44	65535.00
406.80	65535.00
407.16	65535.00
407.52	65535.00
407.88	65535.00
408.24	65535.00
408.60	65535.00
408.96	65535.00
409.32	65535.00
409.68	65535.00
410.04	65535.00
410.40	65535.00
410.76	65535.00
411.13	65535.00
411.49	65535.00
411.85	64972.30
412.21	63681.94
412.57	62635.64
412.93	61395.00
413.29	59941.93
413.65	58238.02
414.01	56531.85
414.37	54570.32
414.73	53288.99
415.09	51490.17
415.45	49890.21
415.81	47546.77
416.17	45381.86
416.53	43863.25
416.89	41705.12
417.25	39567.32
417.61	37662.29
417.97	36848.75
418.33	35119.98
418.69	33994.59
419.05	32803.66
419.41	31244.38
419.77	30975.46
420.12	28977.77
420.48	27637.69
420.84	26903.25
421.20	25249.05
421.56	23640.06
421.92	23644.58
422.28	22200.55
422.64	21149.73
423.00	19843.55
423.36	19472.93
423.72	18126.08
424.08	17106.89
424.44	15866.25
424.80	15705.80
425.16	14840.29
425.51	13827.88
425.87	13647.10
426.23	12736.39
426.59	11870.87
426.95	11579.36
427.31	11143.21
427.67	10869.77
428.03	10006.52
428.39	9814.43
428.74	8998.63
429.10	8587.34
429.46	8207.69
429.82	7751.21
430.18	7622.40
430.54	7299.24
430.90	7089.08
431.26	6854.06
431.61	6449.55
431.97	6381.75
432.33	6085.72
432.69	5986.28
433.05	5755.78
433.41	5471.04
433.76	5421.33
434.12	5165.97
434.48	4921.90
434.84	4682.36
435.20	4582.93
435.55	4729.82
435.91	4350.17
436.27	4280.11
436.63	4045.09
436.99	3966.00
437.34	3701.60
437.70	3728.72
438.06	3554.71
438.42	3416.86
438.78	3401.04
439.13	3290.31
439.49	3188.62
439.85	3082.40
440.21	2937.78
440.56	2933.26
440.92	2788.63
441.28	2736.65
441.64	2695.97
441.99	2747.95
442.35	2601.06
442.71	2596.54
443.07	2592.02
443.42	2384.12
443.78	2266.61
444.14	2393.16
444.50	2237.23
444.85	2264.35
445.21	2070.00
445.57	2198.81
445.93	2124.24
446.28	2099.38
446.64	2121.98
447.00	2065.48
447.35	2042.88
447.71	1938.93
448.07	1999.95
448.42	1891.48
448.78	1929.89
449.14	1810.12
449.49	1841.76
449.85	1764.93
450.21	1712.95
450.56	1710.69
450.92	1721.99
451.28	1683.57
451.63	1740.07
451.99	1665.49
452.35	1663.23
452.70	1642.89
453.06	1581.88
453.42	1568.32
453.77	1602.22
454.13	1459.85
454.49	1586.40
454.84	1541.20
455.20	1505.05
455.55	1466.63
455.91	1498.27
456.27	1527.64
456.62	1484.71
456.98	1486.97
457.33	1453.07
457.69	1405.61
458.05	1423.69
458.40	1414.65
458.76	1462.11
459.11	1371.72
459.47	1416.91
459.83	1405.61
460.18	1396.57
460.54	1448.55
460.89	1410.13
461.25	1342.34
461.60	1439.51
461.96	1428.21
462.31	1396.57
462.67	1340.08
463.03	1355.90
463.38	1360.42
463.74	1290.36
464.09	1290.36
464.45	1292.62
464.80	1371.72
465.16	1247.42
465.51	1292.62
465.87	1276.80
466.22	1258.72
466.58	1312.96
466.93	1297.14
467.29	1297.14
467.64	1265.50
468.00	1290.36
468.35	1229.35
468.71	1274.54
469.06	1236.13
469.42	1263.24
469.77	1299.40
470.13	1267.76
470.48	1285.84
470.84	1218.05
471.19	1256.46
471.54	1233.87
471.90	1220.31
472.25	1247.42
472.61	1224.83
472.96	1143.47
473.32	1224.83
473.67	1229.35
474.03	1322.00
474.38	1258.72
474.73	1285.84
475.09	1227.09
475.44	1281.32
475.80	1199.97
476.15	1238.39
476.50	1170.59
476.86	1215.79
477.21	1260.98
477.57	1245.16
477.92	1177.37
478.27	1206.75
478.63	1197.71
478.98	1238.39
479.34	1233.87
479.69	1272.28
480.04	1231.61
480.40	1159.29
480.75	1211.27
481.10	1227.09
481.46	1260.98
481.81	1184.15
482.16	1157.03
482.52	1229.35
482.87	1242.91
483.22	1186.41
483.58	1251.94
483.93	1222.57
484.28	1267.76
484.64	1206.75
484.99	1209.01
485.34	1213.53
485.70	1249.68
486.05	1245.16
486.40	1249.68
486.76	1238.39
487.11	1256.46
487.46	1276.80
487.81	1267.76
488.17	1172.85
488.52	1229.35
488.87	1227.09
489.23	1240.65
489.58	1224.83
489.93	1209.01
490.28	1215.79
490.64	1231.61
490.99	1229.35
491.34	1254.20
491.69	1227.09
492.05	1120.87
492.40	1233.87
492.75	1265.50
493.10	1179.63
493.46	1220.31
493.81	1179.63
494.16	1249.68
494.51	1251.94
494.86	1301.66
495.22	1231.61
495.57	1272.28
495.92	1285.84
496.27	1251.94
496.62	1281.32
496.98	1256.46
497.33	1326.52
497.68	1294.88
498.03	1279.06
498.38	1272.28
498.74	1247.42
499.09	1283.58
499.44	1236.13
499.79	1353.64
500.14	1301.66
500.49	1353.64
500.85	1312.96
501.20	1292.62
501.55	1358.16
501.90	1308.44
502.25	1371.72
502.60	1353.64
502.95	1335.56
503.30	1328.78
503.66	1387.53
504.01	1342.34
504.36	1337.82
504.71	1358.16
505.06	1473.41
505.41	1498.27
505.76	1434.99
506.11	1430.47
506.46	1473.41
506.82	1493.75
507.17	1534.42
507.52	1464.37
507.87	1590.92
508.22	1647.41
508.57	1604.48
508.92	1507.30
509.27	1570.58
509.62	1676.79
509.97	1627.08
510.32	1651.93
510.67	1658.71
511.02	1651.93
511.37	1703.91
511.72	1697.13
512.07	1701.65
512.42	1764.93
512.77	1819.16
513.12	1708.43
513.47	1866.62
513.82	1751.37
514.17	1891.48
514.52	1866.62
514.87	1993.17
515.22	1972.83
515.57	1925.37
515.92	1938.93
516.27	2027.07
516.62	2099.38
516.97	2051.92
517.32	1972.83
517.67	2015.77
518.02	2067.74
518.37	2065.48
518.72	2126.50
519.07	2255.31
519.42	2176.21
519.77	2187.51
520.12	2248.53
520.47	2300.50
520.82	2377.34
521.17	2280.17
521.52	2366.04
521.87	2386.38
522.22	2363.78
522.56	2386.38
522.91	2343.44
523.26	2494.85
523.61	2418.02
523.96	2524.23
524.31	2558.12
524.66	2560.38
525.01	2526.49
525.36	2564.90
525.71	2546.83
526.05	2569.42
526.40	2569.42
526.75	2601.06
527.10	2671.12
527.45	2705.01
527.80	2707.27
528.15	2533.27
528.49	2745.69
528.84	2666.60
529.19	2707.27
529.54	2799.93
529.89	2784.11
530.24	2822.52
530.58	2833.82
530.93	2908.40
531.28	2806.71
531.63	2788.63
531.98	2838.34
532.33	2799.93
532.67	2804.45
533.02	2908.40
533.37	2987.49
533.72	2822.52
534.07	2906.14
534.41	2815.75
534.76	2879.02
535.11	2910.66
535.46	2910.66
535.80	2935.52
536.15	2876.76
536.50	2978.45
536.85	2858.68
537.19	2928.74
537.54	2933.26
537.89	2942.30
538.24	2894.84
538.58	2982.97
538.93	2883.54
539.28	2973.93
539.63	2940.04
539.97	2885.80
540.32	2856.42
540.67	2953.59
541.01	2869.98
541.36	2863.20
541.71	2946.82
542.06	2908.40
542.40	2919.70
542.75	2815.75
543.10	2924.22
543.44	2978.45
543.79	3019.13
544.14	2888.06
544.48	2874.50
544.83	2833.82
545.18	2879.02
545.52	2858.68
545.87	2928.74
546.22	2958.11
546.56	2901.62
546.91	2901.62
547.25	2888.06
547.60	2888.06
547.95	2824.78
548.29	2847.38
548.64	2836.08
548.99	2912.92
549.33	2869.98
549.68	2842.86
550.02	2899.36
550.37	2912.92
550.72	2786.37
551.06	2863.20
551.41	2890.32
551.75	2863.20
552.10	2795.41
552.45	2808.97
552.79	2818.00
553.14	2822.52
553.48	2847.38
553.83	2784.11
554.17	2659.82
554.52	2734.39
554.87	2736.65
555.21	2775.07
555.56	2736.65
555.90	2725.35
556.25	2693.71
556.59	2790.89
556.94	2793.15
557.28	2702.75
557.63	2754.73
557.97	2644.00
558.32	2797.67
558.66	2711.79
559.01	2729.87
559.35	2644.00
559.70	2689.19
560.04	2682.42
560.39	2668.86
560.73	2705.01
561.08	2623.66
561.42	2632.70
561.77	2673.38
562.11	2662.08
562.46	2582.98
562.80	2637.22
563.14	2628.18
563.49	2601.06
563.83	2564.90
564.18	2490.33
564.52	2655.30
564.87	2564.90
565.21	2546.83
565.56	2578.46
565.90	2483.55
566.24	2612.36
566.59	2526.49
566.93	2564.90
567.28	2521.97
567.62	2551.35
567.96	2472.25
568.31	2576.20
568.65	2445.13
569.00	2424.80
569.34	2485.81
569.68	2399.94
570.03	2535.53
570.37	2512.93
570.71	2456.43
571.06	2424.80
571.40	2467.73
571.74	2390.90
572.09	2422.54
572.43	2472.25
572.78	2562.64
573.12	2379.60
573.46	2343.44
573.80	2352.48
574.15	2273.39
574.49	2332.14
574.83	2359.26
575.18	2488.07
575.52	2361.52
575.86	2282.43
576.21	2323.10
576.55	2289.21
576.89	2332.14
577.24	2350.22
577.58	2327.62
577.92	2277.91
578.26	2275.65
578.61	2345.70
578.95	2338.92
579.29	2237.23
579.63	2253.05
579.98	2248.53
580.32	2314.06
580.66	2257.57
581.00	2155.88
581.35	2219.15
581.69	2201.07
582.03	2194.29
582.37	2182.99
582.72	2264.35
583.06	2282.43
583.40	2216.89
583.74	2201.07
584.08	2248.53
584.43	2119.72
584.77	2244.01
585.11	2115.20
585.45	2187.51
585.79	2189.77
586.13	2137.80
586.48	2110.68
586.82	2167.17
587.16	2065.48
587.50	2079.04
587.84	2092.60
588.18	2033.84
588.53	2031.58
588.87	2040.62
589.21	2056.44
589.55	2110.68
589.89	2094.86
590.23	2067.74
590.57	2060.96
590.92	2094.86
591.26	1954.75
591.60	2006.73
591.94	1938.93
592.28	2020.29
592.62	2027.07
592.96	2097.12
593.30	1959.27
593.64	2029.33
593.98	1947.97
594.32	1941.19
594.67	1857.58
595.01	1902.77
595.35	2002.21
595.69	1916.33
596.03	1986.39
596.37	1886.96
596.71	1911.81
597.05	1902.77
597.39	1943.45
597.73	1844.02
598.07	1947.97
598.41	1898.26
598.75	1859.84
599.09	1798.82
599.43	1834.98
599.77	1898.26
600.11	1866.62
600.45	1823.68
600.79	1837.24
601.13	1803.34
601.47	1814.64
601.81	1776.22
602.15	1755.89
602.49	1812.38
602.83	1834.98
603.17	1812.38
603.51	1834.98
603.85	1726.51
604.19	1780.74
604.53	1792.04
604.87	1830.46
605.21	1746.85
605.55	1796.56
605.89	1737.81
606.23	1706.17
606.56	1701.65
606.90	1803.34
607.24	1830.46
607.58	1764.93
607.92	1783.00
608.26	1715.21
608.60	1692.61
608.94	1717.47
609.28	1764.93
609.62	1773.96
609.95	1701.65
610.29	1645.15
610.63	1755.89
610.97	1615.78
611.31	1645.15
611.65	1654.19
611.99	1733.29
612.33	1631.60
612.66	1649.67
613.00	1615.78
613.34	1629.34
613.68	1579.62
614.02	1706.17
614.36	1624.82
614.69	1665.49
615.03	1620.30
615.37	1642.89
615.71	1527.64
616.05	1572.84
616.38	1588.66
616.72	1534.42
617.06	1631.60
617.40	1640.63
617.74	1577.36
618.07	1525.38
618.41	1581.88
618.75	1577.36
619.09	1602.22
619.42	1489.23
619.76	1538.94
620.10	1523.12
620.44	1577.36
620.77	1527.64
621.11	1552.50
621.45	1523.12
621.79	1577.36
622.12	1561.54
622.46	1552.50
622.80	1561.54
623.13	1446.29
623.47	1563.80
623.81	1529.90
624.15	1457.59
624.48	1407.87
624.82	1477.93
625.16	1581.88
625.49	1482.45
625.83	1468.89
626.17	1502.79
626.50	1516.34
626.84	1450.81
627.18	1480.19
627.51	1482.45
627.85	1439.51
628.19	1457.59
628.52	1468.89
628.86	1480.19
629.20	1473.41
629.53	1423.69
629.87	1502.79
630.20	1444.03
630.54	1407.87
630.88	1403.35
631.21	1484.71
631.55	1414.65
631.89	1459.85
632.22	1496.01
632.56	1453.07
632.89	1450.81
633.23	1383.01
633.56	1505.05
633.90	1369.46
634.24	1439.51
634.57	1432.73
634.91	1444.03
635.24	1491.49
635.58	1448.55
635.91	1373.98
636.25	1373.98
636.58	1346.86
636.92	1335.56
637.26	1407.87
637.59	1389.79
637.93	1371.72
638.26	1383.01
638.60	1364.94
638.93	1324.26
639.27	1383.01
639.60	1392.05
639.94	1315.22
640.27	1373.98
640.61	1367.20
640.94	1457.59
641.28	1394.31
641.61	1326.52
641.94	1310.70
642.28	1315.22
642.61	1331.04
642.95	1380.75
643.28	1344.60
643.62	1322.00
643.95	1394.31
644.29	1346.86
644.62	1319.74
644.95	1346.86
645.29	1342.34
645.62	1279.06
645.96	1355.90
646.29	1303.92
646.63	1297.14
646.96	1283.58
647.29	1335.56
647.63	1308.44
647.96	1353.64
648.29	1294.88
648.63	1310.70
648.96	1306.18
649.30	1233.87
649.63	1270.02
649.96	1292.62
650.30	1256.46
650.63	1331.04
650.96	1303.92
651.30	1292.62
651.63	1299.40
651.96	1283.58
652.30	1197.71
652.63	1276.80
652.96	1299.40
653.30	1222.57
653.63	1315.22
653.96	1211.27
654.30	1297.14
654.63	1267.76
654.96	1256.46
655.29	1297.14
655.63	1303.92
655.96	1331.04
656.29	1290.36
656.63	1240.65
656.96	1267.76
657.29	1303.92
657.62	1260.98
657.96	1233.87
658.29	1297.14
658.62	1333.30
658.95	1301.66
659.29	1326.52
659.62	1279.06
659.95	1270.02
660.28	1260.98
660.61	1270.02
660.95	1245.16
661.28	1270.02
661.61	1195.45
661.94	1227.09
662.27	1310.70
662.61	1236.13
662.94	1290.36
663.27	1258.72
663.60	1265.50
663.93	1231.61
664.27	1238.39
664.60	1227.09
664.93	1242.91
665.26	1301.66
665.59	1231.61
665.92	1220.31
666.25	1186.41
666.59	1166.07
666.92	1263.24
667.25	1247.42
667.58	1213.53
667.91	1206.75
668.24	1204.49
668.57	1179.63
668.90	1202.23
669.23	1215.79
669.57	1220.31
669.90	1242.91
670.23	1179.63
670.56	1229.35
670.89	1168.33
671.22	1209.01
671.55	1193.19
671.88	1181.89
672.21	1184.15
672.54	1186.41
672.87	1168.33
673.20	1172.85
673.53	1172.85
673.86	1240.65
674.19	1249.68
674.52	1229.35
674.85	1218.05
675.18	1186.41
675.51	1175.11
675.84	1179.63
676.17	1197.71
676.50	1199.97
676.83	1251.94
677.16	1193.19
677.49	1147.99
677.82	1206.75
678.15	1163.81
678.48	1163.81
678.81	1215.79
679.14	1152.51
679.47	1157.03
679.80	1195.45
680.13	1143.47
680.46	1206.75
680.79	1145.73
681.12	1227.09
681.45	1209.01
681.78	1175.11
682.11	1141.21
682.44	1157.03
682.77	1163.81
683.09	1161.55
683.42	1197.71
683.75	1202.23
684.08	1184.15
684.41	1138.95
684.74	1134.43
685.07	1175.11
685.40	1157.03
685.72	1147.99
686.05	1170.59
686.38	1188.67
686.71	1209.01
687.04	1249.68
687.37	1136.69
687.70	1107.32
688.02	1188.67
688.35	1109.58
688.68	1175.11
689.01	1136.69
689.34	1170.59
689.67	1161.55
689.99	1166.07
690.32	1181.89
690.65	1211.27
690.98	1170.59
691.30	1157.03
691.63	1224.83
691.96	1179.63
692.29	1141.21
692.62	1213.53
692.94	1141.21
693.27	1132.17
693.60	1129.91
693.93	1102.80
694.25	1062.12
694.58	1093.76
694.91	1159.29
695.24	1154.77
695.56	1138.95
695.89	1163.81
696.22	1152.51
696.54	1152.51
696.87	1073.42
697.20	1172.85
697.53	1150.25
697.85	1170.59
698.18	1105.06
698.51	1098.28
698.83	1053.08
699.16	1096.02
699.49	1157.03
699.81	1197.71
700.14	1089.24
700.47	1125.39
700.79	1157.03
701.12	1107.32
701.45	1086.98
701.77	1136.69
702.10	1154.77
702.42	1193.19
702.75	1138.95
703.08	1100.54
703.40	1116.35
703.73	1138.95
704.05	1105.06
704.38	1152.51
704.71	1118.61
705.03	1170.59
705.36	1138.95
705.68	1111.84
706.01	1116.35
706.34	1132.17
706.66	1129.91
706.99	1120.87
707.31	1147.99
707.64	1159.29
707.96	1089.24
708.29	1181.89
708.61	1123.13
708.94	1102.80
709.26	1134.43
709.59	1075.68
709.92	1150.25
710.24	1145.73
710.57	1111.84
710.89	1082.46
711.22	1080.20
711.54	1186.41
711.87	1143.47
712.19	1152.51
712.51	1172.85
712.84	1111.84
713.16	1073.42
713.49	1163.81
713.81	1168.33
714.14	1138.95
714.46	1202.23
714.79	1123.13
715.11	1098.28
715.44	1107.32
715.76	1132.17
716.08	1175.11
716.41	1089.24
716.73	1150.25
717.06	1157.03
717.38	1195.45
717.70	1096.02
718.03	1143.47
718.35	1107.32
718.68	1145.73
719.00	1089.24
719.32	1147.99
719.65	1154.77
719.97	1116.35
720.29	1136.69
720.62	1143.47
720.94	1132.17
721.27	1107.32
721.59	1150.25
721.91	1161.55
722.24	1168.33
722.56	1161.55
722.88	1145.73
723.21	1120.87
723.53	1154.77
723.85	1161.55
724.17	1129.91
724.50	1116.35
724.82	1109.58
725.14	1181.89
725.47	1172.85
725.79	1107.32
726.11	1181.89
726.43	1138.95
726.76	1127.65
727.08	1091.50
727.40	1102.80
727.72	1037.26
728.05	1093.76
728.37	1118.61
728.69	1066.64
729.01	1123.13
729.34	1168.33
729.66	1064.38
729.98	1025.96
730.30	1118.61
730.62	1141.21
730.95	1109.58
731.27	1098.28
731.59	1114.10
731.91	1116.35
732.23	1120.87
732.56	1132.17
732.88	1111.84
733.20	1089.24
733.52	1111.84
733.84	1152.51
734.16	1066.64
734.49	1107.32
734.81	1150.25
735.13	1105.06
735.45	1143.47
735.77	1161.55
736.09	1125.39
736.41	1073.42
736.73	1123.13
737.06	1116.35
737.38	1179.63
737.70	1143.47
738.02	1086.98
738.34	1116.35
738.66	1123.13
738.98	1152.51
739.30	1127.65
739.62	1132.17
739.94	1132.17
740.26	1102.80
740.58	1157.03
740.90	1098.28
741.23	1134.43
741.55	1098.28
741.87	1102.80
742.19	1082.46
742.51	1136.69
742.83	1132.17
743.15	1141.21
743.47	1157.03
743.79	1199.97
744.11	1093.76
744.43	1077.94
744.75	1129.91
745.07	1073.42
745.39	1118.61
745.71	1125.39
746.03	1091.50
746.35	1100.54
746.67	1154.77
746.98	1073.42
747.30	1107.32
747.62	1109.58
747.94	1071.16
748.26	1123.13
748.58	1100.54
748.90	1084.72
749.22	1086.98
749.54	1129.91
749.86	1077.94
750.18	1136.69
750.50	1136.69
750.82	1071.16
751.13	1179.63
751.45	1129.91
751.77	1154.77
752.09	1071.16
752.41	1107.32
752.73	1050.82
753.05	1132.17
753.36	1136.69
753.68	1109.58
754.00	1105.06
754.32	1100.54
754.64	1138.95
754.96	1129.91
755.28	1143.47
755.59	1089.24
755.91	1098.28
756.23	1091.50
756.55	1035.00
756.87	1111.84
757.18	1147.99
757.50	1062.12
757.82	1075.68
758.14	1132.17
758.45	1118.61
758.77	1145.73
759.09	1100.54
759.41	1193.19
759.73	1082.46
760.04	1111.84
760.36	1089.24
760.68	1116.35
760.99	1109.58
761.31	1134.43
761.63	1132.17
761.95	1123.13
762.26	1188.67
762.58	1150.25
762.90	1150.25
763.21	1123.13
763.53	1062.12
763.85	1168.33
764.17	1134.43
764.48	1055.34
764.80	1064.38
765.12	1077.94
765.43	1129.91
765.75	1159.29
766.07	1145.73
766.38	1035.00
766.70	1154.77
767.01	1145.73
767.33	1116.35
767.65	1125.39
767.96	1091.50
768.28	1077.94
768.60	1048.56
768.91	1114.10
769.23	1077.94
769.54	1077.94
769.86	1136.69
770.18	1111.84
770.49	1141.21
770.81	1075.68
771.12	1041.78
771.44	1062.12
771.75	1118.61
772.07	1129.91
772.38	1111.84
772.70	1107.32
773.02	1084.72
773.33	1120.87
773.65	1080.20
773.96	1114.10
774.28	1105.06
774.59	1096.02
774.91	1068.90
775.22	1145.73
775.54	1084.72
775.85	1084.72
776.17	1091.50
776.48	1114.10
776.80	1086.98
777.11	1118.61
777.43	1091.50
777.74	1105.06
778.05	1050.82
778.37	1105.06
778.68	1098.28
779.00	1107.32
779.31	1089.24
779.63	1138.95
779.94	1114.10
780.26	1120.87
780.57	1084.72
780.88	1082.46
781.20	1075.68
781.51	1116.35
781.83	1152.51
782.14	1120.87
782.45	1035.00
782.77	1141.21
783.08	1136.69
783.39	1084.72
783.71	1123.13
784.02	1136.69
784.34	1111.84
784.65	1093.76
784.96	1105.06
785.28	1197.71
785.59	1059.86
785.90	1120.87
786.22	1116.35
786.53	1064.38
786.84	1150.25
787.15	1125.39
787.47	1093.76
787.78	1105.06
788.09	1064.38
788.41	1100.54
788.72	1107.32
789.03	1170.59
789.35	1161.55
789.66	1098.28
789.97	1084.72
790.28	1066.64
790.60	1125.39
790.91	1053.08
791.22	1098.28
791.53	1073.42
791.84	1109.58
792.16	1109.58
792.47	1100.54
792.78	1084.72
793.09	1053.08
793.41	1068.90
793.72	1159.29
794.03	1091.50
794.34	1025.96
794.65	1109.58
794.96	1129.91
795.28	1100.54
795.59	1114.10
795.90	1062.12
796.21	1062.12
796.52	1105.06
796.83	1107.32
797.15	1132.17
797.46	1150.25
797.77	1157.03
798.08	1120.87
798.39	1118.61
798.70	1105.06
799.01	1105.06
799.32	1136.69
799.63	1127.65
799.95	1080.20
800.26	1066.64
800.57	1107.32
800.88	1125.39
801.19	1143.47
801.50	1168.33
801.81	1118.61
802.12	1109.58
802.43	1048.56
802.74	1134.43
803.05	1080.20
803.36	1084.72
803.67	1077.94
803.98	1091.50
804.29	1143.47
804.60	1136.69
804.91	1089.24
805.22	1105.06
805.53	1154.77
805.84	1109.58
806.15	1166.07
806.46	1125.39
806.77	1084.72
807.08	1082.46
807.39	1120.87
807.70	1145.73
808.01	1145.73
808.32	1145.73
808.63	1053.08
808.94	1129.91
809.25	1107.32
809.56	1127.65
809.87	1089.24
810.18	1064.38
810.49	1147.99
810.79	1098.28
811.10	1134.43
811.41	1075.68
811.72	1136.69
812.03	1089.24
812.34	1116.35
812.65	1132.17
812.96	1152.51
813.27	1066.64
813.57	1175.11
813.88	1068.90
814.19	1062.12
814.50	1116.35
814.81	1136.69
815.12	1075.68
815.42	1053.08
815.73	1159.29
816.04	1105.06
816.35	1107.32
816.66	1089.24
816.97	1136.69
817.27	1159.29
817.58	1091.50
817.89	1141.21
818.20	1118.61
818.50	1136.69
818.81	1141.21
819.12	1071.16
819.43	1089.24
819.73	1098.28
820.04	1044.04
820.35	1143.47
820.66	1163.81
820.96	1089.24
821.27	1125.39
821.58	1100.54
821.89	1050.82
822.19	1093.76
822.50	1105.06
822.81	1096.02
823.11	1086.98
823.42	1068.90
823.73	1084.72
824.03	1057.60
824.34	1134.43
824.65	1093.76
824.95	1154.77
825.26	1082.46
825.57	1159.29
825.87	1168.33
826.18	1080.20
826.49	1127.65
826.79	1123.13
827.10	1118.61
827.40	1075.68
827.71	1096.02
828.02	1100.54
828.32	1145.73
828.63	1152.51
828.93	1209.01
829.24	1120.87
829.55	1127.65
829.85	1105.06
830.16	1075.68
830.46	1053.08
830.77	1098.28
831.07	1064.38
831.38	1102.80
831.69	1188.67
831.99	1044.04
832.30	1077.94
832.60	1080.20
832.91	1025.96
833.21	1075.68
833.52	1096.02
833.82	1044.04
834.13	1143.47
834.43	1125.39
834.74	1102.80
835.04	1107.32
835.35	1152.51
835.65	1120.87
835.96	1118.61
836.26	1107.32
836.56	1084.72
836.87	1134.43
837.17	1125.39
837.48	1080.20
837.78	1109.58
838.09	1044.04
838.39	1077.94
838.69	1118.61
839.00	1073.42
839.30	1127.65
839.61	1096.02
839.91	1073.42
840.21	1089.24
840.52	1150.25
840.82	1114.10
841.13	1134.43
841.43	1089.24
841.73	1077.94
842.04	1123.13
842.34	1125.39
842.64	1096.02
842.95	1075.68
843.25	1098.28
843.55	1093.76
843.86	1098.28
844.16	1161.55
844.46	1089.24
844.77	1111.84
845.07	1102.80
845.37	1114.10
845.68	1062.12
845.98	1066.64
846.28	1111.84
846.58	1118.61
846.89	1107.32
847.19	1105.06
847.49	1152.51
847.79	1066.64
848.10	1120.87
848.40	1132.17
848.70	1084.72
849.00	1138.95
849.31	1082.46
849.61	1111.84
849.91	1105.06
850.21	1150.25
850.51	1157.03
850.82	1120.87
851.12	1107.32
851.42	1111.84
851.72	1116.35
852.02	1161.55
852.32	1109.58
852.63	1195.45
852.93	1154.77
853.23	1118.61
853.53	1145.73
853.83	1179.63
854.13	1050.82
854.43	1118.61
854.74	1100.54
855.04	1096.02
855.34	1105.06
855.64	1132.17
855.94	1093.76
856.24	1107.32
856.54	1109.58
856.84	1105.06
857.14	1109.58
857.44	1059.86
857.74	1195.45
858.05	1114.10
858.35	1111.84
858.65	1138.95
858.95	1114.10
859.25	1100.54
859.55	1141.21
859.85	1172.85
860.15	1134.43
860.45	1125.39
860.75	1129.91
861.05	1064.38
861.35	1211.27
861.65	1123.13
861.95	1118.61
862.25	1163.81
862.55	1114.10
862.85	1100.54
863.15	1138.95
863.45	1089.24
863.75	1089.24
864.05	1093.76
864.35	1028.22
864.64	1109.58
864.94	1044.04
865.24	1082.46
865.54	1141.21
865.84	1114.10
866.14	1059.86
866.44	1089.24
866.74	1157.03
867.04	1030.48
867.34	1111.84
867.64	1059.86
867.93	1145.73
868.23	1123.13
868.53	1105.06
868.83	1096.02
869.13	1161.55
869.43	1114.10
869.73	1080.20
870.02	1114.10
870.32	1071.16
870.62	1064.38
870.92	1163.81
871.22	1152.51
871.51	1073.42
871.81	1098.28
872.11	1071.16
872.41	1091.50
872.71	1102.80
873.00	1107.32
873.30	1057.60
873.60	1152.51
873.90	1147.99
874.19	1093.76
874.49	1123.13
874.79	1125.39
875.09	1114.10
875.38	1089.24
875.68	1120.87
875.98	1109.58
876.28	1062.12
876.57	1077.94
876.87	1077.94
877.17	1077.94
