174.03	775.12
174.41	775.12
174.78	775.12
175.16	745.74
175.54	738.96
175.92	790.94
176.30	784.16
176.67	836.14
177.05	793.20
177.43	723.14
177.81	824.84
178.19	815.80
178.56	833.88
178.94	892.63
179.32	928.79
179.70	910.71
180.08	908.45
180.45	926.53
180.83	969.47
181.21	980.77
181.59	996.58
181.96	1019.18
182.34	1025.96
182.72	987.54
183.10	1030.48
183.48	1080.20
183.85	1123.13
184.23	1050.82
184.61	1114.10
184.99	1114.10
185.36	1118.61
185.74	1179.63
186.12	1134.43
186.50	1172.85
186.87	1145.73
187.25	1093.76
187.63	1175.11
188.01	1188.67
188.38	1111.84
188.76	1181.89
189.14	1186.41
189.52	1179.63
189.89	1179.63
190.27	1118.61
190.65	1163.81
191.02	1179.63
191.40	1127.65
191.78	1127.65
192.16	1129.91
192.53	1100.54
192.91	1127.65
193.29	1172.85
193.66	1154.77
194.04	1127.65
194.42	1084.72
194.79	1147.99
195.17	1236.13
195.55	1134.43
195.93	1179.63
196.30	1107.32
196.68	1172.85
197.06	1222.57
197.43	1157.03
197.81	1120.87
198.19	1132.17
198.56	1132.17
198.94	1136.69
199.32	1127.65
199.69	1163.81
200.07	1161.55
200.45	1116.35
200.82	1129.91
201.20	1195.45
201.58	1159.29
201.95	1096.02
202.33	1136.69
202.71	1147.99
203.08	1125.39
203.46	1240.65
203.84	1123.13
204.21	1127.65
204.59	1134.43
204.96	1127.65
205.34	1152.51
205.72	1179.63
206.09	1129.91
206.47	1105.06
206.85	1123.13
207.22	1213.53
207.60	1186.41
207.97	1170.59
208.35	1141.21
208.73	1150.25
209.10	1168.33
209.48	1152.51
209.85	1179.63
210.23	1118.61
210.61	1157.03
210.98	1134.43
211.36	1089.24
211.73	1199.97
212.11	1132.17
212.49	1161.55
212.86	1163.81
213.24	1132.17
213.61	1150.25
213.99	1186.41
214.37	1172.85
214.74	1143.47
215.12	1118.61
215.49	1132.17
215.87	1154.77
216.24	1132.17
216.62	1138.95
216.99	1107.32
217.37	1093.76
217.75	1157.03
218.12	1197.71
218.50	1186.41
218.87	1143.47
219.25	1199.97
219.62	1184.15
220.00	1138.95
220.37	1188.67
220.75	1197.71
221.12	1170.59
221.50	1157.03
221.87	1177.37
222.25	1213.53
222.63	1170.59
223.00	1175.11
223.38	1220.31
223.75	1154.77
224.13	1195.45
224.50	1152.51
224.88	1129.91
225.25	1263.24
225.63	1179.63
226.00	1150.25
226.38	1181.89
226.75	1147.99
227.13	1150.25
227.50	1190.93
227.88	1231.61
228.25	1204.49
228.63	1150.25
229.00	1190.93
229.37	1242.91
229.75	1145.73
230.12	1136.69
230.50	1127.65
230.87	1204.49
231.25	1157.03
231.62	1166.07
232.00	1190.93
232.37	1193.19
232.75	1107.32
233.12	1129.91
233.50	1163.81
233.87	1136.69
234.24	1120.87
234.62	1213.53
234.99	1136.69
235.37	1188.67
235.74	1195.45
236.12	1132.17
236.49	1220.31
236.86	1197.71
237.24	1211.27
237.61	1161.55
237.99	1102.80
238.36	1105.06
238.74	1168.33
239.11	1175.11
239.48	1161.55
239.86	1186.41
240.23	1109.58
240.61	1204.49
240.98	1118.61
241.35	1184.15
241.73	1150.25
242.10	1179.63
242.48	1152.51
242.85	1163.81
243.22	1181.89
243.60	1093.76
243.97	1159.29
244.34	1186.41
244.72	1181.89
245.09	1184.15
245.47	1161.55
245.84	1152.51
246.21	1211.27
246.59	1157.03
246.96	1188.67
247.33	1197.71
247.71	1168.33
248.08	1143.47
248.45	1159.29
248.83	1227.09
249.20	1213.53
249.57	1175.11
249.95	1227.09
250.32	1116.35
250.69	1186.41
251.07	1231.61
251.44	1233.87
251.81	1209.01
252.19	1145.73
252.56	1172.85
252.93	1145.73
253.31	1193.19
253.68	1157.03
254.05	1161.55
254.43	1247.42
254.80	1175.11
255.17	1154.77
255.55	1143.47
255.92	1215.79
256.29	1132.17
256.66	1204.49
257.04	1186.41
257.41	1220.31
257.78	1143.47
258.16	1202.23
258.53	1175.11
258.90	1154.77
259.27	1220.31
259.65	1177.37
260.02	1215.79
260.39	1179.63
260.76	1197.71
261.14	1177.37
261.51	1159.29
261.88	1195.45
262.25	1168.33
262.63	1159.29
263.00	1138.95
263.37	1143.47
263.74	1211.27
264.12	1152.51
264.49	1209.01
264.86	1159.29
265.23	1161.55
265.61	1215.79
265.98	1143.47
266.35	1215.79
266.72	1190.93
267.09	1147.99
267.47	1202.23
267.84	1186.41
268.21	1127.65
268.58	1209.01
268.95	1209.01
269.33	1170.59
269.70	1184.15
270.07	1190.93
270.44	1227.09
270.81	1267.76
271.19	1227.09
271.56	1199.97
271.93	1132.17
272.30	1107.32
272.67	1136.69
273.05	1159.29
273.42	1172.85
273.79	1168.33
274.16	1204.49
274.53	1188.67
274.90	1159.29
275.28	1168.33
275.65	1233.87
276.02	1195.45
276.39	1170.59
276.76	1222.57
277.13	1193.19
277.50	1227.09
277.88	1172.85
278.25	1238.39
278.62	1199.97
278.99	1238.39
279.36	1247.42
279.73	1179.63
280.10	1125.39
280.47	1109.58
280.85	1100.54
281.22	1213.53
281.59	1152.51
281.96	1177.37
282.33	1159.29
282.70	1209.01
283.07	1213.53
283.44	1184.15
283.81	1188.67
284.18	1141.21
284.56	1206.75
284.93	1233.87
285.30	1224.83
285.67	1227.09
286.04	1199.97
286.41	1220.31
286.78	1227.09
287.15	1172.85
287.52	1215.79
287.89	1172.85
288.26	1199.97
288.63	1218.05
289.00	1157.03
289.37	1222.57
289.75	1206.75
290.12	1209.01
290.49	1240.65
290.86	1209.01
291.23	1195.45
291.60	1209.01
291.97	1274.54
292.34	1157.03
292.71	1145.73
293.08	1247.42
293.45	1190.93
293.82	1242.91
294.19	1154.77
294.56	1177.37
294.93	1206.75
295.30	1238.39
295.67	1179.63
296.04	1150.25
296.41	1211.27
296.78	1238.39
297.15	1193.19
297.52	1184.15
297.89	1202.23
298.26	1227.09
298.63	1247.42
299.00	1227.09
299.37	1159.29
299.74	1220.31
300.11	1147.99
300.48	1175.11
300.85	1181.89
301.22	1163.81
301.59	1218.05
301.96	1227.09
302.33	1231.61
302.70	1247.42
303.07	1188.67
303.43	1170.59
303.80	1213.53
304.17	1170.59
304.54	1220.31
304.91	1168.33
305.28	1150.25
305.65	1272.28
306.02	1224.83
306.39	1249.68
306.76	1193.19
307.13	1193.19
307.50	1188.67
307.87	1170.59
308.24	1233.87
308.60	1190.93
308.97	1211.27
309.34	1220.31
309.71	1197.71
310.08	1211.27
310.45	1166.07
310.82	1206.75
311.19	1324.26
311.56	1260.98
311.92	1199.97
312.29	1197.71
312.66	1238.39
313.03	1249.68
313.40	1206.75
313.77	1265.50
314.14	1193.19
314.51	1265.50
314.87	1231.61
315.24	1249.68
315.61	1263.24
315.98	1150.25
316.35	1247.42
316.72	1220.31
317.09	1220.31
317.45	1147.99
317.82	1163.81
318.19	1202.23
318.56	1186.41
318.93	1202.23
319.30	1181.89
319.66	1195.45
320.03	1224.83
320.40	1215.79
320.77	1188.67
321.14	1193.19
321.50	1190.93
321.87	1249.68
322.24	1125.39
322.61	1254.20
322.98	1186.41
323.34	1150.25
323.71	1181.89
324.08	1186.41
324.45	1206.75
324.82	1265.50
325.18	1211.27
325.55	1249.68
325.92	1224.83
326.29	1227.09
326.65	1204.49
327.02	1231.61
327.39	1184.15
327.76	1227.09
328.12	1186.41
328.49	1188.67
328.86	1267.76
329.23	1231.61
329.59	1215.79
329.96	1206.75
330.33	1242.91
330.70	1177.37
331.06	1206.75
331.43	1294.88
331.80	1190.93
332.17	1242.91
332.53	1317.48
332.90	1188.67
333.27	1184.15
333.63	1220.31
334.00	1247.42
334.37	1231.61
334.74	1233.87
335.10	1227.09
335.47	1163.81
335.84	1242.91
336.20	1290.36
336.57	1292.62
336.94	1233.87
337.30	1195.45
337.67	1254.20
338.04	1229.35
338.40	1251.94
338.77	1238.39
339.14	1276.80
339.50	1206.75
339.87	1308.44
340.24	1143.47
340.60	1249.68
340.97	1229.35
341.34	1206.75
341.70	1274.54
342.07	1301.66
342.44	1240.65
342.80	1303.92
343.17	1283.58
343.53	1256.46
343.90	1245.16
344.27	1292.62
344.63	1206.75
345.00	1236.13
345.37	1281.32
345.73	1301.66
346.10	1195.45
346.46	1281.32
346.83	1279.06
347.20	1215.79
347.56	1227.09
347.93	1315.22
348.29	1315.22
348.66	1256.46
349.03	1220.31
349.39	1209.01
349.76	1247.42
350.12	1172.85
350.49	1272.28
350.85	1251.94
351.22	1231.61
351.59	1236.13
351.95	1195.45
352.32	1224.83
352.68	1227.09
353.05	1231.61
353.41	1322.00
353.78	1306.18
354.14	1279.06
354.51	1306.18
354.88	1270.02
355.24	1258.72
355.61	1276.80
355.97	1274.54
356.34	1310.70
356.70	1281.32
357.07	1288.10
357.43	1272.28
357.80	1299.40
358.16	1279.06
358.53	1358.16
358.89	1340.08
359.26	1328.78
359.62	1319.74
359.99	1279.06
360.35	1346.86
360.72	1231.61
361.08	1258.72
361.45	1260.98
361.81	1310.70
362.18	1256.46
362.54	1285.84
362.91	1337.82
363.27	1355.90
363.63	1385.27
364.00	1335.56
364.36	1353.64
364.73	1303.92
365.09	1308.44
365.46	1358.16
365.82	1276.80
366.19	1328.78
366.55	1387.53
366.91	1349.12
367.28	1351.38
367.64	1401.09
368.01	1430.47
368.37	1423.69
368.74	1369.46
369.10	1351.38
369.46	1335.56
369.83	1369.46
370.19	1315.22
370.56	1412.39
370.92	1358.16
371.28	1464.37
371.65	1380.75
372.01	1383.01
372.38	1432.73
372.74	1412.39
373.10	1394.31
373.47	1489.23
373.83	1448.55
374.19	1428.21
374.56	1457.59
374.92	1428.21
375.29	1394.31
375.65	1448.55
376.01	1511.82
376.38	1489.23
376.74	1502.79
377.10	1434.99
377.47	1532.16
377.83	1599.96
378.19	1572.84
378.56	1676.79
378.92	1631.60
379.28	1622.56
379.65	1749.11
380.01	1746.85
380.37	1778.48
380.74	1728.77
381.10	1828.20
381.46	1864.36
381.83	1853.06
382.19	1968.31
382.55	2011.25
382.91	2081.30
383.28	2189.77
383.64	2357.00
384.00	2359.26
384.37	2488.07
384.73	2700.49
385.09	2612.36
385.45	2915.18
385.82	3023.65
386.18	3346.80
386.54	3516.29
386.91	3712.90
387.27	3947.92
387.63	4221.36
387.99	4612.31
388.36	4939.98
388.72	5190.82
389.08	5622.45
389.44	5852.95
389.80	6356.90
390.17	6924.11
390.53	7658.56
390.89	8343.28
391.25	8747.79
391.62	9457.38
391.98	10623.45
392.34	11450.55
392.70	12112.68
393.06	12953.33
393.43	14069.69
393.79	14883.22
394.15	15515.98
394.51	16702.39
394.87	18126.08
395.24	19454.86
395.60	20968.94
395.96	22453.65
396.32	24006.15
396.68	25538.31
397.04	27906.61
397.41	30830.83
397.77	32640.95
398.13	35806.97
398.49	37395.63
398.85	40245.27
399.21	44096.02
399.58	47187.46
399.94	49494.74
400.30	53379.39
400.66	54660.71
401.02	56943.14
401.38	58821.05
401.74	60382.59
402.11	62206.27
402.47	63652.56
402.83	64610.73
403.19	65535.00
403.55	65535.00
403.91	65535.00
404.27	65535.00
404.63	65535.00
404.99	65535.00
405.35	65535.00
405.72	65535.00
406.08	65535.00
406.44	65535.00
406.80	65535.00
407.16	65535.00
407.52	65535.00
407.88	65535.00
408.24	65535.00
408.60	65535.00
408.96	65535.00
409.32	65535.00
409.68	65535.00
410.04	65535.00
410.40	65535.00
410.76	65535.00
411.13	65535.00
411.49	65535.00
411.85	65130.49
412.21	64048.03
412.57	62757.67
412.93	62032.27
413.29	60283.16
413.65	58651.57
414.01	56911.50
414.37	54947.71
414.73	53817.79
415.09	52055.13
415.45	50409.97
415.81	47928.68
416.17	45734.39
416.53	44055.34
416.89	42014.71
417.25	39967.31
417.61	37420.48
417.97	36808.07
418.33	35526.75
418.69	34347.12
419.05	32681.63
419.41	32252.26
419.77	31000.31
420.12	29319.00
420.48	27199.28
420.84	27111.15
421.20	25807.23
421.56	23988.07
421.92	23960.95
422.28	22516.92
422.64	21303.39
423.00	20261.61
423.36	19312.49
423.72	18367.88
424.08	17039.10
424.44	16252.68
424.80	15696.76
425.16	15136.33
425.51	14040.31
425.87	13888.90
426.23	12666.33
426.59	11855.06
426.95	11751.10
427.31	11324.00
427.67	10987.28
428.03	10126.29
428.39	9916.12
428.74	9192.98
429.10	8655.14
429.46	8431.42
429.82	8022.39
430.18	7866.46
430.54	7437.09
430.90	7122.98
431.26	6908.29
431.61	6594.18
431.97	6467.63
432.33	6099.27
432.69	6121.87
433.05	5877.81
433.41	5640.53
433.76	5452.96
434.12	5396.47
434.48	5064.27
434.84	4869.93
435.20	4808.91
435.55	4732.08
435.91	4488.02
436.27	4314.01
436.63	4103.85
436.99	3990.86
437.34	4004.41
437.70	3832.67
438.06	3701.60
438.42	3570.53
438.78	3572.79
439.13	3446.24
439.49	3416.86
439.85	3249.63
440.21	3062.07
440.56	2951.33
440.92	2967.15
441.28	2867.72
441.64	2858.68
441.99	2680.16
442.35	2666.60
442.71	2540.05
443.07	2485.81
443.42	2506.15
443.78	2445.13
444.14	2479.03
444.50	2422.54
444.85	2280.17
445.21	2266.61
445.57	2255.31
445.93	2205.59
446.28	2160.40
446.64	2117.46
447.00	2108.42
447.35	2110.68
447.71	2054.18
448.07	2027.07
448.42	2083.56
448.78	1925.37
449.14	1966.05
449.49	1846.28
449.85	1873.40
450.21	1844.02
450.56	1816.90
450.92	1794.30
451.28	1844.02
451.63	1771.70
451.99	1764.93
452.35	1692.61
452.70	1746.85
453.06	1728.77
453.42	1708.43
453.77	1690.35
454.13	1642.89
454.49	1606.74
454.84	1595.44
455.20	1536.68
455.55	1543.46
455.91	1593.18
456.27	1545.72
456.62	1586.40
456.98	1475.67
457.33	1473.41
457.69	1527.64
458.05	1484.71
458.40	1439.51
458.76	1468.89
459.11	1446.29
459.47	1428.21
459.83	1473.41
460.18	1425.95
460.54	1459.85
460.89	1387.53
461.25	1383.01
461.60	1378.49
461.96	1401.09
462.31	1401.09
462.67	1369.46
463.03	1301.66
463.38	1421.43
463.74	1351.38
464.09	1358.16
464.45	1279.06
464.80	1394.31
465.16	1383.01
465.51	1373.98
465.87	1376.24
466.22	1353.64
466.58	1373.98
466.93	1322.00
467.29	1299.40
467.64	1351.38
468.00	1322.00
468.35	1342.34
468.71	1349.12
469.06	1310.70
469.42	1423.69
469.77	1322.00
470.13	1306.18
470.48	1319.74
470.84	1256.46
471.19	1340.08
471.54	1272.28
471.90	1355.90
472.25	1270.02
472.61	1315.22
472.96	1288.10
473.32	1324.26
473.67	1303.92
474.03	1285.84
474.38	1315.22
474.73	1274.54
475.09	1324.26
475.44	1299.40
475.80	1355.90
476.15	1326.52
476.50	1303.92
476.86	1258.72
477.21	1263.24
477.57	1308.44
477.92	1279.06
478.27	1317.48
478.63	1297.14
478.98	1218.05
479.34	1251.94
479.69	1236.13
480.04	1290.36
480.40	1281.32
480.75	1276.80
481.10	1328.78
481.46	1265.50
481.81	1274.54
482.16	1263.24
482.52	1251.94
482.87	1317.48
483.22	1292.62
483.58	1331.04
483.93	1342.34
484.28	1317.48
484.64	1299.40
484.99	1283.58
485.34	1344.60
485.70	1333.30
486.05	1292.62
486.40	1349.12
486.76	1342.34
487.11	1267.76
487.46	1301.66
487.81	1301.66
488.17	1324.26
488.52	1367.20
488.87	1322.00
489.23	1353.64
489.58	1378.49
489.93	1279.06
490.28	1383.01
490.64	1367.20
490.99	1371.72
491.34	1360.42
491.69	1392.05
492.05	1385.27
492.40	1373.98
492.75	1405.61
493.10	1437.25
493.46	1486.97
493.81	1466.63
494.16	1428.21
494.51	1398.83
494.86	1403.35
495.22	1398.83
495.57	1475.67
495.92	1425.95
496.27	1466.63
496.62	1516.34
496.98	1538.94
497.33	1525.38
497.68	1518.60
498.03	1502.79
498.38	1593.18
498.74	1595.44
499.09	1599.96
499.44	1561.54
499.79	1649.67
500.14	1726.51
500.49	1660.97
500.85	1676.79
501.20	1679.05
501.55	1737.81
501.90	1810.12
502.25	1792.04
502.60	1749.11
502.95	1794.30
503.30	1877.92
503.66	1837.24
504.01	1966.05
504.36	1950.23
504.71	1923.11
505.06	1938.93
505.41	1959.27
505.76	2040.62
506.11	2108.42
506.46	2244.01
506.82	2160.40
507.17	2176.21
507.52	2203.33
507.87	2314.06
508.22	2357.00
508.57	2447.39
508.92	2454.17
509.27	2458.69
509.62	2517.45
509.97	2610.10
510.32	2625.92
510.67	2727.61
511.02	2616.88
511.37	2770.55
511.72	2921.96
512.07	2881.28
512.42	2955.85
512.77	2976.19
513.12	3123.08
513.47	3199.92
513.82	3222.51
514.17	3260.93
514.52	3448.50
514.87	3477.87
515.22	3541.15
515.57	3588.61
515.92	3663.18
516.27	3721.94
516.62	3864.31
516.97	3791.99
517.32	3997.64
517.67	3988.60
518.02	4101.59
518.37	4289.15
518.72	4191.98
519.07	4191.98
519.42	4422.48
519.77	4467.68
520.12	4587.45
520.47	4623.61
520.82	4752.42
521.17	4777.28
521.52	4779.54
521.87	4802.13
522.22	5030.38
522.56	5073.31
522.91	4996.48
523.26	5039.42
523.61	5285.74
523.96	5222.46
524.31	5251.84
524.66	5394.21
525.01	5513.98
525.36	5509.46
525.71	5629.23
526.05	5633.75
526.40	5846.17
526.75	5889.11
527.10	5868.77
527.45	5773.86
527.80	6119.61
528.15	6130.91
528.49	6164.81
528.84	6072.16
529.19	6072.16
529.54	6196.45
529.89	6295.88
530.24	6356.90
530.58	6417.91
530.93	6291.36
531.28	6345.60
531.63	6402.09
531.98	6431.47
532.33	6363.67
532.67	6476.67
533.02	6553.50
533.37	6646.15
533.72	6578.36
534.07	6440.51
534.41	6628.07
534.76	6576.10
535.11	6594.18
535.46	6768.18
535.80	6901.51
536.15	6750.10
536.50	6680.05
536.85	6677.79
537.19	6847.28
537.54	6867.62
537.89	6881.18
538.24	6772.70
538.58	6736.55
538.93	6887.95
539.28	6567.06
539.63	6987.39
539.97	6763.66
540.32	6885.69
540.67	6845.02
541.01	6851.80
541.36	6845.02
541.71	6874.40
542.06	6824.68
542.40	6835.98
542.75	6892.47
543.10	6887.95
543.44	6795.30
543.79	6727.51
544.14	6890.21
544.48	6650.67
544.83	6711.69
545.18	6874.40
545.52	6648.41
545.87	6652.93
546.22	6729.77
546.56	6682.31
546.91	6677.79
547.25	6788.52
547.60	6616.78
547.95	6641.63
548.29	6655.19
548.64	6467.63
548.99	6555.76
549.33	6492.48
549.68	6485.71
550.02	6616.78
550.37	6472.15
550.72	6517.34
551.06	6435.99
551.41	6497.00
551.75	6350.12
552.10	6393.05
552.45	6438.25
552.79	6248.42
553.14	6487.96
553.48	6420.17
553.83	6408.87
554.17	6359.15
554.52	6356.90
554.87	6307.18
555.21	6182.89
555.56	6015.66
555.90	6038.26
556.25	6176.11
556.59	6210.01
556.94	6130.91
557.28	6173.85
557.63	6038.26
557.97	6151.25
558.32	6221.31
558.66	6087.98
559.01	6112.83
559.35	5968.20
559.70	6051.82
560.04	6169.33
560.39	5819.06
560.73	5834.87
561.08	5941.09
561.42	5959.17
561.77	5866.51
562.11	5873.29
562.46	5803.24
562.80	5823.58
563.14	5780.64
563.49	5749.00
563.83	5751.26
564.18	5767.08
564.52	5676.69
564.87	5586.29
565.21	5651.83
565.56	5473.30
565.90	5636.01
566.24	5570.48
566.59	5525.28
566.93	5407.77
567.28	5617.93
567.62	5513.98
567.96	5638.27
568.31	5462.00
568.65	5597.59
569.00	5437.15
569.34	5425.85
569.68	5161.45
570.03	5389.69
570.37	5283.48
570.71	5206.64
571.06	5371.61
571.40	5274.44
571.74	5190.82
572.09	5245.06
572.43	5290.26
572.78	5161.45
573.12	5066.53
573.46	5186.30
573.80	5039.42
574.15	5123.03
574.49	5023.60
574.83	5064.27
575.18	4971.62
575.52	4960.32
575.86	5028.12
576.21	4933.20
576.55	4885.75
576.89	4942.24
577.24	4912.87
577.58	4865.41
577.92	4831.51
578.26	4806.65
578.61	4826.99
578.95	4797.61
579.29	4664.28
579.63	4639.43
579.98	4686.88
580.32	4655.24
580.66	4709.48
581.00	4607.79
581.35	4732.08
581.69	4567.11
582.03	4625.87
582.37	4569.37
582.72	4451.86
583.06	4429.26
583.40	4494.80
583.74	4467.68
584.08	4345.65
584.43	4460.90
584.77	4458.64
585.11	4429.26
585.45	4370.51
585.79	4280.11
586.13	4359.21
586.48	4368.25
586.82	4393.10
587.16	4162.60
587.50	4167.12
587.84	4099.33
588.18	4106.11
588.53	4232.66
588.87	4144.52
589.21	4108.37
589.55	4090.29
589.89	4121.93
590.23	4155.82
590.57	4038.31
590.92	4178.42
591.26	4051.87
591.60	4008.93
591.94	3929.84
592.28	3970.52
592.62	3900.46
592.96	4006.67
593.30	3828.15
593.64	3920.80
593.98	3769.39
594.32	3730.98
594.67	3724.20
595.01	3816.85
595.35	3647.36
595.69	3755.83
596.03	3755.83
596.37	3825.89
596.71	3728.72
597.05	3588.61
597.39	3547.93
597.73	3654.14
598.07	3586.35
598.41	3586.35
598.75	3606.68
599.09	3638.32
599.43	3493.69
599.77	3448.50
600.11	3504.99
600.45	3428.16
600.79	3464.32
601.13	3324.21
601.47	3455.28
601.81	3260.93
602.15	3310.65
602.49	3321.95
602.83	3425.90
603.17	3317.43
603.51	3179.58
603.85	3156.98
604.19	3193.14
604.53	3156.98
604.87	3181.84
605.21	3274.49
605.55	3152.46
605.89	3120.82
606.23	3197.66
606.56	3123.08
606.90	3132.12
607.24	2971.67
607.58	3068.85
607.92	2931.00
608.26	2998.79
608.60	3064.33
608.94	2885.80
609.28	3028.17
609.62	2949.08
609.95	2998.79
610.29	2869.98
610.63	2779.59
610.97	2944.56
611.31	2818.00
611.65	2775.07
611.99	2824.78
612.33	2779.59
612.66	2797.67
613.00	2797.67
613.34	2750.21
613.68	2808.97
614.02	2714.05
614.36	2754.73
614.69	2605.58
615.03	2707.27
615.37	2668.86
615.71	2729.87
616.05	2747.95
616.38	2628.18
616.72	2582.98
617.06	2612.36
617.40	2594.28
617.74	2535.53
618.07	2533.27
618.41	2508.41
618.75	2650.78
619.09	2621.40
619.42	2553.61
619.76	2481.29
620.10	2567.16
620.44	2560.38
620.77	2454.17
621.11	2449.65
621.45	2375.08
621.79	2576.20
622.12	2418.02
622.46	2305.02
622.80	2406.72
623.13	2454.17
623.47	2447.39
623.81	2472.25
624.15	2415.76
624.48	2345.70
624.82	2332.14
625.16	2318.58
625.49	2286.95
625.83	2336.66
626.17	2273.39
626.50	2329.88
626.84	2282.43
627.18	2293.72
627.51	2228.19
627.85	2244.01
628.19	2210.11
628.52	2225.93
628.86	2273.39
629.20	2196.55
629.53	2164.91
629.87	2221.41
630.20	2119.72
630.54	2192.03
630.88	2219.15
631.21	2115.20
631.55	2142.32
631.89	2119.72
632.22	2119.72
632.56	2085.82
632.89	2151.36
633.23	2060.96
633.56	2112.94
633.90	2036.10
634.24	2124.24
634.57	2070.00
634.91	2058.70
635.24	2054.18
635.58	2042.88
635.91	2065.48
636.25	2056.44
636.58	2056.44
636.92	2070.00
637.26	1934.41
637.59	2018.03
637.93	2060.96
638.26	2097.12
638.60	1981.87
638.93	2015.77
639.27	1947.97
639.60	1875.66
639.94	1954.75
640.27	1925.37
640.61	1947.97
640.94	1900.52
641.28	1873.40
641.61	1981.87
641.94	1968.31
642.28	1952.49
642.61	1855.32
642.95	1932.15
643.28	1929.89
643.62	1828.20
643.95	1812.38
644.29	1918.59
644.62	1866.62
644.95	1855.32
645.29	1859.84
645.62	1805.60
645.96	1778.48
646.29	1749.11
646.63	1708.43
646.96	1805.60
647.29	1728.77
647.63	1787.52
647.96	1744.59
648.29	1746.85
648.63	1744.59
648.96	1787.52
649.30	1733.29
649.63	1699.39
649.96	1724.25
650.30	1731.03
650.63	1742.33
650.96	1744.59
651.30	1703.91
651.63	1758.15
651.96	1769.44
652.30	1688.09
652.63	1703.91
652.96	1649.67
653.30	1746.85
653.63	1735.55
653.96	1658.71
654.30	1708.43
654.63	1645.15
654.96	1658.71
655.29	1762.67
655.63	1699.39
655.96	1660.97
656.29	1645.15
656.63	1656.45
656.96	1658.71
657.29	1609.00
657.62	1636.12
657.96	1620.30
658.29	1584.14
658.62	1620.30
658.95	1633.86
659.29	1599.96
659.62	1609.00
659.95	1586.40
660.28	1566.06
660.61	1557.02
660.95	1568.32
661.28	1631.60
661.61	1550.24
661.94	1557.02
662.27	1590.92
662.61	1529.90
662.94	1588.66
663.27	1543.46
663.60	1536.68
663.93	1570.58
664.27	1480.19
664.60	1496.01
664.93	1516.34
665.26	1536.68
665.59	1473.41
665.92	1505.05
666.25	1514.08
666.59	1538.94
666.92	1480.19
667.25	1457.59
667.58	1480.19
667.91	1462.11
668.24	1507.30
668.57	1498.27
668.90	1579.62
669.23	1466.63
669.57	1547.98
669.90	1425.95
670.23	1523.12
670.56	1473.41
670.89	1448.55
671.22	1405.61
671.55	1398.83
671.88	1480.19
672.21	1394.31
672.54	1453.07
672.87	1457.59
673.20	1448.55
673.53	1486.97
673.86	1462.11
674.19	1468.89
674.52	1401.09
674.85	1471.15
675.18	1448.55
675.51	1421.43
675.84	1419.17
676.17	1466.63
676.50	1432.73
676.83	1378.49
677.16	1405.61
677.49	1437.25
677.82	1398.83
678.15	1518.60
678.48	1392.05
678.81	1419.17
679.14	1360.42
679.47	1401.09
679.80	1394.31
680.13	1414.65
680.46	1380.75
680.79	1401.09
681.12	1398.83
681.45	1401.09
681.78	1367.20
682.11	1394.31
682.44	1414.65
682.77	1416.91
683.09	1401.09
683.42	1319.74
683.75	1358.16
684.08	1380.75
684.41	1351.38
684.74	1288.10
685.07	1387.53
685.40	1335.56
685.72	1378.49
686.05	1340.08
686.38	1322.00
686.71	1270.02
687.04	1331.04
687.37	1242.91
687.70	1324.26
688.02	1276.80
688.35	1317.48
688.68	1328.78
689.01	1276.80
689.34	1362.68
689.67	1326.52
689.99	1380.75
690.32	1285.84
690.65	1315.22
690.98	1270.02
691.30	1292.62
691.63	1315.22
691.96	1328.78
692.29	1306.18
692.62	1312.96
692.94	1285.84
693.27	1310.70
693.60	1342.34
693.93	1301.66
694.25	1204.49
694.58	1265.50
694.91	1342.34
695.24	1344.60
695.56	1274.54
695.89	1310.70
696.22	1265.50
696.54	1272.28
696.87	1308.44
697.20	1310.70
697.53	1299.40
697.85	1290.36
698.18	1251.94
698.51	1256.46
698.83	1283.58
699.16	1233.87
699.49	1260.98
699.81	1274.54
700.14	1303.92
700.47	1267.76
700.79	1349.12
701.12	1204.49
701.45	1247.42
701.77	1326.52
702.10	1240.65
702.42	1236.13
702.75	1251.94
703.08	1274.54
703.40	1254.20
703.73	1274.54
704.05	1279.06
704.38	1290.36
704.71	1308.44
705.03	1238.39
705.36	1265.50
705.68	1240.65
706.01	1308.44
706.34	1260.98
706.66	1215.79
706.99	1209.01
707.31	1283.58
707.64	1242.91
707.96	1306.18
708.29	1297.14
708.61	1258.72
708.94	1197.71
709.26	1297.14
709.59	1247.42
709.92	1215.79
710.24	1272.28
710.57	1328.78
710.89	1249.68
711.22	1213.53
711.54	1242.91
711.87	1247.42
712.19	1254.20
712.51	1267.76
712.84	1263.24
713.16	1222.57
713.49	1238.39
713.81	1222.57
714.14	1179.63
714.46	1218.05
714.79	1209.01
715.11	1204.49
715.44	1258.72
715.76	1245.16
716.08	1231.61
716.41	1315.22
716.73	1240.65
717.06	1245.16
717.38	1154.77
717.70	1204.49
718.03	1238.39
718.35	1299.40
718.68	1227.09
719.00	1190.93
719.32	1222.57
719.65	1254.20
719.97	1168.33
720.29	1224.83
720.62	1129.91
720.94	1204.49
721.27	1251.94
721.59	1157.03
721.91	1240.65
722.24	1242.91
722.56	1213.53
722.88	1224.83
723.21	1206.75
723.53	1236.13
723.85	1172.85
724.17	1172.85
724.50	1209.01
724.82	1080.20
725.14	1222.57
725.47	1202.23
725.79	1211.27
726.11	1179.63
726.43	1159.29
726.76	1204.49
727.08	1177.37
727.40	1290.36
727.72	1240.65
728.05	1240.65
728.37	1231.61
728.69	1202.23
729.01	1202.23
729.34	1224.83
729.66	1159.29
729.98	1147.99
730.30	1161.55
730.62	1202.23
730.95	1170.59
731.27	1263.24
731.59	1166.07
731.91	1227.09
732.23	1157.03
732.56	1159.29
732.88	1251.94
733.20	1193.19
733.52	1188.67
733.84	1163.81
734.16	1134.43
734.49	1141.21
734.81	1172.85
735.13	1218.05
735.45	1209.01
735.77	1193.19
736.09	1138.95
736.41	1166.07
736.73	1233.87
737.06	1222.57
737.38	1276.80
737.70	1177.37
738.02	1145.73
738.34	1229.35
738.66	1209.01
738.98	1211.27
739.30	1209.01
739.62	1258.72
739.94	1154.77
740.26	1170.59
740.58	1202.23
740.90	1199.97
741.23	1188.67
741.55	1215.79
741.87	1125.39
742.19	1188.67
742.51	1170.59
742.83	1197.71
743.15	1157.03
743.47	1105.06
743.79	1157.03
744.11	1213.53
744.43	1143.47
744.75	1193.19
745.07	1195.45
745.39	1179.63
745.71	1150.25
746.03	1206.75
746.35	1159.29
746.67	1177.37
746.98	1193.19
747.30	1231.61
747.62	1132.17
747.94	1166.07
748.26	1204.49
748.58	1129.91
748.90	1251.94
749.22	1213.53
749.54	1195.45
749.86	1150.25
750.18	1136.69
750.50	1172.85
750.82	1161.55
751.13	1224.83
751.45	1163.81
751.77	1132.17
752.09	1213.53
752.41	1213.53
752.73	1170.59
753.05	1199.97
753.36	1197.71
753.68	1105.06
754.00	1168.33
754.32	1199.97
754.64	1143.47
754.96	1204.49
755.28	1170.59
755.59	1184.15
755.91	1229.35
756.23	1170.59
756.55	1098.28
756.87	1132.17
757.18	1157.03
757.50	1172.85
757.82	1157.03
758.14	1150.25
758.45	1145.73
758.77	1199.97
759.09	1175.11
759.41	1197.71
759.73	1211.27
760.04	1184.15
760.36	1093.76
760.68	1138.95
760.99	1168.33
761.31	1136.69
761.63	1168.33
761.95	1220.31
762.26	1143.47
762.58	1136.69
762.90	1143.47
763.21	1152.51
763.53	1136.69
763.85	1193.19
764.17	1175.11
764.48	1147.99
764.80	1209.01
765.12	1195.45
765.43	1159.29
765.75	1197.71
766.07	1297.14
766.38	1170.59
766.70	1163.81
767.01	1152.51
767.33	1132.17
767.65	1190.93
767.96	1084.72
768.28	1179.63
768.60	1166.07
768.91	1147.99
769.23	1141.21
769.54	1181.89
769.86	1147.99
770.18	1163.81
770.49	1177.37
770.81	1206.75
771.12	1190.93
771.44	1163.81
771.75	1242.91
772.07	1260.98
772.38	1195.45
772.70	1184.15
773.02	1186.41
773.33	1161.55
773.65	1181.89
773.96	1206.75
774.28	1163.81
774.59	1229.35
774.91	1159.29
775.22	1193.19
775.54	1195.45
775.85	1138.95
776.17	1129.91
776.48	1152.51
776.80	1166.07
777.11	1168.33
777.43	1195.45
777.74	1195.45
778.05	1188.67
778.37	1102.80
778.68	1157.03
779.00	1186.41
779.31	1193.19
779.63	1166.07
779.94	1138.95
780.26	1147.99
780.57	1170.59
780.88	1098.28
781.20	1175.11
781.51	1231.61
781.83	1177.37
782.14	1132.17
782.45	1125.39
782.77	1141.21
783.08	1170.59
783.39	1145.73
783.71	1154.77
784.02	1181.89
784.34	1175.11
784.65	1118.61
784.96	1224.83
785.28	1157.03
785.59	1190.93
785.90	1213.53
786.22	1220.31
786.53	1157.03
786.84	1163.81
787.15	1197.71
787.47	1204.49
787.78	1098.28
788.09	1136.69
788.41	1154.77
788.72	1107.32
789.03	1227.09
789.35	1213.53
789.66	1215.79
789.97	1161.55
790.28	1179.63
790.60	1175.11
790.91	1145.73
791.22	1181.89
791.53	1172.85
791.84	1224.83
792.16	1195.45
792.47	1204.49
792.78	1152.51
793.09	1181.89
793.41	1177.37
793.72	1152.51
794.03	1177.37
794.34	1199.97
794.65	1170.59
794.96	1204.49
795.28	1188.67
795.59	1195.45
795.90	1152.51
796.21	1190.93
796.52	1134.43
796.83	1211.27
797.15	1186.41
797.46	1175.11
797.77	1213.53
798.08	1114.10
798.39	1132.17
798.70	1123.13
799.01	1168.33
799.32	1114.10
799.63	1147.99
799.95	1147.99
800.26	1199.97
800.57	1211.27
800.88	1147.99
801.19	1204.49
801.50	1172.85
801.81	1229.35
802.12	1197.71
802.43	1127.65
802.74	1107.32
803.05	1166.07
803.36	1190.93
803.67	1238.39
803.98	1118.61
804.29	1204.49
804.60	1186.41
804.91	1159.29
805.22	1127.65
805.53	1159.29
805.84	1206.75
806.15	1145.73
806.46	1193.19
806.77	1166.07
807.08	1161.55
807.39	1105.06
807.70	1168.33
808.01	1138.95
808.32	1138.95
808.63	1186.41
808.94	1179.63
809.25	1209.01
809.56	1141.21
809.87	1175.11
810.18	1138.95
810.49	1145.73
810.79	1127.65
811.10	1170.59
811.41	1170.59
811.72	1096.02
812.03	1163.81
812.34	1202.23
812.65	1157.03
812.96	1172.85
813.27	1166.07
813.57	1166.07
813.88	1161.55
814.19	1193.19
814.50	1084.72
814.81	1175.11
815.12	1163.81
815.42	1159.29
815.73	1188.67
816.04	1154.77
816.35	1231.61
816.66	1184.15
816.97	1127.65
817.27	1147.99
817.58	1141.21
817.89	1172.85
818.20	1143.47
818.50	1127.65
818.81	1147.99
819.12	1188.67
819.43	1199.97
819.73	1107.32
820.04	1170.59
820.35	1150.25
820.66	1193.19
820.96	1231.61
821.27	1177.37
821.58	1184.15
821.89	1150.25
822.19	1129.91
822.50	1220.31
822.81	1204.49
823.11	1186.41
823.42	1195.45
823.73	1154.77
824.03	1202.23
824.34	1166.07
824.65	1179.63
824.95	1134.43
825.26	1120.87
825.57	1100.54
825.87	1134.43
826.18	1123.13
826.49	1166.07
826.79	1220.31
827.10	1154.77
827.40	1127.65
827.71	1150.25
828.02	1098.28
828.32	1120.87
828.63	1188.67
828.93	1172.85
829.24	1168.33
829.55	1107.32
829.85	1138.95
830.16	1118.61
830.46	1159.29
830.77	1199.97
831.07	1177.37
831.38	1181.89
831.69	1195.45
831.99	1154.77
832.30	1238.39
832.60	1166.07
832.91	1109.58
833.21	1157.03
833.52	1170.59
833.82	1109.58
834.13	1154.77
834.43	1093.76
834.74	1152.51
835.04	1132.17
835.35	1181.89
835.65	1175.11
835.96	1202.23
836.26	1190.93
836.56	1181.89
836.87	1132.17
837.17	1157.03
837.48	1204.49
837.78	1186.41
838.09	1159.29
838.39	1195.45
838.69	1132.17
839.00	1197.71
839.30	1170.59
839.61	1172.85
839.91	1190.93
840.21	1141.21
840.52	1166.07
840.82	1195.45
841.13	1166.07
841.43	1229.35
841.73	1138.95
842.04	1154.77
842.34	1154.77
842.64	1127.65
842.95	1172.85
843.25	1157.03
843.55	1190.93
843.86	1150.25
844.16	1138.95
844.46	1147.99
844.77	1125.39
845.07	1114.10
845.37	1147.99
845.68	1159.29
845.98	1152.51
846.28	1170.59
846.58	1193.19
846.89	1157.03
847.19	1240.65
847.49	1186.41
847.79	1172.85
848.10	1168.33
848.40	1170.59
848.70	1091.50
849.00	1154.77
849.31	1170.59
849.61	1163.81
849.91	1100.54
850.21	1177.37
850.51	1136.69
850.82	1168.33
851.12	1143.47
851.42	1177.37
851.72	1175.11
852.02	1138.95
852.32	1132.17
852.63	1247.42
852.93	1220.31
853.23	1181.89
853.53	1143.47
853.83	1163.81
854.13	1193.19
854.43	1166.07
854.74	1206.75
855.04	1188.67
855.34	1134.43
855.64	1161.55
855.94	1157.03
856.24	1175.11
856.54	1134.43
856.84	1150.25
857.14	1152.51
857.44	1129.91
857.74	1215.79
858.05	1138.95
858.35	1177.37
858.65	1143.47
858.95	1154.77
859.25	1068.90
859.55	1118.61
859.85	1147.99
860.15	1084.72
860.45	1202.23
860.75	1157.03
861.05	1197.71
861.35	1172.85
861.65	1177.37
861.95	1154.77
862.25	1161.55
862.55	1170.59
862.85	1163.81
863.15	1161.55
863.45	1141.21
863.75	1199.97
864.05	1170.59
864.35	1152.51
864.64	1168.33
864.94	1231.61
865.24	1177.37
865.54	1195.45
865.84	1127.65
866.14	1163.81
866.44	1127.65
866.74	1186.41
867.04	1134.43
867.34	1120.87
867.64	1125.39
867.93	1202.23
868.23	1111.84
868.53	1129.91
868.83	1154.77
869.13	1125.39
869.43	1125.39
869.73	1188.67
870.02	1168.33
870.32	1138.95
870.62	1147.99
870.92	1170.59
871.22	1143.47
871.51	1204.49
871.81	1181.89
872.11	1157.03
872.41	1179.63
872.71	1147.99
873.00	1152.51
873.30	1172.85
873.60	1143.47
873.90	1231.61
874.19	1159.29
874.49	1240.65
874.79	1204.49
875.09	1159.29
875.38	1096.02
875.68	1129.91
875.98	1141.21
876.28	1143.47
876.57	1114.10
876.87	1114.10
877.17	1114.10
