174.03	811.28
174.41	811.28
174.78	811.28
175.16	741.22
175.54	786.42
175.92	797.72
176.30	856.47
176.67	831.62
177.05	779.64
177.43	822.58
177.81	867.77
178.19	838.40
178.56	870.03
178.94	860.99
179.32	951.39
179.70	897.15
180.08	876.81
180.45	969.47
180.83	980.77
181.21	987.54
181.59	1037.26
181.96	1021.44
182.34	1057.60
182.72	1014.66
183.10	1136.69
183.48	1102.80
183.85	1116.35
184.23	1152.51
184.61	1107.32
184.99	1120.87
185.36	1195.45
185.74	1186.41
186.12	1197.71
186.50	1195.45
186.87	1116.35
187.25	1163.81
187.63	1168.33
188.01	1218.05
188.38	1218.05
188.76	1168.33
189.14	1147.99
189.52	1193.19
189.89	1184.15
190.27	1143.47
190.65	1188.67
191.02	1181.89
191.40	1170.59
191.78	1195.45
192.16	1100.54
192.53	1170.59
192.91	1159.29
193.29	1211.27
193.66	1166.07
194.04	1184.15
194.42	1157.03
194.79	1172.85
195.17	1172.85
195.55	1168.33
195.93	1141.21
196.30	1190.93
196.68	1177.37
197.06	1132.17
197.43	1114.10
197.81	1181.89
198.19	1220.31
198.56	1290.36
198.94	1145.73
199.32	1168.33
199.69	1143.47
200.07	1125.39
200.45	1134.43
200.82	1172.85
201.20	1138.95
201.58	1129.91
201.95	1175.11
202.33	1143.47
202.71	1159.29
203.08	1163.81
203.46	1190.93
203.84	1172.85
204.21	1206.75
204.59	1154.77
204.96	1213.53
205.34	1157.03
205.72	1197.71
206.09	1170.59
206.47	1096.02
206.85	1179.63
207.22	1109.58
207.60	1163.81
207.97	1202.23
208.35	1188.67
208.73	1213.53
209.10	1177.37
209.48	1159.29
209.85	1163.81
210.23	1181.89
210.61	1161.55
210.98	1114.10
211.36	1254.20
211.73	1143.47
212.11	1175.11
212.49	1184.15
212.86	1134.43
213.24	1154.77
213.61	1175.11
213.99	1190.93
214.37	1193.19
214.74	1215.79
215.12	1141.21
215.49	1127.65
215.87	1166.07
216.24	1138.95
216.62	1215.79
216.99	1132.17
217.37	1127.65
217.75	1152.51
218.12	1161.55
218.50	1199.97
218.87	1129.91
219.25	1141.21
219.62	1211.27
220.00	1177.37
220.37	1179.63
220.75	1172.85
221.12	1129.91
221.50	1184.15
221.87	1127.65
222.25	1172.85
222.63	1062.12
223.00	1163.81
223.38	1159.29
223.75	1177.37
224.13	1213.53
224.50	1242.91
224.88	1195.45
225.25	1136.69
225.63	1218.05
226.00	1143.47
226.38	1209.01
226.75	1231.61
227.13	1177.37
227.50	1100.54
227.88	1168.33
228.25	1227.09
228.63	1161.55
229.00	1186.41
229.37	1157.03
229.75	1190.93
230.12	1161.55
230.50	1166.07
230.87	1125.39
231.25	1242.91
231.62	1184.15
232.00	1240.65
232.37	1170.59
232.75	1213.53
233.12	1236.13
233.50	1258.72
233.87	1274.54
234.24	1145.73
234.62	1154.77
234.99	1202.23
235.37	1197.71
235.74	1197.71
236.12	1163.81
236.49	1145.73
236.86	1170.59
237.24	1132.17
237.61	1161.55
237.99	1204.49
238.36	1209.01
238.74	1154.77
239.11	1193.19
239.48	1204.49
239.86	1197.71
240.23	1213.53
240.61	1270.02
240.98	1195.45
241.35	1161.55
241.73	1166.07
242.10	1163.81
242.48	1242.91
242.85	1190.93
243.22	1143.47
243.60	1147.99
243.97	1218.05
244.34	1136.69
244.72	1147.99
245.09	1086.98
245.47	1220.31
245.84	1138.95
246.21	1125.39
246.59	1184.15
246.96	1159.29
247.33	1215.79
247.71	1209.01
248.08	1184.15
248.45	1197.71
248.83	1197.71
249.20	1163.81
249.57	1220.31
249.95	1197.71
250.32	1147.99
250.69	1202.23
251.07	1254.20
251.44	1147.99
251.81	1175.11
252.19	1247.42
252.56	1238.39
252.93	1127.65
253.31	1181.89
253.68	1186.41
254.05	1184.15
254.43	1166.07
254.80	1213.53
255.17	1238.39
255.55	1179.63
255.92	1288.10
256.29	1190.93
256.66	1161.55
257.04	1204.49
257.41	1222.57
257.78	1199.97
258.16	1141.21
258.53	1159.29
258.90	1202.23
259.27	1209.01
259.65	1168.33
260.02	1188.67
260.39	1213.53
260.76	1186.41
261.14	1206.75
261.51	1197.71
261.88	1197.71
262.25	1233.87
262.63	1145.73
263.00	1209.01
263.37	1129.91
263.74	1152.51
264.12	1193.19
264.49	1179.63
264.86	1245.16
265.23	1195.45
265.61	1125.39
265.98	1245.16
266.35	1161.55
266.72	1215.79
267.09	1179.63
267.47	1215.79
267.84	1172.85
268.21	1154.77
268.58	1222.57
268.95	1199.97
269.33	1102.80
269.70	1218.05
270.07	1109.58
270.44	1161.55
270.81	1249.68
271.19	1199.97
271.56	1218.05
271.93	1281.32
272.30	1190.93
272.67	1186.41
273.05	1213.53
273.42	1220.31
273.79	1265.50
274.16	1138.95
274.53	1163.81
274.90	1204.49
275.28	1213.53
275.65	1218.05
276.02	1157.03
276.39	1265.50
276.76	1166.07
277.13	1134.43
277.50	1188.67
277.88	1260.98
278.25	1193.19
278.62	1224.83
278.99	1218.05
279.36	1141.21
279.73	1224.83
280.10	1240.65
280.47	1263.24
280.85	1184.15
281.22	1184.15
281.59	1215.79
281.96	1224.83
282.33	1213.53
282.70	1141.21
283.07	1179.63
283.44	1195.45
283.81	1220.31
284.18	1233.87
284.56	1181.89
284.93	1227.09
285.30	1188.67
285.67	1233.87
286.04	1272.28
286.41	1231.61
286.78	1166.07
287.15	1195.45
287.52	1224.83
287.89	1227.09
288.26	1154.77
288.63	1195.45
289.00	1240.65
289.37	1220.31
289.75	1190.93
290.12	1175.11
290.49	1166.07
290.86	1233.87
291.23	1254.20
291.60	1195.45
291.97	1175.11
292.34	1206.75
292.71	1204.49
293.08	1224.83
293.45	1184.15
293.82	1227.09
294.19	1195.45
294.56	1222.57
294.93	1193.19
295.30	1227.09
295.67	1202.23
296.04	1184.15
296.41	1238.39
296.78	1168.33
297.15	1254.20
297.52	1251.94
297.89	1233.87
298.26	1172.85
298.63	1270.02
299.00	1175.11
299.37	1211.27
299.74	1190.93
300.11	1299.40
300.48	1188.67
300.85	1236.13
301.22	1213.53
301.59	1184.15
301.96	1270.02
302.33	1227.09
302.70	1245.16
303.07	1224.83
303.43	1132.17
303.80	1229.35
304.17	1247.42
304.54	1218.05
304.91	1186.41
305.28	1260.98
305.65	1209.01
306.02	1199.97
306.39	1215.79
306.76	1220.31
307.13	1184.15
307.50	1247.42
307.87	1193.19
308.24	1211.27
308.60	1190.93
308.97	1245.16
309.34	1204.49
309.71	1297.14
310.08	1218.05
310.45	1256.46
310.82	1188.67
311.19	1251.94
311.56	1267.76
311.92	1236.13
312.29	1256.46
312.66	1202.23
313.03	1240.65
313.40	1245.16
313.77	1242.91
314.14	1199.97
314.51	1276.80
314.87	1294.88
315.24	1249.68
315.61	1260.98
315.98	1229.35
316.35	1256.46
316.72	1242.91
317.09	1256.46
317.45	1308.44
317.82	1285.84
318.19	1197.71
318.56	1213.53
318.93	1260.98
319.30	1265.50
319.66	1206.75
320.03	1279.06
320.40	1263.24
320.77	1240.65
321.14	1272.28
321.50	1181.89
321.87	1260.98
322.24	1220.31
322.61	1222.57
322.98	1265.50
323.34	1242.91
323.71	1220.31
324.08	1242.91
324.45	1267.76
324.82	1175.11
325.18	1249.68
325.55	1195.45
325.92	1231.61
326.29	1231.61
326.65	1190.93
327.02	1209.01
327.39	1238.39
327.76	1258.72
328.12	1281.32
328.49	1254.20
328.86	1211.27
329.23	1260.98
329.59	1281.32
329.96	1240.65
330.33	1251.94
330.70	1233.87
331.06	1181.89
331.43	1181.89
331.80	1236.13
332.17	1215.79
332.53	1312.96
332.90	1285.84
333.27	1247.42
333.63	1251.94
334.00	1249.68
334.37	1270.02
334.74	1233.87
335.10	1218.05
335.47	1222.57
335.84	1168.33
336.20	1247.42
336.57	1213.53
336.94	1172.85
337.30	1288.10
337.67	1247.42
338.04	1251.94
338.40	1285.84
338.77	1310.70
339.14	1193.19
339.50	1337.82
339.87	1310.70
340.24	1308.44
340.60	1288.10
340.97	1331.04
341.34	1260.98
341.70	1260.98
342.07	1242.91
342.44	1218.05
342.80	1213.53
343.17	1238.39
343.53	1247.42
343.90	1322.00
344.27	1227.09
344.63	1222.57
345.00	1231.61
345.37	1240.65
345.73	1242.91
346.10	1247.42
346.46	1260.98
346.83	1272.28
347.20	1263.24
347.56	1265.50
347.93	1331.04
348.29	1242.91
348.66	1188.67
349.03	1263.24
349.39	1197.71
349.76	1258.72
350.12	1306.18
350.49	1233.87
350.85	1335.56
351.22	1267.76
351.59	1251.94
351.95	1326.52
352.32	1294.88
352.68	1297.14
353.05	1188.67
353.41	1270.02
353.78	1258.72
354.14	1260.98
354.51	1258.72
354.88	1310.70
355.24	1247.42
355.61	1251.94
355.97	1283.58
356.34	1290.36
356.70	1335.56
357.07	1312.96
357.43	1303.92
357.80	1328.78
358.16	1328.78
358.53	1312.96
358.89	1299.40
359.26	1265.50
359.62	1303.92
359.99	1351.38
360.35	1333.30
360.72	1279.06
361.08	1297.14
361.45	1324.26
361.81	1371.72
362.18	1331.04
362.54	1283.58
362.91	1242.91
363.27	1360.42
363.63	1344.60
364.00	1342.34
364.36	1362.68
364.73	1340.08
365.09	1367.20
365.46	1285.84
365.82	1398.83
366.19	1437.25
366.55	1383.01
366.91	1464.37
367.28	1351.38
367.64	1312.96
368.01	1383.01
368.37	1351.38
368.74	1371.72
369.10	1407.87
369.46	1398.83
369.83	1364.94
370.19	1484.71
370.56	1421.43
370.92	1310.70
371.28	1367.20
371.65	1425.95
372.01	1351.38
372.38	1425.95
372.74	1439.51
373.10	1414.65
373.47	1457.59
373.83	1453.07
374.19	1432.73
374.56	1410.13
374.92	1473.41
375.29	1446.29
375.65	1491.49
376.01	1450.81
376.38	1529.90
376.74	1516.34
377.10	1520.86
377.47	1552.50
377.83	1520.86
378.19	1599.96
378.56	1579.62
378.92	1654.19
379.28	1586.40
379.65	1629.34
380.01	1631.60
380.37	1676.79
380.74	1830.46
381.10	1812.38
381.46	1943.45
381.83	1938.93
382.19	1988.65
382.55	2099.38
382.91	2128.76
383.28	2219.15
383.64	2377.34
384.00	2368.30
384.37	2503.89
384.73	2650.78
385.09	2840.60
385.45	2940.04
385.82	3068.85
386.18	3303.87
386.54	3620.24
386.91	3733.24
387.27	3934.36
387.63	4239.44
387.99	4463.16
388.36	4858.63
388.72	5303.82
389.08	5676.69
389.44	6137.69
389.80	6598.70
390.17	6908.29
390.53	7538.78
390.89	8557.97
391.25	8885.64
391.62	9606.53
391.98	10711.58
392.34	11674.27
392.70	12133.01
393.06	12869.72
393.43	13852.74
393.79	14899.04
394.15	15554.39
394.51	16921.59
394.87	17814.22
395.24	19314.75
395.60	21149.73
395.96	22494.32
396.32	24410.66
396.68	25988.02
397.04	28363.10
397.41	30557.39
397.77	32851.11
398.13	35741.43
398.49	37544.78
398.85	40360.52
399.21	44333.30
399.58	47027.01
399.94	49460.85
400.30	54079.93
400.66	54834.72
401.02	57273.07
401.38	59051.55
401.74	60545.30
402.11	62461.63
402.47	63772.33
402.83	64653.67
403.19	65535.00
403.55	65535.00
403.91	65535.00
404.27	65535.00
404.63	65535.00
404.99	65535.00
405.35	65535.00
405.72	65535.00
406.08	65535.00
406.44	65535.00
406.80	65535.00
407.16	65535.00
407.52	65535.00
407.88	65535.00
408.24	65535.00
408.60	65535.00
408.96	65535.00
409.32	65535.00
409.68	65535.00
410.04	65535.00
410.40	65535.00
410.76	65535.00
411.13	65535.00
411.49	65535.00
411.85	65123.71
412.21	64115.83
412.57	62988.17
412.93	61912.50
413.29	60344.18
413.65	58592.81
414.01	57160.08
414.37	54884.43
414.73	53740.96
415.09	51937.62
415.45	50317.32
415.81	48290.26
416.17	45427.05
416.53	43933.31
416.89	42267.82
417.25	40374.08
417.61	37752.68
417.97	37237.44
418.33	35675.90
418.69	34358.42
419.05	33031.90
419.41	31630.81
419.77	31273.75
420.12	29192.45
420.48	27488.54
420.84	27126.97
421.20	25775.59
421.56	24272.81
421.92	24340.60
422.28	22546.30
422.64	21316.95
423.00	20320.37
423.36	19705.70
423.72	18162.23
424.08	17362.26
424.44	16453.80
424.80	15816.53
425.16	15269.66
425.51	14282.11
425.87	13864.04
426.23	12718.31
426.59	11866.35
426.95	12053.92
427.31	11360.15
427.67	10957.90
428.03	10074.31
428.39	9974.88
428.74	9247.21
429.10	8856.26
429.46	8377.18
429.82	7934.25
430.18	7712.79
430.54	7536.52
430.90	7344.44
431.26	6750.10
431.61	6833.72
431.97	6515.08
432.33	6232.60
432.69	6196.45
433.05	5742.22
433.41	5638.27
433.76	5371.61
434.12	5297.04
434.48	5071.05
434.84	4867.67
435.20	4831.51
435.55	4723.04
435.91	4497.06
436.27	4277.85
436.63	4124.19
436.99	4040.57
437.34	4029.27
437.70	3821.37
438.06	3719.68
438.42	3606.68
438.78	3443.98
439.13	3405.56
439.49	3376.18
439.85	3134.38
440.21	3114.04
440.56	3043.99
440.92	3012.35
441.28	2829.30
441.64	2806.71
441.99	2797.67
442.35	2657.56
442.71	2594.28
443.07	2562.64
443.42	2542.31
443.78	2445.13
444.14	2447.39
444.50	2395.42
444.85	2302.76
445.21	2158.14
445.57	2295.98
445.93	2207.85
446.28	2155.88
446.64	2110.68
447.00	2099.38
447.35	2072.26
447.71	2088.08
448.07	2090.34
448.42	2076.78
448.78	1959.27
449.14	2008.99
449.49	1950.23
449.85	1841.76
450.21	1877.92
450.56	1844.02
450.92	1805.60
451.28	1719.73
451.63	1868.88
451.99	1731.03
452.35	1834.98
452.70	1706.17
453.06	1746.85
453.42	1717.47
453.77	1685.83
454.13	1685.83
454.49	1559.28
454.84	1609.00
455.20	1640.63
455.55	1554.76
455.91	1563.80
456.27	1559.28
456.62	1640.63
456.98	1518.60
457.33	1462.11
457.69	1459.85
458.05	1505.05
458.40	1475.67
458.76	1462.11
459.11	1486.97
459.47	1482.45
459.83	1502.79
460.18	1428.21
460.54	1367.20
460.89	1432.73
461.25	1385.27
461.60	1430.47
461.96	1441.77
462.31	1398.83
462.67	1371.72
463.03	1351.38
463.38	1396.57
463.74	1326.52
464.09	1396.57
464.45	1351.38
464.80	1457.59
465.16	1421.43
465.51	1328.78
465.87	1337.82
466.22	1337.82
466.58	1335.56
466.93	1387.53
467.29	1383.01
467.64	1306.18
468.00	1292.62
468.35	1319.74
468.71	1303.92
469.06	1371.72
469.42	1342.34
469.77	1360.42
470.13	1344.60
470.48	1312.96
470.84	1331.04
471.19	1297.14
471.54	1333.30
471.90	1344.60
472.25	1355.90
472.61	1270.02
472.96	1315.22
473.32	1373.98
473.67	1312.96
474.03	1297.14
474.38	1308.44
474.73	1297.14
475.09	1308.44
475.44	1355.90
475.80	1333.30
476.15	1324.26
476.50	1260.98
476.86	1310.70
477.21	1346.86
477.57	1315.22
477.92	1312.96
478.27	1303.92
478.63	1281.32
478.98	1312.96
479.34	1290.36
479.69	1351.38
480.04	1263.24
480.40	1265.50
480.75	1358.16
481.10	1358.16
481.46	1263.24
481.81	1340.08
482.16	1303.92
482.52	1279.06
482.87	1263.24
483.22	1328.78
483.58	1324.26
483.93	1294.88
484.28	1242.91
484.64	1276.80
484.99	1297.14
485.34	1299.40
485.70	1315.22
486.05	1315.22
486.40	1303.92
486.76	1315.22
487.11	1466.63
487.46	1378.49
487.81	1344.60
488.17	1351.38
488.52	1401.09
488.87	1358.16
489.23	1401.09
489.58	1306.18
489.93	1337.82
490.28	1416.91
490.64	1387.53
490.99	1412.39
491.34	1410.13
491.69	1355.90
492.05	1394.31
492.40	1358.16
492.75	1360.42
493.10	1398.83
493.46	1432.73
493.81	1444.03
494.16	1428.21
494.51	1389.79
494.86	1373.98
495.22	1407.87
495.57	1493.75
495.92	1480.19
496.27	1518.60
496.62	1466.63
496.98	1453.07
497.33	1527.64
497.68	1505.05
498.03	1532.16
498.38	1525.38
498.74	1575.10
499.09	1534.42
499.44	1656.45
499.79	1636.12
500.14	1676.79
500.49	1670.01
500.85	1651.93
501.20	1642.89
501.55	1665.49
501.90	1792.04
502.25	1755.89
502.60	1719.73
502.95	1769.44
503.30	1873.40
503.66	1877.92
504.01	1896.00
504.36	1909.55
504.71	1972.83
505.06	1925.37
505.41	2006.73
505.76	1920.85
506.11	1979.61
506.46	2006.73
506.82	2169.43
507.17	2119.72
507.52	2241.75
507.87	2253.05
508.22	2302.76
508.57	2273.39
508.92	2427.05
509.27	2422.54
509.62	2465.47
509.97	2501.63
510.32	2587.50
510.67	2673.38
511.02	2689.19
511.37	2673.38
511.72	2686.94
512.07	2804.45
512.42	2935.52
512.77	2967.15
513.12	2989.75
513.47	3025.91
513.82	3068.85
514.17	3217.99
514.52	3251.89
514.87	3231.55
515.22	3315.17
515.57	3416.86
515.92	3518.55
516.27	3579.57
516.62	3566.01
516.97	3733.24
517.32	3663.18
517.67	3839.45
518.02	3821.37
518.37	3916.28
518.72	4045.09
519.07	4128.70
519.42	4185.20
519.77	4119.67
520.12	4162.60
520.47	4284.63
520.82	4359.21
521.17	4411.18
521.52	4537.73
521.87	4576.15
522.22	4659.76
522.56	4720.78
522.91	4847.33
523.26	4894.79
523.61	4949.02
523.96	5032.64
524.31	5003.26
524.66	5129.81
525.01	5351.27
525.36	5222.46
525.71	5288.00
526.05	5419.07
526.40	5534.32
526.75	5554.66
527.10	5590.81
527.45	5561.44
527.80	5588.55
528.15	5712.84
528.49	5597.59
528.84	5871.03
529.19	5764.82
529.54	5868.77
529.89	5911.71
530.24	5798.72
530.58	5981.76
530.93	6139.95
531.28	5995.32
531.63	6047.30
531.98	6002.10
532.33	6101.53
532.67	6108.31
533.02	6036.00
533.37	6207.75
533.72	6293.62
534.07	6277.80
534.41	6293.62
534.76	6313.96
535.11	6252.94
535.46	6345.60
535.80	6404.35
536.15	6384.01
536.50	6420.17
536.85	6316.22
537.19	6456.33
537.54	6365.93
537.89	6546.72
538.24	6422.43
538.58	6515.08
538.93	6422.43
539.28	6338.82
539.63	6463.11
539.97	6440.51
540.32	6259.72
540.67	6431.47
541.01	6564.80
541.36	6467.63
541.71	6377.23
542.06	6499.26
542.40	6431.47
542.75	6481.19
543.10	6295.88
543.44	6435.99
543.79	6492.48
544.14	6589.66
544.48	6458.59
544.83	6440.51
545.18	6415.65
545.52	6415.65
545.87	6395.31
546.22	6447.29
546.56	6230.34
546.91	6304.92
547.25	6316.22
547.60	6377.23
547.95	6377.23
548.29	6142.21
548.64	6275.54
548.99	6198.71
549.33	6146.73
549.68	6246.16
550.02	6167.07
550.37	6020.18
550.72	6171.59
551.06	6171.59
551.41	6155.77
551.75	6153.51
552.10	6002.10
552.45	5932.05
552.79	6126.39
553.14	5877.81
553.48	5900.41
553.83	6045.04
554.17	6142.21
554.52	6011.14
554.87	5880.07
555.21	5970.46
555.56	5776.12
555.90	5877.81
556.25	5685.73
556.59	5778.38
556.94	5764.82
557.28	5760.30
557.63	5708.32
557.97	5819.06
558.32	5771.60
558.66	5787.42
559.01	5622.45
559.35	5624.71
559.70	5710.58
560.04	5547.88
560.39	5631.49
560.73	5586.29
561.08	5724.14
561.42	5565.96
561.77	5758.04
562.11	5434.89
562.46	5529.80
562.80	5455.22
563.14	5434.89
563.49	5385.17
563.83	5430.37
564.18	5471.04
564.52	5308.34
564.87	5321.89
565.21	5396.47
565.56	5274.44
565.90	5303.82
566.24	5278.96
566.59	5337.71
566.93	5179.52
567.28	5222.46
567.62	5055.23
567.96	5251.84
568.31	5129.81
568.65	5175.01
569.00	5116.25
569.34	5039.42
569.68	5129.81
570.03	5215.68
570.37	5039.42
570.71	5012.30
571.06	5021.34
571.40	4964.84
571.74	5057.49
572.09	4901.57
572.43	4991.96
572.78	5001.00
573.12	4910.61
573.46	4804.39
573.80	4878.97
574.15	4675.58
574.49	4820.21
574.83	4908.35
575.18	4806.65
575.52	4824.73
575.86	4625.87
576.21	4709.48
576.55	4598.75
576.89	4596.49
577.24	4603.27
577.58	4512.88
577.92	4567.11
578.26	4605.53
578.61	4562.59
578.95	4562.59
579.29	4623.61
579.63	4465.42
579.98	4524.17
580.32	4476.72
580.66	4490.28
581.00	4542.25
581.35	4356.95
581.69	4422.48
582.03	4350.17
582.37	4266.55
582.72	4397.62
583.06	4338.87
583.40	4243.96
583.74	4239.44
584.08	4253.00
584.43	4334.35
584.77	4106.11
585.11	4128.70
585.45	4103.85
585.79	4078.99
586.13	4112.89
586.48	4101.59
586.82	4063.17
587.16	4058.65
587.50	4060.91
587.84	3966.00
588.18	3979.56
588.53	3984.08
588.87	3970.52
589.21	3907.24
589.55	4024.75
589.89	3936.62
590.23	3855.27
590.57	3848.49
590.92	3907.24
591.26	3846.23
591.60	3773.91
591.94	3710.64
592.28	3627.02
592.62	3749.05
592.96	3728.72
593.30	3692.56
593.64	3606.68
593.98	3767.13
594.32	3633.80
594.67	3645.10
595.01	3663.18
595.35	3608.94
595.69	3584.09
596.03	3568.27
596.37	3396.52
596.71	3529.85
597.05	3534.37
597.39	3504.99
597.73	3518.55
598.07	3319.69
598.41	3349.06
598.75	3310.65
599.09	3362.62
599.43	3362.62
599.77	3303.87
600.11	3319.69
600.45	3337.77
600.79	3265.45
601.13	3263.19
601.47	3111.78
601.81	3290.31
602.15	3299.35
602.49	3242.85
602.83	3134.38
603.17	3236.07
603.51	3055.29
603.85	3053.03
604.19	3109.52
604.53	3086.92
604.87	3019.13
605.21	3095.96
605.55	3050.77
605.89	3025.91
606.23	2921.96
606.56	2982.97
606.90	2994.27
607.24	2897.10
607.58	2831.56
607.92	2879.02
608.26	2955.85
608.60	2827.04
608.94	2858.68
609.28	2833.82
609.62	2899.36
609.95	2775.07
610.29	2892.58
610.63	2790.89
610.97	2851.90
611.31	2756.99
611.65	2756.99
611.99	2734.39
612.33	2664.34
612.66	2695.97
613.00	2632.70
613.34	2664.34
613.68	2628.18
614.02	2698.23
614.36	2659.82
614.69	2628.18
615.03	2634.96
615.37	2589.76
615.71	2524.23
616.05	2623.66
616.38	2521.97
616.72	2535.53
617.06	2445.13
617.40	2519.71
617.74	2338.92
618.07	2569.42
618.41	2479.03
618.75	2553.61
619.09	2449.65
619.42	2404.46
619.76	2413.50
620.10	2476.77
620.44	2393.16
620.77	2327.62
621.11	2422.54
621.45	2311.80
621.79	2429.31
622.12	2469.99
622.46	2341.18
622.80	2307.28
623.13	2350.22
623.47	2381.86
623.81	2314.06
624.15	2332.14
624.48	2228.19
624.82	2275.65
625.16	2316.32
625.49	2275.65
625.83	2230.45
626.17	2338.92
626.50	2207.85
626.84	2198.81
627.18	2264.35
627.51	2171.69
627.85	2115.20
628.19	2212.37
628.52	2216.89
628.86	2101.64
629.20	2219.15
629.53	2225.93
629.87	2090.34
630.20	2225.93
630.54	2110.68
630.88	2090.34
631.21	2106.16
631.55	2081.30
631.89	2117.46
632.22	2060.96
632.56	2060.96
632.89	2063.22
633.23	2029.33
633.56	2070.00
633.90	2018.03
634.24	1999.95
634.57	2036.10
634.91	2020.29
635.24	2058.70
635.58	2049.66
635.91	1997.69
636.25	1988.65
636.58	1970.57
636.92	1988.65
637.26	1995.43
637.59	1984.13
637.93	1932.15
638.26	1927.63
638.60	1975.09
638.93	1950.23
639.27	1943.45
639.60	1866.62
639.94	1900.52
640.27	1893.74
640.61	1916.33
640.94	1927.63
641.28	1823.68
641.61	1796.56
641.94	1848.54
642.28	1943.45
642.61	1864.36
642.95	1853.06
643.28	1812.38
643.62	1755.89
643.95	1846.28
644.29	1850.80
644.62	1783.00
644.95	1821.42
645.29	1724.25
645.62	1859.84
645.96	1794.30
646.29	1746.85
646.63	1721.99
646.96	1816.90
647.29	1785.26
647.63	1755.89
647.96	1753.63
648.29	1703.91
648.63	1746.85
648.96	1785.26
649.30	1744.59
649.63	1746.85
649.96	1733.29
650.30	1735.55
650.63	1744.59
650.96	1746.85
651.30	1679.05
651.63	1749.11
651.96	1746.85
652.30	1683.57
652.63	1681.31
652.96	1703.91
653.30	1733.29
653.63	1699.39
653.96	1685.83
654.30	1575.10
654.63	1681.31
654.96	1647.41
655.29	1740.07
655.63	1638.38
655.96	1688.09
656.29	1642.89
656.63	1633.86
656.96	1575.10
657.29	1584.14
657.62	1681.31
657.96	1620.30
658.29	1658.71
658.62	1606.74
658.95	1559.28
659.29	1593.18
659.62	1527.64
659.95	1613.52
660.28	1581.88
660.61	1604.48
660.95	1615.78
661.28	1651.93
661.61	1581.88
661.94	1595.44
662.27	1473.41
662.61	1536.68
662.94	1572.84
663.27	1586.40
663.60	1545.72
663.93	1498.27
664.27	1468.89
664.60	1561.54
664.93	1523.12
665.26	1527.64
665.59	1566.06
665.92	1550.24
666.25	1468.89
666.59	1489.23
666.92	1514.08
667.25	1502.79
667.58	1464.37
667.91	1457.59
668.24	1505.05
668.57	1475.67
668.90	1480.19
669.23	1448.55
669.57	1419.17
669.90	1444.03
670.23	1464.37
670.56	1416.91
670.89	1525.38
671.22	1453.07
671.55	1430.47
671.88	1407.87
672.21	1428.21
672.54	1410.13
672.87	1446.29
673.20	1373.98
673.53	1351.38
673.86	1518.60
674.19	1398.83
674.52	1401.09
674.85	1421.43
675.18	1421.43
675.51	1419.17
675.84	1477.93
676.17	1448.55
676.50	1324.26
676.83	1430.47
677.16	1335.56
677.49	1378.49
677.82	1416.91
678.15	1392.05
678.48	1425.95
678.81	1294.88
679.14	1421.43
679.47	1403.35
679.80	1380.75
680.13	1324.26
680.46	1398.83
680.79	1416.91
681.12	1383.01
681.45	1432.73
681.78	1373.98
682.11	1317.48
682.44	1285.84
682.77	1416.91
683.09	1396.57
683.42	1439.51
683.75	1333.30
684.08	1373.98
684.41	1331.04
684.74	1353.64
685.07	1322.00
685.40	1315.22
685.72	1369.46
686.05	1315.22
686.38	1299.40
686.71	1355.90
687.04	1414.65
687.37	1351.38
687.70	1342.34
688.02	1401.09
688.35	1380.75
688.68	1340.08
689.01	1344.60
689.34	1328.78
689.67	1299.40
689.99	1290.36
690.32	1279.06
690.65	1333.30
690.98	1294.88
691.30	1319.74
691.63	1306.18
691.96	1285.84
692.29	1346.86
692.62	1292.62
692.94	1342.34
693.27	1283.58
693.60	1315.22
693.93	1315.22
694.25	1263.24
694.58	1310.70
694.91	1218.05
695.24	1333.30
695.56	1328.78
695.89	1274.54
696.22	1315.22
696.54	1308.44
696.87	1288.10
697.20	1283.58
697.53	1270.02
697.85	1297.14
698.18	1240.65
698.51	1299.40
698.83	1331.04
699.16	1227.09
699.49	1297.14
699.81	1260.98
700.14	1292.62
700.47	1312.96
700.79	1294.88
701.12	1254.20
701.45	1249.68
701.77	1299.40
702.10	1303.92
702.42	1308.44
702.75	1290.36
703.08	1306.18
703.40	1272.28
703.73	1274.54
704.05	1272.28
704.38	1249.68
704.71	1306.18
705.03	1236.13
705.36	1209.01
705.68	1283.58
706.01	1245.16
706.34	1294.88
706.66	1294.88
706.99	1249.68
707.31	1303.92
707.64	1265.50
707.96	1199.97
708.29	1245.16
708.61	1258.72
708.94	1281.32
709.26	1193.19
709.59	1301.66
709.92	1254.20
710.24	1233.87
710.57	1285.84
710.89	1240.65
711.22	1204.49
711.54	1249.68
711.87	1202.23
712.19	1220.31
712.51	1240.65
712.84	1276.80
713.16	1242.91
713.49	1258.72
713.81	1215.79
714.14	1170.59
714.46	1319.74
714.79	1292.62
715.11	1213.53
715.44	1301.66
715.76	1301.66
716.08	1276.80
716.41	1270.02
716.73	1265.50
717.06	1211.27
717.38	1288.10
717.70	1247.42
718.03	1186.41
718.35	1224.83
718.68	1254.20
719.00	1233.87
719.32	1236.13
719.65	1218.05
719.97	1276.80
720.29	1236.13
720.62	1184.15
720.94	1258.72
721.27	1251.94
721.59	1218.05
721.91	1222.57
722.24	1263.24
722.56	1202.23
722.88	1265.50
723.21	1209.01
723.53	1197.71
723.85	1186.41
724.17	1193.19
724.50	1251.94
724.82	1179.63
725.14	1170.59
725.47	1247.42
725.79	1263.24
726.11	1193.19
726.43	1152.51
726.76	1215.79
727.08	1270.02
727.40	1218.05
727.72	1136.69
728.05	1211.27
728.37	1224.83
728.69	1186.41
729.01	1206.75
729.34	1267.76
729.66	1199.97
729.98	1238.39
730.30	1288.10
730.62	1170.59
730.95	1240.65
731.27	1186.41
731.59	1215.79
731.91	1209.01
732.23	1147.99
732.56	1256.46
732.88	1236.13
733.20	1206.75
733.52	1224.83
733.84	1233.87
734.16	1206.75
734.49	1260.98
734.81	1197.71
735.13	1186.41
735.45	1281.32
735.77	1195.45
736.09	1213.53
736.41	1229.35
736.73	1202.23
737.06	1141.21
737.38	1188.67
737.70	1211.27
738.02	1283.58
738.34	1242.91
738.66	1168.33
738.98	1161.55
739.30	1199.97
739.62	1209.01
739.94	1179.63
740.26	1238.39
740.58	1206.75
740.90	1251.94
741.23	1218.05
741.55	1206.75
741.87	1195.45
742.19	1229.35
742.51	1179.63
742.83	1197.71
743.15	1190.93
743.47	1147.99
743.79	1193.19
744.11	1188.67
744.43	1227.09
744.75	1245.16
745.07	1276.80
745.39	1247.42
745.71	1240.65
746.03	1172.85
746.35	1195.45
746.67	1154.77
746.98	1163.81
747.30	1170.59
747.62	1175.11
747.94	1163.81
748.26	1224.83
748.58	1199.97
748.90	1168.33
749.22	1179.63
749.54	1195.45
749.86	1231.61
750.18	1188.67
750.50	1181.89
750.82	1159.29
751.13	1132.17
751.45	1102.80
751.77	1188.67
752.09	1215.79
752.41	1238.39
752.73	1211.27
753.05	1127.65
753.36	1188.67
753.68	1163.81
754.00	1161.55
754.32	1147.99
754.64	1215.79
754.96	1270.02
755.28	1138.95
755.59	1175.11
755.91	1202.23
756.23	1134.43
756.55	1209.01
756.87	1168.33
757.18	1206.75
757.50	1211.27
757.82	1184.15
758.14	1089.24
758.45	1141.21
758.77	1150.25
759.09	1233.87
759.41	1213.53
759.73	1168.33
760.04	1224.83
760.36	1213.53
760.68	1233.87
760.99	1297.14
761.31	1242.91
761.63	1177.37
761.95	1220.31
762.26	1190.93
762.58	1138.95
762.90	1157.03
763.21	1233.87
763.53	1206.75
763.85	1154.77
764.17	1224.83
764.48	1215.79
764.80	1134.43
765.12	1181.89
765.43	1213.53
765.75	1177.37
766.07	1222.57
766.38	1170.59
766.70	1161.55
767.01	1136.69
767.33	1220.31
767.65	1190.93
767.96	1170.59
768.28	1195.45
768.60	1195.45
768.91	1202.23
769.23	1197.71
769.54	1190.93
769.86	1125.39
770.18	1127.65
770.49	1184.15
770.81	1193.19
771.12	1177.37
771.44	1224.83
771.75	1193.19
772.07	1233.87
772.38	1224.83
772.70	1188.67
773.02	1161.55
773.33	1163.81
773.65	1132.17
773.96	1181.89
774.28	1161.55
774.59	1152.51
774.91	1209.01
775.22	1197.71
775.54	1256.46
775.85	1168.33
776.17	1179.63
776.48	1181.89
776.80	1184.15
777.11	1181.89
777.43	1132.17
777.74	1231.61
778.05	1129.91
778.37	1154.77
778.68	1157.03
779.00	1177.37
779.31	1231.61
779.63	1206.75
779.94	1211.27
780.26	1199.97
780.57	1177.37
780.88	1150.25
781.20	1168.33
781.51	1227.09
781.83	1204.49
782.14	1188.67
782.45	1213.53
782.77	1204.49
783.08	1175.11
783.39	1199.97
783.71	1172.85
784.02	1179.63
784.34	1134.43
784.65	1129.91
784.96	1120.87
785.28	1190.93
785.59	1157.03
785.90	1186.41
786.22	1154.77
786.53	1186.41
786.84	1218.05
787.15	1184.15
787.47	1188.67
787.78	1134.43
788.09	1161.55
788.41	1084.72
788.72	1197.71
789.03	1152.51
789.35	1188.67
789.66	1172.85
789.97	1084.72
790.28	1107.32
790.60	1202.23
790.91	1184.15
791.22	1213.53
791.53	1163.81
791.84	1138.95
792.16	1184.15
792.47	1233.87
792.78	1224.83
793.09	1093.76
793.41	1190.93
793.72	1161.55
794.03	1077.94
794.34	1177.37
794.65	1163.81
794.96	1197.71
795.28	1181.89
795.59	1236.13
795.90	1147.99
796.21	1136.69
796.52	1204.49
796.83	1215.79
797.15	1197.71
797.46	1181.89
797.77	1179.63
798.08	1224.83
798.39	1177.37
798.70	1170.59
799.01	1134.43
799.32	1186.41
799.63	1138.95
799.95	1141.21
800.26	1188.67
800.57	1159.29
800.88	1197.71
801.19	1249.68
801.50	1150.25
801.81	1170.59
802.12	1166.07
802.43	1202.23
802.74	1209.01
803.05	1129.91
803.36	1150.25
803.67	1161.55
803.98	1175.11
804.29	1193.19
804.60	1102.80
804.91	1166.07
805.22	1181.89
805.53	1186.41
805.84	1170.59
806.15	1145.73
806.46	1186.41
806.77	1120.87
807.08	1195.45
807.39	1145.73
807.70	1145.73
808.01	1229.35
808.32	1123.13
808.63	1215.79
808.94	1204.49
809.25	1170.59
809.56	1145.73
809.87	1141.21
810.18	1136.69
810.49	1227.09
810.79	1199.97
811.10	1193.19
811.41	1177.37
811.72	1193.19
812.03	1177.37
812.34	1170.59
812.65	1159.29
812.96	1170.59
813.27	1152.51
813.57	1134.43
813.88	1179.63
814.19	1211.27
814.50	1179.63
814.81	1199.97
815.12	1175.11
815.42	1161.55
815.73	1195.45
816.04	1193.19
816.35	1123.13
816.66	1170.59
816.97	1127.65
817.27	1168.33
817.58	1159.29
817.89	1177.37
818.20	1188.67
818.50	1150.25
818.81	1141.21
819.12	1186.41
819.43	1125.39
819.73	1211.27
820.04	1161.55
820.35	1172.85
820.66	1100.54
820.96	1159.29
821.27	1111.84
821.58	1163.81
821.89	1150.25
822.19	1209.01
822.50	1181.89
822.81	1161.55
823.11	1177.37
823.42	1188.67
823.73	1114.10
824.03	1181.89
824.34	1141.21
824.65	1172.85
824.95	1170.59
825.26	1202.23
825.57	1220.31
825.87	1134.43
826.18	1145.73
826.49	1204.49
826.79	1188.67
827.10	1150.25
827.40	1188.67
827.71	1199.97
828.02	1150.25
828.32	1145.73
828.63	1186.41
828.93	1166.07
829.24	1175.11
829.55	1181.89
829.85	1136.69
830.16	1168.33
830.46	1120.87
830.77	1145.73
831.07	1206.75
831.38	1195.45
831.69	1150.25
831.99	1159.29
832.30	1127.65
832.60	1109.58
832.91	1168.33
833.21	1161.55
833.52	1186.41
833.82	1181.89
834.13	1172.85
834.43	1199.97
834.74	1190.93
835.04	1177.37
835.35	1249.68
835.65	1222.57
835.96	1181.89
836.26	1141.21
836.56	1168.33
836.87	1170.59
837.17	1197.71
837.48	1116.35
837.78	1086.98
838.09	1229.35
838.39	1204.49
838.69	1172.85
839.00	1138.95
839.30	1204.49
839.61	1145.73
839.91	1209.01
840.21	1188.67
840.52	1175.11
840.82	1181.89
841.13	1211.27
841.43	1175.11
841.73	1143.47
842.04	1163.81
842.34	1188.67
842.64	1186.41
842.95	1218.05
843.25	1170.59
843.55	1123.13
843.86	1102.80
844.16	1154.77
844.46	1193.19
844.77	1190.93
845.07	1172.85
845.37	1186.41
845.68	1172.85
845.98	1206.75
846.28	1150.25
846.58	1172.85
846.89	1238.39
847.19	1166.07
847.49	1136.69
847.79	1147.99
848.10	1175.11
848.40	1204.49
848.70	1199.97
849.00	1157.03
849.31	1116.35
849.61	1184.15
849.91	1188.67
850.21	1145.73
850.51	1215.79
850.82	1141.21
851.12	1132.17
851.42	1227.09
851.72	1175.11
852.02	1206.75
852.32	1175.11
852.63	1170.59
852.93	1197.71
853.23	1177.37
853.53	1227.09
853.83	1213.53
854.13	1166.07
854.43	1186.41
854.74	1136.69
855.04	1147.99
855.34	1157.03
855.64	1157.03
855.94	1175.11
856.24	1193.19
856.54	1186.41
856.84	1168.33
857.14	1159.29
857.44	1222.57
857.74	1206.75
858.05	1265.50
858.35	1154.77
858.65	1179.63
858.95	1136.69
859.25	1231.61
859.55	1159.29
859.85	1120.87
860.15	1190.93
860.45	1159.29
860.75	1152.51
861.05	1161.55
861.35	1161.55
861.65	1123.13
861.95	1096.02
862.25	1172.85
862.55	1129.91
862.85	1224.83
863.15	1242.91
863.45	1123.13
863.75	1190.93
864.05	1224.83
864.35	1150.25
864.64	1134.43
864.94	1170.59
865.24	1227.09
865.54	1231.61
865.84	1136.69
866.14	1138.95
866.44	1136.69
866.74	1220.31
867.04	1184.15
867.34	1152.51
867.64	1127.65
867.93	1177.37
868.23	1238.39
868.53	1152.51
868.83	1129.91
869.13	1179.63
869.43	1168.33
869.73	1179.63
870.02	1224.83
870.32	1168.33
870.62	1143.47
870.92	1197.71
871.22	1166.07
871.51	1181.89
871.81	1084.72
872.11	1195.45
872.41	1166.07
872.71	1202.23
873.00	1152.51
873.30	1141.21
873.60	1157.03
873.90	1193.19
874.19	1150.25
874.49	1199.97
874.79	1231.61
875.09	1170.59
875.38	1179.63
875.68	1147.99
875.98	1125.39
876.28	1209.01
876.57	1195.45
876.87	1195.45
877.17	1195.45
