174.03	689.25
174.41	689.25
174.78	689.25
175.16	723.14
175.54	729.92
175.92	684.73
176.30	637.27
176.67	705.07
177.05	736.70
177.43	772.86
177.81	736.70
178.19	743.48
178.56	815.80
178.94	754.78
179.32	876.81
179.70	881.33
180.08	890.37
180.45	912.97
180.83	917.49
181.21	888.11
181.59	953.65
181.96	983.02
182.34	980.77
182.72	1007.88
183.10	987.54
183.48	1055.34
183.85	1062.12
184.23	1035.00
184.61	1107.32
184.99	1096.02
185.36	1048.56
185.74	1132.17
186.12	1073.42
186.50	1062.12
186.87	1118.61
187.25	1105.06
187.63	1114.10
188.01	1136.69
188.38	1093.76
188.76	1143.47
189.14	1138.95
189.52	1111.84
189.89	1120.87
190.27	1147.99
190.65	1206.75
191.02	1080.20
191.40	1086.98
191.78	1082.46
192.16	1123.13
192.53	1134.43
192.91	1129.91
193.29	1064.38
193.66	1057.60
194.04	1134.43
194.42	1089.24
194.79	1089.24
195.17	1057.60
195.55	1059.86
195.93	1075.68
196.30	1053.08
196.68	1086.98
197.06	1086.98
197.43	1091.50
197.81	1107.32
198.19	1091.50
198.56	1023.70
198.94	1019.18
199.32	1048.56
199.69	1086.98
200.07	1116.35
200.45	1102.80
200.82	1071.16
201.20	1100.54
201.58	1048.56
201.95	1150.25
202.33	996.58
202.71	1123.13
203.08	1071.16
203.46	1093.76
203.84	1075.68
204.21	1157.03
204.59	1046.30
204.96	1093.76
205.34	1175.11
205.72	1091.50
206.09	1084.72
206.47	1039.52
206.85	1053.08
207.22	1100.54
207.60	1116.35
207.97	1089.24
208.35	1107.32
208.73	1001.10
209.10	1062.12
209.48	1127.65
209.85	1044.04
210.23	1066.64
210.61	1111.84
210.98	1107.32
211.36	1050.82
211.73	1086.98
212.11	1077.94
212.49	1084.72
212.86	1127.65
213.24	1091.50
213.61	1114.10
213.99	1134.43
214.37	1105.06
214.74	1053.08
215.12	1028.22
215.49	1109.58
215.87	1093.76
216.24	1114.10
216.62	1114.10
216.99	1179.63
217.37	1105.06
217.75	1159.29
218.12	1168.33
218.50	1066.64
218.87	1073.42
219.25	1053.08
219.62	1107.32
220.00	1109.58
220.37	1116.35
220.75	1086.98
221.12	1057.60
221.50	1093.76
221.87	1111.84
222.25	1193.19
222.63	1075.68
223.00	1091.50
223.38	1055.34
223.75	1120.87
224.13	1098.28
224.50	1111.84
224.88	1143.47
225.25	1109.58
225.63	1055.34
226.00	1114.10
226.38	1035.00
226.75	1075.68
227.13	1071.16
227.50	1120.87
227.88	1114.10
228.25	1089.24
228.63	1123.13
229.00	1120.87
229.37	1111.84
229.75	1068.90
230.12	1107.32
230.50	1107.32
230.87	1116.35
231.25	1041.78
231.62	1035.00
232.00	1091.50
232.37	1127.65
232.75	1050.82
233.12	1098.28
233.50	1123.13
233.87	1129.91
234.24	1080.20
234.62	1073.42
234.99	1100.54
235.37	1082.46
235.74	1096.02
236.12	1086.98
236.49	1080.20
236.86	1120.87
237.24	1096.02
237.61	1080.20
237.99	1019.18
238.36	1109.58
238.74	1086.98
239.11	1075.68
239.48	1132.17
239.86	1102.80
240.23	1059.86
240.61	1071.16
240.98	1098.28
241.35	1084.72
241.73	1111.84
242.10	1077.94
242.48	1120.87
242.85	1102.80
243.22	1093.76
243.60	1091.50
243.97	1172.85
244.34	1057.60
244.72	1044.04
245.09	1084.72
245.47	1055.34
245.84	1145.73
246.21	1102.80
246.59	1068.90
246.96	1077.94
247.33	1066.64
247.71	1102.80
248.08	1213.53
248.45	1091.50
248.83	1114.10
249.20	1068.90
249.57	1066.64
249.95	1134.43
250.32	1111.84
250.69	1141.21
251.07	1100.54
251.44	1116.35
251.81	1109.58
252.19	1132.17
252.56	1098.28
252.93	1086.98
253.31	1109.58
253.68	1080.20
254.05	1154.77
254.43	1071.16
254.80	1093.76
255.17	1125.39
255.55	1096.02
255.92	1129.91
256.29	1005.62
256.66	1062.12
257.04	1159.29
257.41	1068.90
257.78	1105.06
258.16	1123.13
258.53	1129.91
258.90	1157.03
259.27	1159.29
259.65	1100.54
260.02	1157.03
260.39	1032.74
260.76	1066.64
261.14	1125.39
261.51	1071.16
261.88	1084.72
262.25	1123.13
262.63	1066.64
263.00	1134.43
263.37	1195.45
263.74	1125.39
264.12	1132.17
264.49	1091.50
264.86	1116.35
265.23	1118.61
265.61	1150.25
265.98	1175.11
266.35	1127.65
266.72	1086.98
267.09	1105.06
267.47	1100.54
267.84	1096.02
268.21	1132.17
268.58	1134.43
268.95	1129.91
269.33	1111.84
269.70	1147.99
270.07	1136.69
270.44	1030.48
270.81	1059.86
271.19	1166.07
271.56	1071.16
271.93	1116.35
272.30	1064.38
272.67	1138.95
273.05	1075.68
273.42	1116.35
273.79	1080.20
274.16	1123.13
274.53	1120.87
274.90	1080.20
275.28	1136.69
275.65	1075.68
276.02	1114.10
276.39	1118.61
276.76	1132.17
277.13	1109.58
277.50	1132.17
277.88	1154.77
278.25	1050.82
278.62	1118.61
278.99	1084.72
279.36	1098.28
279.73	1159.29
280.10	1177.37
280.47	1159.29
280.85	1116.35
281.22	1134.43
281.59	1100.54
281.96	1086.98
282.33	1114.10
282.70	1118.61
283.07	1107.32
283.44	1193.19
283.81	1129.91
284.18	1125.39
284.56	1150.25
284.93	1132.17
285.30	1071.16
285.67	1161.55
286.04	1118.61
286.41	1143.47
286.78	1102.80
287.15	1129.91
287.52	1127.65
287.89	1211.27
288.26	1138.95
288.63	1071.16
289.00	1129.91
289.37	1159.29
289.75	1145.73
290.12	1132.17
290.49	1107.32
290.86	1154.77
291.23	1157.03
291.60	1105.06
291.97	1154.77
292.34	1134.43
292.71	1068.90
293.08	1098.28
293.45	1157.03
293.82	1096.02
294.19	1143.47
294.56	1084.72
294.93	1118.61
295.30	1188.67
295.67	1134.43
296.04	1123.13
296.41	1179.63
296.78	1105.06
297.15	1109.58
297.52	1143.47
297.89	1102.80
298.26	1190.93
298.63	1086.98
299.00	1129.91
299.37	1168.33
299.74	1145.73
300.11	1132.17
300.48	1062.12
300.85	1118.61
301.22	1147.99
301.59	1084.72
301.96	1055.34
302.33	1123.13
302.70	1127.65
303.07	1157.03
303.43	1163.81
303.80	1159.29
304.17	1091.50
304.54	1154.77
304.91	1147.99
305.28	1082.46
305.65	1073.42
306.02	1102.80
306.39	1163.81
306.76	1186.41
307.13	1157.03
307.50	1157.03
307.87	1084.72
308.24	1175.11
308.60	1168.33
308.97	1057.60
309.34	1127.65
309.71	1152.51
310.08	1102.80
310.45	1089.24
310.82	1125.39
311.19	1125.39
311.56	1141.21
311.92	1086.98
312.29	1114.10
312.66	1147.99
313.03	1127.65
313.40	1127.65
313.77	1116.35
314.14	1082.46
314.51	1132.17
314.87	1093.76
315.24	1134.43
315.61	1163.81
315.98	1120.87
316.35	1168.33
316.72	1157.03
317.09	1229.35
317.45	1168.33
317.82	1170.59
318.19	1114.10
318.56	1109.58
318.93	1147.99
319.30	1209.01
319.66	1098.28
320.03	1107.32
320.40	1229.35
320.77	1152.51
321.14	1202.23
321.50	1220.31
321.87	1150.25
322.24	1093.76
322.61	1073.42
322.98	1129.91
323.34	1172.85
323.71	1147.99
324.08	1132.17
324.45	1177.37
324.82	1084.72
325.18	1147.99
325.55	1138.95
325.92	1080.20
326.29	1120.87
326.65	1143.47
327.02	1084.72
327.39	1202.23
327.76	1150.25
328.12	1157.03
328.49	1132.17
328.86	1129.91
329.23	1141.21
329.59	1143.47
329.96	1138.95
330.33	1138.95
330.70	1193.19
331.06	1138.95
331.43	1177.37
331.80	1132.17
332.17	1157.03
332.53	1236.13
332.90	1215.79
333.27	1224.83
333.63	1177.37
334.00	1209.01
334.37	1195.45
334.74	1147.99
335.10	1215.79
335.47	1100.54
335.84	1134.43
336.20	1172.85
336.57	1154.77
336.94	1152.51
337.30	1186.41
337.67	1204.49
338.04	1075.68
338.40	1204.49
338.77	1134.43
339.14	1222.57
339.50	1159.29
339.87	1150.25
340.24	1190.93
340.60	1186.41
340.97	1154.77
341.34	1179.63
341.70	1120.87
342.07	1193.19
342.44	1197.71
342.80	1220.31
343.17	1206.75
343.53	1184.15
343.90	1168.33
344.27	1166.07
344.63	1181.89
345.00	1220.31
345.37	1175.11
345.73	1157.03
346.10	1229.35
346.46	1190.93
346.83	1197.71
347.20	1197.71
347.56	1154.77
347.93	1211.27
348.29	1195.45
348.66	1168.33
349.03	1132.17
349.39	1172.85
349.76	1168.33
350.12	1245.16
350.49	1184.15
350.85	1190.93
351.22	1177.37
351.59	1136.69
351.95	1199.97
352.32	1177.37
352.68	1213.53
353.05	1202.23
353.41	1220.31
353.78	1283.58
354.14	1288.10
354.51	1211.27
354.88	1172.85
355.24	1184.15
355.61	1256.46
355.97	1220.31
356.34	1206.75
356.70	1224.83
357.07	1240.65
357.43	1202.23
357.80	1220.31
358.16	1175.11
358.53	1231.61
358.89	1211.27
359.26	1211.27
359.62	1170.59
359.99	1204.49
360.35	1229.35
360.72	1218.05
361.08	1245.16
361.45	1213.53
361.81	1229.35
362.18	1245.16
362.54	1263.24
362.91	1288.10
363.27	1247.42
363.63	1215.79
364.00	1240.65
364.36	1281.32
364.73	1328.78
365.09	1249.68
365.46	1258.72
365.82	1227.09
366.19	1322.00
366.55	1279.06
366.91	1263.24
367.28	1220.31
367.64	1267.76
368.01	1231.61
368.37	1353.64
368.74	1249.68
369.10	1315.22
369.46	1328.78
369.83	1224.83
370.19	1272.28
370.56	1324.26
370.92	1247.42
371.28	1301.66
371.65	1267.76
372.01	1346.86
372.38	1360.42
372.74	1378.49
373.10	1331.04
373.47	1322.00
373.83	1324.26
374.19	1385.27
374.56	1367.20
374.92	1367.20
375.29	1385.27
375.65	1439.51
376.01	1383.01
376.38	1450.81
376.74	1421.43
377.10	1425.95
377.47	1547.98
377.83	1547.98
378.19	1525.38
378.56	1579.62
378.92	1572.84
379.28	1654.19
379.65	1611.26
380.01	1597.70
380.37	1692.61
380.74	1708.43
381.10	1731.03
381.46	1810.12
381.83	1873.40
382.19	1927.63
382.55	1979.61
382.91	2070.00
383.28	2124.24
383.64	2232.71
384.00	2327.62
384.37	2420.28
384.73	2560.38
385.09	2646.26
385.45	2806.71
385.82	3166.02
386.18	3084.66
386.54	3340.03
386.91	3529.85
387.27	3805.55
387.63	4214.58
387.99	4397.62
388.36	4750.16
388.72	5093.65
389.08	5574.99
389.44	5846.17
389.80	6345.60
390.17	6596.44
390.53	7574.94
390.89	8289.05
391.25	8637.06
391.62	8989.59
391.98	10379.39
392.34	11267.50
392.70	11947.71
393.06	12740.91
393.43	13520.55
393.79	14476.46
394.15	15384.91
394.51	16291.10
394.87	17685.41
395.24	18880.86
395.60	20539.57
395.96	22155.35
396.32	23976.77
396.68	25312.33
397.04	27637.69
397.41	30333.67
397.77	32333.61
398.13	34927.90
398.49	37101.85
398.85	39553.76
399.21	43799.98
399.58	46825.89
399.94	48726.40
400.30	52663.02
400.66	54125.13
401.02	56868.56
401.38	58317.11
401.74	60052.66
402.11	61950.91
402.47	63460.48
402.83	64344.07
403.19	65535.00
403.55	65535.00
403.91	65535.00
404.27	65535.00
404.63	65535.00
404.99	65535.00
405.35	65535.00
405.72	65535.00
406.08	65535.00
406.44	65535.00
406.80	65535.00
407.16	65535.00
407.52	65535.00
407.88	65535.00
408.24	65535.00
408.60	65535.00
408.96	65535.00
409.32	65535.00
409.68	65535.00
410.04	65535.00
410.40	65535.00
410.76	65535.00
411.13	65535.00
411.49	65535.00
411.85	64655.93
412.21	63453.70
412.57	62317.01
412.93	61234.55
413.29	59720.46
413.65	57969.10
414.01	56504.73
414.37	53985.02
414.73	52809.91
415.09	50803.18
415.45	49404.35
415.81	47295.93
416.17	44604.48
416.53	42979.66
416.89	41259.93
417.25	39377.50
417.61	37271.34
417.97	36188.88
418.33	34733.55
418.69	33481.61
419.05	32098.59
419.41	31099.75
419.77	30512.19
420.12	28582.30
420.48	27149.57
420.84	26670.49
421.20	24943.98
421.56	23897.68
421.92	23513.51
422.28	21942.93
422.64	20512.46
423.00	19735.07
423.36	19063.91
423.72	17712.53
424.08	16686.57
424.44	16076.41
424.80	15215.42
425.16	14673.06
425.51	13796.25
425.87	13678.74
426.23	12354.48
426.59	11719.47
426.95	11527.38
427.31	10874.29
427.67	10643.79
428.03	9904.82
428.39	9717.26
428.74	8847.22
429.10	8476.61
429.46	8173.80
429.82	7513.93
430.18	7437.09
430.54	7222.41
430.90	7039.36
431.26	6761.40
431.61	6472.15
431.97	6363.67
432.33	6072.16
432.69	5891.37
433.05	5586.29
433.41	5452.96
433.76	5274.44
434.12	5116.25
434.48	4849.59
434.84	4743.38
435.20	4544.51
435.55	4539.99
435.91	4291.41
436.27	4137.74
436.63	4108.37
436.99	3914.02
437.34	3830.41
437.70	3730.98
438.06	3495.95
438.42	3376.18
438.78	3340.03
439.13	3330.99
439.49	3231.55
439.85	3127.60
440.21	2978.45
440.56	2946.82
440.92	2838.34
441.28	2804.45
441.64	2677.90
441.99	2628.18
442.35	2564.90
442.71	2560.38
443.07	2418.02
443.42	2456.43
443.78	2248.53
444.14	2307.28
444.50	2291.47
444.85	2119.72
445.21	2072.26
445.57	2228.19
445.93	2029.33
446.28	2085.82
446.64	1972.83
447.00	1997.69
447.35	2049.66
447.71	2022.55
448.07	1979.61
448.42	1909.55
448.78	1753.63
449.14	1923.11
449.49	1810.12
449.85	1785.26
450.21	1728.77
450.56	1694.87
450.92	1654.19
451.28	1627.08
451.63	1665.49
451.99	1656.45
452.35	1638.38
452.70	1593.18
453.06	1640.63
453.42	1638.38
453.77	1615.78
454.13	1554.76
454.49	1604.48
454.84	1568.32
455.20	1529.90
455.55	1473.41
455.91	1518.60
456.27	1599.96
456.62	1439.51
456.98	1475.67
457.33	1446.29
457.69	1401.09
458.05	1376.24
458.40	1471.15
458.76	1306.18
459.11	1378.49
459.47	1394.31
459.83	1303.92
460.18	1346.86
460.54	1353.64
460.89	1353.64
461.25	1369.46
461.60	1412.39
461.96	1355.90
462.31	1333.30
462.67	1270.02
463.03	1274.54
463.38	1258.72
463.74	1279.06
464.09	1337.82
464.45	1281.32
464.80	1310.70
465.16	1258.72
465.51	1245.16
465.87	1272.28
466.22	1265.50
466.58	1218.05
466.93	1288.10
467.29	1236.13
467.64	1267.76
468.00	1193.19
468.35	1220.31
468.71	1233.87
469.06	1308.44
469.42	1322.00
469.77	1229.35
470.13	1143.47
470.48	1240.65
470.84	1263.24
471.19	1265.50
471.54	1292.62
471.90	1215.79
472.25	1202.23
472.61	1222.57
472.96	1213.53
473.32	1211.27
473.67	1175.11
474.03	1215.79
474.38	1197.71
474.73	1170.59
475.09	1222.57
475.44	1159.29
475.80	1168.33
476.15	1197.71
476.50	1215.79
476.86	1157.03
477.21	1190.93
477.57	1247.42
477.92	1157.03
478.27	1132.17
478.63	1166.07
478.98	1222.57
479.34	1231.61
479.69	1163.81
480.04	1206.75
480.40	1168.33
480.75	1215.79
481.10	1138.95
481.46	1172.85
481.81	1231.61
482.16	1222.57
482.52	1231.61
482.87	1193.19
483.22	1202.23
483.58	1188.67
483.93	1206.75
484.28	1231.61
484.64	1265.50
484.99	1254.20
485.34	1195.45
485.70	1184.15
486.05	1163.81
486.40	1206.75
486.76	1168.33
487.11	1197.71
487.46	1222.57
487.81	1190.93
488.17	1206.75
488.52	1172.85
488.87	1211.27
489.23	1209.01
489.58	1168.33
489.93	1193.19
490.28	1211.27
490.64	1204.49
490.99	1166.07
491.34	1123.13
491.69	1170.59
492.05	1247.42
492.40	1231.61
492.75	1213.53
493.10	1220.31
493.46	1195.45
493.81	1202.23
494.16	1181.89
494.51	1254.20
494.86	1159.29
495.22	1179.63
495.57	1206.75
495.92	1181.89
496.27	1233.87
496.62	1229.35
496.98	1265.50
497.33	1215.79
497.68	1242.91
498.03	1270.02
498.38	1238.39
498.74	1222.57
499.09	1283.58
499.44	1245.16
499.79	1247.42
500.14	1285.84
500.49	1260.98
500.85	1290.36
501.20	1326.52
501.55	1270.02
501.90	1335.56
502.25	1344.60
502.60	1328.78
502.95	1360.42
503.30	1351.38
503.66	1344.60
504.01	1394.31
504.36	1394.31
504.71	1394.31
505.06	1416.91
505.41	1459.85
505.76	1355.90
506.11	1509.56
506.46	1486.97
506.82	1496.01
507.17	1425.95
507.52	1545.72
507.87	1568.32
508.22	1493.75
508.57	1491.49
508.92	1493.75
509.27	1509.56
509.62	1498.27
509.97	1645.15
510.32	1613.52
510.67	1622.56
511.02	1640.63
511.37	1581.88
511.72	1737.81
512.07	1715.21
512.42	1742.33
512.77	1760.41
513.12	1737.81
513.47	1889.22
513.82	1830.46
514.17	1871.14
514.52	1929.89
514.87	1905.03
515.22	1893.74
515.57	1905.03
515.92	1925.37
516.27	1993.17
516.62	1972.83
516.97	2038.36
517.32	2058.70
517.67	2135.54
518.02	2182.99
518.37	2140.06
518.72	2259.83
519.07	2223.67
519.42	2171.69
519.77	2219.15
520.12	2286.95
520.47	2343.44
520.82	2327.62
521.17	2334.40
521.52	2424.80
521.87	2354.74
522.22	2429.31
522.56	2458.69
522.91	2431.57
523.26	2472.25
523.61	2499.37
523.96	2537.79
524.31	2569.42
524.66	2655.30
525.01	2655.30
525.36	2625.92
525.71	2682.42
526.05	2766.03
526.40	2795.41
526.75	2684.68
527.10	2662.08
527.45	2793.15
527.80	2842.86
528.15	2892.58
528.49	2824.78
528.84	2915.18
529.19	2818.00
529.54	2908.40
529.89	2987.49
530.24	2888.06
530.58	2992.01
530.93	2903.88
531.28	2994.27
531.63	2996.53
531.98	3086.92
532.33	3053.03
532.67	2885.80
533.02	2960.37
533.37	3116.30
533.72	3105.00
534.07	3062.07
534.41	3120.82
534.76	3141.16
535.11	3111.78
535.46	3175.06
535.80	3199.92
536.15	3145.68
536.50	3132.12
536.85	3211.22
537.19	3238.33
537.54	3141.16
537.89	3161.50
538.24	3150.20
538.58	3206.70
538.93	3186.36
539.28	3251.89
539.63	3152.46
539.97	3258.67
540.32	3143.42
540.67	3279.01
541.01	3188.62
541.36	3233.81
541.71	3127.60
542.06	3197.66
542.40	3152.46
542.75	3132.12
543.10	3211.22
543.44	3213.47
543.79	3276.75
544.14	3172.80
544.48	3141.16
544.83	3242.85
545.18	3163.76
545.52	3220.25
545.87	3175.06
546.22	3100.48
546.56	3098.22
546.91	3190.88
547.25	3217.99
547.60	3141.16
547.95	3066.59
548.29	3132.12
548.64	3172.80
548.99	3145.68
549.33	3175.06
549.68	3023.65
550.02	3233.81
550.37	3010.09
550.72	3206.70
551.06	3075.63
551.41	3062.07
551.75	3075.63
552.10	2992.01
552.45	3093.70
552.79	3055.29
553.14	3010.09
553.48	3055.29
553.83	3046.25
554.17	3055.29
554.52	3064.33
554.87	2910.66
555.21	2942.30
555.56	2910.66
555.90	2967.15
556.25	2910.66
556.59	2987.49
556.94	2982.97
557.28	3032.69
557.63	3023.65
557.97	2931.00
558.32	2971.67
558.66	2822.52
559.01	2953.59
559.35	2879.02
559.70	2996.53
560.04	2883.54
560.39	2919.70
560.73	2958.11
561.08	2804.45
561.42	2847.38
561.77	2879.02
562.11	2781.85
562.46	2815.75
562.80	2788.63
563.14	2811.23
563.49	2790.89
563.83	2772.81
564.18	2738.91
564.52	2849.64
564.87	2784.11
565.21	2824.78
565.56	2754.73
565.90	2759.25
566.24	2793.15
566.59	2763.77
566.93	2707.27
567.28	2723.09
567.62	2799.93
567.96	2664.34
568.31	2723.09
568.65	2720.83
569.00	2621.40
569.34	2693.71
569.68	2709.53
570.03	2725.35
570.37	2637.22
570.71	2659.82
571.06	2526.49
571.40	2607.84
571.74	2571.68
572.09	2564.90
572.43	2653.04
572.78	2745.69
573.12	2531.01
573.46	2542.31
573.80	2648.52
574.15	2607.84
574.49	2483.55
574.83	2512.93
575.18	2492.59
575.52	2510.67
575.86	2535.53
576.21	2494.85
576.55	2483.55
576.89	2463.21
577.24	2526.49
577.58	2517.45
577.92	2546.83
578.26	2483.55
578.61	2381.86
578.95	2361.52
579.29	2429.31
579.63	2524.23
579.98	2438.35
580.32	2390.90
580.66	2390.90
581.00	2406.72
581.35	2345.70
581.69	2420.28
582.03	2347.96
582.37	2424.80
582.72	2424.80
583.06	2273.39
583.40	2334.40
583.74	2325.36
584.08	2241.75
584.43	2368.30
584.77	2404.46
585.11	2377.34
585.45	2332.14
585.79	2284.69
586.13	2307.28
586.48	2277.91
586.82	2320.84
587.16	2230.45
587.50	2216.89
587.84	2230.45
588.18	2246.27
588.53	2158.14
588.87	2239.49
589.21	2210.11
589.55	2223.67
589.89	2182.99
590.23	2131.02
590.57	2173.95
590.92	2286.95
591.26	2144.58
591.60	2097.12
591.94	2162.66
592.28	2164.91
592.62	2051.92
592.96	2083.56
593.30	2031.58
593.64	2040.62
593.98	2008.99
594.32	2115.20
594.67	1979.61
595.01	2060.96
595.35	2029.33
595.69	2088.08
596.03	2083.56
596.37	1979.61
596.71	2036.10
597.05	2047.40
597.39	1986.39
597.73	1999.95
598.07	2081.30
598.41	2027.07
598.75	1882.44
599.09	1997.69
599.43	1938.93
599.77	1952.49
600.11	1979.61
600.45	2015.77
600.79	1977.35
601.13	1970.57
601.47	1918.59
601.81	1898.26
602.15	1907.29
602.49	1936.67
602.83	1886.96
603.17	1941.19
603.51	1977.35
603.85	1914.07
604.19	1857.58
604.53	1889.22
604.87	1832.72
605.21	1868.88
605.55	1821.42
605.89	1886.96
606.23	1814.64
606.56	1807.86
606.90	1900.52
607.24	1877.92
607.58	1753.63
607.92	1778.48
608.26	1810.12
608.60	1762.67
608.94	1798.82
609.28	1828.20
609.62	1785.26
609.95	1785.26
610.29	1823.68
610.63	1740.07
610.97	1681.31
611.31	1742.33
611.65	1724.25
611.99	1731.03
612.33	1647.41
612.66	1681.31
613.00	1719.73
613.34	1717.47
613.68	1595.44
614.02	1706.17
614.36	1665.49
614.69	1721.99
615.03	1731.03
615.37	1663.23
615.71	1690.35
616.05	1622.56
616.38	1758.15
616.72	1590.92
617.06	1631.60
617.40	1694.87
617.74	1586.40
618.07	1651.93
618.41	1656.45
618.75	1613.52
619.09	1581.88
619.42	1581.88
619.76	1638.38
620.10	1638.38
620.44	1685.83
620.77	1690.35
621.11	1520.86
621.45	1622.56
621.79	1462.11
622.12	1541.20
622.46	1547.98
622.80	1561.54
623.13	1597.70
623.47	1568.32
623.81	1609.00
624.15	1514.08
624.48	1559.28
624.82	1511.82
625.16	1525.38
625.49	1545.72
625.83	1527.64
626.17	1525.38
626.50	1505.05
626.84	1507.30
627.18	1534.42
627.51	1509.56
627.85	1563.80
628.19	1514.08
628.52	1471.15
628.86	1511.82
629.20	1505.05
629.53	1502.79
629.87	1378.49
630.20	1489.23
630.54	1421.43
630.88	1505.05
631.21	1468.89
631.55	1462.11
631.89	1439.51
632.22	1475.67
632.56	1459.85
632.89	1459.85
633.23	1412.39
633.56	1425.95
633.90	1482.45
634.24	1536.68
634.57	1462.11
634.91	1358.16
635.24	1346.86
635.58	1457.59
635.91	1396.57
636.25	1416.91
636.58	1392.05
636.92	1450.81
637.26	1373.98
637.59	1378.49
637.93	1446.29
638.26	1306.18
638.60	1364.94
638.93	1353.64
639.27	1401.09
639.60	1383.01
639.94	1444.03
640.27	1441.77
640.61	1387.53
640.94	1290.36
641.28	1412.39
641.61	1410.13
641.94	1389.79
642.28	1403.35
642.61	1407.87
642.95	1387.53
643.28	1340.08
643.62	1342.34
643.95	1371.72
644.29	1371.72
644.62	1297.14
644.95	1306.18
645.29	1351.38
645.62	1328.78
645.96	1355.90
646.29	1371.72
646.63	1319.74
646.96	1279.06
647.29	1333.30
647.63	1306.18
647.96	1364.94
648.29	1319.74
648.63	1335.56
648.96	1258.72
649.30	1308.44
649.63	1328.78
649.96	1342.34
650.30	1326.52
650.63	1297.14
650.96	1297.14
651.30	1292.62
651.63	1251.94
651.96	1351.38
652.30	1355.90
652.63	1272.28
652.96	1256.46
653.30	1331.04
653.63	1369.46
653.96	1258.72
654.30	1267.76
654.63	1272.28
654.96	1283.58
655.29	1276.80
655.63	1238.39
655.96	1270.02
656.29	1283.58
656.63	1247.42
656.96	1317.48
657.29	1303.92
657.62	1306.18
657.96	1265.50
658.29	1324.26
658.62	1267.76
658.95	1297.14
659.29	1231.61
659.62	1283.58
659.95	1254.20
660.28	1238.39
660.61	1276.80
660.95	1276.80
661.28	1222.57
661.61	1224.83
661.94	1242.91
662.27	1308.44
662.61	1245.16
662.94	1227.09
663.27	1242.91
663.60	1242.91
663.93	1184.15
664.27	1242.91
664.60	1166.07
664.93	1233.87
665.26	1233.87
665.59	1215.79
665.92	1245.16
666.25	1222.57
666.59	1240.65
666.92	1218.05
667.25	1193.19
667.58	1260.98
667.91	1240.65
668.24	1274.54
668.57	1190.93
668.90	1220.31
669.23	1218.05
669.57	1215.79
669.90	1238.39
670.23	1168.33
670.56	1134.43
670.89	1215.79
671.22	1238.39
671.55	1215.79
671.88	1181.89
672.21	1209.01
672.54	1199.97
672.87	1222.57
673.20	1202.23
673.53	1265.50
673.86	1154.77
674.19	1199.97
674.52	1258.72
674.85	1247.42
675.18	1150.25
675.51	1172.85
675.84	1229.35
676.17	1166.07
676.50	1141.21
676.83	1154.77
677.16	1224.83
677.49	1229.35
677.82	1181.89
678.15	1195.45
678.48	1186.41
678.81	1199.97
679.14	1233.87
679.47	1231.61
679.80	1188.67
680.13	1190.93
680.46	1177.37
680.79	1233.87
681.12	1199.97
681.45	1109.58
681.78	1154.77
682.11	1143.47
682.44	1202.23
682.77	1211.27
683.09	1195.45
683.42	1224.83
683.75	1166.07
684.08	1236.13
684.41	1184.15
684.74	1179.63
685.07	1163.81
685.40	1168.33
685.72	1147.99
686.05	1138.95
686.38	1202.23
686.71	1172.85
687.04	1188.67
687.37	1118.61
687.70	1184.15
688.02	1154.77
688.35	1141.21
688.68	1129.91
689.01	1114.10
689.34	1157.03
689.67	1161.55
689.99	1136.69
690.32	1175.11
690.65	1096.02
690.98	1111.84
691.30	1064.38
691.63	1141.21
691.96	1172.85
692.29	1177.37
692.62	1138.95
692.94	1154.77
693.27	1175.11
693.60	1107.32
693.93	1152.51
694.25	1080.20
694.58	1199.97
694.91	1229.35
695.24	1145.73
695.56	1170.59
695.89	1145.73
696.22	1132.17
696.54	1145.73
696.87	1145.73
697.20	1170.59
697.53	1190.93
697.85	1129.91
698.18	1089.24
698.51	1147.99
698.83	1175.11
699.16	1159.29
699.49	1100.54
699.81	1073.42
700.14	1098.28
700.47	1190.93
700.79	1093.76
701.12	1107.32
701.45	1129.91
701.77	1211.27
702.10	1163.81
702.42	1152.51
702.75	1163.81
703.08	1166.07
703.40	1116.35
703.73	1098.28
704.05	1123.13
704.38	1077.94
704.71	1166.07
705.03	1100.54
705.36	1132.17
705.68	1150.25
706.01	1123.13
706.34	1134.43
706.66	1152.51
706.99	1166.07
707.31	1127.65
707.64	1170.59
707.96	1109.58
708.29	1125.39
708.61	1125.39
708.94	1143.47
709.26	1125.39
709.59	1154.77
709.92	1129.91
710.24	1150.25
710.57	1132.17
710.89	1147.99
711.22	1093.76
711.54	1129.91
711.87	1084.72
712.19	1127.65
712.51	1098.28
712.84	1170.59
713.16	1105.06
713.49	1089.24
713.81	1107.32
714.14	1145.73
714.46	1059.86
714.79	1105.06
715.11	1123.13
715.44	1116.35
715.76	1086.98
716.08	1105.06
716.41	1132.17
716.73	1145.73
717.06	1157.03
717.38	1107.32
717.70	1114.10
718.03	1100.54
718.35	1082.46
718.68	1084.72
719.00	1071.16
719.32	1111.84
719.65	1084.72
719.97	1100.54
720.29	1089.24
720.62	1134.43
720.94	1098.28
721.27	1086.98
721.59	1093.76
721.91	1120.87
722.24	1102.80
722.56	1163.81
722.88	1147.99
723.21	1118.61
723.53	1118.61
723.85	1102.80
724.17	1170.59
724.50	1132.17
724.82	1116.35
725.14	1030.48
725.47	1062.12
725.79	1091.50
726.11	1188.67
726.43	1066.64
726.76	1143.47
727.08	1127.65
727.40	1138.95
727.72	1116.35
728.05	1147.99
728.37	1150.25
728.69	1118.61
729.01	1057.60
729.34	1118.61
729.66	1071.16
729.98	1111.84
730.30	1125.39
730.62	1206.75
730.95	1071.16
731.27	1025.96
731.59	1100.54
731.91	1025.96
732.23	1118.61
732.56	1098.28
732.88	1082.46
733.20	1111.84
733.52	1190.93
733.84	1136.69
734.16	1147.99
734.49	1077.94
734.81	1152.51
735.13	1075.68
735.45	1082.46
735.77	1062.12
736.09	1075.68
736.41	1055.34
736.73	1150.25
737.06	1161.55
737.38	1111.84
737.70	1114.10
738.02	1086.98
738.34	1116.35
738.66	1109.58
738.98	1102.80
739.30	1134.43
739.62	1100.54
739.94	1116.35
740.26	1125.39
740.58	1116.35
740.90	1129.91
741.23	1129.91
741.55	1053.08
741.87	1057.60
742.19	1116.35
742.51	1105.06
742.83	1150.25
743.15	1132.17
743.47	1129.91
743.79	1120.87
744.11	1143.47
744.43	1138.95
744.75	1053.08
745.07	1147.99
745.39	1057.60
745.71	1016.92
746.03	1107.32
746.35	1150.25
746.67	1059.86
746.98	1030.48
747.30	1041.78
747.62	1071.16
747.94	1059.86
748.26	1084.72
748.58	1111.84
748.90	1089.24
749.22	1044.04
749.54	1143.47
749.86	1044.04
750.18	1141.21
750.50	1107.32
750.82	1071.16
751.13	1068.90
751.45	1096.02
751.77	1062.12
752.09	1138.95
752.41	1118.61
752.73	1091.50
753.05	1068.90
753.36	1102.80
753.68	1125.39
754.00	1028.22
754.32	1114.10
754.64	1064.38
754.96	1105.06
755.28	1127.65
755.59	1057.60
755.91	1093.76
756.23	1098.28
756.55	1055.34
756.87	1073.42
757.18	1055.34
757.50	1107.32
757.82	1132.17
758.14	1073.42
758.45	1091.50
758.77	1123.13
759.09	1089.24
759.41	1073.42
759.73	1073.42
760.04	1152.51
760.36	1150.25
760.68	1064.38
760.99	1141.21
761.31	1136.69
761.63	1010.14
761.95	1118.61
762.26	1093.76
762.58	1086.98
762.90	1089.24
763.21	1037.26
763.53	1107.32
763.85	1096.02
764.17	1091.50
764.48	1107.32
764.80	1125.39
765.12	1046.30
765.43	1053.08
765.75	1093.76
766.07	1062.12
766.38	1109.58
766.70	1096.02
767.01	1084.72
767.33	1143.47
767.65	1057.60
767.96	1107.32
768.28	1125.39
768.60	1109.58
768.91	1068.90
769.23	1102.80
769.54	1147.99
769.86	1057.60
770.18	1080.20
770.49	1111.84
770.81	1100.54
771.12	1091.50
771.44	1111.84
771.75	1111.84
772.07	1100.54
772.38	1066.64
772.70	1080.20
773.02	1107.32
773.33	1071.16
773.65	1147.99
773.96	1105.06
774.28	1093.76
774.59	1053.08
774.91	1053.08
775.22	1073.42
775.54	1059.86
775.85	1066.64
776.17	1116.35
776.48	1080.20
776.80	1136.69
777.11	1132.17
777.43	1068.90
777.74	1098.28
778.05	1080.20
778.37	1100.54
778.68	1100.54
779.00	1116.35
779.31	1118.61
779.63	1116.35
779.94	1116.35
780.26	1057.60
780.57	1089.24
780.88	1073.42
781.20	1084.72
781.51	1134.43
781.83	1050.82
782.14	1089.24
782.45	1071.16
782.77	1129.91
783.08	1093.76
783.39	1066.64
783.71	1118.61
784.02	1091.50
784.34	1129.91
784.65	1055.34
784.96	1057.60
785.28	1091.50
785.59	1114.10
785.90	1064.38
786.22	1120.87
786.53	1091.50
786.84	1114.10
787.15	1073.42
787.47	1089.24
787.78	1062.12
788.09	1125.39
788.41	1136.69
788.72	1093.76
789.03	1057.60
789.35	1071.16
789.66	1125.39
789.97	1048.56
790.28	1044.04
790.60	1136.69
790.91	1102.80
791.22	1066.64
791.53	1073.42
791.84	1132.17
792.16	1129.91
792.47	1053.08
792.78	1093.76
793.09	1075.68
793.41	1129.91
793.72	1100.54
794.03	1127.65
794.34	1046.30
794.65	1100.54
794.96	1093.76
795.28	1068.90
795.59	1068.90
795.90	1066.64
796.21	1057.60
796.52	1098.28
796.83	1055.34
797.15	1098.28
797.46	1048.56
797.77	1057.60
798.08	1107.32
798.39	1123.13
798.70	1136.69
799.01	1129.91
799.32	1080.20
799.63	1064.38
799.95	1118.61
800.26	1071.16
800.57	1102.80
800.88	1118.61
801.19	1041.78
801.50	1080.20
801.81	1084.72
802.12	1062.12
802.43	1129.91
802.74	1129.91
803.05	1077.94
803.36	1157.03
803.67	1075.68
803.98	1028.22
804.29	1071.16
804.60	1100.54
804.91	1102.80
805.22	1105.06
805.53	1159.29
805.84	1098.28
806.15	1080.20
806.46	1055.34
806.77	1046.30
807.08	1062.12
807.39	1091.50
807.70	1111.84
808.01	1039.52
808.32	1073.42
808.63	1068.90
808.94	1118.61
809.25	1107.32
809.56	1120.87
809.87	1116.35
810.18	1096.02
810.49	1050.82
810.79	1016.92
811.10	1066.64
811.41	1064.38
811.72	1073.42
812.03	1107.32
812.34	1152.51
812.65	1150.25
812.96	1050.82
813.27	1082.46
813.57	1093.76
813.88	1193.19
814.19	1080.20
814.50	1116.35
814.81	1116.35
815.12	1118.61
815.42	1120.87
815.73	1136.69
816.04	1082.46
816.35	1114.10
816.66	1053.08
816.97	1105.06
817.27	1116.35
817.58	1077.94
817.89	1138.95
818.20	1082.46
818.50	1118.61
818.81	1105.06
819.12	1084.72
819.43	1064.38
819.73	1077.94
820.04	1096.02
820.35	1125.39
820.66	1147.99
820.96	1062.12
821.27	1071.16
821.58	1118.61
821.89	1071.16
822.19	1062.12
822.50	1073.42
822.81	1041.78
823.11	1086.98
823.42	1105.06
823.73	1077.94
824.03	1068.90
824.34	1077.94
824.65	1019.18
824.95	1161.55
825.26	1136.69
825.57	1134.43
825.87	1055.34
826.18	1147.99
826.49	1141.21
826.79	1073.42
827.10	1073.42
827.40	1055.34
827.71	1100.54
828.02	1102.80
828.32	1093.76
828.63	1125.39
828.93	1109.58
829.24	1053.08
829.55	1057.60
829.85	1138.95
830.16	1138.95
830.46	1014.66
830.77	1077.94
831.07	1100.54
831.38	1129.91
831.69	1118.61
831.99	1107.32
832.30	1118.61
832.60	1086.98
832.91	1080.20
833.21	1080.20
833.52	1107.32
833.82	1188.67
834.13	1080.20
834.43	1102.80
834.74	1059.86
835.04	1080.20
835.35	1062.12
835.65	1107.32
835.96	1091.50
836.26	1041.78
836.56	1109.58
836.87	1096.02
837.17	1093.76
837.48	1068.90
837.78	1082.46
838.09	1096.02
838.39	1050.82
838.69	1062.12
839.00	985.28
839.30	1114.10
839.61	1050.82
839.91	1046.30
840.21	1111.84
840.52	1127.65
840.82	1098.28
841.13	1059.86
841.43	1059.86
841.73	1150.25
842.04	1089.24
842.34	1089.24
842.64	1096.02
842.95	1086.98
843.25	1089.24
843.55	1105.06
843.86	1019.18
844.16	1096.02
844.46	1068.90
844.77	1062.12
845.07	1055.34
845.37	1116.35
845.68	1086.98
845.98	1014.66
846.28	1100.54
846.58	1159.29
846.89	1125.39
847.19	1030.48
847.49	1057.60
847.79	1073.42
848.10	1091.50
848.40	1050.82
848.70	1136.69
849.00	1080.20
849.31	1096.02
849.61	1093.76
849.91	1091.50
850.21	1041.78
850.51	1053.08
850.82	1048.56
851.12	1123.13
851.42	1030.48
851.72	1093.76
852.02	1037.26
852.32	1066.64
852.63	1147.99
852.93	1105.06
853.23	1096.02
853.53	1084.72
853.83	1100.54
854.13	1086.98
854.43	1129.91
854.74	1098.28
855.04	1080.20
855.34	1055.34
855.64	1116.35
855.94	1109.58
856.24	1150.25
856.54	1071.16
856.84	1157.03
857.14	1084.72
857.44	1075.68
857.74	1077.94
858.05	1100.54
858.35	1037.26
858.65	1168.33
858.95	1123.13
859.25	1086.98
859.55	1147.99
859.85	1111.84
860.15	1089.24
860.45	1096.02
860.75	1100.54
861.05	1123.13
861.35	1082.46
861.65	1071.16
861.95	1093.76
862.25	1143.47
862.55	1075.68
862.85	1084.72
863.15	1068.90
863.45	1032.74
863.75	1071.16
864.05	1077.94
864.35	1100.54
864.64	1077.94
864.94	1001.10
865.24	1039.52
865.54	1102.80
865.84	1096.02
866.14	1114.10
866.44	1059.86
866.74	1100.54
867.04	1086.98
867.34	1035.00
867.64	1127.65
867.93	1062.12
868.23	1089.24
868.53	1041.78
868.83	1055.34
869.13	1102.80
869.43	1105.06
869.73	1055.34
870.02	1059.86
870.32	1080.20
870.62	1077.94
870.92	1120.87
871.22	1125.39
871.51	1114.10
871.81	1109.58
872.11	1118.61
872.41	1071.16
872.71	1073.42
873.00	1077.94
873.30	1080.20
873.60	1107.32
873.90	1059.86
874.19	1084.72
874.49	1107.32
874.79	1134.43
875.09	1129.91
875.38	1068.90
875.68	1071.16
875.98	1077.94
876.28	1080.20
876.57	1073.42
876.87	1073.42
877.17	1073.42
