174.03	784.16
174.41	784.16
174.78	784.16
175.16	781.90
175.54	750.26
175.92	772.86
176.30	777.38
176.67	748.00
177.05	772.86
177.43	858.73
177.81	874.55
178.19	883.59
178.56	885.85
178.94	865.51
179.32	989.80
179.70	919.75
180.08	971.73
180.45	931.05
180.83	964.95
181.21	1073.42
181.59	1007.88
181.96	1007.88
182.34	1044.04
182.72	1046.30
183.10	1107.32
183.48	1127.65
183.85	1091.50
184.23	1186.41
184.61	1134.43
184.99	1109.58
185.36	1084.72
185.74	1116.35
186.12	1161.55
186.50	1152.51
186.87	1202.23
187.25	1258.72
187.63	1181.89
188.01	1199.97
188.38	1209.01
188.76	1150.25
189.14	1138.95
189.52	1175.11
189.89	1150.25
190.27	1170.59
190.65	1206.75
191.02	1168.33
191.40	1204.49
191.78	1127.65
192.16	1251.94
192.53	1170.59
192.91	1202.23
193.29	1204.49
193.66	1154.77
194.04	1179.63
194.42	1202.23
194.79	1143.47
195.17	1188.67
195.55	1143.47
195.93	1152.51
196.30	1195.45
196.68	1141.21
197.06	1143.47
197.43	1184.15
197.81	1152.51
198.19	1159.29
198.56	1213.53
198.94	1184.15
199.32	1172.85
199.69	1136.69
200.07	1077.94
200.45	1147.99
200.82	1109.58
201.20	1073.42
201.58	1145.73
201.95	1193.19
202.33	1136.69
202.71	1138.95
203.08	1181.89
203.46	1163.81
203.84	1166.07
204.21	1220.31
204.59	1157.03
204.96	1211.27
205.34	1141.21
205.72	1168.33
206.09	1125.39
206.47	1206.75
206.85	1138.95
207.22	1204.49
207.60	1168.33
207.97	1204.49
208.35	1202.23
208.73	1150.25
209.10	1150.25
209.48	1172.85
209.85	1177.37
210.23	1161.55
210.61	1118.61
210.98	1161.55
211.36	1143.47
211.73	1163.81
212.11	1157.03
212.49	1154.77
212.86	1150.25
213.24	1150.25
213.61	1202.23
213.99	1141.21
214.37	1211.27
214.74	1147.99
215.12	1136.69
215.49	1188.67
215.87	1163.81
216.24	1105.06
216.62	1186.41
216.99	1105.06
217.37	1175.11
217.75	1197.71
218.12	1215.79
218.50	1161.55
218.87	1150.25
219.25	1147.99
219.62	1202.23
220.00	1163.81
220.37	1125.39
220.75	1132.17
221.12	1166.07
221.50	1186.41
221.87	1220.31
222.25	1170.59
222.63	1188.67
223.00	1170.59
223.38	1125.39
223.75	1215.79
224.13	1209.01
224.50	1107.32
224.88	1227.09
225.25	1215.79
225.63	1181.89
226.00	1166.07
226.38	1206.75
226.75	1141.21
227.13	1129.91
227.50	1157.03
227.88	1150.25
228.25	1170.59
228.63	1188.67
229.00	1177.37
229.37	1184.15
229.75	1141.21
230.12	1193.19
230.50	1168.33
230.87	1161.55
231.25	1161.55
231.62	1215.79
232.00	1132.17
232.37	1181.89
232.75	1209.01
233.12	1168.33
233.50	1172.85
233.87	1199.97
234.24	1231.61
234.62	1150.25
234.99	1089.24
235.37	1181.89
235.74	1186.41
236.12	1150.25
236.49	1141.21
236.86	1236.13
237.24	1172.85
237.61	1195.45
237.99	1120.87
238.36	1166.07
238.74	1141.21
239.11	1159.29
239.48	1231.61
239.86	1129.91
240.23	1193.19
240.61	1147.99
240.98	1159.29
241.35	1222.57
241.73	1177.37
242.10	1168.33
242.48	1145.73
242.85	1150.25
243.22	1245.16
243.60	1265.50
243.97	1190.93
244.34	1193.19
244.72	1240.65
245.09	1109.58
245.47	1240.65
245.84	1197.71
246.21	1166.07
246.59	1249.68
246.96	1197.71
247.33	1168.33
247.71	1256.46
248.08	1193.19
248.45	1159.29
248.83	1127.65
249.20	1136.69
249.57	1211.27
249.95	1220.31
250.32	1116.35
250.69	1215.79
251.07	1141.21
251.44	1170.59
251.81	1161.55
252.19	1274.54
252.56	1224.83
252.93	1193.19
253.31	1179.63
253.68	1249.68
254.05	1213.53
254.43	1181.89
254.80	1195.45
255.17	1209.01
255.55	1215.79
255.92	1213.53
256.29	1181.89
256.66	1209.01
257.04	1199.97
257.41	1267.76
257.78	1188.67
258.16	1199.97
258.53	1195.45
258.90	1184.15
259.27	1129.91
259.65	1163.81
260.02	1186.41
260.39	1263.24
260.76	1204.49
261.14	1168.33
261.51	1222.57
261.88	1154.77
262.25	1150.25
262.63	1172.85
263.00	1202.23
263.37	1195.45
263.74	1179.63
264.12	1184.15
264.49	1157.03
264.86	1224.83
265.23	1127.65
265.61	1209.01
265.98	1206.75
266.35	1204.49
266.72	1184.15
267.09	1202.23
267.47	1224.83
267.84	1209.01
268.21	1172.85
268.58	1163.81
268.95	1199.97
269.33	1220.31
269.70	1179.63
270.07	1163.81
270.44	1163.81
270.81	1163.81
271.19	1138.95
271.56	1145.73
271.93	1166.07
272.30	1281.32
272.67	1157.03
273.05	1138.95
273.42	1186.41
273.79	1157.03
274.16	1147.99
274.53	1213.53
274.90	1190.93
275.28	1195.45
275.65	1154.77
276.02	1233.87
276.39	1166.07
276.76	1161.55
277.13	1202.23
277.50	1123.13
277.88	1249.68
278.25	1168.33
278.62	1199.97
278.99	1166.07
279.36	1161.55
279.73	1233.87
280.10	1218.05
280.47	1249.68
280.85	1184.15
281.22	1206.75
281.59	1240.65
281.96	1190.93
282.33	1256.46
282.70	1276.80
283.07	1175.11
283.44	1220.31
283.81	1193.19
284.18	1157.03
284.56	1179.63
284.93	1190.93
285.30	1159.29
285.67	1274.54
286.04	1209.01
286.41	1172.85
286.78	1209.01
287.15	1218.05
287.52	1202.23
287.89	1147.99
288.26	1193.19
288.63	1186.41
289.00	1247.42
289.37	1159.29
289.75	1175.11
290.12	1190.93
290.49	1202.23
290.86	1204.49
291.23	1186.41
291.60	1224.83
291.97	1211.27
292.34	1227.09
292.71	1209.01
293.08	1152.51
293.45	1224.83
293.82	1163.81
294.19	1224.83
294.56	1163.81
294.93	1202.23
295.30	1222.57
295.67	1168.33
296.04	1175.11
296.41	1245.16
296.78	1215.79
297.15	1125.39
297.52	1240.65
297.89	1184.15
298.26	1279.06
298.63	1197.71
299.00	1206.75
299.37	1240.65
299.74	1227.09
300.11	1181.89
300.48	1152.51
300.85	1195.45
301.22	1206.75
301.59	1227.09
301.96	1204.49
302.33	1249.68
302.70	1166.07
303.07	1245.16
303.43	1231.61
303.80	1227.09
304.17	1179.63
304.54	1227.09
304.91	1249.68
305.28	1209.01
305.65	1209.01
306.02	1236.13
306.39	1220.31
306.76	1163.81
307.13	1197.71
307.50	1215.79
307.87	1188.67
308.24	1184.15
308.60	1254.20
308.97	1181.89
309.34	1195.45
309.71	1227.09
310.08	1170.59
310.45	1213.53
310.82	1213.53
311.19	1159.29
311.56	1229.35
311.92	1209.01
312.29	1317.48
312.66	1195.45
313.03	1233.87
313.40	1227.09
313.77	1222.57
314.14	1132.17
314.51	1132.17
314.87	1161.55
315.24	1211.27
315.61	1190.93
315.98	1238.39
316.35	1195.45
316.72	1256.46
317.09	1229.35
317.45	1236.13
317.82	1303.92
318.19	1233.87
318.56	1213.53
318.93	1190.93
319.30	1227.09
319.66	1161.55
320.03	1267.76
320.40	1231.61
320.77	1206.75
321.14	1245.16
321.50	1213.53
321.87	1249.68
322.24	1247.42
322.61	1202.23
322.98	1240.65
323.34	1242.91
323.71	1227.09
324.08	1170.59
324.45	1242.91
324.82	1233.87
325.18	1274.54
325.55	1238.39
325.92	1211.27
326.29	1258.72
326.65	1251.94
327.02	1270.02
327.39	1177.37
327.76	1229.35
328.12	1193.19
328.49	1245.16
328.86	1245.16
329.23	1154.77
329.59	1195.45
329.96	1209.01
330.33	1290.36
330.70	1256.46
331.06	1220.31
331.43	1204.49
331.80	1258.72
332.17	1233.87
332.53	1349.12
332.90	1258.72
333.27	1258.72
333.63	1240.65
334.00	1233.87
334.37	1218.05
334.74	1233.87
335.10	1238.39
335.47	1297.14
335.84	1209.01
336.20	1270.02
336.57	1206.75
336.94	1197.71
337.30	1181.89
337.67	1238.39
338.04	1222.57
338.40	1233.87
338.77	1215.79
339.14	1247.42
339.50	1265.50
339.87	1224.83
340.24	1202.23
340.60	1308.44
340.97	1206.75
341.34	1260.98
341.70	1213.53
342.07	1285.84
342.44	1240.65
342.80	1218.05
343.17	1251.94
343.53	1251.94
343.90	1209.01
344.27	1247.42
344.63	1231.61
345.00	1240.65
345.37	1285.84
345.73	1260.98
346.10	1254.20
346.46	1251.94
346.83	1276.80
347.20	1213.53
347.56	1274.54
347.93	1265.50
348.29	1267.76
348.66	1229.35
349.03	1301.66
349.39	1299.40
349.76	1308.44
350.12	1249.68
350.49	1251.94
350.85	1258.72
351.22	1283.58
351.59	1274.54
351.95	1299.40
352.32	1292.62
352.68	1224.83
353.05	1195.45
353.41	1251.94
353.78	1186.41
354.14	1272.28
354.51	1233.87
354.88	1233.87
355.24	1254.20
355.61	1355.90
355.97	1272.28
356.34	1290.36
356.70	1270.02
357.07	1224.83
357.43	1324.26
357.80	1308.44
358.16	1310.70
358.53	1281.32
358.89	1310.70
359.26	1270.02
359.62	1303.92
359.99	1272.28
360.35	1285.84
360.72	1353.64
361.08	1240.65
361.45	1306.18
361.81	1369.46
362.18	1288.10
362.54	1294.88
362.91	1270.02
363.27	1333.30
363.63	1351.38
364.00	1328.78
364.36	1315.22
364.73	1299.40
365.09	1324.26
365.46	1258.72
365.82	1294.88
366.19	1358.16
366.55	1371.72
366.91	1414.65
367.28	1367.20
367.64	1380.75
368.01	1351.38
368.37	1344.60
368.74	1439.51
369.10	1274.54
369.46	1328.78
369.83	1380.75
370.19	1367.20
370.56	1308.44
370.92	1351.38
371.28	1430.47
371.65	1378.49
372.01	1283.58
372.38	1349.12
372.74	1326.52
373.10	1457.59
373.47	1407.87
373.83	1425.95
374.19	1416.91
374.56	1466.63
374.92	1412.39
375.29	1394.31
375.65	1362.68
376.01	1471.15
376.38	1457.59
376.74	1437.25
377.10	1516.34
377.47	1541.20
377.83	1550.24
378.19	1579.62
378.56	1586.40
378.92	1581.88
379.28	1629.34
379.65	1631.60
380.01	1679.05
380.37	1697.13
380.74	1737.81
381.10	1733.29
381.46	1837.24
381.83	1873.40
382.19	1868.88
382.55	1943.45
382.91	1995.43
383.28	2079.04
383.64	2284.69
384.00	2325.36
384.37	2424.80
384.73	2592.02
385.09	2657.56
385.45	2707.27
385.82	2964.89
386.18	3109.52
386.54	3251.89
386.91	3477.87
387.27	3717.42
387.63	3945.66
387.99	4194.24
388.36	4601.01
388.72	4804.39
389.08	5147.89
389.44	5620.19
389.80	5945.61
390.17	6404.35
390.53	6858.58
390.89	7672.11
391.25	8171.54
391.62	8734.23
391.98	9651.72
392.34	10510.46
392.70	10750.00
393.06	11868.61
393.43	12928.47
393.79	13204.17
394.15	14196.24
394.51	14984.92
394.87	16372.45
395.24	17714.79
395.60	19048.09
395.96	20220.94
396.32	22040.10
396.68	23251.37
397.04	25560.91
397.41	27590.24
397.77	29497.53
398.13	31967.52
398.49	33992.33
398.85	36390.00
399.21	39870.14
399.58	42378.55
399.94	44672.27
400.30	48954.64
400.66	50394.16
401.02	53670.91
401.38	55743.17
401.74	57474.20
402.11	59447.02
402.47	60902.35
402.83	61856.00
403.19	63284.21
403.55	64759.88
403.91	65535.00
404.27	65535.00
404.63	65535.00
404.99	65535.00
405.35	65535.00
405.72	65535.00
406.08	65535.00
406.44	65535.00
406.80	65535.00
407.16	65535.00
407.52	65535.00
407.88	65535.00
408.24	65535.00
408.60	65535.00
408.96	65535.00
409.32	65535.00
409.68	65535.00
410.04	65535.00
410.40	65535.00
410.76	65535.00
411.13	64222.04
411.49	63824.31
411.85	62194.97
412.21	60789.36
412.57	59605.21
412.93	58572.47
413.29	56506.99
413.65	54726.24
414.01	52870.93
414.37	50416.75
414.73	48683.47
415.09	46306.13
415.45	44651.93
415.81	42448.60
416.17	40588.76
416.53	38819.32
416.89	37314.27
417.25	35113.20
417.61	33169.75
417.97	32315.53
418.33	31083.93
418.69	29877.18
419.05	28848.96
419.41	27832.04
419.77	27124.71
420.12	25273.91
420.48	24148.52
420.84	23872.82
421.20	22320.32
421.56	21278.54
421.92	21005.10
422.28	19515.87
422.64	18469.57
423.00	17660.55
423.36	16980.34
423.72	15990.54
424.08	14894.52
424.44	14275.33
424.80	13690.04
425.16	13030.17
425.51	12246.01
425.87	11893.47
426.23	11222.30
426.59	10359.05
426.95	10340.97
427.31	9782.79
427.67	9592.97
428.03	8894.68
428.39	8695.82
428.74	8092.44
429.10	7534.27
429.46	7315.06
429.82	7064.22
430.18	6689.09
430.54	6637.11
430.90	6323.00
431.26	6191.93
431.61	5871.03
431.97	5572.73
432.33	5441.66
432.69	5396.47
433.05	5095.91
433.41	4962.58
433.76	4704.96
434.12	4612.31
434.48	4506.10
434.84	4241.70
435.20	4232.66
435.55	4135.48
435.91	4090.29
436.27	3884.64
436.63	3780.69
436.99	3746.79
437.34	3525.33
437.70	3486.91
438.06	3292.57
438.42	3163.76
438.78	3084.66
439.13	2994.27
439.49	2908.40
439.85	2842.86
440.21	2815.75
440.56	2831.56
440.92	2605.58
441.28	2630.44
441.64	2479.03
441.99	2564.90
442.35	2415.76
442.71	2445.13
443.07	2316.32
443.42	2347.96
443.78	2198.81
444.14	2185.25
444.50	2151.36
444.85	2176.21
445.21	2099.38
445.57	2074.52
445.93	2024.81
446.28	1986.39
446.64	1959.27
447.00	1979.61
447.35	1864.36
447.71	1886.96
448.07	1970.57
448.42	1877.92
448.78	1823.68
449.14	1875.66
449.49	1785.26
449.85	1778.48
450.21	1715.21
450.56	1683.57
450.92	1764.93
451.28	1645.15
451.63	1638.38
451.99	1663.23
452.35	1651.93
452.70	1699.39
453.06	1636.12
453.42	1529.90
453.77	1563.80
454.13	1493.75
454.49	1534.42
454.84	1511.82
455.20	1532.16
455.55	1532.16
455.91	1518.60
456.27	1525.38
456.62	1482.45
456.98	1423.69
457.33	1446.29
457.69	1462.11
458.05	1434.99
458.40	1322.00
458.76	1437.25
459.11	1364.94
459.47	1371.72
459.83	1335.56
460.18	1403.35
460.54	1450.81
460.89	1317.48
461.25	1416.91
461.60	1364.94
461.96	1412.39
462.31	1392.05
462.67	1279.06
463.03	1369.46
463.38	1396.57
463.74	1344.60
464.09	1303.92
464.45	1380.75
464.80	1346.86
465.16	1351.38
465.51	1299.40
465.87	1297.14
466.22	1315.22
466.58	1353.64
466.93	1303.92
467.29	1319.74
467.64	1242.91
468.00	1283.58
468.35	1310.70
468.71	1328.78
469.06	1351.38
469.42	1362.68
469.77	1263.24
470.13	1249.68
470.48	1258.72
470.84	1270.02
471.19	1290.36
471.54	1272.28
471.90	1267.76
472.25	1254.20
472.61	1292.62
472.96	1301.66
473.32	1242.91
473.67	1279.06
474.03	1224.83
474.38	1310.70
474.73	1283.58
475.09	1260.98
475.44	1247.42
475.80	1288.10
476.15	1218.05
476.50	1242.91
476.86	1215.79
477.21	1218.05
477.57	1258.72
477.92	1195.45
478.27	1247.42
478.63	1213.53
478.98	1324.26
479.34	1283.58
479.69	1270.02
480.04	1220.31
480.40	1270.02
480.75	1247.42
481.10	1195.45
481.46	1218.05
481.81	1240.65
482.16	1197.71
482.52	1204.49
482.87	1292.62
483.22	1274.54
483.58	1251.94
483.93	1245.16
484.28	1220.31
484.64	1186.41
484.99	1299.40
485.34	1229.35
485.70	1220.31
486.05	1308.44
486.40	1288.10
486.76	1215.79
487.11	1229.35
487.46	1247.42
487.81	1285.84
488.17	1195.45
488.52	1276.80
488.87	1206.75
489.23	1256.46
489.58	1265.50
489.93	1218.05
490.28	1258.72
490.64	1353.64
490.99	1238.39
491.34	1181.89
491.69	1213.53
492.05	1209.01
492.40	1209.01
492.75	1190.93
493.10	1222.57
493.46	1238.39
493.81	1249.68
494.16	1242.91
494.51	1231.61
494.86	1297.14
495.22	1190.93
495.57	1202.23
495.92	1270.02
496.27	1272.28
496.62	1242.91
496.98	1177.37
497.33	1308.44
497.68	1190.93
498.03	1285.84
498.38	1204.49
498.74	1294.88
499.09	1224.83
499.44	1202.23
499.79	1206.75
500.14	1312.96
500.49	1274.54
500.85	1181.89
501.20	1251.94
501.55	1276.80
501.90	1306.18
502.25	1238.39
502.60	1199.97
502.95	1188.67
503.30	1218.05
503.66	1242.91
504.01	1265.50
504.36	1229.35
504.71	1251.94
505.06	1238.39
505.41	1247.42
505.76	1263.24
506.11	1209.01
506.46	1290.36
506.82	1213.53
507.17	1199.97
507.52	1245.16
507.87	1238.39
508.22	1161.55
508.57	1147.99
508.92	1193.19
509.27	1222.57
509.62	1245.16
509.97	1254.20
510.32	1202.23
510.67	1306.18
511.02	1175.11
511.37	1166.07
511.72	1254.20
512.07	1204.49
512.42	1220.31
512.77	1294.88
513.12	1211.27
513.47	1193.19
513.82	1190.93
514.17	1297.14
514.52	1218.05
514.87	1263.24
515.22	1242.91
515.57	1166.07
515.92	1222.57
516.27	1224.83
516.62	1224.83
516.97	1213.53
517.32	1209.01
517.67	1276.80
518.02	1215.79
518.37	1276.80
518.72	1222.57
519.07	1199.97
519.42	1251.94
519.77	1265.50
520.12	1190.93
520.47	1204.49
520.82	1265.50
521.17	1199.97
521.52	1276.80
521.87	1179.63
522.22	1215.79
522.56	1236.13
522.91	1260.98
523.26	1166.07
523.61	1224.83
523.96	1229.35
524.31	1220.31
524.66	1209.01
525.01	1231.61
525.36	1233.87
525.71	1222.57
526.05	1251.94
526.40	1247.42
526.75	1265.50
527.10	1265.50
527.45	1218.05
527.80	1245.16
528.15	1288.10
528.49	1227.09
528.84	1260.98
529.19	1224.83
529.54	1211.27
529.89	1240.65
530.24	1272.28
530.58	1218.05
530.93	1188.67
531.28	1242.91
531.63	1242.91
531.98	1229.35
532.33	1256.46
532.67	1258.72
533.02	1224.83
533.37	1188.67
533.72	1222.57
534.07	1260.98
534.41	1249.68
534.76	1240.65
535.11	1179.63
535.46	1215.79
535.80	1260.98
536.15	1242.91
536.50	1299.40
536.85	1270.02
537.19	1231.61
537.54	1279.06
537.89	1184.15
538.24	1224.83
538.58	1242.91
538.93	1247.42
539.28	1283.58
539.63	1215.79
539.97	1229.35
540.32	1276.80
540.67	1193.19
541.01	1254.20
541.36	1215.79
541.71	1245.16
542.06	1218.05
542.40	1236.13
542.75	1251.94
543.10	1274.54
543.44	1279.06
543.79	1279.06
544.14	1238.39
544.48	1224.83
544.83	1265.50
545.18	1229.35
545.52	1213.53
545.87	1229.35
546.22	1240.65
546.56	1215.79
546.91	1231.61
547.25	1238.39
547.60	1177.37
547.95	1147.99
548.29	1236.13
548.64	1202.23
548.99	1213.53
549.33	1256.46
549.68	1197.71
550.02	1251.94
550.37	1190.93
550.72	1197.71
551.06	1256.46
551.41	1193.19
551.75	1159.29
552.10	1251.94
552.45	1260.98
552.79	1211.27
553.14	1240.65
553.48	1206.75
553.83	1279.06
554.17	1267.76
554.52	1188.67
554.87	1231.61
555.21	1147.99
555.56	1206.75
555.90	1197.71
556.25	1218.05
556.59	1294.88
556.94	1195.45
557.28	1213.53
557.63	1206.75
557.97	1220.31
558.32	1204.49
558.66	1206.75
559.01	1199.97
559.35	1270.02
559.70	1211.27
560.04	1206.75
560.39	1247.42
560.73	1251.94
561.08	1204.49
561.42	1218.05
561.77	1247.42
562.11	1247.42
562.46	1168.33
562.80	1233.87
563.14	1190.93
563.49	1211.27
563.83	1242.91
564.18	1260.98
564.52	1172.85
564.87	1227.09
565.21	1204.49
565.56	1240.65
565.90	1238.39
566.24	1238.39
566.59	1310.70
566.93	1218.05
567.28	1233.87
567.62	1138.95
567.96	1245.16
568.31	1220.31
568.65	1238.39
569.00	1154.77
569.34	1202.23
569.68	1170.59
570.03	1152.51
570.37	1251.94
570.71	1127.65
571.06	1175.11
571.40	1166.07
571.74	1227.09
572.09	1186.41
572.43	1220.31
572.78	1224.83
573.12	1177.37
573.46	1274.54
573.80	1195.45
574.15	1204.49
574.49	1222.57
574.83	1222.57
575.18	1161.55
575.52	1245.16
575.86	1231.61
576.21	1242.91
576.55	1220.31
576.89	1204.49
577.24	1202.23
577.58	1238.39
577.92	1242.91
578.26	1215.79
578.61	1213.53
578.95	1190.93
579.29	1179.63
579.63	1150.25
579.98	1199.97
580.32	1181.89
580.66	1170.59
581.00	1263.24
581.35	1163.81
581.69	1256.46
582.03	1251.94
582.37	1220.31
582.72	1211.27
583.06	1245.16
583.40	1247.42
583.74	1229.35
584.08	1190.93
584.43	1168.33
584.77	1209.01
585.11	1258.72
585.45	1240.65
585.79	1206.75
586.13	1222.57
586.48	1236.13
586.82	1267.76
587.16	1251.94
587.50	1199.97
587.84	1242.91
588.18	1188.67
588.53	1222.57
588.87	1297.14
589.21	1134.43
589.55	1170.59
589.89	1199.97
590.23	1209.01
590.57	1247.42
590.92	1157.03
591.26	1170.59
591.60	1193.19
591.94	1166.07
592.28	1188.67
592.62	1188.67
592.96	1229.35
593.30	1242.91
593.64	1197.71
593.98	1202.23
594.32	1211.27
594.67	1166.07
595.01	1251.94
595.35	1211.27
595.69	1170.59
596.03	1260.98
596.37	1195.45
596.71	1159.29
597.05	1229.35
597.39	1195.45
597.73	1129.91
598.07	1238.39
598.41	1181.89
598.75	1177.37
599.09	1245.16
599.43	1238.39
599.77	1218.05
600.11	1168.33
600.45	1220.31
600.79	1195.45
601.13	1204.49
601.47	1229.35
601.81	1222.57
602.15	1227.09
602.49	1211.27
602.83	1195.45
603.17	1270.02
603.51	1163.81
603.85	1242.91
604.19	1265.50
604.53	1170.59
604.87	1170.59
605.21	1209.01
605.55	1127.65
605.89	1193.19
606.23	1163.81
606.56	1193.19
606.90	1267.76
607.24	1199.97
607.58	1193.19
607.92	1247.42
608.26	1193.19
608.60	1157.03
608.94	1170.59
609.28	1231.61
609.62	1233.87
609.95	1172.85
610.29	1209.01
610.63	1224.83
610.97	1152.51
611.31	1224.83
611.65	1188.67
611.99	1170.59
612.33	1179.63
612.66	1177.37
613.00	1242.91
613.34	1181.89
613.68	1218.05
614.02	1177.37
614.36	1166.07
614.69	1220.31
615.03	1220.31
615.37	1206.75
615.71	1159.29
616.05	1227.09
616.38	1127.65
616.72	1161.55
617.06	1215.79
617.40	1236.13
617.74	1204.49
618.07	1206.75
618.41	1236.13
618.75	1199.97
619.09	1184.15
619.42	1256.46
619.76	1199.97
620.10	1163.81
620.44	1186.41
620.77	1134.43
621.11	1218.05
621.45	1152.51
621.79	1163.81
622.12	1204.49
622.46	1129.91
622.80	1179.63
623.13	1177.37
623.47	1215.79
623.81	1195.45
624.15	1166.07
624.48	1157.03
624.82	1229.35
625.16	1170.59
625.49	1263.24
625.83	1195.45
626.17	1209.01
626.50	1181.89
626.84	1209.01
627.18	1258.72
627.51	1127.65
627.85	1184.15
628.19	1199.97
628.52	1175.11
628.86	1150.25
629.20	1154.77
629.53	1181.89
629.87	1116.35
630.20	1170.59
630.54	1141.21
630.88	1188.67
631.21	1204.49
631.55	1163.81
631.89	1129.91
632.22	1147.99
632.56	1166.07
632.89	1175.11
633.23	1249.68
633.56	1150.25
633.90	1170.59
634.24	1161.55
634.57	1179.63
634.91	1181.89
635.24	1168.33
635.58	1177.37
635.91	1132.17
636.25	1213.53
636.58	1181.89
636.92	1199.97
637.26	1179.63
637.59	1188.67
637.93	1218.05
638.26	1224.83
638.60	1193.19
638.93	1136.69
639.27	1177.37
639.60	1184.15
639.94	1202.23
640.27	1143.47
640.61	1154.77
640.94	1206.75
641.28	1209.01
641.61	1166.07
641.94	1141.21
642.28	1242.91
642.61	1150.25
642.95	1134.43
643.28	1168.33
643.62	1274.54
643.95	1197.71
644.29	1143.47
644.62	1157.03
644.95	1134.43
645.29	1186.41
645.62	1179.63
645.96	1179.63
646.29	1157.03
646.63	1188.67
646.96	1134.43
647.29	1116.35
647.63	1175.11
647.96	1190.93
648.29	1218.05
648.63	1179.63
648.96	1120.87
649.30	1204.49
649.63	1136.69
649.96	1206.75
650.30	1129.91
650.63	1150.25
650.96	1195.45
651.30	1166.07
651.63	1188.67
651.96	1152.51
652.30	1157.03
652.63	1157.03
652.96	1222.57
653.30	1181.89
653.63	1188.67
653.96	1159.29
654.30	1204.49
654.63	1229.35
654.96	1254.20
655.29	1168.33
655.63	1231.61
655.96	1168.33
656.29	1172.85
656.63	1240.65
656.96	1242.91
657.29	1157.03
657.62	1199.97
657.96	1197.71
658.29	1220.31
658.62	1125.39
658.95	1134.43
659.29	1127.65
659.62	1184.15
659.95	1163.81
660.28	1206.75
660.61	1224.83
660.95	1179.63
661.28	1186.41
661.61	1215.79
661.94	1195.45
662.27	1199.97
662.61	1204.49
662.94	1172.85
663.27	1188.67
663.60	1141.21
663.93	1136.69
664.27	1209.01
664.60	1175.11
664.93	1204.49
665.26	1206.75
665.59	1195.45
665.92	1238.39
666.25	1134.43
666.59	1134.43
666.92	1227.09
667.25	1177.37
667.58	1184.15
667.91	1177.37
668.24	1195.45
668.57	1193.19
668.90	1193.19
669.23	1145.73
669.57	1197.71
669.90	1213.53
670.23	1186.41
670.56	1193.19
670.89	1170.59
671.22	1193.19
671.55	1159.29
671.88	1186.41
672.21	1170.59
672.54	1107.32
672.87	1157.03
673.20	1166.07
673.53	1175.11
673.86	1215.79
674.19	1166.07
674.52	1222.57
674.85	1231.61
675.18	1161.55
675.51	1227.09
675.84	1206.75
676.17	1231.61
676.50	1134.43
676.83	1238.39
677.16	1116.35
677.49	1134.43
677.82	1157.03
678.15	1157.03
678.48	1120.87
678.81	1184.15
679.14	1172.85
679.47	1188.67
679.80	1179.63
680.13	1134.43
680.46	1220.31
680.79	1150.25
681.12	1206.75
681.45	1209.01
681.78	1181.89
682.11	1272.28
682.44	1125.39
682.77	1127.65
683.09	1211.27
683.42	1168.33
683.75	1157.03
684.08	1209.01
684.41	1138.95
684.74	1184.15
685.07	1120.87
685.40	1177.37
685.72	1163.81
686.05	1233.87
686.38	1147.99
686.71	1206.75
687.04	1166.07
687.37	1218.05
687.70	1181.89
688.02	1204.49
688.35	1125.39
688.68	1197.71
689.01	1141.21
689.34	1231.61
689.67	1204.49
689.99	1168.33
690.32	1186.41
690.65	1175.11
690.98	1166.07
691.30	1154.77
691.63	1211.27
691.96	1193.19
692.29	1179.63
692.62	1175.11
692.94	1123.13
693.27	1129.91
693.60	1181.89
693.93	1184.15
694.25	1161.55
694.58	1202.23
694.91	1161.55
695.24	1163.81
695.56	1105.06
695.89	1141.21
696.22	1186.41
696.54	1177.37
696.87	1193.19
697.20	1132.17
697.53	1181.89
697.85	1147.99
698.18	1152.51
698.51	1184.15
698.83	1240.65
699.16	1188.67
699.49	1256.46
699.81	1145.73
700.14	1188.67
700.47	1177.37
700.79	1170.59
701.12	1231.61
701.45	1154.77
701.77	1177.37
702.10	1190.93
702.42	1215.79
702.75	1145.73
703.08	1186.41
703.40	1179.63
703.73	1254.20
704.05	1204.49
704.38	1154.77
704.71	1141.21
705.03	1190.93
705.36	1181.89
705.68	1127.65
706.01	1199.97
706.34	1206.75
706.66	1209.01
706.99	1193.19
707.31	1123.13
707.64	1179.63
707.96	1123.13
708.29	1145.73
708.61	1170.59
708.94	1177.37
709.26	1258.72
709.59	1199.97
709.92	1134.43
710.24	1166.07
710.57	1152.51
710.89	1211.27
711.22	1129.91
711.54	1170.59
711.87	1231.61
712.19	1197.71
712.51	1204.49
712.84	1141.21
713.16	1125.39
713.49	1143.47
713.81	1138.95
714.14	1193.19
714.46	1150.25
714.79	1184.15
715.11	1195.45
715.44	1204.49
715.76	1170.59
716.08	1141.21
716.41	1143.47
716.73	1245.16
717.06	1134.43
717.38	1150.25
717.70	1143.47
718.03	1177.37
718.35	1222.57
718.68	1211.27
719.00	1213.53
719.32	1175.11
719.65	1159.29
719.97	1209.01
720.29	1181.89
720.62	1197.71
720.94	1159.29
721.27	1114.10
721.59	1233.87
721.91	1159.29
722.24	1209.01
722.56	1179.63
722.88	1211.27
723.21	1157.03
723.53	1190.93
723.85	1229.35
724.17	1077.94
724.50	1220.31
724.82	1215.79
725.14	1159.29
725.47	1141.21
725.79	1170.59
726.11	1227.09
726.43	1147.99
726.76	1157.03
727.08	1111.84
727.40	1240.65
727.72	1249.68
728.05	1236.13
728.37	1179.63
728.69	1163.81
729.01	1209.01
729.34	1154.77
729.66	1143.47
729.98	1204.49
730.30	1136.69
730.62	1175.11
730.95	1168.33
731.27	1231.61
731.59	1145.73
731.91	1193.19
732.23	1145.73
732.56	1227.09
732.88	1184.15
733.20	1245.16
733.52	1152.51
733.84	1211.27
734.16	1190.93
734.49	1188.67
734.81	1233.87
735.13	1159.29
735.45	1190.93
735.77	1186.41
736.09	1157.03
736.41	1145.73
736.73	1159.29
737.06	1184.15
737.38	1157.03
737.70	1163.81
738.02	1147.99
738.34	1109.58
738.66	1136.69
738.98	1206.75
739.30	1141.21
739.62	1134.43
739.94	1181.89
740.26	1199.97
740.58	1161.55
740.90	1213.53
741.23	1152.51
741.55	1233.87
741.87	1077.94
742.19	1145.73
742.51	1195.45
742.83	1190.93
743.15	1125.39
743.47	1184.15
743.79	1197.71
744.11	1222.57
744.43	1220.31
744.75	1163.81
745.07	1109.58
745.39	1195.45
745.71	1141.21
746.03	1147.99
746.35	1202.23
746.67	1177.37
746.98	1150.25
747.30	1184.15
747.62	1181.89
747.94	1170.59
748.26	1197.71
748.58	1260.98
748.90	1209.01
749.22	1186.41
749.54	1190.93
749.86	1206.75
750.18	1188.67
750.50	1188.67
750.82	1188.67
751.13	1179.63
751.45	1118.61
751.77	1129.91
752.09	1136.69
752.41	1215.79
752.73	1177.37
753.05	1109.58
753.36	1254.20
753.68	1202.23
754.00	1181.89
754.32	1168.33
754.64	1175.11
754.96	1177.37
755.28	1168.33
755.59	1209.01
755.91	1091.50
756.23	1288.10
756.55	1152.51
756.87	1152.51
757.18	1157.03
757.50	1125.39
757.82	1145.73
758.14	1224.83
758.45	1161.55
758.77	1190.93
759.09	1184.15
759.41	1184.15
759.73	1202.23
760.04	1218.05
760.36	1172.85
760.68	1168.33
760.99	1195.45
761.31	1098.28
761.63	1206.75
761.95	1166.07
762.26	1159.29
762.58	1179.63
762.90	1166.07
763.21	1114.10
763.53	1224.83
763.85	1179.63
764.17	1143.47
764.48	1147.99
764.80	1209.01
765.12	1220.31
765.43	1170.59
765.75	1184.15
766.07	1238.39
766.38	1150.25
766.70	1170.59
767.01	1188.67
767.33	1138.95
767.65	1168.33
767.96	1206.75
768.28	1123.13
768.60	1143.47
768.91	1143.47
769.23	1199.97
769.54	1202.23
769.86	1134.43
770.18	1190.93
770.49	1159.29
770.81	1166.07
771.12	1098.28
771.44	1166.07
771.75	1186.41
772.07	1213.53
772.38	1202.23
772.70	1132.17
773.02	1190.93
773.33	1211.27
773.65	1199.97
773.96	1154.77
774.28	1163.81
774.59	1154.77
774.91	1089.24
775.22	1134.43
775.54	1222.57
775.85	1233.87
776.17	1163.81
776.48	1166.07
776.80	1181.89
777.11	1136.69
777.43	1127.65
777.74	1120.87
778.05	1127.65
778.37	1134.43
778.68	1181.89
779.00	1197.71
779.31	1147.99
779.63	1114.10
779.94	1222.57
780.26	1161.55
780.57	1175.11
780.88	1202.23
781.20	1236.13
781.51	1177.37
781.83	1186.41
782.14	1150.25
782.45	1206.75
782.77	1166.07
783.08	1181.89
783.39	1186.41
783.71	1209.01
784.02	1177.37
784.34	1098.28
784.65	1143.47
784.96	1222.57
785.28	1111.84
785.59	1186.41
785.90	1154.77
786.22	1195.45
786.53	1175.11
786.84	1107.32
787.15	1166.07
787.47	1129.91
787.78	1168.33
788.09	1175.11
788.41	1181.89
788.72	1152.51
789.03	1193.19
789.35	1168.33
789.66	1152.51
789.97	1175.11
790.28	1177.37
790.60	1147.99
790.91	1161.55
791.22	1152.51
791.53	1170.59
791.84	1136.69
792.16	1161.55
792.47	1190.93
792.78	1096.02
793.09	1154.77
793.41	1186.41
793.72	1195.45
794.03	1159.29
794.34	1206.75
794.65	1233.87
794.96	1163.81
795.28	1168.33
795.59	1190.93
795.90	1202.23
796.21	1141.21
796.52	1170.59
796.83	1197.71
797.15	1175.11
797.46	1231.61
797.77	1150.25
798.08	1134.43
798.39	1199.97
798.70	1118.61
799.01	1172.85
799.32	1159.29
799.63	1175.11
799.95	1199.97
800.26	1150.25
800.57	1105.06
800.88	1193.19
801.19	1181.89
801.50	1166.07
801.81	1145.73
802.12	1197.71
802.43	1091.50
802.74	1147.99
803.05	1172.85
803.36	1193.19
803.67	1127.65
803.98	1233.87
804.29	1145.73
804.60	1141.21
804.91	1136.69
805.22	1168.33
805.53	1125.39
805.84	1206.75
806.15	1249.68
806.46	1123.13
806.77	1134.43
807.08	1145.73
807.39	1150.25
807.70	1190.93
808.01	1163.81
808.32	1177.37
808.63	1123.13
808.94	1143.47
809.25	1136.69
809.56	1213.53
809.87	1114.10
810.18	1193.19
810.49	1161.55
810.79	1136.69
811.10	1170.59
811.41	1157.03
811.72	1084.72
812.03	1184.15
812.34	1154.77
812.65	1123.13
812.96	1195.45
813.27	1134.43
813.57	1181.89
813.88	1240.65
814.19	1120.87
814.50	1150.25
814.81	1188.67
815.12	1161.55
815.42	1199.97
815.73	1206.75
816.04	1138.95
816.35	1179.63
816.66	1236.13
816.97	1222.57
817.27	1188.67
817.58	1197.71
817.89	1188.67
818.20	1181.89
818.50	1166.07
818.81	1186.41
819.12	1175.11
819.43	1125.39
819.73	1195.45
820.04	1181.89
820.35	1172.85
820.66	1132.17
820.96	1175.11
821.27	1224.83
821.58	1258.72
821.89	1141.21
822.19	1141.21
822.50	1179.63
822.81	1184.15
823.11	1150.25
823.42	1186.41
823.73	1218.05
824.03	1163.81
824.34	1159.29
824.65	1195.45
824.95	1270.02
825.26	1184.15
825.57	1202.23
825.87	1150.25
826.18	1134.43
826.49	1193.19
826.79	1238.39
827.10	1175.11
827.40	1193.19
827.71	1186.41
828.02	1233.87
828.32	1129.91
828.63	1222.57
828.93	1177.37
829.24	1204.49
829.55	1159.29
829.85	1161.55
830.16	1109.58
830.46	1175.11
830.77	1193.19
831.07	1184.15
831.38	1147.99
831.69	1240.65
831.99	1175.11
832.30	1136.69
832.60	1107.32
832.91	1145.73
833.21	1181.89
833.52	1179.63
833.82	1143.47
834.13	1159.29
834.43	1215.79
834.74	1233.87
835.04	1154.77
835.35	1166.07
835.65	1213.53
835.96	1206.75
836.26	1181.89
836.56	1084.72
836.87	1123.13
837.17	1141.21
837.48	1213.53
837.78	1209.01
838.09	1186.41
838.39	1170.59
838.69	1199.97
839.00	1202.23
839.30	1111.84
839.61	1159.29
839.91	1163.81
840.21	1161.55
840.52	1138.95
840.82	1154.77
841.13	1172.85
841.43	1193.19
841.73	1159.29
842.04	1147.99
842.34	1199.97
842.64	1143.47
842.95	1145.73
843.25	1179.63
843.55	1150.25
843.86	1157.03
844.16	1168.33
844.46	1172.85
844.77	1195.45
845.07	1188.67
845.37	1199.97
845.68	1204.49
845.98	1098.28
846.28	1175.11
846.58	1199.97
846.89	1161.55
847.19	1136.69
847.49	1197.71
847.79	1181.89
848.10	1245.16
848.40	1170.59
848.70	1181.89
849.00	1199.97
849.31	1177.37
849.61	1186.41
849.91	1120.87
850.21	1152.51
850.51	1170.59
850.82	1222.57
851.12	1168.33
851.42	1240.65
851.72	1166.07
852.02	1132.17
852.32	1132.17
852.63	1159.29
852.93	1136.69
853.23	1150.25
853.53	1199.97
853.83	1154.77
854.13	1152.51
854.43	1152.51
854.74	1177.37
855.04	1161.55
855.34	1197.71
855.64	1240.65
855.94	1168.33
856.24	1215.79
856.54	1184.15
856.84	1152.51
857.14	1096.02
857.44	1231.61
857.74	1168.33
858.05	1186.41
858.35	1143.47
858.65	1190.93
858.95	1136.69
859.25	1127.65
859.55	1206.75
859.85	1202.23
860.15	1096.02
860.45	1190.93
860.75	1186.41
861.05	1193.19
861.35	1199.97
861.65	1220.31
861.95	1206.75
862.25	1190.93
862.55	1161.55
862.85	1166.07
863.15	1134.43
863.45	1193.19
863.75	1179.63
864.05	1147.99
864.35	1163.81
864.64	1154.77
864.94	1143.47
865.24	1141.21
865.54	1179.63
865.84	1181.89
866.14	1233.87
866.44	1209.01
866.74	1161.55
867.04	1170.59
867.34	1166.07
867.64	1116.35
867.93	1143.47
868.23	1127.65
868.53	1215.79
868.83	1177.37
869.13	1181.89
869.43	1129.91
869.73	1163.81
870.02	1145.73
870.32	1184.15
870.62	1222.57
870.92	1129.91
871.22	1227.09
871.51	1152.51
871.81	1175.11
872.11	1150.25
872.41	1177.37
872.71	1138.95
873.00	1175.11
873.30	1129.91
873.60	1150.25
873.90	1168.33
874.19	1147.99
874.49	1157.03
874.79	1195.45
875.09	1138.95
875.38	1186.41
875.68	1116.35
875.98	1159.29
876.28	1157.03
876.57	1129.91
876.87	1129.91
877.17	1129.91
