300.47	2612.00
301.26	2625.00
302.04	2602.00
302.82	2619.00
303.60	2616.00
304.38	2607.00
305.17	2629.00
305.95	2604.00
306.73	2627.00
307.51	2610.00
308.29	2612.00
309.08	2625.00
309.86	2602.00
310.64	2631.00
311.42	2620.00
312.20	2602.00
312.98	2622.00
313.76	2613.00
314.55	2604.00
315.33	2616.00
316.11	2607.00
316.89	2615.00
317.67	2614.00
318.45	2597.00
319.23	2619.00
320.01	2620.00
320.79	2602.00
321.57	2621.00
322.35	2611.00
323.13	2610.00
323.91	2618.00
324.69	2602.00
325.47	2618.00
326.25	2617.00
327.03	2597.00
327.81	2625.00
328.59	2617.00
329.37	2604.00
330.15	2620.00
330.93	2614.00
331.71	2616.00
332.49	2620.00
333.27	2601.00
334.05	2622.00
334.83	2624.00
335.61	2601.00
336.39	2626.00
337.17	2617.00
337.95	2611.00
338.73	2623.00
339.51	2615.00
340.29	2625.00
341.07	2627.00
341.84	2611.00
342.62	2636.00
343.40	2627.00
344.18	2610.00
344.96	2639.00
345.74	2625.00
346.52	2629.00
347.29	2637.00
348.07	2625.00
348.85	2642.00
349.63	2642.00
350.41	2626.00
351.18	2652.00
351.96	2648.00
352.74	2635.00
353.52	2658.00
354.30	2652.00
355.07	2657.00
355.85	2668.00
356.63	2652.00
357.41	2673.00
358.18	2681.00
358.96	2661.00
359.74	2695.00
360.52	2683.00
361.29	2679.00
362.07	2697.00
362.85	2697.00
363.62	2711.00
364.40	2712.00
365.18	2703.00
365.95	2727.00
366.73	2733.00
367.51	2723.00
368.28	2746.00
369.06	2748.00
369.84	2749.00
370.61	2762.00
371.39	2758.00
372.17	2784.00
372.94	2786.00
373.72	2782.00
374.49	2815.00
375.27	2815.00
376.05	2810.00
376.82	2834.00
377.60	2835.00
378.37	2855.00
379.15	2870.00
379.92	2861.00
380.70	2897.00
381.47	2898.00
382.25	2897.00
383.02	2930.00
383.80	2935.00
384.58	2948.00
385.35	2977.00
386.13	2969.00
386.90	2992.00
387.67	3012.00
388.45	3012.00
389.22	3042.00
390.00	3057.00
390.77	3065.00
391.55	3100.00
392.32	3104.00
393.10	3123.00
393.87	3144.00
394.65	3143.00
395.42	3189.00
396.19	3194.00
396.97	3209.00
397.74	3235.00
398.52	3255.00
399.29	3269.00
400.06	3298.00
400.84	3301.00
401.61	3333.00
402.38	3366.00
403.16	3354.00
403.93	3393.00
404.70	3418.00
405.48	3408.00
406.25	3462.00
407.02	3482.00
407.80	3489.00
408.57	3526.00
409.34	3531.00
410.12	3568.00
410.89	3594.00
411.66	3595.00
412.43	3641.00
413.21	3661.00
413.98	3675.00
414.75	3708.00
415.52	3736.00
416.30	3750.00
417.07	3785.00
417.84	3789.00
418.61	3855.00
419.39	3860.00
420.16	3881.00
420.93	3917.00
421.70	3940.00
422.47	3958.00
423.24	4005.00
424.02	4024.00
424.79	4070.00
425.56	4089.00
426.33	4101.00
427.10	4190.00
427.87	4188.00
428.64	4218.00
429.42	4268.00
430.19	4303.00
430.96	4316.00
431.73	4391.00
432.50	4409.00
433.27	4446.00
434.04	4494.00
434.81	4535.00
435.58	4589.00
436.35	4623.00
437.12	4659.00
437.89	4714.00
438.67	4744.00
439.44	4811.00
440.21	4852.00
440.98	4876.00
441.75	4963.00
442.52	4996.00
443.29	5026.00
444.06	5122.00
444.83	5156.00
445.60	5210.00
446.37	5286.00
447.13	5302.00
447.90	5371.00
448.67	5416.00
449.44	5487.00
450.21	5581.00
450.98	5616.00
451.75	5658.00
452.52	5750.00
453.29	5824.00
454.06	5898.00
454.83	5946.00
455.60	5985.00
456.37	6091.00
457.13	6148.00
457.90	6206.00
458.67	6329.00
459.44	6399.00
460.21	6452.00
460.98	6534.00
461.75	6616.00
462.51	6692.00
463.28	6764.00
464.05	6837.00
464.82	6930.00
465.59	7027.00
466.35	7080.00
467.12	7204.00
467.89	7295.00
468.66	7381.00
469.43	7417.00
470.19	7529.00
470.96	7591.00
471.73	7701.00
472.50	7810.00
473.26	7897.00
474.03	8016.00
474.80	8099.00
475.56	8224.00
476.33	8294.00
477.10	8386.00
477.87	8499.00
478.63	8582.00
479.40	8728.00
480.17	8813.00
480.93	8886.00
481.70	9021.00
482.47	9123.00
483.23	9218.00
484.00	9387.00
484.76	9467.00
485.53	9584.00
486.30	9733.00
487.06	9807.00
487.83	9948.00
488.60	10063.00
489.36	10157.00
490.13	10326.00
490.89	10406.00
491.66	10467.00
492.42	10632.00
493.19	10729.00
493.96	10844.00
494.72	11013.00
495.49	11133.00
496.25	11295.00
497.02	11390.00
497.78	11506.00
498.55	11683.00
499.31	11773.00
500.08	11836.00
500.84	12049.00
501.61	12164.00
502.37	12281.00
503.14	12458.00
503.90	12573.00
504.67	12694.00
505.43	12874.00
506.20	12997.00
506.96	13209.00
507.72	13293.00
508.49	13424.00
509.25	13642.00
510.02	13754.00
510.78	13879.00
511.54	14079.00
512.31	14169.00
513.07	14320.00
513.84	14493.00
514.60	14633.00
515.36	14766.00
516.13	14881.00
516.89	15037.00
517.65	15137.00
518.42	15219.00
519.18	15456.00
519.94	15579.00
520.71	15687.00
521.47	15849.00
522.23	16019.00
523.00	16176.00
523.76	16368.00
524.52	16546.00
525.28	16678.00
526.05	16843.00
526.81	17062.00
527.57	17239.00
528.33	17410.00
529.10	17483.00
529.86	17661.00
530.62	17757.00
531.38	17954.00
532.15	18164.00
532.91	18296.00
533.67	18452.00
534.43	18609.00
535.19	18784.00
535.96	18988.00
536.72	19105.00
537.48	19236.00
538.24	19418.00
539.00	19527.00
539.76	19720.00
540.53	19941.00
541.29	20072.00
542.05	20286.00
542.81	20476.00
543.57	20662.00
544.33	20874.00
545.09	21021.00
545.85	21222.00
546.61	21348.00
547.38	21473.00
548.14	21734.00
548.90	21879.00
549.66	22003.00
550.42	22249.00
551.18	22349.00
551.94	22474.00
552.70	22734.00
553.46	22808.00
554.22	23004.00
554.98	23165.00
555.74	23280.00
556.50	23470.00
557.26	23638.00
558.02	23887.00
558.78	24084.00
559.54	24210.00
560.30	24403.00
561.06	24592.00
561.82	24802.00
562.58	25038.00
563.34	25214.00
564.10	25376.00
564.86	25531.00
565.61	25671.00
566.37	25908.00
567.13	26084.00
567.89	26279.00
568.65	26510.00
569.41	26728.00
570.17	26907.00
570.93	27098.00
571.69	27293.00
572.44	27481.00
573.20	27666.00
573.96	27813.00
574.72	28002.00
575.48	28144.00
576.24	28236.00
576.99	28388.00
577.75	28534.00
578.51	28692.00
579.27	29001.00
580.03	29190.00
580.78	29301.00
581.54	29483.00
582.30	29623.00
583.06	29791.00
583.82	30005.00
584.57	30236.00
585.33	30367.00
586.09	30496.00
586.84	30562.00
587.60	30734.00
588.36	30904.00
589.12	31099.00
589.87	31264.00
590.63	31453.00
591.39	31527.00
592.14	31740.00
592.90	31861.00
593.66	32056.00
594.41	32319.00
595.17	32534.00
595.93	32664.00
596.68	32763.00
597.44	32879.00
598.20	33097.00
598.95	33347.00
599.71	33583.00
600.46	33640.00
601.22	33780.00
601.98	33961.00
602.73	34223.00
603.49	34452.00
604.24	34664.00
605.00	34867.00
605.76	34991.00
606.51	35212.00
607.27	35367.00
608.02	35539.00
608.78	35658.00
609.53	35931.00
610.29	36121.00
611.04	36343.00
611.80	36428.00
612.55	36639.00
613.31	36848.00
614.06	37124.00
614.82	37218.00
615.57	37524.00
616.33	37591.00
617.08	37602.00
617.84	37752.00
618.59	37880.00
619.35	38040.00
620.10	38027.00
620.85	38042.00
621.61	38043.00
622.36	38193.00
623.12	38238.00
623.87	38298.00
624.62	38569.00
625.38	38665.00
626.13	38735.00
626.89	38957.00
627.64	39111.00
628.39	39233.00
629.15	39286.00
629.90	39321.00
630.65	39269.00
631.41	39262.00
632.16	39280.00
632.91	39146.00
633.67	39200.00
634.42	39259.00
635.17	39439.00
635.92	39787.00
636.68	40162.00
637.43	40674.00
638.18	41141.00
638.94	41573.00
639.69	41868.00
640.44	42272.00
641.19	42726.00
641.95	42987.00
642.70	43320.00
643.45	43510.00
644.20	43686.00
644.95	43891.00
645.71	43988.00
646.46	44063.00
647.21	44169.00
647.96	44345.00
648.71	44426.00
649.47	44507.00
650.22	44693.00
650.97	45008.00
651.72	45061.00
652.47	45217.00
653.22	45176.00
653.97	45356.00
654.73	45406.00
655.48	45614.00
656.23	45704.00
656.98	45895.00
657.73	46085.00
658.48	46114.00
659.23	46139.00
659.98	46277.00
660.73	46352.00
661.48	46542.00
662.23	46681.00
662.99	46586.00
663.74	46485.00
664.49	46747.00
665.24	47180.00
665.99	47434.00
666.74	47554.00
667.49	47598.00
668.24	47826.00
668.99	47903.00
669.74	48170.00
670.49	48363.00
671.24	48575.00
671.99	48770.00
672.74	48816.00
673.48	48763.00
674.23	48925.00
674.98	48931.00
675.73	48992.00
676.48	49128.00
677.23	49254.00
677.98	49365.00
678.73	49541.00
679.48	49512.00
680.23	49593.00
680.98	49645.00
681.73	49485.00
682.47	49487.00
683.22	49565.00
683.97	49597.00
684.72	49529.00
685.47	49624.00
686.22	49639.00
686.97	49844.00
687.71	49907.00
688.46	50048.00
689.21	49962.00
689.96	49985.00
690.71	50054.00
691.45	50149.00
692.20	50251.00
692.95	50355.00
693.70	50490.00
694.44	50671.00
695.19	50843.00
695.94	50911.00
696.69	50982.00
697.43	51013.00
698.18	51122.00
698.93	51167.00
699.68	51054.00
700.42	51059.00
701.17	51022.00
701.92	50959.00
702.66	51069.00
703.41	51108.00
704.16	51102.00
704.90	51136.00
705.65	51125.00
706.40	51146.00
707.14	51224.00
707.89	51361.00
708.64	51344.00
709.38	51357.00
710.13	51407.00
710.88	51356.00
711.62	51265.00
712.37	51370.00
713.11	51275.00
713.86	51391.00
714.61	51250.00
715.35	51318.00
716.10	51266.00
716.84	51114.00
717.59	51062.00
718.33	51121.00
719.08	51030.00
719.83	51049.00
720.57	51063.00
721.32	50976.00
722.06	50952.00
722.81	50836.00
723.55	50705.00
724.30	50745.00
725.04	50681.00
725.79	50629.00
726.53	50538.00
727.28	50449.00
728.02	50552.00
728.76	50576.00
729.51	50591.00
730.25	50657.00
731.00	50602.00
731.74	50580.00
732.49	50626.00
733.23	50424.00
733.97	50282.00
734.72	50257.00
735.46	50073.00
736.21	50043.00
736.95	50057.00
737.69	50025.00
738.44	50187.00
739.18	50337.00
739.92	50549.00
740.67	50734.00
741.41	50974.00
742.15	51019.00
742.90	51260.00
743.64	51409.00
744.38	51366.00
745.13	51310.00
745.87	51276.00
746.61	51276.00
747.36	51192.00
748.10	50995.00
748.84	50812.00
749.58	50688.00
750.33	50457.00
751.07	50450.00
751.81	50298.00
752.55	50273.00
753.30	50230.00
754.04	50178.00
754.78	50108.00
755.52	50158.00
756.27	50074.00
757.01	49926.00
757.75	49910.00
758.49	50040.00
759.23	49936.00
759.97	49868.00
760.72	49749.00
761.46	49669.00
762.20	49844.00
762.94	49771.00
763.68	49721.00
764.42	49549.00
765.16	49381.00
765.91	49356.00
766.65	49399.00
767.39	49297.00
768.13	49289.00
768.87	49175.00
769.61	49136.00
770.35	48955.00
771.09	48945.00
771.83	48788.00
772.57	48811.00
773.31	48925.00
774.05	49079.00
774.80	49162.00
775.54	49094.00
776.28	48942.00
777.02	48771.00
777.76	48611.00
778.50	48397.00
779.24	48145.00
779.98	48038.00
780.72	47819.00
781.46	47673.00
782.20	47654.00
782.93	47676.00
783.67	47508.00
784.41	47363.00
785.15	47260.00
785.89	47185.00
786.63	46892.00
787.37	46803.00
788.11	46667.00
788.85	46572.00
789.59	46620.00
790.33	46690.00
791.07	46835.00
791.81	46610.00
792.54	46411.00
793.28	46228.00
794.02	46020.00
794.76	45706.00
795.50	45400.00
796.24	45122.00
796.97	44686.00
797.71	44529.00
798.45	44424.00
799.19	44317.00
799.93	44270.00
800.67	44155.00
801.40	44222.00
802.14	44333.00
802.88	44538.00
803.62	44592.00
804.35	44593.00
805.09	44469.00
805.83	44297.00
806.57	44194.00
807.30	44168.00
808.04	44119.00
808.78	43956.00
809.52	43576.00
810.25	43361.00
810.99	43170.00
811.73	42955.00
812.46	43005.00
813.20	42956.00
813.94	42824.00
814.68	42810.00
815.41	42702.00
816.15	42691.00
816.88	42798.00
817.62	42578.00
818.36	42326.00
819.09	42144.00
819.83	42000.00
820.57	41934.00
821.30	41886.00
822.04	41757.00
822.77	41506.00
823.51	41324.00
824.25	41416.00
824.98	41324.00
825.72	41390.00
826.45	41380.00
827.19	41216.00
827.92	40993.00
828.66	40873.00
829.40	40805.00
830.13	40778.00
830.87	40698.00
831.60	40528.00
832.34	40483.00
833.07	40314.00
833.81	40302.00
834.54	40278.00
835.28	40445.00
836.01	40347.00
836.75	40297.00
837.48	40066.00
838.22	39989.00
838.95	39861.00
839.68	39832.00
840.42	39819.00
841.15	39666.00
841.89	39446.00
842.62	39204.00
843.36	38889.00
844.09	38784.00
844.82	38805.00
845.56	38556.00
846.29	38432.00
847.02	38263.00
847.76	38075.00
848.49	38106.00
849.23	38256.00
849.96	38351.00
850.69	38413.00
851.43	38294.00
852.16	37988.00
852.89	37820.00
853.63	37778.00
854.36	37743.00
855.09	37829.00
855.82	37802.00
856.56	37557.00
857.29	37372.00
858.02	37151.00
858.76	36978.00
859.49	36994.00
860.22	36924.00
860.95	36803.00
861.69	36695.00
862.42	36465.00
863.15	36413.00
863.88	36524.00
864.61	36519.00
865.35	36598.00
866.08	36496.00
866.81	36271.00
867.54	36039.00
868.27	35796.00
869.01	35699.00
869.74	35762.00
870.47	35788.00
871.20	35751.00
871.93	35681.00
872.66	35575.00
873.40	35385.00
874.13	35238.00
874.86	35035.00
875.59	34937.00
876.32	34875.00
877.05	34626.00
877.78	34528.00
878.51	34197.00
879.24	33867.00
879.97	33717.00
880.71	33594.00
881.44	33416.00
882.17	33335.00
882.90	33275.00
883.63	33228.00
884.36	33329.00
885.09	33547.00
885.82	33630.00
886.55	33704.00
887.28	33886.00
888.01	33890.00
888.74	33747.00
889.47	33539.00
890.20	33165.00
890.93	32825.00
891.66	32629.00
892.39	32598.00
893.12	32359.00
893.85	32306.00
894.57	32039.00
895.30	31897.00
896.03	31782.00
896.76	31524.00
897.49	31434.00
898.22	31390.00
898.95	31266.00
899.68	31222.00
900.41	31245.00
901.14	31246.00
901.86	31242.00
902.59	31222.00
903.32	31254.00
904.05	31178.00
904.78	30966.00
905.51	30706.00
906.24	30414.00
906.96	30209.00
907.69	30126.00
908.42	29891.00
909.15	29697.00
909.88	29604.00
910.60	29475.00
911.33	29442.00
912.06	29521.00
912.79	29528.00
913.52	29422.00
914.24	29346.00
914.97	29291.00
915.70	29115.00
916.42	29011.00
917.15	28848.00
917.88	28532.00
918.61	28306.00
919.33	28059.00
920.06	27763.00
920.79	27679.00
921.51	27540.00
922.24	27511.00
922.97	27299.00
923.69	27198.00
924.42	27097.00
925.15	26755.00
925.87	26452.00
926.60	26207.00
927.33	25909.00
928.05	25633.00
928.78	25450.00
929.51	25210.00
930.23	25067.00
930.96	24792.00
931.68	24724.00
932.41	24403.00
933.14	24138.00
933.86	23793.00
934.59	23425.00
935.31	22973.00
936.04	22362.00
936.76	21866.00
937.49	21376.00
938.21	20913.00
938.94	20355.00
939.66	19939.00
940.39	19530.00
941.11	19194.00
941.84	18959.00
942.56	18726.00
943.29	18657.00
944.01	18503.00
944.74	18426.00
945.46	18465.00
946.19	18552.00
946.91	18681.00
947.64	18643.00
948.36	18736.00
949.09	18690.00
949.81	18770.00
950.53	18923.00
951.26	18979.00
951.98	18946.00
952.71	18964.00
953.43	19029.00
954.15	19145.00
954.88	19182.00
955.60	19262.00
956.33	19274.00
957.05	19226.00
957.77	19280.00
958.50	19277.00
959.22	19291.00
959.94	19240.00
960.67	19178.00
961.39	19132.00
962.11	19131.00
962.84	19124.00
963.56	19062.00
964.28	18982.00
965.00	18882.00
965.73	18694.00
966.45	18631.00
967.17	18519.00
967.89	18399.00
968.62	18164.00
969.34	17997.00
970.06	17847.00
970.78	17751.00
971.51	17762.00
972.23	17660.00
972.95	17496.00
973.67	17365.00
974.40	17251.00
975.12	17160.00
975.84	17046.00
976.56	16897.00
977.28	16732.00
978.00	16638.00
978.73	16619.00
979.45	16587.00
980.17	16448.00
980.89	16359.00
981.61	16348.00
982.33	16236.00
983.05	16194.00
983.77	16147.00
984.50	16033.00
985.22	16051.00
985.94	16050.00
986.66	16008.00
987.38	15916.00
988.10	15935.00
988.82	15929.00
989.54	15848.00
990.26	15773.00
990.98	15626.00
991.70	15477.00
992.42	15361.00
993.14	15180.00
993.86	15040.00
994.58	14885.00
995.30	14725.00
996.02	14695.00
996.74	14685.00
997.46	14548.00
998.18	14491.00
998.90	14348.00
999.62	14271.00
1000.34	14112.00
1001.06	14052.00
1001.78	13926.00
1002.50	13760.00
1003.22	13635.00
1003.94	13435.00
1004.66	13342.00
1005.38	13171.00
1006.09	12980.00
1006.81	12823.00
1007.53	12605.00
1008.25	12533.00
1008.97	12407.00
1009.69	12306.00
1010.41	12210.00
1011.13	12083.00
1011.84	11986.00
1012.56	11852.00
1013.28	11781.00
1014.00	11645.00
1014.72	11559.00
1015.44	11459.00
1016.15	11263.00
1016.87	11089.00
1017.59	10956.00
1018.31	10875.00
1019.03	10866.00
1019.74	10748.00
1020.46	10707.00
1021.18	10569.00
1021.90	10479.00
1022.61	10366.00
1023.33	10280.00
1024.05	10158.00
1024.76	10020.00
1025.48	9810.00
1026.20	9667.00
1026.92	9533.00
1027.63	9432.00
1028.35	9299.00
1029.07	9195.00
1029.78	9057.00
1030.50	8955.00
1031.22	8860.00
1031.93	8713.00
1032.65	8627.00
1033.37	8552.00
1034.08	8434.00
1034.80	8365.00
1035.52	8264.00
1036.23	8209.00
1036.95	8108.00
1037.66	8075.00
1038.38	7977.00
1039.10	7859.00
1039.81	7740.00
1040.53	7641.00
1041.24	7495.00
1041.96	7417.00
1042.67	7341.00
1043.39	7252.00
1044.10	7174.00
1044.82	7082.00
1045.54	7016.00
1046.25	6924.00
1046.97	6840.00
1047.68	6748.00
1048.40	6642.00
1049.11	6525.00
1049.83	6425.00
1050.54	6310.00
1051.26	6241.00
1051.97	6206.00
1052.68	6118.00
1053.40	6034.00
1054.11	5923.00
1054.83	5848.00
1055.54	5754.00
1056.26	5654.00
1056.97	5584.00
1057.69	5519.00
1058.40	5482.00
1059.11	5402.00
1059.83	5317.00
1060.54	5212.00
1061.25	5127.00
1061.97	5026.00
1062.68	4931.00
1063.40	4884.00
1064.11	4794.00
1064.82	4698.00
1065.54	4607.00
1066.25	2575.00
1066.96	2580.00
1067.68	2551.00
1068.39	2573.00
1069.10	2619.00
1069.82	2611.00
1070.53	2627.00
1071.24	2612.00
1071.95	2622.00
1072.67	2625.00
1073.38	4502.00
1074.09	4419.00
1074.80	4354.00
1075.52	4267.00
1076.23	4191.00
1076.94	4119.00
1077.65	2367.00
1078.37	2363.00
1079.08	2360.00
1079.79	2361.00
