300.47	2598.00
301.26	2602.00
302.04	2600.00
302.82	2600.00
303.60	2605.00
304.38	2602.00
305.17	2604.00
305.95	2601.00
306.73	2604.00
307.51	2598.00
308.29	2598.00
309.08	2603.00
309.86	2601.00
310.64	2602.00
311.42	2602.00
312.20	2606.00
312.98	2605.00
313.76	2599.00
314.55	2603.00
315.33	2602.00
316.11	2600.00
316.89	2605.00
317.67	2604.00
318.45	2603.00
319.23	2601.00
320.01	2605.00
320.79	2604.00
321.57	2602.00
322.35	2609.00
323.13	2603.00
323.91	2607.00
324.69	2607.00
325.47	2606.00
326.25	2606.00
327.03	2608.00
327.81	2603.00
328.59	2605.00
329.37	2604.00
330.15	2607.00
330.93	2608.00
331.71	2609.00
332.49	2609.00
333.27	2614.00
334.05	2612.00
334.83	2610.00
335.61	2611.00
336.39	2612.00
337.17	2609.00
337.95	2613.00
338.73	2614.00
339.51	2613.00
340.29	2618.00
341.07	2615.00
341.84	2617.00
342.62	2618.00
343.40	2621.00
344.18	2622.00
344.96	2622.00
345.74	2625.00
346.52	2626.00
347.29	2628.00
348.07	2629.00
348.85	2628.00
349.63	2640.00
350.41	2635.00
351.18	2640.00
351.96	2638.00
352.74	2646.00
353.52	2646.00
354.30	2649.00
355.07	2658.00
355.85	2653.00
356.63	2657.00
357.41	2665.00
358.18	2666.00
358.96	2675.00
359.74	2674.00
360.52	2680.00
361.29	2678.00
362.07	2693.00
362.85	2691.00
363.62	2694.00
364.40	2702.00
365.18	2710.00
365.95	2715.00
366.73	2718.00
367.51	2724.00
368.28	2741.00
369.06	2738.00
369.84	2747.00
370.61	2754.00
371.39	2756.00
372.17	2764.00
372.94	2773.00
373.72	2783.00
374.49	2788.00
375.27	2798.00
376.05	2811.00
376.82	2817.00
377.60	2828.00
378.37	2843.00
379.15	2852.00
379.92	2860.00
380.70	2870.00
381.47	2882.00
382.25	2896.00
383.02	2903.00
383.80	2914.00
384.58	2936.00
385.35	2946.00
386.13	2963.00
386.90	2978.00
387.67	2994.00
388.45	3008.00
389.22	3028.00
390.00	3039.00
390.77	3049.00
391.55	3062.00
392.32	3084.00
393.10	3098.00
393.87	3121.00
394.65	3134.00
395.42	3153.00
396.19	3161.00
396.97	3183.00
397.74	3196.00
398.52	3219.00
399.29	3233.00
400.06	3254.00
400.84	3269.00
401.61	3292.00
402.38	3315.00
403.16	3342.00
403.93	3358.00
404.70	3383.00
405.48	3394.00
406.25	3418.00
407.02	3431.00
407.80	3461.00
408.57	3475.00
409.34	3496.00
410.12	3530.00
410.89	3537.00
411.66	3566.00
412.43	3594.00
413.21	3623.00
413.98	3638.00
414.75	3655.00
415.52	3686.00
416.30	3725.00
417.07	3736.00
417.84	3750.00
418.61	3786.00
419.39	3800.00
420.16	3837.00
420.93	3859.00
421.70	3896.00
422.47	3916.00
423.24	3936.00
424.02	3976.00
424.79	3997.00
425.56	4022.00
426.33	4090.00
427.10	4086.00
427.87	4129.00
428.64	4163.00
429.42	4183.00
430.19	4211.00
430.96	4258.00
431.73	4309.00
432.50	4338.00
433.27	4364.00
434.04	4405.00
434.81	4449.00
435.58	4501.00
436.35	4556.00
437.12	4583.00
437.89	4610.00
438.67	4663.00
439.44	4684.00
440.21	4748.00
440.98	4791.00
441.75	4860.00
442.52	4905.00
443.29	4954.00
444.06	4972.00
444.83	5042.00
445.60	5120.00
446.37	5143.00
447.13	5199.00
447.90	5248.00
448.67	5296.00
449.44	5369.00
450.21	5456.00
450.98	5475.00
451.75	5527.00
452.52	5592.00
453.29	5676.00
454.06	5739.00
454.83	5790.00
455.60	5853.00
456.37	5917.00
457.13	5990.00
457.90	6067.00
458.67	6163.00
459.44	6219.00
460.21	6276.00
460.98	6379.00
461.75	6436.00
462.51	6527.00
463.28	6590.00
464.05	6679.00
464.82	6746.00
465.59	6803.00
466.35	6905.00
467.12	6984.00
467.89	7084.00
468.66	7142.00
469.43	7250.00
470.19	7340.00
470.96	7431.00
471.73	7487.00
472.50	7578.00
473.26	7685.00
474.03	7800.00
474.80	7879.00
475.56	7990.00
476.33	8058.00
477.10	8150.00
477.87	8260.00
478.63	8350.00
479.40	8455.00
480.17	8505.00
480.93	8663.00
481.70	8733.00
482.47	8818.00
483.23	8953.00
484.00	9075.00
484.76	9194.00
485.53	9333.00
486.30	9424.00
487.06	9551.00
487.83	9662.00
488.60	9768.00
489.36	9868.00
490.13	9971.00
490.89	10094.00
491.66	10181.00
492.42	10267.00
493.19	10413.00
493.96	10547.00
494.72	10665.00
495.49	10819.00
496.25	10905.00
497.02	11035.00
497.78	11164.00
498.55	11271.00
499.31	11379.00
500.08	11544.00
500.84	11656.00
501.61	11741.00
502.37	11899.00
503.14	12046.00
503.90	12174.00
504.67	12315.00
505.43	12473.00
506.20	12594.00
506.96	12705.00
507.72	12879.00
508.49	13045.00
509.25	13178.00
510.02	13316.00
510.78	13478.00
511.54	13561.00
512.31	13753.00
513.07	13852.00
513.84	14039.00
514.60	14168.00
515.36	14307.00
516.13	14430.00
516.89	14541.00
517.65	14643.00
518.42	14813.00
519.18	14959.00
519.94	15108.00
520.71	15286.00
521.47	15395.00
522.23	15533.00
523.00	15672.00
523.76	15818.00
524.52	16015.00
525.28	16185.00
526.05	16293.00
526.81	16495.00
527.57	16610.00
528.33	16845.00
529.10	16967.00
529.86	17113.00
530.62	17310.00
531.38	17458.00
532.15	17645.00
532.91	17779.00
533.67	17887.00
534.43	18015.00
535.19	18177.00
535.96	18412.00
536.72	18547.00
537.48	18661.00
538.24	18797.00
539.00	18956.00
539.76	19156.00
540.53	19326.00
541.29	19510.00
542.05	19647.00
542.81	19915.00
543.57	20051.00
544.33	20246.00
545.09	20423.00
545.85	20534.00
546.61	20704.00
547.38	20889.00
548.14	21046.00
548.90	21151.00
549.66	21350.00
550.42	21561.00
551.18	21781.00
551.94	21967.00
552.70	22128.00
553.46	22233.00
554.22	22442.00
554.98	22556.00
555.74	22743.00
556.50	22837.00
557.26	23035.00
558.02	23186.00
558.78	23378.00
559.54	23525.00
560.30	23724.00
561.06	23882.00
561.82	24080.00
562.58	24370.00
563.34	24520.00
564.10	24638.00
564.86	24815.00
565.61	25012.00
566.37	25102.00
567.13	25324.00
567.89	25495.00
568.65	25685.00
569.41	25864.00
570.17	26045.00
570.93	26249.00
571.69	26443.00
572.44	26595.00
573.20	26767.00
573.96	26936.00
574.72	27043.00
575.48	27229.00
576.24	27381.00
576.99	27493.00
577.75	27712.00
578.51	27901.00
579.27	28040.00
580.03	28298.00
580.78	28425.00
581.54	28683.00
582.30	28785.00
583.06	28939.00
583.82	29127.00
584.57	29288.00
585.33	29446.00
586.09	29599.00
586.84	29671.00
587.60	29857.00
588.36	30015.00
589.12	30205.00
589.87	30387.00
590.63	30625.00
591.39	30747.00
592.14	30923.00
592.90	31003.00
593.66	31184.00
594.41	31392.00
595.17	31575.00
595.93	31716.00
596.68	31844.00
597.44	32039.00
598.20	32072.00
598.95	32351.00
599.71	32532.00
600.46	32651.00
601.22	32744.00
601.98	32928.00
602.73	33178.00
603.49	33406.00
604.24	33630.00
605.00	33760.00
605.76	34045.00
606.51	34238.00
607.27	34361.00
608.02	34595.00
608.78	34722.00
609.53	34928.00
610.29	35079.00
611.04	35223.00
611.80	35439.00
612.55	35653.00
613.31	35890.00
614.06	36106.00
614.82	36229.00
615.57	36433.00
616.33	36567.00
617.08	36779.00
617.84	36727.00
618.59	36826.00
619.35	36813.00
620.10	36862.00
620.85	36935.00
621.61	36976.00
622.36	37073.00
623.12	37114.00
623.87	37189.00
624.62	37478.00
625.38	37540.00
626.13	37635.00
626.89	37764.00
627.64	37923.00
628.39	37973.00
629.15	38067.00
629.90	38241.00
630.65	38377.00
631.41	38328.00
632.16	38395.00
632.91	38377.00
633.67	38397.00
634.42	38477.00
635.17	38605.00
635.92	38805.00
636.68	39226.00
637.43	39727.00
638.18	40146.00
638.94	40528.00
639.69	40886.00
640.44	41306.00
641.19	41609.00
641.95	41905.00
642.70	42133.00
643.45	42317.00
644.20	42554.00
644.95	42706.00
645.71	42899.00
646.46	43077.00
647.21	43196.00
647.96	43285.00
648.71	43457.00
649.47	43672.00
650.22	43874.00
650.97	43957.00
651.72	44136.00
652.47	44308.00
653.22	44255.00
653.97	44429.00
654.73	44475.00
655.48	44577.00
656.23	44726.00
656.98	44829.00
657.73	44976.00
658.48	44984.00
659.23	45101.00
659.98	45078.00
660.73	45119.00
661.48	45324.00
662.23	45467.00
662.99	45514.00
663.74	45437.00
664.49	45742.00
665.24	46145.00
665.99	46657.00
666.74	46861.00
667.49	47015.00
668.24	47045.00
668.99	47045.00
669.74	47158.00
670.49	47405.00
671.24	47409.00
671.99	47713.00
672.74	47716.00
673.48	47762.00
674.23	47934.00
674.98	47995.00
675.73	48121.00
676.48	48298.00
677.23	48359.00
677.98	48329.00
678.73	48414.00
679.48	48511.00
680.23	48617.00
680.98	48715.00
681.73	48694.00
682.47	48862.00
683.22	48815.00
683.97	48896.00
684.72	49086.00
685.47	49158.00
686.22	49152.00
686.97	49322.00
687.71	49389.00
688.46	49387.00
689.21	49404.00
689.96	49481.00
690.71	49511.00
691.45	49504.00
692.20	49491.00
692.95	49575.00
693.70	49701.00
694.44	49671.00
695.19	49860.00
695.94	49993.00
696.69	50022.00
697.43	50110.00
698.18	50215.00
698.93	50262.00
699.68	50234.00
700.42	50310.00
701.17	50237.00
701.92	50359.00
702.66	50356.00
703.41	50414.00
704.16	50401.00
704.90	50398.00
705.65	50506.00
706.40	50549.00
707.14	50696.00
707.89	50613.00
708.64	50639.00
709.38	50763.00
710.13	50714.00
710.88	50740.00
711.62	50648.00
712.37	50700.00
713.11	50631.00
713.86	50693.00
714.61	50720.00
715.35	50718.00
716.10	50742.00
716.84	50609.00
717.59	50592.00
718.33	50480.00
719.08	50531.00
719.83	50539.00
720.57	50605.00
721.32	50410.00
722.06	50478.00
722.81	50461.00
723.55	50315.00
724.30	50272.00
725.04	50170.00
725.79	50116.00
726.53	50093.00
727.28	50060.00
728.02	50086.00
728.76	50235.00
729.51	50214.00
730.25	50315.00
731.00	50488.00
731.74	50544.00
732.49	50563.00
733.23	50523.00
733.97	50360.00
734.72	50394.00
735.46	50242.00
736.21	50225.00
736.95	50177.00
737.69	50209.00
738.44	50226.00
739.18	50416.00
739.92	50573.00
740.67	50622.00
741.41	50699.00
742.15	50792.00
742.90	50967.00
743.64	51135.00
744.38	51084.00
745.13	51132.00
745.87	50903.00
746.61	50934.00
747.36	50999.00
748.10	50915.00
748.84	50790.00
749.58	50642.00
750.33	50428.00
751.07	50503.00
751.81	50280.00
752.55	50184.00
753.30	50051.00
754.04	49837.00
754.78	49902.00
755.52	49734.00
756.27	49742.00
757.01	49670.00
757.75	49698.00
758.49	49856.00
759.23	49848.00
759.97	49786.00
760.72	49769.00
761.46	49824.00
762.20	49782.00
762.94	49737.00
763.68	49853.00
764.42	49760.00
765.16	49826.00
765.91	49935.00
766.65	49888.00
767.39	49838.00
768.13	49682.00
768.87	49692.00
769.61	49539.00
770.35	49558.00
771.09	49487.00
771.83	49388.00
772.57	49284.00
773.31	49208.00
774.05	49400.00
774.80	49445.00
775.54	49449.00
776.28	49378.00
777.02	49186.00
777.76	49138.00
778.50	49100.00
779.24	48952.00
779.98	48763.00
780.72	48450.00
781.46	48375.00
782.20	48250.00
782.93	48217.00
783.67	48122.00
784.41	48095.00
785.15	48021.00
785.89	47841.00
786.63	47787.00
787.37	47681.00
788.11	47479.00
788.85	47519.00
789.59	47461.00
790.33	47378.00
791.07	47287.00
791.81	47084.00
792.54	46996.00
793.28	46922.00
794.02	46670.00
794.76	46450.00
795.50	46121.00
796.24	45884.00
796.97	45664.00
797.71	45608.00
798.45	45593.00
799.19	45521.00
799.93	45315.00
800.67	45152.00
801.40	45118.00
802.14	45177.00
802.88	45316.00
803.62	45526.00
804.35	45406.00
805.09	45335.00
805.83	45128.00
806.57	45152.00
807.30	45013.00
808.04	44986.00
808.78	44689.00
809.52	44307.00
810.25	44250.00
810.99	44066.00
811.73	44122.00
812.46	44165.00
813.20	44067.00
813.94	44151.00
814.68	43981.00
815.41	44110.00
816.15	44142.00
816.88	44139.00
817.62	44025.00
818.36	43675.00
819.09	43312.00
819.83	43260.00
820.57	43306.00
821.30	43129.00
822.04	43193.00
822.77	42953.00
823.51	42887.00
824.25	42845.00
824.98	42907.00
825.72	42993.00
826.45	42820.00
827.19	42741.00
827.92	42465.00
828.66	42433.00
829.40	42364.00
830.13	42327.00
830.87	42208.00
831.60	42092.00
832.34	41969.00
833.07	41800.00
833.81	41811.00
834.54	41844.00
835.28	41883.00
836.01	41798.00
836.75	41580.00
837.48	41462.00
838.22	41338.00
838.95	41262.00
839.68	41150.00
840.42	41182.00
841.15	41004.00
841.89	40821.00
842.62	40631.00
843.36	40492.00
844.09	40269.00
844.82	40294.00
845.56	40330.00
846.29	40246.00
847.02	40191.00
847.76	40040.00
848.49	40123.00
849.23	40098.00
849.96	40351.00
850.69	40426.00
851.43	40419.00
852.16	40121.00
852.89	39940.00
853.63	39887.00
854.36	39807.00
855.09	39824.00
855.82	39764.00
856.56	39547.00
857.29	39407.00
858.02	39220.00
858.76	38955.00
859.49	38776.00
860.22	38602.00
860.95	38468.00
861.69	38253.00
862.42	38157.00
863.15	38057.00
863.88	38205.00
864.61	38305.00
865.35	38407.00
866.08	38354.00
866.81	38094.00
867.54	37845.00
868.27	37765.00
869.01	37704.00
869.74	37655.00
870.47	37732.00
871.20	37706.00
871.93	37572.00
872.66	37545.00
873.40	37382.00
874.13	37289.00
874.86	37163.00
875.59	36945.00
876.32	36930.00
877.05	36822.00
877.78	36690.00
878.51	36472.00
879.24	36215.00
879.97	35976.00
880.71	35845.00
881.44	35628.00
882.17	35583.00
882.90	35403.00
883.63	35492.00
884.36	35645.00
885.09	35746.00
885.82	36003.00
886.55	36039.00
887.28	36126.00
888.01	35978.00
888.74	35928.00
889.47	35729.00
890.20	35458.00
890.93	34995.00
891.66	34839.00
892.39	34693.00
893.12	34543.00
893.85	34420.00
894.57	34182.00
895.30	33987.00
896.03	33894.00
896.76	33724.00
897.49	33738.00
898.22	33728.00
898.95	33658.00
899.68	33607.00
900.41	33555.00
901.14	33461.00
901.86	33501.00
902.59	33500.00
903.32	33479.00
904.05	33364.00
904.78	33232.00
905.51	32925.00
906.24	32677.00
906.96	32541.00
907.69	32382.00
908.42	32174.00
909.15	32092.00
909.88	31926.00
910.60	31871.00
911.33	31821.00
912.06	31905.00
912.79	31885.00
913.52	31795.00
914.24	31688.00
914.97	31630.00
915.70	31434.00
916.42	31155.00
917.15	31045.00
917.88	30839.00
918.61	30654.00
919.33	30456.00
920.06	30160.00
920.79	30096.00
921.51	29962.00
922.24	29867.00
922.97	29710.00
923.69	29594.00
924.42	29325.00
925.15	29081.00
925.87	28822.00
926.60	28561.00
927.33	28323.00
928.05	28087.00
928.78	27931.00
929.51	27657.00
930.23	27511.00
930.96	27218.00
931.68	27038.00
932.41	26807.00
933.14	26490.00
933.86	26246.00
934.59	25922.00
935.31	25424.00
936.04	24946.00
936.76	24366.00
937.49	23805.00
938.21	23361.00
938.94	22861.00
939.66	22444.00
940.39	21979.00
941.11	21570.00
941.84	21282.00
942.56	21183.00
943.29	20963.00
944.01	20930.00
944.74	20830.00
945.46	20811.00
946.19	20809.00
946.91	20963.00
947.64	20980.00
948.36	21086.00
949.09	21171.00
949.81	21289.00
950.53	21395.00
951.26	21553.00
951.98	21602.00
952.71	21620.00
953.43	21747.00
954.15	21847.00
954.88	21953.00
955.60	21975.00
956.33	22016.00
957.05	22009.00
957.77	22061.00
958.50	22028.00
959.22	21987.00
959.94	22039.00
960.67	21947.00
961.39	21830.00
962.11	21841.00
962.84	21974.00
963.56	21859.00
964.28	21655.00
965.00	21513.00
965.73	21325.00
966.45	21259.00
967.17	21136.00
967.89	20916.00
968.62	20700.00
969.34	20487.00
970.06	20371.00
970.78	20338.00
971.51	20240.00
972.23	20111.00
972.95	20014.00
973.67	19872.00
974.40	19869.00
975.12	19708.00
975.84	19580.00
976.56	19405.00
977.28	19263.00
978.00	19220.00
978.73	19090.00
979.45	19036.00
980.17	19012.00
980.89	18939.00
981.61	18904.00
982.33	18833.00
983.05	18842.00
983.77	18733.00
984.50	18706.00
985.22	18664.00
985.94	18588.00
986.66	18575.00
987.38	18482.00
988.10	18526.00
988.82	18455.00
989.54	18363.00
990.26	18251.00
990.98	18175.00
991.70	18100.00
992.42	17943.00
993.14	17793.00
993.86	17636.00
994.58	17441.00
995.30	17330.00
996.02	17241.00
996.74	17238.00
997.46	17196.00
998.18	17053.00
998.90	16962.00
999.62	16874.00
1000.34	16728.00
1001.06	16670.00
1001.78	16550.00
1002.50	16343.00
1003.22	16145.00
1003.94	15934.00
1004.66	15807.00
1005.38	15616.00
1006.09	15471.00
1006.81	15333.00
1007.53	15127.00
1008.25	14971.00
1008.97	14856.00
1009.69	14797.00
1010.41	14716.00
1011.13	14614.00
1011.84	14464.00
1012.56	14373.00
1013.28	14227.00
1014.00	14118.00
1014.72	13985.00
1015.44	13799.00
1016.15	13569.00
1016.87	13393.00
1017.59	13183.00
1018.31	13063.00
1019.03	13018.00
1019.74	12937.00
1020.46	12835.00
1021.18	12803.00
1021.90	12672.00
1022.61	12575.00
1023.33	12486.00
1024.05	12363.00
1024.76	12194.00
1025.48	11977.00
1026.20	11786.00
1026.92	11628.00
1027.63	11449.00
1028.35	11332.00
1029.07	11253.00
1029.78	11094.00
1030.50	10994.00
1031.22	10855.00
1031.93	10775.00
1032.65	10612.00
1033.37	10512.00
1034.08	10444.00
1034.80	10338.00
1035.52	10212.00
1036.23	10129.00
1036.95	10030.00
1037.66	9953.00
1038.38	9794.00
1039.10	9681.00
1039.81	9509.00
1040.53	9348.00
1041.24	9243.00
1041.96	9132.00
1042.67	9038.00
1043.39	8954.00
1044.10	8839.00
1044.82	8748.00
1045.54	8677.00
1046.25	8574.00
1046.97	8446.00
1047.68	8353.00
1048.40	8234.00
1049.11	8109.00
1049.83	7990.00
1050.54	7911.00
1051.26	7806.00
1051.97	7709.00
1052.68	7623.00
1053.40	7503.00
1054.11	7411.00
1054.83	7287.00
1055.54	7151.00
1056.26	7046.00
1056.97	6971.00
1057.69	6882.00
1058.40	6796.00
1059.11	6685.00
1059.83	6595.00
1060.54	6449.00
1061.25	6347.00
1061.97	6214.00
1062.68	6124.00
1063.40	6035.00
1064.11	5931.00
1064.82	5810.00
1065.54	5687.00
1066.25	2556.00
1066.96	2557.00
1067.68	2556.00
1068.39	2559.00
1069.10	2602.00
1069.82	2606.00
1070.53	2602.00
1071.24	2606.00
1071.95	2602.00
1072.67	2599.00
1073.38	5575.00
1074.09	5458.00
1074.80	5353.00
1075.52	5248.00
1076.23	5143.00
1076.94	5043.00
1077.65	2604.00
1078.37	2598.00
1079.08	2606.00
1079.79	2618.00
