300.47	2554.00
301.26	2563.00
302.04	2570.00
302.82	2572.00
303.60	2562.00
304.38	2554.00
305.17	2555.00
305.95	2570.00
306.73	2564.00
307.51	2559.00
308.29	2549.00
309.08	2553.00
309.86	2567.00
310.64	2563.00
311.42	2557.00
312.20	2550.00
312.98	2557.00
313.76	2564.00
314.55	2561.00
315.33	2554.00
316.11	2549.00
316.89	2562.00
317.67	2564.00
318.45	2560.00
319.23	2548.00
320.01	2552.00
320.79	2560.00
321.57	2561.00
322.35	2560.00
323.13	2553.00
323.91	2550.00
324.69	2555.00
325.47	2563.00
326.25	2559.00
327.03	2553.00
327.81	2547.00
328.59	2555.00
329.37	2565.00
330.15	2562.00
330.93	2559.00
331.71	2551.00
332.49	2555.00
333.27	2556.00
334.05	2564.00
334.83	2560.00
335.61	2556.00
336.39	2551.00
337.17	2562.00
337.95	2565.00
338.73	2564.00
339.51	2559.00
340.29	2551.00
341.07	2563.00
341.84	2569.00
342.62	2566.00
343.40	2568.00
344.18	2558.00
344.96	2566.00
345.74	2574.00
346.52	2579.00
347.29	2579.00
348.07	2566.00
348.85	2567.00
349.63	2585.00
350.41	2588.00
351.18	2585.00
351.96	2577.00
352.74	2583.00
353.52	2593.00
354.30	2598.00
355.07	2600.00
355.85	2613.00
356.63	2611.00
357.41	2610.00
358.18	2603.00
358.96	2609.00
359.74	2606.00
360.52	2619.00
361.29	2627.00
362.07	2632.00
362.85	2633.00
363.62	2628.00
364.40	2632.00
365.18	2642.00
365.95	2648.00
366.73	2651.00
367.51	2672.00
368.28	2677.00
369.06	2682.00
369.84	2691.00
370.61	2686.00
371.39	2689.00
372.17	2702.00
372.94	2717.00
373.72	2724.00
374.49	2726.00
375.27	2726.00
376.05	2737.00
376.82	2756.00
377.60	2769.00
378.37	2784.00
379.15	2780.00
379.92	2782.00
380.70	2803.00
381.47	2816.00
382.25	2827.00
383.02	2841.00
383.80	2840.00
384.58	2859.00
385.35	2870.00
386.13	2886.00
386.90	2901.00
387.67	2916.00
388.45	2938.00
389.22	2945.00
390.00	2959.00
390.77	2969.00
391.55	2985.00
392.32	3002.00
393.10	3014.00
393.87	3036.00
394.65	3062.00
395.42	3069.00
396.19	3083.00
396.97	3086.00
397.74	3106.00
398.52	3134.00
399.29	3144.00
400.06	3174.00
400.84	3205.00
401.61	3212.00
402.38	3234.00
403.16	3247.00
403.93	3264.00
404.70	3289.00
405.48	3305.00
406.25	3323.00
407.02	3341.00
407.80	3356.00
408.57	3379.00
409.34	3399.00
410.12	3420.00
410.89	3450.00
411.66	3466.00
412.43	3495.00
413.21	3509.00
413.98	3513.00
414.75	3549.00
415.52	3556.00
416.30	3590.00
417.07	3614.00
417.84	3632.00
418.61	3665.00
419.39	3699.00
420.16	3719.00
420.93	3742.00
421.70	3757.00
422.47	3779.00
423.24	3810.00
424.02	3849.00
424.79	3887.00
425.56	3902.00
426.33	3923.00
427.10	3952.00
427.87	3991.00
428.64	4013.00
429.42	4042.00
430.19	4068.00
430.96	4121.00
431.73	4157.00
432.50	4199.00
433.27	4227.00
434.04	4255.00
434.81	4292.00
435.58	4333.00
436.35	4394.00
437.12	4417.00
437.89	4445.00
438.67	4500.00
439.44	4514.00
440.21	4585.00
440.98	4624.00
441.75	4665.00
442.52	4707.00
443.29	4746.00
444.06	4798.00
444.83	4868.00
445.60	4916.00
446.37	4951.00
447.13	4990.00
447.90	5035.00
448.67	5083.00
449.44	5135.00
450.21	5188.00
450.98	5238.00
451.75	5301.00
452.52	5370.00
453.29	5430.00
454.06	5508.00
454.83	5563.00
455.60	5595.00
456.37	5663.00
457.13	5747.00
457.90	5819.00
458.67	5873.00
459.44	5943.00
460.21	6005.00
460.98	6039.00
461.75	6094.00
462.51	6187.00
463.28	6276.00
464.05	6377.00
464.82	6412.00
465.59	6477.00
466.35	6585.00
467.12	6653.00
467.89	6719.00
468.66	6800.00
469.43	6896.00
470.19	6962.00
470.96	7031.00
471.73	7134.00
472.50	7224.00
473.26	7277.00
474.03	7392.00
474.80	7483.00
475.56	7596.00
476.33	7658.00
477.10	7713.00
477.87	7807.00
478.63	7914.00
479.40	7988.00
480.17	8090.00
480.93	8174.00
481.70	8271.00
482.47	8370.00
483.23	8475.00
484.00	8574.00
484.76	8697.00
485.53	8796.00
486.30	8894.00
487.06	8968.00
487.83	9060.00
488.60	9202.00
489.36	9324.00
490.13	9387.00
490.89	9527.00
491.66	9593.00
492.42	9721.00
493.19	9838.00
493.96	9963.00
494.72	10040.00
495.49	10159.00
496.25	10302.00
497.02	10398.00
497.78	10486.00
498.55	10588.00
499.31	10687.00
500.08	10825.00
500.84	10931.00
501.61	11027.00
502.37	11176.00
503.14	11268.00
503.90	11410.00
504.67	11540.00
505.43	11659.00
506.20	11802.00
506.96	11945.00
507.72	12084.00
508.49	12181.00
509.25	12315.00
510.02	12446.00
510.78	12587.00
511.54	12759.00
512.31	12843.00
513.07	12972.00
513.84	13081.00
514.60	13224.00
515.36	13370.00
516.13	13489.00
516.89	13563.00
517.65	13691.00
518.42	13791.00
519.18	13946.00
519.94	14051.00
520.71	14177.00
521.47	14270.00
522.23	14470.00
523.00	14616.00
523.76	14824.00
524.52	14907.00
525.28	15073.00
526.05	15199.00
526.81	15334.00
527.57	15510.00
528.33	15635.00
529.10	15715.00
529.86	15928.00
530.62	16025.00
531.38	16222.00
532.15	16312.00
532.91	16441.00
533.67	16602.00
534.43	16689.00
535.19	16854.00
535.96	17025.00
536.72	17122.00
537.48	17259.00
538.24	17408.00
539.00	17528.00
539.76	17723.00
540.53	17910.00
541.29	18011.00
542.05	18223.00
542.81	18353.00
543.57	18536.00
544.33	18635.00
545.09	18865.00
545.85	18978.00
546.61	19087.00
547.38	19238.00
548.14	19349.00
548.90	19576.00
549.66	19710.00
550.42	19847.00
551.18	20046.00
551.94	20150.00
552.70	20263.00
553.46	20471.00
554.22	20586.00
554.98	20675.00
555.74	20841.00
556.50	20997.00
557.26	21160.00
558.02	21337.00
558.78	21490.00
559.54	21601.00
560.30	21800.00
561.06	21884.00
561.82	22112.00
562.58	22305.00
563.34	22466.00
564.10	22583.00
564.86	22665.00
565.61	22858.00
566.37	23090.00
567.13	23170.00
567.89	23425.00
568.65	23576.00
569.41	23747.00
570.17	23859.00
570.93	24092.00
571.69	24269.00
572.44	24442.00
573.20	24542.00
573.96	24683.00
574.72	24801.00
575.48	25024.00
576.24	25071.00
576.99	25206.00
577.75	25369.00
578.51	25483.00
579.27	25657.00
580.03	25804.00
580.78	26058.00
581.54	26241.00
582.30	26339.00
583.06	26380.00
583.82	26650.00
584.57	26788.00
585.33	26885.00
586.09	27038.00
586.84	27139.00
587.60	27269.00
588.36	27377.00
589.12	27518.00
589.87	27744.00
590.63	27831.00
591.39	27951.00
592.14	28100.00
592.90	28245.00
593.66	28452.00
594.41	28702.00
595.17	28875.00
595.93	28907.00
596.68	29028.00
597.44	29147.00
598.20	29311.00
598.95	29521.00
599.71	29605.00
600.46	29791.00
601.22	29864.00
601.98	30052.00
602.73	30257.00
603.49	30435.00
604.24	30620.00
605.00	30809.00
605.76	30973.00
606.51	31137.00
607.27	31307.00
608.02	31363.00
608.78	31519.00
609.53	31707.00
610.29	31845.00
611.04	31980.00
611.80	32129.00
612.55	32203.00
613.31	32479.00
614.06	32711.00
614.82	32822.00
615.57	33002.00
616.33	33099.00
617.08	33179.00
617.84	33227.00
618.59	33308.00
619.35	33255.00
620.10	33343.00
620.85	33363.00
621.61	33365.00
622.36	33369.00
623.12	33516.00
623.87	33559.00
624.62	33689.00
625.38	33816.00
626.13	33919.00
626.89	34076.00
627.64	34206.00
628.39	34139.00
629.15	34238.00
629.90	34221.00
630.65	34217.00
631.41	34122.00
632.16	34078.00
632.91	34019.00
633.67	33952.00
634.42	34011.00
635.17	34301.00
635.92	34492.00
636.68	34922.00
637.43	35391.00
638.18	35764.00
638.94	36119.00
639.69	36448.00
640.44	36910.00
641.19	37209.00
641.95	37487.00
642.70	37737.00
643.45	37936.00
644.20	38116.00
644.95	38294.00
645.71	38464.00
646.46	38544.00
647.21	38534.00
647.96	38576.00
648.71	38711.00
649.47	38924.00
650.22	39025.00
650.97	39043.00
651.72	39068.00
652.47	39247.00
653.22	39256.00
653.97	39369.00
654.73	39475.00
655.48	39485.00
656.23	39646.00
656.98	39771.00
657.73	39930.00
658.48	39958.00
659.23	40055.00
659.98	40070.00
660.73	40165.00
661.48	40289.00
662.23	40402.00
662.99	40250.00
663.74	40209.00
664.49	40373.00
665.24	40779.00
665.99	40980.00
666.74	41052.00
667.49	41116.00
668.24	41201.00
668.99	41236.00
669.74	41474.00
670.49	41647.00
671.24	41846.00
671.99	42039.00
672.74	42091.00
673.48	42136.00
674.23	42159.00
674.98	42104.00
675.73	42272.00
676.48	42426.00
677.23	42435.00
677.98	42471.00
678.73	42542.00
679.48	42507.00
680.23	42605.00
680.98	42668.00
681.73	42599.00
682.47	42538.00
683.22	42617.00
683.97	42638.00
684.72	42546.00
685.47	42541.00
686.22	42617.00
686.97	42777.00
687.71	42820.00
688.46	42791.00
689.21	42771.00
689.96	42754.00
690.71	42889.00
691.45	42942.00
692.20	42944.00
692.95	42971.00
693.70	43109.00
694.44	43233.00
695.19	43286.00
695.94	43411.00
696.69	43501.00
697.43	43363.00
698.18	43400.00
698.93	43537.00
699.68	43371.00
700.42	43368.00
701.17	43205.00
701.92	43174.00
702.66	43176.00
703.41	43221.00
704.16	43179.00
704.90	43081.00
705.65	43158.00
706.40	43257.00
707.14	43291.00
707.89	43255.00
708.64	43179.00
709.38	43263.00
710.13	43369.00
710.88	43357.00
711.62	43121.00
712.37	43135.00
713.11	43063.00
713.86	43102.00
714.61	43041.00
715.35	42929.00
716.10	42881.00
716.84	42676.00
717.59	42649.00
718.33	42636.00
719.08	42781.00
719.83	42688.00
720.57	42485.00
721.32	42489.00
722.06	42308.00
722.81	42187.00
723.55	42006.00
724.30	42062.00
725.04	42054.00
725.79	41846.00
726.53	41768.00
727.28	41737.00
728.02	41722.00
728.76	41750.00
729.51	41827.00
730.25	41868.00
731.00	41873.00
731.74	41816.00
732.49	41663.00
733.23	41524.00
733.97	41375.00
734.72	41325.00
735.46	41239.00
736.21	41080.00
736.95	41037.00
737.69	41130.00
738.44	41274.00
739.18	41373.00
739.92	41571.00
740.67	41705.00
741.41	41859.00
742.15	41976.00
742.90	42106.00
743.64	42166.00
744.38	42096.00
745.13	42034.00
745.87	42015.00
746.61	41995.00
747.36	41826.00
748.10	41681.00
748.84	41496.00
749.58	41235.00
750.33	41043.00
751.07	41025.00
751.81	40870.00
752.55	40666.00
753.30	40545.00
754.04	40459.00
754.78	40422.00
755.52	40363.00
756.27	40268.00
757.01	40098.00
757.75	40139.00
758.49	40189.00
759.23	40108.00
759.97	40027.00
760.72	39942.00
761.46	39840.00
762.20	39846.00
762.94	39913.00
763.68	39761.00
764.42	39590.00
765.16	39463.00
765.91	39495.00
766.65	39389.00
767.39	39394.00
768.13	39318.00
768.87	39293.00
769.61	39226.00
770.35	39078.00
771.09	38897.00
771.83	38746.00
772.57	38717.00
773.31	38746.00
774.05	38814.00
774.80	38951.00
775.54	38783.00
776.28	38690.00
777.02	38390.00
777.76	38335.00
778.50	38069.00
779.24	37810.00
779.98	37643.00
780.72	37402.00
781.46	37255.00
782.20	37119.00
782.93	37198.00
783.67	37099.00
784.41	37005.00
785.15	36817.00
785.89	36678.00
786.63	36497.00
787.37	36418.00
788.11	36237.00
788.85	36108.00
789.59	36079.00
790.33	36019.00
791.07	36006.00
791.81	35927.00
792.54	35661.00
793.28	35499.00
794.02	35231.00
794.76	34976.00
795.50	34683.00
796.24	34323.00
796.97	34076.00
797.71	33867.00
798.45	33662.00
799.19	33589.00
799.93	33546.00
800.67	33298.00
801.40	33330.00
802.14	33397.00
802.88	33474.00
803.62	33484.00
804.35	33516.00
805.09	33310.00
805.83	33171.00
806.57	33011.00
807.30	32988.00
808.04	32887.00
808.78	32718.00
809.52	32348.00
810.25	32072.00
810.99	31856.00
811.73	31653.00
812.46	31662.00
813.20	31467.00
813.94	31418.00
814.68	31301.00
815.41	31273.00
816.15	31154.00
816.88	31225.00
817.62	30990.00
818.36	30774.00
819.09	30503.00
819.83	30302.00
820.57	30291.00
821.30	30380.00
822.04	30165.00
822.77	29947.00
823.51	29898.00
824.25	29873.00
824.98	29839.00
825.72	29843.00
826.45	29771.00
827.19	29630.00
827.92	29481.00
828.66	29312.00
829.40	29225.00
830.13	29153.00
830.87	29054.00
831.60	28936.00
832.34	28761.00
833.07	28558.00
833.81	28581.00
834.54	28640.00
835.28	28655.00
836.01	28626.00
836.75	28360.00
837.48	28116.00
838.22	27889.00
838.95	27757.00
839.68	27741.00
840.42	27686.00
841.15	27501.00
841.89	27311.00
842.62	27074.00
843.36	26818.00
844.09	26738.00
844.82	26643.00
845.56	26569.00
846.29	26295.00
847.02	26051.00
847.76	25892.00
848.49	25916.00
849.23	25967.00
849.96	26036.00
850.69	26081.00
851.43	26002.00
852.16	25750.00
852.89	25547.00
853.63	25503.00
854.36	25427.00
855.09	25555.00
855.82	25318.00
856.56	25120.00
857.29	24933.00
858.02	24715.00
858.76	24655.00
859.49	24484.00
860.22	24445.00
860.95	24310.00
861.69	24192.00
862.42	24084.00
863.15	24050.00
863.88	24033.00
864.61	24074.00
865.35	24122.00
866.08	24019.00
866.81	23746.00
867.54	23449.00
868.27	23355.00
869.01	23228.00
869.74	23290.00
870.47	23232.00
871.20	23174.00
871.93	23104.00
872.66	23016.00
873.40	22851.00
874.13	22625.00
874.86	22457.00
875.59	22347.00
876.32	22276.00
877.05	22027.00
877.78	21901.00
878.51	21599.00
879.24	21327.00
879.97	21231.00
880.71	21075.00
881.44	20910.00
882.17	20823.00
882.90	20772.00
883.63	20825.00
884.36	20820.00
885.09	20881.00
885.82	20911.00
886.55	20948.00
887.28	20977.00
888.01	20935.00
888.74	20827.00
889.47	20587.00
890.20	20348.00
890.93	20101.00
891.66	19892.00
892.39	19780.00
893.12	19771.00
893.85	19615.00
894.57	19461.00
895.30	19133.00
896.03	19002.00
896.76	18850.00
897.49	18793.00
898.22	18666.00
898.95	18619.00
899.68	18626.00
900.41	18665.00
901.14	18663.00
901.86	18586.00
902.59	18578.00
903.32	18540.00
904.05	18434.00
904.78	18254.00
905.51	18058.00
906.24	17779.00
906.96	17588.00
907.69	17453.00
908.42	17323.00
909.15	17225.00
909.88	17156.00
910.60	16948.00
911.33	16956.00
912.06	16967.00
912.79	16943.00
913.52	16870.00
914.24	16772.00
914.97	16631.00
915.70	16522.00
916.42	16386.00
917.15	16188.00
917.88	15998.00
918.61	15825.00
919.33	15692.00
920.06	15482.00
920.79	15428.00
921.51	15378.00
922.24	15242.00
922.97	15135.00
923.69	14983.00
924.42	14939.00
925.15	14737.00
925.87	14469.00
926.60	14222.00
927.33	14029.00
928.05	13829.00
928.78	13700.00
929.51	13536.00
930.23	13392.00
930.96	13264.00
931.68	13115.00
932.41	12956.00
933.14	12758.00
933.86	12542.00
934.59	12281.00
935.31	11948.00
936.04	11639.00
936.76	11334.00
937.49	11023.00
938.21	10713.00
938.94	10451.00
939.66	10193.00
940.39	9989.00
941.11	9769.00
941.84	9630.00
942.56	9516.00
943.29	9398.00
944.01	9365.00
944.74	9295.00
945.46	9296.00
946.19	9340.00
946.91	9353.00
947.64	9388.00
948.36	9374.00
949.09	9365.00
949.81	9407.00
950.53	9403.00
951.26	9449.00
951.98	9456.00
952.71	9422.00
953.43	9457.00
954.15	9512.00
954.88	9549.00
955.60	9544.00
956.33	9555.00
957.05	9560.00
957.77	9509.00
958.50	9543.00
959.22	9512.00
959.94	9491.00
960.67	9443.00
961.39	9411.00
962.11	9402.00
962.84	9403.00
963.56	9382.00
964.28	9310.00
965.00	9220.00
965.73	9159.00
966.45	9089.00
967.17	9013.00
967.89	8919.00
968.62	8841.00
969.34	8740.00
970.06	8673.00
970.78	8638.00
971.51	8613.00
972.23	8541.00
972.95	8489.00
973.67	8412.00
974.40	8349.00
975.12	8300.00
975.84	8208.00
976.56	8123.00
977.28	8044.00
978.00	7994.00
978.73	7943.00
979.45	7921.00
980.17	7890.00
980.89	7845.00
981.61	7817.00
982.33	7782.00
983.05	7750.00
983.77	7722.00
984.50	7685.00
985.22	7643.00
985.94	7616.00
986.66	7606.00
987.38	7599.00
988.10	7552.00
988.82	7559.00
989.54	7513.00
990.26	7462.00
990.98	7407.00
991.70	7352.00
992.42	7268.00
993.14	7221.00
993.86	7120.00
994.58	7040.00
995.30	6992.00
996.02	6961.00
996.74	6917.00
997.46	6887.00
998.18	6868.00
998.90	6821.00
999.62	6758.00
1000.34	6716.00
1001.06	6661.00
1001.78	6618.00
1002.50	6547.00
1003.22	6479.00
1003.94	6390.00
1004.66	6319.00
1005.38	6250.00
1006.09	6188.00
1006.81	6113.00
1007.53	6052.00
1008.25	5963.00
1008.97	5906.00
1009.69	5880.00
1010.41	5842.00
1011.13	5781.00
1011.84	5706.00
1012.56	5666.00
1013.28	5616.00
1014.00	5577.00
1014.72	5523.00
1015.44	5470.00
1016.15	5409.00
1016.87	5327.00
1017.59	5252.00
1018.31	5220.00
1019.03	5198.00
1019.74	5190.00
1020.46	5149.00
1021.18	5101.00
1021.90	5053.00
1022.61	5018.00
1023.33	4979.00
1024.05	4940.00
1024.76	4879.00
1025.48	4810.00
1026.20	4735.00
1026.92	4678.00
1027.63	4642.00
1028.35	4587.00
1029.07	4555.00
1029.78	4511.00
1030.50	4460.00
1031.22	4416.00
1031.93	4368.00
1032.65	4327.00
1033.37	4304.00
1034.08	4258.00
1034.80	4224.00
1035.52	4207.00
1036.23	4172.00
1036.95	4134.00
1037.66	4106.00
1038.38	4073.00
1039.10	4022.00
1039.81	3973.00
1040.53	3937.00
1041.24	3895.00
1041.96	3856.00
1042.67	3832.00
1043.39	3803.00
1044.10	3775.00
1044.82	3740.00
1045.54	3718.00
1046.25	3684.00
1046.97	3653.00
1047.68	3612.00
1048.40	3573.00
1049.11	3536.00
1049.83	3499.00
1050.54	3469.00
1051.26	3437.00
1051.97	3406.00
1052.68	3379.00
1053.40	3348.00
1054.11	3315.00
1054.83	3278.00
1055.54	3252.00
1056.26	3224.00
1056.97	3200.00
1057.69	3180.00
1058.40	3157.00
1059.11	3128.00
1059.83	3105.00
1060.54	3061.00
1061.25	3027.00
1061.97	3000.00
1062.68	2973.00
1063.40	2941.00
1064.11	2911.00
1064.82	2885.00
1065.54	2858.00
1066.25	2511.00
1066.96	2522.00
1067.68	2525.00
1068.39	2523.00
1069.10	2561.00
1069.82	2556.00
1070.53	2568.00
1071.24	2574.00
1071.95	2565.00
1072.67	2557.00
1073.38	2822.00
1074.09	2793.00
1074.80	2767.00
1075.52	2739.00
1076.23	2717.00
1076.94	2687.00
1077.65	2098.00
1078.37	2097.00
1079.08	2098.00
1079.79	2100.00
