300.47	2604.00
301.26	2605.00
302.04	2602.00
302.82	2605.00
303.60	2603.00
304.38	2603.00
305.17	2605.00
305.95	2604.00
306.73	2604.00
307.51	2602.00
308.29	2605.00
309.08	2604.00
309.86	2604.00
310.64	2605.00
311.42	2603.00
312.20	2598.00
312.98	2605.00
313.76	2603.00
314.55	2603.00
315.33	2604.00
316.11	2598.00
316.89	2603.00
317.67	2607.00
318.45	2604.00
319.23	2602.00
320.01	2604.00
320.79	2609.00
321.57	2603.00
322.35	2605.00
323.13	2604.00
323.91	2607.00
324.69	2607.00
325.47	2608.00
326.25	2605.00
327.03	2609.00
327.81	2606.00
328.59	2614.00
329.37	2605.00
330.15	2605.00
330.93	2611.00
331.71	2608.00
332.49	2610.00
333.27	2609.00
334.05	2607.00
334.83	2609.00
335.61	2611.00
336.39	2609.00
337.17	2611.00
337.95	2613.00
338.73	2612.00
339.51	2614.00
340.29	2621.00
341.07	2612.00
341.84	2617.00
342.62	2622.00
343.40	2621.00
344.18	2624.00
344.96	2628.00
345.74	2626.00
346.52	2629.00
347.29	2630.00
348.07	2634.00
348.85	2635.00
349.63	2635.00
350.41	2637.00
351.18	2638.00
351.96	2644.00
352.74	2645.00
353.52	2647.00
354.30	2654.00
355.07	2656.00
355.85	2659.00
356.63	2660.00
357.41	2664.00
358.18	2668.00
358.96	2677.00
359.74	2679.00
360.52	2680.00
361.29	2684.00
362.07	2695.00
362.85	2691.00
363.62	2701.00
364.40	2706.00
365.18	2708.00
365.95	2713.00
366.73	2724.00
367.51	2730.00
368.28	2731.00
369.06	2739.00
369.84	2749.00
370.61	2756.00
371.39	2763.00
372.17	2768.00
372.94	2779.00
373.72	2781.00
374.49	2796.00
375.27	2803.00
376.05	2813.00
376.82	2812.00
377.60	2836.00
378.37	2839.00
379.15	2855.00
379.92	2853.00
380.70	2875.00
381.47	2887.00
382.25	2896.00
383.02	2910.00
383.80	2919.00
384.58	2926.00
385.35	2954.00
386.13	2969.00
386.90	2979.00
387.67	2990.00
388.45	3004.00
389.22	3020.00
390.00	3042.00
390.77	3042.00
391.55	3069.00
392.32	3082.00
393.10	3101.00
393.87	3108.00
394.65	3137.00
395.42	3165.00
396.19	3173.00
396.97	3184.00
397.74	3202.00
398.52	3215.00
399.29	3255.00
400.06	3253.00
400.84	3283.00
401.61	3294.00
402.38	3316.00
403.16	3330.00
403.93	3360.00
404.70	3376.00
405.48	3389.00
406.25	3420.00
407.02	3428.00
407.80	3467.00
408.57	3481.00
409.34	3500.00
410.12	3522.00
410.89	3544.00
411.66	3560.00
412.43	3611.00
413.21	3617.00
413.98	3629.00
414.75	3667.00
415.52	3686.00
416.30	3716.00
417.07	3737.00
417.84	3757.00
418.61	3786.00
419.39	3806.00
420.16	3840.00
420.93	3858.00
421.70	3890.00
422.47	3925.00
423.24	3950.00
424.02	3963.00
424.79	4004.00
425.56	4028.00
426.33	4069.00
427.10	4090.00
427.87	4138.00
428.64	4157.00
429.42	4183.00
430.19	4224.00
430.96	4272.00
431.73	4308.00
432.50	4346.00
433.27	4368.00
434.04	4407.00
434.81	4447.00
435.58	4489.00
436.35	4543.00
437.12	4570.00
437.89	4618.00
438.67	4667.00
439.44	4702.00
440.21	4744.00
440.98	4809.00
441.75	4843.00
442.52	4899.00
443.29	4945.00
444.06	5002.00
444.83	5056.00
445.60	5101.00
446.37	5145.00
447.13	5190.00
447.90	5249.00
448.67	5296.00
449.44	5366.00
450.21	5430.00
450.98	5478.00
451.75	5532.00
452.52	5597.00
453.29	5661.00
454.06	5729.00
454.83	5804.00
455.60	5840.00
456.37	5933.00
457.13	5988.00
457.90	6076.00
458.67	6137.00
459.44	6209.00
460.21	6303.00
460.98	6370.00
461.75	6429.00
462.51	6513.00
463.28	6602.00
464.05	6665.00
464.82	6770.00
465.59	6809.00
466.35	6909.00
467.12	7009.00
467.89	7070.00
468.66	7144.00
469.43	7247.00
470.19	7312.00
470.96	7395.00
471.73	7476.00
472.50	7603.00
473.26	7680.00
474.03	7786.00
474.80	7898.00
475.56	7982.00
476.33	8073.00
477.10	8135.00
477.87	8221.00
478.63	8343.00
479.40	8462.00
480.17	8574.00
480.93	8633.00
481.70	8760.00
482.47	8819.00
483.23	8980.00
484.00	9071.00
484.76	9243.00
485.53	9325.00
486.30	9428.00
487.06	9532.00
487.83	9687.00
488.60	9767.00
489.36	9887.00
490.13	10019.00
490.89	10118.00
491.66	10177.00
492.42	10322.00
493.19	10452.00
493.96	10537.00
494.72	10637.00
495.49	10751.00
496.25	10913.00
497.02	11037.00
497.78	11125.00
498.55	11302.00
499.31	11414.00
500.08	11526.00
500.84	11665.00
501.61	11772.00
502.37	11939.00
503.14	12069.00
503.90	12191.00
504.67	12307.00
505.43	12498.00
506.20	12612.00
506.96	12756.00
507.72	12893.00
508.49	13031.00
509.25	13188.00
510.02	13277.00
510.78	13466.00
511.54	13601.00
512.31	13769.00
513.07	13868.00
513.84	14004.00
514.60	14214.00
515.36	14288.00
516.13	14451.00
516.89	14548.00
517.65	14678.00
518.42	14811.00
519.18	14963.00
519.94	15127.00
520.71	15261.00
521.47	15379.00
522.23	15538.00
523.00	15696.00
523.76	15861.00
524.52	16052.00
525.28	16195.00
526.05	16330.00
526.81	16508.00
527.57	16728.00
528.33	16819.00
529.10	17042.00
529.86	17141.00
530.62	17307.00
531.38	17458.00
532.15	17621.00
532.91	17733.00
533.67	17881.00
534.43	18104.00
535.19	18266.00
535.96	18421.00
536.72	18549.00
537.48	18682.00
538.24	18771.00
539.00	18960.00
539.76	19137.00
540.53	19322.00
541.29	19491.00
542.05	19690.00
542.81	19893.00
543.57	20011.00
544.33	20313.00
545.09	20458.00
545.85	20599.00
546.61	20728.00
547.38	20866.00
548.14	21039.00
548.90	21203.00
549.66	21418.00
550.42	21606.00
551.18	21745.00
551.94	21929.00
552.70	22068.00
553.46	22370.00
554.22	22475.00
554.98	22632.00
555.74	22710.00
556.50	22902.00
557.26	23081.00
558.02	23252.00
558.78	23454.00
559.54	23522.00
560.30	23683.00
561.06	23855.00
561.82	24127.00
562.58	24401.00
563.34	24603.00
564.10	24656.00
564.86	24834.00
565.61	25000.00
566.37	25143.00
567.13	25392.00
567.89	25590.00
568.65	25695.00
569.41	25895.00
570.17	26102.00
570.93	26300.00
571.69	26435.00
572.44	26692.00
573.20	26739.00
573.96	26901.00
574.72	27052.00
575.48	27191.00
576.24	27423.00
576.99	27519.00
577.75	27764.00
578.51	27914.00
579.27	28121.00
580.03	28316.00
580.78	28496.00
581.54	28723.00
582.30	28830.00
583.06	28974.00
583.82	29191.00
584.57	29316.00
585.33	29464.00
586.09	29593.00
586.84	29710.00
587.60	29849.00
588.36	30046.00
589.12	30194.00
589.87	30471.00
590.63	30571.00
591.39	30770.00
592.14	30915.00
592.90	31090.00
593.66	31162.00
594.41	31454.00
595.17	31575.00
595.93	31724.00
596.68	31861.00
597.44	31943.00
598.20	32139.00
598.95	32308.00
599.71	32538.00
600.46	32661.00
601.22	32805.00
601.98	33029.00
602.73	33300.00
603.49	33477.00
604.24	33682.00
605.00	33801.00
605.76	34059.00
606.51	34219.00
607.27	34342.00
608.02	34574.00
608.78	34762.00
609.53	34959.00
610.29	35094.00
611.04	35295.00
611.80	35482.00
612.55	35729.00
613.31	35838.00
614.06	36125.00
614.82	36314.00
615.57	36477.00
616.33	36602.00
617.08	36772.00
617.84	36792.00
618.59	36809.00
619.35	36791.00
620.10	36992.00
620.85	36986.00
621.61	37017.00
622.36	37088.00
623.12	37189.00
623.87	37274.00
624.62	37422.00
625.38	37677.00
626.13	37700.00
626.89	37889.00
627.64	37951.00
628.39	37999.00
629.15	38072.00
629.90	38294.00
630.65	38424.00
631.41	38358.00
632.16	38470.00
632.91	38413.00
633.67	38489.00
634.42	38462.00
635.17	38687.00
635.92	38870.00
636.68	39335.00
637.43	39726.00
638.18	40169.00
638.94	40531.00
639.69	40949.00
640.44	41259.00
641.19	41671.00
641.95	41943.00
642.70	42183.00
643.45	42422.00
644.20	42627.00
644.95	42785.00
645.71	42878.00
646.46	42975.00
647.21	43125.00
647.96	43344.00
648.71	43591.00
649.47	43746.00
650.22	43907.00
650.97	44087.00
651.72	44162.00
652.47	44297.00
653.22	44449.00
653.97	44530.00
654.73	44531.00
655.48	44618.00
656.23	44719.00
656.98	44864.00
657.73	45030.00
658.48	44967.00
659.23	45141.00
659.98	45139.00
660.73	45252.00
661.48	45467.00
662.23	45517.00
662.99	45500.00
663.74	45523.00
664.49	45803.00
665.24	46244.00
665.99	46681.00
666.74	46952.00
667.49	47045.00
668.24	47059.00
668.99	47111.00
669.74	47325.00
670.49	47494.00
671.24	47586.00
671.99	47724.00
672.74	47876.00
673.48	47949.00
674.23	47952.00
674.98	47977.00
675.73	48182.00
676.48	48303.00
677.23	48291.00
677.98	48392.00
678.73	48504.00
679.48	48620.00
680.23	48719.00
680.98	48775.00
681.73	48823.00
682.47	48861.00
683.22	48974.00
683.97	49003.00
684.72	49106.00
685.47	49134.00
686.22	49212.00
686.97	49331.00
687.71	49518.00
688.46	49574.00
689.21	49405.00
689.96	49546.00
690.71	49542.00
691.45	49528.00
692.20	49520.00
692.95	49556.00
693.70	49754.00
694.44	49854.00
695.19	50001.00
695.94	49956.00
696.69	50035.00
697.43	50187.00
698.18	50261.00
698.93	50312.00
699.68	50349.00
700.42	50307.00
701.17	50302.00
701.92	50372.00
702.66	50464.00
703.41	50480.00
704.16	50494.00
704.90	50437.00
705.65	50494.00
706.40	50540.00
707.14	50594.00
707.89	50709.00
708.64	50737.00
709.38	50712.00
710.13	50830.00
710.88	50793.00
711.62	50758.00
712.37	50745.00
713.11	50804.00
713.86	50718.00
714.61	50744.00
715.35	50780.00
716.10	50761.00
716.84	50725.00
717.59	50692.00
718.33	50621.00
719.08	50631.00
719.83	50624.00
720.57	50600.00
721.32	50536.00
722.06	50475.00
722.81	50349.00
723.55	50349.00
724.30	50216.00
725.04	50197.00
725.79	50101.00
726.53	50170.00
727.28	50075.00
728.02	50096.00
728.76	50202.00
729.51	50179.00
730.25	50371.00
731.00	50553.00
731.74	50626.00
732.49	50584.00
733.23	50540.00
733.97	50387.00
734.72	50375.00
735.46	50372.00
736.21	50326.00
736.95	50216.00
737.69	50272.00
738.44	50373.00
739.18	50525.00
739.92	50676.00
740.67	50605.00
741.41	50877.00
742.15	50925.00
742.90	51033.00
743.64	51134.00
744.38	51127.00
745.13	51008.00
745.87	51020.00
746.61	50955.00
747.36	50898.00
748.10	50937.00
748.84	50708.00
749.58	50691.00
750.33	50507.00
751.07	50507.00
751.81	50353.00
752.55	50180.00
753.30	49995.00
754.04	49877.00
754.78	49763.00
755.52	49787.00
756.27	49769.00
757.01	49619.00
757.75	49753.00
758.49	49868.00
759.23	49923.00
759.97	49772.00
760.72	49858.00
761.46	49791.00
762.20	49837.00
762.94	49933.00
763.68	49992.00
764.42	49875.00
765.16	49737.00
765.91	49932.00
766.65	49891.00
767.39	49863.00
768.13	49784.00
768.87	49726.00
769.61	49720.00
770.35	49637.00
771.09	49486.00
771.83	49452.00
772.57	49361.00
773.31	49373.00
774.05	49461.00
774.80	49540.00
775.54	49509.00
776.28	49428.00
777.02	49174.00
777.76	49140.00
778.50	48987.00
779.24	48950.00
779.98	48759.00
780.72	48580.00
781.46	48380.00
782.20	48249.00
782.93	48231.00
783.67	48162.00
784.41	47982.00
785.15	48081.00
785.89	47873.00
786.63	47715.00
787.37	47559.00
788.11	47580.00
788.85	47434.00
789.59	47498.00
790.33	47493.00
791.07	47303.00
791.81	47213.00
792.54	47068.00
793.28	46852.00
794.02	46808.00
794.76	46426.00
795.50	46253.00
796.24	45972.00
796.97	45809.00
797.71	45609.00
798.45	45635.00
799.19	45460.00
799.93	45350.00
800.67	45202.00
801.40	45032.00
802.14	45162.00
802.88	45357.00
803.62	45546.00
804.35	45472.00
805.09	45307.00
805.83	45152.00
806.57	45174.00
807.30	45186.00
808.04	45055.00
808.78	44779.00
809.52	44503.00
810.25	44131.00
810.99	44080.00
811.73	44121.00
812.46	44183.00
813.20	44056.00
813.94	44082.00
814.68	44097.00
815.41	44032.00
816.15	44170.00
816.88	44142.00
817.62	44043.00
818.36	43691.00
819.09	43347.00
819.83	43294.00
820.57	43315.00
821.30	43178.00
822.04	43094.00
822.77	42933.00
823.51	42869.00
824.25	42924.00
824.98	42927.00
825.72	42932.00
826.45	42811.00
827.19	42679.00
827.92	42480.00
828.66	42439.00
829.40	42405.00
830.13	42493.00
830.87	42251.00
831.60	42139.00
832.34	41906.00
833.07	41753.00
833.81	41915.00
834.54	41824.00
835.28	41832.00
836.01	41741.00
836.75	41533.00
837.48	41503.00
838.22	41298.00
838.95	41272.00
839.68	41215.00
840.42	41138.00
841.15	41041.00
841.89	40818.00
842.62	40595.00
843.36	40566.00
844.09	40337.00
844.82	40349.00
845.56	40342.00
846.29	40343.00
847.02	40157.00
847.76	40096.00
848.49	40102.00
849.23	40243.00
849.96	40436.00
850.69	40485.00
851.43	40363.00
852.16	40043.00
852.89	39971.00
853.63	39827.00
854.36	39842.00
855.09	39859.00
855.82	39835.00
856.56	39559.00
857.29	39392.00
858.02	39215.00
858.76	39043.00
859.49	38758.00
860.22	38595.00
860.95	38404.00
861.69	38402.00
862.42	38148.00
863.15	38170.00
863.88	38195.00
864.61	38383.00
865.35	38427.00
866.08	38273.00
866.81	38116.00
867.54	37960.00
868.27	37786.00
869.01	37777.00
869.74	37740.00
870.47	37769.00
871.20	37664.00
871.93	37561.00
872.66	37547.00
873.40	37438.00
874.13	37250.00
874.86	37193.00
875.59	37035.00
876.32	37045.00
877.05	36936.00
877.78	36650.00
878.51	36412.00
879.24	36101.00
879.97	35957.00
880.71	35816.00
881.44	35683.00
882.17	35544.00
882.90	35515.00
883.63	35512.00
884.36	35521.00
885.09	35827.00
885.82	35953.00
886.55	36056.00
887.28	36160.00
888.01	36058.00
888.74	35943.00
889.47	35733.00
890.20	35451.00
890.93	35082.00
891.66	34892.00
892.39	34722.00
893.12	34596.00
893.85	34380.00
894.57	34223.00
895.30	33999.00
896.03	33918.00
896.76	33725.00
897.49	33759.00
898.22	33703.00
898.95	33594.00
899.68	33594.00
900.41	33538.00
901.14	33436.00
901.86	33462.00
902.59	33480.00
903.32	33489.00
904.05	33395.00
904.78	33244.00
905.51	32960.00
906.24	32665.00
906.96	32490.00
907.69	32268.00
908.42	32264.00
909.15	32099.00
909.88	31951.00
910.60	31829.00
911.33	31850.00
912.06	31903.00
912.79	31898.00
913.52	31691.00
914.24	31645.00
914.97	31547.00
915.70	31429.00
916.42	31286.00
917.15	31073.00
917.88	30869.00
918.61	30665.00
919.33	30422.00
920.06	30150.00
920.79	30124.00
921.51	30037.00
922.24	29853.00
922.97	29796.00
923.69	29565.00
924.42	29353.00
925.15	29111.00
925.87	28797.00
926.60	28569.00
927.33	28226.00
928.05	28032.00
928.78	27851.00
929.51	27679.00
930.23	27426.00
930.96	27132.00
931.68	26992.00
932.41	26736.00
933.14	26448.00
933.86	26206.00
934.59	25827.00
935.31	25456.00
936.04	24853.00
936.76	24356.00
937.49	23899.00
938.21	23349.00
938.94	22876.00
939.66	22446.00
940.39	22037.00
941.11	21607.00
941.84	21275.00
942.56	21094.00
943.29	20969.00
944.01	20938.00
944.74	20847.00
945.46	20815.00
946.19	20851.00
946.91	20887.00
947.64	21009.00
948.36	21104.00
949.09	21149.00
949.81	21272.00
950.53	21397.00
951.26	21472.00
951.98	21622.00
952.71	21668.00
953.43	21755.00
954.15	21828.00
954.88	21912.00
955.60	21958.00
956.33	22003.00
957.05	22005.00
957.77	22019.00
958.50	22042.00
959.22	22030.00
959.94	22020.00
960.67	21926.00
961.39	21932.00
962.11	21847.00
962.84	21879.00
963.56	21756.00
964.28	21685.00
965.00	21539.00
965.73	21428.00
966.45	21246.00
967.17	21104.00
967.89	20940.00
968.62	20659.00
969.34	20513.00
970.06	20396.00
970.78	20333.00
971.51	20241.00
972.23	20078.00
972.95	19980.00
973.67	19895.00
974.40	19742.00
975.12	19673.00
975.84	19530.00
976.56	19389.00
977.28	19281.00
978.00	19189.00
978.73	19098.00
979.45	19044.00
980.17	19025.00
980.89	18916.00
981.61	18878.00
982.33	18815.00
983.05	18860.00
983.77	18789.00
984.50	18680.00
985.22	18595.00
985.94	18595.00
986.66	18555.00
987.38	18488.00
988.10	18470.00
988.82	18474.00
989.54	18388.00
990.26	18254.00
990.98	18248.00
991.70	18083.00
992.42	17932.00
993.14	17788.00
993.86	17614.00
994.58	17453.00
995.30	17338.00
996.02	17270.00
996.74	17218.00
997.46	17167.00
998.18	17088.00
998.90	16965.00
999.62	16886.00
1000.34	16784.00
1001.06	16626.00
1001.78	16545.00
1002.50	16406.00
1003.22	16164.00
1003.94	15933.00
1004.66	15783.00
1005.38	15659.00
1006.09	15492.00
1006.81	15341.00
1007.53	15162.00
1008.25	14987.00
1008.97	14878.00
1009.69	14755.00
1010.41	14688.00
1011.13	14587.00
1011.84	14512.00
1012.56	14360.00
1013.28	14258.00
1014.00	14109.00
1014.72	13950.00
1015.44	13834.00
1016.15	13625.00
1016.87	13394.00
1017.59	13183.00
1018.31	13092.00
1019.03	12987.00
1019.74	12958.00
1020.46	12917.00
1021.18	12791.00
1021.90	12680.00
1022.61	12568.00
1023.33	12458.00
1024.05	12353.00
1024.76	12215.00
1025.48	12034.00
1026.20	11799.00
1026.92	11642.00
1027.63	11453.00
1028.35	11383.00
1029.07	11198.00
1029.78	11096.00
1030.50	10994.00
1031.22	10864.00
1031.93	10794.00
1032.65	10644.00
1033.37	10525.00
1034.08	10451.00
1034.80	10361.00
1035.52	10249.00
1036.23	10138.00
1036.95	10023.00
1037.66	9893.00
1038.38	9822.00
1039.10	9639.00
1039.81	9478.00
1040.53	9323.00
1041.24	9247.00
1041.96	9153.00
1042.67	9030.00
1043.39	8960.00
1044.10	8871.00
1044.82	8781.00
1045.54	8663.00
1046.25	8575.00
1046.97	8467.00
1047.68	8337.00
1048.40	8240.00
1049.11	8109.00
1049.83	8007.00
1050.54	7911.00
1051.26	7814.00
1051.97	7726.00
1052.68	7642.00
1053.40	7540.00
1054.11	7420.00
1054.83	7315.00
1055.54	7172.00
1056.26	7049.00
1056.97	6977.00
1057.69	6891.00
1058.40	6805.00
1059.11	6689.00
1059.83	6599.00
1060.54	6450.00
1061.25	6352.00
1061.97	6220.00
1062.68	6134.00
1063.40	6032.00
1064.11	5923.00
1064.82	5786.00
1065.54	5706.00
1066.25	2560.00
1066.96	2560.00
1067.68	2559.00
1068.39	2558.00
1069.10	2608.00
1069.82	2604.00
1070.53	2604.00
1071.24	2605.00
1071.95	2608.00
1072.67	2601.00
1073.38	5573.00
1074.09	5453.00
1074.80	5355.00
1075.52	5246.00
1076.23	5163.00
1076.94	5064.00
1077.65	2604.00
1078.37	2604.00
1079.08	2604.00
1079.79	2618.00
