300.47	2619.00
301.26	2613.00
302.04	2624.00
302.82	2608.00
303.60	2617.00
304.38	2625.00
305.17	2608.00
305.95	2620.00
306.73	2620.00
307.51	2612.00
308.29	2622.00
309.08	2603.00
309.86	2622.00
310.64	2608.00
311.42	2621.00
312.20	2627.00
312.98	2602.00
313.76	2625.00
314.55	2598.00
315.33	2616.00
316.11	2602.00
316.89	2622.00
317.67	2613.00
318.45	2620.00
319.23	2625.00
320.01	2607.00
320.79	2626.00
321.57	2607.00
322.35	2624.00
323.13	2607.00
323.91	2622.00
324.69	2617.00
325.47	2615.00
326.25	2621.00
327.03	2603.00
327.81	2623.00
328.59	2621.00
329.37	2601.00
330.15	2625.00
330.93	2615.00
331.71	2614.00
332.49	2615.00
333.27	2603.00
334.05	2630.00
334.83	2618.00
335.61	2605.00
336.39	2633.00
337.17	2618.00
337.95	2614.00
338.73	2623.00
339.51	2615.00
340.29	2623.00
341.07	2623.00
341.84	2608.00
342.62	2632.00
343.40	2630.00
344.18	2622.00
344.96	2630.00
345.74	2618.00
346.52	2641.00
347.29	2634.00
348.07	2630.00
348.85	2644.00
349.63	2634.00
350.41	2649.00
351.18	2650.00
351.96	2631.00
352.74	2663.00
353.52	2653.00
354.30	2650.00
355.07	2663.00
355.85	2657.00
356.63	2673.00
357.41	2674.00
358.18	2658.00
358.96	2685.00
359.74	2692.00
360.52	2674.00
361.29	2701.00
362.07	2692.00
362.85	2695.00
363.62	2707.00
364.40	2703.00
365.18	2718.00
365.95	2724.00
366.73	2716.00
367.51	2746.00
368.28	2748.00
369.06	2737.00
369.84	2763.00
370.61	2757.00
371.39	2772.00
372.17	2783.00
372.94	2777.00
373.72	2802.00
374.49	2808.00
375.27	2798.00
376.05	2827.00
376.82	2832.00
377.60	2835.00
378.37	2859.00
379.15	2853.00
379.92	2880.00
380.70	2889.00
381.47	2882.00
382.25	2921.00
383.02	2927.00
383.80	2930.00
384.58	2968.00
385.35	2959.00
386.13	2970.00
386.90	3004.00
387.67	2996.00
388.45	3024.00
389.22	3048.00
390.00	3047.00
390.77	3082.00
391.55	3095.00
392.32	3095.00
393.10	3122.00
393.87	3133.00
394.65	3164.00
395.42	3187.00
396.19	3186.00
396.97	3223.00
397.74	3233.00
398.52	3240.00
399.29	3279.00
400.06	3281.00
400.84	3312.00
401.61	3350.00
402.38	3346.00
403.16	3387.00
403.93	3401.00
404.70	3394.00
405.48	3460.00
406.25	3460.00
407.02	3474.00
407.80	3500.00
408.57	3527.00
409.34	3551.00
410.12	3579.00
410.89	3584.00
411.66	3625.00
412.43	3643.00
413.21	3645.00
413.98	3693.00
414.75	3713.00
415.52	3729.00
416.30	3759.00
417.07	3784.00
417.84	3804.00
418.61	3853.00
419.39	3851.00
420.16	3907.00
420.93	3927.00
421.70	3944.00
422.47	3985.00
423.24	4001.00
424.02	4036.00
424.79	4084.00
425.56	4084.00
426.33	4131.00
427.10	4182.00
427.87	4199.00
428.64	4253.00
429.42	4270.00
430.19	4294.00
430.96	4346.00
431.73	4384.00
432.50	4424.00
433.27	4456.00
434.04	4490.00
434.81	4572.00
435.58	4590.00
436.35	4622.00
437.12	4680.00
437.89	4705.00
438.67	4773.00
439.44	4820.00
440.21	4849.00
440.98	4935.00
441.75	4976.00
442.52	4990.00
443.29	5043.00
444.06	5135.00
444.83	5149.00
445.60	5241.00
446.37	5282.00
447.13	5332.00
447.90	5380.00
448.67	5449.00
449.44	5549.00
450.21	5587.00
450.98	5609.00
451.75	5702.00
452.52	5758.00
453.29	5815.00
454.06	5904.00
454.83	5960.00
455.60	6025.00
456.37	6094.00
457.13	6168.00
457.90	6254.00
458.67	6336.00
459.44	6398.00
460.21	6496.00
460.98	6529.00
461.75	6635.00
462.51	6718.00
463.28	6789.00
464.05	6876.00
464.82	6964.00
465.59	6999.00
466.35	7153.00
467.12	7220.00
467.89	7287.00
468.66	7399.00
469.43	7456.00
470.19	7552.00
470.96	7664.00
471.73	7733.00
472.50	7868.00
473.26	7935.00
474.03	7997.00
474.80	8167.00
475.56	8207.00
476.33	8324.00
477.10	8448.00
477.87	8535.00
478.63	8630.00
479.40	8742.00
480.17	8822.00
480.93	8937.00
481.70	9052.00
482.47	9163.00
483.23	9277.00
484.00	9425.00
484.76	9518.00
485.53	9626.00
486.30	9733.00
487.06	9852.00
487.83	9973.00
488.60	10085.00
489.36	10223.00
490.13	10312.00
490.89	10426.00
491.66	10559.00
492.42	10663.00
493.19	10857.00
493.96	10957.00
494.72	11037.00
495.49	11165.00
496.25	11301.00
497.02	11444.00
497.78	11563.00
498.55	11727.00
499.31	11821.00
500.08	11947.00
500.84	12070.00
501.61	12230.00
502.37	12348.00
503.14	12486.00
503.90	12608.00
504.67	12784.00
505.43	12894.00
506.20	13118.00
506.96	13219.00
507.72	13374.00
508.49	13503.00
509.25	13658.00
510.02	13826.00
510.78	13966.00
511.54	14099.00
512.31	14242.00
513.07	14382.00
513.84	14518.00
514.60	14700.00
515.36	14808.00
516.13	14979.00
516.89	15063.00
517.65	15138.00
518.42	15341.00
519.18	15478.00
519.94	15669.00
520.71	15760.00
521.47	15947.00
522.23	16108.00
523.00	16352.00
523.76	16424.00
524.52	16574.00
525.28	16801.00
526.05	16927.00
526.81	17098.00
527.57	17270.00
528.33	17399.00
529.10	17589.00
529.86	17759.00
530.62	17939.00
531.38	18099.00
532.15	18178.00
532.91	18349.00
533.67	18558.00
534.43	18682.00
535.19	18829.00
535.96	18967.00
536.72	19121.00
537.48	19304.00
538.24	19454.00
539.00	19659.00
539.76	19863.00
540.53	20040.00
541.29	20239.00
542.05	20386.00
542.81	20527.00
543.57	20734.00
544.33	20951.00
545.09	21138.00
545.85	21286.00
546.61	21433.00
547.38	21627.00
548.14	21751.00
548.90	21922.00
549.66	22137.00
550.42	22380.00
551.18	22485.00
551.94	22599.00
552.70	22797.00
553.46	22951.00
554.22	23158.00
554.98	23252.00
555.74	23406.00
556.50	23601.00
557.26	23808.00
558.02	23928.00
558.78	24179.00
559.54	24310.00
560.30	24475.00
561.06	24676.00
561.82	24850.00
562.58	25196.00
563.34	25350.00
564.10	25453.00
564.86	25645.00
565.61	25715.00
566.37	25957.00
567.13	26235.00
567.89	26441.00
568.65	26604.00
569.41	26851.00
570.17	27057.00
570.93	27183.00
571.69	27453.00
572.44	27582.00
573.20	27748.00
573.96	27915.00
574.72	28109.00
575.48	28191.00
576.24	28307.00
576.99	28453.00
577.75	28628.00
578.51	28838.00
579.27	29066.00
580.03	29216.00
580.78	29432.00
581.54	29588.00
582.30	29753.00
583.06	29933.00
583.82	30089.00
584.57	30224.00
585.33	30457.00
586.09	30612.00
586.84	30738.00
587.60	30827.00
588.36	30999.00
589.12	31251.00
589.87	31430.00
590.63	31564.00
591.39	31767.00
592.14	31837.00
592.90	32019.00
593.66	32253.00
594.41	32441.00
595.17	32665.00
595.93	32743.00
596.68	32860.00
597.44	33017.00
598.20	33242.00
598.95	33479.00
599.71	33645.00
600.46	33826.00
601.22	33890.00
601.98	34069.00
602.73	34415.00
603.49	34562.00
604.24	34854.00
605.00	34999.00
605.76	35094.00
606.51	35187.00
607.27	35487.00
608.02	35652.00
608.78	35868.00
609.53	36085.00
610.29	36230.00
611.04	36504.00
611.80	36572.00
612.55	36771.00
613.31	37043.00
614.06	37205.00
614.82	37425.00
615.57	37659.00
616.33	37746.00
617.08	37838.00
617.84	37914.00
618.59	38081.00
619.35	38105.00
620.10	38164.00
620.85	38165.00
621.61	38290.00
622.36	38331.00
623.12	38366.00
623.87	38533.00
624.62	38711.00
625.38	38950.00
626.13	38954.00
626.89	39169.00
627.64	39284.00
628.39	39376.00
629.15	39322.00
629.90	39531.00
630.65	39487.00
631.41	39422.00
632.16	39409.00
632.91	39347.00
633.67	39339.00
634.42	39334.00
635.17	39643.00
635.92	39913.00
636.68	40332.00
637.43	40786.00
638.18	41293.00
638.94	41668.00
639.69	42072.00
640.44	42493.00
641.19	42883.00
641.95	43188.00
642.70	43530.00
643.45	43662.00
644.20	43877.00
644.95	44045.00
645.71	44142.00
646.46	44294.00
647.21	44409.00
647.96	44508.00
648.71	44676.00
649.47	44731.00
650.22	44880.00
650.97	45189.00
651.72	45234.00
652.47	45414.00
653.22	45461.00
653.97	45531.00
654.73	45598.00
655.48	45743.00
656.23	45946.00
656.98	46121.00
657.73	46276.00
658.48	46266.00
659.23	46472.00
659.98	46481.00
660.73	46532.00
661.48	46725.00
662.23	46842.00
662.99	46773.00
663.74	46783.00
664.49	46940.00
665.24	47301.00
665.99	47635.00
666.74	47747.00
667.49	47895.00
668.24	48032.00
668.99	48148.00
669.74	48308.00
670.49	48575.00
671.24	48766.00
671.99	48797.00
672.74	49037.00
673.48	48985.00
674.23	49088.00
674.98	49051.00
675.73	49133.00
676.48	49407.00
677.23	49528.00
677.98	49554.00
678.73	49672.00
679.48	49703.00
680.23	49750.00
680.98	49812.00
681.73	49707.00
682.47	49694.00
683.22	49756.00
683.97	49712.00
684.72	49736.00
685.47	49740.00
686.22	49822.00
686.97	50002.00
687.71	50164.00
688.46	50163.00
689.21	50163.00
689.96	50146.00
690.71	50300.00
691.45	50309.00
692.20	50406.00
692.95	50494.00
693.70	50488.00
694.44	50806.00
695.19	51030.00
695.94	51118.00
696.69	51144.00
697.43	51119.00
698.18	51264.00
698.93	51313.00
699.68	51278.00
700.42	51253.00
701.17	51195.00
701.92	51170.00
702.66	51237.00
703.41	51251.00
704.16	51205.00
704.90	51263.00
705.65	51291.00
706.40	51358.00
707.14	51395.00
707.89	51500.00
708.64	51539.00
709.38	51486.00
710.13	51442.00
710.88	51552.00
711.62	51532.00
712.37	51519.00
713.11	51509.00
713.86	51550.00
714.61	51592.00
715.35	51527.00
716.10	51416.00
716.84	51340.00
717.59	51212.00
718.33	51120.00
719.08	51270.00
719.83	51246.00
720.57	51289.00
721.32	51079.00
722.06	51038.00
722.81	51018.00
723.55	50921.00
724.30	50928.00
725.04	50832.00
725.79	50707.00
726.53	50733.00
727.28	50662.00
728.02	50643.00
728.76	50682.00
729.51	50818.00
730.25	50779.00
731.00	50774.00
731.74	50775.00
732.49	50696.00
733.23	50594.00
733.97	50436.00
734.72	50438.00
735.46	50275.00
736.21	50251.00
736.95	50198.00
737.69	50244.00
738.44	50312.00
739.18	50574.00
739.92	50679.00
740.67	50899.00
741.41	51081.00
742.15	51248.00
742.90	51389.00
743.64	51525.00
744.38	51557.00
745.13	51426.00
745.87	51468.00
746.61	51384.00
747.36	51387.00
748.10	51156.00
748.84	50982.00
749.58	50797.00
750.33	50669.00
751.07	50540.00
751.81	50437.00
752.55	50475.00
753.30	50348.00
754.04	50290.00
754.78	50303.00
755.52	50213.00
756.27	50180.00
757.01	50088.00
757.75	50095.00
758.49	50206.00
759.23	50189.00
759.97	49967.00
760.72	49920.00
761.46	49829.00
762.20	49895.00
762.94	49888.00
763.68	49889.00
764.42	49665.00
765.16	49507.00
765.91	49534.00
766.65	49559.00
767.39	49453.00
768.13	49368.00
768.87	49242.00
769.61	49243.00
770.35	49162.00
771.09	49000.00
771.83	48892.00
772.57	48869.00
773.31	48985.00
774.05	49211.00
774.80	49298.00
775.54	49296.00
776.28	49168.00
777.02	48886.00
777.76	48762.00
778.50	48625.00
779.24	48380.00
779.98	48133.00
780.72	48013.00
781.46	47697.00
782.20	47688.00
782.93	47774.00
783.67	47729.00
784.41	47530.00
785.15	47349.00
785.89	47299.00
786.63	47065.00
787.37	46917.00
788.11	46747.00
788.85	46662.00
789.59	46728.00
790.33	46694.00
791.07	46810.00
791.81	46717.00
792.54	46542.00
793.28	46422.00
794.02	46128.00
794.76	45816.00
795.50	45589.00
796.24	45174.00
796.97	44856.00
797.71	44614.00
798.45	44511.00
799.19	44503.00
799.93	44443.00
800.67	44344.00
801.40	44362.00
802.14	44455.00
802.88	44560.00
803.62	44749.00
804.35	44658.00
805.09	44452.00
805.83	44333.00
806.57	44238.00
807.30	44201.00
808.04	44186.00
808.78	44065.00
809.52	43716.00
810.25	43409.00
810.99	43251.00
811.73	43085.00
812.46	43005.00
813.20	43030.00
813.94	42908.00
814.68	42787.00
815.41	42810.00
816.15	42844.00
816.88	42809.00
817.62	42666.00
818.36	42481.00
819.09	42266.00
819.83	42122.00
820.57	42006.00
821.30	41963.00
822.04	41833.00
822.77	41607.00
823.51	41443.00
824.25	41393.00
824.98	41441.00
825.72	41460.00
826.45	41414.00
827.19	41293.00
827.92	41120.00
828.66	40989.00
829.40	40917.00
830.13	40813.00
830.87	40696.00
831.60	40613.00
832.34	40490.00
833.07	40338.00
833.81	40308.00
834.54	40449.00
835.28	40396.00
836.01	40368.00
836.75	40350.00
837.48	40111.00
838.22	39938.00
838.95	39812.00
839.68	39912.00
840.42	39883.00
841.15	39747.00
841.89	39528.00
842.62	39232.00
843.36	38967.00
844.09	38821.00
844.82	38878.00
845.56	38711.00
846.29	38485.00
847.02	38233.00
847.76	38090.00
848.49	38031.00
849.23	38111.00
849.96	38376.00
850.69	38438.00
851.43	38243.00
852.16	38056.00
852.89	37828.00
853.63	37810.00
854.36	37793.00
855.09	37894.00
855.82	37843.00
856.56	37718.00
857.29	37456.00
858.02	37227.00
858.76	37095.00
859.49	37024.00
860.22	36990.00
860.95	36885.00
861.69	36695.00
862.42	36463.00
863.15	36407.00
863.88	36447.00
864.61	36515.00
865.35	36647.00
866.08	36558.00
866.81	36264.00
867.54	35976.00
868.27	35858.00
869.01	35749.00
869.74	35818.00
870.47	35798.00
871.20	35784.00
871.93	35698.00
872.66	35632.00
873.40	35468.00
874.13	35318.00
874.86	35080.00
875.59	34880.00
876.32	34821.00
877.05	34652.00
877.78	34459.00
878.51	34178.00
879.24	33971.00
879.97	33797.00
880.71	33616.00
881.44	33409.00
882.17	33358.00
882.90	33289.00
883.63	33269.00
884.36	33350.00
885.09	33457.00
885.82	33658.00
886.55	33781.00
887.28	33857.00
888.01	33908.00
888.74	33785.00
889.47	33492.00
890.20	33145.00
890.93	32835.00
891.66	32555.00
892.39	32599.00
893.12	32434.00
893.85	32252.00
894.57	32057.00
895.30	31840.00
896.03	31703.00
896.76	31596.00
897.49	31481.00
898.22	31378.00
898.95	31252.00
899.68	31298.00
900.41	31284.00
901.14	31295.00
901.86	31259.00
902.59	31241.00
903.32	31162.00
904.05	31226.00
904.78	31001.00
905.51	30635.00
906.24	30541.00
906.96	30276.00
907.69	30095.00
908.42	29922.00
909.15	29792.00
909.88	29574.00
910.60	29503.00
911.33	29552.00
912.06	29552.00
912.79	29509.00
913.52	29441.00
914.24	29394.00
914.97	29274.00
915.70	29211.00
916.42	29001.00
917.15	28822.00
917.88	28512.00
918.61	28263.00
919.33	28057.00
920.06	27851.00
920.79	27724.00
921.51	27570.00
922.24	27546.00
922.97	27281.00
923.69	27129.00
924.42	26987.00
925.15	26727.00
925.87	26511.00
926.60	26198.00
927.33	25862.00
928.05	25677.00
928.78	25410.00
929.51	25230.00
930.23	24965.00
930.96	24849.00
931.68	24652.00
932.41	24469.00
933.14	24085.00
933.86	23822.00
934.59	23377.00
935.31	22928.00
936.04	22384.00
936.76	21873.00
937.49	21350.00
938.21	20903.00
938.94	20370.00
939.66	20024.00
940.39	19572.00
941.11	19210.00
941.84	18954.00
942.56	18744.00
943.29	18700.00
944.01	18563.00
944.74	18506.00
945.46	18469.00
946.19	18554.00
946.91	18638.00
947.64	18644.00
948.36	18713.00
949.09	18749.00
949.81	18784.00
950.53	18846.00
951.26	18961.00
951.98	18956.00
952.71	18939.00
953.43	19020.00
954.15	19133.00
954.88	19216.00
955.60	19266.00
956.33	19271.00
957.05	19196.00
957.77	19208.00
958.50	19315.00
959.22	19285.00
959.94	19221.00
960.67	19125.00
961.39	19101.00
962.11	19127.00
962.84	19139.00
963.56	19050.00
964.28	18956.00
965.00	18852.00
965.73	18724.00
966.45	18628.00
967.17	18548.00
967.89	18389.00
968.62	18226.00
969.34	17984.00
970.06	17913.00
970.78	17812.00
971.51	17734.00
972.23	17658.00
972.95	17534.00
973.67	17431.00
974.40	17293.00
975.12	17182.00
975.84	17095.00
976.56	16923.00
977.28	16778.00
978.00	16723.00
978.73	16625.00
979.45	16600.00
980.17	16519.00
980.89	16397.00
981.61	16328.00
982.33	16282.00
983.05	16152.00
983.77	16186.00
984.50	16077.00
985.22	16038.00
985.94	16031.00
986.66	16001.00
987.38	16002.00
988.10	15988.00
988.82	15922.00
989.54	15868.00
990.26	15808.00
990.98	15677.00
991.70	15491.00
992.42	15340.00
993.14	15168.00
993.86	15006.00
994.58	14878.00
995.30	14798.00
996.02	14686.00
996.74	14632.00
997.46	14580.00
998.18	14510.00
998.90	14398.00
999.62	14259.00
1000.34	14198.00
1001.06	14082.00
1001.78	13967.00
1002.50	13806.00
1003.22	13605.00
1003.94	13462.00
1004.66	13279.00
1005.38	13136.00
1006.09	13006.00
1006.81	12865.00
1007.53	12642.00
1008.25	12552.00
1008.97	12395.00
1009.69	12332.00
1010.41	12228.00
1011.13	12096.00
1011.84	11974.00
1012.56	11886.00
1013.28	11794.00
1014.00	11724.00
1014.72	11554.00
1015.44	11403.00
1016.15	11307.00
1016.87	11103.00
1017.59	10980.00
1018.31	10887.00
1019.03	10787.00
1019.74	10786.00
1020.46	10674.00
1021.18	10585.00
1021.90	10467.00
1022.61	10370.00
1023.33	10298.00
1024.05	10147.00
1024.76	10030.00
1025.48	9810.00
1026.20	9673.00
1026.92	9526.00
1027.63	9412.00
1028.35	9291.00
1029.07	9204.00
1029.78	9073.00
1030.50	8945.00
1031.22	8839.00
1031.93	8760.00
1032.65	8638.00
1033.37	8551.00
1034.08	8448.00
1034.80	8391.00
1035.52	8323.00
1036.23	8220.00
1036.95	8145.00
1037.66	8066.00
1038.38	7989.00
1039.10	7887.00
1039.81	7740.00
1040.53	7632.00
1041.24	7514.00
1041.96	7439.00
1042.67	7313.00
1043.39	7258.00
1044.10	7188.00
1044.82	7079.00
1045.54	7009.00
1046.25	6932.00
1046.97	6851.00
1047.68	6709.00
1048.40	6618.00
1049.11	6529.00
1049.83	6437.00
1050.54	6371.00
1051.26	6263.00
1051.97	6200.00
1052.68	6128.00
1053.40	6043.00
1054.11	5954.00
1054.83	5843.00
1055.54	5746.00
1056.26	5677.00
1056.97	5595.00
1057.69	5532.00
1058.40	5453.00
1059.11	5375.00
1059.83	5319.00
1060.54	5209.00
1061.25	5124.00
1061.97	5013.00
1062.68	4937.00
1063.40	4892.00
1064.11	4804.00
1064.82	4697.00
1065.54	4614.00
1066.25	2557.00
1066.96	2568.00
1067.68	2559.00
1068.39	2572.00
1069.10	2624.00
1069.82	2603.00
1070.53	2616.00
1071.24	2629.00
1071.95	2602.00
1072.67	2623.00
1073.38	4506.00
1074.09	4425.00
1074.80	4355.00
1075.52	4285.00
1076.23	4202.00
1076.94	4116.00
1077.65	2361.00
1078.37	2367.00
1079.08	2362.00
1079.79	2370.00
