300.47	2623.00
301.26	2609.00
302.04	2624.00
302.82	2613.00
303.60	2622.00
304.38	2618.00
305.17	2603.00
305.95	2623.00
306.73	2616.00
307.51	2599.00
308.29	2620.00
309.08	2611.00
309.86	2607.00
310.64	2613.00
311.42	2606.00
312.20	2618.00
312.98	2621.00
313.76	2598.00
314.55	2627.00
315.33	2615.00
316.11	2598.00
316.89	2623.00
317.67	2611.00
318.45	2611.00
319.23	2616.00
320.01	2600.00
320.79	2618.00
321.57	2617.00
322.35	2596.00
323.13	2618.00
323.91	2615.00
324.69	2606.00
325.47	2615.00
326.25	2601.00
327.03	2615.00
327.81	2617.00
328.59	2595.00
329.37	2622.00
330.15	2615.00
330.93	2600.00
331.71	2621.00
332.49	2610.00
333.27	2612.00
334.05	2616.00
334.83	2602.00
335.61	2620.00
336.39	2618.00
337.17	2601.00
337.95	2627.00
338.73	2619.00
339.51	2603.00
340.29	2624.00
341.07	2611.00
341.84	2627.00
342.62	2625.00
343.40	2613.00
344.18	2632.00
344.96	2631.00
345.74	2618.00
346.52	2630.00
347.29	2630.00
348.07	2628.00
348.85	2640.00
349.63	2624.00
350.41	2644.00
351.18	2643.00
351.96	2631.00
352.74	2657.00
353.52	2654.00
354.30	2639.00
355.07	2660.00
355.85	2654.00
356.63	2663.00
357.41	2673.00
358.18	2657.00
358.96	2682.00
359.74	2686.00
360.52	2669.00
361.29	2694.00
362.07	2690.00
362.85	2692.00
363.62	2707.00
364.40	2697.00
365.18	2718.00
365.95	2718.00
366.73	2709.00
367.51	2738.00
368.28	2735.00
369.06	2728.00
369.84	2755.00
370.61	2754.00
371.39	2762.00
372.17	2780.00
372.94	2770.00
373.72	2794.00
374.49	2803.00
375.27	2794.00
376.05	2826.00
376.82	2825.00
377.60	2827.00
378.37	2854.00
379.15	2851.00
379.92	2868.00
380.70	2888.00
381.47	2882.00
382.25	2921.00
383.02	2917.00
383.80	2917.00
384.58	2953.00
385.35	2967.00
386.13	2965.00
386.90	2989.00
387.67	2996.00
388.45	3027.00
389.22	3046.00
390.00	3042.00
390.77	3074.00
391.55	3078.00
392.32	3088.00
393.10	3128.00
393.87	3129.00
394.65	3154.00
395.42	3170.00
396.19	3179.00
396.97	3209.00
397.74	3221.00
398.52	3225.00
399.29	3274.00
400.06	3281.00
400.84	3316.00
401.61	3330.00
402.38	3344.00
403.16	3362.00
403.93	3383.00
404.70	3381.00
405.48	3434.00
406.25	3447.00
407.02	3458.00
407.80	3502.00
408.57	3521.00
409.34	3528.00
410.12	3544.00
410.89	3571.00
411.66	3610.00
412.43	3630.00
413.21	3627.00
413.98	3679.00
414.75	3714.00
415.52	3720.00
416.30	3746.00
417.07	3771.00
417.84	3794.00
418.61	3832.00
419.39	3822.00
420.16	3874.00
420.93	3904.00
421.70	3917.00
422.47	3953.00
423.24	3982.00
424.02	4011.00
424.79	4052.00
425.56	4074.00
426.33	4122.00
427.10	4147.00
427.87	4167.00
428.64	4219.00
429.42	4255.00
430.19	4284.00
430.96	4321.00
431.73	4346.00
432.50	4384.00
433.27	4437.00
434.04	4452.00
434.81	4518.00
435.58	4553.00
436.35	4590.00
437.12	4663.00
437.89	4696.00
438.67	4722.00
439.44	4774.00
440.21	4835.00
440.98	4880.00
441.75	4930.00
442.52	4967.00
443.29	5029.00
444.06	5064.00
444.83	5103.00
445.60	5187.00
446.37	5223.00
447.13	5281.00
447.90	5344.00
448.67	5391.00
449.44	5495.00
450.21	5522.00
450.98	5561.00
451.75	5649.00
452.52	5686.00
453.29	5768.00
454.06	5846.00
454.83	5908.00
455.60	5970.00
456.37	6033.00
457.13	6110.00
457.90	6212.00
458.67	6267.00
459.44	6317.00
460.21	6402.00
460.98	6495.00
461.75	6539.00
462.51	6649.00
463.28	6725.00
464.05	6794.00
464.82	6887.00
465.59	6931.00
466.35	7069.00
467.12	7139.00
467.89	7216.00
468.66	7307.00
469.43	7387.00
470.19	7508.00
470.96	7547.00
471.73	7651.00
472.50	7769.00
473.26	7858.00
474.03	7937.00
474.80	8039.00
475.56	8161.00
476.33	8217.00
477.10	8317.00
477.87	8419.00
478.63	8523.00
479.40	8625.00
480.17	8706.00
480.93	8842.00
481.70	8938.00
482.47	9028.00
483.23	9134.00
484.00	9261.00
484.76	9406.00
485.53	9524.00
486.30	9612.00
487.06	9743.00
487.83	9863.00
488.60	9959.00
489.36	10073.00
490.13	10196.00
490.89	10283.00
491.66	10438.00
492.42	10508.00
493.19	10676.00
493.96	10799.00
494.72	10874.00
495.49	11034.00
496.25	11162.00
497.02	11290.00
497.78	11445.00
498.55	11550.00
499.31	11666.00
500.08	11803.00
500.84	11915.00
501.61	12057.00
502.37	12134.00
503.14	12280.00
503.90	12475.00
504.67	12590.00
505.43	12756.00
506.20	12910.00
506.96	13019.00
507.72	13181.00
508.49	13346.00
509.25	13486.00
510.02	13589.00
510.78	13755.00
511.54	13832.00
512.31	14082.00
513.07	14163.00
513.84	14323.00
514.60	14500.00
515.36	14618.00
516.13	14766.00
516.89	14882.00
517.65	14999.00
518.42	15048.00
519.18	15256.00
519.94	15439.00
520.71	15546.00
521.47	15741.00
522.23	15880.00
523.00	16032.00
523.76	16218.00
524.52	16396.00
525.28	16534.00
526.05	16674.00
526.81	16885.00
527.57	17000.00
528.33	17171.00
529.10	17305.00
529.86	17450.00
530.62	17647.00
531.38	17799.00
532.15	17942.00
532.91	18093.00
533.67	18258.00
534.43	18437.00
535.19	18508.00
535.96	18752.00
536.72	18863.00
537.48	19040.00
538.24	19148.00
539.00	19394.00
539.76	19555.00
540.53	19701.00
541.29	19906.00
542.05	20082.00
542.81	20276.00
543.57	20469.00
544.33	20664.00
545.09	20819.00
545.85	21003.00
546.61	21149.00
547.38	21308.00
548.14	21454.00
548.90	21614.00
549.66	21835.00
550.42	21966.00
551.18	22134.00
551.94	22286.00
552.70	22434.00
553.46	22646.00
554.22	22809.00
554.98	23013.00
555.74	23116.00
556.50	23268.00
557.26	23412.00
558.02	23630.00
558.78	23870.00
559.54	23995.00
560.30	24162.00
561.06	24296.00
561.82	24494.00
562.58	24699.00
563.34	25031.00
564.10	25055.00
564.86	25247.00
565.61	25436.00
566.37	25629.00
567.13	25913.00
567.89	26089.00
568.65	26214.00
569.41	26407.00
570.17	26637.00
570.93	26839.00
571.69	27020.00
572.44	27173.00
573.20	27346.00
573.96	27569.00
574.72	27657.00
575.48	27801.00
576.24	27936.00
576.99	28032.00
577.75	28216.00
578.51	28359.00
579.27	28608.00
580.03	28820.00
580.78	29032.00
581.54	29190.00
582.30	29400.00
583.06	29569.00
583.82	29674.00
584.57	29807.00
585.33	30032.00
586.09	30178.00
586.84	30234.00
587.60	30325.00
588.36	30566.00
589.12	30795.00
589.87	30987.00
590.63	31077.00
591.39	31322.00
592.14	31372.00
592.90	31524.00
593.66	31732.00
594.41	32037.00
595.17	32150.00
595.93	32265.00
596.68	32412.00
597.44	32548.00
598.20	32830.00
598.95	33012.00
599.71	33203.00
600.46	33277.00
601.22	33374.00
601.98	33560.00
602.73	33843.00
603.49	34067.00
604.24	34304.00
605.00	34483.00
605.76	34603.00
606.51	34814.00
607.27	35015.00
608.02	35214.00
608.78	35326.00
609.53	35532.00
610.29	35727.00
611.04	35872.00
611.80	36085.00
612.55	36281.00
613.31	36409.00
614.06	36658.00
614.82	36924.00
615.57	37083.00
616.33	37258.00
617.08	37328.00
617.84	37390.00
618.59	37624.00
619.35	37532.00
620.10	37593.00
620.85	37713.00
621.61	37693.00
622.36	37760.00
623.12	37839.00
623.87	37908.00
624.62	38138.00
625.38	38299.00
626.13	38416.00
626.89	38540.00
627.64	38735.00
628.39	38846.00
629.15	38853.00
629.90	38856.00
630.65	38910.00
631.41	38879.00
632.16	38835.00
632.91	38790.00
633.67	38764.00
634.42	38798.00
635.17	39041.00
635.92	39365.00
636.68	39748.00
637.43	40209.00
638.18	40693.00
638.94	41046.00
639.69	41490.00
640.44	41885.00
641.19	42156.00
641.95	42532.00
642.70	42860.00
643.45	43027.00
644.20	43324.00
644.95	43370.00
645.71	43561.00
646.46	43534.00
647.21	43760.00
647.96	43918.00
648.71	43951.00
649.47	44125.00
650.22	44320.00
650.97	44525.00
651.72	44551.00
652.47	44630.00
653.22	44762.00
653.97	44838.00
654.73	44937.00
655.48	45059.00
656.23	45339.00
656.98	45499.00
657.73	45537.00
658.48	45598.00
659.23	45633.00
659.98	45846.00
660.73	45856.00
661.48	46025.00
662.23	46163.00
662.99	46142.00
663.74	46019.00
664.49	46196.00
665.24	46595.00
665.99	46951.00
666.74	47093.00
667.49	47134.00
668.24	47209.00
668.99	47401.00
669.74	47636.00
670.49	47799.00
671.24	48034.00
671.99	48218.00
672.74	48240.00
673.48	48338.00
674.23	48387.00
674.98	48368.00
675.73	48475.00
676.48	48645.00
677.23	48835.00
677.98	48845.00
678.73	48928.00
679.48	49062.00
680.23	49060.00
680.98	48996.00
681.73	49008.00
682.47	49040.00
683.22	48909.00
683.97	48921.00
684.72	49006.00
685.47	48986.00
686.22	49045.00
686.97	49266.00
687.71	49451.00
688.46	49477.00
689.21	49385.00
689.96	49413.00
690.71	49513.00
691.45	49544.00
692.20	49659.00
692.95	49872.00
693.70	49888.00
694.44	50109.00
695.19	50249.00
695.94	50356.00
696.69	50392.00
697.43	50475.00
698.18	50450.00
698.93	50569.00
699.68	50479.00
700.42	50494.00
701.17	50483.00
701.92	50423.00
702.66	50461.00
703.41	50462.00
704.16	50513.00
704.90	50531.00
705.65	50505.00
706.40	50571.00
707.14	50729.00
707.89	50766.00
708.64	50725.00
709.38	50711.00
710.13	50714.00
710.88	50819.00
711.62	50733.00
712.37	50812.00
713.11	50717.00
713.86	50740.00
714.61	50681.00
715.35	50716.00
716.10	50662.00
716.84	50466.00
717.59	50446.00
718.33	50498.00
719.08	50473.00
719.83	50500.00
720.57	50417.00
721.32	50338.00
722.06	50299.00
722.81	50249.00
723.55	50183.00
724.30	50120.00
725.04	50066.00
725.79	49935.00
726.53	49947.00
727.28	49860.00
728.02	49923.00
728.76	49922.00
729.51	50088.00
730.25	50020.00
731.00	49926.00
731.74	50027.00
732.49	50013.00
733.23	49826.00
733.97	49655.00
734.72	49623.00
735.46	49498.00
736.21	49488.00
736.95	49459.00
737.69	49440.00
738.44	49456.00
739.18	49720.00
739.92	49971.00
740.67	50172.00
741.41	50331.00
742.15	50459.00
742.90	50579.00
743.64	50693.00
744.38	50752.00
745.13	50708.00
745.87	50610.00
746.61	50624.00
747.36	50568.00
748.10	50351.00
748.84	50130.00
749.58	50026.00
750.33	49834.00
751.07	49793.00
751.81	49779.00
752.55	49655.00
753.30	49408.00
754.04	49522.00
754.78	49415.00
755.52	49462.00
756.27	49380.00
757.01	49264.00
757.75	49283.00
758.49	49424.00
759.23	49285.00
759.97	49216.00
760.72	49077.00
761.46	49096.00
762.20	49113.00
762.94	49202.00
763.68	49018.00
764.42	48932.00
765.16	48690.00
765.91	48730.00
766.65	48720.00
767.39	48600.00
768.13	48568.00
768.87	48521.00
769.61	48412.00
770.35	48381.00
771.09	48223.00
771.83	48120.00
772.57	48129.00
773.31	48316.00
774.05	48327.00
774.80	48474.00
775.54	48481.00
776.28	48440.00
777.02	48248.00
777.76	47920.00
778.50	47690.00
779.24	47632.00
779.98	47307.00
780.72	47046.00
781.46	46893.00
782.20	46876.00
782.93	47031.00
783.67	46884.00
784.41	46662.00
785.15	46583.00
785.89	46384.00
786.63	46282.00
787.37	46076.00
788.11	46001.00
788.85	45951.00
789.59	45799.00
790.33	45909.00
791.07	45971.00
791.81	45967.00
792.54	45773.00
793.28	45588.00
794.02	45413.00
794.76	45093.00
795.50	44693.00
796.24	44359.00
796.97	44114.00
797.71	43786.00
798.45	43740.00
799.19	43654.00
799.93	43636.00
800.67	43590.00
801.40	43641.00
802.14	43626.00
802.88	43903.00
803.62	43944.00
804.35	43887.00
805.09	43787.00
805.83	43580.00
806.57	43458.00
807.30	43461.00
808.04	43453.00
808.78	43259.00
809.52	42874.00
810.25	42537.00
810.99	42438.00
811.73	42390.00
812.46	42198.00
813.20	42243.00
813.94	42121.00
814.68	42010.00
815.41	42034.00
816.15	42117.00
816.88	42089.00
817.62	41864.00
818.36	41634.00
819.09	41489.00
819.83	41249.00
820.57	41299.00
821.30	41167.00
822.04	41114.00
822.77	40859.00
823.51	40635.00
824.25	40747.00
824.98	40698.00
825.72	40650.00
826.45	40621.00
827.19	40607.00
827.92	40349.00
828.66	40208.00
829.40	40104.00
830.13	40002.00
830.87	39966.00
831.60	39846.00
832.34	39800.00
833.07	39696.00
833.81	39607.00
834.54	39612.00
835.28	39682.00
836.01	39599.00
836.75	39522.00
837.48	39392.00
838.22	39255.00
838.95	39175.00
839.68	39185.00
840.42	39171.00
841.15	38939.00
841.89	38800.00
842.62	38542.00
843.36	38174.00
844.09	38093.00
844.82	38119.00
845.56	37949.00
846.29	37694.00
847.02	37587.00
847.76	37364.00
848.49	37434.00
849.23	37557.00
849.96	37659.00
850.69	37755.00
851.43	37523.00
852.16	37311.00
852.89	37182.00
853.63	37032.00
854.36	37062.00
855.09	37173.00
855.82	37122.00
856.56	37009.00
857.29	36689.00
858.02	36523.00
858.76	36324.00
859.49	36251.00
860.22	36259.00
860.95	36176.00
861.69	35965.00
862.42	35869.00
863.15	35770.00
863.88	35775.00
864.61	35892.00
865.35	35861.00
866.08	35837.00
866.81	35545.00
867.54	35263.00
868.27	35118.00
869.01	35086.00
869.74	35035.00
870.47	35042.00
871.20	35108.00
871.93	35000.00
872.66	34959.00
873.40	34688.00
874.13	34531.00
874.86	34386.00
875.59	34235.00
876.32	34199.00
877.05	34076.00
877.78	33789.00
878.51	33514.00
879.24	33204.00
879.97	33079.00
880.71	32901.00
881.44	32774.00
882.17	32679.00
882.90	32598.00
883.63	32543.00
884.36	32741.00
885.09	32852.00
885.82	32926.00
886.55	33125.00
887.28	33143.00
888.01	33158.00
888.74	33158.00
889.47	32890.00
890.20	32588.00
890.93	32236.00
891.66	32003.00
892.39	31854.00
893.12	31873.00
893.85	31679.00
894.57	31425.00
895.30	31185.00
896.03	31037.00
896.76	30919.00
897.49	30820.00
898.22	30756.00
898.95	30641.00
899.68	30551.00
900.41	30666.00
901.14	30606.00
901.86	30639.00
902.59	30620.00
903.32	30633.00
904.05	30574.00
904.78	30375.00
905.51	30064.00
906.24	29780.00
906.96	29630.00
907.69	29412.00
908.42	29256.00
909.15	29146.00
909.88	29012.00
910.60	28932.00
911.33	28859.00
912.06	28899.00
912.79	28964.00
913.52	28885.00
914.24	28718.00
914.97	28695.00
915.70	28535.00
916.42	28409.00
917.15	28186.00
917.88	27941.00
918.61	27698.00
919.33	27470.00
920.06	27294.00
920.79	27073.00
921.51	27032.00
922.24	26894.00
922.97	26794.00
923.69	26573.00
924.42	26409.00
925.15	26113.00
925.87	25850.00
926.60	25659.00
927.33	25283.00
928.05	25046.00
928.78	24884.00
929.51	24682.00
930.23	24464.00
930.96	24265.00
931.68	24107.00
932.41	23868.00
933.14	23592.00
933.86	23285.00
934.59	22869.00
935.31	22411.00
936.04	21856.00
936.76	21385.00
937.49	20824.00
938.21	20371.00
938.94	19930.00
939.66	19451.00
940.39	19120.00
941.11	18720.00
941.84	18541.00
942.56	18327.00
943.29	18150.00
944.01	18067.00
944.74	18053.00
945.46	18002.00
946.19	18059.00
946.91	18103.00
947.64	18151.00
948.36	18219.00
949.09	18277.00
949.81	18277.00
950.53	18366.00
951.26	18497.00
951.98	18473.00
952.71	18485.00
953.43	18561.00
954.15	18688.00
954.88	18708.00
955.60	18753.00
956.33	18763.00
957.05	18777.00
957.77	18719.00
958.50	18783.00
959.22	18746.00
959.94	18725.00
960.67	18649.00
961.39	18632.00
962.11	18624.00
962.84	18656.00
963.56	18642.00
964.28	18528.00
965.00	18363.00
965.73	18211.00
966.45	18135.00
967.17	18054.00
967.89	17839.00
968.62	17739.00
969.34	17584.00
970.06	17442.00
970.78	17400.00
971.51	17289.00
972.23	17205.00
972.95	17029.00
973.67	16932.00
974.40	16825.00
975.12	16738.00
975.84	16596.00
976.56	16442.00
977.28	16308.00
978.00	16303.00
978.73	16212.00
979.45	16120.00
980.17	16007.00
980.89	15980.00
981.61	15921.00
982.33	15816.00
983.05	15781.00
983.77	15728.00
984.50	15585.00
985.22	15607.00
985.94	15605.00
986.66	15598.00
987.38	15523.00
988.10	15553.00
988.82	15515.00
989.54	15397.00
990.26	15350.00
990.98	15211.00
991.70	15036.00
992.42	14916.00
993.14	14784.00
993.86	14655.00
994.58	14442.00
995.30	14363.00
996.02	14295.00
996.74	14280.00
997.46	14197.00
998.18	14080.00
998.90	13940.00
999.62	13841.00
1000.34	13764.00
1001.06	13702.00
1001.78	13556.00
1002.50	13400.00
1003.22	13241.00
1003.94	13117.00
1004.66	12957.00
1005.38	12809.00
1006.09	12631.00
1006.81	12454.00
1007.53	12325.00
1008.25	12178.00
1008.97	12038.00
1009.69	11968.00
1010.41	11892.00
1011.13	11794.00
1011.84	11669.00
1012.56	11546.00
1013.28	11459.00
1014.00	11353.00
1014.72	11256.00
1015.44	11125.00
1016.15	10941.00
1016.87	10786.00
1017.59	10633.00
1018.31	10595.00
1019.03	10531.00
1019.74	10470.00
1020.46	10352.00
1021.18	10297.00
1021.90	10173.00
1022.61	10081.00
1023.33	9982.00
1024.05	9857.00
1024.76	9731.00
1025.48	9558.00
1026.20	9379.00
1026.92	9257.00
1027.63	9116.00
1028.35	9051.00
1029.07	8920.00
1029.78	8822.00
1030.50	8693.00
1031.22	8603.00
1031.93	8455.00
1032.65	8382.00
1033.37	8318.00
1034.08	8210.00
1034.80	8120.00
1035.52	8057.00
1036.23	8008.00
1036.95	7956.00
1037.66	7830.00
1038.38	7754.00
1039.10	7630.00
1039.81	7506.00
1040.53	7401.00
1041.24	7294.00
1041.96	7224.00
1042.67	7125.00
1043.39	7052.00
1044.10	6992.00
1044.82	6892.00
1045.54	6817.00
1046.25	6717.00
1046.97	6646.00
1047.68	6564.00
1048.40	6449.00
1049.11	6347.00
1049.83	6271.00
1050.54	6175.00
1051.26	6105.00
1051.97	6037.00
1052.68	5942.00
1053.40	5870.00
1054.11	5771.00
1054.83	5686.00
1055.54	5589.00
1056.26	5519.00
1056.97	5441.00
1057.69	5399.00
1058.40	5354.00
1059.11	5270.00
1059.83	5187.00
1060.54	5081.00
1061.25	4970.00
1061.97	4904.00
1062.68	4850.00
1063.40	4771.00
1064.11	4666.00
1064.82	4583.00
1065.54	4499.00
1066.25	2578.00
1066.96	2558.00
1067.68	2576.00
1068.39	2566.00
1069.10	2614.00
1069.82	2621.00
1070.53	2604.00
1071.24	2627.00
1071.95	2610.00
1072.67	2621.00
1073.38	4417.00
1074.09	4336.00
1074.80	4252.00
1075.52	4177.00
1076.23	4110.00
1076.94	4031.00
1077.65	2348.00
1078.37	2338.00
1079.08	2335.00
1079.79	2352.00
