300.47	2570.00
301.26	2564.00
302.04	2556.00
302.82	2564.00
303.60	2566.00
304.38	2574.00
305.17	2567.00
305.95	2554.00
306.73	2563.00
307.51	2566.00
308.29	2569.00
309.08	2565.00
309.86	2554.00
310.64	2557.00
311.42	2564.00
312.20	2574.00
312.98	2572.00
313.76	2566.00
314.55	2557.00
315.33	2571.00
316.11	2573.00
316.89	2576.00
317.67	2566.00
318.45	2562.00
319.23	2576.00
320.01	2580.00
320.79	2582.00
321.57	2578.00
322.35	2565.00
323.13	2574.00
323.91	2582.00
324.69	2586.00
325.47	2581.00
326.25	2565.00
327.03	2576.00
327.81	2578.00
328.59	2586.00
329.37	2586.00
330.15	2572.00
330.93	2577.00
331.71	2579.00
332.49	2586.00
333.27	2591.00
334.05	2579.00
334.83	2577.00
335.61	2570.00
336.39	2581.00
337.17	2586.00
337.95	2578.00
338.73	2583.00
339.51	2587.00
340.29	2594.00
341.07	2597.00
341.84	2592.00
342.62	2596.00
343.40	2584.00
344.18	2587.00
344.96	2596.00
345.74	2595.00
346.52	2599.00
347.29	2600.00
348.07	2614.00
348.85	2606.00
349.63	2597.00
350.41	2604.00
351.18	2612.00
351.96	2617.00
352.74	2619.00
353.52	2615.00
354.30	2615.00
355.07	2621.00
355.85	2625.00
356.63	2632.00
357.41	2634.00
358.18	2626.00
358.96	2631.00
359.74	2634.00
360.52	2644.00
361.29	2651.00
362.07	2661.00
362.85	2660.00
363.62	2659.00
364.40	2659.00
365.18	2672.00
365.95	2685.00
366.73	2689.00
367.51	2684.00
368.28	2690.00
369.06	2688.00
369.84	2702.00
370.61	2707.00
371.39	2717.00
372.17	2730.00
372.94	2742.00
373.72	2749.00
374.49	2745.00
375.27	2754.00
376.05	2767.00
376.82	2776.00
377.60	2779.00
378.37	2792.00
379.15	2809.00
379.92	2820.00
380.70	2833.00
381.47	2842.00
382.25	2835.00
383.02	2840.00
383.80	2869.00
384.58	2870.00
385.35	2896.00
386.13	2910.00
386.90	2928.00
387.67	2940.00
388.45	2942.00
389.22	2952.00
390.00	2968.00
390.77	2994.00
391.55	3006.00
392.32	3023.00
393.10	3026.00
393.87	3031.00
394.65	3072.00
395.42	3079.00
396.19	3104.00
396.97	3118.00
397.74	3127.00
398.52	3146.00
399.29	3161.00
400.06	3168.00
400.84	3205.00
401.61	3217.00
402.38	3237.00
403.16	3237.00
403.93	3265.00
404.70	3281.00
405.48	3310.00
406.25	3330.00
407.02	3352.00
407.80	3384.00
408.57	3386.00
409.34	3415.00
410.12	3430.00
410.89	3439.00
411.66	3465.00
412.43	3478.00
413.21	3519.00
413.98	3534.00
414.75	3551.00
415.52	3574.00
416.30	3596.00
417.07	3626.00
417.84	3628.00
418.61	3660.00
419.39	3675.00
420.16	3689.00
420.93	3738.00
421.70	3764.00
422.47	3791.00
423.24	3817.00
424.02	3832.00
424.79	3876.00
425.56	3912.00
426.33	3916.00
427.10	3944.00
427.87	3971.00
428.64	3997.00
429.42	4030.00
430.19	4057.00
430.96	4102.00
431.73	4135.00
432.50	4165.00
433.27	4199.00
434.04	4225.00
434.81	4286.00
435.58	4312.00
436.35	4341.00
437.12	4373.00
437.89	4424.00
438.67	4452.00
439.44	4516.00
440.21	4543.00
440.98	4598.00
441.75	4638.00
442.52	4651.00
443.29	4705.00
444.06	4771.00
444.83	4835.00
445.60	4868.00
446.37	4906.00
447.13	4933.00
447.90	4986.00
448.67	5035.00
449.44	5090.00
450.21	5165.00
450.98	5229.00
451.75	5293.00
452.52	5326.00
453.29	5397.00
454.06	5449.00
454.83	5476.00
455.60	5552.00
456.37	5597.00
457.13	5681.00
457.90	5745.00
458.67	5816.00
459.44	5874.00
460.21	5926.00
460.98	5981.00
461.75	6089.00
462.51	6153.00
463.28	6237.00
464.05	6281.00
464.82	6355.00
465.59	6418.00
466.35	6508.00
467.12	6553.00
467.89	6629.00
468.66	6735.00
469.43	6798.00
470.19	6909.00
470.96	6965.00
471.73	7035.00
472.50	7133.00
473.26	7181.00
474.03	7287.00
474.80	7384.00
475.56	7475.00
476.33	7535.00
477.10	7644.00
477.87	7708.00
478.63	7814.00
479.40	7891.00
480.17	7993.00
480.93	8074.00
481.70	8158.00
482.47	8251.00
483.23	8350.00
484.00	8476.00
484.76	8583.00
485.53	8637.00
486.30	8738.00
487.06	8853.00
487.83	8944.00
488.60	9040.00
489.36	9158.00
490.13	9246.00
490.89	9352.00
491.66	9411.00
492.42	9577.00
493.19	9662.00
493.96	9765.00
494.72	9906.00
495.49	9978.00
496.25	10108.00
497.02	10199.00
497.78	10347.00
498.55	10446.00
499.31	10584.00
500.08	10633.00
500.84	10766.00
501.61	10856.00
502.37	11010.00
503.14	11117.00
503.90	11239.00
504.67	11348.00
505.43	11466.00
506.20	11620.00
506.96	11751.00
507.72	11860.00
508.49	12006.00
509.25	12035.00
510.02	12217.00
510.78	12369.00
511.54	12506.00
512.31	12601.00
513.07	12731.00
513.84	12825.00
514.60	13004.00
515.36	13142.00
516.13	13224.00
516.89	13360.00
517.65	13420.00
518.42	13578.00
519.18	13704.00
519.94	13785.00
520.71	13928.00
521.47	14013.00
522.23	14198.00
523.00	14372.00
523.76	14494.00
524.52	14674.00
525.28	14770.00
526.05	14904.00
526.81	15054.00
527.57	15200.00
528.33	15333.00
529.10	15457.00
529.86	15549.00
530.62	15697.00
531.38	15891.00
532.15	16035.00
532.91	16120.00
533.67	16279.00
534.43	16375.00
535.19	16562.00
535.96	16692.00
536.72	16812.00
537.48	16944.00
538.24	17067.00
539.00	17254.00
539.76	17409.00
540.53	17538.00
541.29	17688.00
542.05	17831.00
542.81	17979.00
543.57	18145.00
544.33	18336.00
545.09	18501.00
545.85	18615.00
546.61	18710.00
547.38	18843.00
548.14	19061.00
548.90	19164.00
549.66	19357.00
550.42	19487.00
551.18	19615.00
551.94	19731.00
552.70	19945.00
553.46	20049.00
554.22	20192.00
554.98	20303.00
555.74	20387.00
556.50	20570.00
557.26	20708.00
558.02	20867.00
558.78	21072.00
559.54	21214.00
560.30	21361.00
561.06	21577.00
561.82	21653.00
562.58	21874.00
563.34	22070.00
564.10	22222.00
564.86	22239.00
565.61	22465.00
566.37	22595.00
567.13	22821.00
567.89	22987.00
568.65	23165.00
569.41	23295.00
570.17	23394.00
570.93	23646.00
571.69	23848.00
572.44	23898.00
573.20	24123.00
573.96	24242.00
574.72	24352.00
575.48	24430.00
576.24	24611.00
576.99	24703.00
577.75	24859.00
578.51	25031.00
579.27	25225.00
580.03	25370.00
580.78	25600.00
581.54	25777.00
582.30	25838.00
583.06	26007.00
583.82	26126.00
584.57	26276.00
585.33	26424.00
586.09	26566.00
586.84	26569.00
587.60	26712.00
588.36	26863.00
589.12	27046.00
589.87	27256.00
590.63	27405.00
591.39	27429.00
592.14	27591.00
592.90	27733.00
593.66	27939.00
594.41	28207.00
595.17	28328.00
595.93	28339.00
596.68	28440.00
597.44	28654.00
598.20	28740.00
598.95	28985.00
599.71	29073.00
600.46	29226.00
601.22	29365.00
601.98	29507.00
602.73	29663.00
603.49	29920.00
604.24	30060.00
605.00	30244.00
605.76	30360.00
606.51	30564.00
607.27	30706.00
608.02	30739.00
608.78	30934.00
609.53	31140.00
610.29	31286.00
611.04	31430.00
611.80	31533.00
612.55	31747.00
613.31	31923.00
614.06	32093.00
614.82	32356.00
615.57	32422.00
616.33	32499.00
617.08	32616.00
617.84	32648.00
618.59	32763.00
619.35	32746.00
620.10	32760.00
620.85	32739.00
621.61	32821.00
622.36	32786.00
623.12	32838.00
623.87	33002.00
624.62	33162.00
625.38	33226.00
626.13	33257.00
626.89	33426.00
627.64	33622.00
628.39	33593.00
629.15	33660.00
629.90	33618.00
630.65	33645.00
631.41	33581.00
632.16	33508.00
632.91	33374.00
633.67	33432.00
634.42	33453.00
635.17	33665.00
635.92	34004.00
636.68	34379.00
637.43	34800.00
638.18	35135.00
638.94	35568.00
639.69	35921.00
640.44	36268.00
641.19	36582.00
641.95	36968.00
642.70	37220.00
643.45	37417.00
644.20	37597.00
644.95	37664.00
645.71	37798.00
646.46	37872.00
647.21	37939.00
647.96	38043.00
648.71	38188.00
649.47	38257.00
650.22	38352.00
650.97	38511.00
651.72	38565.00
652.47	38637.00
653.22	38737.00
653.97	38727.00
654.73	38811.00
655.48	38765.00
656.23	39045.00
656.98	39144.00
657.73	39313.00
658.48	39358.00
659.23	39428.00
659.98	39422.00
660.73	39522.00
661.48	39656.00
662.23	39783.00
662.99	39663.00
663.74	39568.00
664.49	39739.00
665.24	40046.00
665.99	40310.00
666.74	40444.00
667.49	40503.00
668.24	40570.00
668.99	40579.00
669.74	40838.00
670.49	41013.00
671.24	41233.00
671.99	41403.00
672.74	41370.00
673.48	41404.00
674.23	41466.00
674.98	41528.00
675.73	41501.00
676.48	41723.00
677.23	41752.00
677.98	41803.00
678.73	41834.00
679.48	41974.00
680.23	41976.00
680.98	41917.00
681.73	41947.00
682.47	41898.00
683.22	41875.00
683.97	41858.00
684.72	41870.00
685.47	41833.00
686.22	41903.00
686.97	42057.00
687.71	42083.00
688.46	42099.00
689.21	42018.00
689.96	42053.00
690.71	42081.00
691.45	42162.00
692.20	42233.00
692.95	42262.00
693.70	42377.00
694.44	42517.00
695.19	42584.00
695.94	42696.00
696.69	42781.00
697.43	42764.00
698.18	42685.00
698.93	42759.00
699.68	42713.00
700.42	42653.00
701.17	42476.00
701.92	42414.00
702.66	42441.00
703.41	42522.00
704.16	42521.00
704.90	42454.00
705.65	42442.00
706.40	42425.00
707.14	42495.00
707.89	42584.00
708.64	42610.00
709.38	42631.00
710.13	42570.00
710.88	42661.00
711.62	42475.00
712.37	42410.00
713.11	42389.00
713.86	42286.00
714.61	42365.00
715.35	42209.00
716.10	42113.00
716.84	41992.00
717.59	41908.00
718.33	42020.00
719.08	41948.00
719.83	41967.00
720.57	41872.00
721.32	41732.00
722.06	41569.00
722.81	41429.00
723.55	41363.00
724.30	41272.00
725.04	41253.00
725.79	41190.00
726.53	41110.00
727.28	40974.00
728.02	41031.00
728.76	41165.00
729.51	41059.00
730.25	41175.00
731.00	41077.00
731.74	41021.00
732.49	40977.00
733.23	40797.00
733.97	40757.00
734.72	40629.00
735.46	40492.00
736.21	40418.00
736.95	40357.00
737.69	40443.00
738.44	40537.00
739.18	40713.00
739.92	40835.00
740.67	41003.00
741.41	41147.00
742.15	41301.00
742.90	41519.00
743.64	41523.00
744.38	41430.00
745.13	41359.00
745.87	41313.00
746.61	41250.00
747.36	41066.00
748.10	40885.00
748.84	40660.00
749.58	40518.00
750.33	40413.00
751.07	40286.00
751.81	40040.00
752.55	39927.00
753.30	39956.00
754.04	39777.00
754.78	39790.00
755.52	39677.00
756.27	39474.00
757.01	39473.00
757.75	39441.00
758.49	39453.00
759.23	39470.00
759.97	39278.00
760.72	39166.00
761.46	39175.00
762.20	39158.00
762.94	39192.00
763.68	39077.00
764.42	38925.00
765.16	38899.00
765.91	38886.00
766.65	38794.00
767.39	38705.00
768.13	38718.00
768.87	38574.00
769.61	38548.00
770.35	38314.00
771.09	38266.00
771.83	38166.00
772.57	38112.00
773.31	38089.00
774.05	38216.00
774.80	38281.00
775.54	38202.00
776.28	38001.00
777.02	37831.00
777.76	37701.00
778.50	37416.00
779.24	37136.00
779.98	36968.00
780.72	36713.00
781.46	36557.00
782.20	36564.00
782.93	36476.00
783.67	36434.00
784.41	36341.00
785.15	36145.00
785.89	36023.00
786.63	35819.00
787.37	35666.00
788.11	35577.00
788.85	35395.00
789.59	35309.00
790.33	35451.00
791.07	35404.00
791.81	35128.00
792.54	35040.00
793.28	34825.00
794.02	34624.00
794.76	34275.00
795.50	34014.00
796.24	33761.00
796.97	33468.00
797.71	33154.00
798.45	32979.00
799.19	32950.00
799.93	32911.00
800.67	32806.00
801.40	32694.00
802.14	32814.00
802.88	32857.00
803.62	32922.00
804.35	32863.00
805.09	32710.00
805.83	32540.00
806.57	32392.00
807.30	32267.00
808.04	32281.00
808.78	31993.00
809.52	31627.00
810.25	31405.00
810.99	31252.00
811.73	31134.00
812.46	30996.00
813.20	30882.00
813.94	30776.00
814.68	30689.00
815.41	30542.00
816.15	30617.00
816.88	30587.00
817.62	30366.00
818.36	30125.00
819.09	29903.00
819.83	29748.00
820.57	29682.00
821.30	29709.00
822.04	29565.00
822.77	29424.00
823.51	29277.00
824.25	29245.00
824.98	29203.00
825.72	29231.00
826.45	29251.00
827.19	29051.00
827.92	28865.00
828.66	28706.00
829.40	28615.00
830.13	28520.00
830.87	28504.00
831.60	28327.00
832.34	28224.00
833.07	28068.00
833.81	28095.00
834.54	28037.00
835.28	28048.00
836.01	28005.00
836.75	27793.00
837.48	27572.00
838.22	27277.00
838.95	27266.00
839.68	27136.00
840.42	27151.00
841.15	26960.00
841.89	26778.00
842.62	26516.00
843.36	26306.00
844.09	26138.00
844.82	26142.00
845.56	26005.00
846.29	25771.00
847.02	25523.00
847.76	25429.00
848.49	25342.00
849.23	25460.00
849.96	25554.00
850.69	25614.00
851.43	25445.00
852.16	25238.00
852.89	25044.00
853.63	24995.00
854.36	24947.00
855.09	24938.00
855.82	24867.00
856.56	24696.00
857.29	24385.00
858.02	24275.00
858.76	24035.00
859.49	24029.00
860.22	23849.00
860.95	23837.00
861.69	23797.00
862.42	23581.00
863.15	23532.00
863.88	23511.00
864.61	23659.00
865.35	23561.00
866.08	23470.00
866.81	23240.00
867.54	22973.00
868.27	22810.00
869.01	22815.00
869.74	22773.00
870.47	22736.00
871.20	22739.00
871.93	22644.00
872.66	22555.00
873.40	22330.00
874.13	22211.00
874.86	22024.00
875.59	21891.00
876.32	21808.00
877.05	21560.00
877.78	21373.00
878.51	21110.00
879.24	20914.00
879.97	20772.00
880.71	20632.00
881.44	20514.00
882.17	20381.00
882.90	20399.00
883.63	20312.00
884.36	20346.00
885.09	20437.00
885.82	20454.00
886.55	20511.00
887.28	20557.00
888.01	20492.00
888.74	20414.00
889.47	20191.00
890.20	19915.00
890.93	19639.00
891.66	19465.00
892.39	19357.00
893.12	19247.00
893.85	19162.00
894.57	18939.00
895.30	18674.00
896.03	18618.00
896.76	18408.00
897.49	18328.00
898.22	18244.00
898.95	18222.00
899.68	18193.00
900.41	18246.00
901.14	18248.00
901.86	18205.00
902.59	18129.00
903.32	18094.00
904.05	18036.00
904.78	17861.00
905.51	17584.00
906.24	17355.00
906.96	17204.00
907.69	17008.00
908.42	16911.00
909.15	16785.00
909.88	16701.00
910.60	16581.00
911.33	16564.00
912.06	16567.00
912.79	16553.00
913.52	16456.00
914.24	16437.00
914.97	16294.00
915.70	16091.00
916.42	15959.00
917.15	15843.00
917.88	15690.00
918.61	15433.00
919.33	15280.00
920.06	15156.00
920.79	15081.00
921.51	14912.00
922.24	14946.00
922.97	14778.00
923.69	14622.00
924.42	14549.00
925.15	14361.00
925.87	14102.00
926.60	13927.00
927.33	13723.00
928.05	13535.00
928.78	13353.00
929.51	13224.00
930.23	13103.00
930.96	12954.00
931.68	12833.00
932.41	12623.00
933.14	12475.00
933.86	12246.00
934.59	11960.00
935.31	11705.00
936.04	11388.00
936.76	11074.00
937.49	10736.00
938.21	10479.00
938.94	10226.00
939.66	9986.00
940.39	9747.00
941.11	9571.00
941.84	9410.00
942.56	9316.00
943.29	9221.00
944.01	9186.00
944.74	9133.00
945.46	9118.00
946.19	9130.00
946.91	9156.00
947.64	9137.00
948.36	9165.00
949.09	9144.00
949.81	9203.00
950.53	9197.00
951.26	9233.00
951.98	9222.00
952.71	9238.00
953.43	9241.00
954.15	9279.00
954.88	9285.00
955.60	9303.00
956.33	9301.00
957.05	9318.00
957.77	9336.00
958.50	9299.00
959.22	9314.00
959.94	9281.00
960.67	9204.00
961.39	9194.00
962.11	9171.00
962.84	9184.00
963.56	9129.00
964.28	9095.00
965.00	9005.00
965.73	8944.00
966.45	8864.00
967.17	8791.00
967.89	8717.00
968.62	8629.00
969.34	8543.00
970.06	8487.00
970.78	8438.00
971.51	8406.00
972.23	8359.00
972.95	8289.00
973.67	8200.00
974.40	8129.00
975.12	8093.00
975.84	8010.00
976.56	7939.00
977.28	7861.00
978.00	7826.00
978.73	7775.00
979.45	7758.00
980.17	7706.00
980.89	7661.00
981.61	7629.00
982.33	7592.00
983.05	7580.00
983.77	7537.00
984.50	7499.00
985.22	7470.00
985.94	7447.00
986.66	7419.00
987.38	7400.00
988.10	7393.00
988.82	7392.00
989.54	7348.00
990.26	7288.00
990.98	7242.00
991.70	7161.00
992.42	7079.00
993.14	7023.00
993.86	6941.00
994.58	6883.00
995.30	6846.00
996.02	6790.00
996.74	6773.00
997.46	6741.00
998.18	6695.00
998.90	6653.00
999.62	6606.00
1000.34	6544.00
1001.06	6524.00
1001.78	6461.00
1002.50	6395.00
1003.22	6315.00
1003.94	6245.00
1004.66	6163.00
1005.38	6113.00
1006.09	6045.00
1006.81	5986.00
1007.53	5913.00
1008.25	5830.00
1008.97	5787.00
1009.69	5762.00
1010.41	5710.00
1011.13	5666.00
1011.84	5586.00
1012.56	5522.00
1013.28	5492.00
1014.00	5458.00
1014.72	5400.00
1015.44	5344.00
1016.15	5288.00
1016.87	5218.00
1017.59	5161.00
1018.31	5122.00
1019.03	5099.00
1019.74	5086.00
1020.46	5057.00
1021.18	5007.00
1021.90	4961.00
1022.61	4909.00
1023.33	4888.00
1024.05	4837.00
1024.76	4776.00
1025.48	4716.00
1026.20	4645.00
1026.92	4591.00
1027.63	4542.00
1028.35	4509.00
1029.07	4465.00
1029.78	4442.00
1030.50	4392.00
1031.22	4347.00
1031.93	4285.00
1032.65	4259.00
1033.37	4224.00
1034.08	4187.00
1034.80	4151.00
1035.52	4114.00
1036.23	4108.00
1036.95	4062.00
1037.66	4030.00
1038.38	4007.00
1039.10	3965.00
1039.81	3915.00
1040.53	3873.00
1041.24	3839.00
1041.96	3809.00
1042.67	3779.00
1043.39	3749.00
1044.10	3723.00
1044.82	3688.00
1045.54	3652.00
1046.25	3625.00
1046.97	3589.00
1047.68	3557.00
1048.40	3521.00
1049.11	3482.00
1049.83	3447.00
1050.54	3425.00
1051.26	3393.00
1051.97	3365.00
1052.68	3339.00
1053.40	3309.00
1054.11	3277.00
1054.83	3240.00
1055.54	3209.00
1056.26	3182.00
1056.97	3157.00
1057.69	3127.00
1058.40	3110.00
1059.11	3089.00
1059.83	3066.00
1060.54	3020.00
1061.25	2998.00
1061.97	2967.00
1062.68	2941.00
1063.40	2916.00
1064.11	2891.00
1064.82	2859.00
1065.54	2829.00
1066.25	2524.00
1066.96	2514.00
1067.68	2508.00
1068.39	2513.00
1069.10	2565.00
1069.82	2570.00
1070.53	2569.00
1071.24	2566.00
1071.95	2555.00
1072.67	2573.00
1073.38	2797.00
1074.09	2768.00
1074.80	2746.00
1075.52	2716.00
1076.23	2687.00
1076.94	2664.00
1077.65	2094.00
1078.37	2094.00
1079.08	2092.00
1079.79	2097.00
