300.47	2603.00
301.26	2597.00
302.04	2614.00
302.82	2620.00
303.60	2617.00
304.38	2622.00
305.17	2614.00
305.95	2619.00
306.73	2629.00
307.51	2632.00
308.29	2626.00
309.08	2613.00
309.86	2618.00
310.64	2627.00
311.42	2640.00
312.20	2644.00
312.98	2634.00
313.76	2633.00
314.55	2649.00
315.33	2667.00
316.11	2662.00
316.89	2654.00
317.67	2677.00
318.45	2675.00
319.23	2692.00
320.01	2698.00
320.79	2685.00
321.57	2703.00
322.35	2707.00
323.13	2709.00
323.91	2705.00
324.69	2692.00
325.47	2696.00
326.25	2698.00
327.03	2709.00
327.81	2706.00
328.59	2703.00
329.37	2714.00
330.15	2709.00
330.93	2708.00
331.71	2721.00
332.49	2696.00
333.27	2706.00
334.05	2719.00
334.83	2718.00
335.61	2728.00
336.39	2709.00
337.17	2725.00
337.95	2733.00
338.73	2722.00
339.51	2739.00
340.29	2722.00
341.07	2723.00
341.84	2746.00
342.62	2752.00
343.40	2767.00
344.18	2749.00
344.96	2759.00
345.74	2754.00
346.52	2769.00
347.29	2776.00
348.07	2753.00
348.85	2767.00
349.63	2752.00
350.41	2777.00
351.18	2791.00
351.96	2768.00
352.74	2772.00
353.52	2771.00
354.30	2779.00
355.07	2802.00
355.85	2784.00
356.63	2791.00
357.41	2811.00
358.18	2802.00
358.96	2822.00
359.74	2824.00
360.52	2812.00
361.29	2831.00
362.07	2822.00
362.85	2841.00
363.62	2830.00
364.40	2833.00
365.18	2846.00
365.95	2851.00
366.73	2864.00
367.51	2856.00
368.28	2865.00
369.06	2870.00
369.84	2874.00
370.61	2888.00
371.39	2884.00
372.17	2884.00
372.94	2897.00
373.72	2908.00
374.49	2924.00
375.27	2914.00
376.05	2914.00
376.82	2944.00
377.60	2942.00
378.37	2965.00
379.15	2971.00
379.92	2967.00
380.70	2979.00
381.47	2988.00
382.25	3007.00
383.02	3026.00
383.80	3021.00
384.58	3042.00
385.35	3058.00
386.13	3082.00
386.90	3088.00
387.67	3099.00
388.45	3106.00
389.22	3116.00
390.00	3154.00
390.77	3168.00
391.55	3169.00
392.32	3180.00
393.10	3208.00
393.87	3222.00
394.65	3243.00
395.42	3255.00
396.19	3247.00
396.97	3270.00
397.74	3290.00
398.52	3318.00
399.29	3332.00
400.06	3367.00
400.84	3374.00
401.61	3389.00
402.38	3401.00
403.16	3406.00
403.93	3467.00
404.70	3465.00
405.48	3483.00
406.25	3494.00
407.02	3522.00
407.80	3552.00
408.57	3563.00
409.34	3577.00
410.12	3591.00
410.89	3619.00
411.66	3642.00
412.43	3688.00
413.21	3690.00
413.98	3716.00
414.75	3712.00
415.52	3754.00
416.30	3784.00
417.07	3795.00
417.84	3845.00
418.61	3844.00
419.39	3880.00
420.16	3900.00
420.93	3918.00
421.70	3930.00
422.47	3969.00
423.24	4000.00
424.02	4022.00
424.79	4048.00
425.56	4092.00
426.33	4096.00
427.10	4143.00
427.87	4180.00
428.64	4188.00
429.42	4215.00
430.19	4250.00
430.96	4292.00
431.73	4324.00
432.50	4374.00
433.27	4410.00
434.04	4447.00
434.81	4490.00
435.58	4508.00
436.35	4544.00
437.12	4599.00
437.89	4639.00
438.67	4689.00
439.44	4712.00
440.21	4748.00
440.98	4800.00
441.75	4845.00
442.52	4891.00
443.29	4917.00
444.06	4981.00
444.83	5072.00
445.60	5106.00
446.37	5147.00
447.13	5186.00
447.90	5214.00
448.67	5307.00
449.44	5362.00
450.21	5425.00
450.98	5450.00
451.75	5508.00
452.52	5567.00
453.29	5667.00
454.06	5724.00
454.83	5760.00
455.60	5825.00
456.37	5869.00
457.13	5967.00
457.90	6045.00
458.67	6134.00
459.44	6161.00
460.21	6224.00
460.98	6308.00
461.75	6395.00
462.51	6453.00
463.28	6521.00
464.05	6602.00
464.82	6667.00
465.59	6748.00
466.35	6828.00
467.12	6929.00
467.89	7000.00
468.66	7075.00
469.43	7150.00
470.19	7236.00
470.96	7321.00
471.73	7382.00
472.50	7493.00
473.26	7616.00
474.03	7674.00
474.80	7783.00
475.56	7849.00
476.33	7933.00
477.10	8029.00
477.87	8110.00
478.63	8229.00
479.40	8342.00
480.17	8444.00
480.93	8523.00
481.70	8614.00
482.47	8719.00
483.23	8829.00
484.00	8944.00
484.76	9050.00
485.53	9148.00
486.30	9265.00
487.06	9351.00
487.83	9484.00
488.60	9578.00
489.36	9703.00
490.13	9773.00
490.89	9875.00
491.66	10006.00
492.42	10122.00
493.19	10237.00
493.96	10319.00
494.72	10478.00
495.49	10597.00
496.25	10714.00
497.02	10813.00
497.78	10924.00
498.55	11038.00
499.31	11175.00
500.08	11287.00
500.84	11466.00
501.61	11527.00
502.37	11666.00
503.14	11724.00
503.90	11902.00
504.67	12023.00
505.43	12215.00
506.20	12341.00
506.96	12469.00
507.72	12612.00
508.49	12714.00
509.25	12857.00
510.02	12993.00
510.78	13130.00
511.54	13260.00
512.31	13419.00
513.07	13558.00
513.84	13649.00
514.60	13822.00
515.36	13955.00
516.13	14081.00
516.89	14222.00
517.65	14277.00
518.42	14430.00
519.18	14555.00
519.94	14662.00
520.71	14823.00
521.47	15000.00
522.23	15133.00
523.00	15287.00
523.76	15453.00
524.52	15612.00
525.28	15782.00
526.05	15863.00
526.81	16030.00
527.57	16231.00
528.33	16359.00
529.10	16498.00
529.86	16588.00
530.62	16760.00
531.38	16930.00
532.15	17041.00
532.91	17201.00
533.67	17338.00
534.43	17483.00
535.19	17666.00
535.96	17816.00
536.72	17909.00
537.48	18013.00
538.24	18142.00
539.00	18395.00
539.76	18545.00
540.53	18753.00
541.29	18941.00
542.05	19013.00
542.81	19196.00
543.57	19434.00
544.33	19548.00
545.09	19754.00
545.85	19872.00
546.61	20072.00
547.38	20163.00
548.14	20310.00
548.90	20455.00
549.66	20636.00
550.42	20833.00
551.18	20975.00
551.94	21133.00
552.70	21288.00
553.46	21427.00
554.22	21557.00
554.98	21750.00
555.74	21794.00
556.50	21935.00
557.26	22110.00
558.02	22361.00
558.78	22540.00
559.54	22631.00
560.30	22794.00
561.06	22999.00
561.82	23177.00
562.58	23402.00
563.34	23526.00
564.10	23714.00
564.86	23811.00
565.61	23968.00
566.37	24152.00
567.13	24435.00
567.89	24532.00
568.65	24695.00
569.41	24890.00
570.17	25109.00
570.93	25306.00
571.69	25453.00
572.44	25566.00
573.20	25763.00
573.96	25921.00
574.72	26060.00
575.48	26177.00
576.24	26302.00
576.99	26414.00
577.75	26633.00
578.51	26756.00
579.27	26888.00
580.03	27131.00
580.78	27317.00
581.54	27603.00
582.30	27642.00
583.06	27797.00
583.82	27943.00
584.57	28146.00
585.33	28266.00
586.09	28393.00
586.84	28523.00
587.60	28604.00
588.36	28744.00
589.12	28888.00
589.87	29229.00
590.63	29322.00
591.39	29402.00
592.14	29518.00
592.90	29698.00
593.66	29898.00
594.41	30156.00
595.17	30315.00
595.93	30352.00
596.68	30444.00
597.44	30579.00
598.20	30782.00
598.95	31020.00
599.71	31186.00
600.46	31325.00
601.22	31436.00
601.98	31619.00
602.73	31841.00
603.49	32090.00
604.24	32224.00
605.00	32429.00
605.76	32563.00
606.51	32755.00
607.27	32792.00
608.02	32984.00
608.78	33130.00
609.53	33345.00
610.29	33380.00
611.04	33628.00
611.80	33779.00
612.55	33920.00
613.31	34165.00
614.06	34412.00
614.82	34464.00
615.57	34645.00
616.33	34709.00
617.08	34877.00
617.84	34958.00
618.59	35074.00
619.35	35059.00
620.10	35082.00
620.85	35133.00
621.61	35125.00
622.36	35156.00
623.12	35250.00
623.87	35289.00
624.62	35493.00
625.38	35569.00
626.13	35757.00
626.89	35965.00
627.64	35940.00
628.39	36053.00
629.15	36120.00
629.90	36124.00
630.65	36068.00
631.41	36013.00
632.16	36041.00
632.91	35940.00
633.67	35906.00
634.42	36015.00
635.17	36226.00
635.92	36523.00
636.68	36933.00
637.43	37287.00
638.18	37721.00
638.94	38102.00
639.69	38524.00
640.44	38847.00
641.19	39225.00
641.95	39582.00
642.70	39860.00
643.45	40006.00
644.20	40211.00
644.95	40399.00
645.71	40421.00
646.46	40541.00
647.21	40614.00
647.96	40742.00
648.71	40834.00
649.47	40944.00
650.22	41146.00
650.97	41281.00
651.72	41239.00
652.47	41412.00
653.22	41438.00
653.97	41502.00
654.73	41616.00
655.48	41678.00
656.23	41898.00
656.98	42024.00
657.73	42062.00
658.48	42231.00
659.23	42270.00
659.98	42246.00
660.73	42287.00
661.48	42518.00
662.23	42603.00
662.99	42643.00
663.74	42558.00
664.49	42670.00
665.24	42990.00
665.99	43203.00
666.74	43405.00
667.49	43440.00
668.24	43555.00
668.99	43573.00
669.74	43819.00
670.49	43961.00
671.24	44169.00
671.99	44389.00
672.74	44463.00
673.48	44470.00
674.23	44485.00
674.98	44497.00
675.73	44683.00
676.48	44789.00
677.23	44820.00
677.98	44909.00
678.73	44990.00
679.48	45067.00
680.23	45121.00
680.98	45101.00
681.73	45032.00
682.47	45082.00
683.22	45114.00
683.97	45112.00
684.72	45101.00
685.47	45069.00
686.22	45074.00
686.97	45192.00
687.71	45376.00
688.46	45426.00
689.21	45424.00
689.96	45279.00
690.71	45328.00
691.45	45454.00
692.20	45568.00
692.95	45523.00
693.70	45717.00
694.44	45715.00
695.19	45917.00
695.94	46008.00
696.69	46061.00
697.43	46004.00
698.18	46047.00
698.93	46182.00
699.68	46140.00
700.42	45967.00
701.17	45889.00
701.92	45844.00
702.66	45845.00
703.41	45847.00
704.16	45832.00
704.90	45855.00
705.65	45901.00
706.40	45850.00
707.14	45931.00
707.89	46006.00
708.64	45998.00
709.38	46087.00
710.13	46039.00
710.88	46059.00
711.62	45823.00
712.37	45873.00
713.11	45858.00
713.86	45842.00
714.61	45761.00
715.35	45840.00
716.10	45697.00
716.84	45491.00
717.59	45511.00
718.33	45538.00
719.08	45493.00
719.83	45422.00
720.57	45352.00
721.32	45288.00
722.06	45107.00
722.81	45011.00
723.55	44902.00
724.30	44865.00
725.04	44812.00
725.79	44757.00
726.53	44763.00
727.28	44542.00
728.02	44644.00
728.76	44714.00
729.51	44749.00
730.25	44764.00
731.00	44766.00
731.74	44673.00
732.49	44599.00
733.23	44389.00
733.97	44341.00
734.72	44283.00
735.46	44162.00
736.21	44022.00
736.95	44076.00
737.69	44041.00
738.44	44264.00
739.18	44407.00
739.92	44568.00
740.67	44656.00
741.41	44836.00
742.15	44983.00
742.90	45182.00
743.64	45236.00
744.38	45144.00
745.13	45092.00
745.87	45058.00
746.61	45032.00
747.36	44893.00
748.10	44616.00
748.84	44426.00
749.58	44235.00
750.33	44130.00
751.07	43999.00
751.81	43853.00
752.55	43745.00
753.30	43643.00
754.04	43591.00
754.78	43455.00
755.52	43376.00
756.27	43321.00
757.01	43172.00
757.75	43279.00
758.49	43332.00
759.23	43234.00
759.97	43197.00
760.72	43046.00
761.46	42904.00
762.20	42988.00
762.94	42972.00
763.68	42893.00
764.42	42667.00
765.16	42548.00
765.91	42740.00
766.65	42590.00
767.39	42516.00
768.13	42423.00
768.87	42404.00
769.61	42291.00
770.35	42274.00
771.09	42086.00
771.83	41972.00
772.57	41831.00
773.31	41908.00
774.05	42103.00
774.80	42105.00
775.54	42066.00
776.28	41813.00
777.02	41617.00
777.76	41463.00
778.50	41325.00
779.24	41060.00
779.98	40796.00
780.72	40518.00
781.46	40327.00
782.20	40357.00
782.93	40425.00
783.67	40355.00
784.41	40198.00
785.15	39954.00
785.89	39808.00
786.63	39746.00
787.37	39599.00
788.11	39433.00
788.85	39281.00
789.59	39223.00
790.33	39221.00
791.07	39238.00
791.81	39161.00
792.54	38956.00
793.28	38726.00
794.02	38438.00
794.76	38209.00
795.50	37894.00
796.24	37653.00
796.97	37281.00
797.71	37123.00
798.45	36903.00
799.19	36895.00
799.93	36723.00
800.67	36751.00
801.40	36602.00
802.14	36624.00
802.88	36782.00
803.62	36866.00
804.35	36705.00
805.09	36597.00
805.83	36373.00
806.57	36273.00
807.30	36233.00
808.04	36116.00
808.78	35945.00
809.52	35589.00
810.25	35354.00
810.99	35084.00
811.73	34985.00
812.46	34878.00
813.20	34789.00
813.94	34693.00
814.68	34465.00
815.41	34407.00
816.15	34464.00
816.88	34365.00
817.62	34207.00
818.36	34013.00
819.09	33718.00
819.83	33613.00
820.57	33638.00
821.30	33547.00
822.04	33458.00
822.77	33294.00
823.51	33095.00
824.25	33123.00
824.98	33001.00
825.72	33022.00
826.45	32972.00
827.19	32816.00
827.92	32657.00
828.66	32522.00
829.40	32505.00
830.13	32330.00
830.87	32276.00
831.60	32221.00
832.34	32045.00
833.07	31831.00
833.81	31841.00
834.54	31762.00
835.28	31837.00
836.01	31782.00
836.75	31665.00
837.48	31295.00
838.22	31144.00
838.95	30932.00
839.68	30943.00
840.42	30899.00
841.15	30682.00
841.89	30549.00
842.62	30236.00
843.36	30108.00
844.09	29900.00
844.82	29861.00
845.56	29777.00
846.29	29512.00
847.02	29292.00
847.76	29101.00
848.49	29028.00
849.23	29075.00
849.96	29214.00
850.69	29253.00
851.43	29155.00
852.16	28935.00
852.89	28729.00
853.63	28611.00
854.36	28578.00
855.09	28612.00
855.82	28495.00
856.56	28330.00
857.29	28040.00
858.02	27797.00
858.76	27672.00
859.49	27600.00
860.22	27515.00
860.95	27414.00
861.69	27330.00
862.42	27174.00
863.15	27066.00
863.88	27214.00
864.61	27201.00
865.35	27203.00
866.08	27030.00
866.81	26763.00
867.54	26543.00
868.27	26368.00
869.01	26306.00
869.74	26316.00
870.47	26298.00
871.20	26222.00
871.93	26153.00
872.66	25942.00
873.40	25816.00
874.13	25681.00
874.86	25488.00
875.59	25353.00
876.32	25200.00
877.05	25107.00
877.78	24859.00
878.51	24517.00
879.24	24229.00
879.97	24109.00
880.71	23951.00
881.44	23886.00
882.17	23762.00
882.90	23620.00
883.63	23664.00
884.36	23712.00
885.09	23763.00
885.82	23757.00
886.55	23890.00
887.28	23919.00
888.01	23807.00
888.74	23695.00
889.47	23484.00
890.20	23111.00
890.93	22816.00
891.66	22626.00
892.39	22625.00
893.12	22508.00
893.85	22293.00
894.57	22111.00
895.30	21818.00
896.03	21689.00
896.76	21569.00
897.49	21415.00
898.22	21380.00
898.95	21311.00
899.68	21277.00
900.41	21324.00
901.14	21345.00
901.86	21292.00
902.59	21209.00
903.32	21170.00
904.05	21129.00
904.78	20886.00
905.51	20628.00
906.24	20376.00
906.96	20182.00
907.69	19938.00
908.42	19859.00
909.15	19729.00
909.88	19558.00
910.60	19439.00
911.33	19423.00
912.06	19458.00
912.79	19387.00
913.52	19333.00
914.24	19252.00
914.97	19102.00
915.70	18890.00
916.42	18766.00
917.15	18610.00
917.88	18325.00
918.61	18173.00
919.33	17947.00
920.06	17843.00
920.79	17691.00
921.51	17650.00
922.24	17500.00
922.97	17357.00
923.69	17193.00
924.42	17091.00
925.15	16874.00
925.87	16695.00
926.60	16332.00
927.33	16095.00
928.05	15845.00
928.78	15724.00
929.51	15590.00
930.23	15419.00
930.96	15247.00
931.68	15028.00
932.41	14874.00
933.14	14666.00
933.86	14410.00
934.59	14114.00
935.31	13714.00
936.04	13335.00
936.76	13026.00
937.49	12606.00
938.21	12304.00
938.94	11963.00
939.66	11671.00
940.39	11408.00
941.11	11155.00
941.84	10998.00
942.56	10861.00
943.29	10737.00
944.01	10671.00
944.74	10617.00
945.46	10581.00
946.19	10605.00
946.91	10627.00
947.64	10646.00
948.36	10672.00
949.09	10688.00
949.81	10691.00
950.53	10722.00
951.26	10763.00
951.98	10772.00
952.71	10760.00
953.43	10770.00
954.15	10813.00
954.88	10819.00
955.60	10842.00
956.33	10832.00
957.05	10824.00
957.77	10835.00
958.50	10836.00
959.22	10812.00
959.94	10778.00
960.67	10744.00
961.39	10666.00
962.11	10679.00
962.84	10692.00
963.56	10646.00
964.28	10606.00
965.00	10463.00
965.73	10374.00
966.45	10292.00
967.17	10221.00
967.89	10097.00
968.62	9994.00
969.34	9899.00
970.06	9836.00
970.78	9770.00
971.51	9713.00
972.23	9666.00
972.95	9588.00
973.67	9543.00
974.40	9449.00
975.12	9346.00
975.84	9255.00
976.56	9163.00
977.28	9091.00
978.00	9032.00
978.73	8961.00
979.45	8928.00
980.17	8892.00
980.89	8826.00
981.61	8807.00
982.33	8746.00
983.05	8718.00
983.77	8693.00
984.50	8632.00
985.22	8592.00
985.94	8556.00
986.66	8557.00
987.38	8553.00
988.10	8502.00
988.82	8509.00
989.54	8431.00
990.26	8367.00
990.98	8312.00
991.70	8210.00
992.42	8138.00
993.14	8076.00
993.86	7977.00
994.58	7876.00
995.30	7824.00
996.02	7763.00
996.74	7725.00
997.46	7705.00
998.18	7660.00
998.90	7606.00
999.62	7525.00
1000.34	7476.00
1001.06	7441.00
1001.78	7348.00
1002.50	7283.00
1003.22	7169.00
1003.94	7094.00
1004.66	7016.00
1005.38	6961.00
1006.09	6865.00
1006.81	6784.00
1007.53	6700.00
1008.25	6604.00
1008.97	6568.00
1009.69	6507.00
1010.41	6447.00
1011.13	6379.00
1011.84	6318.00
1012.56	6241.00
1013.28	6201.00
1014.00	6151.00
1014.72	6079.00
1015.44	6019.00
1016.15	5949.00
1016.87	5871.00
1017.59	5782.00
1018.31	5751.00
1019.03	5717.00
1019.74	5692.00
1020.46	5658.00
1021.18	5598.00
1021.90	5557.00
1022.61	5498.00
1023.33	5456.00
1024.05	5398.00
1024.76	5327.00
1025.48	5248.00
1026.20	5174.00
1026.92	5100.00
1027.63	5049.00
1028.35	5008.00
1029.07	4950.00
1029.78	4917.00
1030.50	4842.00
1031.22	4790.00
1031.93	4740.00
1032.65	4688.00
1033.37	4649.00
1034.08	4610.00
1034.80	4575.00
1035.52	4541.00
1036.23	4500.00
1036.95	4464.00
1037.66	4429.00
1038.38	4391.00
1039.10	4333.00
1039.81	4277.00
1040.53	4227.00
1041.24	4194.00
1041.96	4140.00
1042.67	4109.00
1043.39	4077.00
1044.10	4037.00
1044.82	4001.00
1045.54	3972.00
1046.25	3949.00
1046.97	3902.00
1047.68	3856.00
1048.40	3813.00
1049.11	3773.00
1049.83	3729.00
1050.54	3687.00
1051.26	3649.00
1051.97	3621.00
1052.68	3583.00
1053.40	3553.00
1054.11	3514.00
1054.83	3469.00
1055.54	3433.00
1056.26	3405.00
1056.97	3372.00
1057.69	3351.00
1058.40	3325.00
1059.11	3298.00
1059.83	3253.00
1060.54	3219.00
1061.25	3181.00
1061.97	3144.00
1062.68	3117.00
1063.40	3084.00
1064.11	3050.00
1064.82	3013.00
1065.54	2991.00
1066.25	2530.00
1066.96	2522.00
1067.68	2533.00
1068.39	2544.00
1069.10	2591.00
1069.82	2584.00
1070.53	2581.00
1071.24	2597.00
1071.95	2615.00
1072.67	2611.00
1073.38	2947.00
1074.09	2912.00
1074.80	2880.00
1075.52	2850.00
1076.23	2817.00
1076.94	2790.00
1077.65	2118.00
1078.37	2117.00
1079.08	2112.00
1079.79	2121.00
