300.47	2598.00
301.26	2595.00
302.04	2582.00
302.82	2591.00
303.60	2591.00
304.38	2603.00
305.17	2601.00
305.95	2593.00
306.73	2593.00
307.51	2600.00
308.29	2600.00
309.08	2603.00
309.86	2593.00
310.64	2590.00
311.42	2604.00
312.20	2612.00
312.98	2616.00
313.76	2606.00
314.55	2601.00
315.33	2620.00
316.11	2629.00
316.89	2625.00
317.67	2629.00
318.45	2614.00
319.23	2631.00
320.01	2646.00
320.79	2648.00
321.57	2650.00
322.35	2633.00
323.13	2644.00
323.91	2646.00
324.69	2660.00
325.47	2649.00
326.25	2635.00
327.03	2653.00
327.81	2654.00
328.59	2661.00
329.37	2656.00
330.15	2635.00
330.93	2664.00
331.71	2655.00
332.49	2661.00
333.27	2655.00
334.05	2640.00
334.83	2661.00
335.61	2664.00
336.39	2659.00
337.17	2659.00
337.95	2650.00
338.73	2663.00
339.51	2669.00
340.29	2670.00
341.07	2667.00
341.84	2655.00
342.62	2669.00
343.40	2687.00
344.18	2686.00
344.96	2693.00
345.74	2676.00
346.52	2692.00
347.29	2691.00
348.07	2695.00
348.85	2705.00
349.63	2677.00
350.41	2698.00
351.18	2698.00
351.96	2711.00
352.74	2718.00
353.52	2686.00
354.30	2704.00
355.07	2708.00
355.85	2716.00
356.63	2725.00
357.41	2704.00
358.18	2726.00
358.96	2724.00
359.74	2740.00
360.52	2746.00
361.29	2737.00
362.07	2739.00
362.85	2750.00
363.62	2757.00
364.40	2764.00
365.18	2754.00
365.95	2774.00
366.73	2781.00
367.51	2789.00
368.28	2786.00
369.06	2787.00
369.84	2799.00
370.61	2813.00
371.39	2814.00
372.17	2828.00
372.94	2811.00
373.72	2834.00
374.49	2848.00
375.27	2849.00
376.05	2864.00
376.82	2852.00
377.60	2871.00
378.37	2881.00
379.15	2899.00
379.92	2911.00
380.70	2913.00
381.47	2920.00
382.25	2935.00
383.02	2952.00
383.80	2978.00
384.58	2973.00
385.35	2985.00
386.13	3005.00
386.90	3031.00
387.67	3043.00
388.45	3041.00
389.22	3054.00
390.00	3072.00
390.77	3101.00
391.55	3116.00
392.32	3119.00
393.10	3127.00
393.87	3151.00
394.65	3182.00
395.42	3188.00
396.19	3200.00
396.97	3214.00
397.74	3234.00
398.52	3272.00
399.29	3283.00
400.06	3280.00
400.84	3307.00
401.61	3331.00
402.38	3356.00
403.16	3373.00
403.93	3396.00
404.70	3404.00
405.48	3425.00
406.25	3452.00
407.02	3461.00
407.80	3482.00
408.57	3508.00
409.34	3527.00
410.12	3543.00
410.89	3578.00
411.66	3603.00
412.43	3615.00
413.21	3635.00
413.98	3657.00
414.75	3675.00
415.52	3701.00
416.30	3714.00
417.07	3751.00
417.84	3772.00
418.61	3814.00
419.39	3809.00
420.16	3848.00
420.93	3871.00
421.70	3892.00
422.47	3942.00
423.24	3954.00
424.02	3973.00
424.79	3999.00
425.56	4034.00
426.33	4080.00
427.10	4101.00
427.87	4111.00
428.64	4162.00
429.42	4200.00
430.19	4233.00
430.96	4257.00
431.73	4299.00
432.50	4314.00
433.27	4345.00
434.04	4388.00
434.81	4455.00
435.58	4491.00
436.35	4528.00
437.12	4540.00
437.89	4600.00
438.67	4642.00
439.44	4675.00
440.21	4700.00
440.98	4760.00
441.75	4832.00
442.52	4871.00
443.29	4913.00
444.06	4978.00
444.83	5016.00
445.60	5061.00
446.37	5118.00
447.13	5161.00
447.90	5218.00
448.67	5258.00
449.44	5336.00
450.21	5378.00
450.98	5431.00
451.75	5520.00
452.52	5540.00
453.29	5622.00
454.06	5680.00
454.83	5744.00
455.60	5812.00
456.37	5878.00
457.13	5916.00
457.90	6000.00
458.67	6088.00
459.44	6163.00
460.21	6235.00
460.98	6287.00
461.75	6362.00
462.51	6429.00
463.28	6514.00
464.05	6604.00
464.82	6622.00
465.59	6737.00
466.35	6800.00
467.12	6897.00
467.89	7007.00
468.66	7063.00
469.43	7119.00
470.19	7209.00
470.96	7273.00
471.73	7395.00
472.50	7507.00
473.26	7568.00
474.03	7677.00
474.80	7734.00
475.56	7843.00
476.33	7923.00
477.10	8018.00
477.87	8126.00
478.63	8201.00
479.40	8312.00
480.17	8390.00
480.93	8488.00
481.70	8611.00
482.47	8703.00
483.23	8824.00
484.00	8916.00
484.76	9060.00
485.53	9145.00
486.30	9300.00
487.06	9361.00
487.83	9458.00
488.60	9588.00
489.36	9669.00
490.13	9770.00
490.89	9883.00
491.66	9976.00
492.42	10122.00
493.19	10220.00
493.96	10338.00
494.72	10460.00
495.49	10595.00
496.25	10706.00
497.02	10819.00
497.78	10944.00
498.55	11063.00
499.31	11177.00
500.08	11304.00
500.84	11406.00
501.61	11526.00
502.37	11656.00
503.14	11749.00
503.90	11899.00
504.67	12060.00
505.43	12224.00
506.20	12302.00
506.96	12454.00
507.72	12605.00
508.49	12779.00
509.25	12869.00
510.02	12987.00
510.78	13120.00
511.54	13268.00
512.31	13440.00
513.07	13548.00
513.84	13715.00
514.60	13858.00
515.36	14005.00
516.13	14047.00
516.89	14149.00
517.65	14269.00
518.42	14447.00
519.18	14622.00
519.94	14700.00
520.71	14846.00
521.47	14971.00
522.23	15146.00
523.00	15282.00
523.76	15448.00
524.52	15624.00
525.28	15791.00
526.05	15879.00
526.81	16079.00
527.57	16221.00
528.33	16353.00
529.10	16473.00
529.86	16654.00
530.62	16816.00
531.38	16946.00
532.15	17134.00
532.91	17245.00
533.67	17364.00
534.43	17493.00
535.19	17718.00
535.96	17890.00
536.72	17954.00
537.48	18148.00
538.24	18244.00
539.00	18413.00
539.76	18635.00
540.53	18773.00
541.29	18982.00
542.05	19076.00
542.81	19241.00
543.57	19446.00
544.33	19591.00
545.09	19726.00
545.85	19882.00
546.61	20089.00
547.38	20235.00
548.14	20279.00
548.90	20539.00
549.66	20716.00
550.42	20886.00
551.18	21004.00
551.94	21196.00
552.70	21337.00
553.46	21499.00
554.22	21663.00
554.98	21805.00
555.74	21913.00
556.50	22058.00
557.26	22221.00
558.02	22420.00
558.78	22647.00
559.54	22753.00
560.30	22852.00
561.06	23074.00
561.82	23245.00
562.58	23521.00
563.34	23664.00
564.10	23838.00
564.86	23894.00
565.61	24011.00
566.37	24258.00
567.13	24436.00
567.89	24666.00
568.65	24797.00
569.41	24992.00
570.17	25127.00
570.93	25356.00
571.69	25498.00
572.44	25724.00
573.20	25859.00
573.96	26076.00
574.72	26150.00
575.48	26271.00
576.24	26438.00
576.99	26497.00
577.75	26651.00
578.51	26890.00
579.27	27110.00
580.03	27319.00
580.78	27459.00
581.54	27610.00
582.30	27778.00
583.06	27934.00
583.82	27979.00
584.57	28214.00
585.33	28302.00
586.09	28534.00
586.84	28593.00
587.60	28737.00
588.36	28843.00
589.12	29080.00
589.87	29303.00
590.63	29434.00
591.39	29496.00
592.14	29631.00
592.90	29724.00
593.66	30029.00
594.41	30272.00
595.17	30454.00
595.93	30470.00
596.68	30528.00
597.44	30726.00
598.20	30930.00
598.95	31110.00
599.71	31291.00
600.46	31428.00
601.22	31603.00
601.98	31749.00
602.73	31893.00
603.49	32223.00
604.24	32426.00
605.00	32521.00
605.76	32636.00
606.51	32858.00
607.27	32970.00
608.02	33103.00
608.78	33270.00
609.53	33454.00
610.29	33603.00
611.04	33820.00
611.80	33895.00
612.55	34119.00
613.31	34310.00
614.06	34530.00
614.82	34721.00
615.57	34906.00
616.33	34920.00
617.08	35052.00
617.84	35134.00
618.59	35157.00
619.35	35252.00
620.10	35277.00
620.85	35241.00
621.61	35294.00
622.36	35386.00
623.12	35428.00
623.87	35569.00
624.62	35610.00
625.38	35822.00
626.13	35854.00
626.89	36057.00
627.64	36155.00
628.39	36152.00
629.15	36235.00
629.90	36327.00
630.65	36271.00
631.41	36321.00
632.16	36135.00
632.91	36125.00
633.67	36088.00
634.42	36117.00
635.17	36382.00
635.92	36659.00
636.68	37176.00
637.43	37515.00
638.18	37935.00
638.94	38332.00
639.69	38700.00
640.44	39062.00
641.19	39526.00
641.95	39775.00
642.70	40027.00
643.45	40301.00
644.20	40399.00
644.95	40648.00
645.71	40764.00
646.46	40811.00
647.21	40968.00
647.96	40969.00
648.71	41026.00
649.47	41238.00
650.22	41335.00
650.97	41470.00
651.72	41564.00
652.47	41704.00
653.22	41714.00
653.97	41878.00
654.73	41911.00
655.48	41937.00
656.23	42051.00
656.98	42278.00
657.73	42368.00
658.48	42452.00
659.23	42532.00
659.98	42651.00
660.73	42727.00
661.48	42734.00
662.23	42911.00
662.99	42923.00
663.74	42779.00
664.49	42928.00
665.24	43363.00
665.99	43624.00
666.74	43667.00
667.49	43759.00
668.24	43802.00
668.99	43874.00
669.74	44093.00
670.49	44278.00
671.24	44473.00
671.99	44671.00
672.74	44783.00
673.48	44809.00
674.23	44785.00
674.98	44888.00
675.73	44963.00
676.48	45059.00
677.23	45081.00
677.98	45201.00
678.73	45257.00
679.48	45329.00
680.23	45371.00
680.98	45376.00
681.73	45356.00
682.47	45367.00
683.22	45332.00
683.97	45312.00
684.72	45352.00
685.47	45327.00
686.22	45394.00
686.97	45574.00
687.71	45581.00
688.46	45648.00
689.21	45657.00
689.96	45669.00
690.71	45685.00
691.45	45780.00
692.20	45799.00
692.95	45890.00
693.70	45952.00
694.44	46053.00
695.19	46250.00
695.94	46204.00
696.69	46323.00
697.43	46291.00
698.18	46342.00
698.93	46372.00
699.68	46426.00
700.42	46324.00
701.17	46143.00
701.92	46104.00
702.66	46066.00
703.41	46177.00
704.16	46062.00
704.90	46189.00
705.65	46118.00
706.40	46124.00
707.14	46197.00
707.89	46213.00
708.64	46220.00
709.38	46291.00
710.13	46243.00
710.88	46312.00
711.62	46261.00
712.37	46125.00
713.11	46181.00
713.86	46148.00
714.61	46058.00
715.35	46021.00
716.10	45952.00
716.84	45870.00
717.59	45782.00
718.33	45823.00
719.08	45740.00
719.83	45753.00
720.57	45665.00
721.32	45606.00
722.06	45433.00
722.81	45358.00
723.55	45136.00
724.30	45194.00
725.04	45161.00
725.79	44992.00
726.53	45032.00
727.28	44992.00
728.02	44900.00
728.76	44996.00
729.51	45114.00
730.25	45098.00
731.00	45092.00
731.74	45008.00
732.49	44897.00
733.23	44688.00
733.97	44694.00
734.72	44535.00
735.46	44424.00
736.21	44377.00
736.95	44367.00
737.69	44413.00
738.44	44595.00
739.18	44667.00
739.92	44799.00
740.67	45015.00
741.41	45125.00
742.15	45295.00
742.90	45492.00
743.64	45557.00
744.38	45441.00
745.13	45419.00
745.87	45357.00
746.61	45220.00
747.36	45144.00
748.10	45005.00
748.84	44752.00
749.58	44569.00
750.33	44448.00
751.07	44237.00
751.81	44152.00
752.55	43985.00
753.30	43898.00
754.04	43860.00
754.78	43889.00
755.52	43816.00
756.27	43630.00
757.01	43471.00
757.75	43485.00
758.49	43577.00
759.23	43548.00
759.97	43396.00
760.72	43269.00
761.46	43163.00
762.20	43237.00
762.94	43289.00
763.68	43183.00
764.42	42997.00
765.16	42893.00
765.91	42988.00
766.65	42898.00
767.39	42794.00
768.13	42735.00
768.87	42753.00
769.61	42633.00
770.35	42540.00
771.09	42402.00
771.83	42281.00
772.57	42148.00
773.31	42231.00
774.05	42342.00
774.80	42426.00
775.54	42460.00
776.28	42213.00
777.02	42002.00
777.76	41814.00
778.50	41619.00
779.24	41371.00
779.98	41132.00
780.72	40920.00
781.46	40809.00
782.20	40632.00
782.93	40730.00
783.67	40641.00
784.41	40488.00
785.15	40386.00
785.89	40205.00
786.63	40113.00
787.37	39952.00
788.11	39731.00
788.85	39583.00
789.59	39523.00
790.33	39590.00
791.07	39528.00
791.81	39478.00
792.54	39369.00
793.28	39068.00
794.02	38743.00
794.76	38469.00
795.50	38154.00
796.24	37899.00
796.97	37636.00
797.71	37342.00
798.45	37199.00
799.19	37127.00
799.93	37069.00
800.67	36935.00
801.40	36882.00
802.14	36994.00
802.88	37063.00
803.62	37053.00
804.35	36949.00
805.09	36936.00
805.83	36617.00
806.57	36601.00
807.30	36472.00
808.04	36378.00
808.78	36263.00
809.52	35839.00
810.25	35605.00
810.99	35344.00
811.73	35233.00
812.46	35097.00
813.20	35067.00
813.94	34945.00
814.68	34784.00
815.41	34803.00
816.15	34782.00
816.88	34719.00
817.62	34571.00
818.36	34202.00
819.09	34054.00
819.83	33880.00
820.57	33961.00
821.30	33921.00
822.04	33671.00
822.77	33538.00
823.51	33399.00
824.25	33426.00
824.98	33432.00
825.72	33328.00
826.45	33347.00
827.19	33240.00
827.92	33075.00
828.66	32807.00
829.40	32744.00
830.13	32696.00
830.87	32537.00
831.60	32470.00
832.34	32401.00
833.07	32218.00
833.81	32131.00
834.54	32179.00
835.28	32183.00
836.01	32120.00
836.75	31916.00
837.48	31647.00
838.22	31393.00
838.95	31283.00
839.68	31282.00
840.42	31192.00
841.15	31051.00
841.89	30831.00
842.62	30602.00
843.36	30423.00
844.09	30234.00
844.82	30131.00
845.56	30027.00
846.29	29776.00
847.02	29483.00
847.76	29420.00
848.49	29273.00
849.23	29425.00
849.96	29602.00
850.69	29607.00
851.43	29398.00
852.16	29310.00
852.89	29052.00
853.63	29040.00
854.36	28967.00
855.09	28985.00
855.82	28804.00
856.56	28610.00
857.29	28385.00
858.02	28104.00
858.76	28055.00
859.49	27939.00
860.22	27860.00
860.95	27793.00
861.69	27638.00
862.42	27447.00
863.15	27439.00
863.88	27431.00
864.61	27539.00
865.35	27561.00
866.08	27433.00
866.81	27222.00
867.54	26903.00
868.27	26668.00
869.01	26537.00
869.74	26665.00
870.47	26638.00
871.20	26526.00
871.93	26471.00
872.66	26294.00
873.40	26248.00
874.13	26043.00
874.86	25842.00
875.59	25692.00
876.32	25604.00
877.05	25333.00
877.78	25140.00
878.51	24868.00
879.24	24700.00
879.97	24492.00
880.71	24363.00
881.44	24216.00
882.17	24048.00
882.90	24064.00
883.63	24022.00
884.36	24046.00
885.09	24084.00
885.82	24151.00
886.55	24249.00
887.28	24239.00
888.01	24189.00
888.74	24119.00
889.47	23812.00
890.20	23537.00
890.93	23258.00
891.66	23072.00
892.39	22975.00
893.12	22906.00
893.85	22739.00
894.57	22490.00
895.30	22226.00
896.03	22069.00
896.76	21912.00
897.49	21869.00
898.22	21739.00
898.95	21643.00
899.68	21715.00
900.41	21679.00
901.14	21710.00
901.86	21713.00
902.59	21669.00
903.32	21593.00
904.05	21484.00
904.78	21239.00
905.51	20960.00
906.24	20707.00
906.96	20526.00
907.69	20319.00
908.42	20236.00
909.15	20116.00
909.88	19978.00
910.60	19825.00
911.33	19843.00
912.06	19817.00
912.79	19832.00
913.52	19741.00
914.24	19575.00
914.97	19460.00
915.70	19306.00
916.42	19129.00
917.15	18943.00
917.88	18732.00
918.61	18522.00
919.33	18300.00
920.06	18167.00
920.79	18043.00
921.51	17987.00
922.24	17923.00
922.97	17715.00
923.69	17539.00
924.42	17436.00
925.15	17193.00
925.87	17012.00
926.60	16717.00
927.33	16421.00
928.05	16207.00
928.78	16065.00
929.51	15921.00
930.23	15783.00
930.96	15589.00
931.68	15390.00
932.41	15186.00
933.14	14976.00
933.86	14762.00
934.59	14395.00
935.31	14045.00
936.04	13616.00
936.76	13278.00
937.49	12923.00
938.21	12553.00
938.94	12226.00
939.66	11897.00
940.39	11636.00
941.11	11429.00
941.84	11212.00
942.56	11096.00
943.29	10978.00
944.01	10893.00
944.74	10864.00
945.46	10863.00
946.19	10849.00
946.91	10877.00
947.64	10891.00
948.36	10899.00
949.09	10911.00
949.81	10927.00
950.53	11009.00
951.26	10969.00
951.98	10992.00
952.71	11026.00
953.43	11037.00
954.15	11023.00
954.88	11071.00
955.60	11094.00
956.33	11093.00
957.05	11093.00
957.77	11083.00
958.50	11121.00
959.22	11051.00
959.94	11042.00
960.67	11008.00
961.39	10925.00
962.11	10948.00
962.84	10981.00
963.56	10915.00
964.28	10788.00
965.00	10757.00
965.73	10627.00
966.45	10575.00
967.17	10460.00
967.89	10345.00
968.62	10253.00
969.34	10130.00
970.06	10033.00
970.78	10017.00
971.51	9969.00
972.23	9923.00
972.95	9819.00
973.67	9744.00
974.40	9682.00
975.12	9587.00
975.84	9475.00
976.56	9386.00
977.28	9312.00
978.00	9228.00
978.73	9226.00
979.45	9153.00
980.17	9082.00
980.89	9042.00
981.61	8995.00
982.33	8972.00
983.05	8930.00
983.77	8905.00
984.50	8836.00
985.22	8797.00
985.94	8760.00
986.66	8747.00
987.38	8726.00
988.10	8721.00
988.82	8692.00
989.54	8658.00
990.26	8561.00
990.98	8517.00
991.70	8408.00
992.42	8321.00
993.14	8265.00
993.86	8156.00
994.58	8061.00
995.30	8020.00
996.02	7949.00
996.74	7916.00
997.46	7879.00
998.18	7815.00
998.90	7749.00
999.62	7722.00
1000.34	7648.00
1001.06	7609.00
1001.78	7540.00
1002.50	7441.00
1003.22	7335.00
1003.94	7249.00
1004.66	7150.00
1005.38	7099.00
1006.09	7009.00
1006.81	6908.00
1007.53	6839.00
1008.25	6755.00
1008.97	6690.00
1009.69	6638.00
1010.41	6571.00
1011.13	6515.00
1011.84	6445.00
1012.56	6379.00
1013.28	6337.00
1014.00	6270.00
1014.72	6229.00
1015.44	6146.00
1016.15	6073.00
1016.87	5989.00
1017.59	5898.00
1018.31	5850.00
1019.03	5835.00
1019.74	5793.00
1020.46	5761.00
1021.18	5711.00
1021.90	5654.00
1022.61	5606.00
1023.33	5558.00
1024.05	5489.00
1024.76	5421.00
1025.48	5326.00
1026.20	5257.00
1026.92	5192.00
1027.63	5140.00
1028.35	5085.00
1029.07	5046.00
1029.78	4982.00
1030.50	4928.00
1031.22	4860.00
1031.93	4810.00
1032.65	4755.00
1033.37	4732.00
1034.08	4694.00
1034.80	4632.00
1035.52	4598.00
1036.23	4562.00
1036.95	4525.00
1037.66	4487.00
1038.38	4451.00
1039.10	4406.00
1039.81	4350.00
1040.53	4296.00
1041.24	4254.00
1041.96	4198.00
1042.67	4180.00
1043.39	4138.00
1044.10	4100.00
1044.82	4069.00
1045.54	4032.00
1046.25	3997.00
1046.97	3962.00
1047.68	3923.00
1048.40	3864.00
1049.11	3828.00
1049.83	3771.00
1050.54	3738.00
1051.26	3710.00
1051.97	3659.00
1052.68	3636.00
1053.40	3599.00
1054.11	3562.00
1054.83	3513.00
1055.54	3479.00
1056.26	3438.00
1056.97	3421.00
1057.69	3388.00
1058.40	3359.00
1059.11	3337.00
1059.83	3290.00
1060.54	3252.00
1061.25	3213.00
1061.97	3182.00
1062.68	3150.00
1063.40	3115.00
1064.11	3089.00
1064.82	3043.00
1065.54	3011.00
1066.25	2538.00
1066.96	2532.00
1067.68	2533.00
1068.39	2522.00
1069.10	2577.00
1069.82	2589.00
1070.53	2586.00
1071.24	2576.00
1071.95	2585.00
1072.67	2596.00
1073.38	2973.00
1074.09	2936.00
1074.80	2901.00
1075.52	2875.00
1076.23	2847.00
1076.94	2814.00
1077.65	2124.00
1078.37	2122.00
1079.08	2122.00
1079.79	2125.00
