300.47	2586.00
301.26	2595.00
302.04	2597.00
302.82	2594.00
303.60	2579.00
304.38	2587.00
305.17	2599.00
305.95	2597.00
306.73	2597.00
307.51	2585.00
308.29	2585.00
309.08	2590.00
309.86	2595.00
310.64	2596.00
311.42	2587.00
312.20	2587.00
312.98	2597.00
313.76	2605.00
314.55	2603.00
315.33	2592.00
316.11	2604.00
316.89	2619.00
317.67	2615.00
318.45	2610.00
319.23	2605.00
320.01	2619.00
320.79	2635.00
321.57	2632.00
322.35	2639.00
323.13	2615.00
323.91	2633.00
324.69	2644.00
325.47	2635.00
326.25	2643.00
327.03	2620.00
327.81	2622.00
328.59	2643.00
329.37	2639.00
330.15	2642.00
330.93	2627.00
331.71	2626.00
332.49	2635.00
333.27	2642.00
334.05	2643.00
334.83	2628.00
335.61	2625.00
336.39	2638.00
337.17	2638.00
337.95	2656.00
338.73	2640.00
339.51	2629.00
340.29	2645.00
341.07	2651.00
341.84	2662.00
342.62	2645.00
343.40	2653.00
344.18	2660.00
344.96	2670.00
345.74	2677.00
346.52	2667.00
347.29	2658.00
348.07	2668.00
348.85	2672.00
349.63	2684.00
350.41	2676.00
351.18	2668.00
351.96	2677.00
352.74	2686.00
353.52	2691.00
354.30	2698.00
355.07	2677.00
355.85	2686.00
356.63	2691.00
357.41	2711.00
358.18	2714.00
358.96	2699.00
359.74	2709.00
360.52	2721.00
361.29	2733.00
362.07	2722.00
362.85	2717.00
363.62	2737.00
364.40	2744.00
365.18	2753.00
365.95	2758.00
366.73	2750.00
367.51	2766.00
368.28	2769.00
369.06	2780.00
369.84	2799.00
370.61	2773.00
371.39	2784.00
372.17	2795.00
372.94	2817.00
373.72	2824.00
374.49	2814.00
375.27	2815.00
376.05	2829.00
376.82	2850.00
377.60	2853.00
378.37	2863.00
379.15	2860.00
379.92	2877.00
380.70	2892.00
381.47	2907.00
382.25	2916.00
383.02	2920.00
383.80	2931.00
384.58	2954.00
385.35	2980.00
386.13	2986.00
386.90	2978.00
387.67	3007.00
388.45	3032.00
389.22	3044.00
390.00	3053.00
390.77	3064.00
391.55	3076.00
392.32	3111.00
393.10	3123.00
393.87	3135.00
394.65	3139.00
395.42	3156.00
396.19	3172.00
396.97	3194.00
397.74	3210.00
398.52	3225.00
399.29	3248.00
400.06	3271.00
400.84	3282.00
401.61	3303.00
402.38	3311.00
403.16	3334.00
403.93	3348.00
404.70	3376.00
405.48	3406.00
406.25	3433.00
407.02	3442.00
407.80	3455.00
408.57	3478.00
409.34	3490.00
410.12	3521.00
410.89	3546.00
411.66	3563.00
412.43	3587.00
413.21	3605.00
413.98	3626.00
414.75	3655.00
415.52	3678.00
416.30	3701.00
417.07	3725.00
417.84	3745.00
418.61	3769.00
419.39	3804.00
420.16	3825.00
420.93	3841.00
421.70	3860.00
422.47	3893.00
423.24	3925.00
424.02	3946.00
424.79	3981.00
425.56	4010.00
426.33	4052.00
427.10	4073.00
427.87	4102.00
428.64	4138.00
429.42	4153.00
430.19	4183.00
430.96	4236.00
431.73	4278.00
432.50	4318.00
433.27	4341.00
434.04	4378.00
434.81	4399.00
435.58	4436.00
436.35	4495.00
437.12	4523.00
437.89	4586.00
438.67	4614.00
439.44	4638.00
440.21	4700.00
440.98	4738.00
441.75	4800.00
442.52	4845.00
443.29	4880.00
444.06	4922.00
444.83	4988.00
445.60	5027.00
446.37	5073.00
447.13	5133.00
447.90	5173.00
448.67	5234.00
449.44	5286.00
450.21	5364.00
450.98	5428.00
451.75	5462.00
452.52	5508.00
453.29	5576.00
454.06	5641.00
454.83	5693.00
455.60	5769.00
456.37	5849.00
457.13	5921.00
457.90	5994.00
458.67	6040.00
459.44	6148.00
460.21	6164.00
460.98	6264.00
461.75	6327.00
462.51	6397.00
463.28	6496.00
464.05	6566.00
464.82	6622.00
465.59	6693.00
466.35	6744.00
467.12	6864.00
467.89	6960.00
468.66	7009.00
469.43	7107.00
470.19	7197.00
470.96	7283.00
471.73	7377.00
472.50	7457.00
473.26	7557.00
474.03	7626.00
474.80	7703.00
475.56	7820.00
476.33	7904.00
477.10	7981.00
477.87	8065.00
478.63	8195.00
479.40	8254.00
480.17	8373.00
480.93	8455.00
481.70	8544.00
482.47	8668.00
483.23	8767.00
484.00	8884.00
484.76	8993.00
485.53	9105.00
486.30	9179.00
487.06	9310.00
487.83	9426.00
488.60	9515.00
489.36	9655.00
490.13	9737.00
490.89	9846.00
491.66	9940.00
492.42	10056.00
493.19	10150.00
493.96	10293.00
494.72	10399.00
495.49	10502.00
496.25	10651.00
497.02	10777.00
497.78	10879.00
498.55	11010.00
499.31	11086.00
500.08	11211.00
500.84	11301.00
501.61	11476.00
502.37	11563.00
503.14	11697.00
503.90	11816.00
504.67	11972.00
505.43	12126.00
506.20	12260.00
506.96	12401.00
507.72	12534.00
508.49	12680.00
509.25	12798.00
510.02	12900.00
510.78	13039.00
511.54	13193.00
512.31	13380.00
513.07	13461.00
513.84	13609.00
514.60	13748.00
515.36	13899.00
516.13	14007.00
516.89	14072.00
517.65	14235.00
518.42	14323.00
519.18	14455.00
519.94	14620.00
520.71	14747.00
521.47	14839.00
522.23	15075.00
523.00	15185.00
523.76	15358.00
524.52	15561.00
525.28	15705.00
526.05	15777.00
526.81	15963.00
527.57	16084.00
528.33	16297.00
529.10	16423.00
529.86	16569.00
530.62	16672.00
531.38	16877.00
532.15	16985.00
532.91	17104.00
533.67	17276.00
534.43	17394.00
535.19	17545.00
535.96	17721.00
536.72	17836.00
537.48	17949.00
538.24	18173.00
539.00	18328.00
539.76	18449.00
540.53	18614.00
541.29	18771.00
542.05	18948.00
542.81	19077.00
543.57	19290.00
544.33	19483.00
545.09	19663.00
545.85	19735.00
546.61	19898.00
547.38	20012.00
548.14	20161.00
548.90	20414.00
549.66	20547.00
550.42	20704.00
551.18	20861.00
551.94	21005.00
552.70	21193.00
553.46	21382.00
554.22	21513.00
554.98	21589.00
555.74	21674.00
556.50	21870.00
557.26	22067.00
558.02	22234.00
558.78	22391.00
559.54	22599.00
560.30	22756.00
561.06	22868.00
561.82	23087.00
562.58	23312.00
563.34	23441.00
564.10	23576.00
564.86	23686.00
565.61	23804.00
566.37	24073.00
567.13	24232.00
567.89	24371.00
568.65	24616.00
569.41	24739.00
570.17	24946.00
570.93	25145.00
571.69	25337.00
572.44	25592.00
573.20	25687.00
573.96	25763.00
574.72	25886.00
575.48	26052.00
576.24	26186.00
576.99	26279.00
577.75	26451.00
578.51	26677.00
579.27	26813.00
580.03	27012.00
580.78	27201.00
581.54	27373.00
582.30	27504.00
583.06	27649.00
583.82	27772.00
584.57	28006.00
585.33	28058.00
586.09	28214.00
586.84	28281.00
587.60	28353.00
588.36	28562.00
589.12	28803.00
589.87	28994.00
590.63	29163.00
591.39	29284.00
592.14	29398.00
592.90	29547.00
593.66	29735.00
594.41	29955.00
595.17	30082.00
595.93	30150.00
596.68	30269.00
597.44	30471.00
598.20	30602.00
598.95	30829.00
599.71	30991.00
600.46	31061.00
601.22	31240.00
601.98	31470.00
602.73	31666.00
603.49	31870.00
604.24	32029.00
605.00	32206.00
605.76	32407.00
606.51	32560.00
607.27	32664.00
608.02	32754.00
608.78	32999.00
609.53	33161.00
610.29	33292.00
611.04	33399.00
611.80	33603.00
612.55	33796.00
613.31	34036.00
614.06	34186.00
614.82	34316.00
615.57	34476.00
616.33	34612.00
617.08	34703.00
617.84	34769.00
618.59	34884.00
619.35	34832.00
620.10	34874.00
620.85	34952.00
621.61	34994.00
622.36	34927.00
623.12	35026.00
623.87	35100.00
624.62	35295.00
625.38	35482.00
626.13	35545.00
626.89	35661.00
627.64	35805.00
628.39	35844.00
629.15	35870.00
629.90	35919.00
630.65	35914.00
631.41	35761.00
632.16	35769.00
632.91	35725.00
633.67	35753.00
634.42	35720.00
635.17	36009.00
635.92	36225.00
636.68	36752.00
637.43	37154.00
638.18	37551.00
638.94	37989.00
639.69	38253.00
640.44	38659.00
641.19	39033.00
641.95	39366.00
642.70	39625.00
643.45	39772.00
644.20	39927.00
644.95	40195.00
645.71	40308.00
646.46	40367.00
647.21	40481.00
647.96	40453.00
648.71	40691.00
649.47	40732.00
650.22	40831.00
650.97	41018.00
651.72	41018.00
652.47	41104.00
653.22	41233.00
653.97	41322.00
654.73	41398.00
655.48	41434.00
656.23	41645.00
656.98	41794.00
657.73	42001.00
658.48	41893.00
659.23	42050.00
659.98	42128.00
660.73	42209.00
661.48	42232.00
662.23	42378.00
662.99	42395.00
663.74	42214.00
664.49	42458.00
665.24	42799.00
665.99	43016.00
666.74	43047.00
667.49	43243.00
668.24	43226.00
668.99	43288.00
669.74	43507.00
670.49	43762.00
671.24	43927.00
671.99	44022.00
672.74	44141.00
673.48	44256.00
674.23	44218.00
674.98	44292.00
675.73	44352.00
676.48	44474.00
677.23	44499.00
677.98	44548.00
678.73	44601.00
679.48	44721.00
680.23	44831.00
680.98	44792.00
681.73	44748.00
682.47	44799.00
683.22	44807.00
683.97	44694.00
684.72	44715.00
685.47	44724.00
686.22	44822.00
686.97	44949.00
687.71	44955.00
688.46	45018.00
689.21	44955.00
689.96	44976.00
690.71	45061.00
691.45	45166.00
692.20	45142.00
692.95	45245.00
693.70	45274.00
694.44	45442.00
695.19	45604.00
695.94	45744.00
696.69	45730.00
697.43	45709.00
698.18	45672.00
698.93	45758.00
699.68	45821.00
700.42	45609.00
701.17	45552.00
701.92	45469.00
702.66	45545.00
703.41	45521.00
704.16	45554.00
704.90	45471.00
705.65	45544.00
706.40	45456.00
707.14	45479.00
707.89	45632.00
708.64	45522.00
709.38	45654.00
710.13	45645.00
710.88	45599.00
711.62	45562.00
712.37	45549.00
713.11	45500.00
713.86	45519.00
714.61	45496.00
715.35	45449.00
716.10	45220.00
716.84	45128.00
717.59	45150.00
718.33	45043.00
719.08	45158.00
719.83	45120.00
720.57	44998.00
721.32	44950.00
722.06	44773.00
722.81	44705.00
723.55	44628.00
724.30	44538.00
725.04	44458.00
725.79	44315.00
726.53	44275.00
727.28	44211.00
728.02	44301.00
728.76	44307.00
729.51	44306.00
730.25	44350.00
731.00	44372.00
731.74	44358.00
732.49	44282.00
733.23	44028.00
733.97	43946.00
734.72	43940.00
735.46	43740.00
736.21	43679.00
736.95	43594.00
737.69	43774.00
738.44	43842.00
739.18	43970.00
739.92	44086.00
740.67	44329.00
741.41	44419.00
742.15	44576.00
742.90	44709.00
743.64	44838.00
744.38	44732.00
745.13	44621.00
745.87	44592.00
746.61	44563.00
747.36	44386.00
748.10	44238.00
748.84	43992.00
749.58	43826.00
750.33	43723.00
751.07	43501.00
751.81	43431.00
752.55	43294.00
753.30	43214.00
754.04	43072.00
754.78	43123.00
755.52	43067.00
756.27	42956.00
757.01	42784.00
757.75	42830.00
758.49	42893.00
759.23	42834.00
759.97	42682.00
760.72	42608.00
761.46	42554.00
762.20	42540.00
762.94	42659.00
763.68	42495.00
764.42	42244.00
765.16	42229.00
765.91	42312.00
766.65	42190.00
767.39	42153.00
768.13	42112.00
768.87	41962.00
769.61	41933.00
770.35	41831.00
771.09	41783.00
771.83	41605.00
772.57	41537.00
773.31	41477.00
774.05	41685.00
774.80	41753.00
775.54	41728.00
776.28	41507.00
777.02	41284.00
777.76	41145.00
778.50	40914.00
779.24	40610.00
779.98	40430.00
780.72	40228.00
781.46	40078.00
782.20	39996.00
782.93	39996.00
783.67	40002.00
784.41	39796.00
785.15	39652.00
785.89	39518.00
786.63	39294.00
787.37	39185.00
788.11	39080.00
788.85	38928.00
789.59	38866.00
790.33	38863.00
791.07	38924.00
791.81	38784.00
792.54	38629.00
793.28	38386.00
794.02	38118.00
794.76	37783.00
795.50	37528.00
796.24	37203.00
796.97	36948.00
797.71	36728.00
798.45	36559.00
799.19	36438.00
799.93	36383.00
800.67	36237.00
801.40	36178.00
802.14	36290.00
802.88	36386.00
803.62	36412.00
804.35	36397.00
805.09	36191.00
805.83	36051.00
806.57	35951.00
807.30	35791.00
808.04	35781.00
808.78	35427.00
809.52	35081.00
810.25	34925.00
810.99	34817.00
811.73	34646.00
812.46	34549.00
813.20	34376.00
813.94	34304.00
814.68	34308.00
815.41	34171.00
816.15	34130.00
816.88	34093.00
817.62	33829.00
818.36	33641.00
819.09	33455.00
819.83	33283.00
820.57	33253.00
821.30	33166.00
822.04	33067.00
822.77	32864.00
823.51	32743.00
824.25	32733.00
824.98	32672.00
825.72	32741.00
826.45	32699.00
827.19	32556.00
827.92	32356.00
828.66	32263.00
829.40	32128.00
830.13	32067.00
830.87	31934.00
831.60	31826.00
832.34	31680.00
833.07	31527.00
833.81	31484.00
834.54	31427.00
835.28	31539.00
836.01	31433.00
836.75	31276.00
837.48	31049.00
838.22	30776.00
838.95	30650.00
839.68	30564.00
840.42	30544.00
841.15	30374.00
841.89	30335.00
842.62	29929.00
843.36	29793.00
844.09	29534.00
844.82	29514.00
845.56	29447.00
846.29	29208.00
847.02	28898.00
847.76	28781.00
848.49	28619.00
849.23	28785.00
849.96	28948.00
850.69	29004.00
851.43	28924.00
852.16	28616.00
852.89	28417.00
853.63	28351.00
854.36	28329.00
855.09	28347.00
855.82	28210.00
856.56	27963.00
857.29	27719.00
858.02	27608.00
858.76	27503.00
859.49	27339.00
860.22	27249.00
860.95	27172.00
861.69	27064.00
862.42	26941.00
863.15	26900.00
863.88	26851.00
864.61	26930.00
865.35	27012.00
866.08	26792.00
866.81	26513.00
867.54	26279.00
868.27	26103.00
869.01	26081.00
869.74	26034.00
870.47	26031.00
871.20	25969.00
871.93	25907.00
872.66	25717.00
873.40	25653.00
874.13	25402.00
874.86	25249.00
875.59	25143.00
876.32	24988.00
877.05	24830.00
877.78	24566.00
878.51	24288.00
879.24	24061.00
879.97	23947.00
880.71	23777.00
881.44	23645.00
882.17	23584.00
882.90	23463.00
883.63	23413.00
884.36	23510.00
885.09	23541.00
885.82	23581.00
886.55	23653.00
887.28	23694.00
888.01	23633.00
888.74	23580.00
889.47	23315.00
890.20	22993.00
890.93	22697.00
891.66	22511.00
892.39	22426.00
893.12	22359.00
893.85	22157.00
894.57	21962.00
895.30	21692.00
896.03	21533.00
896.76	21363.00
897.49	21289.00
898.22	21245.00
898.95	21146.00
899.68	21099.00
900.41	21188.00
901.14	21151.00
901.86	21142.00
902.59	21125.00
903.32	21075.00
904.05	20943.00
904.78	20806.00
905.51	20470.00
906.24	20208.00
906.96	19989.00
907.69	19761.00
908.42	19717.00
909.15	19603.00
909.88	19479.00
910.60	19343.00
911.33	19330.00
912.06	19329.00
912.79	19304.00
913.52	19184.00
914.24	19065.00
914.97	18939.00
915.70	18834.00
916.42	18664.00
917.15	18481.00
917.88	18233.00
918.61	18050.00
919.33	17841.00
920.06	17716.00
920.79	17604.00
921.51	17492.00
922.24	17373.00
922.97	17293.00
923.69	17165.00
924.42	17016.00
925.15	16827.00
925.87	16550.00
926.60	16245.00
927.33	16047.00
928.05	15772.00
928.78	15694.00
929.51	15491.00
930.23	15321.00
930.96	15123.00
931.68	14949.00
932.41	14724.00
933.14	14566.00
933.86	14360.00
934.59	14004.00
935.31	13681.00
936.04	13297.00
936.76	12890.00
937.49	12563.00
938.21	12226.00
938.94	11876.00
939.66	11603.00
940.39	11370.00
941.11	11118.00
941.84	10957.00
942.56	10789.00
943.29	10666.00
944.01	10644.00
944.74	10567.00
945.46	10556.00
946.19	10540.00
946.91	10579.00
947.64	10609.00
948.36	10593.00
949.09	10631.00
949.81	10622.00
950.53	10689.00
951.26	10698.00
951.98	10686.00
952.71	10707.00
953.43	10736.00
954.15	10792.00
954.88	10784.00
955.60	10810.00
956.33	10813.00
957.05	10808.00
957.77	10830.00
958.50	10799.00
959.22	10757.00
959.94	10745.00
960.67	10666.00
961.39	10653.00
962.11	10675.00
962.84	10655.00
963.56	10594.00
964.28	10534.00
965.00	10438.00
965.73	10382.00
966.45	10247.00
967.17	10195.00
967.89	10080.00
968.62	9953.00
969.34	9858.00
970.06	9797.00
970.78	9764.00
971.51	9682.00
972.23	9666.00
972.95	9560.00
973.67	9489.00
974.40	9414.00
975.12	9325.00
975.84	9234.00
976.56	9137.00
977.28	9091.00
978.00	9009.00
978.73	8963.00
979.45	8929.00
980.17	8877.00
980.89	8844.00
981.61	8800.00
982.33	8737.00
983.05	8727.00
983.77	8693.00
984.50	8613.00
985.22	8591.00
985.94	8544.00
986.66	8533.00
987.38	8522.00
988.10	8518.00
988.82	8485.00
989.54	8450.00
990.26	8385.00
990.98	8314.00
991.70	8221.00
992.42	8142.00
993.14	8048.00
993.86	7935.00
994.58	7873.00
995.30	7806.00
996.02	7764.00
996.74	7727.00
997.46	7706.00
998.18	7667.00
998.90	7590.00
999.62	7548.00
1000.34	7477.00
1001.06	7417.00
1001.78	7372.00
1002.50	7305.00
1003.22	7218.00
1003.94	7117.00
1004.66	7039.00
1005.38	6957.00
1006.09	6873.00
1006.81	6765.00
1007.53	6719.00
1008.25	6637.00
1008.97	6561.00
1009.69	6520.00
1010.41	6456.00
1011.13	6404.00
1011.84	6328.00
1012.56	6261.00
1013.28	6206.00
1014.00	6153.00
1014.72	6099.00
1015.44	6029.00
1016.15	5945.00
1016.87	5865.00
1017.59	5797.00
1018.31	5741.00
1019.03	5729.00
1019.74	5697.00
1020.46	5668.00
1021.18	5620.00
1021.90	5564.00
1022.61	5507.00
1023.33	5468.00
1024.05	5397.00
1024.76	5327.00
1025.48	5242.00
1026.20	5185.00
1026.92	5106.00
1027.63	5054.00
1028.35	5004.00
1029.07	4968.00
1029.78	4915.00
1030.50	4854.00
1031.22	4796.00
1031.93	4764.00
1032.65	4700.00
1033.37	4663.00
1034.08	4620.00
1034.80	4576.00
1035.52	4534.00
1036.23	4506.00
1036.95	4465.00
1037.66	4424.00
1038.38	4396.00
1039.10	4347.00
1039.81	4292.00
1040.53	4239.00
1041.24	4202.00
1041.96	4149.00
1042.67	4125.00
1043.39	4087.00
1044.10	4055.00
1044.82	4015.00
1045.54	3986.00
1046.25	3944.00
1046.97	3909.00
1047.68	3862.00
1048.40	3823.00
1049.11	3759.00
1049.83	3727.00
1050.54	3696.00
1051.26	3663.00
1051.97	3630.00
1052.68	3603.00
1053.40	3563.00
1054.11	3523.00
1054.83	3484.00
1055.54	3442.00
1056.26	3409.00
1056.97	3374.00
1057.69	3359.00
1058.40	3332.00
1059.11	3300.00
1059.83	3265.00
1060.54	3225.00
1061.25	3183.00
1061.97	3153.00
1062.68	3120.00
1063.40	3096.00
1064.11	3059.00
1064.82	3026.00
1065.54	3000.00
1066.25	2527.00
1066.96	2536.00
1067.68	2532.00
1068.39	2530.00
1069.10	2572.00
1069.82	2570.00
1070.53	2585.00
1071.24	2591.00
1071.95	2585.00
1072.67	2571.00
1073.38	2951.00
1074.09	2918.00
1074.80	2884.00
1075.52	2849.00
1076.23	2823.00
1076.94	2790.00
1077.65	2117.00
1078.37	2118.00
1079.08	2117.00
1079.79	2120.00
