300.47	2603.00
301.26	2626.00
302.04	2623.00
302.82	2601.00
303.60	2622.00
304.38	2612.00
305.17	2616.00
305.95	2617.00
306.73	2606.00
307.51	2618.00
308.29	2619.00
309.08	2601.00
309.86	2627.00
310.64	2618.00
311.42	2604.00
312.20	2622.00
312.98	2610.00
313.76	2615.00
314.55	2619.00
315.33	2599.00
316.11	2620.00
316.89	2618.00
317.67	2601.00
318.45	2620.00
319.23	2612.00
320.01	2606.00
320.79	2617.00
321.57	2604.00
322.35	2616.00
323.13	2620.00
323.91	2600.00
324.69	2621.00
325.47	2616.00
326.25	2602.00
327.03	2619.00
327.81	2607.00
328.59	2612.00
329.37	2615.00
330.15	2606.00
330.93	2618.00
331.71	2617.00
332.49	2604.00
333.27	2622.00
334.05	2620.00
334.83	2606.00
335.61	2622.00
336.39	2610.00
337.17	2610.00
337.95	2618.00
338.73	2603.00
339.51	2627.00
340.29	2624.00
341.07	2606.00
341.84	2627.00
342.62	2619.00
343.40	2614.00
344.18	2628.00
344.96	2612.00
345.74	2632.00
346.52	2630.00
347.29	2617.00
348.07	2643.00
348.85	2635.00
349.63	2624.00
350.41	2642.00
351.18	2637.00
351.96	2642.00
352.74	2650.00
353.52	2638.00
354.30	2662.00
355.07	2660.00
355.85	2642.00
356.63	2671.00
357.41	2663.00
358.18	2665.00
358.96	2679.00
359.74	2673.00
360.52	2686.00
361.29	2690.00
362.07	2680.00
362.85	2707.00
363.62	2701.00
364.40	2693.00
365.18	2725.00
365.95	2717.00
366.73	2718.00
367.51	2736.00
368.28	2726.00
369.06	2749.00
369.84	2754.00
370.61	2742.00
371.39	2773.00
372.17	2776.00
372.94	2774.00
373.72	2799.00
374.49	2792.00
375.27	2810.00
376.05	2817.00
376.82	2816.00
377.60	2832.00
378.37	2846.00
379.15	2839.00
379.92	2880.00
380.70	2883.00
381.47	2885.00
382.25	2910.00
383.02	2909.00
383.80	2938.00
384.58	2949.00
385.35	2942.00
386.13	2984.00
386.90	2997.00
387.67	2992.00
388.45	3026.00
389.22	3040.00
390.00	3047.00
390.77	3064.00
391.55	3070.00
392.32	3104.00
393.10	3109.00
393.87	3121.00
394.65	3173.00
395.42	3173.00
396.19	3174.00
396.97	3202.00
397.74	3215.00
398.52	3241.00
399.29	3262.00
400.06	3260.00
400.84	3310.00
401.61	3326.00
402.38	3330.00
403.16	3364.00
403.93	3384.00
404.70	3399.00
405.48	3435.00
406.25	3440.00
407.02	3470.00
407.80	3491.00
408.57	3492.00
409.34	3529.00
410.12	3564.00
410.89	3563.00
411.66	3606.00
412.43	3619.00
413.21	3668.00
413.98	3675.00
414.75	3691.00
415.52	3720.00
416.30	3749.00
417.07	3770.00
417.84	3823.00
418.61	3814.00
419.39	3840.00
420.16	3889.00
420.93	3904.00
421.70	3952.00
422.47	3967.00
423.24	3985.00
424.02	4030.00
424.79	4054.00
425.56	4063.00
426.33	4130.00
427.10	4151.00
427.87	4171.00
428.64	4218.00
429.42	4228.00
430.19	4298.00
430.96	4321.00
431.73	4359.00
432.50	4411.00
433.27	4438.00
434.04	4458.00
434.81	4527.00
435.58	4572.00
436.35	4614.00
437.12	4658.00
437.89	4677.00
438.67	4741.00
439.44	4764.00
440.21	4806.00
440.98	4894.00
441.75	4942.00
442.52	4988.00
443.29	5010.00
444.06	5072.00
444.83	5149.00
445.60	5189.00
446.37	5226.00
447.13	5304.00
447.90	5343.00
448.67	5400.00
449.44	5486.00
450.21	5519.00
450.98	5579.00
451.75	5661.00
452.52	5703.00
453.29	5786.00
454.06	5846.00
454.83	5900.00
455.60	5999.00
456.37	6061.00
457.13	6113.00
457.90	6202.00
458.67	6266.00
459.44	6345.00
460.21	6424.00
460.98	6491.00
461.75	6592.00
462.51	6669.00
463.28	6738.00
464.05	6829.00
464.82	6884.00
465.59	6966.00
466.35	7051.00
467.12	7114.00
467.89	7210.00
468.66	7351.00
469.43	7394.00
470.19	7504.00
470.96	7604.00
471.73	7645.00
472.50	7800.00
473.26	7857.00
474.03	7943.00
474.80	8035.00
475.56	8142.00
476.33	8281.00
477.10	8333.00
477.87	8419.00
478.63	8554.00
479.40	8654.00
480.17	8752.00
480.93	8850.00
481.70	8931.00
482.47	9070.00
483.23	9206.00
484.00	9273.00
484.76	9438.00
485.53	9518.00
486.30	9650.00
487.06	9739.00
487.83	9867.00
488.60	9986.00
489.36	10090.00
490.13	10201.00
490.89	10324.00
491.66	10436.00
492.42	10517.00
493.19	10707.00
493.96	10820.00
494.72	10950.00
495.49	11116.00
496.25	11204.00
497.02	11312.00
497.78	11454.00
498.55	11580.00
499.31	11710.00
500.08	11788.00
500.84	11926.00
501.61	12096.00
502.37	12231.00
503.14	12324.00
503.90	12481.00
504.67	12624.00
505.43	12768.00
506.20	12949.00
506.96	13033.00
507.72	13224.00
508.49	13370.00
509.25	13501.00
510.02	13631.00
510.78	13804.00
511.54	13934.00
512.31	14121.00
513.07	14189.00
513.84	14405.00
514.60	14533.00
515.36	14650.00
516.13	14826.00
516.89	14884.00
517.65	14987.00
518.42	15135.00
519.18	15331.00
519.94	15455.00
520.71	15610.00
521.47	15727.00
522.23	15930.00
523.00	16090.00
523.76	16277.00
524.52	16449.00
525.28	16590.00
526.05	16740.00
526.81	16928.00
527.57	17091.00
528.33	17224.00
529.10	17367.00
529.86	17592.00
530.62	17730.00
531.38	17879.00
532.15	17995.00
532.91	18154.00
533.67	18323.00
534.43	18444.00
535.19	18661.00
535.96	18811.00
536.72	18970.00
537.48	19108.00
538.24	19219.00
539.00	19401.00
539.76	19573.00
540.53	19768.00
541.29	20034.00
542.05	20143.00
542.81	20348.00
543.57	20523.00
544.33	20756.00
545.09	20908.00
545.85	21014.00
546.61	21176.00
547.38	21329.00
548.14	21464.00
548.90	21704.00
549.66	21908.00
550.42	22070.00
551.18	22177.00
551.94	22358.00
552.70	22535.00
553.46	22768.00
554.22	22785.00
554.98	23018.00
555.74	23138.00
556.50	23340.00
557.26	23504.00
558.02	23714.00
558.78	23813.00
559.54	24066.00
560.30	24160.00
561.06	24380.00
561.82	24589.00
562.58	24822.00
563.34	25005.00
564.10	25169.00
564.86	25340.00
565.61	25493.00
566.37	25738.00
567.13	25990.00
567.89	26135.00
568.65	26291.00
569.41	26487.00
570.17	26690.00
570.93	26887.00
571.69	27173.00
572.44	27277.00
573.20	27434.00
573.96	27619.00
574.72	27770.00
575.48	27871.00
576.24	28004.00
576.99	28138.00
577.75	28220.00
578.51	28472.00
579.27	28694.00
580.03	28907.00
580.78	29132.00
581.54	29238.00
582.30	29395.00
583.06	29601.00
583.82	29804.00
584.57	29942.00
585.33	30082.00
586.09	30202.00
586.84	30348.00
587.60	30501.00
588.36	30681.00
589.12	30868.00
589.87	31139.00
590.63	31246.00
591.39	31330.00
592.14	31454.00
592.90	31620.00
593.66	31802.00
594.41	32042.00
595.17	32303.00
595.93	32419.00
596.68	32508.00
597.44	32716.00
598.20	32813.00
598.95	33054.00
599.71	33242.00
600.46	33292.00
601.22	33559.00
601.98	33696.00
602.73	34001.00
603.49	34179.00
604.24	34370.00
605.00	34560.00
605.76	34731.00
606.51	34944.00
607.27	35134.00
608.02	35282.00
608.78	35493.00
609.53	35625.00
610.29	35799.00
611.04	35982.00
611.80	36219.00
612.55	36347.00
613.31	36575.00
614.06	36768.00
614.82	37052.00
615.57	37137.00
616.33	37277.00
617.08	37371.00
617.84	37517.00
618.59	37595.00
619.35	37633.00
620.10	37681.00
620.85	37778.00
621.61	37879.00
622.36	37887.00
623.12	37968.00
623.87	38095.00
624.62	38251.00
625.38	38401.00
626.13	38503.00
626.89	38699.00
627.64	38813.00
628.39	38866.00
629.15	38953.00
629.90	39053.00
630.65	38995.00
631.41	38939.00
632.16	38961.00
632.91	38930.00
633.67	38873.00
634.42	38916.00
635.17	39148.00
635.92	39504.00
636.68	39859.00
637.43	40382.00
638.18	40832.00
638.94	41214.00
639.69	41603.00
640.44	41963.00
641.19	42330.00
641.95	42783.00
642.70	42980.00
643.45	43278.00
644.20	43387.00
644.95	43405.00
645.71	43646.00
646.46	43723.00
647.21	43807.00
647.96	44067.00
648.71	44206.00
649.47	44321.00
650.22	44432.00
650.97	44621.00
651.72	44746.00
652.47	44824.00
653.22	44916.00
653.97	44969.00
654.73	45120.00
655.48	45269.00
656.23	45442.00
656.98	45570.00
657.73	45639.00
658.48	45769.00
659.23	45832.00
659.98	45833.00
660.73	46021.00
661.48	46223.00
662.23	46328.00
662.99	46274.00
663.74	46122.00
664.49	46404.00
665.24	46772.00
665.99	47096.00
666.74	47185.00
667.49	47306.00
668.24	47413.00
668.99	47525.00
669.74	47729.00
670.49	48049.00
671.24	48196.00
671.99	48299.00
672.74	48457.00
673.48	48383.00
674.23	48429.00
674.98	48589.00
675.73	48570.00
676.48	48797.00
677.23	48981.00
677.98	49035.00
678.73	49142.00
679.48	49240.00
680.23	49286.00
680.98	49228.00
681.73	49224.00
682.47	49214.00
683.22	49139.00
683.97	49126.00
684.72	49140.00
685.47	49154.00
686.22	49288.00
686.97	49429.00
687.71	49522.00
688.46	49666.00
689.21	49619.00
689.96	49707.00
690.71	49737.00
691.45	49803.00
692.20	49738.00
692.95	49999.00
693.70	50048.00
694.44	50372.00
695.19	50346.00
695.94	50461.00
696.69	50591.00
697.43	50607.00
698.18	50707.00
698.93	50708.00
699.68	50665.00
700.42	50738.00
701.17	50610.00
701.92	50609.00
702.66	50634.00
703.41	50645.00
704.16	50708.00
704.90	50672.00
705.65	50739.00
706.40	50823.00
707.14	50827.00
707.89	50932.00
708.64	50891.00
709.38	50867.00
710.13	50992.00
710.88	51049.00
711.62	50956.00
712.37	51036.00
713.11	50908.00
713.86	50984.00
714.61	51034.00
715.35	50931.00
716.10	50940.00
716.84	50721.00
717.59	50615.00
718.33	50563.00
719.08	50716.00
719.83	50660.00
720.57	50606.00
721.32	50511.00
722.06	50495.00
722.81	50317.00
723.55	50322.00
724.30	50216.00
725.04	50296.00
725.79	50164.00
726.53	50115.00
727.28	50127.00
728.02	50181.00
728.76	50135.00
729.51	50163.00
730.25	50166.00
731.00	50112.00
731.74	50144.00
732.49	50204.00
733.23	49894.00
733.97	49889.00
734.72	49805.00
735.46	49635.00
736.21	49552.00
736.95	49461.00
737.69	49582.00
738.44	49745.00
739.18	49984.00
739.92	50082.00
740.67	50273.00
741.41	50579.00
742.15	50724.00
742.90	50696.00
743.64	50987.00
744.38	50874.00
745.13	50860.00
745.87	50770.00
746.61	50818.00
747.36	50791.00
748.10	50616.00
748.84	50398.00
749.58	50146.00
750.33	50080.00
751.07	49935.00
751.81	49929.00
752.55	49783.00
753.30	49701.00
754.04	49698.00
754.78	49715.00
755.52	49657.00
756.27	49393.00
757.01	49419.00
757.75	49379.00
758.49	49497.00
759.23	49476.00
759.97	49391.00
760.72	49262.00
761.46	49191.00
762.20	49255.00
762.94	49313.00
763.68	49185.00
764.42	48998.00
765.16	48868.00
765.91	48969.00
766.65	48813.00
767.39	48704.00
768.13	48700.00
768.87	48746.00
769.61	48520.00
770.35	48424.00
771.09	48410.00
771.83	48309.00
772.57	48356.00
773.31	48441.00
774.05	48514.00
774.80	48622.00
775.54	48584.00
776.28	48470.00
777.02	48227.00
777.76	48123.00
778.50	47863.00
779.24	47754.00
779.98	47478.00
780.72	47226.00
781.46	47171.00
782.20	46997.00
782.93	47121.00
783.67	47029.00
784.41	46810.00
785.15	46688.00
785.89	46641.00
786.63	46337.00
787.37	46285.00
788.11	46112.00
788.85	46058.00
789.59	45940.00
790.33	46105.00
791.07	46175.00
791.81	46129.00
792.54	45870.00
793.28	45750.00
794.02	45454.00
794.76	45260.00
795.50	44785.00
796.24	44524.00
796.97	44232.00
797.71	43999.00
798.45	43753.00
799.19	43820.00
799.93	43793.00
800.67	43619.00
801.40	43619.00
802.14	43843.00
802.88	43988.00
803.62	44010.00
804.35	44031.00
805.09	43778.00
805.83	43722.00
806.57	43530.00
807.30	43535.00
808.04	43518.00
808.78	43409.00
809.52	43005.00
810.25	42730.00
810.99	42605.00
811.73	42419.00
812.46	42348.00
813.20	42384.00
813.94	42281.00
814.68	42138.00
815.41	42095.00
816.15	42130.00
816.88	42148.00
817.62	41977.00
818.36	41843.00
819.09	41587.00
819.83	41473.00
820.57	41383.00
821.30	41293.00
822.04	41039.00
822.77	40981.00
823.51	40807.00
824.25	40819.00
824.98	40788.00
825.72	40870.00
826.45	40777.00
827.19	40635.00
827.92	40445.00
828.66	40303.00
829.40	40223.00
830.13	40142.00
830.87	40030.00
831.60	39957.00
832.34	39823.00
833.07	39790.00
833.81	39664.00
834.54	39725.00
835.28	39827.00
836.01	39682.00
836.75	39659.00
837.48	39406.00
838.22	39309.00
838.95	39277.00
839.68	39267.00
840.42	39261.00
841.15	39029.00
841.89	38882.00
842.62	38489.00
843.36	38323.00
844.09	38261.00
844.82	38150.00
845.56	38063.00
846.29	37826.00
847.02	37624.00
847.76	37539.00
848.49	37455.00
849.23	37619.00
849.96	37715.00
850.69	37786.00
851.43	37595.00
852.16	37348.00
852.89	37228.00
853.63	37170.00
854.36	37188.00
855.09	37246.00
855.82	37203.00
856.56	37069.00
857.29	36802.00
858.02	36549.00
858.76	36487.00
859.49	36340.00
860.22	36319.00
860.95	36167.00
861.69	36102.00
862.42	35825.00
863.15	35816.00
863.88	35905.00
864.61	36010.00
865.35	35989.00
866.08	35891.00
866.81	35642.00
867.54	35395.00
868.27	35276.00
869.01	35178.00
869.74	35064.00
870.47	35142.00
871.20	35081.00
871.93	35091.00
872.66	34930.00
873.40	34800.00
874.13	34553.00
874.86	34428.00
875.59	34365.00
876.32	34254.00
877.05	34083.00
877.78	33835.00
878.51	33475.00
879.24	33361.00
879.97	33106.00
880.71	32943.00
881.44	32809.00
882.17	32723.00
882.90	32663.00
883.63	32636.00
884.36	32741.00
885.09	32892.00
885.82	33033.00
886.55	33199.00
887.28	33233.00
888.01	33208.00
888.74	33178.00
889.47	32865.00
890.20	32639.00
890.93	32270.00
891.66	32008.00
892.39	31892.00
893.12	31788.00
893.85	31675.00
894.57	31439.00
895.30	31212.00
896.03	31008.00
896.76	30968.00
897.49	30846.00
898.22	30780.00
898.95	30676.00
899.68	30630.00
900.41	30671.00
901.14	30754.00
901.86	30563.00
902.59	30592.00
903.32	30638.00
904.05	30706.00
904.78	30386.00
905.51	30070.00
906.24	29838.00
906.96	29670.00
907.69	29481.00
908.42	29361.00
909.15	29223.00
909.88	29030.00
910.60	28926.00
911.33	28876.00
912.06	28965.00
912.79	28966.00
913.52	28903.00
914.24	28827.00
914.97	28723.00
915.70	28564.00
916.42	28357.00
917.15	28230.00
917.88	27991.00
918.61	27731.00
919.33	27512.00
920.06	27262.00
920.79	27125.00
921.51	27025.00
922.24	26974.00
922.97	26760.00
923.69	26589.00
924.42	26407.00
925.15	26155.00
925.87	25902.00
926.60	25536.00
927.33	25356.00
928.05	25091.00
928.78	24807.00
929.51	24737.00
930.23	24518.00
930.96	24407.00
931.68	24090.00
932.41	23822.00
933.14	23546.00
933.86	23259.00
934.59	22887.00
935.31	22454.00
936.04	21860.00
936.76	21309.00
937.49	20888.00
938.21	20335.00
938.94	19933.00
939.66	19471.00
940.39	19077.00
941.11	18747.00
941.84	18521.00
942.56	18342.00
943.29	18195.00
944.01	18101.00
944.74	17978.00
945.46	18023.00
946.19	18053.00
946.91	18155.00
947.64	18232.00
948.36	18206.00
949.09	18308.00
949.81	18282.00
950.53	18413.00
951.26	18489.00
951.98	18501.00
952.71	18512.00
953.43	18623.00
954.15	18621.00
954.88	18773.00
955.60	18715.00
956.33	18813.00
957.05	18773.00
957.77	18806.00
958.50	18778.00
959.22	18789.00
959.94	18742.00
960.67	18648.00
961.39	18653.00
962.11	18630.00
962.84	18706.00
963.56	18610.00
964.28	18558.00
965.00	18383.00
965.73	18247.00
966.45	18140.00
967.17	18074.00
967.89	17899.00
968.62	17795.00
969.34	17537.00
970.06	17415.00
970.78	17359.00
971.51	17288.00
972.23	17189.00
972.95	17072.00
973.67	16930.00
974.40	16834.00
975.12	16773.00
975.84	16670.00
976.56	16440.00
977.28	16355.00
978.00	16264.00
978.73	16192.00
979.45	16121.00
980.17	16087.00
980.89	15986.00
981.61	15935.00
982.33	15853.00
983.05	15758.00
983.77	15709.00
984.50	15639.00
985.22	15596.00
985.94	15567.00
986.66	15592.00
987.38	15589.00
988.10	15547.00
988.82	15537.00
989.54	15462.00
990.26	15343.00
990.98	15210.00
991.70	15093.00
992.42	14960.00
993.14	14784.00
993.86	14652.00
994.58	14504.00
995.30	14363.00
996.02	14318.00
996.74	14268.00
997.46	14144.00
998.18	14071.00
998.90	13977.00
999.62	13871.00
1000.34	13756.00
1001.06	13718.00
1001.78	13558.00
1002.50	13427.00
1003.22	13226.00
1003.94	13089.00
1004.66	12962.00
1005.38	12816.00
1006.09	12614.00
1006.81	12469.00
1007.53	12327.00
1008.25	12203.00
1008.97	12070.00
1009.69	11967.00
1010.41	11881.00
1011.13	11786.00
1011.84	11656.00
1012.56	11553.00
1013.28	11458.00
1014.00	11341.00
1014.72	11256.00
1015.44	11110.00
1016.15	10982.00
1016.87	10802.00
1017.59	10681.00
1018.31	10533.00
1019.03	10527.00
1019.74	10495.00
1020.46	10415.00
1021.18	10250.00
1021.90	10176.00
1022.61	10071.00
1023.33	9941.00
1024.05	9865.00
1024.76	9711.00
1025.48	9559.00
1026.20	9394.00
1026.92	9270.00
1027.63	9143.00
1028.35	9063.00
1029.07	8927.00
1029.78	8827.00
1030.50	8725.00
1031.22	8611.00
1031.93	8504.00
1032.65	8388.00
1033.37	8284.00
1034.08	8224.00
1034.80	8152.00
1035.52	8074.00
1036.23	7965.00
1036.95	7926.00
1037.66	7840.00
1038.38	7754.00
1039.10	7641.00
1039.81	7516.00
1040.53	7426.00
1041.24	7302.00
1041.96	7185.00
1042.67	7136.00
1043.39	7031.00
1044.10	6966.00
1044.82	6909.00
1045.54	6832.00
1046.25	6722.00
1046.97	6625.00
1047.68	6544.00
1048.40	6466.00
1049.11	6346.00
1049.83	6272.00
1050.54	6160.00
1051.26	6123.00
1051.97	6042.00
1052.68	5971.00
1053.40	5858.00
1054.11	5765.00
1054.83	5679.00
1055.54	5596.00
1056.26	5531.00
1056.97	5460.00
1057.69	5388.00
1058.40	5329.00
1059.11	5253.00
1059.83	5185.00
1060.54	5094.00
1061.25	4985.00
1061.97	4910.00
1062.68	4834.00
1063.40	4759.00
1064.11	4694.00
1064.82	4590.00
1065.54	4498.00
1066.25	2563.00
1066.96	2576.00
1067.68	2566.00
1068.39	2572.00
1069.10	2619.00
1069.82	2600.00
1070.53	2624.00
1071.24	2610.00
1071.95	2620.00
1072.67	2617.00
1073.38	4413.00
1074.09	4325.00
1074.80	4253.00
1075.52	4170.00
1076.23	4095.00
1076.94	4028.00
1077.65	2352.00
1078.37	2346.00
1079.08	2342.00
1079.79	2345.00
