300.47	2612.00
301.26	2613.00
302.04	2618.00
302.82	2614.00
303.60	2612.00
304.38	2615.00
305.17	2603.00
305.95	2599.00
306.73	2603.00
307.51	2603.00
308.29	2603.00
309.08	2607.00
309.86	2608.00
310.64	2608.00
311.42	2606.00
312.20	2604.00
312.98	2609.00
313.76	2609.00
314.55	2606.00
315.33	2605.00
316.11	2606.00
316.89	2608.00
317.67	2613.00
318.45	2607.00
319.23	2614.00
320.01	2611.00
320.79	2611.00
321.57	2611.00
322.35	2617.00
323.13	2597.00
323.91	2609.00
324.69	2597.00
325.47	2607.00
326.25	2609.00
327.03	2600.00
327.81	2600.00
328.59	2614.00
329.37	2611.00
330.15	2612.00
330.93	2613.00
331.71	2614.00
332.49	2615.00
333.27	2607.00
334.05	2616.00
334.83	2609.00
335.61	2621.00
336.39	2598.00
337.17	2607.00
337.95	2612.00
338.73	2620.00
339.51	2621.00
340.29	2617.00
341.07	2626.00
341.84	2617.00
342.62	2623.00
343.40	2633.00
344.18	2610.00
344.96	2627.00
345.74	2625.00
346.52	2624.00
347.29	2640.00
348.07	2619.00
348.85	2631.00
349.63	2639.00
350.41	2636.00
351.18	2638.00
351.96	2650.00
352.74	2637.00
353.52	2652.00
354.30	2641.00
355.07	2651.00
355.85	2667.00
356.63	2651.00
357.41	2670.00
358.18	2650.00
358.96	2671.00
359.74	2661.00
360.52	2677.00
361.29	2667.00
362.07	2692.00
362.85	2675.00
363.62	2698.00
364.40	2694.00
365.18	2710.00
365.95	2717.00
366.73	2700.00
367.51	2729.00
368.28	2733.00
369.06	2722.00
369.84	2749.00
370.61	2743.00
371.39	2746.00
372.17	2769.00
372.94	2765.00
373.72	2775.00
374.49	2792.00
375.27	2773.00
376.05	2812.00
376.82	2811.00
377.60	2810.00
378.37	2834.00
379.15	2835.00
379.92	2842.00
380.70	2866.00
381.47	2870.00
382.25	2895.00
383.02	2894.00
383.80	2906.00
384.58	2927.00
385.35	2932.00
386.13	2951.00
386.90	2963.00
387.67	2956.00
388.45	2999.00
389.22	3011.00
390.00	3007.00
390.77	3041.00
391.55	3046.00
392.32	3055.00
393.10	3079.00
393.87	3090.00
394.65	3117.00
395.42	3121.00
396.19	3129.00
396.97	3180.00
397.74	3166.00
398.52	3210.00
399.29	3223.00
400.06	3213.00
400.84	3253.00
401.61	3262.00
402.38	3281.00
403.16	3317.00
403.93	3310.00
404.70	3352.00
405.48	3368.00
406.25	3367.00
407.02	3399.00
407.80	3429.00
408.57	3433.00
409.34	3482.00
410.12	3484.00
410.89	3490.00
411.66	3550.00
412.43	3553.00
413.21	3569.00
413.98	3596.00
414.75	3594.00
415.52	3651.00
416.30	3659.00
417.07	3688.00
417.84	3709.00
418.61	3732.00
419.39	3774.00
420.16	3787.00
420.93	3818.00
421.70	3843.00
422.47	3854.00
423.24	3889.00
424.02	3928.00
424.79	3931.00
425.56	3981.00
426.33	4005.00
427.10	4020.00
427.87	4074.00
428.64	4077.00
429.42	4133.00
430.19	4161.00
430.96	4178.00
431.73	4238.00
432.50	4258.00
433.27	4287.00
434.04	4345.00
434.81	4381.00
435.58	4428.00
436.35	4460.00
437.12	4485.00
437.89	4545.00
438.67	4576.00
439.44	4598.00
440.21	4673.00
440.98	4723.00
441.75	4758.00
442.52	4790.00
443.29	4847.00
444.06	4887.00
444.83	4962.00
445.60	4984.00
446.37	5058.00
447.13	5112.00
447.90	5134.00
448.67	5212.00
449.44	5270.00
450.21	5318.00
450.98	5365.00
451.75	5415.00
452.52	5501.00
453.29	5558.00
454.06	5614.00
454.83	5682.00
455.60	5741.00
456.37	5774.00
457.13	5877.00
457.90	5943.00
458.67	6003.00
459.44	6066.00
460.21	6140.00
460.98	6198.00
461.75	6283.00
462.51	6343.00
463.28	6449.00
464.05	6493.00
464.82	6573.00
465.59	6641.00
466.35	6732.00
467.12	6801.00
467.89	6862.00
468.66	6978.00
469.43	7056.00
470.19	7173.00
470.96	7193.00
471.73	7317.00
472.50	7396.00
473.26	7456.00
474.03	7577.00
474.80	7641.00
475.56	7709.00
476.33	7841.00
477.10	7883.00
477.87	8008.00
478.63	8111.00
479.40	8200.00
480.17	8304.00
480.93	8363.00
481.70	8473.00
482.47	8596.00
483.23	8685.00
484.00	8804.00
484.76	8907.00
485.53	9037.00
486.30	9140.00
487.06	9263.00
487.83	9336.00
488.60	9490.00
489.36	9590.00
490.13	9666.00
490.89	9772.00
491.66	9843.00
492.42	9991.00
493.19	10127.00
493.96	10178.00
494.72	10330.00
495.49	10442.00
496.25	10574.00
497.02	10679.00
497.78	10819.00
498.55	10925.00
499.31	11027.00
500.08	11129.00
500.84	11277.00
501.61	11405.00
502.37	11514.00
503.14	11700.00
503.90	11789.00
504.67	11900.00
505.43	12092.00
506.20	12177.00
506.96	12351.00
507.72	12434.00
508.49	12581.00
509.25	12728.00
510.02	12880.00
510.78	12983.00
511.54	13171.00
512.31	13299.00
513.07	13412.00
513.84	13579.00
514.60	13697.00
515.36	13802.00
516.13	13923.00
516.89	14025.00
517.65	14223.00
518.42	14317.00
519.18	14463.00
519.94	14554.00
520.71	14707.00
521.47	14804.00
522.23	15013.00
523.00	15147.00
523.76	15332.00
524.52	15451.00
525.28	15631.00
526.05	15785.00
526.81	15932.00
527.57	16056.00
528.33	16218.00
529.10	16371.00
529.86	16519.00
530.62	16707.00
531.38	16885.00
532.15	16994.00
532.91	17151.00
533.67	17298.00
534.43	17415.00
535.19	17576.00
535.96	17700.00
536.72	17864.00
537.48	17977.00
538.24	18143.00
539.00	18297.00
539.76	18456.00
540.53	18652.00
541.29	18769.00
542.05	18960.00
542.81	19144.00
543.57	19329.00
544.33	19582.00
545.09	19666.00
545.85	19848.00
546.61	19998.00
547.38	20129.00
548.14	20303.00
548.90	20468.00
549.66	20630.00
550.42	20777.00
551.18	20990.00
551.94	21147.00
552.70	21292.00
553.46	21529.00
554.22	21655.00
554.98	21833.00
555.74	21870.00
556.50	21991.00
557.26	22210.00
558.02	22401.00
558.78	22573.00
559.54	22698.00
560.30	22806.00
561.06	23023.00
561.82	23272.00
562.58	23417.00
563.34	23691.00
564.10	23766.00
564.86	23865.00
565.61	24107.00
566.37	24255.00
567.13	24433.00
567.89	24637.00
568.65	24817.00
569.41	24881.00
570.17	25112.00
570.93	25352.00
571.69	25436.00
572.44	25613.00
573.20	25789.00
573.96	25906.00
574.72	26081.00
575.48	26263.00
576.24	26390.00
576.99	26483.00
577.75	26670.00
578.51	26930.00
579.27	27098.00
580.03	27256.00
580.78	27403.00
581.54	27646.00
582.30	27780.00
583.06	27900.00
583.82	28014.00
584.57	28184.00
585.33	28324.00
586.09	28476.00
586.84	28605.00
587.60	28757.00
588.36	28899.00
589.12	29038.00
589.87	29217.00
590.63	29427.00
591.39	29548.00
592.14	29749.00
592.90	29818.00
593.66	30051.00
594.41	30188.00
595.17	30326.00
595.93	30542.00
596.68	30578.00
597.44	30792.00
598.20	30964.00
598.95	31091.00
599.71	31286.00
600.46	31398.00
601.22	31537.00
601.98	31716.00
602.73	31898.00
603.49	32162.00
604.24	32416.00
605.00	32535.00
605.76	32764.00
606.51	32922.00
607.27	33019.00
608.02	33243.00
608.78	33412.00
609.53	33517.00
610.29	33691.00
611.04	33865.00
611.80	34148.00
612.55	34291.00
613.31	34499.00
614.06	34647.00
614.82	34856.00
615.57	35062.00
616.33	35126.00
617.08	35321.00
617.84	35355.00
618.59	35414.00
619.35	35403.00
620.10	35369.00
620.85	35573.00
621.61	35558.00
622.36	35592.00
623.12	35680.00
623.87	35775.00
624.62	35952.00
625.38	36071.00
626.13	36185.00
626.89	36295.00
627.64	36361.00
628.39	36505.00
629.15	36564.00
629.90	36737.00
630.65	36868.00
631.41	36764.00
632.16	36804.00
632.91	36845.00
633.67	36944.00
634.42	36917.00
635.17	37035.00
635.92	37283.00
636.68	37651.00
637.43	38138.00
638.18	38534.00
638.94	38888.00
639.69	39283.00
640.44	39586.00
641.19	39839.00
641.95	40225.00
642.70	40438.00
643.45	40667.00
644.20	40850.00
644.95	41053.00
645.71	41217.00
646.46	41266.00
647.21	41369.00
647.96	41637.00
648.71	41748.00
649.47	41841.00
650.22	42107.00
650.97	42265.00
651.72	42405.00
652.47	42554.00
653.22	42458.00
653.97	42561.00
654.73	42609.00
655.48	42697.00
656.23	42883.00
656.98	42944.00
657.73	43067.00
658.48	43081.00
659.23	43124.00
659.98	43248.00
660.73	43266.00
661.48	43461.00
662.23	43635.00
662.99	43542.00
663.74	43480.00
664.49	43761.00
665.24	44156.00
665.99	44655.00
666.74	44925.00
667.49	45026.00
668.24	45033.00
668.99	45120.00
669.74	45144.00
670.49	45399.00
671.24	45399.00
671.99	45605.00
672.74	45650.00
673.48	45823.00
674.23	45944.00
674.98	45925.00
675.73	45952.00
676.48	46146.00
677.23	46155.00
677.98	46224.00
678.73	46414.00
679.48	46356.00
680.23	46510.00
680.98	46564.00
681.73	46607.00
682.47	46703.00
683.22	46670.00
683.97	46838.00
684.72	46891.00
685.47	46972.00
686.22	46958.00
686.97	47125.00
687.71	47161.00
688.46	47208.00
689.21	47163.00
689.96	47328.00
690.71	47357.00
691.45	47311.00
692.20	47285.00
692.95	47360.00
693.70	47405.00
694.44	47551.00
695.19	47629.00
695.94	47643.00
696.69	47795.00
697.43	47843.00
698.18	47918.00
698.93	47980.00
699.68	47919.00
700.42	47907.00
701.17	47931.00
701.92	48055.00
702.66	48045.00
703.41	48041.00
704.16	47971.00
704.90	48072.00
705.65	48123.00
706.40	48153.00
707.14	48230.00
707.89	48228.00
708.64	48273.00
709.38	48301.00
710.13	48258.00
710.88	48314.00
711.62	48298.00
712.37	48275.00
713.11	48225.00
713.86	48223.00
714.61	48222.00
715.35	48237.00
716.10	48267.00
716.84	48216.00
717.59	48194.00
718.33	48070.00
719.08	48100.00
719.83	48109.00
720.57	47998.00
721.32	48020.00
722.06	47955.00
722.81	47804.00
723.55	47750.00
724.30	47647.00
725.04	47692.00
725.79	47595.00
726.53	47532.00
727.28	47510.00
728.02	47552.00
728.76	47629.00
729.51	47705.00
730.25	47808.00
731.00	47905.00
731.74	48000.00
732.49	47922.00
733.23	47884.00
733.97	47794.00
734.72	47593.00
735.46	47683.00
736.21	47601.00
736.95	47582.00
737.69	47502.00
738.44	47626.00
739.18	47828.00
739.92	47892.00
740.67	48024.00
741.41	48005.00
742.15	48268.00
742.90	48227.00
743.64	48428.00
744.38	48353.00
745.13	48281.00
745.87	48131.00
746.61	48115.00
747.36	48202.00
748.10	48158.00
748.84	47990.00
749.58	47870.00
750.33	47775.00
751.07	47678.00
751.81	47526.00
752.55	47354.00
753.30	47254.00
754.04	47029.00
754.78	47014.00
755.52	46951.00
756.27	46842.00
757.01	46866.00
757.75	46820.00
758.49	46953.00
759.23	46978.00
759.97	46947.00
760.72	46826.00
761.46	46960.00
762.20	46950.00
762.94	46913.00
763.68	46913.00
764.42	46880.00
765.16	46749.00
765.91	46897.00
766.65	46959.00
767.39	46790.00
768.13	46768.00
768.87	46739.00
769.61	46629.00
770.35	46643.00
771.09	46498.00
771.83	46422.00
772.57	46358.00
773.31	46327.00
774.05	46433.00
774.80	46499.00
775.54	46542.00
776.28	46286.00
777.02	46195.00
777.76	46089.00
778.50	46029.00
779.24	45913.00
779.98	45637.00
780.72	45483.00
781.46	45310.00
782.20	45198.00
782.93	45196.00
783.67	45098.00
784.41	44979.00
785.15	44966.00
785.89	44871.00
786.63	44692.00
787.37	44535.00
788.11	44432.00
788.85	44403.00
789.59	44315.00
790.33	44312.00
791.07	44183.00
791.81	44021.00
792.54	43886.00
793.28	43724.00
794.02	43520.00
794.76	43274.00
795.50	43061.00
796.24	42822.00
796.97	42658.00
797.71	42512.00
798.45	42466.00
799.19	42426.00
799.93	42197.00
800.67	41990.00
801.40	41857.00
802.14	42089.00
802.88	42224.00
803.62	42292.00
804.35	42235.00
805.09	42088.00
805.83	41948.00
806.57	41949.00
807.30	41844.00
808.04	41801.00
808.78	41570.00
809.52	41082.00
810.25	40923.00
810.99	40835.00
811.73	40953.00
812.46	40888.00
813.20	40852.00
813.94	40795.00
814.68	40754.00
815.41	40830.00
816.15	40889.00
816.88	40859.00
817.62	40666.00
818.36	40362.00
819.09	40067.00
819.83	39990.00
820.57	39935.00
821.30	39886.00
822.04	39795.00
822.77	39621.00
823.51	39525.00
824.25	39490.00
824.98	39538.00
825.72	39552.00
826.45	39465.00
827.19	39323.00
827.92	39110.00
828.66	38932.00
829.40	38999.00
830.13	39022.00
830.87	38802.00
831.60	38708.00
832.34	38449.00
833.07	38447.00
833.81	38529.00
834.54	38448.00
835.28	38361.00
836.01	38356.00
836.75	38196.00
837.48	38010.00
838.22	37939.00
838.95	37781.00
839.68	37818.00
840.42	37632.00
841.15	37549.00
841.89	37341.00
842.62	37218.00
843.36	37000.00
844.09	36843.00
844.82	36853.00
845.56	36855.00
846.29	36758.00
847.02	36727.00
847.76	36565.00
848.49	36552.00
849.23	36804.00
849.96	36934.00
850.69	36965.00
851.43	36780.00
852.16	36531.00
852.89	36309.00
853.63	36299.00
854.36	36291.00
855.09	36328.00
855.82	36214.00
856.56	36027.00
857.29	35737.00
858.02	35600.00
858.76	35367.00
859.49	35118.00
860.22	35076.00
860.95	34851.00
861.69	34696.00
862.42	34541.00
863.15	34565.00
863.88	34612.00
864.61	34730.00
865.35	34739.00
866.08	34664.00
866.81	34468.00
867.54	34325.00
868.27	34149.00
869.01	34035.00
869.74	34018.00
870.47	34071.00
871.20	34041.00
871.93	33921.00
872.66	33844.00
873.40	33775.00
874.13	33655.00
874.86	33512.00
875.59	33394.00
876.32	33292.00
877.05	33171.00
877.78	32979.00
878.51	32800.00
879.24	32411.00
879.97	32277.00
880.71	32096.00
881.44	32046.00
882.17	31893.00
882.90	31802.00
883.63	31834.00
884.36	31958.00
885.09	32096.00
885.82	32212.00
886.55	32280.00
887.28	32365.00
888.01	32231.00
888.74	32209.00
889.47	31999.00
890.20	31650.00
890.93	31323.00
891.66	31114.00
892.39	30938.00
893.12	30822.00
893.85	30647.00
894.57	30528.00
895.30	30265.00
896.03	30162.00
896.76	30052.00
897.49	29958.00
898.22	29980.00
898.95	29883.00
899.68	29854.00
900.41	29781.00
901.14	29832.00
901.86	29744.00
902.59	29793.00
903.32	29731.00
904.05	29683.00
904.78	29486.00
905.51	29228.00
906.24	28986.00
906.96	28779.00
907.69	28646.00
908.42	28543.00
909.15	28323.00
909.88	28215.00
910.60	28105.00
911.33	28180.00
912.06	28070.00
912.79	28130.00
913.52	28080.00
914.24	27890.00
914.97	27851.00
915.70	27647.00
916.42	27567.00
917.15	27328.00
917.88	27169.00
918.61	26894.00
919.33	26802.00
920.06	26549.00
920.79	26412.00
921.51	26301.00
922.24	26209.00
922.97	26068.00
923.69	25912.00
924.42	25691.00
925.15	25422.00
925.87	25225.00
926.60	24959.00
927.33	24680.00
928.05	24430.00
928.78	24330.00
929.51	24066.00
930.23	23857.00
930.96	23700.00
931.68	23496.00
932.41	23260.00
933.14	23021.00
933.86	22675.00
934.59	22401.00
935.31	21970.00
936.04	21515.00
936.76	21027.00
937.49	20560.00
938.21	20127.00
938.94	19661.00
939.66	19223.00
940.39	18841.00
941.11	18478.00
941.84	18226.00
942.56	18079.00
943.29	17913.00
944.01	17794.00
944.74	17717.00
945.46	17691.00
946.19	17722.00
946.91	17812.00
947.64	17860.00
948.36	17965.00
949.09	17971.00
949.81	18116.00
950.53	18211.00
951.26	18334.00
951.98	18384.00
952.71	18452.00
953.43	18465.00
954.15	18622.00
954.88	18701.00
955.60	18706.00
956.33	18731.00
957.05	18670.00
957.77	18702.00
958.50	18734.00
959.22	18739.00
959.94	18680.00
960.67	18615.00
961.39	18568.00
962.11	18547.00
962.84	18538.00
963.56	18493.00
964.28	18332.00
965.00	18199.00
965.73	18121.00
966.45	17964.00
967.17	17817.00
967.89	17656.00
968.62	17476.00
969.34	17276.00
970.06	17161.00
970.78	17061.00
971.51	17015.00
972.23	16932.00
972.95	16778.00
973.67	16695.00
974.40	16645.00
975.12	16538.00
975.84	16406.00
976.56	16278.00
977.28	16166.00
978.00	15998.00
978.73	15975.00
979.45	15934.00
980.17	15890.00
980.89	15834.00
981.61	15789.00
982.33	15754.00
983.05	15724.00
983.77	15657.00
984.50	15560.00
985.22	15565.00
985.94	15468.00
986.66	15490.00
987.38	15419.00
988.10	15392.00
988.82	15378.00
989.54	15289.00
990.26	15180.00
990.98	15081.00
991.70	14997.00
992.42	14865.00
993.14	14742.00
993.86	14539.00
994.58	14487.00
995.30	14346.00
996.02	14227.00
996.74	14193.00
997.46	14194.00
998.18	14107.00
998.90	14023.00
999.62	13877.00
1000.34	13780.00
1001.06	13733.00
1001.78	13613.00
1002.50	13435.00
1003.22	13213.00
1003.94	13106.00
1004.66	13011.00
1005.38	12826.00
1006.09	12699.00
1006.81	12522.00
1007.53	12398.00
1008.25	12300.00
1008.97	12159.00
1009.69	12101.00
1010.41	11953.00
1011.13	11931.00
1011.84	11800.00
1012.56	11686.00
1013.28	11571.00
1014.00	11482.00
1014.72	11356.00
1015.44	11225.00
1016.15	11059.00
1016.87	10895.00
1017.59	10723.00
1018.31	10590.00
1019.03	10548.00
1019.74	10496.00
1020.46	10447.00
1021.18	10317.00
1021.90	10265.00
1022.61	10164.00
1023.33	10097.00
1024.05	10001.00
1024.76	9834.00
1025.48	9707.00
1026.20	9507.00
1026.92	9366.00
1027.63	9258.00
1028.35	9099.00
1029.07	9039.00
1029.78	8950.00
1030.50	8843.00
1031.22	8755.00
1031.93	8614.00
1032.65	8543.00
1033.37	8462.00
1034.08	8386.00
1034.80	8298.00
1035.52	8212.00
1036.23	8151.00
1036.95	8037.00
1037.66	7968.00
1038.38	7870.00
1039.10	7768.00
1039.81	7595.00
1040.53	7477.00
1041.24	7396.00
1041.96	7332.00
1042.67	7198.00
1043.39	7137.00
1044.10	7097.00
1044.82	7034.00
1045.54	6938.00
1046.25	6851.00
1046.97	6756.00
1047.68	6678.00
1048.40	6595.00
1049.11	6478.00
1049.83	6385.00
1050.54	6339.00
1051.26	6256.00
1051.97	6184.00
1052.68	6135.00
1053.40	6042.00
1054.11	5933.00
1054.83	5831.00
1055.54	5752.00
1056.26	5658.00
1056.97	5575.00
1057.69	5518.00
1058.40	5465.00
1059.11	5400.00
1059.83	5303.00
1060.54	5205.00
1061.25	5113.00
1061.97	5023.00
1062.68	4951.00
1063.40	4885.00
1064.11	4795.00
1064.82	4705.00
1065.54	4621.00
1066.25	2564.00
1066.96	2562.00
1067.68	2560.00
1068.39	2562.00
1069.10	2607.00
1069.82	2613.00
1070.53	2610.00
1071.24	2608.00
1071.95	2612.00
1072.67	2611.00
1073.38	4552.00
1074.09	4467.00
1074.80	4371.00
1075.52	4284.00
1076.23	4220.00
1076.94	4164.00
1077.65	2398.00
1078.37	2390.00
1079.08	2392.00
1079.79	2403.00
