Data from PL_2polymer_F8BT_MEHPPV_USB2H096331_0160.txt Node
Date: Tue Dec 15 15:24:53 CET 2020
User: spadmin
Spectrometer: USB2+H09633
Trigger mode: 0
Integration Time (sec): 1.000000E-2
Scans to average: 1
Electric dark correction enabled: true
Nonlinearity correction enabled: false
Boxcar width: 0
XAxis mode: Wavelengths
Number of Pixels in Spectrum: 2048
>>>>>Begin Spectral Data<<<<<
174.027	-57.34
174.405	-57.34
174.783	-57.34
175.162	-107.06
175.54	-107.06
175.918	-82.2
176.296	-136.44
176.674	-39.26
177.052	-91.24
177.43	-68.64
177.808	-84.46
178.186	-32.49
178.564	-61.86
178.942	-32.49
179.32	-43.78
179.698	3.67
180.076	48.87
180.453	28.53
180.831	55.65
181.209	137
181.587	161.86
181.965	155.08
182.342	150.56
182.72	184.46
183.098	188.98
183.475	234.17
183.853	236.43
184.231	292.93
184.608	299.71
184.986	209.32
185.363	265.81
185.741	333.61
186.118	374.28
186.496	322.31
186.873	338.13
187.251	390.1
187.628	353.95
188.006	401.4
188.383	383.32
188.76	317.79
189.138	405.92
189.515	356.21
189.892	344.91
190.27	412.7
190.647	392.36
191.024	378.8
191.401	324.57
191.778	360.72
192.155	301.97
192.533	356.21
192.91	304.23
193.287	281.63
193.664	315.53
194.041	304.23
194.418	315.53
194.795	306.49
195.172	306.49
195.549	292.93
195.926	338.13
196.302	315.53
196.679	306.49
197.056	301.97
197.433	295.19
197.81	331.35
198.187	374.28
198.563	286.15
198.94	322.31
199.317	347.17
199.693	333.61
200.07	338.13
200.447	313.27
200.823	333.61
201.2	288.41
201.576	279.37
201.953	268.07
202.329	313.27
202.706	356.21
203.082	313.27
203.459	299.71
203.835	320.05
204.212	349.43
204.588	292.93
204.964	376.54
205.341	322.31
205.717	317.79
206.093	292.93
206.469	367.5
206.846	252.25
207.222	419.48
207.598	295.19
207.974	265.81
208.35	317.79
208.726	317.79
209.102	324.57
209.479	295.19
209.855	320.05
210.231	272.59
210.607	304.23
210.982	367.5
211.358	356.21
211.734	365.24
212.11	272.59
212.486	362.98
212.862	333.61
213.238	320.05
213.614	299.71
213.989	365.24
214.365	270.33
214.741	338.13
215.116	340.39
215.492	362.98
215.868	360.72
216.243	374.28
216.619	356.21
216.995	374.28
217.37	338.13
217.746	295.19
218.121	335.87
218.497	288.41
218.872	356.21
219.247	342.65
219.623	329.09
219.998	320.05
220.374	378.8
220.749	281.63
221.124	365.24
221.499	369.76
221.875	344.91
222.25	356.21
222.625	381.06
223	403.66
223.376	383.32
223.751	313.27
224.126	326.83
224.501	299.71
224.876	295.19
225.251	412.7
225.626	376.54
226.001	356.21
226.376	344.91
226.751	369.76
227.126	390.1
227.501	403.66
227.875	383.32
228.25	333.61
228.625	372.02
229	306.49
229.375	387.84
229.749	401.4
230.124	378.8
230.499	333.61
230.873	378.8
231.248	369.76
231.623	401.4
231.997	424
232.372	369.76
232.746	320.05
233.121	306.49
233.495	378.8
233.87	390.1
234.244	367.5
234.619	396.88
234.993	367.5
235.367	347.17
235.742	412.7
236.116	333.61
236.49	353.95
236.865	360.72
237.239	356.21
237.613	410.44
237.987	358.47
238.361	396.88
238.736	372.02
239.11	365.24
239.484	344.91
239.858	383.32
240.232	403.66
240.606	372.02
240.98	340.39
241.354	344.91
241.728	283.89
242.102	387.84
242.475	360.72
242.849	394.62
243.223	374.28
243.597	410.44
243.971	381.06
244.344	356.21
244.718	381.06
245.092	365.24
245.466	396.88
245.839	362.98
246.213	401.4
246.586	392.36
246.96	405.92
247.334	424
247.707	383.32
248.081	437.56
248.454	394.62
248.828	426.26
249.201	383.32
249.574	403.66
249.948	403.66
250.321	308.75
250.694	356.21
251.068	376.54
251.441	344.91
251.814	356.21
252.187	376.54
252.561	362.98
252.934	374.28
253.307	372.02
253.68	390.1
254.053	417.22
254.426	313.27
254.799	385.58
255.172	372.02
255.545	372.02
255.918	358.47
256.291	442.08
256.664	378.8
257.037	385.58
257.41	399.14
257.782	385.58
258.155	394.62
258.528	378.8
258.901	403.66
259.273	376.54
259.646	367.5
260.019	383.32
260.391	381.06
260.764	430.78
261.137	405.92
261.509	421.74
261.882	383.32
262.254	442.08
262.627	387.84
262.999	387.84
263.372	333.61
263.744	324.57
264.116	367.5
264.489	392.36
264.861	424
265.233	419.48
265.606	428.52
265.978	480.5
266.35	390.1
266.722	414.96
267.094	329.09
267.467	335.87
267.839	349.43
268.211	426.26
268.583	331.35
268.955	408.18
269.327	367.5
269.699	428.52
270.071	383.32
270.443	426.26
270.815	466.94
271.186	442.08
271.558	360.72
271.93	426.26
272.302	403.66
272.674	367.5
273.045	365.24
273.417	369.76
273.789	356.21
274.16	378.8
274.532	367.5
274.904	460.16
275.275	367.5
275.647	419.48
276.018	442.08
276.39	387.84
276.761	451.12
277.133	408.18
277.504	360.72
277.875	435.3
278.247	385.58
278.618	421.74
278.989	414.96
279.361	478.24
279.732	451.12
280.103	462.42
280.474	419.48
280.846	378.8
281.217	385.58
281.588	439.82
281.959	453.38
282.33	342.65
282.701	494.05
283.072	485.02
283.443	487.28
283.814	412.7
284.185	433.04
284.556	417.22
284.927	401.4
285.297	455.64
285.668	473.72
286.039	464.68
286.41	462.42
286.781	426.26
287.151	448.86
287.522	412.7
287.893	439.82
288.263	417.22
288.634	344.91
289.004	365.24
289.375	442.08
289.745	469.2
290.116	439.82
290.486	491.79
290.857	435.3
291.227	419.48
291.598	417.22
291.968	444.34
292.338	507.61
292.709	453.38
293.079	408.18
293.449	430.78
293.819	498.57
294.189	514.39
294.56	414.96
294.93	471.46
295.3	419.48
295.67	512.13
296.04	464.68
296.41	505.35
296.78	428.52
297.15	464.68
297.52	505.35
297.89	460.16
298.259	485.02
298.629	485.02
298.999	439.82
299.369	421.74
299.739	491.79
300.108	372.02
300.478	478.24
300.848	503.09
301.217	451.12
301.587	462.42
301.957	392.36
302.326	378.8
302.696	446.6
303.065	485.02
303.435	534.73
303.804	498.57
304.174	509.87
304.543	548.29
304.912	482.76
305.282	550.55
305.651	424
306.02	489.54
306.39	500.83
306.759	491.79
307.128	466.94
307.497	451.12
307.866	500.83
308.235	469.2
308.604	489.54
308.974	480.5
309.343	473.72
309.712	530.21
310.08	482.76
310.449	487.28
310.818	480.5
311.187	455.64
311.556	489.54
311.925	530.21
312.294	462.42
312.662	460.16
313.031	494.05
313.4	473.72
313.769	496.31
314.137	546.03
314.506	469.2
314.874	496.31
315.243	442.08
315.612	462.42
315.98	552.81
316.349	546.03
316.717	557.33
317.085	546.03
317.454	543.77
317.822	539.25
318.191	473.72
318.559	536.99
318.927	530.21
319.295	557.33
319.664	573.15
320.032	505.35
320.4	546.03
320.768	516.65
321.136	561.85
321.504	500.83
321.872	464.68
322.24	518.91
322.608	485.02
322.976	518.91
323.344	541.51
323.712	489.54
324.08	512.13
324.448	516.65
324.816	509.87
325.183	568.63
325.551	478.24
325.919	593.49
326.287	491.79
326.654	536.99
327.022	523.43
327.389	527.95
327.757	485.02
328.125	536.99
328.492	525.69
328.86	518.91
329.227	536.99
329.594	561.85
329.962	568.63
330.329	548.29
330.697	600.27
331.064	532.47
331.431	548.29
331.798	487.28
332.166	573.15
332.533	625.12
332.9	514.39
333.267	582.19
333.634	579.93
334.001	525.69
334.368	638.68
334.735	557.33
335.102	575.41
335.469	534.73
335.836	649.98
336.203	536.99
336.57	536.99
336.937	600.27
337.304	647.72
337.67	616.09
338.037	638.68
338.404	647.72
338.771	704.22
339.137	665.8
339.504	645.46
339.87	627.38
340.237	584.45
340.604	609.31
340.97	550.55
341.337	616.09
341.703	591.23
342.069	634.16
342.436	527.95
342.802	636.42
343.169	647.72
343.535	604.79
343.901	620.61
344.267	607.05
344.634	638.68
345	659.02
345.366	638.68
345.732	649.98
346.098	663.54
346.464	677.1
346.83	679.36
347.196	697.44
347.562	690.66
347.928	744.9
348.294	711
348.66	688.4
349.026	647.72
349.392	647.72
349.757	690.66
350.123	726.82
350.489	713.26
350.855	686.14
351.22	688.4
351.586	668.06
351.951	708.74
352.317	758.45
352.683	731.34
353.048	713.26
353.414	704.22
353.779	740.38
354.144	713.26
354.51	785.57
354.875	738.12
355.24	783.31
355.606	826.25
355.971	744.9
356.336	812.69
356.701	839.81
357.067	774.27
357.432	790.09
357.797	762.97
358.162	731.34
358.527	846.59
358.892	808.17
359.257	821.73
359.622	848.85
359.987	844.33
360.352	855.63
360.717	812.69
361.082	862.41
361.446	896.3
361.811	837.55
362.176	812.69
362.541	853.37
362.905	921.16
363.27	939.24
363.635	934.72
363.999	991.22
364.364	964.1
364.728	964.1
365.093	1004.78
365.457	991.22
365.822	991.22
366.186	1052.23
366.55	1077.09
366.915	1063.53
367.279	1104.21
367.643	1031.89
368.008	1077.09
368.372	1185.56
368.736	1065.79
369.1	1133.59
369.464	1099.69
369.828	1106.47
370.192	1090.65
370.556	1165.22
370.92	1210.42
371.284	1199.12
371.648	1233.02
372.012	1300.81
372.376	1393.47
372.74	1368.61
373.104	1402.51
373.468	1547.13
373.831	1529.06
374.195	1522.28
374.559	1583.29
374.922	1468.04
375.286	1533.58
375.65	1628.49
376.013	1752.78
376.377	1752.78
376.74	1865.77
377.104	1883.85
377.467	2089.49
377.83	2082.71
378.194	2254.46
378.557	2324.52
378.92	2419.43
379.284	2505.3
379.647	2848.8
380.01	2889.47
380.373	3013.76
380.736	3126.75
381.1	3533.52
381.463	3861.2
381.826	3962.89
382.189	4390
382.552	4674.74
382.915	5058.91
383.278	5431.78
383.64	5942.5
384.003	6396.72
384.366	6979.76
384.729	7739.06
385.092	8093.85
385.454	8807.96
385.817	9709.63
386.18	10670.06
386.542	12019.18
386.905	13031.58
387.268	14184.09
387.63	16075.57
387.993	16753.51
388.355	18665.33
388.718	20622.34
389.08	22416.64
389.442	24210.95
389.805	26556.65
390.167	28027.79
390.529	31650.3
390.892	35521.38
391.254	37261.45
391.616	40138.21
391.978	44133.59
392.34	48327.83
392.702	49762.82
393.064	53213.57
393.426	55046.29
393.788	56802.18
394.15	58585.18
394.512	60148.98
394.874	61972.66
395.236	63755.67
395.598	65046.03
395.96	65046.03
396.321	65046.03
396.683	65046.03
397.045	65046.03
397.406	65046.03
397.768	65046.03
398.13	65046.03
398.491	65046.03
398.853	65046.03
399.214	65046.03
399.576	65046.03
399.937	65046.03
400.299	65046.03
400.66	65046.03
401.021	65046.03
401.383	65046.03
401.744	65046.03
402.105	65046.03
402.466	65046.03
402.827	65046.03
403.189	65046.03
403.55	65046.03
403.911	65046.03
404.272	65046.03
404.633	65046.03
404.994	65046.03
405.355	65046.03
405.716	65046.03
406.077	65046.03
406.437	65046.03
406.798	65046.03
407.159	65046.03
407.52	65046.03
407.88	65046.03
408.241	65046.03
408.602	65046.03
408.962	65046.03
409.323	65046.03
409.684	65046.03
410.044	65046.03
410.405	65046.03
410.765	65046.03
411.125	65046.03
411.486	65046.03
411.846	65046.03
412.206	65046.03
412.567	65046.03
412.927	65046.03
413.287	65046.03
413.647	65046.03
414.007	65046.03
414.368	65046.03
414.728	65046.03
415.088	65046.03
415.448	65046.03
415.808	65046.03
416.168	65046.03
416.528	65046.03
416.887	65046.03
417.247	65046.03
417.607	65046.03
417.967	65046.03
418.327	65046.03
418.686	65046.03
419.046	65046.03
419.406	65046.03
419.765	65046.03
420.125	65046.03
420.484	65046.03
420.844	65046.03
421.203	65046.03
421.563	65046.03
421.922	65046.03
422.282	63439.29
422.641	62126.33
423	60896.99
423.36	60072.15
423.719	57959.21
424.078	56280.16
424.437	54497.15
424.796	53290.41
425.155	51638.47
425.515	49265.65
425.874	47914.28
426.233	44052.23
426.592	41209.37
426.95	40642.15
427.309	38190.24
427.668	37245.63
428.027	34321.41
428.386	33550.81
428.745	30161.07
429.103	28538.52
429.462	27519.33
429.821	25729.55
430.179	24534.1
430.538	23533
430.897	23035.83
431.255	21551.13
431.614	20319.52
431.972	19472.09
432.33	18647.25
432.689	18414.49
433.047	17090.23
433.405	16206.64
433.764	15632.64
434.122	15309.48
434.48	14145.67
434.838	13485.8
435.197	13013.5
435.555	12721.98
435.913	11863.25
436.271	11456.48
436.629	10932.2
436.987	10360.46
437.345	10048.61
437.703	9797.76
438.061	9176.31
438.418	8572.94
438.776	8376.33
439.134	8073.52
439.492	7766.18
439.849	7307.43
440.207	6997.84
440.565	6643.05
440.922	6444.18
441.28	5956.06
441.637	5867.92
441.995	5630.64
442.352	5287.15
442.71	5232.91
443.067	5117.66
443.425	4862.3
443.782	4566.26
444.139	4597.9
444.496	4288.31
444.854	4292.82
445.211	3944.81
445.568	3940.29
445.925	3655.55
446.282	3635.22
446.639	3501.89
446.996	3477.03
447.353	3411.49
447.71	3386.63
448.067	3336.92
448.424	2903.03
448.781	3016.02
449.137	2875.91
449.494	2839.76
449.851	2767.44
450.208	2597.95
450.564	2613.77
450.921	2292.88
451.278	2362.93
451.634	2383.27
451.991	2290.62
452.347	2150.51
452.704	2098.53
453.06	2026.22
453.416	1949.38
453.773	1793.46
454.129	1811.53
454.485	1700.8
454.841	1714.36
455.198	1657.87
455.554	1635.27
455.91	1581.03
456.266	1599.11
456.622	1558.43
456.978	1538.1
457.334	1517.76
457.69	1361.83
458.046	1300.81
458.402	1343.75
458.758	1251.1
459.114	1219.46
459.469	1217.2
459.825	1208.16
460.181	1097.43
460.536	1097.43
460.892	1172
461.248	1018.33
461.603	1025.11
461.959	986.7
462.314	1034.15
462.67	986.7
463.025	1049.97
463.38	991.22
463.736	826.25
464.091	930.2
464.446	923.42
464.802	950.54
465.157	934.72
465.512	835.29
465.867	894.04
466.222	950.54
466.577	778.79
466.932	930.2
467.287	808.17
467.642	753.93
467.997	794.61
468.352	844.33
468.707	808.17
469.062	715.52
469.417	765.23
469.771	787.83
470.126	738.12
470.481	720.04
470.835	654.5
471.19	769.75
471.544	692.92
471.899	677.1
472.253	708.74
472.608	604.79
472.962	738.12
473.317	663.54
473.671	760.71
474.025	670.32
474.38	756.19
474.734	713.26
475.088	744.9
475.442	634.16
475.796	582.19
476.15	613.83
476.504	654.5
476.858	652.24
477.212	656.76
477.566	607.05
477.92	566.37
478.274	620.61
478.628	622.86
478.982	616.09
479.336	555.07
479.689	609.31
480.043	631.9
480.397	593.49
480.75	591.23
481.104	616.09
481.457	631.9
481.811	591.23
482.164	541.51
482.518	598.01
482.871	686.14
483.225	561.85
483.578	568.63
483.931	609.31
484.284	591.23
484.638	584.45
484.991	627.38
485.344	530.21
485.697	582.19
486.05	577.67
486.403	566.37
486.756	582.19
487.109	532.47
487.462	593.49
487.815	613.83
488.168	600.27
488.52	555.07
488.873	487.28
489.226	534.73
489.579	503.09
489.931	518.91
490.284	555.07
490.637	573.15
490.989	507.61
491.342	564.11
491.694	557.33
492.047	500.83
492.399	514.39
492.751	485.02
493.104	487.28
493.456	586.71
493.808	532.47
494.16	464.68
494.513	446.6
494.865	460.16
495.217	469.2
495.569	552.81
495.921	503.09
496.273	496.31
496.625	444.34
496.977	500.83
497.329	473.72
497.68	453.38
498.032	512.13
498.384	536.99
498.736	496.31
499.087	498.57
499.439	516.65
499.791	509.87
500.142	471.46
500.494	564.11
500.845	489.54
501.197	498.57
501.548	534.73
501.9	550.55
502.251	457.9
502.602	471.46
502.954	471.46
503.305	561.85
503.656	521.17
504.007	485.02
504.358	521.17
504.709	457.9
505.061	516.65
505.412	550.55
505.763	496.31
506.113	457.9
506.464	500.83
506.815	503.09
507.166	550.55
507.517	478.24
507.868	557.33
508.218	521.17
508.569	462.42
508.92	568.63
509.27	514.39
509.621	566.37
509.971	514.39
510.322	430.78
510.672	512.13
511.023	534.73
511.373	602.53
511.723	591.23
512.074	552.81
512.424	557.33
512.774	555.07
513.124	521.17
513.475	600.27
513.825	609.31
514.175	512.13
514.525	598.01
514.875	595.75
515.225	579.93
515.575	530.21
515.924	602.53
516.274	530.21
516.624	582.19
516.974	627.38
517.324	518.91
517.673	559.59
518.023	579.93
518.373	600.27
518.722	568.63
519.072	573.15
519.421	616.09
519.771	629.64
520.12	629.64
520.469	618.35
520.819	616.09
521.168	616.09
521.517	677.1
521.867	663.54
522.216	579.93
522.565	661.28
522.914	627.38
523.263	668.06
523.612	609.31
523.961	625.12
524.31	647.72
524.659	665.8
525.008	663.54
525.357	636.42
525.705	656.76
526.054	604.79
526.403	607.05
526.752	659.02
527.1	645.46
527.449	670.32
527.797	577.67
528.146	638.68
528.495	663.54
528.843	665.8
529.191	672.58
529.54	715.52
529.888	602.53
530.236	609.31
530.585	640.94
530.933	665.8
531.281	738.12
531.629	604.79
531.977	697.44
532.325	683.88
532.673	600.27
533.021	636.42
533.369	654.5
533.717	674.84
534.065	631.9
534.413	643.2
534.761	708.74
535.108	609.31
535.456	616.09
535.804	699.7
536.151	643.2
536.499	627.38
536.847	609.31
537.194	620.61
537.542	595.75
537.889	552.81
538.236	643.2
538.584	640.94
538.931	616.09
539.278	625.12
539.626	631.9
539.973	677.1
540.32	629.64
540.667	607.05
541.014	591.23
541.361	616.09
541.708	640.94
542.055	629.64
542.402	609.31
542.749	688.4
543.096	692.92
543.443	654.5
543.789	638.68
544.136	688.4
544.483	643.2
544.83	618.35
545.176	659.02
545.523	582.19
545.869	602.53
546.216	539.25
546.562	586.71
546.909	577.67
547.255	604.79
547.601	588.97
547.948	611.57
548.294	534.73
548.64	620.61
548.986	616.09
549.332	577.67
549.678	525.69
550.025	566.37
550.371	516.65
550.717	607.05
551.062	622.86
551.408	604.79
551.754	643.2
552.1	507.61
552.446	568.63
552.792	552.81
553.137	568.63
553.483	543.77
553.828	577.67
554.174	652.24
554.52	649.98
554.865	616.09
555.211	595.75
555.556	627.38
555.901	573.15
556.247	595.75
556.592	582.19
556.937	591.23
557.282	557.33
557.628	561.85
557.973	607.05
558.318	604.79
558.663	498.57
559.008	586.71
559.353	622.86
559.698	636.42
560.043	618.35
560.388	579.93
560.732	670.32
561.077	600.27
561.422	557.33
561.766	654.5
562.111	568.63
562.456	525.69
562.8	575.41
563.145	629.64
563.489	625.12
563.834	659.02
564.178	701.96
564.523	564.11
564.867	636.42
565.211	532.47
565.555	604.79
565.9	622.86
566.244	607.05
566.588	588.97
566.932	600.27
567.276	568.63
567.62	681.62
567.964	656.76
568.308	679.36
568.652	618.35
568.996	611.57
569.339	602.53
569.683	695.18
570.027	649.98
570.371	568.63
570.714	665.8
571.058	634.16
571.401	647.72
571.745	588.97
572.088	577.67
572.432	616.09
572.775	631.9
573.118	627.38
573.462	690.66
573.805	690.66
574.148	616.09
574.491	616.09
574.835	674.84
575.178	622.86
575.521	598.01
575.864	629.64
576.207	629.64
576.55	645.46
576.892	690.66
577.235	604.79
577.578	643.2
577.921	643.2
578.264	665.8
578.606	654.5
578.949	625.12
579.292	686.14
579.634	591.23
579.977	652.24
580.319	625.12
580.662	559.59
581.004	643.2
581.346	552.81
581.689	582.19
582.031	604.79
582.373	629.64
582.715	656.76
583.057	570.89
583.4	598.01
583.742	604.79
584.084	584.45
584.426	591.23
584.768	638.68
585.109	557.33
585.451	593.49
585.793	652.24
586.135	647.72
586.477	622.86
586.818	602.53
587.16	643.2
587.502	586.71
587.843	568.63
588.185	611.57
588.526	575.41
588.868	543.77
589.209	546.03
589.55	570.89
589.892	530.21
590.233	555.07
590.574	548.29
590.915	530.21
591.257	523.43
591.598	584.45
591.939	577.67
592.28	564.11
592.621	568.63
592.962	518.91
593.303	505.35
593.643	579.93
593.984	598.01
594.325	527.95
594.666	573.15
595.006	509.87
595.347	478.24
595.688	521.17
596.028	518.91
596.369	500.83
596.709	512.13
597.05	570.89
597.39	489.54
597.73	534.73
598.071	532.47
598.411	514.39
598.751	505.35
599.091	577.67
599.431	473.72
599.772	518.91
600.112	439.82
600.452	512.13
600.792	448.86
601.132	494.05
601.471	505.35
601.811	475.98
602.151	485.02
602.491	466.94
602.831	435.3
603.17	475.98
603.51	496.31
603.849	496.31
604.189	433.04
604.528	487.28
604.868	500.83
605.207	489.54
605.547	457.9
605.886	500.83
606.225	471.46
606.565	478.24
606.904	532.47
607.243	498.57
607.582	496.31
607.921	396.88
608.26	514.39
608.599	421.74
608.938	419.48
609.277	419.48
609.616	464.68
609.955	446.6
610.293	444.34
610.632	365.24
610.971	412.7
611.309	430.78
611.648	430.78
611.987	462.42
612.325	496.31
612.664	428.52
613.002	448.86
613.34	448.86
613.679	451.12
614.017	439.82
614.355	448.86
614.694	496.31
615.032	419.48
615.37	464.68
615.708	383.32
616.046	369.76
616.384	419.48
616.722	462.42
617.06	419.48
617.398	417.22
617.736	433.04
618.073	424
618.411	414.96
618.749	478.24
619.086	414.96
619.424	417.22
619.762	448.86
620.099	498.57
620.437	460.16
620.774	442.08
621.112	424
621.449	430.78
621.786	410.44
622.123	376.54
622.461	426.26
622.798	494.05
623.135	365.24
623.472	417.22
623.809	433.04
624.146	428.52
624.483	414.96
624.82	496.31
625.157	410.44
625.494	367.5
625.83	349.43
626.167	387.84
626.504	396.88
626.841	426.26
627.177	383.32
627.514	417.22
627.85	326.83
628.187	448.86
628.523	376.54
628.86	405.92
629.196	372.02
629.532	358.47
629.869	338.13
630.205	394.62
630.541	412.7
630.877	392.36
631.213	344.91
631.549	428.52
631.885	342.65
632.221	369.76
632.557	399.14
632.893	387.84
633.229	342.65
633.564	365.24
633.9	367.5
634.236	365.24
634.572	338.13
634.907	376.54
635.243	421.74
635.578	435.3
635.914	421.74
636.249	299.71
636.585	353.95
636.92	353.95
637.255	466.94
637.59	399.14
637.926	396.88
638.261	376.54
638.596	433.04
638.931	387.84
639.266	446.6
639.601	378.8
639.936	344.91
640.271	358.47
640.606	362.98
640.94	392.36
641.275	331.35
641.61	390.1
641.945	473.72
642.279	405.92
642.614	378.8
642.948	365.24
643.283	408.18
643.617	356.21
643.952	378.8
644.286	362.98
644.62	324.57
644.955	394.62
645.289	396.88
645.623	392.36
645.957	390.1
646.291	390.1
646.625	351.69
646.959	329.09
647.293	414.96
647.627	315.53
647.961	331.35
648.295	333.61
648.629	378.8
648.962	356.21
649.296	358.47
649.63	297.45
649.963	376.54
650.297	374.28
650.63	324.57
650.964	408.18
651.297	306.49
651.631	333.61
651.964	347.17
652.297	369.76
652.631	342.65
652.964	324.57
653.297	351.69
653.63	329.09
653.963	338.13
654.296	383.32
654.629	381.06
654.962	372.02
655.295	338.13
655.628	369.76
655.961	329.09
656.293	351.69
656.626	304.23
656.959	333.61
657.291	349.43
657.624	283.89
657.956	331.35
658.289	369.76
658.621	311.01
658.954	347.17
659.286	299.71
659.618	283.89
659.95	308.75
660.283	326.83
660.615	353.95
660.947	342.65
661.279	320.05
661.611	279.37
661.943	259.03
662.275	338.13
662.607	335.87
662.939	369.76
663.27	329.09
663.602	313.27
663.934	333.61
664.266	344.91
664.597	259.03
664.929	424
665.26	329.09
665.592	288.41
665.923	381.06
666.255	320.05
666.586	326.83
666.917	315.53
667.248	351.69
667.58	367.5
667.911	313.27
668.242	283.89
668.573	378.8
668.904	326.83
669.235	268.07
669.566	311.01
669.897	277.11
670.228	340.39
670.558	320.05
670.889	322.31
671.22	338.13
671.551	331.35
671.881	247.73
672.212	286.15
672.542	292.93
672.873	286.15
673.203	297.45
673.533	297.45
673.864	351.69
674.194	292.93
674.524	324.57
674.855	292.93
675.185	277.11
675.515	263.55
675.845	374.28
676.175	286.15
676.505	281.63
676.835	403.66
677.165	356.21
677.494	299.71
677.824	360.72
678.154	240.95
678.484	261.29
678.813	344.91
679.143	290.67
679.472	331.35
679.802	297.45
680.131	290.67
680.461	320.05
680.79	306.49
681.119	263.55
681.449	351.69
681.778	290.67
682.107	265.81
682.436	261.29
682.765	322.31
683.094	292.93
683.423	362.98
683.752	301.97
684.081	308.75
684.41	333.61
684.739	259.03
685.067	331.35
685.396	304.23
685.725	252.25
686.053	292.93
686.382	279.37
686.711	231.91
687.039	286.15
687.367	297.45
687.696	342.65
688.024	313.27
688.352	245.47
688.681	301.97
689.009	256.77
689.337	292.93
689.665	383.32
689.993	270.33
690.321	227.4
690.649	265.81
690.977	243.21
691.305	247.73
691.633	286.15
691.961	243.21
692.288	347.17
692.616	324.57
692.944	326.83
693.271	342.65
693.599	254.51
693.926	261.29
694.254	236.43
694.581	272.59
694.908	272.59
695.236	290.67
695.563	249.99
695.89	295.19
696.217	240.95
696.544	315.53
696.871	299.71
697.198	272.59
697.525	283.89
697.852	240.95
698.179	290.67
698.506	297.45
698.833	286.15
699.16	301.97
699.486	335.87
699.813	229.65
700.139	245.47
700.466	335.87
700.793	277.11
701.119	263.55
701.445	297.45
701.772	263.55
702.098	308.75
702.424	290.67
702.75	338.13
703.077	229.65
703.403	326.83
703.729	283.89
704.055	243.21
704.381	304.23
704.707	292.93
705.033	367.5
705.358	288.41
705.684	283.89
706.01	249.99
706.336	231.91
706.661	281.63
706.987	263.55
707.312	281.63
707.638	329.09
707.963	281.63
708.289	249.99
708.614	256.77
708.939	231.91
709.265	211.58
709.59	220.62
709.915	268.07
710.24	272.59
710.565	297.45
710.89	342.65
711.215	313.27
711.54	279.37
711.865	326.83
712.19	315.53
712.515	256.77
712.839	272.59
713.164	279.37
713.489	295.19
713.813	297.45
714.138	320.05
714.462	231.91
714.787	234.17
715.111	288.41
715.435	277.11
715.76	313.27
716.084	240.95
716.408	272.59
716.732	243.21
717.056	234.17
717.381	311.01
717.705	252.25
718.028	288.41
718.352	315.53
718.676	288.41
719	254.51
719.324	277.11
719.648	268.07
719.971	299.71
720.295	374.28
720.618	247.73
720.942	322.31
721.265	243.21
721.589	231.91
721.912	270.33
722.236	283.89
722.559	243.21
722.882	351.69
723.205	340.39
723.528	231.91
723.851	274.85
724.174	299.71
724.497	256.77
724.82	304.23
725.143	265.81
725.466	259.03
725.789	308.75
726.112	308.75
726.434	281.63
726.757	277.11
727.08	313.27
727.402	263.55
727.725	283.89
728.047	274.85
728.37	272.59
728.692	358.47
729.014	263.55
729.336	263.55
729.659	356.21
729.981	234.17
730.303	322.31
730.625	283.89
730.947	281.63
731.269	311.01
731.591	200.28
731.913	311.01
732.235	295.19
732.556	249.99
732.878	306.49
733.2	320.05
733.521	288.41
733.843	247.73
734.164	277.11
734.486	301.97
734.807	259.03
735.129	234.17
735.45	265.81
735.771	297.45
736.092	301.97
736.414	231.91
736.735	261.29
737.056	331.35
737.377	351.69
737.698	265.81
738.019	290.67
738.34	315.53
738.66	277.11
738.981	265.81
739.302	329.09
739.623	229.65
739.943	254.51
740.264	236.43
740.584	272.59
740.905	247.73
741.225	292.93
741.546	326.83
741.866	252.25
742.186	240.95
742.507	295.19
742.827	268.07
743.147	299.71
743.467	301.97
743.787	290.67
744.107	299.71
744.427	288.41
744.747	272.59
745.067	259.03
745.386	333.61
745.706	256.77
746.026	306.49
746.346	245.47
746.665	315.53
746.985	317.79
747.304	225.14
747.624	297.45
747.943	290.67
748.262	292.93
748.582	243.21
748.901	268.07
749.22	279.37
749.539	272.59
749.858	256.77
750.177	317.79
750.496	279.37
750.815	222.88
751.134	249.99
751.453	288.41
751.772	265.81
752.09	340.39
752.409	306.49
752.728	315.53
753.046	272.59
753.365	272.59
753.683	270.33
754.002	265.81
754.32	279.37
754.639	311.01
754.957	225.14
755.275	281.63
755.593	279.37
755.911	331.35
756.23	265.81
756.548	252.25
756.866	331.35
757.183	252.25
757.501	283.89
757.819	211.58
758.137	311.01
758.455	274.85
758.772	247.73
759.09	295.19
759.408	261.29
759.725	263.55
760.043	306.49
760.36	252.25
760.677	270.33
760.995	286.15
761.312	360.72
761.629	304.23
761.946	268.07
762.264	200.28
762.581	283.89
762.898	311.01
763.215	209.32
763.532	324.57
763.848	272.59
764.165	295.19
764.482	227.4
764.799	283.89
765.115	326.83
765.432	324.57
765.749	279.37
766.065	281.63
766.382	265.81
766.698	313.27
767.014	236.43
767.331	286.15
767.647	324.57
767.963	261.29
768.279	238.69
768.595	225.14
768.911	243.21
769.227	265.81
769.543	261.29
769.859	317.79
770.175	245.47
770.491	290.67
770.807	288.41
771.122	286.15
771.438	295.19
771.754	238.69
772.069	243.21
772.385	286.15
772.7	338.13
773.016	249.99
773.331	231.91
773.646	292.93
773.961	279.37
774.277	270.33
774.592	274.85
774.907	256.77
775.222	317.79
775.537	259.03
775.852	286.15
776.167	277.11
776.482	220.62
776.796	254.51
777.111	236.43
777.426	274.85
777.74	272.59
778.055	231.91
778.369	283.89
778.684	277.11
778.998	297.45
779.313	204.8
779.627	256.77
779.941	304.23
780.255	247.73
780.57	304.23
780.884	301.97
781.198	261.29
781.512	274.85
781.826	274.85
782.14	272.59
782.453	263.55
782.767	281.63
783.081	306.49
783.395	277.11
783.708	240.95
784.022	308.75
784.335	243.21
784.649	338.13
784.962	259.03
785.276	286.15
785.589	304.23
785.902	333.61
786.216	259.03
786.529	236.43
786.842	288.41
787.155	281.63
787.468	263.55
787.781	288.41
788.094	213.84
788.407	295.19
788.72	256.77
789.032	240.95
789.345	227.4
789.658	272.59
789.97	297.45
790.283	265.81
790.595	320.05
790.908	270.33
791.22	265.81
791.532	295.19
791.845	290.67
792.157	252.25
792.469	256.77
792.781	200.28
793.093	243.21
793.405	299.71
793.717	211.58
794.029	306.49
794.341	256.77
794.653	211.58
794.965	290.67
795.276	236.43
795.588	168.64
795.9	252.25
796.211	306.49
796.523	252.25
796.834	261.29
797.146	252.25
797.457	295.19
797.768	247.73
798.08	292.93
798.391	240.95
798.702	306.49
799.013	281.63
799.324	227.4
799.635	229.65
799.946	311.01
800.257	283.89
800.568	272.59
800.878	243.21
801.189	236.43
801.5	274.85
801.81	277.11
802.121	227.4
802.431	277.11
802.742	243.21
803.052	286.15
803.363	295.19
803.673	265.81
803.983	313.27
804.293	256.77
804.603	315.53
804.913	259.03
805.224	236.43
805.533	227.4
805.843	249.99
806.153	259.03
806.463	234.17
806.773	249.99
807.083	238.69
807.392	247.73
807.702	254.51
808.011	279.37
808.321	295.19
808.63	281.63
808.94	227.4
809.249	234.17
809.558	272.59
809.868	254.51
810.177	306.49
810.486	317.79
810.795	234.17
811.104	331.35
811.413	277.11
811.722	281.63
812.031	270.33
812.339	256.77
812.648	245.47
812.957	259.03
813.266	329.09
813.574	245.47
813.883	265.81
814.191	261.29
814.5	231.91
814.808	259.03
815.116	279.37
815.424	286.15
815.733	295.19
816.041	272.59
816.349	306.49
816.657	238.69
816.965	288.41
817.273	247.73
817.581	295.19
817.889	283.89
818.196	270.33
818.504	292.93
818.812	238.69
819.12	252.25
819.427	315.53
819.735	249.99
820.042	311.01
820.349	245.47
820.657	349.43
820.964	283.89
821.271	369.76
821.579	335.87
821.886	238.69
822.193	335.87
822.5	193.5
822.807	252.25
823.114	315.53
823.421	317.79
823.727	297.45
824.034	243.21
824.341	240.95
824.648	342.65
824.954	272.59
825.261	279.37
825.567	249.99
825.874	252.25
826.18	261.29
826.486	326.83
826.793	290.67
827.099	277.11
827.405	277.11
827.711	268.07
828.017	288.41
828.323	249.99
828.629	297.45
828.935	265.81
829.241	272.59
829.547	315.53
829.852	229.65
830.158	315.53
830.464	292.93
830.769	297.45
831.075	331.35
831.38	213.84
831.686	245.47
831.991	209.32
832.296	268.07
832.601	292.93
832.907	304.23
833.212	301.97
833.517	240.95
833.822	281.63
834.127	292.93
834.432	281.63
834.737	279.37
835.041	270.33
835.346	245.47
835.651	342.65
835.956	222.88
836.26	286.15
836.565	249.99
836.869	243.21
837.174	286.15
837.478	315.53
837.782	236.43
838.087	220.62
838.391	220.62
838.695	218.36
838.999	222.88
839.303	256.77
839.607	238.69
839.911	306.49
840.215	317.79
840.519	252.25
840.822	292.93
841.126	306.49
841.43	261.29
841.733	272.59
842.037	252.25
842.34	254.51
842.644	225.14
842.947	320.05
843.251	229.65
843.554	301.97
843.857	229.65
844.16	263.55
844.463	247.73
844.766	315.53
845.069	281.63
845.372	261.29
845.675	202.54
845.978	254.51
846.281	247.73
846.583	234.17
846.886	331.35
847.189	286.15
847.491	301.97
847.794	292.93
848.096	245.47
848.399	173.16
848.701	292.93
849.003	295.19
849.305	265.81
849.608	220.62
849.91	274.85
850.212	270.33
850.514	243.21
850.816	259.03
851.118	286.15
851.419	290.67
851.721	329.09
852.023	279.37
852.325	299.71
852.626	247.73
852.928	326.83
853.229	279.37
853.531	218.36
853.832	249.99
854.133	270.33
854.435	252.25
854.736	320.05
855.037	277.11
855.338	272.59
855.639	261.29
855.94	277.11
856.241	209.32
856.542	272.59
856.843	274.85
857.144	268.07
857.444	274.85
857.745	265.81
858.046	256.77
858.346	306.49
858.647	240.95
858.947	329.09
859.247	297.45
859.548	322.31
859.848	272.59
860.148	270.33
860.448	265.81
860.749	277.11
861.049	261.29
861.349	272.59
861.648	277.11
861.948	317.79
862.248	279.37
862.548	299.71
862.848	240.95
863.147	324.57
863.447	222.88
863.746	308.75
864.046	256.77
864.345	283.89
864.645	304.23
864.944	301.97
865.243	301.97
865.542	274.85
865.842	270.33
866.141	256.77
866.44	243.21
866.739	283.89
867.038	288.41
867.337	315.53
867.635	288.41
867.934	290.67
868.233	263.55
868.531	320.05
868.83	279.37
869.129	301.97
869.427	283.89
869.725	188.98
870.024	254.51
870.322	290.67
870.62	277.11
870.918	272.59
871.217	263.55
871.515	249.99
871.813	234.17
872.111	243.21
872.409	259.03
872.706	247.73
873.004	249.99
873.302	326.83
873.6	259.03
873.897	279.37
874.195	283.89
874.492	261.29
874.79	274.85
875.087	349.43
875.384	256.77
875.682	297.45
875.979	245.47
876.276	247.73
876.573	320.05
876.87	320.05
877.167	320.05
