300.47	2627.00
301.26	2630.00
302.04	2633.00
302.82	2633.00
303.60	2631.00
304.38	2632.00
305.17	2635.00
305.95	2628.00
306.73	2639.00
307.51	2635.00
308.29	2634.00
309.08	2631.00
309.86	2632.00
310.64	2641.00
311.42	2635.00
312.20	2629.00
312.98	2641.00
313.76	2630.00
314.55	2631.00
315.33	2630.00
316.11	2631.00
316.89	2633.00
317.67	2634.00
318.45	2636.00
319.23	2630.00
320.01	2628.00
320.79	2632.00
321.57	2630.00
322.35	2636.00
323.13	2632.00
323.91	2635.00
324.69	2630.00
325.47	2634.00
326.25	2626.00
327.03	2638.00
327.81	2630.00
328.59	2636.00
329.37	2637.00
330.15	2632.00
330.93	2630.00
331.71	2637.00
332.49	2639.00
333.27	2635.00
334.05	2642.00
334.83	2645.00
335.61	2639.00
336.39	2641.00
337.17	2632.00
337.95	2644.00
338.73	2642.00
339.51	2644.00
340.29	2643.00
341.07	2645.00
341.84	2648.00
342.62	2645.00
343.40	2649.00
344.18	2655.00
344.96	2655.00
345.74	2659.00
346.52	2662.00
347.29	2655.00
348.07	2658.00
348.85	2664.00
349.63	2664.00
350.41	2676.00
351.18	2673.00
351.96	2675.00
352.74	2676.00
353.52	2682.00
354.30	2691.00
355.07	2695.00
355.85	2702.00
356.63	2699.00
357.41	2702.00
358.18	2707.00
358.96	2716.00
359.74	2720.00
360.52	2729.00
361.29	2726.00
362.07	2742.00
362.85	2745.00
363.62	2749.00
364.40	2758.00
365.18	2760.00
365.95	2767.00
366.73	2771.00
367.51	2790.00
368.28	2795.00
369.06	2802.00
369.84	2810.00
370.61	2821.00
371.39	2831.00
372.17	2844.00
372.94	2849.00
373.72	2853.00
374.49	2872.00
375.27	2873.00
376.05	2895.00
376.82	2902.00
377.60	2913.00
378.37	2923.00
379.15	2943.00
379.92	2957.00
380.70	2973.00
381.47	2984.00
382.25	3015.00
383.02	3019.00
383.80	3042.00
384.58	3055.00
385.35	3078.00
386.13	3083.00
386.90	3104.00
387.67	3118.00
388.45	3137.00
389.22	3151.00
390.00	3175.00
390.77	3205.00
391.55	3223.00
392.32	3251.00
393.10	3262.00
393.87	3291.00
394.65	3313.00
395.42	3321.00
396.19	3346.00
396.97	3377.00
397.74	3390.00
398.52	3407.00
399.29	3435.00
400.06	3471.00
400.84	3497.00
401.61	3518.00
402.38	3540.00
403.16	3565.00
403.93	3598.00
404.70	3623.00
405.48	3651.00
406.25	3658.00
407.02	3691.00
407.80	3725.00
408.57	3750.00
409.34	3771.00
410.12	3806.00
410.89	3828.00
411.66	3853.00
412.43	3885.00
413.21	3904.00
413.98	3930.00
414.75	3963.00
415.52	3998.00
416.30	4040.00
417.07	4054.00
417.84	4107.00
418.61	4121.00
419.39	4161.00
420.16	4200.00
420.93	4236.00
421.70	4262.00
422.47	4276.00
423.24	4340.00
424.02	4366.00
424.79	4408.00
425.56	4444.00
426.33	4487.00
427.10	4500.00
427.87	4562.00
428.64	4609.00
429.42	4636.00
430.19	4675.00
430.96	4710.00
431.73	4777.00
432.50	4809.00
433.27	4877.00
434.04	4906.00
434.81	4968.00
435.58	5031.00
436.35	5055.00
437.12	5110.00
437.89	5181.00
438.67	5189.00
439.44	5275.00
440.21	5330.00
440.98	5395.00
441.75	5453.00
442.52	5516.00
443.29	5590.00
444.06	5643.00
444.83	5696.00
445.60	5780.00
446.37	5815.00
447.13	5895.00
447.90	5952.00
448.67	6032.00
449.44	6126.00
450.21	6211.00
450.98	6254.00
451.75	6285.00
452.52	6390.00
453.29	6473.00
454.06	6579.00
454.83	6640.00
455.60	6745.00
456.37	6807.00
457.13	6900.00
457.90	6957.00
458.67	7112.00
459.44	7177.00
460.21	7263.00
460.98	7313.00
461.75	7466.00
462.51	7532.00
463.28	7653.00
464.05	7726.00
464.82	7862.00
465.59	7939.00
466.35	8053.00
467.12	8135.00
467.89	8236.00
468.66	8353.00
469.43	8447.00
470.19	8559.00
470.96	8640.00
471.73	8787.00
472.50	8893.00
473.26	8982.00
474.03	9138.00
474.80	9250.00
475.56	9381.00
476.33	9489.00
477.10	9565.00
477.87	9720.00
478.63	9830.00
479.40	9935.00
480.17	10116.00
480.93	10206.00
481.70	10290.00
482.47	10445.00
483.23	10578.00
484.00	10723.00
484.76	10861.00
485.53	11006.00
486.30	11107.00
487.06	11282.00
487.83	11433.00
488.60	11580.00
489.36	11701.00
490.13	11859.00
490.89	11991.00
491.66	12142.00
492.42	12295.00
493.19	12438.00
493.96	12551.00
494.72	12714.00
495.49	12844.00
496.25	12979.00
497.02	13147.00
497.78	13308.00
498.55	13444.00
499.31	13602.00
500.08	13761.00
500.84	13899.00
501.61	14062.00
502.37	14211.00
503.14	14398.00
503.90	14526.00
504.67	14664.00
505.43	14879.00
506.20	15048.00
506.96	15243.00
507.72	15430.00
508.49	15593.00
509.25	15748.00
510.02	15933.00
510.78	16122.00
511.54	16303.00
512.31	16476.00
513.07	16633.00
513.84	16843.00
514.60	17021.00
515.36	17141.00
516.13	17332.00
516.89	17487.00
517.65	17521.00
518.42	17706.00
519.18	17929.00
519.94	18138.00
520.71	18302.00
521.47	18430.00
522.23	18609.00
523.00	18905.00
523.76	19048.00
524.52	19222.00
525.28	19433.00
526.05	19587.00
526.81	19810.00
527.57	20012.00
528.33	20214.00
529.10	20365.00
529.86	20545.00
530.62	20730.00
531.38	20931.00
532.15	21123.00
532.91	21269.00
533.67	21440.00
534.43	21568.00
535.19	21823.00
535.96	21948.00
536.72	22178.00
537.48	22353.00
538.24	22499.00
539.00	22729.00
539.76	23046.00
540.53	23257.00
541.29	23432.00
542.05	23587.00
542.81	23849.00
543.57	24073.00
544.33	24301.00
545.09	24550.00
545.85	24711.00
546.61	24820.00
547.38	24985.00
548.14	25164.00
548.90	25337.00
549.66	25641.00
550.42	25844.00
551.18	25991.00
551.94	26244.00
552.70	26358.00
553.46	26599.00
554.22	26838.00
554.98	27030.00
555.74	27170.00
556.50	27334.00
557.26	27549.00
558.02	27853.00
558.78	28112.00
559.54	28215.00
560.30	28401.00
561.06	28652.00
561.82	28843.00
562.58	29081.00
563.34	29290.00
564.10	29496.00
564.86	29719.00
565.61	29887.00
566.37	30145.00
567.13	30365.00
567.89	30574.00
568.65	30761.00
569.41	30934.00
570.17	31132.00
570.93	31442.00
571.69	31535.00
572.44	31755.00
573.20	31979.00
573.96	32126.00
574.72	32349.00
575.48	32544.00
576.24	32777.00
576.99	33054.00
577.75	33213.00
578.51	33482.00
579.27	33605.00
580.03	33863.00
580.78	34067.00
581.54	34308.00
582.30	34518.00
583.06	34668.00
583.82	34894.00
584.57	35092.00
585.33	35344.00
586.09	35414.00
586.84	35601.00
587.60	35779.00
588.36	35836.00
589.12	36039.00
589.87	36285.00
590.63	36538.00
591.39	36764.00
592.14	36927.00
592.90	37074.00
593.66	37422.00
594.41	37583.00
595.17	37795.00
595.93	37962.00
596.68	38074.00
597.44	38275.00
598.20	38529.00
598.95	38845.00
599.71	38984.00
600.46	39178.00
601.22	39344.00
601.98	39573.00
602.73	39785.00
603.49	40170.00
604.24	40439.00
605.00	40614.00
605.76	40668.00
606.51	40906.00
607.27	41025.00
608.02	41374.00
608.78	41631.00
609.53	41804.00
610.29	42021.00
611.04	42254.00
611.80	42510.00
612.55	42837.00
613.31	43174.00
614.06	43408.00
614.82	43542.00
615.57	43723.00
616.33	44012.00
617.08	44216.00
617.84	44398.00
618.59	44452.00
619.35	44412.00
620.10	44461.00
620.85	44449.00
621.61	44483.00
622.36	44503.00
623.12	44599.00
623.87	44701.00
624.62	44777.00
625.38	44942.00
626.13	45108.00
626.89	45330.00
627.64	45465.00
628.39	45462.00
629.15	45420.00
629.90	45626.00
630.65	45636.00
631.41	45527.00
632.16	45549.00
632.91	45594.00
633.67	45574.00
634.42	45654.00
635.17	45837.00
635.92	46328.00
636.68	46832.00
637.43	47454.00
638.18	47933.00
638.94	48457.00
639.69	48841.00
640.44	49220.00
641.19	49765.00
641.95	50076.00
642.70	50450.00
643.45	50702.00
644.20	50970.00
644.95	50985.00
645.71	51223.00
646.46	51340.00
647.21	51494.00
647.96	51595.00
648.71	51605.00
649.47	51894.00
650.22	51886.00
650.97	52081.00
651.72	52125.00
652.47	52284.00
653.22	52506.00
653.97	52718.00
654.73	52744.00
655.48	52995.00
656.23	53316.00
656.98	53630.00
657.73	53820.00
658.48	53890.00
659.23	53893.00
659.98	53880.00
660.73	53899.00
661.48	53981.00
662.23	54078.00
662.99	54185.00
663.74	54266.00
664.49	54568.00
665.24	55012.00
665.99	55450.00
666.74	55573.00
667.49	55554.00
668.24	55608.00
668.99	55764.00
669.74	56070.00
670.49	56214.00
671.24	56372.00
671.99	56391.00
672.74	56658.00
673.48	56685.00
674.23	56779.00
674.98	56923.00
675.73	56793.00
676.48	56952.00
677.23	57001.00
677.98	57114.00
678.73	57193.00
679.48	57269.00
680.23	57308.00
680.98	57360.00
681.73	57489.00
682.47	57519.00
683.22	57620.00
683.97	57648.00
684.72	57710.00
685.47	57719.00
686.22	57910.00
686.97	58161.00
687.71	58299.00
688.46	58560.00
689.21	58587.00
689.96	58470.00
690.71	58522.00
691.45	58648.00
692.20	58793.00
692.95	58722.00
693.70	58835.00
694.44	58840.00
695.19	58955.00
695.94	59123.00
696.69	59201.00
697.43	59208.00
698.18	59178.00
698.93	59284.00
699.68	59296.00
700.42	59404.00
701.17	59467.00
701.92	59536.00
702.66	59564.00
703.41	59732.00
704.16	59928.00
704.90	59799.00
705.65	59753.00
706.40	59801.00
707.14	59816.00
707.89	59871.00
708.64	59928.00
709.38	59878.00
710.13	60066.00
710.88	59970.00
711.62	60010.00
712.37	60032.00
713.11	60115.00
713.86	60188.00
714.61	60187.00
715.35	59782.00
716.10	59862.00
716.84	59614.00
717.59	59476.00
718.33	59284.00
719.08	59195.00
719.83	59101.00
720.57	59128.00
721.32	58935.00
722.06	58907.00
722.81	58829.00
723.55	58752.00
724.30	58823.00
725.04	58986.00
725.79	58993.00
726.53	58996.00
727.28	58846.00
728.02	58925.00
728.76	59014.00
729.51	59148.00
730.25	59163.00
731.00	59076.00
731.74	58966.00
732.49	58930.00
733.23	58824.00
733.97	58822.00
734.72	58817.00
735.46	58705.00
736.21	58717.00
736.95	58703.00
737.69	58847.00
738.44	58829.00
739.18	59031.00
739.92	58989.00
740.67	59097.00
741.41	59258.00
742.15	59247.00
742.90	59465.00
743.64	59582.00
744.38	59483.00
745.13	59485.00
745.87	59487.00
746.61	59572.00
747.36	59608.00
748.10	59620.00
748.84	59543.00
749.58	59486.00
750.33	59419.00
751.07	59368.00
751.81	59135.00
752.55	59082.00
753.30	58980.00
754.04	58797.00
754.78	58682.00
755.52	58493.00
756.27	58145.00
757.01	58125.00
757.75	58246.00
758.49	58312.00
759.23	58157.00
759.97	58017.00
760.72	58089.00
761.46	58078.00
762.20	58061.00
762.94	58071.00
763.68	58114.00
764.42	57973.00
765.16	57932.00
765.91	57993.00
766.65	58033.00
767.39	58022.00
768.13	57794.00
768.87	57791.00
769.61	57803.00
770.35	57687.00
771.09	57432.00
771.83	57388.00
772.57	57372.00
773.31	57443.00
774.05	57425.00
774.80	57571.00
775.54	57342.00
776.28	57245.00
777.02	57264.00
777.76	57079.00
778.50	56874.00
779.24	56530.00
779.98	56300.00
780.72	56264.00
781.46	56166.00
782.20	55951.00
782.93	55971.00
783.67	55843.00
784.41	55620.00
785.15	55584.00
785.89	55450.00
786.63	55196.00
787.37	55061.00
788.11	54952.00
788.85	54854.00
789.59	54716.00
790.33	54751.00
791.07	54750.00
791.81	54644.00
792.54	54479.00
793.28	54221.00
794.02	53859.00
794.76	53573.00
795.50	53402.00
796.24	53029.00
796.97	52879.00
797.71	52607.00
798.45	52447.00
799.19	52396.00
799.93	52362.00
800.67	52157.00
801.40	52154.00
802.14	52135.00
802.88	52370.00
803.62	52407.00
804.35	52381.00
805.09	52170.00
805.83	51989.00
806.57	51957.00
807.30	51881.00
808.04	51825.00
808.78	51634.00
809.52	51228.00
810.25	50981.00
810.99	50814.00
811.73	50703.00
812.46	50581.00
813.20	50544.00
813.94	50437.00
814.68	50296.00
815.41	50277.00
816.15	50219.00
816.88	50322.00
817.62	50399.00
818.36	50213.00
819.09	49987.00
819.83	49687.00
820.57	49600.00
821.30	49531.00
822.04	49461.00
822.77	49211.00
823.51	48964.00
824.25	48860.00
824.98	48845.00
825.72	48830.00
826.45	48628.00
827.19	48349.00
827.92	48095.00
828.66	47853.00
829.40	47690.00
830.13	47672.00
830.87	47697.00
831.60	47579.00
832.34	47468.00
833.07	47445.00
833.81	47326.00
834.54	47392.00
835.28	47312.00
836.01	47300.00
836.75	47033.00
837.48	46816.00
838.22	46733.00
838.95	46573.00
839.68	46515.00
840.42	46628.00
841.15	46542.00
841.89	46409.00
842.62	46168.00
843.36	45943.00
844.09	45881.00
844.82	45934.00
845.56	45877.00
846.29	45721.00
847.02	45514.00
847.76	45371.00
848.49	45369.00
849.23	45659.00
849.96	45859.00
850.69	45900.00
851.43	45714.00
852.16	45547.00
852.89	45273.00
853.63	44989.00
854.36	44869.00
855.09	44913.00
855.82	44816.00
856.56	44713.00
857.29	44577.00
858.02	44425.00
858.76	44368.00
859.49	44376.00
860.22	44296.00
860.95	44097.00
861.69	43909.00
862.42	43729.00
863.15	43629.00
863.88	43578.00
864.61	43616.00
865.35	43652.00
866.08	43560.00
866.81	43276.00
867.54	43095.00
868.27	42872.00
869.01	42727.00
869.74	42726.00
870.47	42717.00
871.20	42515.00
871.93	42403.00
872.66	42125.00
873.40	41988.00
874.13	41750.00
874.86	41574.00
875.59	41426.00
876.32	41360.00
877.05	41288.00
877.78	41138.00
878.51	40867.00
879.24	40631.00
879.97	40408.00
880.71	40259.00
881.44	40052.00
882.17	39910.00
882.90	39871.00
883.63	39692.00
884.36	39786.00
885.09	39830.00
885.82	40063.00
886.55	40066.00
887.28	40104.00
888.01	40068.00
888.74	39821.00
889.47	39505.00
890.20	39167.00
890.93	38814.00
891.66	38619.00
892.39	38466.00
893.12	38424.00
893.85	38562.00
894.57	38570.00
895.30	38605.00
896.03	38536.00
896.76	38508.00
897.49	38364.00
898.22	38122.00
898.95	37912.00
899.68	37744.00
900.41	37520.00
901.14	37365.00
901.86	37196.00
902.59	37104.00
903.32	37010.00
904.05	37020.00
904.78	36946.00
905.51	36811.00
906.24	36650.00
906.96	36583.00
907.69	36355.00
908.42	36174.00
909.15	35941.00
909.88	35648.00
910.60	35520.00
911.33	35400.00
912.06	35234.00
912.79	34959.00
913.52	34867.00
914.24	34686.00
914.97	34680.00
915.70	34534.00
916.42	34343.00
917.15	34246.00
917.88	34089.00
918.61	33931.00
919.33	33610.00
920.06	33214.00
920.79	32968.00
921.51	32844.00
922.24	32774.00
922.97	32635.00
923.69	32502.00
924.42	32338.00
925.15	32175.00
925.87	31891.00
926.60	31614.00
927.33	31335.00
928.05	30960.00
928.78	30663.00
929.51	30401.00
930.23	30099.00
930.96	29710.00
931.68	29320.00
932.41	28984.00
933.14	28713.00
933.86	28359.00
934.59	28006.00
935.31	27573.00
936.04	27053.00
936.76	26632.00
937.49	26141.00
938.21	25680.00
938.94	25190.00
939.66	24623.00
940.39	24251.00
941.11	23820.00
941.84	23428.00
942.56	23167.00
943.29	22861.00
944.01	22653.00
944.74	22539.00
945.46	22522.00
946.19	22493.00
946.91	22564.00
947.64	22518.00
948.36	22604.00
949.09	22656.00
949.81	22681.00
950.53	22749.00
951.26	22810.00
951.98	22825.00
952.71	22947.00
953.43	23018.00
954.15	23142.00
954.88	23241.00
955.60	23258.00
956.33	23340.00
957.05	23366.00
957.77	23460.00
958.50	23501.00
959.22	23523.00
959.94	23467.00
960.67	23397.00
961.39	23383.00
962.11	23433.00
962.84	23423.00
963.56	23385.00
964.28	23377.00
965.00	23192.00
965.73	23010.00
966.45	22895.00
967.17	22699.00
967.89	22532.00
968.62	22363.00
969.34	22153.00
970.06	21911.00
970.78	21831.00
971.51	21748.00
972.23	21652.00
972.95	21447.00
973.67	21259.00
974.40	21124.00
975.12	20951.00
975.84	20859.00
976.56	20706.00
977.28	20508.00
978.00	20384.00
978.73	20278.00
979.45	20206.00
980.17	20127.00
980.89	20060.00
981.61	19950.00
982.33	19864.00
983.05	19821.00
983.77	19732.00
984.50	19653.00
985.22	19572.00
985.94	19496.00
986.66	19379.00
987.38	19365.00
988.10	19324.00
988.82	19303.00
989.54	19170.00
990.26	19070.00
990.98	18914.00
991.70	18755.00
992.42	18566.00
993.14	18503.00
993.86	18281.00
994.58	18217.00
995.30	18058.00
996.02	17935.00
996.74	17842.00
997.46	17738.00
998.18	17661.00
998.90	17491.00
999.62	17355.00
1000.34	17352.00
1001.06	17183.00
1001.78	17059.00
1002.50	16983.00
1003.22	16758.00
1003.94	16625.00
1004.66	16524.00
1005.38	16285.00
1006.09	16091.00
1006.81	15900.00
1007.53	15745.00
1008.25	15536.00
1008.97	15421.00
1009.69	15336.00
1010.41	15283.00
1011.13	15098.00
1011.84	14917.00
1012.56	14826.00
1013.28	14686.00
1014.00	14601.00
1014.72	14435.00
1015.44	14258.00
1016.15	14034.00
1016.87	13862.00
1017.59	13626.00
1018.31	13505.00
1019.03	13418.00
1019.74	13315.00
1020.46	13254.00
1021.18	13075.00
1021.90	13037.00
1022.61	12918.00
1023.33	12744.00
1024.05	12637.00
1024.76	12490.00
1025.48	12293.00
1026.20	12132.00
1026.92	11947.00
1027.63	11788.00
1028.35	11639.00
1029.07	11461.00
1029.78	11347.00
1030.50	11183.00
1031.22	10984.00
1031.93	10874.00
1032.65	10739.00
1033.37	10685.00
1034.08	10589.00
1034.80	10481.00
1035.52	10424.00
1036.23	10315.00
1036.95	10243.00
1037.66	10120.00
1038.38	10047.00
1039.10	9837.00
1039.81	9696.00
1040.53	9503.00
1041.24	9359.00
1041.96	9228.00
1042.67	9107.00
1043.39	8991.00
1044.10	8911.00
1044.82	8805.00
1045.54	8683.00
1046.25	8561.00
1046.97	8422.00
1047.68	8343.00
1048.40	8172.00
1049.11	8047.00
1049.83	7894.00
1050.54	7823.00
1051.26	7716.00
1051.97	7616.00
1052.68	7528.00
1053.40	7435.00
1054.11	7339.00
1054.83	7169.00
1055.54	7078.00
1056.26	6966.00
1056.97	6901.00
1057.69	6795.00
1058.40	6722.00
1059.11	6586.00
1059.83	6512.00
1060.54	6333.00
1061.25	6208.00
1061.97	6084.00
1062.68	5936.00
1063.40	5872.00
1064.11	5744.00
1064.82	5590.00
1065.54	5518.00
1066.25	2581.00
1066.96	2579.00
1067.68	2580.00
1068.39	2571.00
1069.10	2633.00
1069.82	2628.00
1070.53	2636.00
1071.24	2636.00
1071.95	2635.00
1072.67	2636.00
1073.38	5391.00
1074.09	5278.00
1074.80	5160.00
1075.52	5044.00
1076.23	4961.00
1076.94	4857.00
1077.65	2462.00
1078.37	2463.00
1079.08	2462.00
1079.79	2468.00
