300.47	2643.00
301.26	2636.00
302.04	2634.00
302.82	2630.00
303.60	2632.00
304.38	2639.00
305.17	2635.00
305.95	2643.00
306.73	2630.00
307.51	2628.00
308.29	2631.00
309.08	2633.00
309.86	2634.00
310.64	2640.00
311.42	2634.00
312.20	2632.00
312.98	2638.00
313.76	2631.00
314.55	2643.00
315.33	2636.00
316.11	2630.00
316.89	2634.00
317.67	2639.00
318.45	2632.00
319.23	2643.00
320.01	2635.00
320.79	2630.00
321.57	2641.00
322.35	2630.00
323.13	2636.00
323.91	2630.00
324.69	2636.00
325.47	2642.00
326.25	2639.00
327.03	2639.00
327.81	2635.00
328.59	2641.00
329.37	2636.00
330.15	2635.00
330.93	2636.00
331.71	2640.00
332.49	2643.00
333.27	2635.00
334.05	2643.00
334.83	2639.00
335.61	2647.00
336.39	2637.00
337.17	2650.00
337.95	2645.00
338.73	2651.00
339.51	2645.00
340.29	2650.00
341.07	2649.00
341.84	2654.00
342.62	2650.00
343.40	2656.00
344.18	2649.00
344.96	2657.00
345.74	2659.00
346.52	2662.00
347.29	2662.00
348.07	2662.00
348.85	2673.00
349.63	2668.00
350.41	2675.00
351.18	2675.00
351.96	2682.00
352.74	2684.00
353.52	2690.00
354.30	2695.00
355.07	2695.00
355.85	2693.00
356.63	2708.00
357.41	2704.00
358.18	2716.00
358.96	2711.00
359.74	2734.00
360.52	2727.00
361.29	2738.00
362.07	2737.00
362.85	2746.00
363.62	2757.00
364.40	2754.00
365.18	2772.00
365.95	2777.00
366.73	2779.00
367.51	2796.00
368.28	2802.00
369.06	2806.00
369.84	2815.00
370.61	2826.00
371.39	2838.00
372.17	2849.00
372.94	2848.00
373.72	2863.00
374.49	2873.00
375.27	2880.00
376.05	2902.00
376.82	2912.00
377.60	2920.00
378.37	2939.00
379.15	2956.00
379.92	2963.00
380.70	2974.00
381.47	2990.00
382.25	3011.00
383.02	3037.00
383.80	3049.00
384.58	3071.00
385.35	3078.00
386.13	3087.00
386.90	3100.00
387.67	3140.00
388.45	3144.00
389.22	3173.00
390.00	3191.00
390.77	3211.00
391.55	3228.00
392.32	3248.00
393.10	3272.00
393.87	3295.00
394.65	3308.00
395.42	3341.00
396.19	3360.00
396.97	3390.00
397.74	3409.00
398.52	3438.00
399.29	3454.00
400.06	3474.00
400.84	3514.00
401.61	3526.00
402.38	3550.00
403.16	3574.00
403.93	3610.00
404.70	3631.00
405.48	3649.00
406.25	3690.00
407.02	3716.00
407.80	3736.00
408.57	3765.00
409.34	3783.00
410.12	3809.00
410.89	3847.00
411.66	3858.00
412.43	3897.00
413.21	3940.00
413.98	3952.00
414.75	4006.00
415.52	4008.00
416.30	4041.00
417.07	4081.00
417.84	4110.00
418.61	4160.00
419.39	4178.00
420.16	4212.00
420.93	4252.00
421.70	4279.00
422.47	4315.00
423.24	4337.00
424.02	4377.00
424.79	4412.00
425.56	4449.00
426.33	4502.00
427.10	4543.00
427.87	4583.00
428.64	4622.00
429.42	4663.00
430.19	4710.00
430.96	4751.00
431.73	4806.00
432.50	4851.00
433.27	4889.00
434.04	4928.00
434.81	4981.00
435.58	5039.00
436.35	5083.00
437.12	5146.00
437.89	5186.00
438.67	5249.00
439.44	5307.00
440.21	5377.00
440.98	5422.00
441.75	5474.00
442.52	5544.00
443.29	5607.00
444.06	5648.00
444.83	5754.00
445.60	5819.00
446.37	5880.00
447.13	5920.00
447.90	6006.00
448.67	6114.00
449.44	6158.00
450.21	6236.00
450.98	6276.00
451.75	6360.00
452.52	6429.00
453.29	6542.00
454.06	6616.00
454.83	6682.00
455.60	6784.00
456.37	6826.00
457.13	6930.00
457.90	7043.00
458.67	7125.00
459.44	7216.00
460.21	7316.00
460.98	7366.00
461.75	7501.00
462.51	7580.00
463.28	7707.00
464.05	7822.00
464.82	7910.00
465.59	8022.00
466.35	8084.00
467.12	8172.00
467.89	8326.00
468.66	8393.00
469.43	8520.00
470.19	8621.00
470.96	8719.00
471.73	8829.00
472.50	8940.00
473.26	9072.00
474.03	9131.00
474.80	9346.00
475.56	9442.00
476.33	9556.00
477.10	9659.00
477.87	9764.00
478.63	9888.00
479.40	10021.00
480.17	10189.00
480.93	10254.00
481.70	10438.00
482.47	10534.00
483.23	10657.00
484.00	10844.00
484.76	10932.00
485.53	11098.00
486.30	11268.00
487.06	11338.00
487.83	11545.00
488.60	11669.00
489.36	11784.00
490.13	11960.00
490.89	12066.00
491.66	12210.00
492.42	12376.00
493.19	12512.00
493.96	12668.00
494.72	12811.00
495.49	12965.00
496.25	13105.00
497.02	13280.00
497.78	13449.00
498.55	13555.00
499.31	13737.00
500.08	13836.00
500.84	13962.00
501.61	14135.00
502.37	14365.00
503.14	14516.00
503.90	14670.00
504.67	14814.00
505.43	15009.00
506.20	15170.00
506.96	15373.00
507.72	15522.00
508.49	15745.00
509.25	15952.00
510.02	16062.00
510.78	16251.00
511.54	16422.00
512.31	16663.00
513.07	16826.00
513.84	16959.00
514.60	17158.00
515.36	17287.00
516.13	17483.00
516.89	17602.00
517.65	17737.00
518.42	17874.00
519.18	18145.00
519.94	18264.00
520.71	18478.00
521.47	18643.00
522.23	18820.00
523.00	19087.00
523.76	19257.00
524.52	19406.00
525.28	19631.00
526.05	19806.00
526.81	20016.00
527.57	20254.00
528.33	20464.00
529.10	20580.00
529.86	20782.00
530.62	20952.00
531.38	21163.00
532.15	21330.00
532.91	21496.00
533.67	21645.00
534.43	21825.00
535.19	22040.00
535.96	22252.00
536.72	22407.00
537.48	22578.00
538.24	22696.00
539.00	22966.00
539.76	23288.00
540.53	23521.00
541.29	23716.00
542.05	23850.00
542.81	24060.00
543.57	24301.00
544.33	24509.00
545.09	24735.00
545.85	24944.00
546.61	25093.00
547.38	25278.00
548.14	25365.00
548.90	25650.00
549.66	25863.00
550.42	26163.00
551.18	26337.00
551.94	26499.00
552.70	26669.00
553.46	26891.00
554.22	27070.00
554.98	27301.00
555.74	27436.00
556.50	27589.00
557.26	27854.00
558.02	28110.00
558.78	28385.00
559.54	28463.00
560.30	28641.00
561.06	28918.00
561.82	29120.00
562.58	29417.00
563.34	29636.00
564.10	29796.00
564.86	30045.00
565.61	30313.00
566.37	30539.00
567.13	30726.00
567.89	30991.00
568.65	31135.00
569.41	31318.00
570.17	31504.00
570.93	31771.00
571.69	31919.00
572.44	32123.00
573.20	32343.00
573.96	32538.00
574.72	32756.00
575.48	33004.00
576.24	33229.00
576.99	33411.00
577.75	33651.00
578.51	33938.00
579.27	34105.00
580.03	34227.00
580.78	34541.00
581.54	34750.00
582.30	35031.00
583.06	35111.00
583.82	35286.00
584.57	35478.00
585.33	35739.00
586.09	35963.00
586.84	36098.00
587.60	36202.00
588.36	36307.00
589.12	36452.00
589.87	36720.00
590.63	36934.00
591.39	37091.00
592.14	37237.00
592.90	37501.00
593.66	37745.00
594.41	38087.00
595.17	38262.00
595.93	38397.00
596.68	38557.00
597.44	38660.00
598.20	38926.00
598.95	39232.00
599.71	39494.00
600.46	39550.00
601.22	39688.00
601.98	39885.00
602.73	40252.00
603.49	40559.00
604.24	40810.00
605.00	40928.00
605.76	41038.00
606.51	41248.00
607.27	41566.00
608.02	41843.00
608.78	42021.00
609.53	42298.00
610.29	42491.00
611.04	42721.00
611.80	42894.00
612.55	43259.00
613.31	43595.00
614.06	43860.00
614.82	44164.00
615.57	44275.00
616.33	44496.00
617.08	44677.00
617.84	44835.00
618.59	44855.00
619.35	44880.00
620.10	44816.00
620.85	44968.00
621.61	45018.00
622.36	45081.00
623.12	45046.00
623.87	45122.00
624.62	45265.00
625.38	45549.00
626.13	45629.00
626.89	45875.00
627.64	46070.00
628.39	46093.00
629.15	46111.00
629.90	46147.00
630.65	46190.00
631.41	46135.00
632.16	46131.00
632.91	46209.00
633.67	46220.00
634.42	46354.00
635.17	46495.00
635.92	46919.00
636.68	47499.00
637.43	48063.00
638.18	48703.00
638.94	49121.00
639.69	49548.00
640.44	49963.00
641.19	50466.00
641.95	50801.00
642.70	51181.00
643.45	51374.00
644.20	51606.00
644.95	51728.00
645.71	51852.00
646.46	52059.00
647.21	52128.00
647.96	52286.00
648.71	52453.00
649.47	52472.00
650.22	52578.00
650.97	52805.00
651.72	52823.00
652.47	53041.00
653.22	53271.00
653.97	53356.00
654.73	53488.00
655.48	53807.00
656.23	53953.00
656.98	54326.00
657.73	54517.00
658.48	54582.00
659.23	54654.00
659.98	54603.00
660.73	54680.00
661.48	54908.00
662.23	54931.00
662.99	54956.00
663.74	55081.00
664.49	55334.00
665.24	55855.00
665.99	56181.00
666.74	56245.00
667.49	56332.00
668.24	56382.00
668.99	56513.00
669.74	56699.00
670.49	57025.00
671.24	57166.00
671.99	57285.00
672.74	57514.00
673.48	57551.00
674.23	57630.00
674.98	57789.00
675.73	57791.00
676.48	57874.00
677.23	57826.00
677.98	57995.00
678.73	58076.00
679.48	58026.00
680.23	58206.00
680.98	58282.00
681.73	58297.00
682.47	58352.00
683.22	58441.00
683.97	58390.00
684.72	58587.00
685.47	58601.00
686.22	58699.00
686.97	58793.00
687.71	59028.00
688.46	59239.00
689.21	59243.00
689.96	59201.00
690.71	59298.00
691.45	59370.00
692.20	59491.00
692.95	59545.00
693.70	59570.00
694.44	59670.00
695.19	59937.00
695.94	60065.00
696.69	60140.00
697.43	60134.00
698.18	60247.00
698.93	60171.00
699.68	60238.00
700.42	60147.00
701.17	60119.00
701.92	60230.00
702.66	60288.00
703.41	60415.00
704.16	60580.00
704.90	60485.00
705.65	60578.00
706.40	60401.00
707.14	60586.00
707.89	60702.00
708.64	60699.00
709.38	60769.00
710.13	60767.00
710.88	60735.00
711.62	60768.00
712.37	60740.00
713.11	60856.00
713.86	60929.00
714.61	60904.00
715.35	60684.00
716.10	60646.00
716.84	60581.00
717.59	60521.00
718.33	60218.00
719.08	60204.00
719.83	60070.00
720.57	59970.00
721.32	59804.00
722.06	59824.00
722.81	59693.00
723.55	59551.00
724.30	59674.00
725.04	59825.00
725.79	59853.00
726.53	59851.00
727.28	59890.00
728.02	59860.00
728.76	59858.00
729.51	60100.00
730.25	60180.00
731.00	60131.00
731.74	60160.00
732.49	60104.00
733.23	59929.00
733.97	59770.00
734.72	59779.00
735.46	59739.00
736.21	59648.00
736.95	59688.00
737.69	59710.00
738.44	59736.00
739.18	59768.00
739.92	59908.00
740.67	59894.00
741.41	60015.00
742.15	60272.00
742.90	60399.00
743.64	60421.00
744.38	60514.00
745.13	60416.00
745.87	60436.00
746.61	60429.00
747.36	60495.00
748.10	60434.00
748.84	60480.00
749.58	60311.00
750.33	60305.00
751.07	60282.00
751.81	60225.00
752.55	60140.00
753.30	60039.00
754.04	60014.00
754.78	59635.00
755.52	59524.00
756.27	59369.00
757.01	59253.00
757.75	59354.00
758.49	59327.00
759.23	59229.00
759.97	59042.00
760.72	59044.00
761.46	59006.00
762.20	59143.00
762.94	59114.00
763.68	59084.00
764.42	58939.00
765.16	58988.00
765.91	59074.00
766.65	59034.00
767.39	58994.00
768.13	58945.00
768.87	58970.00
769.61	58902.00
770.35	58693.00
771.09	58452.00
771.83	58441.00
772.57	58345.00
773.31	58560.00
774.05	58399.00
774.80	58509.00
775.54	58274.00
776.28	58307.00
777.02	58148.00
777.76	58067.00
778.50	57905.00
779.24	57613.00
779.98	57443.00
780.72	57278.00
781.46	57172.00
782.20	57058.00
782.93	56980.00
783.67	56824.00
784.41	56587.00
785.15	56399.00
785.89	56350.00
786.63	56271.00
787.37	56034.00
788.11	55838.00
788.85	55688.00
789.59	55604.00
790.33	55641.00
791.07	55520.00
791.81	55424.00
792.54	55286.00
793.28	55059.00
794.02	54723.00
794.76	54493.00
795.50	54415.00
796.24	54131.00
796.97	53936.00
797.71	53705.00
798.45	53598.00
799.19	53448.00
799.93	53270.00
800.67	53285.00
801.40	53244.00
802.14	53332.00
802.88	53328.00
803.62	53447.00
804.35	53356.00
805.09	53195.00
805.83	53033.00
806.57	52906.00
807.30	52783.00
808.04	52746.00
808.78	52568.00
809.52	52175.00
810.25	51984.00
810.99	51907.00
811.73	51801.00
812.46	51730.00
813.20	51738.00
813.94	51574.00
814.68	51389.00
815.41	51292.00
816.15	51353.00
816.88	51408.00
817.62	51358.00
818.36	51100.00
819.09	50848.00
819.83	50633.00
820.57	50643.00
821.30	50641.00
822.04	50514.00
822.77	50337.00
823.51	50195.00
824.25	50005.00
824.98	50068.00
825.72	49853.00
826.45	49795.00
827.19	49626.00
827.92	49314.00
828.66	49035.00
829.40	48818.00
830.13	48814.00
830.87	48872.00
831.60	48785.00
832.34	48695.00
833.07	48450.00
833.81	48527.00
834.54	48498.00
835.28	48460.00
836.01	48487.00
836.75	48186.00
837.48	47931.00
838.22	47834.00
838.95	47731.00
839.68	47744.00
840.42	47739.00
841.15	47638.00
841.89	47466.00
842.62	47261.00
843.36	46983.00
844.09	46891.00
844.82	46906.00
845.56	46952.00
846.29	46824.00
847.02	46684.00
847.76	46547.00
848.49	46603.00
849.23	46820.00
849.96	47093.00
850.69	47145.00
851.43	46968.00
852.16	46749.00
852.89	46436.00
853.63	46267.00
854.36	46072.00
855.09	46128.00
855.82	46083.00
856.56	45895.00
857.29	45698.00
858.02	45629.00
858.76	45519.00
859.49	45412.00
860.22	45330.00
860.95	45086.00
861.69	45008.00
862.42	44779.00
863.15	44602.00
863.88	44522.00
864.61	44586.00
865.35	44555.00
866.08	44464.00
866.81	44229.00
867.54	43888.00
868.27	43707.00
869.01	43608.00
869.74	43595.00
870.47	43595.00
871.20	43508.00
871.93	43323.00
872.66	43189.00
873.40	43104.00
874.13	42825.00
874.86	42765.00
875.59	42619.00
876.32	42637.00
877.05	42400.00
877.78	42298.00
878.51	42060.00
879.24	41777.00
879.97	41548.00
880.71	41300.00
881.44	41165.00
882.17	40935.00
882.90	40830.00
883.63	40761.00
884.36	40770.00
885.09	40896.00
885.82	40950.00
886.55	41138.00
887.28	41151.00
888.01	40898.00
888.74	40728.00
889.47	40619.00
890.20	40124.00
890.93	39801.00
891.66	39593.00
892.39	39534.00
893.12	39533.00
893.85	39522.00
894.57	39527.00
895.30	39491.00
896.03	39489.00
896.76	39336.00
897.49	39236.00
898.22	39029.00
898.95	38834.00
899.68	38698.00
900.41	38534.00
901.14	38258.00
901.86	38066.00
902.59	38045.00
903.32	38088.00
904.05	38061.00
904.78	37939.00
905.51	37691.00
906.24	37708.00
906.96	37476.00
907.69	37388.00
908.42	37155.00
909.15	36990.00
909.88	36724.00
910.60	36450.00
911.33	36371.00
912.06	36234.00
912.79	35947.00
913.52	35722.00
914.24	35656.00
914.97	35583.00
915.70	35416.00
916.42	35244.00
917.15	35234.00
917.88	35001.00
918.61	34826.00
919.33	34609.00
920.06	34235.00
920.79	33994.00
921.51	33853.00
922.24	33635.00
922.97	33497.00
923.69	33375.00
924.42	33151.00
925.15	33092.00
925.87	32806.00
926.60	32582.00
927.33	32277.00
928.05	31937.00
928.78	31616.00
929.51	31374.00
930.23	31050.00
930.96	30542.00
931.68	30188.00
932.41	29898.00
933.14	29513.00
933.86	29133.00
934.59	28723.00
935.31	28371.00
936.04	27837.00
936.76	27356.00
937.49	26906.00
938.21	26422.00
938.94	25857.00
939.66	25336.00
940.39	24822.00
941.11	24421.00
941.84	24030.00
942.56	23767.00
943.29	23448.00
944.01	23341.00
944.74	23216.00
945.46	23231.00
946.19	23235.00
946.91	23279.00
947.64	23295.00
948.36	23386.00
949.09	23352.00
949.81	23419.00
950.53	23463.00
951.26	23566.00
951.98	23639.00
952.71	23677.00
953.43	23727.00
954.15	23815.00
954.88	23962.00
955.60	24025.00
956.33	24120.00
957.05	24132.00
957.77	24190.00
958.50	24291.00
959.22	24290.00
959.94	24266.00
960.67	24266.00
961.39	24197.00
962.11	24178.00
962.84	24229.00
963.56	24227.00
964.28	24020.00
965.00	23977.00
965.73	23732.00
966.45	23584.00
967.17	23400.00
967.89	23181.00
968.62	22982.00
969.34	22758.00
970.06	22647.00
970.78	22558.00
971.51	22494.00
972.23	22361.00
972.95	22132.00
973.67	22123.00
974.40	21976.00
975.12	21745.00
975.84	21701.00
976.56	21506.00
977.28	21245.00
978.00	21180.00
978.73	21096.00
979.45	20918.00
980.17	20863.00
980.89	20747.00
981.61	20694.00
982.33	20587.00
983.05	20496.00
983.77	20453.00
984.50	20404.00
985.22	20324.00
985.94	20265.00
986.66	20232.00
987.38	20175.00
988.10	20149.00
988.82	20110.00
989.54	20005.00
990.26	19891.00
990.98	19706.00
991.70	19540.00
992.42	19364.00
993.14	19258.00
993.86	19041.00
994.58	18911.00
995.30	18696.00
996.02	18582.00
996.74	18497.00
997.46	18379.00
998.18	18309.00
998.90	18213.00
999.62	18032.00
1000.34	18033.00
1001.06	17941.00
1001.78	17844.00
1002.50	17714.00
1003.22	17468.00
1003.94	17265.00
1004.66	17081.00
1005.38	16922.00
1006.09	16682.00
1006.81	16500.00
1007.53	16377.00
1008.25	16158.00
1008.97	16063.00
1009.69	15986.00
1010.41	15928.00
1011.13	15774.00
1011.84	15637.00
1012.56	15478.00
1013.28	15361.00
1014.00	15204.00
1014.72	15063.00
1015.44	14902.00
1016.15	14629.00
1016.87	14397.00
1017.59	14149.00
1018.31	14060.00
1019.03	13996.00
1019.74	13880.00
1020.46	13736.00
1021.18	13591.00
1021.90	13460.00
1022.61	13404.00
1023.33	13289.00
1024.05	13179.00
1024.76	12984.00
1025.48	12771.00
1026.20	12653.00
1026.92	12407.00
1027.63	12237.00
1028.35	12134.00
1029.07	11974.00
1029.78	11815.00
1030.50	11598.00
1031.22	11422.00
1031.93	11298.00
1032.65	11199.00
1033.37	11108.00
1034.08	10975.00
1034.80	10910.00
1035.52	10841.00
1036.23	10759.00
1036.95	10677.00
1037.66	10587.00
1038.38	10520.00
1039.10	10320.00
1039.81	10120.00
1040.53	9942.00
1041.24	9774.00
1041.96	9622.00
1042.67	9468.00
1043.39	9378.00
1044.10	9304.00
1044.82	9159.00
1045.54	9053.00
1046.25	8970.00
1046.97	8858.00
1047.68	8710.00
1048.40	8553.00
1049.11	8395.00
1049.83	8288.00
1050.54	8187.00
1051.26	8093.00
1051.97	7997.00
1052.68	7871.00
1053.40	7746.00
1054.11	7654.00
1054.83	7500.00
1055.54	7358.00
1056.26	7283.00
1056.97	7177.00
1057.69	7087.00
1058.40	7006.00
1059.11	6880.00
1059.83	6811.00
1060.54	6652.00
1061.25	6498.00
1061.97	6370.00
1062.68	6242.00
1063.40	6115.00
1064.11	6002.00
1064.82	5870.00
1065.54	5752.00
1066.25	2584.00
1066.96	2578.00
1067.68	2577.00
1068.39	2578.00
1069.10	2640.00
1069.82	2640.00
1070.53	2634.00
1071.24	2632.00
1071.95	2646.00
1072.67	2634.00
1073.38	5614.00
1074.09	5478.00
1074.80	5381.00
1075.52	5283.00
1076.23	5150.00
1076.94	5063.00
1077.65	2495.00
1078.37	2485.00
1079.08	2496.00
1079.79	2501.00
