300.47	2633.00
301.26	2637.00
302.04	2634.00
302.82	2635.00
303.60	2634.00
304.38	2631.00
305.17	2637.00
305.95	2632.00
306.73	2631.00
307.51	2639.00
308.29	2638.00
309.08	2630.00
309.86	2634.00
310.64	2631.00
311.42	2642.00
312.20	2635.00
312.98	2634.00
313.76	2635.00
314.55	2628.00
315.33	2630.00
316.11	2633.00
316.89	2636.00
317.67	2636.00
318.45	2631.00
319.23	2632.00
320.01	2639.00
320.79	2636.00
321.57	2632.00
322.35	2636.00
323.13	2628.00
323.91	2635.00
324.69	2639.00
325.47	2634.00
326.25	2633.00
327.03	2637.00
327.81	2635.00
328.59	2630.00
329.37	2635.00
330.15	2637.00
330.93	2634.00
331.71	2639.00
332.49	2640.00
333.27	2638.00
334.05	2642.00
334.83	2636.00
335.61	2641.00
336.39	2639.00
337.17	2642.00
337.95	2645.00
338.73	2642.00
339.51	2654.00
340.29	2651.00
341.07	2643.00
341.84	2652.00
342.62	2649.00
343.40	2648.00
344.18	2648.00
344.96	2658.00
345.74	2661.00
346.52	2661.00
347.29	2665.00
348.07	2664.00
348.85	2664.00
349.63	2676.00
350.41	2676.00
351.18	2672.00
351.96	2678.00
352.74	2690.00
353.52	2689.00
354.30	2690.00
355.07	2695.00
355.85	2708.00
356.63	2694.00
357.41	2711.00
358.18	2714.00
358.96	2718.00
359.74	2725.00
360.52	2729.00
361.29	2741.00
362.07	2740.00
362.85	2744.00
363.62	2749.00
364.40	2763.00
365.18	2768.00
365.95	2777.00
366.73	2782.00
367.51	2796.00
368.28	2806.00
369.06	2805.00
369.84	2820.00
370.61	2832.00
371.39	2835.00
372.17	2848.00
372.94	2855.00
373.72	2863.00
374.49	2875.00
375.27	2891.00
376.05	2899.00
376.82	2906.00
377.60	2929.00
378.37	2934.00
379.15	2945.00
379.92	2961.00
380.70	2980.00
381.47	3004.00
382.25	3019.00
383.02	3028.00
383.80	3049.00
384.58	3065.00
385.35	3072.00
386.13	3104.00
386.90	3119.00
387.67	3129.00
388.45	3141.00
389.22	3166.00
390.00	3190.00
390.77	3209.00
391.55	3233.00
392.32	3263.00
393.10	3288.00
393.87	3278.00
394.65	3306.00
395.42	3339.00
396.19	3364.00
396.97	3377.00
397.74	3409.00
398.52	3428.00
399.29	3455.00
400.06	3485.00
400.84	3500.00
401.61	3523.00
402.38	3562.00
403.16	3584.00
403.93	3606.00
404.70	3638.00
405.48	3657.00
406.25	3683.00
407.02	3707.00
407.80	3731.00
408.57	3765.00
409.34	3793.00
410.12	3814.00
410.89	3854.00
411.66	3863.00
412.43	3919.00
413.21	3938.00
413.98	3947.00
414.75	3987.00
415.52	4032.00
416.30	4054.00
417.07	4086.00
417.84	4109.00
418.61	4136.00
419.39	4168.00
420.16	4203.00
420.93	4252.00
421.70	4270.00
422.47	4319.00
423.24	4353.00
424.02	4378.00
424.79	4414.00
425.56	4461.00
426.33	4505.00
427.10	4541.00
427.87	4578.00
428.64	4605.00
429.42	4656.00
430.19	4710.00
430.96	4761.00
431.73	4809.00
432.50	4838.00
433.27	4875.00
434.04	4939.00
434.81	4982.00
435.58	5022.00
436.35	5088.00
437.12	5156.00
437.89	5208.00
438.67	5234.00
439.44	5317.00
440.21	5373.00
440.98	5420.00
441.75	5479.00
442.52	5517.00
443.29	5607.00
444.06	5656.00
444.83	5748.00
445.60	5805.00
446.37	5863.00
447.13	5916.00
447.90	6000.00
448.67	6065.00
449.44	6153.00
450.21	6252.00
450.98	6311.00
451.75	6350.00
452.52	6398.00
453.29	6521.00
454.06	6625.00
454.83	6678.00
455.60	6760.00
456.37	6840.00
457.13	6897.00
457.90	7038.00
458.67	7130.00
459.44	7200.00
460.21	7292.00
460.98	7402.00
461.75	7489.00
462.51	7612.00
463.28	7695.00
464.05	7819.00
464.82	7879.00
465.59	8012.00
466.35	8084.00
467.12	8182.00
467.89	8300.00
468.66	8407.00
469.43	8466.00
470.19	8624.00
470.96	8730.00
471.73	8844.00
472.50	8971.00
473.26	9065.00
474.03	9212.00
474.80	9307.00
475.56	9406.00
476.33	9507.00
477.10	9633.00
477.87	9764.00
478.63	9864.00
479.40	10052.00
480.17	10156.00
480.93	10328.00
481.70	10431.00
482.47	10497.00
483.23	10661.00
484.00	10806.00
484.76	10950.00
485.53	11098.00
486.30	11141.00
487.06	11354.00
487.83	11520.00
488.60	11676.00
489.36	11780.00
490.13	11920.00
490.89	12055.00
491.66	12198.00
492.42	12366.00
493.19	12513.00
493.96	12685.00
494.72	12819.00
495.49	12924.00
496.25	13100.00
497.02	13251.00
497.78	13409.00
498.55	13572.00
499.31	13690.00
500.08	13874.00
500.84	14005.00
501.61	14146.00
502.37	14319.00
503.14	14490.00
503.90	14671.00
504.67	14837.00
505.43	14996.00
506.20	15174.00
506.96	15363.00
507.72	15509.00
508.49	15748.00
509.25	15906.00
510.02	16079.00
510.78	16253.00
511.54	16410.00
512.31	16649.00
513.07	16774.00
513.84	16948.00
514.60	17139.00
515.36	17244.00
516.13	17461.00
516.89	17578.00
517.65	17741.00
518.42	17882.00
519.18	18078.00
519.94	18305.00
520.71	18453.00
521.47	18630.00
522.23	18854.00
523.00	19066.00
523.76	19249.00
524.52	19495.00
525.28	19634.00
526.05	19811.00
526.81	20013.00
527.57	20184.00
528.33	20413.00
529.10	20605.00
529.86	20696.00
530.62	20969.00
531.38	21127.00
532.15	21295.00
532.91	21531.00
533.67	21644.00
534.43	21809.00
535.19	22008.00
535.96	22228.00
536.72	22379.00
537.48	22625.00
538.24	22727.00
539.00	22988.00
539.76	23249.00
540.53	23502.00
541.29	23702.00
542.05	23832.00
542.81	24064.00
543.57	24390.00
544.33	24531.00
545.09	24709.00
545.85	24869.00
546.61	25024.00
547.38	25221.00
548.14	25378.00
548.90	25654.00
549.66	25936.00
550.42	26052.00
551.18	26318.00
551.94	26486.00
552.70	26715.00
553.46	26916.00
554.22	27078.00
554.98	27224.00
555.74	27417.00
556.50	27598.00
557.26	27836.00
558.02	28196.00
558.78	28344.00
559.54	28512.00
560.30	28632.00
561.06	28864.00
561.82	29165.00
562.58	29419.00
563.34	29629.00
564.10	29857.00
564.86	30038.00
565.61	30193.00
566.37	30542.00
567.13	30804.00
567.89	31013.00
568.65	31150.00
569.41	31294.00
570.17	31487.00
570.93	31751.00
571.69	31953.00
572.44	32131.00
573.20	32391.00
573.96	32518.00
574.72	32720.00
575.48	32972.00
576.24	33154.00
576.99	33404.00
577.75	33653.00
578.51	33901.00
579.27	34055.00
580.03	34210.00
580.78	34552.00
581.54	34737.00
582.30	34956.00
583.06	35169.00
583.82	35227.00
584.57	35520.00
585.33	35664.00
586.09	35878.00
586.84	36119.00
587.60	36105.00
588.36	36289.00
589.12	36491.00
589.87	36712.00
590.63	36936.00
591.39	37117.00
592.14	37310.00
592.90	37523.00
593.66	37781.00
594.41	38071.00
595.17	38293.00
595.93	38354.00
596.68	38456.00
597.44	38622.00
598.20	38951.00
598.95	39236.00
599.71	39427.00
600.46	39580.00
601.22	39673.00
601.98	39869.00
602.73	40239.00
603.49	40608.00
604.24	40745.00
605.00	40948.00
605.76	41111.00
606.51	41250.00
607.27	41384.00
608.02	41789.00
608.78	42110.00
609.53	42278.00
610.29	42428.00
611.04	42716.00
611.80	42927.00
612.55	43203.00
613.31	43572.00
614.06	43865.00
614.82	44067.00
615.57	44212.00
616.33	44457.00
617.08	44685.00
617.84	44853.00
618.59	44893.00
619.35	44828.00
620.10	44868.00
620.85	44979.00
621.61	44935.00
622.36	45057.00
623.12	44996.00
623.87	45074.00
624.62	45270.00
625.38	45424.00
626.13	45575.00
626.89	45878.00
627.64	46080.00
628.39	46036.00
629.15	46036.00
629.90	46131.00
630.65	46173.00
631.41	46178.00
632.16	46130.00
632.91	46200.00
633.67	46224.00
634.42	46262.00
635.17	46497.00
635.92	47031.00
636.68	47440.00
637.43	48123.00
638.18	48611.00
638.94	49118.00
639.69	49637.00
640.44	49921.00
641.19	50384.00
641.95	50811.00
642.70	51192.00
643.45	51434.00
644.20	51581.00
644.95	51744.00
645.71	51867.00
646.46	52075.00
647.21	52051.00
647.96	52213.00
648.71	52379.00
649.47	52462.00
650.22	52588.00
650.97	52690.00
651.72	52692.00
652.47	53033.00
653.22	53138.00
653.97	53386.00
654.73	53603.00
655.48	53700.00
656.23	53931.00
656.98	54330.00
657.73	54597.00
658.48	54625.00
659.23	54615.00
659.98	54617.00
660.73	54611.00
661.48	54773.00
662.23	54934.00
662.99	54954.00
663.74	55000.00
664.49	55321.00
665.24	55819.00
665.99	56138.00
666.74	56281.00
667.49	56306.00
668.24	56414.00
668.99	56476.00
669.74	56711.00
670.49	56922.00
671.24	57110.00
671.99	57217.00
672.74	57510.00
673.48	57574.00
674.23	57688.00
674.98	57778.00
675.73	57753.00
676.48	57876.00
677.23	57852.00
677.98	57895.00
678.73	58061.00
679.48	58075.00
680.23	58194.00
680.98	58233.00
681.73	58328.00
682.47	58328.00
683.22	58376.00
683.97	58423.00
684.72	58523.00
685.47	58619.00
686.22	58575.00
686.97	58870.00
687.71	59105.00
688.46	59202.00
689.21	59262.00
689.96	59194.00
690.71	59133.00
691.45	59390.00
692.20	59319.00
692.95	59456.00
693.70	59636.00
694.44	59772.00
695.19	59857.00
695.94	60009.00
696.69	60106.00
697.43	60195.00
698.18	60226.00
698.93	60210.00
699.68	60210.00
700.42	60255.00
701.17	60128.00
701.92	60227.00
702.66	60262.00
703.41	60322.00
704.16	60541.00
704.90	60448.00
705.65	60467.00
706.40	60459.00
707.14	60552.00
707.89	60633.00
708.64	60675.00
709.38	60802.00
710.13	60701.00
710.88	60755.00
711.62	60673.00
712.37	60821.00
713.11	60778.00
713.86	60842.00
714.61	60792.00
715.35	60598.00
716.10	60539.00
716.84	60560.00
717.59	60393.00
718.33	60206.00
719.08	60034.00
719.83	60077.00
720.57	59978.00
721.32	59817.00
722.06	59817.00
722.81	59681.00
723.55	59588.00
724.30	59646.00
725.04	59737.00
725.79	59860.00
726.53	59878.00
727.28	59818.00
728.02	59876.00
728.76	59997.00
729.51	60031.00
730.25	60091.00
731.00	60152.00
731.74	60216.00
732.49	60066.00
733.23	59870.00
733.97	59799.00
734.72	59698.00
735.46	59662.00
736.21	59666.00
736.95	59594.00
737.69	59614.00
738.44	59643.00
739.18	59767.00
739.92	59882.00
740.67	59973.00
741.41	60123.00
742.15	60169.00
742.90	60330.00
743.64	60517.00
744.38	60421.00
745.13	60440.00
745.87	60428.00
746.61	60420.00
747.36	60368.00
748.10	60492.00
748.84	60456.00
749.58	60342.00
750.33	60180.00
751.07	60197.00
751.81	60085.00
752.55	60129.00
753.30	60166.00
754.04	59910.00
754.78	59660.00
755.52	59508.00
756.27	59258.00
757.01	59326.00
757.75	59232.00
758.49	59298.00
759.23	59213.00
759.97	59054.00
760.72	58994.00
761.46	59014.00
762.20	58966.00
762.94	59088.00
763.68	58980.00
764.42	58898.00
765.16	58891.00
765.91	59053.00
766.65	59085.00
767.39	58988.00
768.13	58907.00
768.87	58945.00
769.61	58861.00
770.35	58621.00
771.09	58514.00
771.83	58319.00
772.57	58336.00
773.31	58443.00
774.05	58376.00
774.80	58442.00
775.54	58347.00
776.28	58141.00
777.02	58102.00
777.76	58044.00
778.50	57878.00
779.24	57640.00
779.98	57441.00
780.72	57252.00
781.46	57077.00
782.20	57083.00
782.93	57013.00
783.67	56807.00
784.41	56590.00
785.15	56449.00
785.89	56280.00
786.63	56133.00
787.37	56044.00
788.11	55761.00
788.85	55698.00
789.59	55647.00
790.33	55609.00
791.07	55495.00
791.81	55435.00
792.54	55186.00
793.28	54932.00
794.02	54664.00
794.76	54511.00
795.50	54292.00
796.24	54202.00
796.97	53830.00
797.71	53710.00
798.45	53493.00
799.19	53372.00
799.93	53358.00
800.67	53184.00
801.40	53195.00
802.14	53061.00
802.88	53291.00
803.62	53353.00
804.35	53413.00
805.09	53158.00
805.83	53030.00
806.57	52884.00
807.30	52808.00
808.04	52771.00
808.78	52534.00
809.52	52169.00
810.25	51948.00
810.99	51879.00
811.73	51721.00
812.46	51586.00
813.20	51590.00
813.94	51484.00
814.68	51335.00
815.41	51169.00
816.15	51302.00
816.88	51309.00
817.62	51260.00
818.36	51096.00
819.09	50757.00
819.83	50564.00
820.57	50601.00
821.30	50556.00
822.04	50526.00
822.77	50245.00
823.51	50076.00
824.25	50132.00
824.98	50021.00
825.72	49965.00
826.45	49813.00
827.19	49577.00
827.92	49277.00
828.66	48959.00
829.40	48741.00
830.13	48796.00
830.87	48819.00
831.60	48715.00
832.34	48565.00
833.07	48553.00
833.81	48528.00
834.54	48544.00
835.28	48492.00
836.01	48439.00
836.75	48178.00
837.48	47962.00
838.22	47718.00
838.95	47679.00
839.68	47713.00
840.42	47747.00
841.15	47622.00
841.89	47472.00
842.62	47224.00
843.36	46910.00
844.09	46922.00
844.82	46881.00
845.56	46943.00
846.29	46755.00
847.02	46572.00
847.76	46507.00
848.49	46533.00
849.23	46703.00
849.96	47018.00
850.69	47059.00
851.43	46962.00
852.16	46697.00
852.89	46428.00
853.63	46113.00
854.36	46011.00
855.09	46061.00
855.82	46055.00
856.56	45865.00
857.29	45662.00
858.02	45496.00
858.76	45371.00
859.49	45370.00
860.22	45253.00
860.95	45066.00
861.69	44944.00
862.42	44691.00
863.15	44496.00
863.88	44440.00
864.61	44568.00
865.35	44451.00
866.08	44432.00
866.81	44225.00
867.54	43801.00
868.27	43729.00
869.01	43693.00
869.74	43560.00
870.47	43546.00
871.20	43446.00
871.93	43341.00
872.66	43170.00
873.40	42914.00
874.13	42848.00
874.86	42660.00
875.59	42605.00
876.32	42499.00
877.05	42419.00
877.78	42214.00
878.51	41977.00
879.24	41759.00
879.97	41506.00
880.71	41345.00
881.44	41113.00
882.17	40997.00
882.90	40736.00
883.63	40672.00
884.36	40710.00
885.09	40894.00
885.82	40959.00
886.55	41061.00
887.28	41105.00
888.01	40932.00
888.74	40765.00
889.47	40424.00
890.20	40057.00
890.93	39791.00
891.66	39587.00
892.39	39464.00
893.12	39359.00
893.85	39460.00
894.57	39507.00
895.30	39400.00
896.03	39417.00
896.76	39288.00
897.49	39246.00
898.22	39061.00
898.95	38842.00
899.68	38644.00
900.41	38445.00
901.14	38227.00
901.86	38004.00
902.59	38017.00
903.32	38071.00
904.05	37949.00
904.78	37865.00
905.51	37735.00
906.24	37620.00
906.96	37430.00
907.69	37290.00
908.42	37135.00
909.15	36882.00
909.88	36732.00
910.60	36418.00
911.33	36301.00
912.06	36105.00
912.79	35957.00
913.52	35678.00
914.24	35542.00
914.97	35582.00
915.70	35401.00
916.42	35316.00
917.15	35157.00
917.88	34987.00
918.61	34746.00
919.33	34553.00
920.06	34258.00
920.79	34056.00
921.51	33850.00
922.24	33685.00
922.97	33500.00
923.69	33312.00
924.42	33181.00
925.15	33037.00
925.87	32801.00
926.60	32531.00
927.33	32225.00
928.05	31966.00
928.78	31683.00
929.51	31334.00
930.23	31015.00
930.96	30584.00
931.68	30147.00
932.41	29778.00
933.14	29496.00
933.86	29127.00
934.59	28703.00
935.31	28285.00
936.04	27799.00
936.76	27311.00
937.49	26911.00
938.21	26374.00
938.94	25896.00
939.66	25349.00
940.39	24844.00
941.11	24391.00
941.84	24061.00
942.56	23693.00
943.29	23455.00
944.01	23329.00
944.74	23234.00
945.46	23268.00
946.19	23198.00
946.91	23252.00
947.64	23297.00
948.36	23347.00
949.09	23364.00
949.81	23406.00
950.53	23460.00
951.26	23579.00
951.98	23601.00
952.71	23606.00
953.43	23746.00
954.15	23823.00
954.88	23923.00
955.60	24007.00
956.33	24067.00
957.05	24108.00
957.77	24200.00
958.50	24255.00
959.22	24276.00
959.94	24258.00
960.67	24201.00
961.39	24201.00
962.11	24187.00
962.84	24202.00
963.56	24189.00
964.28	24056.00
965.00	23935.00
965.73	23707.00
966.45	23523.00
967.17	23414.00
967.89	23173.00
968.62	22950.00
969.34	22823.00
970.06	22675.00
970.78	22536.00
971.51	22459.00
972.23	22343.00
972.95	22147.00
973.67	22012.00
974.40	21936.00
975.12	21801.00
975.84	21681.00
976.56	21464.00
977.28	21298.00
978.00	21134.00
978.73	20985.00
979.45	20981.00
980.17	20845.00
980.89	20756.00
981.61	20642.00
982.33	20563.00
983.05	20518.00
983.77	20439.00
984.50	20348.00
985.22	20297.00
985.94	20293.00
986.66	20202.00
987.38	20166.00
988.10	20095.00
988.82	20127.00
989.54	20032.00
990.26	19866.00
990.98	19716.00
991.70	19517.00
992.42	19354.00
993.14	19213.00
993.86	19064.00
994.58	18870.00
995.30	18732.00
996.02	18492.00
996.74	18461.00
997.46	18426.00
998.18	18260.00
998.90	18219.00
999.62	18095.00
1000.34	18005.00
1001.06	17962.00
1001.78	17832.00
1002.50	17674.00
1003.22	17431.00
1003.94	17253.00
1004.66	17113.00
1005.38	16898.00
1006.09	16703.00
1006.81	16485.00
1007.53	16310.00
1008.25	16135.00
1008.97	16032.00
1009.69	16003.00
1010.41	15886.00
1011.13	15774.00
1011.84	15594.00
1012.56	15442.00
1013.28	15355.00
1014.00	15174.00
1014.72	15052.00
1015.44	14886.00
1016.15	14631.00
1016.87	14382.00
1017.59	14151.00
1018.31	14012.00
1019.03	13947.00
1019.74	13847.00
1020.46	13711.00
1021.18	13639.00
1021.90	13512.00
1022.61	13360.00
1023.33	13243.00
1024.05	13113.00
1024.76	12958.00
1025.48	12801.00
1026.20	12597.00
1026.92	12426.00
1027.63	12269.00
1028.35	12064.00
1029.07	11958.00
1029.78	11729.00
1030.50	11590.00
1031.22	11439.00
1031.93	11294.00
1032.65	11202.00
1033.37	11074.00
1034.08	10946.00
1034.80	10918.00
1035.52	10861.00
1036.23	10750.00
1036.95	10674.00
1037.66	10585.00
1038.38	10474.00
1039.10	10313.00
1039.81	10056.00
1040.53	9917.00
1041.24	9764.00
1041.96	9631.00
1042.67	9521.00
1043.39	9358.00
1044.10	9270.00
1044.82	9170.00
1045.54	9039.00
1046.25	8922.00
1046.97	8825.00
1047.68	8718.00
1048.40	8548.00
1049.11	8424.00
1049.83	8289.00
1050.54	8214.00
1051.26	8087.00
1051.97	7967.00
1052.68	7870.00
1053.40	7742.00
1054.11	7570.00
1054.83	7483.00
1055.54	7381.00
1056.26	7266.00
1056.97	7200.00
1057.69	7091.00
1058.40	6984.00
1059.11	6926.00
1059.83	6764.00
1060.54	6626.00
1061.25	6487.00
1061.97	6352.00
1062.68	6247.00
1063.40	6111.00
1064.11	6009.00
1064.82	5868.00
1065.54	5734.00
1066.25	2576.00
1066.96	2578.00
1067.68	2578.00
1068.39	2580.00
1069.10	2633.00
1069.82	2636.00
1070.53	2632.00
1071.24	2641.00
1071.95	2639.00
1072.67	2632.00
1073.38	5623.00
1074.09	5481.00
1074.80	5370.00
1075.52	5283.00
1076.23	5169.00
1076.94	5051.00
1077.65	2500.00
1078.37	2489.00
1079.08	2486.00
1079.79	2511.00
