300.47	2632.00
301.26	2635.00
302.04	2631.00
302.82	2636.00
303.60	2634.00
304.38	2639.00
305.17	2641.00
305.95	2633.00
306.73	2629.00
307.51	2637.00
308.29	2633.00
309.08	2634.00
309.86	2632.00
310.64	2636.00
311.42	2638.00
312.20	2635.00
312.98	2636.00
313.76	2633.00
314.55	2630.00
315.33	2639.00
316.11	2638.00
316.89	2630.00
317.67	2635.00
318.45	2633.00
319.23	2633.00
320.01	2634.00
320.79	2634.00
321.57	2634.00
322.35	2636.00
323.13	2634.00
323.91	2635.00
324.69	2634.00
325.47	2637.00
326.25	2636.00
327.03	2636.00
327.81	2632.00
328.59	2637.00
329.37	2631.00
330.15	2640.00
330.93	2642.00
331.71	2638.00
332.49	2642.00
333.27	2641.00
334.05	2643.00
334.83	2642.00
335.61	2642.00
336.39	2642.00
337.17	2641.00
337.95	2639.00
338.73	2646.00
339.51	2644.00
340.29	2644.00
341.07	2650.00
341.84	2651.00
342.62	2652.00
343.40	2654.00
344.18	2654.00
344.96	2652.00
345.74	2662.00
346.52	2661.00
347.29	2663.00
348.07	2672.00
348.85	2664.00
349.63	2671.00
350.41	2672.00
351.18	2679.00
351.96	2678.00
352.74	2684.00
353.52	2691.00
354.30	2692.00
355.07	2697.00
355.85	2703.00
356.63	2703.00
357.41	2709.00
358.18	2715.00
358.96	2722.00
359.74	2719.00
360.52	2732.00
361.29	2732.00
362.07	2741.00
362.85	2747.00
363.62	2749.00
364.40	2763.00
365.18	2776.00
365.95	2776.00
366.73	2787.00
367.51	2795.00
368.28	2799.00
369.06	2795.00
369.84	2818.00
370.61	2819.00
371.39	2830.00
372.17	2849.00
372.94	2858.00
373.72	2867.00
374.49	2877.00
375.27	2886.00
376.05	2898.00
376.82	2905.00
377.60	2931.00
378.37	2931.00
379.15	2961.00
379.92	2959.00
380.70	2971.00
381.47	3001.00
382.25	3013.00
383.02	3034.00
383.80	3045.00
384.58	3056.00
385.35	3083.00
386.13	3101.00
386.90	3112.00
387.67	3127.00
388.45	3161.00
389.22	3164.00
390.00	3197.00
390.77	3214.00
391.55	3244.00
392.32	3254.00
393.10	3275.00
393.87	3304.00
394.65	3321.00
395.42	3326.00
396.19	3352.00
396.97	3400.00
397.74	3405.00
398.52	3429.00
399.29	3455.00
400.06	3480.00
400.84	3513.00
401.61	3514.00
402.38	3556.00
403.16	3584.00
403.93	3610.00
404.70	3641.00
405.48	3653.00
406.25	3691.00
407.02	3714.00
407.80	3743.00
408.57	3755.00
409.34	3790.00
410.12	3819.00
410.89	3841.00
411.66	3880.00
412.43	3903.00
413.21	3931.00
413.98	3975.00
414.75	3993.00
415.52	4012.00
416.30	4063.00
417.07	4080.00
417.84	4108.00
418.61	4138.00
419.39	4182.00
420.16	4220.00
420.93	4243.00
421.70	4295.00
422.47	4303.00
423.24	4353.00
424.02	4387.00
424.79	4415.00
425.56	4451.00
426.33	4493.00
427.10	4539.00
427.87	4577.00
428.64	4632.00
429.42	4647.00
430.19	4705.00
430.96	4742.00
431.73	4793.00
432.50	4838.00
433.27	4895.00
434.04	4947.00
434.81	5008.00
435.58	5034.00
436.35	5098.00
437.12	5136.00
437.89	5219.00
438.67	5260.00
439.44	5311.00
440.21	5383.00
440.98	5422.00
441.75	5487.00
442.52	5564.00
443.29	5594.00
444.06	5668.00
444.83	5724.00
445.60	5796.00
446.37	5883.00
447.13	5935.00
447.90	5988.00
448.67	6065.00
449.44	6143.00
450.21	6232.00
450.98	6301.00
451.75	6353.00
452.52	6433.00
453.29	6514.00
454.06	6575.00
454.83	6670.00
455.60	6768.00
456.37	6860.00
457.13	6933.00
457.90	7028.00
458.67	7120.00
459.44	7199.00
460.21	7283.00
460.98	7389.00
461.75	7466.00
462.51	7560.00
463.28	7676.00
464.05	7797.00
464.82	7913.00
465.59	7980.00
466.35	8064.00
467.12	8168.00
467.89	8280.00
468.66	8405.00
469.43	8514.00
470.19	8620.00
470.96	8717.00
471.73	8814.00
472.50	8938.00
473.26	9052.00
474.03	9155.00
474.80	9289.00
475.56	9429.00
476.33	9522.00
477.10	9650.00
477.87	9767.00
478.63	9894.00
479.40	10010.00
480.17	10107.00
480.93	10252.00
481.70	10385.00
482.47	10489.00
483.23	10631.00
484.00	10797.00
484.76	10910.00
485.53	11076.00
486.30	11220.00
487.06	11354.00
487.83	11508.00
488.60	11623.00
489.36	11774.00
490.13	11919.00
490.89	12008.00
491.66	12174.00
492.42	12318.00
493.19	12510.00
493.96	12617.00
494.72	12813.00
495.49	12923.00
496.25	13076.00
497.02	13264.00
497.78	13351.00
498.55	13543.00
499.31	13663.00
500.08	13848.00
500.84	14030.00
501.61	14150.00
502.37	14331.00
503.14	14483.00
503.90	14643.00
504.67	14842.00
505.43	15006.00
506.20	15167.00
506.96	15379.00
507.72	15521.00
508.49	15727.00
509.25	15913.00
510.02	16065.00
510.78	16212.00
511.54	16399.00
512.31	16630.00
513.07	16805.00
513.84	16947.00
514.60	17151.00
515.36	17304.00
516.13	17483.00
516.89	17631.00
517.65	17714.00
518.42	17922.00
519.18	18105.00
519.94	18260.00
520.71	18481.00
521.47	18581.00
522.23	18792.00
523.00	19105.00
523.76	19214.00
524.52	19467.00
525.28	19685.00
526.05	19830.00
526.81	20004.00
527.57	20262.00
528.33	20346.00
529.10	20558.00
529.86	20719.00
530.62	20895.00
531.38	21146.00
532.15	21259.00
532.91	21476.00
533.67	21667.00
534.43	21766.00
535.19	22046.00
535.96	22255.00
536.72	22352.00
537.48	22580.00
538.24	22735.00
539.00	22958.00
539.76	23199.00
540.53	23467.00
541.29	23683.00
542.05	23944.00
542.81	24082.00
543.57	24304.00
544.33	24536.00
545.09	24754.00
545.85	24891.00
546.61	25003.00
547.38	25198.00
548.14	25412.00
548.90	25598.00
549.66	25880.00
550.42	26108.00
551.18	26275.00
551.94	26491.00
552.70	26664.00
553.46	26842.00
554.22	27065.00
554.98	27293.00
555.74	27319.00
556.50	27641.00
557.26	27965.00
558.02	28161.00
558.78	28369.00
559.54	28552.00
560.30	28668.00
561.06	28900.00
561.82	29167.00
562.58	29429.00
563.34	29654.00
564.10	29857.00
564.86	30011.00
565.61	30303.00
566.37	30485.00
567.13	30737.00
567.89	30940.00
568.65	31135.00
569.41	31284.00
570.17	31541.00
570.93	31710.00
571.69	31888.00
572.44	32084.00
573.20	32313.00
573.96	32566.00
574.72	32749.00
575.48	33015.00
576.24	33213.00
576.99	33390.00
577.75	33628.00
578.51	33916.00
579.27	34018.00
580.03	34252.00
580.78	34442.00
581.54	34787.00
582.30	34949.00
583.06	35100.00
583.82	35299.00
584.57	35476.00
585.33	35720.00
586.09	35907.00
586.84	36016.00
587.60	36141.00
588.36	36256.00
589.12	36501.00
589.87	36681.00
590.63	36945.00
591.39	37034.00
592.14	37209.00
592.90	37441.00
593.66	37703.00
594.41	37963.00
595.17	38288.00
595.93	38296.00
596.68	38493.00
597.44	38621.00
598.20	38929.00
598.95	39185.00
599.71	39426.00
600.46	39522.00
601.22	39626.00
601.98	39802.00
602.73	40225.00
603.49	40540.00
604.24	40763.00
605.00	40897.00
605.76	41092.00
606.51	41296.00
607.27	41434.00
608.02	41811.00
608.78	41996.00
609.53	42134.00
610.29	42371.00
611.04	42647.00
611.80	42831.00
612.55	43184.00
613.31	43505.00
614.06	43803.00
614.82	44042.00
615.57	44194.00
616.33	44458.00
617.08	44692.00
617.84	44841.00
618.59	44921.00
619.35	44889.00
620.10	44834.00
620.85	44839.00
621.61	44945.00
622.36	44934.00
623.12	45029.00
623.87	45126.00
624.62	45211.00
625.38	45419.00
626.13	45677.00
626.89	45851.00
627.64	46130.00
628.39	46074.00
629.15	46037.00
629.90	46114.00
630.65	46103.00
631.41	46092.00
632.16	46196.00
632.91	46209.00
633.67	46195.00
634.42	46240.00
635.17	46554.00
635.92	46861.00
636.68	47460.00
637.43	48000.00
638.18	48642.00
638.94	49098.00
639.69	49511.00
640.44	49913.00
641.19	50399.00
641.95	50823.00
642.70	51024.00
643.45	51300.00
644.20	51516.00
644.95	51711.00
645.71	51756.00
646.46	51984.00
647.21	52157.00
647.96	52210.00
648.71	52450.00
649.47	52505.00
650.22	52598.00
650.97	52729.00
651.72	52781.00
652.47	53010.00
653.22	53014.00
653.97	53351.00
654.73	53565.00
655.48	53684.00
656.23	53909.00
656.98	54185.00
657.73	54456.00
658.48	54674.00
659.23	54622.00
659.98	54566.00
660.73	54608.00
661.48	54786.00
662.23	54844.00
662.99	54896.00
663.74	54982.00
664.49	55297.00
665.24	55804.00
665.99	56129.00
666.74	56245.00
667.49	56224.00
668.24	56320.00
668.99	56445.00
669.74	56625.00
670.49	56935.00
671.24	56990.00
671.99	57220.00
672.74	57578.00
673.48	57545.00
674.23	57694.00
674.98	57712.00
675.73	57727.00
676.48	57829.00
677.23	57940.00
677.98	57830.00
678.73	58052.00
679.48	58045.00
680.23	58169.00
680.98	58190.00
681.73	58283.00
682.47	58227.00
683.22	58415.00
683.97	58452.00
684.72	58519.00
685.47	58592.00
686.22	58595.00
686.97	58843.00
687.71	59078.00
688.46	59263.00
689.21	59223.00
689.96	59086.00
690.71	59190.00
691.45	59396.00
692.20	59438.00
692.95	59476.00
693.70	59709.00
694.44	59723.00
695.19	59844.00
695.94	59898.00
696.69	60022.00
697.43	60077.00
698.18	60198.00
698.93	60199.00
699.68	60198.00
700.42	60319.00
701.17	60177.00
701.92	60156.00
702.66	60299.00
703.41	60437.00
704.16	60584.00
704.90	60446.00
705.65	60421.00
706.40	60522.00
707.14	60554.00
707.89	60525.00
708.64	60764.00
709.38	60794.00
710.13	60687.00
710.88	60674.00
711.62	60687.00
712.37	60721.00
713.11	60835.00
713.86	60941.00
714.61	60914.00
715.35	60716.00
716.10	60603.00
716.84	60525.00
717.59	60465.00
718.33	60261.00
719.08	60121.00
719.83	60024.00
720.57	59835.00
721.32	59895.00
722.06	59782.00
722.81	59734.00
723.55	59636.00
724.30	59627.00
725.04	59715.00
725.79	59820.00
726.53	59816.00
727.28	59828.00
728.02	59824.00
728.76	59986.00
729.51	60016.00
730.25	60113.00
731.00	60255.00
731.74	60040.00
732.49	60020.00
733.23	59868.00
733.97	59764.00
734.72	59692.00
735.46	59652.00
736.21	59634.00
736.95	59620.00
737.69	59710.00
738.44	59663.00
739.18	59830.00
739.92	59904.00
740.67	59983.00
741.41	60027.00
742.15	60195.00
742.90	60443.00
743.64	60464.00
744.38	60350.00
745.13	60526.00
745.87	60368.00
746.61	60452.00
747.36	60454.00
748.10	60517.00
748.84	60487.00
749.58	60334.00
750.33	60339.00
751.07	60320.00
751.81	60236.00
752.55	60173.00
753.30	60133.00
754.04	60057.00
754.78	59691.00
755.52	59566.00
756.27	59384.00
757.01	59295.00
757.75	59308.00
758.49	59408.00
759.23	59219.00
759.97	59078.00
760.72	59093.00
761.46	59011.00
762.20	59013.00
762.94	59039.00
763.68	59045.00
764.42	59018.00
765.16	58989.00
765.91	59058.00
766.65	59038.00
767.39	58949.00
768.13	58925.00
768.87	58909.00
769.61	58860.00
770.35	58800.00
771.09	58526.00
771.83	58429.00
772.57	58395.00
773.31	58403.00
774.05	58392.00
774.80	58410.00
775.54	58325.00
776.28	58291.00
777.02	58173.00
777.76	58107.00
778.50	57747.00
779.24	57627.00
779.98	57413.00
780.72	57291.00
781.46	57060.00
782.20	57062.00
782.93	56920.00
783.67	56852.00
784.41	56678.00
785.15	56493.00
785.89	56331.00
786.63	56238.00
787.37	56033.00
788.11	55826.00
788.85	55684.00
789.59	55658.00
790.33	55567.00
791.07	55568.00
791.81	55505.00
792.54	55278.00
793.28	55025.00
794.02	54733.00
794.76	54499.00
795.50	54492.00
796.24	54157.00
796.97	53983.00
797.71	53617.00
798.45	53418.00
799.19	53522.00
799.93	53368.00
800.67	53334.00
801.40	53225.00
802.14	53180.00
802.88	53409.00
803.62	53443.00
804.35	53436.00
805.09	53250.00
805.83	53094.00
806.57	52920.00
807.30	52835.00
808.04	52705.00
808.78	52604.00
809.52	52214.00
810.25	51991.00
810.99	51803.00
811.73	51820.00
812.46	51736.00
813.20	51690.00
813.94	51573.00
814.68	51452.00
815.41	51296.00
816.15	51289.00
816.88	51427.00
817.62	51426.00
818.36	51175.00
819.09	50863.00
819.83	50621.00
820.57	50734.00
821.30	50669.00
822.04	50536.00
822.77	50283.00
823.51	50163.00
824.25	50107.00
824.98	50100.00
825.72	49888.00
826.45	49748.00
827.19	49598.00
827.92	49253.00
828.66	49042.00
829.40	48830.00
830.13	48841.00
830.87	48817.00
831.60	48895.00
832.34	48868.00
833.07	48544.00
833.81	48532.00
834.54	48556.00
835.28	48600.00
836.01	48512.00
836.75	48262.00
837.48	48029.00
838.22	47800.00
838.95	47835.00
839.68	47820.00
840.42	47843.00
841.15	47662.00
841.89	47536.00
842.62	47303.00
843.36	47012.00
844.09	47037.00
844.82	47064.00
845.56	46966.00
846.29	46841.00
847.02	46585.00
847.76	46604.00
848.49	46686.00
849.23	46852.00
849.96	47090.00
850.69	47167.00
851.43	47025.00
852.16	46802.00
852.89	46488.00
853.63	46265.00
854.36	46124.00
855.09	46136.00
855.82	46257.00
856.56	45930.00
857.29	45720.00
858.02	45602.00
858.76	45511.00
859.49	45500.00
860.22	45226.00
860.95	45120.00
861.69	45052.00
862.42	44801.00
863.15	44608.00
863.88	44566.00
864.61	44634.00
865.35	44628.00
866.08	44516.00
866.81	44288.00
867.54	44014.00
868.27	43804.00
869.01	43661.00
869.74	43668.00
870.47	43674.00
871.20	43503.00
871.93	43478.00
872.66	43210.00
873.40	43121.00
874.13	42958.00
874.86	42758.00
875.59	42706.00
876.32	42635.00
877.05	42508.00
877.78	42336.00
878.51	42016.00
879.24	41828.00
879.97	41583.00
880.71	41360.00
881.44	41299.00
882.17	41062.00
882.90	40861.00
883.63	40855.00
884.36	40871.00
885.09	40899.00
885.82	41095.00
886.55	41152.00
887.28	41156.00
888.01	41070.00
888.74	40835.00
889.47	40576.00
890.20	40239.00
890.93	39885.00
891.66	39663.00
892.39	39594.00
893.12	39600.00
893.85	39598.00
894.57	39594.00
895.30	39574.00
896.03	39558.00
896.76	39412.00
897.49	39296.00
898.22	39176.00
898.95	38933.00
899.68	38833.00
900.41	38562.00
901.14	38410.00
901.86	38167.00
902.59	38096.00
903.32	38116.00
904.05	38077.00
904.78	37964.00
905.51	37890.00
906.24	37810.00
906.96	37600.00
907.69	37493.00
908.42	37208.00
909.15	37046.00
909.88	36817.00
910.60	36545.00
911.33	36427.00
912.06	36255.00
912.79	36032.00
913.52	35864.00
914.24	35828.00
914.97	35650.00
915.70	35530.00
916.42	35350.00
917.15	35259.00
917.88	35212.00
918.61	34893.00
919.33	34695.00
920.06	34332.00
920.79	34156.00
921.51	33946.00
922.24	33868.00
922.97	33693.00
923.69	33480.00
924.42	33344.00
925.15	33259.00
925.87	32910.00
926.60	32674.00
927.33	32417.00
928.05	32082.00
928.78	31853.00
929.51	31506.00
930.23	31153.00
930.96	30693.00
931.68	30329.00
932.41	29937.00
933.14	29598.00
933.86	29265.00
934.59	28900.00
935.31	28483.00
936.04	27849.00
936.76	27475.00
937.49	26999.00
938.21	26566.00
938.94	25901.00
939.66	25487.00
940.39	24962.00
941.11	24522.00
941.84	24245.00
942.56	23797.00
943.29	23601.00
944.01	23430.00
944.74	23364.00
945.46	23343.00
946.19	23372.00
946.91	23401.00
947.64	23457.00
948.36	23450.00
949.09	23461.00
949.81	23523.00
950.53	23575.00
951.26	23668.00
951.98	23696.00
952.71	23794.00
953.43	23870.00
954.15	23976.00
954.88	24094.00
955.60	24060.00
956.33	24208.00
957.05	24250.00
957.77	24360.00
958.50	24322.00
959.22	24422.00
959.94	24434.00
960.67	24293.00
961.39	24316.00
962.11	24321.00
962.84	24382.00
963.56	24310.00
964.28	24231.00
965.00	24041.00
965.73	23904.00
966.45	23727.00
967.17	23552.00
967.89	23288.00
968.62	23099.00
969.34	22919.00
970.06	22702.00
970.78	22695.00
971.51	22590.00
972.23	22524.00
972.95	22288.00
973.67	22153.00
974.40	22016.00
975.12	21930.00
975.84	21783.00
976.56	21604.00
977.28	21418.00
978.00	21304.00
978.73	21209.00
979.45	21079.00
980.17	20949.00
980.89	20860.00
981.61	20738.00
982.33	20649.00
983.05	20614.00
983.77	20564.00
984.50	20454.00
985.22	20422.00
985.94	20378.00
986.66	20330.00
987.38	20314.00
988.10	20231.00
988.82	20219.00
989.54	20161.00
990.26	20051.00
990.98	19854.00
991.70	19645.00
992.42	19475.00
993.14	19371.00
993.86	19214.00
994.58	18961.00
995.30	18855.00
996.02	18737.00
996.74	18602.00
997.46	18561.00
998.18	18468.00
998.90	18355.00
999.62	18239.00
1000.34	18169.00
1001.06	18050.00
1001.78	17972.00
1002.50	17849.00
1003.22	17542.00
1003.94	17360.00
1004.66	17139.00
1005.38	17049.00
1006.09	16783.00
1006.81	16668.00
1007.53	16411.00
1008.25	16246.00
1008.97	16134.00
1009.69	16119.00
1010.41	16026.00
1011.13	15927.00
1011.84	15773.00
1012.56	15579.00
1013.28	15460.00
1014.00	15319.00
1014.72	15166.00
1015.44	14999.00
1016.15	14742.00
1016.87	14522.00
1017.59	14285.00
1018.31	14127.00
1019.03	14048.00
1019.74	13910.00
1020.46	13843.00
1021.18	13783.00
1021.90	13566.00
1022.61	13444.00
1023.33	13385.00
1024.05	13224.00
1024.76	13117.00
1025.48	12908.00
1026.20	12680.00
1026.92	12535.00
1027.63	12365.00
1028.35	12204.00
1029.07	12084.00
1029.78	11857.00
1030.50	11649.00
1031.22	11535.00
1031.93	11391.00
1032.65	11260.00
1033.37	11192.00
1034.08	11102.00
1034.80	11013.00
1035.52	10904.00
1036.23	10836.00
1036.95	10778.00
1037.66	10701.00
1038.38	10567.00
1039.10	10410.00
1039.81	10187.00
1040.53	9995.00
1041.24	9898.00
1041.96	9662.00
1042.67	9569.00
1043.39	9476.00
1044.10	9318.00
1044.82	9253.00
1045.54	9133.00
1046.25	8994.00
1046.97	8941.00
1047.68	8755.00
1048.40	8628.00
1049.11	8506.00
1049.83	8341.00
1050.54	8279.00
1051.26	8149.00
1051.97	8017.00
1052.68	7962.00
1053.40	7828.00
1054.11	7692.00
1054.83	7548.00
1055.54	7391.00
1056.26	7325.00
1056.97	7236.00
1057.69	7149.00
1058.40	7036.00
1059.11	6987.00
1059.83	6798.00
1060.54	6680.00
1061.25	6558.00
1061.97	6404.00
1062.68	6287.00
1063.40	6157.00
1064.11	6037.00
1064.82	5915.00
1065.54	5796.00
1066.25	2578.00
1066.96	2581.00
1067.68	2573.00
1068.39	2581.00
1069.10	2637.00
1069.82	2631.00
1070.53	2635.00
1071.24	2636.00
1071.95	2632.00
1072.67	2632.00
1073.38	5682.00
1074.09	5526.00
1074.80	5392.00
1075.52	5339.00
1076.23	5210.00
1076.94	5110.00
1077.65	2512.00
1078.37	2490.00
1079.08	2500.00
1079.79	2518.00
