174.03	677.95
174.41	677.95
174.78	677.95
175.16	628.23
175.54	639.53
175.92	625.97
176.30	596.59
176.67	680.21
177.05	680.21
177.43	675.69
177.81	664.39
178.19	684.73
178.56	741.22
178.94	707.33
179.32	770.60
179.70	797.72
180.08	842.92
180.45	831.62
180.83	858.73
181.21	842.92
181.59	831.62
181.96	879.07
182.34	872.29
182.72	978.51
183.10	989.80
183.48	980.77
183.85	944.61
184.23	1025.96
184.61	992.06
184.99	1044.04
185.36	1044.04
185.74	1084.72
186.12	1037.26
186.50	1007.88
186.87	1143.47
187.25	1012.40
187.63	1035.00
188.01	1057.60
188.38	1109.58
188.76	1059.86
189.14	1143.47
189.52	1044.04
189.89	983.02
190.27	1025.96
190.65	1141.21
191.02	1100.54
191.40	1066.64
191.78	1010.14
192.16	996.58
192.53	1005.62
192.91	1046.30
193.29	1050.82
193.66	1107.32
194.04	1073.42
194.42	1048.56
194.79	1082.46
195.17	1012.40
195.55	1007.88
195.93	1030.48
196.30	1014.66
196.68	1046.30
197.06	1127.65
197.43	1021.44
197.81	1032.74
198.19	1016.92
198.56	1039.52
198.94	1023.70
199.32	996.58
199.69	1039.52
200.07	1071.16
200.45	1048.56
200.82	1032.74
201.20	983.02
201.58	1028.22
201.95	1037.26
202.33	1019.18
202.71	1091.50
203.08	1037.26
203.46	989.80
203.84	1064.38
204.21	1035.00
204.59	1062.12
204.96	980.77
205.34	1055.34
205.72	1059.86
206.09	946.87
206.47	998.84
206.85	1102.80
207.22	1010.14
207.60	1089.24
207.97	1025.96
208.35	1066.64
208.73	1086.98
209.10	1089.24
209.48	1050.82
209.85	1048.56
210.23	1064.38
210.61	1041.78
210.98	1019.18
211.36	1068.90
211.73	1037.26
212.11	1035.00
212.49	1050.82
212.86	1059.86
213.24	1044.04
213.61	1059.86
213.99	1073.42
214.37	1019.18
214.74	1046.30
215.12	996.58
215.49	1025.96
215.87	1019.18
216.24	1082.46
216.62	1068.90
216.99	1089.24
217.37	1116.35
217.75	1014.66
218.12	1001.10
218.50	1071.16
218.87	1059.86
219.25	1105.06
219.62	1071.16
220.00	1046.30
220.37	992.06
220.75	980.77
221.12	1077.94
221.50	992.06
221.87	1028.22
222.25	1066.64
222.63	1016.92
223.00	1082.46
223.38	1048.56
223.75	1082.46
224.13	1066.64
224.50	1064.38
224.88	1091.50
225.25	1019.18
225.63	1068.90
226.00	1077.94
226.38	1057.60
226.75	1055.34
227.13	1039.52
227.50	1041.78
227.88	1059.86
228.25	1041.78
228.63	1050.82
229.00	994.32
229.37	1014.66
229.75	1057.60
230.12	1107.32
230.50	1075.68
230.87	1075.68
231.25	1091.50
231.62	1082.46
232.00	1098.28
232.37	1053.08
232.75	1062.12
233.12	1055.34
233.50	1057.60
233.87	1084.72
234.24	1046.30
234.62	1012.40
234.99	1010.14
235.37	1057.60
235.74	1025.96
236.12	1062.12
236.49	1037.26
236.86	1010.14
237.24	1116.35
237.61	1107.32
237.99	1050.82
238.36	1050.82
238.74	1102.80
239.11	1098.28
239.48	1105.06
239.86	1062.12
240.23	1019.18
240.61	1059.86
240.98	1068.90
241.35	1123.13
241.73	1023.70
242.10	1098.28
242.48	1107.32
242.85	1066.64
243.22	1041.78
243.60	1071.16
243.97	1025.96
244.34	1084.72
244.72	1032.74
245.09	1091.50
245.47	1161.55
245.84	1077.94
246.21	1039.52
246.59	1032.74
246.96	1030.48
247.33	1030.48
247.71	1048.56
248.08	998.84
248.45	1046.30
248.83	1044.04
249.20	1066.64
249.57	1064.38
249.95	1157.03
250.32	1032.74
250.69	1105.06
251.07	1084.72
251.44	1111.84
251.81	1077.94
252.19	1086.98
252.56	1111.84
252.93	1016.92
253.31	1134.43
253.68	1107.32
254.05	1062.12
254.43	1084.72
254.80	1025.96
255.17	1050.82
255.55	1066.64
255.92	1084.72
256.29	1037.26
256.66	1066.64
257.04	1089.24
257.41	1091.50
257.78	1075.68
258.16	1116.35
258.53	1082.46
258.90	1125.39
259.27	1089.24
259.65	1105.06
260.02	1152.51
260.39	1096.02
260.76	1041.78
261.14	1035.00
261.51	1136.69
261.88	1096.02
262.25	1066.64
262.63	1163.81
263.00	1129.91
263.37	1068.90
263.74	1093.76
264.12	1073.42
264.49	1107.32
264.86	1041.78
265.23	1091.50
265.61	1159.29
265.98	1102.80
266.35	1016.92
266.72	1073.42
267.09	1168.33
267.47	1077.94
267.84	1071.16
268.21	1039.52
268.58	1044.04
268.95	1118.61
269.33	1077.94
269.70	1091.50
270.07	1001.10
270.44	1073.42
270.81	1120.87
271.19	1120.87
271.56	1077.94
271.93	1111.84
272.30	1204.49
272.67	1050.82
273.05	1071.16
273.42	1136.69
273.79	1057.60
274.16	1098.28
274.53	1107.32
274.90	1105.06
275.28	1116.35
275.65	1136.69
276.02	1073.42
276.39	1134.43
276.76	1145.73
277.13	1166.07
277.50	1127.65
277.88	1075.68
278.25	1059.86
278.62	1089.24
278.99	1143.47
279.36	1111.84
279.73	1118.61
280.10	1138.95
280.47	1071.16
280.85	1154.77
281.22	1116.35
281.59	1057.60
281.96	1107.32
282.33	1100.54
282.70	1093.76
283.07	1084.72
283.44	1096.02
283.81	1096.02
284.18	1084.72
284.56	1086.98
284.93	1082.46
285.30	1089.24
285.67	1125.39
286.04	1127.65
286.41	1202.23
286.78	1134.43
287.15	1084.72
287.52	1068.90
287.89	1181.89
288.26	1025.96
288.63	1129.91
289.00	1077.94
289.37	1102.80
289.75	1109.58
290.12	1152.51
290.49	1118.61
290.86	1159.29
291.23	1055.34
291.60	1118.61
291.97	1105.06
292.34	1118.61
292.71	1084.72
293.08	1050.82
293.45	1093.76
293.82	1086.98
294.19	1096.02
294.56	1195.45
294.93	1041.78
295.30	1102.80
295.67	1091.50
296.04	1105.06
296.41	1109.58
296.78	1109.58
297.15	1091.50
297.52	1107.32
297.89	1150.25
298.26	1204.49
298.63	1147.99
299.00	1109.58
299.37	1154.77
299.74	1143.47
300.11	1125.39
300.48	1161.55
300.85	1082.46
301.22	1075.68
301.59	1086.98
301.96	1100.54
302.33	1118.61
302.70	1150.25
303.07	1143.47
303.43	1157.03
303.80	1161.55
304.17	1175.11
304.54	1055.34
304.91	1136.69
305.28	1143.47
305.65	1190.93
306.02	1161.55
306.39	1114.10
306.76	1147.99
307.13	1077.94
307.50	1190.93
307.87	1190.93
308.24	1199.97
308.60	1166.07
308.97	1132.17
309.34	1193.19
309.71	1111.84
310.08	1184.15
310.45	1168.33
310.82	1098.28
311.19	1141.21
311.56	1123.13
311.92	1107.32
312.29	1138.95
312.66	1077.94
313.03	1127.65
313.40	1157.03
313.77	1213.53
314.14	1105.06
314.51	1172.85
314.87	1159.29
315.24	1091.50
315.61	1181.89
315.98	1175.11
316.35	1136.69
316.72	1147.99
317.09	1138.95
317.45	1145.73
317.82	1127.65
318.19	1213.53
318.56	1132.17
318.93	1199.97
319.30	1170.59
319.66	1161.55
320.03	1179.63
320.40	1195.45
320.77	1168.33
321.14	1125.39
321.50	1066.64
321.87	1159.29
322.24	1222.57
322.61	1152.51
322.98	1168.33
323.34	1175.11
323.71	1044.04
324.08	1190.93
324.45	1215.79
324.82	1211.27
325.18	1145.73
325.55	1197.71
325.92	1123.13
326.29	1157.03
326.65	1175.11
327.02	1170.59
327.39	1199.97
327.76	1175.11
328.12	1161.55
328.49	1089.24
328.86	1231.61
329.23	1172.85
329.59	1211.27
329.96	1197.71
330.33	1102.80
330.70	1129.91
331.06	1161.55
331.43	1127.65
331.80	1175.11
332.17	1143.47
332.53	1240.65
332.90	1204.49
333.27	1186.41
333.63	1136.69
334.00	1193.19
334.37	1188.67
334.74	1204.49
335.10	1236.13
335.47	1256.46
335.84	1242.91
336.20	1188.67
336.57	1213.53
336.94	1233.87
337.30	1175.11
337.67	1215.79
338.04	1168.33
338.40	1240.65
338.77	1204.49
339.14	1215.79
339.50	1265.50
339.87	1306.18
340.24	1193.19
340.60	1166.07
340.97	1188.67
341.34	1188.67
341.70	1220.31
342.07	1211.27
342.44	1236.13
342.80	1186.41
343.17	1211.27
343.53	1209.01
343.90	1247.42
344.27	1220.31
344.63	1186.41
345.00	1256.46
345.37	1263.24
345.73	1258.72
346.10	1292.62
346.46	1229.35
346.83	1213.53
347.20	1179.63
347.56	1227.09
347.93	1240.65
348.29	1267.76
348.66	1256.46
349.03	1276.80
349.39	1251.94
349.76	1251.94
350.12	1222.57
350.49	1276.80
350.85	1218.05
351.22	1157.03
351.59	1227.09
351.95	1294.88
352.32	1303.92
352.68	1240.65
353.05	1274.54
353.41	1254.20
353.78	1276.80
354.14	1306.18
354.51	1401.09
354.88	1315.22
355.24	1251.94
355.61	1197.71
355.97	1312.96
356.34	1279.06
356.70	1340.08
357.07	1292.62
357.43	1303.92
357.80	1306.18
358.16	1303.92
358.53	1306.18
358.89	1308.44
359.26	1349.12
359.62	1245.16
359.99	1380.75
360.35	1331.04
360.72	1303.92
361.08	1319.74
361.45	1351.38
361.81	1317.48
362.18	1407.87
362.54	1301.66
362.91	1380.75
363.27	1319.74
363.63	1303.92
364.00	1358.16
364.36	1376.24
364.73	1378.49
365.09	1367.20
365.46	1448.55
365.82	1389.79
366.19	1369.46
366.55	1392.05
366.91	1421.43
367.28	1360.42
367.64	1383.01
368.01	1453.07
368.37	1444.03
368.74	1396.57
369.10	1453.07
369.46	1473.41
369.83	1471.15
370.19	1403.35
370.56	1441.77
370.92	1520.86
371.28	1541.20
371.65	1527.64
372.01	1473.41
372.38	1552.50
372.74	1566.06
373.10	1586.40
373.47	1649.67
373.83	1581.88
374.19	1701.65
374.56	1640.63
374.92	1640.63
375.29	1645.15
375.65	1717.47
376.01	1735.55
376.38	1753.63
376.74	1769.44
377.10	1708.43
377.47	1801.08
377.83	1853.06
378.19	1929.89
378.56	1986.39
378.92	2031.58
379.28	2038.36
379.65	2060.96
380.01	2167.17
380.37	2169.43
380.74	2268.87
381.10	2438.35
381.46	2544.57
381.83	2720.83
382.19	2863.20
382.55	2982.97
382.91	3086.92
383.28	3364.88
383.64	3575.05
384.00	3798.77
384.37	3993.12
384.73	4295.93
385.09	4506.10
385.45	4892.53
385.82	5321.89
386.18	5638.27
386.54	6198.71
386.91	6580.62
387.27	7177.21
387.63	7968.15
387.99	8356.84
388.36	9258.51
388.72	10124.03
389.08	11005.36
389.44	12051.66
389.80	12862.94
390.17	14058.39
390.53	15402.98
390.89	17226.67
391.25	18175.79
391.62	19619.82
391.98	21759.88
392.34	24214.05
392.70	25515.71
393.06	27741.64
393.43	29511.09
393.79	31063.59
394.15	32977.66
394.51	35393.42
394.87	37910.87
395.24	40507.41
395.60	43718.62
395.96	46997.63
396.32	49727.51
396.68	52324.05
397.04	55456.17
397.41	57953.28
397.77	59580.35
398.13	61745.27
398.49	62857.10
398.85	64624.29
399.21	65535.00
399.58	65535.00
399.94	65535.00
400.30	65535.00
400.66	65535.00
401.02	65535.00
401.38	65535.00
401.74	65535.00
402.11	65535.00
402.47	65535.00
402.83	65535.00
403.19	65535.00
403.55	65535.00
403.91	65535.00
404.27	65535.00
404.63	65535.00
404.99	65535.00
405.35	65535.00
405.72	65535.00
406.08	65535.00
406.44	65535.00
406.80	65535.00
407.16	65535.00
407.52	65535.00
407.88	65535.00
408.24	65535.00
408.60	65535.00
408.96	65535.00
409.32	65535.00
409.68	65535.00
410.04	65535.00
410.40	65535.00
410.76	65535.00
411.13	65535.00
411.49	65535.00
411.85	65535.00
412.21	65535.00
412.57	65535.00
412.93	65535.00
413.29	65535.00
413.65	65535.00
414.01	65535.00
414.37	65535.00
414.73	65535.00
415.09	65535.00
415.45	65535.00
415.81	65535.00
416.17	65535.00
416.53	65535.00
416.89	65535.00
417.25	64909.03
417.61	63437.88
417.97	62741.85
418.33	61659.40
418.69	60778.06
419.05	59682.05
419.41	58470.78
419.77	57948.76
420.12	55883.28
420.48	54387.27
420.84	53957.90
421.20	51901.46
421.56	49600.96
421.92	49004.36
422.28	46279.01
422.64	43867.77
423.00	42394.37
423.36	40898.36
423.72	38130.07
424.08	35962.90
424.44	33962.95
424.80	32677.11
425.16	31560.75
425.51	29780.01
425.87	28869.30
426.23	26568.79
426.59	25029.85
426.95	24634.38
427.31	23237.81
427.67	22869.46
428.03	20813.01
428.39	20530.53
428.74	18517.03
429.10	17692.19
429.46	16743.06
429.82	15949.86
430.18	15355.53
430.54	14944.24
430.90	14761.19
431.26	13613.20
431.61	12923.95
431.97	12465.21
432.33	11986.13
432.69	11938.67
433.05	11375.97
433.41	10501.42
433.76	10189.56
434.12	10083.35
434.48	9455.12
434.84	9125.18
435.20	8917.28
435.55	8689.04
435.91	8261.93
436.27	7814.48
436.63	7649.52
436.99	7319.58
437.34	6971.57
437.70	6948.97
438.06	6700.39
438.42	6191.93
438.78	5968.20
439.13	5927.53
439.49	5724.14
439.85	5412.29
440.21	5136.59
440.56	5066.53
440.92	4937.72
441.28	4648.47
441.64	4445.08
441.99	4354.69
442.35	4221.36
442.71	4076.73
443.07	4045.09
443.42	3925.32
443.78	3638.32
444.14	3672.22
444.50	3566.01
444.85	3538.89
445.21	3448.50
445.57	3385.22
445.93	3306.13
446.28	3269.97
446.64	3166.02
447.00	3016.87
447.35	2987.49
447.71	3055.29
448.07	2969.41
448.42	2851.90
448.78	2763.77
449.14	2671.12
449.49	2727.61
449.85	2555.86
450.21	2512.93
450.56	2406.72
450.92	2474.51
451.28	2325.36
451.63	2438.35
451.99	2309.54
452.35	2291.47
452.70	2266.61
453.06	2119.72
453.42	2054.18
453.77	1995.43
454.13	1988.65
454.49	2029.33
454.84	2090.34
455.20	1938.93
455.55	1947.97
455.91	1957.01
456.27	1938.93
456.62	1898.26
456.98	1857.58
457.33	1751.37
457.69	1640.63
458.05	1663.23
458.40	1692.61
458.76	1651.93
459.11	1642.89
459.47	1647.41
459.83	1572.84
460.18	1647.41
460.54	1604.48
460.89	1572.84
461.25	1541.20
461.60	1500.53
461.96	1405.61
462.31	1590.92
462.67	1468.89
463.03	1482.45
463.38	1507.30
463.74	1534.42
464.09	1545.72
464.45	1477.93
464.80	1421.43
465.16	1480.19
465.51	1412.39
465.87	1412.39
466.22	1423.69
466.58	1428.21
466.93	1394.31
467.29	1410.13
467.64	1394.31
468.00	1380.75
468.35	1439.51
468.71	1385.27
469.06	1376.24
469.42	1335.56
469.77	1340.08
470.13	1285.84
470.48	1337.82
470.84	1387.53
471.19	1349.12
471.54	1301.66
471.90	1308.44
472.25	1380.75
472.61	1369.46
472.96	1288.10
473.32	1281.32
473.67	1308.44
474.03	1276.80
474.38	1319.74
474.73	1337.82
475.09	1297.14
475.44	1274.54
475.80	1315.22
476.15	1281.32
476.50	1362.68
476.86	1254.20
477.21	1310.70
477.57	1306.18
477.92	1337.82
478.27	1310.70
478.63	1297.14
478.98	1222.57
479.34	1251.94
479.69	1251.94
480.04	1199.97
480.40	1276.80
480.75	1308.44
481.10	1283.58
481.46	1249.68
481.81	1274.54
482.16	1227.09
482.52	1256.46
482.87	1274.54
483.22	1218.05
483.58	1249.68
483.93	1258.72
484.28	1319.74
484.64	1267.76
484.99	1270.02
485.34	1199.97
485.70	1204.49
486.05	1227.09
486.40	1276.80
486.76	1265.50
487.11	1231.61
487.46	1125.39
487.81	1319.74
488.17	1267.76
488.52	1260.98
488.87	1272.28
489.23	1220.31
489.58	1265.50
489.93	1292.62
490.28	1227.09
490.64	1224.83
490.99	1288.10
491.34	1233.87
491.69	1233.87
492.05	1238.39
492.40	1267.76
492.75	1292.62
493.10	1249.68
493.46	1292.62
493.81	1267.76
494.16	1260.98
494.51	1299.40
494.86	1344.60
495.22	1279.06
495.57	1285.84
495.92	1312.96
496.27	1292.62
496.62	1355.90
496.98	1331.04
497.33	1283.58
497.68	1342.34
498.03	1364.94
498.38	1360.42
498.74	1342.34
499.09	1421.43
499.44	1333.30
499.79	1421.43
500.14	1346.86
500.49	1410.13
500.85	1455.33
501.20	1410.13
501.55	1441.77
501.90	1464.37
502.25	1496.01
502.60	1457.59
502.95	1398.83
503.30	1541.20
503.66	1538.94
504.01	1534.42
504.36	1609.00
504.71	1570.58
505.06	1602.22
505.41	1629.34
505.76	1595.44
506.11	1742.33
506.46	1742.33
506.82	1640.63
507.17	1767.19
507.52	1706.17
507.87	1764.93
508.22	1789.78
508.57	1773.96
508.92	1778.48
509.27	1873.40
509.62	1864.36
509.97	1981.87
510.32	2002.21
510.67	1966.05
511.02	2036.10
511.37	2153.62
511.72	2027.07
512.07	2045.14
512.42	2126.50
512.77	2201.07
513.12	2180.73
513.47	2194.29
513.82	2286.95
514.17	2234.97
514.52	2309.54
514.87	2363.78
515.22	2512.93
515.57	2506.15
515.92	2508.41
516.27	2515.19
516.62	2555.86
516.97	2594.28
517.32	2657.56
517.67	2666.60
518.02	2702.75
518.37	2700.49
518.72	2793.15
519.07	2937.78
519.42	2845.12
519.77	2912.92
520.12	2899.36
520.47	3091.44
520.82	3091.44
521.17	2940.04
521.52	3086.92
521.87	3188.62
522.22	3227.03
522.56	3127.60
522.91	3224.77
523.26	3303.87
523.61	3292.57
523.96	3245.11
524.31	3394.26
524.66	3405.56
525.01	3378.44
525.36	3588.61
525.71	3520.81
526.05	3489.17
526.40	3570.53
526.75	3638.32
527.10	3464.32
527.45	3518.55
527.80	3697.08
528.15	3636.06
528.49	3649.62
528.84	3701.60
529.19	3658.66
529.54	3742.27
529.89	3889.16
530.24	3617.98
530.58	3839.45
530.93	3814.59
531.28	3805.55
531.63	3762.61
531.98	3875.60
532.33	3868.82
532.67	3880.12
533.02	3855.27
533.37	3938.88
533.72	3904.98
534.07	3898.20
534.41	4083.51
534.76	3938.88
535.11	3889.16
535.46	4008.93
535.80	3997.64
536.15	4060.91
536.50	3864.31
536.85	3891.42
537.19	3877.86
537.54	3966.00
537.89	3988.60
538.24	3990.86
538.58	4008.93
538.93	4031.53
539.28	4031.53
539.63	3981.82
539.97	4020.23
540.32	3932.10
540.67	4017.97
541.01	4078.99
541.36	4038.31
541.71	3975.04
542.06	3909.50
542.40	3871.08
542.75	4056.39
543.10	3972.78
543.44	4078.99
543.79	3884.64
544.14	3859.79
544.48	3934.36
544.83	3977.30
545.18	3975.04
545.52	3929.84
545.87	3807.81
546.22	3932.10
546.56	3807.81
546.91	3839.45
547.25	3816.85
547.60	3848.49
547.95	3859.79
548.29	3871.08
548.64	3855.27
548.99	3857.53
549.33	3726.46
549.68	3850.75
550.02	3812.33
550.37	3735.50
550.72	3764.87
551.06	3706.12
551.41	3773.91
551.75	3724.20
552.10	3701.60
552.45	3791.99
552.79	3676.74
553.14	3728.72
553.48	3636.06
553.83	3568.27
554.17	3726.46
554.52	3692.56
554.87	3606.68
555.21	3679.00
555.56	3663.18
555.90	3699.34
556.25	3697.08
556.59	3498.21
556.94	3584.09
557.28	3500.47
557.63	3633.80
557.97	3556.97
558.32	3586.35
558.66	3459.80
559.01	3568.27
559.35	3475.61
559.70	3507.25
560.04	3412.34
560.39	3511.77
560.73	3536.63
561.08	3430.42
561.42	3430.42
561.77	3459.80
562.11	3349.06
562.46	3412.34
562.80	3382.96
563.14	3392.00
563.49	3421.38
563.83	3358.10
564.18	3396.52
564.52	3283.53
564.87	3310.65
565.21	3319.69
565.56	3288.05
565.90	3247.37
566.24	3376.18
566.59	3337.77
566.93	3326.47
567.28	3349.06
567.62	3208.96
567.96	3294.83
568.31	3294.83
568.65	3281.27
569.00	3238.33
569.34	3129.86
569.68	3172.80
570.03	3208.96
570.37	3292.57
570.71	3204.44
571.06	3190.88
571.40	3211.22
571.74	3123.08
572.09	3208.96
572.43	3098.22
572.78	3152.46
573.12	3023.65
573.46	3105.00
573.80	2992.01
574.15	3086.92
574.49	2958.11
574.83	2982.97
575.18	2962.63
575.52	2996.53
575.86	3016.87
576.21	2994.27
576.55	2962.63
576.89	2953.59
577.24	2863.20
577.58	2953.59
577.92	3014.61
578.26	2881.28
578.61	2915.18
578.95	2881.28
579.29	2987.49
579.63	2788.63
579.98	2881.28
580.32	2949.08
580.66	2808.97
581.00	2863.20
581.35	2858.68
581.69	2756.99
582.03	2777.33
582.37	2745.69
582.72	2876.76
583.06	2650.78
583.40	2754.73
583.74	2806.71
584.08	2716.31
584.43	2747.95
584.77	2727.61
585.11	2716.31
585.45	2632.70
585.79	2666.60
586.13	2560.38
586.48	2693.71
586.82	2644.00
587.16	2610.10
587.50	2594.28
587.84	2601.06
588.18	2623.66
588.53	2490.33
588.87	2479.03
589.21	2573.94
589.55	2551.35
589.89	2551.35
590.23	2485.81
590.57	2479.03
590.92	2560.38
591.26	2531.01
591.60	2508.41
591.94	2531.01
592.28	2436.09
592.62	2393.16
592.96	2415.76
593.30	2408.98
593.64	2386.38
593.98	2354.74
594.32	2320.84
594.67	2341.18
595.01	2338.92
595.35	2411.24
595.69	2354.74
596.03	2271.13
596.37	2390.90
596.71	2309.54
597.05	2302.76
597.39	2316.32
597.73	2182.99
598.07	2239.49
598.41	2221.41
598.75	2253.05
599.09	2228.19
599.43	2302.76
599.77	2155.88
600.11	2268.87
600.45	2033.84
600.79	2225.93
601.13	2189.77
601.47	2192.03
601.81	2128.76
602.15	2133.28
602.49	2153.62
602.83	2158.14
603.17	2151.36
603.51	2029.33
603.85	2119.72
604.19	2058.70
604.53	2074.52
604.87	2029.33
605.21	2115.20
605.55	2110.68
605.89	2090.34
606.23	1997.69
606.56	2049.66
606.90	2006.73
607.24	2011.25
607.58	1966.05
607.92	1911.81
608.26	1963.79
608.60	1923.11
608.94	1900.52
609.28	2024.81
609.62	1972.83
609.95	1934.41
610.29	1927.63
610.63	1911.81
610.97	1916.33
611.31	1975.09
611.65	1909.55
611.99	1877.92
612.33	1873.40
612.66	1923.11
613.00	1963.79
613.34	1783.00
613.68	1918.59
614.02	1787.52
614.36	1796.56
614.69	1841.76
615.03	1875.66
615.37	1778.48
615.71	1859.84
616.05	1789.78
616.38	1837.24
616.72	1830.46
617.06	1801.08
617.40	1814.64
617.74	1767.19
618.07	1803.34
618.41	1767.19
618.75	1712.95
619.09	1721.99
619.42	1762.67
619.76	1778.48
620.10	1740.07
620.44	1740.07
620.77	1737.81
621.11	1679.05
621.45	1665.49
621.79	1697.13
622.12	1742.33
622.46	1821.42
622.80	1692.61
623.13	1674.53
623.47	1697.13
623.81	1724.25
624.15	1674.53
624.48	1654.19
624.82	1670.01
625.16	1620.30
625.49	1590.92
625.83	1631.60
626.17	1606.74
626.50	1597.70
626.84	1674.53
627.18	1606.74
627.51	1581.88
627.85	1590.92
628.19	1584.14
628.52	1613.52
628.86	1606.74
629.20	1554.76
629.53	1609.00
629.87	1599.96
630.20	1500.53
630.54	1579.62
630.88	1518.60
631.21	1496.01
631.55	1566.06
631.89	1493.75
632.22	1554.76
632.56	1620.30
632.89	1484.71
633.23	1511.82
633.56	1525.38
633.90	1550.24
634.24	1588.66
634.57	1516.34
634.91	1482.45
635.24	1572.84
635.58	1498.27
635.91	1498.27
636.25	1457.59
636.58	1462.11
636.92	1507.30
637.26	1453.07
637.59	1466.63
637.93	1401.09
638.26	1437.25
638.60	1482.45
638.93	1462.11
639.27	1496.01
639.60	1423.69
639.94	1462.11
640.27	1496.01
640.61	1468.89
640.94	1394.31
641.28	1432.73
641.61	1423.69
641.94	1421.43
642.28	1439.51
642.61	1373.98
642.95	1396.57
643.28	1437.25
643.62	1462.11
643.95	1376.24
644.29	1358.16
644.62	1477.93
644.95	1482.45
645.29	1351.38
645.62	1358.16
645.96	1383.01
646.29	1428.21
646.63	1412.39
646.96	1360.42
647.29	1385.27
647.63	1414.65
647.96	1387.53
648.29	1414.65
648.63	1394.31
648.96	1346.86
649.30	1331.04
649.63	1283.58
649.96	1328.78
650.30	1401.09
650.63	1274.54
650.96	1383.01
651.30	1310.70
651.63	1242.91
651.96	1326.52
652.30	1317.48
652.63	1360.42
652.96	1312.96
653.30	1317.48
653.63	1416.91
653.96	1342.34
654.30	1260.98
654.63	1247.42
654.96	1231.61
655.29	1274.54
655.63	1242.91
655.96	1288.10
656.29	1290.36
656.63	1306.18
656.96	1245.16
657.29	1238.39
657.62	1279.06
657.96	1249.68
658.29	1209.01
658.62	1306.18
658.95	1324.26
659.29	1283.58
659.62	1272.28
659.95	1331.04
660.28	1213.53
660.61	1233.87
660.95	1240.65
661.28	1213.53
661.61	1265.50
661.94	1249.68
662.27	1195.45
662.61	1251.94
662.94	1294.88
663.27	1249.68
663.60	1260.98
663.93	1233.87
664.27	1224.83
664.60	1285.84
664.93	1267.76
665.26	1220.31
665.59	1143.47
665.92	1245.16
666.25	1206.75
666.59	1231.61
666.92	1190.93
667.25	1170.59
667.58	1186.41
667.91	1197.71
668.24	1209.01
668.57	1172.85
668.90	1249.68
669.23	1245.16
669.57	1265.50
669.90	1231.61
670.23	1190.93
670.56	1202.23
670.89	1186.41
671.22	1179.63
671.55	1175.11
671.88	1231.61
672.21	1177.37
672.54	1163.81
672.87	1179.63
673.20	1206.75
673.53	1211.27
673.86	1175.11
674.19	1161.55
674.52	1163.81
674.85	1109.58
675.18	1138.95
675.51	1184.15
675.84	1184.15
676.17	1163.81
676.50	1222.57
676.83	1163.81
677.16	1147.99
677.49	1220.31
677.82	1123.13
678.15	1170.59
678.48	1123.13
678.81	1147.99
679.14	1168.33
679.47	1231.61
679.80	1107.32
680.13	1218.05
680.46	1134.43
680.79	1075.68
681.12	1154.77
681.45	1102.80
681.78	1238.39
682.11	1105.06
682.44	1154.77
682.77	1161.55
683.09	1073.42
683.42	1157.03
683.75	1143.47
684.08	1195.45
684.41	1150.25
684.74	1188.67
685.07	1111.84
685.40	1107.32
685.72	1157.03
686.05	1132.17
686.38	1064.38
686.71	1163.81
687.04	1150.25
687.37	1170.59
687.70	1123.13
688.02	1154.77
688.35	1125.39
688.68	1111.84
689.01	1166.07
689.34	1105.06
689.67	1161.55
689.99	1100.54
690.32	1150.25
690.65	1175.11
690.98	1111.84
691.30	1048.56
691.63	1129.91
691.96	1138.95
692.29	1098.28
692.62	1152.51
692.94	1116.35
693.27	1093.76
693.60	1118.61
693.93	1068.90
694.25	1102.80
694.58	1193.19
694.91	1136.69
695.24	1111.84
695.56	1102.80
695.89	1093.76
696.22	1082.46
696.54	1134.43
696.87	1071.16
697.20	1084.72
697.53	1125.39
697.85	1129.91
698.18	1109.58
698.51	1059.86
698.83	1098.28
699.16	1080.20
699.49	1073.42
699.81	1114.10
700.14	1123.13
700.47	1123.13
700.79	1055.34
701.12	1120.87
701.45	1102.80
701.77	1127.65
702.10	1066.64
702.42	1150.25
702.75	1075.68
703.08	1066.64
703.40	1059.86
703.73	1096.02
704.05	1089.24
704.38	1068.90
704.71	1068.90
705.03	1080.20
705.36	1021.44
705.68	1134.43
706.01	1120.87
706.34	1102.80
706.66	1100.54
706.99	1082.46
707.31	1120.87
707.64	1177.37
707.96	1093.76
708.29	1091.50
708.61	1073.42
708.94	1071.16
709.26	1021.44
709.59	1066.64
709.92	1062.12
710.24	1098.28
710.57	1089.24
710.89	1068.90
711.22	1068.90
711.54	1048.56
711.87	1075.68
712.19	1059.86
712.51	1116.35
712.84	1080.20
713.16	1107.32
713.49	1093.76
713.81	1048.56
714.14	1105.06
714.46	1071.16
714.79	1100.54
715.11	1010.14
715.44	1032.74
715.76	1136.69
716.08	1050.82
716.41	1105.06
716.73	1073.42
717.06	1055.34
717.38	1118.61
717.70	1134.43
718.03	1109.58
718.35	1084.72
718.68	1150.25
719.00	1059.86
719.32	1046.30
719.65	1053.08
719.97	1114.10
720.29	1075.68
720.62	1098.28
720.94	1089.24
721.27	1127.65
721.59	1039.52
721.91	1105.06
722.24	1039.52
722.56	1084.72
722.88	1086.98
723.21	1089.24
723.53	1093.76
723.85	1032.74
724.17	1048.56
724.50	1028.22
724.82	1105.06
725.14	1062.12
725.47	1057.60
725.79	1005.62
726.11	1037.26
726.43	1050.82
726.76	1039.52
727.08	1030.48
727.40	1125.39
727.72	1055.34
728.05	1102.80
728.37	1012.40
728.69	1012.40
729.01	1016.92
729.34	1032.74
729.66	1030.48
729.98	1048.56
730.30	1041.78
730.62	1010.14
730.95	1062.12
731.27	1041.78
731.59	1105.06
731.91	1102.80
732.23	1037.26
732.56	1084.72
732.88	1080.20
733.20	1028.22
733.52	1062.12
733.84	1014.66
734.16	1035.00
734.49	1096.02
734.81	1091.50
735.13	1071.16
735.45	1066.64
735.77	1023.70
736.09	1048.56
736.41	1075.68
736.73	1048.56
737.06	1066.64
737.38	1053.08
737.70	1080.20
738.02	1037.26
738.34	1025.96
738.66	1114.10
738.98	964.95
739.30	1057.60
739.62	1068.90
739.94	1105.06
740.26	1050.82
740.58	1023.70
740.90	1021.44
741.23	1044.04
741.55	1082.46
741.87	1075.68
742.19	1030.48
742.51	1066.64
742.83	1010.14
743.15	1044.04
743.47	1028.22
743.79	1044.04
744.11	1039.52
744.43	1050.82
744.75	1019.18
745.07	1134.43
745.39	1109.58
745.71	1093.76
746.03	992.06
746.35	1057.60
746.67	1077.94
746.98	987.54
747.30	1120.87
747.62	1028.22
747.94	1028.22
748.26	1032.74
748.58	1071.16
748.90	1037.26
749.22	1073.42
749.54	1082.46
749.86	1080.20
750.18	1046.30
750.50	1019.18
750.82	1055.34
751.13	1028.22
751.45	1098.28
751.77	1123.13
752.09	1068.90
752.41	1109.58
752.73	1075.68
753.05	1035.00
753.36	1150.25
753.68	1039.52
754.00	1064.38
754.32	1107.32
754.64	1059.86
754.96	1068.90
755.28	958.17
755.59	1091.50
755.91	1059.86
756.23	1016.92
756.55	1041.78
756.87	1046.30
757.18	1091.50
757.50	1019.18
757.82	1039.52
758.14	1098.28
758.45	1025.96
758.77	1075.68
759.09	1046.30
759.41	1048.56
759.73	1035.00
760.04	1007.88
760.36	1021.44
760.68	1086.98
760.99	1037.26
761.31	1075.68
761.63	1055.34
761.95	1089.24
762.26	1023.70
762.58	1050.82
762.90	1035.00
763.21	1071.16
763.53	1098.28
763.85	1021.44
764.17	1105.06
764.48	1064.38
764.80	989.80
765.12	1025.96
765.43	1021.44
765.75	960.43
766.07	1053.08
766.38	1073.42
766.70	1023.70
767.01	1102.80
767.33	1057.60
767.65	1016.92
767.96	994.32
768.28	1032.74
768.60	978.51
768.91	1068.90
769.23	1080.20
769.54	1044.04
769.86	1157.03
770.18	1071.16
770.49	1005.62
770.81	1044.04
771.12	1035.00
771.44	1032.74
771.75	969.47
772.07	1053.08
772.38	1068.90
772.70	1057.60
773.02	1062.12
773.33	1075.68
773.65	1032.74
773.96	1037.26
774.28	1050.82
774.59	1048.56
774.91	980.77
775.22	1035.00
775.54	1055.34
775.85	1066.64
776.17	1041.78
776.48	1014.66
776.80	1025.96
777.11	1032.74
777.43	1012.40
777.74	1066.64
778.05	1007.88
778.37	1053.08
778.68	1037.26
779.00	1030.48
779.31	1105.06
779.63	1035.00
779.94	1077.94
780.26	1023.70
780.57	1028.22
780.88	1003.36
781.20	1023.70
781.51	1073.42
781.83	1037.26
782.14	1105.06
782.45	1084.72
782.77	1044.04
783.08	1023.70
783.39	985.28
783.71	1016.92
784.02	1068.90
784.34	1059.86
784.65	983.02
784.96	1055.34
785.28	1068.90
785.59	1001.10
785.90	1105.06
786.22	992.06
786.53	985.28
786.84	1023.70
787.15	1057.60
787.47	953.65
787.78	1111.84
788.09	1044.04
788.41	1055.34
788.72	1030.48
789.03	1025.96
789.35	1055.34
789.66	1003.36
789.97	1007.88
790.28	1003.36
790.60	1066.64
790.91	1143.47
791.22	1003.36
791.53	1071.16
791.84	1073.42
792.16	1062.12
792.47	1059.86
792.78	1037.26
793.09	1039.52
793.41	1059.86
793.72	1035.00
794.03	1014.66
794.34	1032.74
794.65	1062.12
794.96	1003.36
795.28	1023.70
795.59	1062.12
795.90	1071.16
796.21	1109.58
796.52	1019.18
796.83	1035.00
797.15	1016.92
797.46	1068.90
797.77	1080.20
798.08	1032.74
798.39	1012.40
798.70	1007.88
799.01	1077.94
799.32	1016.92
799.63	980.77
799.95	1041.78
800.26	1041.78
800.57	1035.00
800.88	1062.12
801.19	1012.40
801.50	1044.04
801.81	1044.04
802.12	1037.26
802.43	1055.34
802.74	1021.44
803.05	1007.88
803.36	1050.82
803.67	1059.86
803.98	1016.92
804.29	1064.38
804.60	980.77
804.91	1077.94
805.22	1086.98
805.53	994.32
805.84	1023.70
806.15	1035.00
806.46	1037.26
806.77	1048.56
807.08	1014.66
807.39	1046.30
807.70	964.95
808.01	1016.92
808.32	994.32
808.63	1111.84
808.94	969.47
809.25	1055.34
809.56	1050.82
809.87	1039.52
810.18	1035.00
810.49	1080.20
810.79	1059.86
811.10	1048.56
811.41	1001.10
811.72	1053.08
812.03	1037.26
812.34	987.54
812.65	1021.44
812.96	1021.44
813.27	1010.14
813.57	1077.94
813.88	1041.78
814.19	1030.48
814.50	1098.28
814.81	1041.78
815.12	1007.88
815.42	1073.42
815.73	1080.20
816.04	1055.34
816.35	1037.26
816.66	1032.74
816.97	1075.68
817.27	978.51
817.58	1071.16
817.89	969.47
818.20	1084.72
818.50	1039.52
818.81	1035.00
819.12	1062.12
819.43	1028.22
819.73	1005.62
820.04	924.27
820.35	1059.86
820.66	1064.38
820.96	1055.34
821.27	1073.42
821.58	1084.72
821.89	1041.78
822.19	1032.74
822.50	1037.26
822.81	1021.44
823.11	1046.30
823.42	1062.12
823.73	1048.56
824.03	1025.96
824.34	1118.61
824.65	1007.88
824.95	1059.86
825.26	976.25
825.57	1077.94
825.87	1032.74
826.18	1073.42
826.49	1116.35
826.79	1046.30
827.10	1025.96
827.40	1014.66
827.71	1048.56
828.02	1068.90
828.32	1035.00
828.63	1066.64
828.93	978.51
829.24	1035.00
829.55	1030.48
829.85	1032.74
830.16	1127.65
830.46	1100.54
830.77	1066.64
831.07	1030.48
831.38	1010.14
831.69	1084.72
831.99	1025.96
832.30	1075.68
832.60	1046.30
832.91	1082.46
833.21	1086.98
833.52	1021.44
833.82	1003.36
834.13	1071.16
834.43	1050.82
834.74	1077.94
835.04	1003.36
835.35	1075.68
835.65	1010.14
835.96	1086.98
836.26	1102.80
836.56	996.58
836.87	1041.78
837.17	1039.52
837.48	1048.56
837.78	1039.52
838.09	1050.82
838.39	1057.60
838.69	1012.40
839.00	1025.96
839.30	1028.22
839.61	1030.48
839.91	1035.00
840.21	1062.12
840.52	1028.22
840.82	1007.88
841.13	1041.78
841.43	976.25
841.73	1105.06
842.04	1019.18
842.34	1046.30
842.64	1039.52
842.95	1039.52
843.25	1005.62
843.55	1062.12
843.86	1077.94
844.16	1116.35
844.46	1066.64
844.77	1050.82
845.07	1075.68
845.37	1098.28
845.68	1001.10
845.98	958.17
846.28	1025.96
846.58	1055.34
846.89	1025.96
847.19	1100.54
847.49	1032.74
847.79	1032.74
848.10	1080.20
848.40	1098.28
848.70	1062.12
849.00	1073.42
849.31	1059.86
849.61	1028.22
849.91	1032.74
850.21	1075.68
850.51	1096.02
850.82	996.58
851.12	1016.92
851.42	1039.52
851.72	1077.94
852.02	1053.08
852.32	985.28
852.63	1055.34
852.93	1062.12
853.23	971.73
853.53	996.58
853.83	1041.78
854.13	1077.94
854.43	1048.56
854.74	971.73
855.04	1053.08
855.34	1014.66
855.64	1055.34
855.94	1071.16
856.24	1021.44
856.54	1014.66
856.84	1080.20
857.14	1057.60
857.44	1050.82
857.74	987.54
858.05	1021.44
858.35	1102.80
858.65	1093.76
858.95	1093.76
859.25	1039.52
859.55	1064.38
859.85	1059.86
860.15	1025.96
860.45	1041.78
860.75	1041.78
861.05	1028.22
861.35	1025.96
861.65	1005.62
861.95	1071.16
862.25	998.84
862.55	1014.66
862.85	1082.46
863.15	1030.48
863.45	1053.08
863.75	1012.40
864.05	1075.68
864.35	1071.16
864.64	1032.74
864.94	1021.44
865.24	1023.70
865.54	1055.34
865.84	1116.35
866.14	1053.08
866.44	1066.64
866.74	1080.20
867.04	1014.66
867.34	998.84
867.64	1068.90
867.93	1075.68
868.23	1111.84
868.53	973.99
868.83	1041.78
869.13	1053.08
869.43	1021.44
869.73	1073.42
870.02	1021.44
870.32	1021.44
870.62	1062.12
870.92	1028.22
871.22	1068.90
871.51	980.77
871.81	1039.52
872.11	1084.72
872.41	973.99
872.71	978.51
873.00	1007.88
873.30	1014.66
873.60	1057.60
873.90	1048.56
874.19	1041.78
874.49	1023.70
874.79	1075.68
875.09	964.95
875.38	1001.10
875.68	1039.52
875.98	1089.24
876.28	1050.82
876.57	1075.68
876.87	1075.68
877.17	1075.68
