174.03	673.43
174.41	673.43
174.78	673.43
175.16	610.15
175.54	668.91
175.92	655.35
176.30	639.53
176.67	621.45
177.05	666.65
177.43	698.29
177.81	686.99
178.19	689.25
178.56	716.37
178.94	723.14
179.32	727.66
179.70	729.92
180.08	790.94
180.45	836.14
180.83	836.14
181.21	813.54
181.59	879.07
181.96	854.21
182.34	912.97
182.72	931.05
183.10	915.23
183.48	1014.66
183.85	985.28
184.23	987.54
184.61	1016.92
184.99	998.84
185.36	1032.74
185.74	1080.20
186.12	1019.18
186.50	1039.52
186.87	996.58
187.25	964.95
187.63	973.99
188.01	1025.96
188.38	1091.50
188.76	1066.64
189.14	942.35
189.52	1062.12
189.89	1044.04
190.27	1023.70
190.65	1071.16
191.02	1066.64
191.40	1028.22
191.78	1100.54
192.16	1066.64
192.53	1080.20
192.91	1066.64
193.29	1010.14
193.66	1062.12
194.04	1041.78
194.42	989.80
194.79	1055.34
195.17	998.84
195.55	1048.56
195.93	1035.00
196.30	980.77
196.68	1016.92
197.06	992.06
197.43	971.73
197.81	1005.62
198.19	1030.48
198.56	983.02
198.94	969.47
199.32	1030.48
199.69	931.05
200.07	1071.16
200.45	989.80
200.82	1102.80
201.20	1012.40
201.58	1037.26
201.95	1048.56
202.33	1068.90
202.71	1044.04
203.08	1016.92
203.46	969.47
203.84	1023.70
204.21	1019.18
204.59	1044.04
204.96	1021.44
205.34	1014.66
205.72	1005.62
206.09	1105.06
206.47	1062.12
206.85	989.80
207.22	1016.92
207.60	1030.48
207.97	1010.14
208.35	1057.60
208.73	1030.48
209.10	994.32
209.48	1035.00
209.85	1075.68
210.23	1068.90
210.61	1048.56
210.98	1016.92
211.36	1071.16
211.73	1053.08
212.11	1030.48
212.49	1071.16
212.86	1091.50
213.24	1046.30
213.61	1007.88
213.99	1048.56
214.37	1048.56
214.74	983.02
215.12	1028.22
215.49	1118.61
215.87	1030.48
216.24	1073.42
216.62	1030.48
216.99	1016.92
217.37	1075.68
217.75	1041.78
218.12	971.73
218.50	1071.16
218.87	1073.42
219.25	1080.20
219.62	1053.08
220.00	1064.38
220.37	1012.40
220.75	1044.04
221.12	1068.90
221.50	1075.68
221.87	1057.60
222.25	1021.44
222.63	1001.10
223.00	1048.56
223.38	976.25
223.75	1014.66
224.13	976.25
224.50	1012.40
224.88	1059.86
225.25	1035.00
225.63	1048.56
226.00	1019.18
226.38	1084.72
226.75	1048.56
227.13	1053.08
227.50	1021.44
227.88	1118.61
228.25	1005.62
228.63	1057.60
229.00	1086.98
229.37	1055.34
229.75	1016.92
230.12	1091.50
230.50	1093.76
230.87	980.77
231.25	1100.54
231.62	1066.64
232.00	1021.44
232.37	1086.98
232.75	1039.52
233.12	1021.44
233.50	1102.80
233.87	1062.12
234.24	1093.76
234.62	983.02
234.99	1059.86
235.37	1059.86
235.74	1046.30
236.12	1059.86
236.49	1059.86
236.86	1075.68
237.24	1077.94
237.61	998.84
237.99	1123.13
238.36	1066.64
238.74	1080.20
239.11	1071.16
239.48	1096.02
239.86	1068.90
240.23	1068.90
240.61	1073.42
240.98	1057.60
241.35	1021.44
241.73	1062.12
242.10	1064.38
242.48	1080.20
242.85	969.47
243.22	1071.16
243.60	1035.00
243.97	1041.78
244.34	1046.30
244.72	1111.84
245.09	1096.02
245.47	1098.28
245.84	1016.92
246.21	1039.52
246.59	1096.02
246.96	1105.06
247.33	1062.12
247.71	1062.12
248.08	1053.08
248.45	1023.70
248.83	1064.38
249.20	1064.38
249.57	1039.52
249.95	1073.42
250.32	1132.17
250.69	1134.43
251.07	1075.68
251.44	1037.26
251.81	1105.06
252.19	1077.94
252.56	1057.60
252.93	1080.20
253.31	1019.18
253.68	1048.56
254.05	1125.39
254.43	1080.20
254.80	1136.69
255.17	1032.74
255.55	1068.90
255.92	1062.12
256.29	1150.25
256.66	1080.20
257.04	1116.35
257.41	1134.43
257.78	1071.16
258.16	1066.64
258.53	1001.10
258.90	1098.28
259.27	1102.80
259.65	1152.51
260.02	1086.98
260.39	1077.94
260.76	1037.26
261.14	1057.60
261.51	1075.68
261.88	1044.04
262.25	1120.87
262.63	1127.65
263.00	1100.54
263.37	1100.54
263.74	1107.32
264.12	1053.08
264.49	1044.04
264.86	1132.17
265.23	1118.61
265.61	1053.08
265.98	1086.98
266.35	1057.60
266.72	1093.76
267.09	1041.78
267.47	1116.35
267.84	1075.68
268.21	1096.02
268.58	1077.94
268.95	1141.21
269.33	1068.90
269.70	1096.02
270.07	1100.54
270.44	1075.68
270.81	1086.98
271.19	1062.12
271.56	1098.28
271.93	1021.44
272.30	1044.04
272.67	1084.72
273.05	1066.64
273.42	1111.84
273.79	1048.56
274.16	1105.06
274.53	1071.16
274.90	1055.34
275.28	1107.32
275.65	1062.12
276.02	1086.98
276.39	1096.02
276.76	1109.58
277.13	1161.55
277.50	1075.68
277.88	1098.28
278.25	1102.80
278.62	1091.50
278.99	1071.16
279.36	1082.46
279.73	1141.21
280.10	1075.68
280.47	1093.76
280.85	1071.16
281.22	1091.50
281.59	1021.44
281.96	1055.34
282.33	1059.86
282.70	1152.51
283.07	1127.65
283.44	1109.58
283.81	1068.90
284.18	1075.68
284.56	1132.17
284.93	1035.00
285.30	1077.94
285.67	1059.86
286.04	1118.61
286.41	1084.72
286.78	1141.21
287.15	1093.76
287.52	1102.80
287.89	1175.11
288.26	1109.58
288.63	1035.00
289.00	1143.47
289.37	1141.21
289.75	1118.61
290.12	1098.28
290.49	1127.65
290.86	1053.08
291.23	1172.85
291.60	1111.84
291.97	1064.38
292.34	1107.32
292.71	1077.94
293.08	1100.54
293.45	1089.24
293.82	1136.69
294.19	1132.17
294.56	1199.97
294.93	1084.72
295.30	1102.80
295.67	1159.29
296.04	1086.98
296.41	1109.58
296.78	1107.32
297.15	1107.32
297.52	1120.87
297.89	1080.20
298.26	1091.50
298.63	1071.16
299.00	1111.84
299.37	1086.98
299.74	1071.16
300.11	1098.28
300.48	1109.58
300.85	1170.59
301.22	1086.98
301.59	1055.34
301.96	1057.60
302.33	1190.93
302.70	1057.60
303.07	1098.28
303.43	1050.82
303.80	1147.99
304.17	1136.69
304.54	1098.28
304.91	1080.20
305.28	1181.89
305.65	1120.87
306.02	1080.20
306.39	1105.06
306.76	1179.63
307.13	1098.28
307.50	1073.42
307.87	1175.11
308.24	1080.20
308.60	1111.84
308.97	1098.28
309.34	1170.59
309.71	1132.17
310.08	1114.10
310.45	1068.90
310.82	1086.98
311.19	1138.95
311.56	1116.35
311.92	1118.61
312.29	1161.55
312.66	1188.67
313.03	1073.42
313.40	1188.67
313.77	1154.77
314.14	1206.75
314.51	1105.06
314.87	1186.41
315.24	1123.13
315.61	1188.67
315.98	1116.35
316.35	1175.11
316.72	1073.42
317.09	1125.39
317.45	1120.87
317.82	1116.35
318.19	1147.99
318.56	1132.17
318.93	1136.69
319.30	1199.97
319.66	1166.07
320.03	1138.95
320.40	1132.17
320.77	1152.51
321.14	1129.91
321.50	1138.95
321.87	1114.10
322.24	1120.87
322.61	1123.13
322.98	1215.79
323.34	1138.95
323.71	1179.63
324.08	1138.95
324.45	1157.03
324.82	1118.61
325.18	1125.39
325.55	1199.97
325.92	1136.69
326.29	1145.73
326.65	1143.47
327.02	1102.80
327.39	1163.81
327.76	1089.24
328.12	1188.67
328.49	1181.89
328.86	1098.28
329.23	1154.77
329.59	1157.03
329.96	1075.68
330.33	1138.95
330.70	1188.67
331.06	1190.93
331.43	1186.41
331.80	1177.37
332.17	1132.17
332.53	1294.88
332.90	1175.11
333.27	1206.75
333.63	1184.15
334.00	1172.85
334.37	1220.31
334.74	1170.59
335.10	1143.47
335.47	1159.29
335.84	1245.16
336.20	1224.83
336.57	1127.65
336.94	1136.69
337.30	1161.55
337.67	1150.25
338.04	1157.03
338.40	1186.41
338.77	1199.97
339.14	1125.39
339.50	1134.43
339.87	1199.97
340.24	1190.93
340.60	1166.07
340.97	1236.13
341.34	1206.75
341.70	1190.93
342.07	1211.27
342.44	1163.81
342.80	1186.41
343.17	1227.09
343.53	1236.13
343.90	1231.61
344.27	1188.67
344.63	1168.33
345.00	1202.23
345.37	1134.43
345.73	1245.16
346.10	1206.75
346.46	1227.09
346.83	1184.15
347.20	1150.25
347.56	1188.67
347.93	1220.31
348.29	1190.93
348.66	1170.59
349.03	1240.65
349.39	1224.83
349.76	1170.59
350.12	1199.97
350.49	1215.79
350.85	1251.94
351.22	1193.19
351.59	1310.70
351.95	1267.76
352.32	1186.41
352.68	1251.94
353.05	1294.88
353.41	1281.32
353.78	1204.49
354.14	1306.18
354.51	1206.75
354.88	1285.84
355.24	1342.34
355.61	1267.76
355.97	1188.67
356.34	1222.57
356.70	1281.32
357.07	1276.80
357.43	1215.79
357.80	1229.35
358.16	1288.10
358.53	1306.18
358.89	1260.98
359.26	1344.60
359.62	1206.75
359.99	1276.80
360.35	1355.90
360.72	1270.02
361.08	1301.66
361.45	1265.50
361.81	1335.56
362.18	1303.92
362.54	1373.98
362.91	1322.00
363.27	1349.12
363.63	1299.40
364.00	1362.68
364.36	1373.98
364.73	1373.98
365.09	1389.79
365.46	1344.60
365.82	1387.53
366.19	1360.42
366.55	1396.57
366.91	1340.08
367.28	1394.31
367.64	1387.53
368.01	1331.04
368.37	1425.95
368.74	1396.57
369.10	1432.73
369.46	1457.59
369.83	1430.47
370.19	1425.95
370.56	1423.69
370.92	1482.45
371.28	1437.25
371.65	1491.49
372.01	1493.75
372.38	1493.75
372.74	1538.94
373.10	1536.68
373.47	1541.20
373.83	1493.75
374.19	1577.36
374.56	1624.82
374.92	1586.40
375.29	1640.63
375.65	1636.12
376.01	1654.19
376.38	1740.07
376.74	1715.21
377.10	1735.55
377.47	1735.55
377.83	1830.46
378.19	1830.46
378.56	1975.09
378.92	1950.23
379.28	2074.52
379.65	2018.03
380.01	2167.17
380.37	2171.69
380.74	2194.29
381.10	2377.34
381.46	2558.12
381.83	2761.51
382.19	2673.38
382.55	2869.98
382.91	3039.47
383.28	3179.58
383.64	3443.98
384.00	3579.57
384.37	3859.79
384.73	4214.58
385.09	4370.51
385.45	4797.61
385.82	5109.47
386.18	5423.59
386.54	6146.73
386.91	6347.86
387.27	7116.20
387.63	7724.09
387.99	8234.81
388.36	8953.44
388.72	9848.33
389.08	10661.87
389.44	11378.23
389.80	12449.39
390.17	13398.52
390.53	14740.86
390.89	16279.80
391.25	17369.03
391.62	18835.66
391.98	20697.76
392.34	23118.04
392.70	23825.36
393.06	26326.99
393.43	28058.02
393.79	30024.07
394.15	32087.29
394.51	33987.81
394.87	35881.54
395.24	38893.89
395.60	41675.74
395.96	44977.35
396.32	47759.20
396.68	50755.73
397.04	53533.06
397.41	56543.15
397.77	58136.32
398.13	60278.64
398.49	61718.15
398.85	63331.67
399.21	65535.00
399.58	65535.00
399.94	65535.00
400.30	65535.00
400.66	65535.00
401.02	65535.00
401.38	65535.00
401.74	65535.00
402.11	65535.00
402.47	65535.00
402.83	65535.00
403.19	65535.00
403.55	65535.00
403.91	65535.00
404.27	65535.00
404.63	65535.00
404.99	65535.00
405.35	65535.00
405.72	65535.00
406.08	65535.00
406.44	65535.00
406.80	65535.00
407.16	65535.00
407.52	65535.00
407.88	65535.00
408.24	65535.00
408.60	65535.00
408.96	65535.00
409.32	65535.00
409.68	65535.00
410.04	65535.00
410.40	65535.00
410.76	65535.00
411.13	65535.00
411.49	65535.00
411.85	65535.00
412.21	65535.00
412.57	65535.00
412.93	65535.00
413.29	65535.00
413.65	65535.00
414.01	65535.00
414.37	65535.00
414.73	65535.00
415.09	65535.00
415.45	65535.00
415.81	65535.00
416.17	65535.00
416.53	65535.00
416.89	64662.71
417.25	63507.93
417.61	61989.33
417.97	61383.70
418.33	59984.86
418.69	59230.08
419.05	57819.95
419.41	57047.09
419.77	56445.97
420.12	54590.66
420.48	52450.60
420.84	51585.08
421.20	48979.50
421.56	46830.41
421.92	46624.76
422.28	43562.70
422.64	42001.16
423.00	39906.30
423.36	38385.43
423.72	35770.81
424.08	33675.95
424.44	32306.50
424.80	31054.55
425.16	29551.77
425.51	28055.76
425.87	27197.02
426.23	24984.65
426.59	23228.77
426.95	23052.50
427.31	21737.28
427.67	21518.08
428.03	19775.75
428.39	19228.87
428.74	17689.93
429.10	16648.15
429.46	16119.35
429.82	14984.92
430.18	14476.46
430.54	13861.78
430.90	13678.74
431.26	13107.00
431.61	12117.20
431.97	11850.54
432.33	11195.19
432.69	11163.55
433.05	10637.01
433.41	9911.60
433.76	9771.49
434.12	9495.80
434.48	8967.00
434.84	8675.48
435.20	8252.89
435.55	8228.03
435.91	7728.61
436.27	7414.49
436.63	7278.90
436.99	6964.79
437.34	6578.36
437.70	6537.68
438.06	6420.17
438.42	5961.43
438.78	5880.07
439.13	5554.66
439.49	5416.81
439.85	5195.34
440.21	4982.92
440.56	4856.37
440.92	4797.61
441.28	4521.92
441.64	4329.83
441.99	4212.32
442.35	4144.52
442.71	3956.96
443.07	3782.95
443.42	3529.85
443.78	3602.17
444.14	3613.46
444.50	3504.99
444.85	3523.07
445.21	3274.49
445.57	3229.29
445.93	3071.11
446.28	3062.07
446.64	3021.39
447.00	2915.18
447.35	2969.41
447.71	2978.45
448.07	2865.46
448.42	2806.71
448.78	2700.49
449.14	2664.34
449.49	2442.87
449.85	2553.61
450.21	2456.43
450.56	2305.02
450.92	2266.61
451.28	2323.10
451.63	2307.28
451.99	2323.10
452.35	2234.97
452.70	2237.23
453.06	2164.91
453.42	2079.04
453.77	1975.09
454.13	1979.61
454.49	1943.45
454.84	1947.97
455.20	1857.58
455.55	1866.62
455.91	1943.45
456.27	1862.10
456.62	1828.20
456.98	1832.72
457.33	1658.71
457.69	1645.15
458.05	1609.00
458.40	1683.57
458.76	1631.60
459.11	1703.91
459.47	1672.27
459.83	1629.34
460.18	1579.62
460.54	1559.28
460.89	1599.96
461.25	1509.56
461.60	1566.06
461.96	1529.90
462.31	1484.71
462.67	1550.24
463.03	1482.45
463.38	1559.28
463.74	1491.49
464.09	1448.55
464.45	1477.93
464.80	1498.27
465.16	1453.07
465.51	1489.23
465.87	1441.77
466.22	1407.87
466.58	1459.85
466.93	1364.94
467.29	1396.57
467.64	1383.01
468.00	1437.25
468.35	1392.05
468.71	1355.90
469.06	1385.27
469.42	1410.13
469.77	1342.34
470.13	1283.58
470.48	1319.74
470.84	1373.98
471.19	1290.36
471.54	1315.22
471.90	1317.48
472.25	1310.70
472.61	1292.62
472.96	1369.46
473.32	1344.60
473.67	1281.32
474.03	1351.38
474.38	1265.50
474.73	1251.94
475.09	1281.32
475.44	1251.94
475.80	1265.50
476.15	1333.30
476.50	1240.65
476.86	1272.28
477.21	1294.88
477.57	1285.84
477.92	1276.80
478.27	1279.06
478.63	1328.78
478.98	1279.06
479.34	1231.61
479.69	1290.36
480.04	1274.54
480.40	1270.02
480.75	1315.22
481.10	1188.67
481.46	1256.46
481.81	1220.31
482.16	1326.52
482.52	1220.31
482.87	1260.98
483.22	1294.88
483.58	1233.87
483.93	1272.28
484.28	1247.42
484.64	1258.72
484.99	1283.58
485.34	1315.22
485.70	1319.74
486.05	1231.61
486.40	1288.10
486.76	1270.02
487.11	1279.06
487.46	1322.00
487.81	1270.02
488.17	1279.06
488.52	1364.94
488.87	1371.72
489.23	1308.44
489.58	1360.42
489.93	1315.22
490.28	1294.88
490.64	1312.96
490.99	1387.53
491.34	1290.36
491.69	1340.08
492.05	1342.34
492.40	1319.74
492.75	1383.01
493.10	1362.68
493.46	1428.21
493.81	1360.42
494.16	1407.87
494.51	1523.12
494.86	1446.29
495.22	1448.55
495.57	1432.73
495.92	1477.93
496.27	1527.64
496.62	1554.76
496.98	1541.20
497.33	1570.58
497.68	1593.18
498.03	1618.04
498.38	1602.22
498.74	1674.53
499.09	1642.89
499.44	1769.44
499.79	1767.19
500.14	1692.61
500.49	1780.74
500.85	1780.74
501.20	1873.40
501.55	1846.28
501.90	1825.94
502.25	1909.55
502.60	1945.71
502.95	2051.92
503.30	1999.95
503.66	2067.74
504.01	2164.91
504.36	2182.99
504.71	2323.10
505.06	2225.93
505.41	2363.78
505.76	2291.47
506.11	2359.26
506.46	2472.25
506.82	2533.27
507.17	2736.65
507.52	2743.43
507.87	2836.08
508.22	2928.74
508.57	2865.46
508.92	3037.21
509.27	3132.12
509.62	3222.51
509.97	3258.67
510.32	3441.72
510.67	3498.21
511.02	3455.28
511.37	3504.99
511.72	3672.22
512.07	3694.82
512.42	3877.86
512.77	3941.14
513.12	4121.93
513.47	4234.92
513.82	4408.92
514.17	4314.01
514.52	4384.07
514.87	4686.88
515.22	4745.64
515.57	4820.21
515.92	4955.80
516.27	5199.86
516.62	5423.59
516.97	5373.87
517.32	5676.69
517.67	5678.95
518.02	5733.18
518.37	5979.50
518.72	6293.62
519.07	6210.01
519.42	6205.49
519.77	6379.49
520.12	6831.46
520.47	6878.92
520.82	6930.89
521.17	7068.74
521.52	6994.17
521.87	7319.58
522.22	7577.20
522.56	7577.20
522.91	7685.67
523.26	7875.50
523.61	8096.96
523.96	8282.27
524.31	8331.98
524.66	8652.88
525.01	8560.23
525.36	8707.12
525.71	8987.33
526.05	9052.87
526.40	9204.28
526.75	9357.95
527.10	9520.65
527.45	9572.63
527.80	9807.65
528.15	9672.06
528.49	9986.18
528.84	10063.01
529.19	10298.03
529.54	10248.32
529.89	10650.57
530.24	10354.53
530.58	10691.24
530.93	10885.59
531.28	10716.10
531.63	10829.09
531.98	10919.49
532.33	10948.86
532.67	11127.39
533.02	11222.30
533.37	11267.50
533.72	11427.95
534.07	11172.59
534.41	11540.94
534.76	11518.34
535.11	11665.23
535.46	11719.47
535.80	11703.65
536.15	11956.75
536.50	11918.33
536.85	11789.52
537.19	11983.87
537.54	12069.74
537.89	12128.49
538.24	12189.51
538.58	12069.74
538.93	11952.23
539.28	11956.75
539.63	12135.27
539.97	12377.08
540.32	12058.44
540.67	12135.27
541.01	12148.83
541.36	12040.36
541.71	12148.83
542.06	12033.58
542.40	12069.74
542.75	12040.36
543.10	12173.69
543.44	12148.83
543.79	11916.07
544.14	11961.27
544.48	11999.68
544.83	12058.44
545.18	12029.06
545.52	11997.42
545.87	11769.18
546.22	11968.05
546.56	11631.33
546.91	11909.29
547.25	11782.74
547.60	11821.16
547.95	11653.93
548.29	11703.65
548.64	11753.36
548.99	11588.40
549.33	11672.01
549.68	11622.29
550.02	11491.22
550.37	11328.52
550.72	11495.74
551.06	11414.39
551.41	11159.03
551.75	11317.22
552.10	11127.39
552.45	11217.78
552.79	11145.47
553.14	11258.46
553.48	11260.72
553.83	11156.77
554.17	10960.16
554.52	11088.97
554.87	10881.07
555.21	10786.16
555.56	10951.12
555.90	10750.00
556.25	10765.82
556.59	10729.66
556.94	10677.69
557.28	10517.24
557.63	10562.43
557.97	10438.14
558.32	10438.14
558.66	10435.88
559.01	10302.55
559.35	10535.32
559.70	10343.23
560.04	10273.18
560.39	10343.23
560.73	10182.78
561.08	10209.90
561.42	10051.71
561.77	10169.22
562.11	10171.48
562.46	10119.51
562.80	9954.54
563.14	9986.18
563.49	10040.41
563.83	9988.44
564.18	9907.08
564.52	9785.05
564.87	9724.04
565.21	9708.22
565.56	9540.99
565.90	9746.64
566.24	9511.61
566.59	9520.65
566.93	9437.04
567.28	9416.70
567.62	9493.54
567.96	9303.71
568.31	9502.58
568.65	9448.34
569.00	9335.35
569.34	9172.64
569.68	9315.01
570.03	8980.55
570.37	9050.61
570.71	9122.92
571.06	8996.37
571.40	8856.26
571.74	8722.93
572.09	8804.29
572.43	8824.63
572.78	8684.52
573.12	8548.93
573.46	8700.34
573.80	8661.92
574.15	8503.73
574.49	8476.61
574.83	8567.01
575.18	8492.43
575.52	8555.71
575.86	8336.50
576.21	8388.48
576.55	8343.28
576.89	8237.07
577.24	7974.93
577.58	8094.70
577.92	8094.70
578.26	8169.28
578.61	8101.48
578.95	7945.55
579.29	8015.61
579.63	7931.99
579.98	8020.13
580.32	7803.18
580.66	7762.51
581.00	7751.21
581.35	7724.09
581.69	7613.36
582.03	7423.53
582.37	7656.30
582.72	7443.87
583.06	7337.66
583.40	7470.99
583.74	7459.69
584.08	7238.23
584.43	7202.07
584.77	7156.87
585.11	7183.99
585.45	7037.10
585.79	7202.07
586.13	7075.52
586.48	7041.62
586.82	7046.14
587.16	6962.53
587.50	6826.94
587.84	6847.28
588.18	6722.99
588.53	6725.25
588.87	6847.28
589.21	6826.94
589.55	6562.54
589.89	6628.07
590.23	6517.34
590.57	6381.75
590.92	6350.12
591.26	6413.39
591.60	6558.02
591.94	6370.45
592.28	6402.09
592.62	6307.18
592.96	6225.82
593.30	6083.46
593.64	6223.57
593.98	6151.25
594.32	6020.18
594.67	6130.91
595.01	5956.91
595.35	5812.28
595.69	5819.06
596.03	5846.17
596.37	5703.80
596.71	5667.65
597.05	5873.29
597.39	5717.36
597.73	5821.32
598.07	5665.39
598.41	5563.70
598.75	5500.42
599.09	5400.99
599.43	5457.48
599.77	5387.43
600.11	5371.61
600.45	5303.82
600.79	5400.99
601.13	5272.18
601.47	5154.67
601.81	5077.83
602.15	5251.84
602.49	5107.21
602.83	5098.17
603.17	5041.68
603.51	5091.39
603.85	5003.26
604.19	4806.65
604.53	4906.09
604.87	4829.25
605.21	4765.98
605.55	4781.80
605.89	4729.82
606.23	4704.96
606.56	4682.36
606.90	4571.63
607.24	4587.45
607.58	4451.86
607.92	4623.61
608.26	4530.95
608.60	4503.84
608.94	4427.00
609.28	4424.74
609.62	4365.99
609.95	4169.38
610.29	4243.96
610.63	4275.59
610.97	4228.14
611.31	4169.38
611.65	4219.10
611.99	4112.89
612.33	4094.81
612.66	4153.56
613.00	4054.13
613.34	4013.45
613.68	4011.19
614.02	3979.56
614.36	3925.32
614.69	3938.88
615.03	3893.68
615.37	3891.42
615.71	3828.15
616.05	3785.21
616.38	3681.26
616.72	3717.42
617.06	3819.11
617.40	3837.19
617.74	3742.27
618.07	3654.14
618.41	3636.06
618.75	3627.02
619.09	3631.54
619.42	3679.00
619.76	3636.06
620.10	3667.70
620.44	3615.72
620.77	3464.32
621.11	3401.04
621.45	3403.30
621.79	3439.46
622.12	3360.36
622.46	3342.28
622.80	3387.48
623.13	3265.45
623.47	3312.91
623.81	3229.29
624.15	3285.79
624.48	3251.89
624.82	3177.32
625.16	3242.85
625.49	3285.79
625.83	3330.99
626.17	3193.14
626.50	3116.30
626.84	3100.48
627.18	3161.50
627.51	3055.29
627.85	3118.56
628.19	3089.18
628.52	3073.37
628.86	3073.37
629.20	2992.01
629.53	2976.19
629.87	2867.72
630.20	3005.57
630.54	2784.11
630.88	2973.93
631.21	2944.56
631.55	2860.94
631.89	2836.08
632.22	2897.10
632.56	2738.91
632.89	2942.30
633.23	2743.43
633.56	2725.35
633.90	2702.75
634.24	2684.68
634.57	2707.27
634.91	2700.49
635.24	2716.31
635.58	2695.97
635.91	2689.19
636.25	2576.20
636.58	2598.80
636.92	2524.23
637.26	2601.06
637.59	2573.94
637.93	2510.67
638.26	2512.93
638.60	2641.74
638.93	2467.73
639.27	2542.31
639.60	2508.41
639.94	2460.95
640.27	2404.46
640.61	2420.28
640.94	2526.49
641.28	2436.09
641.61	2549.09
641.94	2320.84
642.28	2429.31
642.61	2420.28
642.95	2363.78
643.28	2395.42
643.62	2268.87
643.95	2343.44
644.29	2305.02
644.62	2250.79
644.95	2323.10
645.29	2149.10
645.62	2244.01
645.96	2273.39
646.29	2305.02
646.63	2223.67
646.96	2162.66
647.29	2268.87
647.63	2106.16
647.96	2060.96
648.29	2221.41
648.63	2126.50
648.96	2133.28
649.30	2201.07
649.63	2144.58
649.96	2094.86
650.30	2058.70
650.63	2101.64
650.96	2099.38
651.30	2099.38
651.63	1981.87
651.96	2060.96
652.30	1997.69
652.63	2027.07
652.96	2024.81
653.30	2106.16
653.63	2022.55
653.96	1963.79
654.30	1968.31
654.63	2036.10
654.96	2004.47
655.29	1896.00
655.63	1934.41
655.96	1952.49
656.29	1868.88
656.63	1902.77
656.96	1873.40
657.29	1841.76
657.62	1950.23
657.96	1830.46
658.29	1812.38
658.62	1975.09
658.95	1914.07
659.29	1780.74
659.62	1837.24
659.95	1823.68
660.28	1735.55
660.61	1812.38
660.95	1771.70
661.28	1855.32
661.61	1769.44
661.94	1773.96
662.27	1832.72
662.61	1708.43
662.94	1787.52
663.27	1769.44
663.60	1679.05
663.93	1660.97
664.27	1731.03
664.60	1685.83
664.93	1654.19
665.26	1760.41
665.59	1670.01
665.92	1676.79
666.25	1615.78
666.59	1728.77
666.92	1712.95
667.25	1624.82
667.58	1636.12
667.91	1640.63
668.24	1590.92
668.57	1611.26
668.90	1597.70
669.23	1604.48
669.57	1595.44
669.90	1609.00
670.23	1604.48
670.56	1507.30
670.89	1496.01
671.22	1514.08
671.55	1538.94
671.88	1534.42
672.21	1552.50
672.54	1507.30
672.87	1584.14
673.20	1584.14
673.53	1514.08
673.86	1516.34
674.19	1577.36
674.52	1529.90
674.85	1552.50
675.18	1568.32
675.51	1536.68
675.84	1536.68
676.17	1507.30
676.50	1520.86
676.83	1403.35
677.16	1502.79
677.49	1538.94
677.82	1489.23
678.15	1496.01
678.48	1412.39
678.81	1441.77
679.14	1414.65
679.47	1464.37
679.80	1466.63
680.13	1405.61
680.46	1416.91
680.79	1448.55
681.12	1394.31
681.45	1437.25
681.78	1346.86
682.11	1312.96
682.44	1389.79
682.77	1410.13
683.09	1383.01
683.42	1383.01
683.75	1351.38
684.08	1335.56
684.41	1405.61
684.74	1315.22
685.07	1340.08
685.40	1380.75
685.72	1326.52
686.05	1319.74
686.38	1312.96
686.71	1387.53
687.04	1319.74
687.37	1342.34
687.70	1328.78
688.02	1319.74
688.35	1299.40
688.68	1346.86
689.01	1317.48
689.34	1294.88
689.67	1312.96
689.99	1265.50
690.32	1331.04
690.65	1360.42
690.98	1297.14
691.30	1301.66
691.63	1213.53
691.96	1251.94
692.29	1242.91
692.62	1340.08
692.94	1288.10
693.27	1306.18
693.60	1274.54
693.93	1249.68
694.25	1328.78
694.58	1331.04
694.91	1240.65
695.24	1270.02
695.56	1263.24
695.89	1222.57
696.22	1288.10
696.54	1315.22
696.87	1236.13
697.20	1265.50
697.53	1265.50
697.85	1256.46
698.18	1251.94
698.51	1209.01
698.83	1220.31
699.16	1222.57
699.49	1251.94
699.81	1211.27
700.14	1260.98
700.47	1213.53
700.79	1288.10
701.12	1202.23
701.45	1154.77
701.77	1247.42
702.10	1136.69
702.42	1240.65
702.75	1218.05
703.08	1206.75
703.40	1254.20
703.73	1195.45
704.05	1123.13
704.38	1256.46
704.71	1215.79
705.03	1170.59
705.36	1195.45
705.68	1222.57
706.01	1184.15
706.34	1157.03
706.66	1166.07
706.99	1150.25
707.31	1179.63
707.64	1111.84
707.96	1263.24
708.29	1100.54
708.61	1206.75
708.94	1150.25
709.26	1168.33
709.59	1190.93
709.92	1163.81
710.24	1190.93
710.57	1238.39
710.89	1168.33
711.22	1152.51
711.54	1145.73
711.87	1145.73
712.19	1179.63
712.51	1141.21
712.84	1229.35
713.16	1147.99
713.49	1206.75
713.81	1186.41
714.14	1170.59
714.46	1168.33
714.79	1238.39
715.11	1218.05
715.44	1120.87
715.76	1172.85
716.08	1177.37
716.41	1213.53
716.73	1129.91
717.06	1129.91
717.38	1123.13
717.70	1157.03
718.03	1118.61
718.35	1154.77
718.68	1120.87
719.00	1175.11
719.32	1102.80
719.65	1175.11
719.97	1138.95
720.29	1161.55
720.62	1179.63
720.94	1107.32
721.27	1109.58
721.59	1129.91
721.91	1111.84
722.24	1086.98
722.56	1075.68
722.88	1089.24
723.21	1161.55
723.53	1102.80
723.85	1118.61
724.17	1218.05
724.50	1172.85
724.82	1118.61
725.14	1084.72
725.47	1157.03
725.79	1170.59
726.11	1109.58
726.43	1132.17
726.76	1213.53
727.08	1053.08
727.40	1120.87
727.72	1109.58
728.05	1098.28
728.37	1032.74
728.69	1157.03
729.01	1132.17
729.34	1064.38
729.66	1188.67
729.98	1141.21
730.30	1050.82
730.62	1089.24
730.95	1111.84
731.27	1136.69
731.59	1073.42
731.91	1064.38
732.23	1154.77
732.56	1048.56
732.88	1077.94
733.20	1066.64
733.52	1116.35
733.84	1096.02
734.16	1120.87
734.49	1044.04
734.81	1082.46
735.13	1073.42
735.45	1059.86
735.77	1109.58
736.09	1057.60
736.41	1109.58
736.73	1089.24
737.06	1107.32
737.38	1127.65
737.70	1136.69
738.02	1073.42
738.34	1132.17
738.66	1111.84
738.98	1025.96
739.30	1071.16
739.62	1086.98
739.94	1098.28
740.26	1048.56
740.58	1075.68
740.90	1111.84
741.23	1105.06
741.55	1105.06
741.87	1084.72
742.19	1014.66
742.51	1084.72
742.83	1084.72
743.15	1136.69
743.47	1082.46
743.79	1096.02
744.11	1073.42
744.43	1073.42
744.75	1053.08
745.07	1116.35
745.39	1046.30
745.71	1129.91
746.03	1071.16
746.35	1118.61
746.67	1041.78
746.98	1068.90
747.30	1123.13
747.62	1082.46
747.94	1055.34
748.26	1050.82
748.58	1089.24
748.90	1075.68
749.22	1032.74
749.54	1084.72
749.86	1118.61
750.18	1123.13
750.50	1098.28
750.82	1071.16
751.13	1039.52
751.45	1091.50
751.77	1048.56
752.09	1048.56
752.41	1030.48
752.73	1062.12
753.05	1039.52
753.36	1037.26
753.68	1123.13
754.00	1025.96
754.32	1125.39
754.64	1010.14
754.96	1086.98
755.28	1127.65
755.59	1138.95
755.91	1053.08
756.23	1089.24
756.55	1030.48
756.87	1012.40
757.18	1109.58
757.50	1073.42
757.82	1118.61
758.14	1077.94
758.45	1089.24
758.77	980.77
759.09	1046.30
759.41	1077.94
759.73	1100.54
760.04	1098.28
760.36	1096.02
760.68	1025.96
760.99	1071.16
761.31	1057.60
761.63	1075.68
761.95	1028.22
762.26	1091.50
762.58	1055.34
762.90	1066.64
763.21	1053.08
763.53	1044.04
763.85	1044.04
764.17	1037.26
764.48	1023.70
764.80	1021.44
765.12	1035.00
765.43	1102.80
765.75	1012.40
766.07	1046.30
766.38	1023.70
766.70	1089.24
767.01	996.58
767.33	1019.18
767.65	1037.26
767.96	1071.16
768.28	1014.66
768.60	967.21
768.91	1073.42
769.23	1075.68
769.54	1053.08
769.86	1091.50
770.18	1068.90
770.49	1030.48
770.81	1005.62
771.12	985.28
771.44	1050.82
771.75	996.58
772.07	1039.52
772.38	1025.96
772.70	1055.34
773.02	1025.96
773.33	1086.98
773.65	987.54
773.96	1039.52
774.28	1044.04
774.59	1055.34
774.91	1021.44
775.22	1055.34
775.54	1039.52
775.85	998.84
776.17	1098.28
776.48	1025.96
776.80	1028.22
777.11	1046.30
777.43	1089.24
777.74	1050.82
778.05	955.91
778.37	1064.38
778.68	987.54
779.00	1046.30
779.31	1041.78
779.63	1068.90
779.94	1111.84
780.26	1062.12
780.57	989.80
780.88	1039.52
781.20	973.99
781.51	1075.68
781.83	1064.38
782.14	1016.92
782.45	1057.60
782.77	1107.32
783.08	1023.70
783.39	1046.30
783.71	987.54
784.02	983.02
784.34	1071.16
784.65	1102.80
784.96	1005.62
785.28	1037.26
785.59	1001.10
785.90	1023.70
786.22	1032.74
786.53	1086.98
786.84	1012.40
787.15	1019.18
787.47	967.21
787.78	1046.30
788.09	1021.44
788.41	1041.78
788.72	1048.56
789.03	1100.54
789.35	1066.64
789.66	1032.74
789.97	1064.38
790.28	1007.88
790.60	1055.34
790.91	1048.56
791.22	1014.66
791.53	1059.86
791.84	1016.92
792.16	1030.48
792.47	1005.62
792.78	1014.66
793.09	1039.52
793.41	1041.78
793.72	1025.96
794.03	1048.56
794.34	1105.06
794.65	1057.60
794.96	1096.02
795.28	1014.66
795.59	1107.32
795.90	1041.78
796.21	1028.22
796.52	1007.88
796.83	1080.20
797.15	1046.30
797.46	1077.94
797.77	1123.13
798.08	1089.24
798.39	1019.18
798.70	1039.52
799.01	996.58
799.32	1068.90
799.63	1005.62
799.95	1039.52
800.26	1035.00
800.57	1019.18
800.88	1021.44
801.19	1044.04
801.50	1059.86
801.81	1098.28
802.12	1062.12
802.43	933.31
802.74	985.28
803.05	1044.04
803.36	1005.62
803.67	1082.46
803.98	1041.78
804.29	976.25
804.60	1068.90
804.91	1007.88
805.22	1030.48
805.53	1066.64
805.84	1012.40
806.15	958.17
806.46	1023.70
806.77	1019.18
807.08	1053.08
807.39	1044.04
807.70	1041.78
808.01	1055.34
808.32	1030.48
808.63	1071.16
808.94	976.25
809.25	1010.14
809.56	989.80
809.87	1048.56
810.18	1098.28
810.49	1055.34
810.79	1003.36
811.10	1005.62
811.41	1035.00
811.72	1039.52
812.03	1046.30
812.34	985.28
812.65	987.54
812.96	1075.68
813.27	1044.04
813.57	1030.48
813.88	1050.82
814.19	1028.22
814.50	1132.17
814.81	962.69
815.12	1096.02
815.42	1091.50
815.73	1062.12
816.04	1032.74
816.35	976.25
816.66	1028.22
816.97	1041.78
817.27	1080.20
817.58	1007.88
817.89	1062.12
818.20	1050.82
818.50	1012.40
818.81	1077.94
819.12	1016.92
819.43	960.43
819.73	1005.62
820.04	1046.30
820.35	1046.30
820.66	996.58
820.96	1050.82
821.27	1005.62
821.58	1001.10
821.89	1098.28
822.19	1053.08
822.50	998.84
822.81	973.99
823.11	998.84
823.42	971.73
823.73	996.58
824.03	1062.12
824.34	1111.84
824.65	1021.44
824.95	1050.82
825.26	1068.90
825.57	964.95
825.87	1039.52
826.18	1080.20
826.49	1062.12
826.79	1066.64
827.10	1014.66
827.40	994.32
827.71	1028.22
828.02	973.99
828.32	1012.40
828.63	1053.08
828.93	1012.40
829.24	1048.56
829.55	962.69
829.85	1057.60
830.16	971.73
830.46	994.32
830.77	1080.20
831.07	1039.52
831.38	1007.88
831.69	969.47
831.99	1019.18
832.30	1057.60
832.60	976.25
832.91	1068.90
833.21	1014.66
833.52	1005.62
833.82	980.77
834.13	1046.30
834.43	1041.78
834.74	924.27
835.04	1041.78
835.35	1039.52
835.65	1044.04
835.96	976.25
836.26	1041.78
836.56	976.25
836.87	1007.88
837.17	1050.82
837.48	1048.56
837.78	1001.10
838.09	1014.66
838.39	1012.40
838.69	1082.46
839.00	980.77
839.30	1010.14
839.61	992.06
839.91	1014.66
840.21	1025.96
840.52	1028.22
840.82	1023.70
841.13	1035.00
841.43	1023.70
841.73	1019.18
842.04	1071.16
842.34	1005.62
842.64	1041.78
842.95	1012.40
843.25	985.28
843.55	1041.78
843.86	1080.20
844.16	1021.44
844.46	989.80
844.77	1012.40
845.07	1030.48
845.37	1028.22
845.68	1055.34
845.98	1016.92
846.28	994.32
846.58	926.53
846.89	1030.48
847.19	1021.44
847.49	973.99
847.79	953.65
848.10	1030.48
848.40	1021.44
848.70	1016.92
849.00	1046.30
849.31	1111.84
849.61	998.84
849.91	1005.62
850.21	1044.04
850.51	1041.78
850.82	1041.78
851.12	1025.96
851.42	1003.36
851.72	1016.92
852.02	1010.14
852.32	1001.10
852.63	1089.24
852.93	1001.10
853.23	1050.82
853.53	1055.34
853.83	1039.52
854.13	1028.22
854.43	978.51
854.74	1012.40
855.04	989.80
855.34	1053.08
855.64	1041.78
855.94	1003.36
856.24	1062.12
856.54	1003.36
856.84	1035.00
857.14	1035.00
857.44	1037.26
857.74	987.54
858.05	1048.56
858.35	1019.18
858.65	967.21
858.95	1048.56
859.25	1012.40
859.55	1086.98
859.85	1071.16
860.15	1010.14
860.45	1066.64
860.75	1010.14
861.05	1037.26
861.35	998.84
861.65	1041.78
861.95	994.32
862.25	994.32
862.55	1064.38
862.85	1007.88
863.15	992.06
863.45	1041.78
863.75	1010.14
864.05	1010.14
864.35	1007.88
864.64	1021.44
864.94	1016.92
865.24	987.54
865.54	1012.40
865.84	992.06
866.14	1014.66
866.44	1001.10
866.74	1048.56
867.04	1016.92
867.34	1019.18
867.64	1068.90
867.93	994.32
868.23	1046.30
868.53	1046.30
868.83	971.73
869.13	964.95
869.43	1019.18
869.73	967.21
870.02	1105.06
870.32	1007.88
870.62	1084.72
870.92	1021.44
871.22	1035.00
871.51	1023.70
871.81	1030.48
872.11	1021.44
872.41	1071.16
872.71	1023.70
873.00	1016.92
873.30	1062.12
873.60	1093.76
873.90	955.91
874.19	1118.61
874.49	1057.60
874.79	1023.70
875.09	1055.34
875.38	1025.96
875.68	983.02
875.98	1062.12
876.28	1001.10
876.57	1059.86
876.87	1059.86
877.17	1059.86
