174.03	632.75
174.41	632.75
174.78	632.75
175.16	601.11
175.54	585.30
175.92	668.91
176.30	707.33
176.67	655.35
177.05	644.05
177.43	648.57
177.81	650.83
178.19	702.81
178.56	675.69
178.94	757.04
179.32	711.85
179.70	757.04
180.08	781.90
180.45	777.38
180.83	809.02
181.21	822.58
181.59	867.77
181.96	879.07
182.34	976.25
182.72	953.65
183.10	969.47
183.48	967.21
183.85	964.95
184.23	1016.92
184.61	960.43
184.99	1010.14
185.36	1032.74
185.74	964.95
186.12	978.51
186.50	1035.00
186.87	989.80
187.25	1039.52
187.63	1041.78
188.01	1089.24
188.38	1066.64
188.76	1071.16
189.14	1019.18
189.52	1005.62
189.89	1046.30
190.27	1068.90
190.65	1016.92
191.02	1041.78
191.40	1001.10
191.78	1064.38
192.16	1035.00
192.53	1055.34
192.91	1057.60
193.29	1021.44
193.66	1032.74
194.04	994.32
194.42	1075.68
194.79	996.58
195.17	978.51
195.55	1057.60
195.93	1048.56
196.30	1055.34
196.68	992.06
197.06	1057.60
197.43	994.32
197.81	1055.34
198.19	1005.62
198.56	1037.26
198.94	1028.22
199.32	996.58
199.69	1071.16
200.07	1053.08
200.45	989.80
200.82	1041.78
201.20	1044.04
201.58	1041.78
201.95	998.84
202.33	1037.26
202.71	989.80
203.08	1023.70
203.46	998.84
203.84	996.58
204.21	1012.40
204.59	1071.16
204.96	1048.56
205.34	980.77
205.72	992.06
206.09	1021.44
206.47	1118.61
206.85	1016.92
207.22	985.28
207.60	1077.94
207.97	980.77
208.35	1046.30
208.73	1075.68
209.10	1100.54
209.48	1014.66
209.85	1046.30
210.23	1039.52
210.61	989.80
210.98	1068.90
211.36	994.32
211.73	1014.66
212.11	1005.62
212.49	1055.34
212.86	1023.70
213.24	978.51
213.61	1044.04
213.99	1019.18
214.37	1019.18
214.74	1071.16
215.12	985.28
215.49	1019.18
215.87	1077.94
216.24	1059.86
216.62	1037.26
216.99	1012.40
217.37	1048.56
217.75	1039.52
218.12	994.32
218.50	1041.78
218.87	1107.32
219.25	976.25
219.62	1025.96
220.00	1035.00
220.37	1039.52
220.75	1084.72
221.12	1073.42
221.50	1073.42
221.87	1077.94
222.25	1075.68
222.63	1114.10
223.00	1030.48
223.38	1048.56
223.75	1075.68
224.13	1055.34
224.50	996.58
224.88	1028.22
225.25	1116.35
225.63	1032.74
226.00	1030.48
226.38	1044.04
226.75	1114.10
227.13	1046.30
227.50	1014.66
227.88	998.84
228.25	1016.92
228.63	1057.60
229.00	996.58
229.37	978.51
229.75	1014.66
230.12	976.25
230.50	1062.12
230.87	1030.48
231.25	1064.38
231.62	1014.66
232.00	1111.84
232.37	1005.62
232.75	1066.64
233.12	1075.68
233.50	1041.78
233.87	1068.90
234.24	1125.39
234.62	989.80
234.99	1030.48
235.37	1012.40
235.74	1077.94
236.12	1114.10
236.49	1066.64
236.86	1096.02
237.24	1068.90
237.61	1062.12
237.99	1066.64
238.36	1021.44
238.74	1044.04
239.11	1057.60
239.48	1025.96
239.86	1021.44
240.23	1010.14
240.61	1077.94
240.98	1089.24
241.35	1071.16
241.73	1075.68
242.10	1028.22
242.48	1012.40
242.85	1041.78
243.22	1064.38
243.60	1039.52
243.97	1041.78
244.34	1059.86
244.72	1080.20
245.09	1077.94
245.47	1025.96
245.84	980.77
246.21	1068.90
246.59	1046.30
246.96	1109.58
247.33	1084.72
247.71	1111.84
248.08	1035.00
248.45	1021.44
248.83	1109.58
249.20	1062.12
249.57	1016.92
249.95	1030.48
250.32	1068.90
250.69	1084.72
251.07	1057.60
251.44	1050.82
251.81	1127.65
252.19	1098.28
252.56	1039.52
252.93	1016.92
253.31	1016.92
253.68	1073.42
254.05	1075.68
254.43	1084.72
254.80	1057.60
255.17	1032.74
255.55	1127.65
255.92	1127.65
256.29	1066.64
256.66	1039.52
257.04	1075.68
257.41	1028.22
257.78	1114.10
258.16	1057.60
258.53	1048.56
258.90	1039.52
259.27	1062.12
259.65	1044.04
260.02	1055.34
260.39	1003.36
260.76	1044.04
261.14	1107.32
261.51	1109.58
261.88	1098.28
262.25	1010.14
262.63	1064.38
263.00	1129.91
263.37	1046.30
263.74	1007.88
264.12	1048.56
264.49	1066.64
264.86	1037.26
265.23	1071.16
265.61	1050.82
265.98	1014.66
266.35	1129.91
266.72	1064.38
267.09	1057.60
267.47	1014.66
267.84	1007.88
268.21	1059.86
268.58	1068.90
268.95	1048.56
269.33	1075.68
269.70	1077.94
270.07	1007.88
270.44	1059.86
270.81	1111.84
271.19	1064.38
271.56	1086.98
271.93	1053.08
272.30	1066.64
272.67	1059.86
273.05	1096.02
273.42	1086.98
273.79	1053.08
274.16	1177.37
274.53	1075.68
274.90	1057.60
275.28	1096.02
275.65	1023.70
276.02	1037.26
276.39	1073.42
276.76	1172.85
277.13	1039.52
277.50	1093.76
277.88	1041.78
278.25	1064.38
278.62	1125.39
278.99	1120.87
279.36	1084.72
279.73	1127.65
280.10	1062.12
280.47	1118.61
280.85	1114.10
281.22	1109.58
281.59	1023.70
281.96	1109.58
282.33	1057.60
282.70	996.58
283.07	1107.32
283.44	1102.80
283.81	1107.32
284.18	1107.32
284.56	1046.30
284.93	1100.54
285.30	1096.02
285.67	1077.94
286.04	1021.44
286.41	1111.84
286.78	1098.28
287.15	1098.28
287.52	1118.61
287.89	1136.69
288.26	1134.43
288.63	1093.76
289.00	1120.87
289.37	1102.80
289.75	1091.50
290.12	1091.50
290.49	1098.28
290.86	1096.02
291.23	1152.51
291.60	1071.16
291.97	1125.39
292.34	1098.28
292.71	1096.02
293.08	1048.56
293.45	1046.30
293.82	1059.86
294.19	1132.17
294.56	1091.50
294.93	1138.95
295.30	1057.60
295.67	1107.32
296.04	1073.42
296.41	1098.28
296.78	1123.13
297.15	1082.46
297.52	1044.04
297.89	1053.08
298.26	1145.73
298.63	1057.60
299.00	1098.28
299.37	1077.94
299.74	1141.21
300.11	1123.13
300.48	1073.42
300.85	1109.58
301.22	1145.73
301.59	1109.58
301.96	1096.02
302.33	1141.21
302.70	1111.84
303.07	1023.70
303.43	1091.50
303.80	1068.90
304.17	1093.76
304.54	1100.54
304.91	1086.98
305.28	1109.58
305.65	1102.80
306.02	1111.84
306.39	1035.00
306.76	1091.50
307.13	1016.92
307.50	1143.47
307.87	1041.78
308.24	1114.10
308.60	1080.20
308.97	1064.38
309.34	1102.80
309.71	1163.81
310.08	1107.32
310.45	1125.39
310.82	1129.91
311.19	1143.47
311.56	1132.17
311.92	1109.58
312.29	1163.81
312.66	1129.91
313.03	1111.84
313.40	1127.65
313.77	1136.69
314.14	1141.21
314.51	1111.84
314.87	1152.51
315.24	1188.67
315.61	1134.43
315.98	1091.50
316.35	1132.17
316.72	1089.24
317.09	1109.58
317.45	1170.59
317.82	1138.95
318.19	1190.93
318.56	1118.61
318.93	1093.76
319.30	1138.95
319.66	1111.84
320.03	1125.39
320.40	1111.84
320.77	1118.61
321.14	1102.80
321.50	1172.85
321.87	1129.91
322.24	1118.61
322.61	1096.02
322.98	1120.87
323.34	1109.58
323.71	1091.50
324.08	1093.76
324.45	1141.21
324.82	1134.43
325.18	1163.81
325.55	1098.28
325.92	1107.32
326.29	1073.42
326.65	1129.91
327.02	1157.03
327.39	1150.25
327.76	1120.87
328.12	1186.41
328.49	1227.09
328.86	1114.10
329.23	1114.10
329.59	1114.10
329.96	1190.93
330.33	1177.37
330.70	1159.29
331.06	1190.93
331.43	1218.05
331.80	1147.99
332.17	1161.55
332.53	1265.50
332.90	1068.90
333.27	1096.02
333.63	1188.67
334.00	1184.15
334.37	1120.87
334.74	1147.99
335.10	1120.87
335.47	1145.73
335.84	1098.28
336.20	1172.85
336.57	1132.17
336.94	1220.31
337.30	1127.65
337.67	1154.77
338.04	1116.35
338.40	1163.81
338.77	1211.27
339.14	1177.37
339.50	1172.85
339.87	1161.55
340.24	1168.33
340.60	1227.09
340.97	1222.57
341.34	1161.55
341.70	1145.73
342.07	1229.35
342.44	1172.85
342.80	1224.83
343.17	1224.83
343.53	1195.45
343.90	1211.27
344.27	1159.29
344.63	1242.91
345.00	1188.67
345.37	1166.07
345.73	1114.10
346.10	1209.01
346.46	1213.53
346.83	1279.06
347.20	1265.50
347.56	1179.63
347.93	1251.94
348.29	1213.53
348.66	1206.75
349.03	1179.63
349.39	1190.93
349.76	1222.57
350.12	1229.35
350.49	1229.35
350.85	1283.58
351.22	1233.87
351.59	1170.59
351.95	1229.35
352.32	1184.15
352.68	1220.31
353.05	1279.06
353.41	1204.49
353.78	1276.80
354.14	1254.20
354.51	1231.61
354.88	1276.80
355.24	1229.35
355.61	1231.61
355.97	1222.57
356.34	1256.46
356.70	1279.06
357.07	1260.98
357.43	1292.62
357.80	1220.31
358.16	1240.65
358.53	1242.91
358.89	1254.20
359.26	1297.14
359.62	1224.83
359.99	1290.36
360.35	1301.66
360.72	1283.58
361.08	1324.26
361.45	1303.92
361.81	1274.54
362.18	1344.60
362.54	1364.94
362.91	1380.75
363.27	1292.62
363.63	1335.56
364.00	1319.74
364.36	1346.86
364.73	1270.02
365.09	1326.52
365.46	1342.34
365.82	1362.68
366.19	1367.20
366.55	1367.20
366.91	1401.09
367.28	1337.82
367.64	1373.98
368.01	1396.57
368.37	1342.34
368.74	1344.60
369.10	1439.51
369.46	1419.17
369.83	1389.79
370.19	1425.95
370.56	1396.57
370.92	1471.15
371.28	1491.49
371.65	1482.45
372.01	1482.45
372.38	1523.12
372.74	1486.97
373.10	1507.30
373.47	1529.90
373.83	1590.92
374.19	1570.58
374.56	1710.69
374.92	1563.80
375.29	1550.24
375.65	1622.56
376.01	1746.85
376.38	1708.43
376.74	1783.00
377.10	1692.61
377.47	1780.74
377.83	1792.04
378.19	1812.38
378.56	1884.70
378.92	1918.59
379.28	1961.53
379.65	2198.81
380.01	2185.25
380.37	2140.06
380.74	2133.28
381.10	2418.02
381.46	2404.46
381.83	2519.71
382.19	2675.64
382.55	2811.23
382.91	2958.11
383.28	3147.94
383.64	3371.66
384.00	3606.68
384.37	3932.10
384.73	4058.65
385.09	4343.39
385.45	4662.02
385.82	4849.59
386.18	5389.69
386.54	5825.84
386.91	6291.36
387.27	6768.18
387.63	7498.11
387.99	8139.90
388.36	8933.10
388.72	9604.27
389.08	10300.29
389.44	11220.04
389.80	12049.40
390.17	12928.47
390.53	14648.20
390.89	16155.51
391.25	17118.19
391.62	18410.82
391.98	20548.61
392.34	22566.64
392.70	23542.88
393.06	25696.50
393.43	27795.88
393.79	29359.68
394.15	30715.58
394.51	33018.34
394.87	35336.92
395.24	38105.21
395.60	41067.85
395.96	44114.09
396.32	47054.13
396.68	49384.01
397.04	52760.19
397.41	55564.64
397.77	57758.93
398.13	59865.09
398.49	60924.95
398.85	62852.58
399.21	65076.26
399.58	65535.00
399.94	65535.00
400.30	65535.00
400.66	65535.00
401.02	65535.00
401.38	65535.00
401.74	65535.00
402.11	65535.00
402.47	65535.00
402.83	65535.00
403.19	65535.00
403.55	65535.00
403.91	65535.00
404.27	65535.00
404.63	65535.00
404.99	65535.00
405.35	65535.00
405.72	65535.00
406.08	65535.00
406.44	65535.00
406.80	65535.00
407.16	65535.00
407.52	65535.00
407.88	65535.00
408.24	65535.00
408.60	65535.00
408.96	65535.00
409.32	65535.00
409.68	65535.00
410.04	65535.00
410.40	65535.00
410.76	65535.00
411.13	65535.00
411.49	65535.00
411.85	65535.00
412.21	65535.00
412.57	65535.00
412.93	65535.00
413.29	65535.00
413.65	65535.00
414.01	65535.00
414.37	65535.00
414.73	65535.00
415.09	65535.00
415.45	65535.00
415.81	65535.00
416.17	65535.00
416.53	65130.49
416.89	63987.02
417.25	62644.68
417.61	61200.65
417.97	60461.69
418.33	59139.69
418.69	58292.25
419.05	57065.17
419.41	55865.20
419.77	55157.87
420.12	52762.45
420.48	51074.36
420.84	49985.13
421.20	47377.29
421.56	45115.20
421.92	44932.15
422.28	42640.69
422.64	39770.71
423.00	38272.44
423.36	37122.19
423.72	34884.96
424.08	32817.22
424.44	31016.13
424.80	29574.36
425.16	28638.80
425.51	27011.72
425.87	26521.34
426.23	23884.12
426.59	22697.71
426.95	22365.51
427.31	20948.60
427.67	20501.16
428.03	18880.86
428.39	18374.66
428.74	16668.49
429.10	15976.98
429.46	15109.21
429.82	14182.68
430.18	13714.89
430.54	13583.82
430.90	12808.70
431.26	12295.72
431.61	11667.49
431.97	11068.64
432.33	10887.85
432.69	10533.06
433.05	9934.20
433.41	9520.65
433.76	9229.14
434.12	8926.32
434.48	8664.18
434.84	8259.67
435.20	7995.27
435.55	7660.82
435.91	7319.58
436.27	7102.64
436.63	6969.31
436.99	6589.66
437.34	6286.84
437.70	6194.19
438.06	5972.72
438.42	5509.46
438.78	5421.33
439.13	5502.68
439.49	5156.93
439.85	4876.71
440.21	4763.72
440.56	4702.70
440.92	4454.12
441.28	4320.79
441.64	4146.78
441.99	4002.15
442.35	3956.96
442.71	3807.81
443.07	3760.35
443.42	3525.33
443.78	3446.24
444.14	3482.39
444.50	3317.43
444.85	3150.20
445.21	3046.25
445.57	3143.42
445.93	3032.69
446.28	2815.75
446.64	2847.38
447.00	2811.23
447.35	2854.16
447.71	2784.11
448.07	2664.34
448.42	2725.35
448.78	2528.75
449.14	2463.21
449.49	2388.64
449.85	2501.63
450.21	2329.88
450.56	2257.57
450.92	2271.13
451.28	2244.01
451.63	2187.51
451.99	2146.84
452.35	2144.58
452.70	2076.78
453.06	2033.84
453.42	1900.52
453.77	1927.63
454.13	1914.07
454.49	1886.96
454.84	1900.52
455.20	1821.42
455.55	1703.91
455.91	1805.60
456.27	1837.24
456.62	1676.79
456.98	1751.37
457.33	1615.78
457.69	1597.70
458.05	1692.61
458.40	1640.63
458.76	1557.02
459.11	1552.50
459.47	1525.38
459.83	1514.08
460.18	1529.90
460.54	1480.19
460.89	1498.27
461.25	1473.41
461.60	1428.21
461.96	1450.81
462.31	1457.59
462.67	1453.07
463.03	1403.35
463.38	1383.01
463.74	1468.89
464.09	1425.95
464.45	1421.43
464.80	1380.75
465.16	1414.65
465.51	1387.53
465.87	1315.22
466.22	1369.46
466.58	1371.72
466.93	1297.14
467.29	1337.82
467.64	1324.26
468.00	1299.40
468.35	1351.38
468.71	1315.22
469.06	1317.48
469.42	1285.84
469.77	1254.20
470.13	1279.06
470.48	1267.76
470.84	1211.27
471.19	1303.92
471.54	1292.62
471.90	1283.58
472.25	1267.76
472.61	1270.02
472.96	1209.01
473.32	1285.84
473.67	1270.02
474.03	1265.50
474.38	1301.66
474.73	1279.06
475.09	1240.65
475.44	1267.76
475.80	1220.31
476.15	1281.32
476.50	1315.22
476.86	1247.42
477.21	1245.16
477.57	1362.68
477.92	1251.94
478.27	1199.97
478.63	1134.43
478.98	1222.57
479.34	1224.83
479.69	1222.57
480.04	1256.46
480.40	1206.75
480.75	1218.05
481.10	1202.23
481.46	1220.31
481.81	1238.39
482.16	1202.23
482.52	1177.37
482.87	1294.88
483.22	1197.71
483.58	1193.19
483.93	1132.17
484.28	1186.41
484.64	1170.59
484.99	1209.01
485.34	1157.03
485.70	1188.67
486.05	1179.63
486.40	1177.37
486.76	1263.24
487.11	1197.71
487.46	1199.97
487.81	1186.41
488.17	1211.27
488.52	1179.63
488.87	1132.17
489.23	1134.43
489.58	1145.73
489.93	1150.25
490.28	1168.33
490.64	1195.45
490.99	1195.45
491.34	1138.95
491.69	1096.02
492.05	1159.29
492.40	1238.39
492.75	1154.77
493.10	1132.17
493.46	1170.59
493.81	1132.17
494.16	1077.94
494.51	1163.81
494.86	1150.25
495.22	1129.91
495.57	1100.54
495.92	1145.73
496.27	1118.61
496.62	1105.06
496.98	1141.21
497.33	1170.59
497.68	1082.46
498.03	1134.43
498.38	1132.17
498.74	1181.89
499.09	1175.11
499.44	1136.69
499.79	1179.63
500.14	1068.90
500.49	1114.10
500.85	1100.54
501.20	1159.29
501.55	1152.51
501.90	1102.80
502.25	1129.91
502.60	1089.24
502.95	1102.80
503.30	1175.11
503.66	1098.28
504.01	1080.20
504.36	1134.43
504.71	1145.73
505.06	1111.84
505.41	1138.95
505.76	1066.64
506.11	1184.15
506.46	1141.21
506.82	1188.67
507.17	1019.18
507.52	1091.50
507.87	1116.35
508.22	1086.98
508.57	1123.13
508.92	1080.20
509.27	1177.37
509.62	1159.29
509.97	1166.07
510.32	1093.76
510.67	1082.46
511.02	1141.21
511.37	1116.35
511.72	1105.06
512.07	1089.24
512.42	1096.02
512.77	1055.34
513.12	1157.03
513.47	1084.72
513.82	1107.32
514.17	1132.17
514.52	1120.87
514.87	1166.07
515.22	1071.16
515.57	1150.25
515.92	1152.51
516.27	1107.32
516.62	1120.87
516.97	1091.50
517.32	1120.87
517.67	1168.33
518.02	1107.32
518.37	1086.98
518.72	1170.59
519.07	1107.32
519.42	1127.65
519.77	1220.31
520.12	1125.39
520.47	1091.50
520.82	1123.13
521.17	1141.21
521.52	1177.37
521.87	1161.55
522.22	1125.39
522.56	1086.98
522.91	1100.54
523.26	1100.54
523.61	1141.21
523.96	1136.69
524.31	1138.95
524.66	1168.33
525.01	1134.43
525.36	1089.24
525.71	1134.43
526.05	1177.37
526.40	1138.95
526.75	1177.37
527.10	1168.33
527.45	1091.50
527.80	1170.59
528.15	1211.27
528.49	1145.73
528.84	1181.89
529.19	1143.47
529.54	1100.54
529.89	1134.43
530.24	1152.51
530.58	1114.10
530.93	1175.11
531.28	1141.21
531.63	1159.29
531.98	1118.61
532.33	1143.47
532.67	1111.84
533.02	1132.17
533.37	1145.73
533.72	1145.73
534.07	1181.89
534.41	1186.41
534.76	1073.42
535.11	1177.37
535.46	1091.50
535.80	1125.39
536.15	1143.47
536.50	1129.91
536.85	1127.65
537.19	1175.11
537.54	1098.28
537.89	1111.84
538.24	1181.89
538.58	1175.11
538.93	1129.91
539.28	1154.77
539.63	1107.32
539.97	1084.72
540.32	1132.17
540.67	1141.21
541.01	1213.53
541.36	1166.07
541.71	1109.58
542.06	1089.24
542.40	1082.46
542.75	1123.13
543.10	1046.30
543.44	1184.15
543.79	1098.28
544.14	1125.39
544.48	1114.10
544.83	1062.12
545.18	1125.39
545.52	1159.29
545.87	1125.39
546.22	1125.39
546.56	1154.77
546.91	1105.06
547.25	1082.46
547.60	1159.29
547.95	1116.35
548.29	1089.24
548.64	1080.20
548.99	1132.17
549.33	1080.20
549.68	1068.90
550.02	1055.34
550.37	1059.86
550.72	1123.13
551.06	1096.02
551.41	1120.87
551.75	1012.40
552.10	1138.95
552.45	1123.13
552.79	1143.47
553.14	1073.42
553.48	1066.64
553.83	1157.03
554.17	1127.65
554.52	1134.43
554.87	1163.81
555.21	1064.38
555.56	1096.02
555.90	1066.64
556.25	1132.17
556.59	1089.24
556.94	1057.60
557.28	1107.32
557.63	1120.87
557.97	1050.82
558.32	1100.54
558.66	1093.76
559.01	1109.58
559.35	1075.68
559.70	1134.43
560.04	1109.58
560.39	1120.87
560.73	1134.43
561.08	1150.25
561.42	1057.60
561.77	1057.60
562.11	1035.00
562.46	1064.38
562.80	1127.65
563.14	1068.90
563.49	1039.52
563.83	1082.46
564.18	1096.02
564.52	1107.32
564.87	1123.13
565.21	1059.86
565.56	1014.66
565.90	1032.74
566.24	1098.28
566.59	1068.90
566.93	1068.90
567.28	1068.90
567.62	1055.34
567.96	1035.00
568.31	1105.06
568.65	1086.98
569.00	1050.82
569.34	1093.76
569.68	1059.86
570.03	1084.72
570.37	1064.38
570.71	1037.26
571.06	1059.86
571.40	1086.98
571.74	1091.50
572.09	1055.34
572.43	1055.34
572.78	1080.20
573.12	1064.38
573.46	1120.87
573.80	1025.96
574.15	1050.82
574.49	1059.86
574.83	1091.50
575.18	1064.38
575.52	1077.94
575.86	1166.07
576.21	1125.39
576.55	1062.12
576.89	1084.72
577.24	1075.68
577.58	1134.43
577.92	1114.10
578.26	1116.35
578.61	1059.86
578.95	1016.92
579.29	1098.28
579.63	1059.86
579.98	1091.50
580.32	1136.69
580.66	1053.08
581.00	1114.10
581.35	1086.98
581.69	1059.86
582.03	1080.20
582.37	1118.61
582.72	1111.84
583.06	1062.12
583.40	1003.36
583.74	1062.12
584.08	1084.72
584.43	1116.35
584.77	1044.04
585.11	1068.90
585.45	1071.16
585.79	1098.28
586.13	1080.20
586.48	1016.92
586.82	1039.52
587.16	1093.76
587.50	1062.12
587.84	1114.10
588.18	1102.80
588.53	1089.24
588.87	1014.66
589.21	1012.40
589.55	1093.76
589.89	1098.28
590.23	989.80
590.57	992.06
590.92	1098.28
591.26	1068.90
591.60	1059.86
591.94	1062.12
592.28	1105.06
592.62	1080.20
592.96	1021.44
593.30	1134.43
593.64	1057.60
593.98	989.80
594.32	1039.52
594.67	1010.14
595.01	1109.58
595.35	1080.20
595.69	1044.04
596.03	1105.06
596.37	1080.20
596.71	1075.68
597.05	1044.04
597.39	1064.38
597.73	1044.04
598.07	1001.10
598.41	1023.70
598.75	1032.74
599.09	1014.66
599.43	1039.52
599.77	1116.35
600.11	1039.52
600.45	1059.86
600.79	1053.08
601.13	1037.26
601.47	1100.54
601.81	1102.80
602.15	1055.34
602.49	1019.18
602.83	1075.68
603.17	1080.20
603.51	1035.00
603.85	1062.12
604.19	1096.02
604.53	1039.52
604.87	1073.42
605.21	1098.28
605.55	1032.74
605.89	1071.16
606.23	1068.90
606.56	1014.66
606.90	1080.20
607.24	969.47
607.58	1025.96
607.92	1025.96
608.26	989.80
608.60	1044.04
608.94	1037.26
609.28	1041.78
609.62	1044.04
609.95	1059.86
610.29	1032.74
610.63	1055.34
610.97	1003.36
611.31	1055.34
611.65	1021.44
611.99	1080.20
612.33	1053.08
612.66	1102.80
613.00	1062.12
613.34	1012.40
613.68	1048.56
614.02	1032.74
614.36	1003.36
614.69	1084.72
615.03	1107.32
615.37	1032.74
615.71	1068.90
616.05	1001.10
616.38	1059.86
616.72	1046.30
617.06	998.84
617.40	1068.90
617.74	1035.00
618.07	1041.78
618.41	1007.88
618.75	1050.82
619.09	1084.72
619.42	1050.82
619.76	1057.60
620.10	1071.16
620.44	1111.84
620.77	1025.96
621.11	1014.66
621.45	1057.60
621.79	1080.20
622.12	1023.70
622.46	1010.14
622.80	1053.08
623.13	1098.28
623.47	1064.38
623.81	1048.56
624.15	1073.42
624.48	1055.34
624.82	1030.48
625.16	1032.74
625.49	1086.98
625.83	1003.36
626.17	1062.12
626.50	1028.22
626.84	1053.08
627.18	1007.88
627.51	1039.52
627.85	998.84
628.19	1007.88
628.52	1057.60
628.86	1107.32
629.20	1057.60
629.53	1059.86
629.87	1030.48
630.20	1068.90
630.54	1086.98
630.88	1041.78
631.21	1012.40
631.55	1012.40
631.89	958.17
632.22	1035.00
632.56	1010.14
632.89	1003.36
633.23	1123.13
633.56	1025.96
633.90	1016.92
634.24	1084.72
634.57	1109.58
634.91	1084.72
635.24	1075.68
635.58	1062.12
635.91	1075.68
636.25	1046.30
636.58	1016.92
636.92	1030.48
637.26	1053.08
637.59	1019.18
637.93	1014.66
638.26	1041.78
638.60	1005.62
638.93	1003.36
639.27	1037.26
639.60	1021.44
639.94	1032.74
640.27	1030.48
640.61	1039.52
640.94	1107.32
641.28	1075.68
641.61	1003.36
641.94	1077.94
642.28	1030.48
642.61	1055.34
642.95	1023.70
643.28	1025.96
643.62	1007.88
643.95	1048.56
644.29	1064.38
644.62	1016.92
644.95	1001.10
645.29	992.06
645.62	1044.04
645.96	1064.38
646.29	1016.92
646.63	1066.64
646.96	1053.08
647.29	1032.74
647.63	1125.39
647.96	1041.78
648.29	1050.82
648.63	1041.78
648.96	973.99
649.30	1050.82
649.63	980.77
649.96	1062.12
650.30	1046.30
650.63	1005.62
650.96	1014.66
651.30	1066.64
651.63	1053.08
651.96	1062.12
652.30	1111.84
652.63	1001.10
652.96	1068.90
653.30	987.54
653.63	1041.78
653.96	1059.86
654.30	1098.28
654.63	1016.92
654.96	1037.26
655.29	1019.18
655.63	1003.36
655.96	1053.08
656.29	1030.48
656.63	1039.52
656.96	1023.70
657.29	1039.52
657.62	1068.90
657.96	1068.90
658.29	1093.76
658.62	1057.60
658.95	1025.96
659.29	1014.66
659.62	1050.82
659.95	1064.38
660.28	1030.48
660.61	1073.42
660.95	1032.74
661.28	1032.74
661.61	1041.78
661.94	983.02
662.27	1050.82
662.61	1003.36
662.94	1059.86
663.27	1010.14
663.60	1005.62
663.93	1012.40
664.27	1005.62
664.60	1035.00
664.93	1057.60
665.26	1109.58
665.59	1039.52
665.92	1007.88
666.25	1005.62
666.59	1050.82
666.92	1041.78
667.25	1016.92
667.58	1100.54
667.91	1055.34
668.24	998.84
668.57	1019.18
668.90	1001.10
669.23	1005.62
669.57	1041.78
669.90	971.73
670.23	985.28
670.56	1071.16
670.89	1046.30
671.22	1023.70
671.55	1093.76
671.88	976.25
672.21	983.02
672.54	1016.92
672.87	1012.40
673.20	1059.86
673.53	1055.34
673.86	996.58
674.19	1028.22
674.52	1032.74
674.85	1041.78
675.18	1003.36
675.51	1023.70
675.84	1059.86
676.17	1032.74
676.50	1037.26
676.83	985.28
677.16	992.06
677.49	1005.62
677.82	951.39
678.15	1037.26
678.48	1055.34
678.81	992.06
679.14	1071.16
679.47	1014.66
679.80	1030.48
680.13	1037.26
680.46	1025.96
680.79	1062.12
681.12	1066.64
681.45	1019.18
681.78	996.58
682.11	1109.58
682.44	1046.30
682.77	1059.86
683.09	1023.70
683.42	1068.90
683.75	1016.92
684.08	1044.04
684.41	1030.48
684.74	1055.34
685.07	1003.36
685.40	958.17
685.72	1048.56
686.05	1014.66
686.38	1035.00
686.71	978.51
687.04	1012.40
687.37	1032.74
687.70	1028.22
688.02	1021.44
688.35	1028.22
688.68	1041.78
689.01	1007.88
689.34	1005.62
689.67	1075.68
689.99	1041.78
690.32	1032.74
690.65	1059.86
690.98	1105.06
691.30	1030.48
691.63	973.99
691.96	1066.64
692.29	1057.60
692.62	1016.92
692.94	987.54
693.27	1021.44
693.60	1025.96
693.93	1057.60
694.25	998.84
694.58	1032.74
694.91	998.84
695.24	1050.82
695.56	992.06
695.89	967.21
696.22	1028.22
696.54	1059.86
696.87	994.32
697.20	1039.52
697.53	1001.10
697.85	1023.70
698.18	1037.26
698.51	1012.40
698.83	1084.72
699.16	1014.66
699.49	1116.35
699.81	1030.48
700.14	985.28
700.47	989.80
700.79	998.84
701.12	998.84
701.45	985.28
701.77	1048.56
702.10	1032.74
702.42	987.54
702.75	1077.94
703.08	1075.68
703.40	992.06
703.73	1025.96
704.05	1071.16
704.38	1016.92
704.71	1021.44
705.03	1044.04
705.36	1003.36
705.68	1041.78
706.01	1021.44
706.34	1041.78
706.66	1066.64
706.99	1007.88
707.31	1001.10
707.64	976.25
707.96	1044.04
708.29	1001.10
708.61	1023.70
708.94	998.84
709.26	1055.34
709.59	1055.34
709.92	1016.92
710.24	1039.52
710.57	1046.30
710.89	917.49
711.22	1037.26
711.54	1059.86
711.87	1062.12
712.19	1080.20
712.51	1016.92
712.84	1032.74
713.16	1039.52
713.49	980.77
713.81	1019.18
714.14	1053.08
714.46	987.54
714.79	1053.08
715.11	1016.92
715.44	1035.00
715.76	1012.40
716.08	1021.44
716.41	1048.56
716.73	1044.04
717.06	1003.36
717.38	1007.88
717.70	969.47
718.03	994.32
718.35	1014.66
718.68	1041.78
719.00	1041.78
719.32	980.77
719.65	1053.08
719.97	998.84
720.29	1062.12
720.62	980.77
720.94	1030.48
721.27	1068.90
721.59	992.06
721.91	1035.00
722.24	985.28
722.56	1041.78
722.88	987.54
723.21	1035.00
723.53	951.39
723.85	1030.48
724.17	1077.94
724.50	1066.64
724.82	1030.48
725.14	1046.30
725.47	1028.22
725.79	1037.26
726.11	1041.78
726.43	1012.40
726.76	1059.86
727.08	1030.48
727.40	989.80
727.72	1064.38
728.05	1003.36
728.37	1014.66
728.69	998.84
729.01	1044.04
729.34	1039.52
729.66	973.99
729.98	985.28
730.30	1012.40
730.62	1007.88
730.95	992.06
731.27	1019.18
731.59	987.54
731.91	1059.86
732.23	1005.62
732.56	964.95
732.88	1066.64
733.20	973.99
733.52	1059.86
733.84	1012.40
734.16	1044.04
734.49	1064.38
734.81	1032.74
735.13	1057.60
735.45	1025.96
735.77	1048.56
736.09	1071.16
736.41	1005.62
736.73	1003.36
737.06	1023.70
737.38	1035.00
737.70	1080.20
738.02	1021.44
738.34	1039.52
738.66	1064.38
738.98	1071.16
739.30	1032.74
739.62	1035.00
739.94	1019.18
740.26	1023.70
740.58	1003.36
740.90	1046.30
741.23	1035.00
741.55	1037.26
741.87	1032.74
742.19	998.84
742.51	1044.04
742.83	1080.20
743.15	1064.38
743.47	998.84
743.79	1048.56
744.11	1030.48
744.43	1046.30
744.75	1001.10
745.07	1073.42
745.39	976.25
745.71	985.28
746.03	983.02
746.35	1010.14
746.67	1021.44
746.98	1048.56
747.30	1053.08
747.62	1046.30
747.94	1089.24
748.26	1041.78
748.58	992.06
748.90	1005.62
749.22	931.05
749.54	998.84
749.86	998.84
750.18	1111.84
750.50	1035.00
750.82	1019.18
751.13	1066.64
751.45	1030.48
751.77	1010.14
752.09	1050.82
752.41	1035.00
752.73	1055.34
753.05	996.58
753.36	1030.48
753.68	1077.94
754.00	1003.36
754.32	1032.74
754.64	1057.60
754.96	1028.22
755.28	1032.74
755.59	1059.86
755.91	1044.04
756.23	1057.60
756.55	1025.96
756.87	1032.74
757.18	1066.64
757.50	1037.26
757.82	980.77
758.14	1044.04
758.45	1075.68
758.77	1016.92
759.09	1114.10
759.41	1125.39
759.73	1084.72
760.04	973.99
760.36	1025.96
760.68	1005.62
760.99	1028.22
761.31	1025.96
761.63	1053.08
761.95	1023.70
762.26	1032.74
762.58	1023.70
762.90	989.80
763.21	998.84
763.53	944.61
763.85	1021.44
764.17	1005.62
764.48	1025.96
764.80	1030.48
765.12	1021.44
765.43	1055.34
765.75	1021.44
766.07	1057.60
766.38	1021.44
766.70	1089.24
767.01	1032.74
767.33	998.84
767.65	1053.08
767.96	989.80
768.28	973.99
768.60	1035.00
768.91	1039.52
769.23	1077.94
769.54	1035.00
769.86	1030.48
770.18	998.84
770.49	998.84
770.81	1093.76
771.12	1132.17
771.44	980.77
771.75	1066.64
772.07	1021.44
772.38	1007.88
772.70	1068.90
773.02	1080.20
773.33	1044.04
773.65	1057.60
773.96	1055.34
774.28	1014.66
774.59	1050.82
774.91	1021.44
775.22	1023.70
775.54	1039.52
775.85	989.80
776.17	1048.56
776.48	1111.84
776.80	1062.12
777.11	1003.36
777.43	1073.42
777.74	1053.08
778.05	976.25
778.37	1007.88
778.68	1014.66
779.00	1046.30
779.31	1025.96
779.63	1016.92
779.94	1030.48
780.26	1005.62
780.57	1016.92
780.88	1007.88
781.20	994.32
781.51	983.02
781.83	987.54
782.14	955.91
782.45	1001.10
782.77	1080.20
783.08	1035.00
783.39	1089.24
783.71	1041.78
784.02	1028.22
784.34	994.32
784.65	1098.28
784.96	1010.14
785.28	1077.94
785.59	1041.78
785.90	1023.70
786.22	1028.22
786.53	1016.92
786.84	1025.96
787.15	1028.22
787.47	1007.88
787.78	1023.70
788.09	1014.66
788.41	1023.70
788.72	994.32
789.03	987.54
789.35	1007.88
789.66	1007.88
789.97	1035.00
790.28	1021.44
790.60	976.25
790.91	1068.90
791.22	1028.22
791.53	1059.86
791.84	1039.52
792.16	1019.18
792.47	1050.82
792.78	953.65
793.09	1044.04
793.41	1023.70
793.72	996.58
794.03	1025.96
794.34	1035.00
794.65	1030.48
794.96	1044.04
795.28	1057.60
795.59	940.09
795.90	1073.42
796.21	1012.40
796.52	1035.00
796.83	1080.20
797.15	1030.48
797.46	980.77
797.77	1021.44
798.08	1073.42
798.39	1048.56
798.70	980.77
799.01	1039.52
799.32	994.32
799.63	1066.64
799.95	1143.47
800.26	1023.70
800.57	1016.92
800.88	1025.96
801.19	989.80
801.50	980.77
801.81	1064.38
802.12	1030.48
802.43	980.77
802.74	998.84
803.05	1048.56
803.36	1075.68
803.67	1059.86
803.98	1050.82
804.29	996.58
804.60	1019.18
804.91	996.58
805.22	1007.88
805.53	1057.60
805.84	1023.70
806.15	1091.50
806.46	924.27
806.77	1055.34
807.08	1032.74
807.39	1057.60
807.70	1019.18
808.01	989.80
808.32	1080.20
808.63	1041.78
808.94	1050.82
809.25	1001.10
809.56	1012.40
809.87	985.28
810.18	1041.78
810.49	1003.36
810.79	1014.66
811.10	996.58
811.41	1012.40
811.72	1001.10
812.03	1010.14
812.34	1030.48
812.65	962.69
812.96	1053.08
813.27	983.02
813.57	1014.66
813.88	1050.82
814.19	1066.64
814.50	1062.12
814.81	1041.78
815.12	1007.88
815.42	1025.96
815.73	985.28
816.04	992.06
816.35	1021.44
816.66	996.58
816.97	989.80
817.27	1053.08
817.58	1068.90
817.89	1064.38
818.20	976.25
818.50	1048.56
818.81	1041.78
819.12	1035.00
819.43	994.32
819.73	1050.82
820.04	1093.76
820.35	998.84
820.66	1077.94
820.96	1102.80
821.27	1062.12
821.58	1068.90
821.89	987.54
822.19	1044.04
822.50	1037.26
822.81	967.21
823.11	863.25
823.42	1039.52
823.73	1012.40
824.03	1019.18
824.34	985.28
824.65	1035.00
824.95	1096.02
825.26	983.02
825.57	1035.00
825.87	1025.96
826.18	1003.36
826.49	1055.34
826.79	1071.16
827.10	1050.82
827.40	992.06
827.71	1057.60
828.02	1016.92
828.32	1019.18
828.63	1012.40
828.93	1030.48
829.24	985.28
829.55	969.47
829.85	1005.62
830.16	1048.56
830.46	1016.92
830.77	1057.60
831.07	996.58
831.38	1055.34
831.69	971.73
831.99	1032.74
832.30	958.17
832.60	1048.56
832.91	955.91
833.21	1016.92
833.52	1023.70
833.82	989.80
834.13	1025.96
834.43	1001.10
834.74	1053.08
835.04	1037.26
835.35	996.58
835.65	1016.92
835.96	1014.66
836.26	1028.22
836.56	1057.60
836.87	969.47
837.17	1064.38
837.48	983.02
837.78	1001.10
838.09	1091.50
838.39	1073.42
838.69	1059.86
839.00	1059.86
839.30	1016.92
839.61	1091.50
839.91	964.95
840.21	1048.56
840.52	1030.48
840.82	1098.28
841.13	985.28
841.43	989.80
841.73	1023.70
842.04	1003.36
842.34	1037.26
842.64	1064.38
842.95	978.51
843.25	1046.30
843.55	989.80
843.86	978.51
844.16	996.58
844.46	1037.26
844.77	1084.72
845.07	1025.96
845.37	1012.40
845.68	1030.48
845.98	1057.60
846.28	983.02
846.58	1055.34
846.89	1050.82
847.19	1059.86
847.49	1057.60
847.79	1030.48
848.10	971.73
848.40	1003.36
848.70	946.87
849.00	1007.88
849.31	1064.38
849.61	1057.60
849.91	998.84
850.21	1023.70
850.51	1041.78
850.82	1030.48
851.12	1039.52
851.42	1030.48
851.72	978.51
852.02	1039.52
852.32	1025.96
852.63	1003.36
852.93	1014.66
853.23	1003.36
853.53	1012.40
853.83	1050.82
854.13	1050.82
854.43	1048.56
854.74	962.69
855.04	953.65
855.34	1046.30
855.64	1091.50
855.94	1003.36
856.24	1032.74
856.54	1028.22
856.84	1044.04
857.14	946.87
857.44	1001.10
857.74	1030.48
858.05	1001.10
858.35	1005.62
858.65	980.77
858.95	1064.38
859.25	1100.54
859.55	1041.78
859.85	987.54
860.15	1032.74
860.45	1082.46
860.75	1093.76
861.05	1023.70
861.35	1025.96
861.65	1044.04
861.95	998.84
862.25	1010.14
862.55	973.99
862.85	989.80
863.15	1053.08
863.45	1028.22
863.75	987.54
864.05	1010.14
864.35	1010.14
864.64	971.73
864.94	996.58
865.24	1030.48
865.54	980.77
865.84	1041.78
866.14	1021.44
866.44	1035.00
866.74	1055.34
867.04	1032.74
867.34	996.58
867.64	1098.28
867.93	960.43
868.23	987.54
868.53	1019.18
868.83	987.54
869.13	1014.66
869.43	971.73
869.73	1048.56
870.02	1091.50
870.32	996.58
870.62	1005.62
870.92	978.51
871.22	1005.62
871.51	985.28
871.81	1007.88
872.11	1041.78
872.41	1073.42
872.71	1066.64
873.00	1071.16
873.30	1100.54
873.60	1048.56
873.90	1046.30
874.19	1005.62
874.49	1007.88
874.79	992.06
875.09	1023.70
875.38	940.09
875.68	1023.70
875.98	992.06
876.28	1032.74
876.57	1041.78
876.87	1041.78
877.17	1041.78
