174.03	691.51
174.41	691.51
174.78	691.51
175.16	644.05
175.54	630.49
175.92	616.93
176.30	639.53
176.67	641.79
177.05	662.13
177.43	716.37
177.81	727.66
178.19	686.99
178.56	725.40
178.94	788.68
179.32	734.44
179.70	775.12
180.08	833.88
180.45	870.03
180.83	822.58
181.21	795.46
181.59	836.14
181.96	888.11
182.34	874.55
182.72	971.73
183.10	931.05
183.48	1025.96
183.85	985.28
184.23	989.80
184.61	971.73
184.99	989.80
185.36	998.84
185.74	1007.88
186.12	1059.86
186.50	1019.18
186.87	1059.86
187.25	1046.30
187.63	1084.72
188.01	1023.70
188.38	1028.22
188.76	1084.72
189.14	1016.92
189.52	1010.14
189.89	1084.72
190.27	1098.28
190.65	1066.64
191.02	1098.28
191.40	1059.86
191.78	1064.38
192.16	1071.16
192.53	1077.94
192.91	1055.34
193.29	1039.52
193.66	998.84
194.04	992.06
194.42	1098.28
194.79	969.47
195.17	1003.36
195.55	980.77
195.93	1025.96
196.30	1025.96
196.68	1050.82
197.06	1030.48
197.43	1037.26
197.81	1098.28
198.19	1019.18
198.56	1055.34
198.94	1041.78
199.32	1073.42
199.69	1025.96
200.07	1048.56
200.45	1044.04
200.82	1025.96
201.20	1030.48
201.58	985.28
201.95	1030.48
202.33	1025.96
202.71	1010.14
203.08	1010.14
203.46	1080.20
203.84	1059.86
204.21	1037.26
204.59	1046.30
204.96	978.51
205.34	996.58
205.72	1039.52
206.09	1064.38
206.47	1003.36
206.85	1001.10
207.22	1028.22
207.60	1007.88
207.97	1059.86
208.35	1086.98
208.73	1037.26
209.10	1055.34
209.48	1014.66
209.85	1012.40
210.23	1084.72
210.61	1053.08
210.98	1048.56
211.36	983.02
211.73	1059.86
212.11	1089.24
212.49	1075.68
212.86	1044.04
213.24	1057.60
213.61	962.69
213.99	1055.34
214.37	1014.66
214.74	1059.86
215.12	1055.34
215.49	1023.70
215.87	1041.78
216.24	1023.70
216.62	1075.68
216.99	1053.08
217.37	1089.24
217.75	1080.20
218.12	1035.00
218.50	1003.36
218.87	1021.44
219.25	1010.14
219.62	1091.50
220.00	1080.20
220.37	1019.18
220.75	1105.06
221.12	1062.12
221.50	1046.30
221.87	1021.44
222.25	985.28
222.63	1084.72
223.00	1001.10
223.38	1068.90
223.75	1064.38
224.13	1046.30
224.50	1037.26
224.88	1035.00
225.25	1048.56
225.63	1084.72
226.00	1019.18
226.38	1035.00
226.75	1071.16
227.13	1007.88
227.50	1055.34
227.88	1057.60
228.25	992.06
228.63	1039.52
229.00	1003.36
229.37	1041.78
229.75	989.80
230.12	1035.00
230.50	989.80
230.87	1037.26
231.25	1068.90
231.62	1028.22
232.00	1035.00
232.37	1053.08
232.75	1136.69
233.12	1044.04
233.50	1044.04
233.87	1127.65
234.24	1041.78
234.62	1084.72
234.99	1059.86
235.37	1055.34
235.74	1050.82
236.12	1071.16
236.49	1082.46
236.86	1091.50
237.24	1055.34
237.61	1037.26
237.99	1064.38
238.36	1098.28
238.74	1005.62
239.11	1035.00
239.48	1111.84
239.86	1016.92
240.23	1084.72
240.61	1073.42
240.98	1062.12
241.35	1109.58
241.73	1096.02
242.10	1120.87
242.48	1075.68
242.85	1093.76
243.22	1064.38
243.60	1068.90
243.97	1005.62
244.34	1046.30
244.72	1089.24
245.09	1012.40
245.47	1057.60
245.84	1086.98
246.21	1071.16
246.59	1109.58
246.96	1062.12
247.33	1071.16
247.71	1059.86
248.08	1041.78
248.45	1035.00
248.83	971.73
249.20	1032.74
249.57	1025.96
249.95	1064.38
250.32	1062.12
250.69	1035.00
251.07	1010.14
251.44	1068.90
251.81	1016.92
252.19	1050.82
252.56	1098.28
252.93	1073.42
253.31	1039.52
253.68	1037.26
254.05	1084.72
254.43	1044.04
254.80	1073.42
255.17	1028.22
255.55	1163.81
255.92	1111.84
256.29	1068.90
256.66	1077.94
257.04	1082.46
257.41	1030.48
257.78	1041.78
258.16	1105.06
258.53	1093.76
258.90	1111.84
259.27	1138.95
259.65	1091.50
260.02	1032.74
260.39	978.51
260.76	1071.16
261.14	1096.02
261.51	1077.94
261.88	1046.30
262.25	1066.64
262.63	1105.06
263.00	1098.28
263.37	1136.69
263.74	1044.04
264.12	1107.32
264.49	1111.84
264.86	1086.98
265.23	1055.34
265.61	1041.78
265.98	1116.35
266.35	1118.61
266.72	1066.64
267.09	1077.94
267.47	994.32
267.84	1071.16
268.21	1132.17
268.58	1064.38
268.95	1093.76
269.33	1066.64
269.70	1089.24
270.07	1084.72
270.44	1071.16
270.81	1062.12
271.19	1064.38
271.56	1077.94
271.93	1114.10
272.30	1102.80
272.67	1091.50
273.05	1080.20
273.42	1037.26
273.79	1152.51
274.16	1075.68
274.53	1145.73
274.90	1082.46
275.28	1028.22
275.65	1125.39
276.02	1082.46
276.39	1147.99
276.76	1035.00
277.13	1098.28
277.50	1116.35
277.88	1120.87
278.25	1118.61
278.62	1098.28
278.99	1107.32
279.36	1075.68
279.73	1138.95
280.10	1175.11
280.47	1120.87
280.85	1068.90
281.22	1084.72
281.59	1100.54
281.96	1123.13
282.33	1073.42
282.70	1071.16
283.07	1071.16
283.44	1077.94
283.81	1111.84
284.18	1059.86
284.56	1073.42
284.93	1050.82
285.30	1080.20
285.67	1098.28
286.04	1197.71
286.41	1145.73
286.78	1134.43
287.15	1125.39
287.52	1082.46
287.89	1066.64
288.26	1098.28
288.63	1075.68
289.00	1102.80
289.37	1091.50
289.75	1138.95
290.12	1035.00
290.49	1053.08
290.86	1096.02
291.23	1098.28
291.60	1086.98
291.97	1118.61
292.34	1143.47
292.71	1114.10
293.08	1157.03
293.45	1152.51
293.82	1132.17
294.19	1059.86
294.56	1100.54
294.93	1114.10
295.30	1091.50
295.67	1084.72
296.04	1082.46
296.41	1091.50
296.78	1111.84
297.15	1048.56
297.52	1125.39
297.89	1084.72
298.26	1138.95
298.63	1102.80
299.00	1091.50
299.37	1159.29
299.74	1114.10
300.11	1132.17
300.48	1089.24
300.85	1105.06
301.22	1111.84
301.59	1136.69
301.96	1093.76
302.33	1127.65
302.70	1098.28
303.07	1075.68
303.43	1132.17
303.80	1073.42
304.17	1075.68
304.54	1150.25
304.91	1143.47
305.28	1157.03
305.65	1071.16
306.02	1057.60
306.39	1123.13
306.76	1116.35
307.13	1091.50
307.50	1116.35
307.87	1138.95
308.24	1132.17
308.60	1143.47
308.97	1152.51
309.34	1120.87
309.71	1109.58
310.08	1123.13
310.45	1127.65
310.82	1098.28
311.19	1134.43
311.56	1138.95
311.92	1125.39
312.29	1172.85
312.66	1041.78
313.03	1175.11
313.40	1136.69
313.77	1163.81
314.14	1141.21
314.51	1062.12
314.87	1147.99
315.24	1114.10
315.61	1107.32
315.98	1152.51
316.35	1109.58
316.72	1134.43
317.09	1114.10
317.45	1143.47
317.82	1105.06
318.19	1105.06
318.56	1086.98
318.93	1190.93
319.30	1220.31
319.66	1118.61
320.03	1116.35
320.40	1118.61
320.77	1152.51
321.14	1184.15
321.50	1093.76
321.87	1175.11
322.24	1172.85
322.61	1147.99
322.98	1186.41
323.34	1177.37
323.71	1175.11
324.08	1127.65
324.45	1145.73
324.82	1154.77
325.18	1161.55
325.55	1188.67
325.92	1145.73
326.29	1206.75
326.65	1129.91
327.02	1120.87
327.39	1118.61
327.76	1163.81
328.12	1175.11
328.49	1218.05
328.86	1197.71
329.23	1175.11
329.59	1179.63
329.96	1172.85
330.33	1145.73
330.70	1143.47
331.06	1166.07
331.43	1154.77
331.80	1179.63
332.17	1147.99
332.53	1222.57
332.90	1125.39
333.27	1213.53
333.63	1179.63
334.00	1209.01
334.37	1118.61
334.74	1102.80
335.10	1152.51
335.47	1186.41
335.84	1163.81
336.20	1190.93
336.57	1213.53
336.94	1197.71
337.30	1224.83
337.67	1147.99
338.04	1145.73
338.40	1179.63
338.77	1179.63
339.14	1233.87
339.50	1206.75
339.87	1188.67
340.24	1116.35
340.60	1159.29
340.97	1186.41
341.34	1236.13
341.70	1177.37
342.07	1172.85
342.44	1186.41
342.80	1170.59
343.17	1308.44
343.53	1175.11
343.90	1215.79
344.27	1152.51
344.63	1245.16
345.00	1168.33
345.37	1179.63
345.73	1224.83
346.10	1199.97
346.46	1175.11
346.83	1163.81
347.20	1233.87
347.56	1224.83
347.93	1215.79
348.29	1231.61
348.66	1224.83
349.03	1231.61
349.39	1238.39
349.76	1202.23
350.12	1274.54
350.49	1220.31
350.85	1193.19
351.22	1150.25
351.59	1220.31
351.95	1272.28
352.32	1283.58
352.68	1301.66
353.05	1312.96
353.41	1294.88
353.78	1283.58
354.14	1297.14
354.51	1265.50
354.88	1270.02
355.24	1218.05
355.61	1254.20
355.97	1292.62
356.34	1240.65
356.70	1229.35
357.07	1328.78
357.43	1292.62
357.80	1270.02
358.16	1294.88
358.53	1279.06
358.89	1218.05
359.26	1247.42
359.62	1355.90
359.99	1288.10
360.35	1306.18
360.72	1353.64
361.08	1369.46
361.45	1355.90
361.81	1340.08
362.18	1376.24
362.54	1358.16
362.91	1292.62
363.27	1344.60
363.63	1292.62
364.00	1315.22
364.36	1369.46
364.73	1340.08
365.09	1380.75
365.46	1419.17
365.82	1398.83
366.19	1439.51
366.55	1389.79
366.91	1434.99
367.28	1328.78
367.64	1401.09
368.01	1396.57
368.37	1462.11
368.74	1396.57
369.10	1421.43
369.46	1414.65
369.83	1444.03
370.19	1421.43
370.56	1500.53
370.92	1523.12
371.28	1505.05
371.65	1523.12
372.01	1590.92
372.38	1482.45
372.74	1525.38
373.10	1538.94
373.47	1609.00
373.83	1611.26
374.19	1633.86
374.56	1642.89
374.92	1685.83
375.29	1701.65
375.65	1744.59
376.01	1726.51
376.38	1724.25
376.74	1731.03
377.10	1783.00
377.47	1796.56
377.83	1929.89
378.19	1923.11
378.56	1966.05
378.92	1984.13
379.28	2058.70
379.65	2106.16
380.01	2144.58
380.37	2271.13
380.74	2343.44
381.10	2544.57
381.46	2623.66
381.83	2682.42
382.19	2779.59
382.55	2928.74
382.91	3145.68
383.28	3315.17
383.64	3475.61
384.00	3794.25
384.37	4038.31
384.73	4327.57
385.09	4474.46
385.45	4790.83
385.82	5251.84
386.18	5626.97
386.54	6293.62
386.91	6738.81
387.27	7308.28
387.63	7891.32
387.99	8560.23
388.36	9342.13
388.72	9968.10
389.08	10874.29
389.44	11943.19
389.80	13120.56
390.17	13920.54
390.53	15595.07
390.89	17579.20
391.25	18347.54
391.62	19854.85
391.98	21899.99
392.34	24055.86
392.70	25407.24
393.06	27459.16
393.43	29465.89
393.79	31108.79
394.15	33221.73
394.51	35409.24
394.87	38247.58
395.24	41038.47
395.60	44075.68
395.96	46843.97
396.32	49899.25
396.68	52387.32
397.04	55336.40
397.41	57824.47
397.77	59587.13
398.13	61587.08
398.49	62915.86
398.85	64608.47
399.21	65535.00
399.58	65535.00
399.94	65535.00
400.30	65535.00
400.66	65535.00
401.02	65535.00
401.38	65535.00
401.74	65535.00
402.11	65535.00
402.47	65535.00
402.83	65535.00
403.19	65535.00
403.55	65535.00
403.91	65535.00
404.27	65535.00
404.63	65535.00
404.99	65535.00
405.35	65535.00
405.72	65535.00
406.08	65535.00
406.44	65535.00
406.80	65535.00
407.16	65535.00
407.52	65535.00
407.88	65535.00
408.24	65535.00
408.60	65535.00
408.96	65535.00
409.32	65535.00
409.68	65535.00
410.04	65535.00
410.40	65535.00
410.76	65535.00
411.13	65535.00
411.49	65535.00
411.85	65535.00
412.21	65535.00
412.57	65535.00
412.93	65535.00
413.29	65535.00
413.65	65535.00
414.01	65535.00
414.37	65535.00
414.73	65535.00
415.09	65535.00
415.45	65535.00
415.81	65535.00
416.17	65535.00
416.53	65535.00
416.89	65535.00
417.25	64972.30
417.61	63498.90
417.97	62942.98
418.33	61596.12
418.69	60940.77
419.05	59734.02
419.41	59028.96
419.77	58308.07
420.12	56482.13
420.48	54500.26
420.84	53921.75
421.20	51542.15
421.56	49384.01
421.92	49370.45
422.28	46459.80
422.64	43935.57
423.00	42211.32
423.36	40798.93
423.72	38281.48
424.08	35951.60
424.44	34254.47
424.80	33307.60
425.16	31755.10
425.51	29924.64
425.87	29154.04
426.23	26338.29
426.59	24869.40
426.95	24333.82
427.31	23359.84
427.67	22304.50
428.03	20749.74
428.39	20254.83
428.74	18630.02
429.10	17872.98
429.46	16937.41
429.82	15981.50
430.18	15527.28
430.54	14867.41
430.90	14444.82
431.26	13703.59
431.61	13073.10
431.97	12539.78
432.33	11947.71
432.69	11990.65
433.05	11348.85
433.41	10731.92
433.76	10026.86
434.12	10121.77
434.48	9412.18
434.84	9283.37
435.20	8860.78
435.55	8544.41
435.91	8304.87
436.27	7764.77
436.63	7735.39
436.99	7554.60
437.34	7104.90
437.70	6838.24
438.06	6576.10
438.42	6160.29
438.78	5963.68
439.13	6139.95
439.49	5724.14
439.85	5520.76
440.21	5269.92
440.56	5129.81
440.92	4869.93
441.28	4560.33
441.64	4601.01
441.99	4363.73
442.35	4309.49
442.71	4176.16
443.07	4225.88
443.42	3990.86
443.78	3758.09
444.14	3785.21
444.50	3532.11
444.85	3622.50
445.21	3412.34
445.57	3342.28
445.93	3276.75
446.28	3276.75
446.64	3109.52
447.00	2964.89
447.35	3229.29
447.71	3014.61
448.07	3132.12
448.42	2804.45
448.78	2833.82
449.14	2662.08
449.49	2573.94
449.85	2596.54
450.21	2542.31
450.56	2474.51
450.92	2384.12
451.28	2264.35
451.63	2485.81
451.99	2300.50
452.35	2302.76
452.70	2225.93
453.06	2185.25
453.42	2153.62
453.77	2149.10
454.13	2054.18
454.49	2031.58
454.84	2033.84
455.20	1900.52
455.55	1889.22
455.91	1902.77
456.27	1916.33
456.62	1893.74
456.98	1880.18
457.33	1726.51
457.69	1794.30
458.05	1769.44
458.40	1658.71
458.76	1667.75
459.11	1656.45
459.47	1703.91
459.83	1627.08
460.18	1586.40
460.54	1547.98
460.89	1595.44
461.25	1577.36
461.60	1550.24
461.96	1581.88
462.31	1547.98
462.67	1525.38
463.03	1464.37
463.38	1484.71
463.74	1509.56
464.09	1473.41
464.45	1428.21
464.80	1493.75
465.16	1446.29
465.51	1468.89
465.87	1505.05
466.22	1441.77
466.58	1383.01
466.93	1480.19
467.29	1423.69
467.64	1349.12
468.00	1310.70
468.35	1355.90
468.71	1367.20
469.06	1346.86
469.42	1405.61
469.77	1369.46
470.13	1317.48
470.48	1364.94
470.84	1308.44
471.19	1378.49
471.54	1297.14
471.90	1319.74
472.25	1353.64
472.61	1204.49
472.96	1358.16
473.32	1260.98
473.67	1274.54
474.03	1324.26
474.38	1319.74
474.73	1349.12
475.09	1308.44
475.44	1335.56
475.80	1281.32
476.15	1367.20
476.50	1260.98
476.86	1283.58
477.21	1315.22
477.57	1319.74
477.92	1312.96
478.27	1317.48
478.63	1290.36
478.98	1353.64
479.34	1272.28
479.69	1281.32
480.04	1281.32
480.40	1290.36
480.75	1326.52
481.10	1288.10
481.46	1301.66
481.81	1272.28
482.16	1242.91
482.52	1163.81
482.87	1272.28
483.22	1211.27
483.58	1281.32
483.93	1292.62
484.28	1337.82
484.64	1288.10
484.99	1206.75
485.34	1242.91
485.70	1288.10
486.05	1310.70
486.40	1279.06
486.76	1213.53
487.11	1251.94
487.46	1231.61
487.81	1306.18
488.17	1310.70
488.52	1310.70
488.87	1297.14
489.23	1224.83
489.58	1312.96
489.93	1242.91
490.28	1292.62
490.64	1285.84
490.99	1319.74
491.34	1367.20
491.69	1288.10
492.05	1392.05
492.40	1283.58
492.75	1299.40
493.10	1358.16
493.46	1351.38
493.81	1283.58
494.16	1344.60
494.51	1315.22
494.86	1446.29
495.22	1425.95
495.57	1364.94
495.92	1371.72
496.27	1367.20
496.62	1392.05
496.98	1446.29
497.33	1414.65
497.68	1462.11
498.03	1471.15
498.38	1496.01
498.74	1511.82
499.09	1392.05
499.44	1554.76
499.79	1523.12
500.14	1627.08
500.49	1581.88
500.85	1498.27
501.20	1618.04
501.55	1697.13
501.90	1676.79
502.25	1656.45
502.60	1719.73
502.95	1676.79
503.30	1701.65
503.66	1767.19
504.01	1805.60
504.36	1751.37
504.71	1886.96
505.06	1914.07
505.41	1972.83
505.76	1986.39
506.11	2083.56
506.46	1984.13
506.82	2088.08
507.17	2051.92
507.52	2110.68
507.87	2112.94
508.22	2192.03
508.57	2198.81
508.92	2309.54
509.27	2375.08
509.62	2399.94
509.97	2438.35
510.32	2397.68
510.67	2472.25
511.02	2596.54
511.37	2564.90
511.72	2634.96
512.07	2756.99
512.42	2659.82
512.77	2779.59
513.12	2942.30
513.47	2910.66
513.82	2958.11
514.17	2978.45
514.52	3199.92
514.87	3145.68
515.22	3032.69
515.57	3170.54
515.92	3407.82
516.27	3473.36
516.62	3382.96
516.97	3477.87
517.32	3518.55
517.67	3541.15
518.02	3624.76
518.37	3807.81
518.72	3857.53
519.07	3728.72
519.42	3990.86
519.77	3968.26
520.12	4178.42
520.47	4146.78
520.82	4155.82
521.17	4259.78
521.52	4246.22
521.87	4275.59
522.22	4490.28
522.56	4442.82
522.91	4580.67
523.26	4553.55
523.61	4747.90
523.96	4799.87
524.31	4838.29
524.66	4772.76
525.01	4906.09
525.36	4869.93
525.71	4933.20
526.05	5034.90
526.40	4969.36
526.75	5107.21
527.10	5059.75
527.45	5247.32
527.80	5217.94
528.15	5342.23
528.49	5394.21
528.84	5224.72
529.19	5294.78
529.54	5382.91
529.89	5380.65
530.24	5448.44
530.58	5559.18
530.93	5563.70
531.28	5457.48
531.63	5511.72
531.98	5523.02
532.33	5577.25
532.67	5667.65
533.02	5611.15
533.37	5825.84
533.72	5683.47
534.07	5642.79
534.41	5690.25
534.76	5891.37
535.11	5852.95
535.46	5678.95
535.80	5674.43
536.15	5710.58
536.50	5658.61
536.85	5859.73
537.19	5873.29
537.54	5724.14
537.89	5823.58
538.24	5852.95
538.58	5803.24
538.93	5787.42
539.28	5719.62
539.63	5814.54
539.97	5706.06
540.32	5721.88
540.67	5816.80
541.01	5751.26
541.36	5778.38
541.71	5771.60
542.06	5907.19
542.40	5735.44
542.75	5800.98
543.10	5810.02
543.44	5744.48
543.79	5710.58
544.14	5710.58
544.48	5758.04
544.83	5663.13
545.18	5602.11
545.52	5794.20
545.87	5674.43
546.22	5753.52
546.56	5658.61
546.91	5611.15
547.25	5823.58
547.60	5622.45
547.95	5595.33
548.29	5742.22
548.64	5645.05
548.99	5559.18
549.33	5464.26
549.68	5464.26
550.02	5507.20
550.37	5414.55
550.72	5525.28
551.06	5561.44
551.41	5446.18
551.75	5527.54
552.10	5297.04
552.45	5315.11
552.79	5364.83
553.14	5319.63
553.48	5373.87
553.83	5249.58
554.17	5226.98
554.52	5385.17
554.87	5290.26
555.21	5215.68
555.56	5247.32
555.90	5236.02
556.25	5260.88
556.59	5175.01
556.94	5145.63
557.28	5211.16
557.63	5028.12
557.97	5052.97
558.32	5093.65
558.66	5016.82
559.01	5012.30
559.35	5084.61
559.70	4960.32
560.04	5150.15
560.39	5211.16
560.73	5111.73
561.08	5025.86
561.42	5019.08
561.77	4962.58
562.11	4899.31
562.46	4808.91
562.80	4822.47
563.14	4860.89
563.49	4750.16
563.83	4784.06
564.18	4784.06
564.52	4779.54
564.87	4704.96
565.21	4781.80
565.56	4817.95
565.90	4614.57
566.24	4779.54
566.59	4720.78
566.93	4648.47
567.28	4474.46
567.62	4558.07
567.96	4569.37
568.31	4709.48
568.65	4521.92
569.00	4596.49
569.34	4564.85
569.68	4402.14
570.03	4524.17
570.37	4488.02
570.71	4601.01
571.06	4429.26
571.40	4517.40
571.74	4492.54
572.09	4469.94
572.43	4503.84
572.78	4393.10
573.12	4341.13
573.46	4295.93
573.80	4194.24
574.15	4205.54
574.49	4237.18
574.83	4280.11
575.18	4250.74
575.52	4248.48
575.86	4081.25
576.21	4121.93
576.55	4207.80
576.89	4164.86
577.24	4067.69
577.58	4076.73
577.92	3999.89
578.26	3986.34
578.61	4069.95
578.95	4008.93
579.29	3950.18
579.63	3914.02
579.98	3966.00
580.32	3871.08
580.66	4038.31
581.00	3859.79
581.35	4049.61
581.69	3830.41
582.03	3776.17
582.37	3889.16
582.72	3855.27
583.06	3866.56
583.40	3841.71
583.74	3769.39
584.08	3749.05
584.43	3726.46
584.77	3726.46
585.11	3669.96
585.45	3665.44
585.79	3595.39
586.13	3656.40
586.48	3627.02
586.82	3611.20
587.16	3536.63
587.50	3554.71
587.84	3466.58
588.18	3468.84
588.53	3566.01
588.87	3340.03
589.21	3489.17
589.55	3401.04
589.89	3453.02
590.23	3432.68
590.57	3333.25
590.92	3437.20
591.26	3326.47
591.60	3423.64
591.94	3276.75
592.28	3224.77
592.62	3333.25
592.96	3227.03
593.30	3351.32
593.64	3317.43
593.98	3272.23
594.32	3129.86
594.67	3283.53
595.01	3251.89
595.35	3276.75
595.69	3109.52
596.03	3098.22
596.37	3161.50
596.71	3075.63
597.05	3077.89
597.39	3107.26
597.73	2985.23
598.07	3023.65
598.41	2944.56
598.75	2908.40
599.09	2964.89
599.43	2888.06
599.77	2924.22
600.11	2989.75
600.45	2933.26
600.79	2845.12
601.13	2745.69
601.47	2883.54
601.81	2842.86
602.15	2779.59
602.49	2806.71
602.83	2671.12
603.17	2754.73
603.51	2738.91
603.85	2851.90
604.19	2738.91
604.53	2655.30
604.87	2682.42
605.21	2709.53
605.55	2634.96
605.89	2698.23
606.23	2569.42
606.56	2528.75
606.90	2598.80
607.24	2598.80
607.58	2508.41
607.92	2533.27
608.26	2467.73
608.60	2614.62
608.94	2558.12
609.28	2585.24
609.62	2479.03
609.95	2411.24
610.29	2445.13
610.63	2481.29
610.97	2393.16
611.31	2393.16
611.65	2399.94
611.99	2372.82
612.33	2422.54
612.66	2363.78
613.00	2336.66
613.34	2318.58
613.68	2284.69
614.02	2336.66
614.36	2368.30
614.69	2255.31
615.03	2173.95
615.37	2286.95
615.71	2264.35
616.05	2329.88
616.38	2268.87
616.72	2248.53
617.06	2212.37
617.40	2246.27
617.74	2225.93
618.07	2214.63
618.41	2212.37
618.75	2198.81
619.09	2171.69
619.42	2180.73
619.76	2121.98
620.10	2162.66
620.44	2036.10
620.77	2072.26
621.11	2088.08
621.45	2094.86
621.79	2065.48
622.12	2047.40
622.46	2045.14
622.80	2067.74
623.13	2013.51
623.47	2115.20
623.81	1984.13
624.15	2015.77
624.48	2090.34
624.82	1999.95
625.16	2094.86
625.49	2020.29
625.83	1986.39
626.17	1972.83
626.50	1968.31
626.84	2013.51
627.18	1984.13
627.51	1961.53
627.85	1966.05
628.19	1873.40
628.52	1914.07
628.86	1900.52
629.20	1875.66
629.53	1988.65
629.87	1839.50
630.20	1907.29
630.54	1846.28
630.88	1875.66
631.21	1886.96
631.55	1787.52
631.89	1896.00
632.22	1823.68
632.56	1796.56
632.89	1778.48
633.23	1816.90
633.56	1821.42
633.90	1742.33
634.24	1814.64
634.57	1758.15
634.91	1796.56
635.24	1692.61
635.58	1794.30
635.91	1816.90
636.25	1667.75
636.58	1685.83
636.92	1658.71
637.26	1715.21
637.59	1742.33
637.93	1708.43
638.26	1692.61
638.60	1690.35
638.93	1706.17
639.27	1712.95
639.60	1735.55
639.94	1676.79
640.27	1613.52
640.61	1749.11
640.94	1735.55
641.28	1688.09
641.61	1595.44
641.94	1658.71
642.28	1602.22
642.61	1590.92
642.95	1559.28
643.28	1584.14
643.62	1586.40
643.95	1615.78
644.29	1584.14
644.62	1638.38
644.95	1633.86
645.29	1579.62
645.62	1631.60
645.96	1604.48
646.29	1505.05
646.63	1541.20
646.96	1572.84
647.29	1557.02
647.63	1545.72
647.96	1581.88
648.29	1627.08
648.63	1545.72
648.96	1493.75
649.30	1498.27
649.63	1572.84
649.96	1547.98
650.30	1527.64
650.63	1441.77
650.96	1477.93
651.30	1525.38
651.63	1491.49
651.96	1493.75
652.30	1493.75
652.63	1475.67
652.96	1432.73
653.30	1491.49
653.63	1547.98
653.96	1439.51
654.30	1473.41
654.63	1509.56
654.96	1450.81
655.29	1389.79
655.63	1471.15
655.96	1450.81
656.29	1385.27
656.63	1389.79
656.96	1421.43
657.29	1459.85
657.62	1441.77
657.96	1430.47
658.29	1346.86
658.62	1446.29
658.95	1407.87
659.29	1430.47
659.62	1358.16
659.95	1378.49
660.28	1373.98
660.61	1405.61
660.95	1389.79
661.28	1322.00
661.61	1335.56
661.94	1423.69
662.27	1342.34
662.61	1326.52
662.94	1351.38
663.27	1392.05
663.60	1292.62
663.93	1251.94
664.27	1355.90
664.60	1346.86
664.93	1389.79
665.26	1342.34
665.59	1310.70
665.92	1326.52
666.25	1387.53
666.59	1310.70
666.92	1322.00
667.25	1337.82
667.58	1315.22
667.91	1335.56
668.24	1301.66
668.57	1285.84
668.90	1328.78
669.23	1294.88
669.57	1288.10
669.90	1236.13
670.23	1276.80
670.56	1263.24
670.89	1294.88
671.22	1355.90
671.55	1324.26
671.88	1310.70
672.21	1299.40
672.54	1279.06
672.87	1265.50
673.20	1306.18
673.53	1317.48
673.86	1238.39
674.19	1301.66
674.52	1301.66
674.85	1227.09
675.18	1231.61
675.51	1297.14
675.84	1285.84
676.17	1233.87
676.50	1224.83
676.83	1172.85
677.16	1206.75
677.49	1270.02
677.82	1279.06
678.15	1215.79
678.48	1211.27
678.81	1247.42
679.14	1215.79
679.47	1197.71
679.80	1283.58
680.13	1220.31
680.46	1179.63
680.79	1213.53
681.12	1236.13
681.45	1238.39
681.78	1193.19
682.11	1186.41
682.44	1147.99
682.77	1213.53
683.09	1197.71
683.42	1181.89
683.75	1168.33
684.08	1168.33
684.41	1154.77
684.74	1147.99
685.07	1186.41
685.40	1143.47
685.72	1138.95
686.05	1120.87
686.38	1184.15
686.71	1202.23
687.04	1197.71
687.37	1254.20
687.70	1111.84
688.02	1109.58
688.35	1166.07
688.68	1138.95
689.01	1166.07
689.34	1172.85
689.67	1224.83
689.99	1159.29
690.32	1168.33
690.65	1145.73
690.98	1134.43
691.30	1163.81
691.63	1138.95
691.96	1206.75
692.29	1143.47
692.62	1177.37
692.94	1163.81
693.27	1134.43
693.60	1197.71
693.93	1181.89
694.25	1186.41
694.58	1161.55
694.91	1177.37
695.24	1179.63
695.56	1111.84
695.89	1157.03
696.22	1138.95
696.54	1170.59
696.87	1209.01
697.20	1116.35
697.53	1084.72
697.85	1132.17
698.18	1159.29
698.51	1127.65
698.83	1141.21
699.16	1132.17
699.49	1150.25
699.81	1068.90
700.14	1141.21
700.47	1096.02
700.79	1105.06
701.12	1075.68
701.45	1089.24
701.77	1175.11
702.10	1154.77
702.42	1166.07
702.75	1105.06
703.08	1107.32
703.40	1120.87
703.73	1116.35
704.05	1143.47
704.38	1111.84
704.71	1096.02
705.03	1098.28
705.36	1109.58
705.68	1147.99
706.01	1077.94
706.34	1111.84
706.66	1096.02
706.99	1184.15
707.31	1089.24
707.64	1138.95
707.96	1138.95
708.29	1044.04
708.61	1127.65
708.94	1129.91
709.26	1093.76
709.59	1050.82
709.92	1089.24
710.24	1096.02
710.57	1105.06
710.89	1071.16
711.22	1064.38
711.54	1077.94
711.87	1064.38
712.19	1066.64
712.51	1089.24
712.84	1125.39
713.16	1134.43
713.49	1093.76
713.81	1057.60
714.14	1066.64
714.46	1123.13
714.79	1109.58
715.11	1071.16
715.44	985.28
715.76	1077.94
716.08	1098.28
716.41	1035.00
716.73	1141.21
717.06	1116.35
717.38	1064.38
717.70	1093.76
718.03	1057.60
718.35	1019.18
718.68	1138.95
719.00	1089.24
719.32	1098.28
719.65	1019.18
719.97	1125.39
720.29	1132.17
720.62	1068.90
720.94	1035.00
721.27	1044.04
721.59	1111.84
721.91	1120.87
722.24	1068.90
722.56	1116.35
722.88	1111.84
723.21	1089.24
723.53	1084.72
723.85	1001.10
724.17	1068.90
724.50	1089.24
724.82	1120.87
725.14	1053.08
725.47	1147.99
725.79	1046.30
726.11	1102.80
726.43	1096.02
726.76	1041.78
727.08	1073.42
727.40	1046.30
727.72	1080.20
728.05	1044.04
728.37	1050.82
728.69	1044.04
729.01	1016.92
729.34	1089.24
729.66	1132.17
729.98	1030.48
730.30	1084.72
730.62	1005.62
730.95	1066.64
731.27	1046.30
731.59	1055.34
731.91	1132.17
732.23	1075.68
732.56	1005.62
732.88	1035.00
733.20	1073.42
733.52	1059.86
733.84	1044.04
734.16	1068.90
734.49	1023.70
734.81	1100.54
735.13	1037.26
735.45	1143.47
735.77	1057.60
736.09	1053.08
736.41	1086.98
736.73	1123.13
737.06	1048.56
737.38	1102.80
737.70	1075.68
738.02	1080.20
738.34	1157.03
738.66	1014.66
738.98	1021.44
739.30	1080.20
739.62	1086.98
739.94	1105.06
740.26	1100.54
740.58	1082.46
740.90	1025.96
741.23	1003.36
741.55	1057.60
741.87	1080.20
742.19	1044.04
742.51	983.02
742.83	1073.42
743.15	1107.32
743.47	1071.16
743.79	1141.21
744.11	1062.12
744.43	1075.68
744.75	1068.90
745.07	1016.92
745.39	1068.90
745.71	976.25
746.03	1025.96
746.35	1084.72
746.67	1109.58
746.98	1025.96
747.30	1093.76
747.62	1093.76
747.94	1062.12
748.26	1048.56
748.58	1016.92
748.90	1057.60
749.22	1053.08
749.54	1012.40
749.86	1041.78
750.18	1041.78
750.50	1030.48
750.82	1035.00
751.13	1025.96
751.45	1048.56
751.77	1039.52
752.09	1023.70
752.41	1055.34
752.73	1077.94
753.05	1102.80
753.36	1064.38
753.68	1023.70
754.00	1035.00
754.32	1032.74
754.64	998.84
754.96	1107.32
755.28	1062.12
755.59	1062.12
755.91	1075.68
756.23	1082.46
756.55	1039.52
756.87	1023.70
757.18	1062.12
757.50	1046.30
757.82	1046.30
758.14	1059.86
758.45	987.54
758.77	1019.18
759.09	1010.14
759.41	1039.52
759.73	1030.48
760.04	1044.04
760.36	1037.26
760.68	1062.12
760.99	1023.70
761.31	1021.44
761.63	1039.52
761.95	994.32
762.26	1039.52
762.58	1035.00
762.90	1120.87
763.21	1039.52
763.53	1118.61
763.85	1019.18
764.17	1080.20
764.48	1064.38
764.80	1075.68
765.12	1028.22
765.43	1062.12
765.75	1019.18
766.07	1032.74
766.38	1057.60
766.70	1007.88
767.01	978.51
767.33	1039.52
767.65	1071.16
767.96	1016.92
768.28	1028.22
768.60	1068.90
768.91	994.32
769.23	1048.56
769.54	1066.64
769.86	1039.52
770.18	1114.10
770.49	1062.12
770.81	955.91
771.12	996.58
771.44	1021.44
771.75	1048.56
772.07	1035.00
772.38	1064.38
772.70	1019.18
773.02	1109.58
773.33	996.58
773.65	1019.18
773.96	1046.30
774.28	1084.72
774.59	1010.14
774.91	1066.64
775.22	1053.08
775.54	987.54
775.85	1053.08
776.17	1030.48
776.48	1037.26
776.80	1102.80
777.11	994.32
777.43	1001.10
777.74	1050.82
778.05	1023.70
778.37	1071.16
778.68	1064.38
779.00	1111.84
779.31	1053.08
779.63	973.99
779.94	1016.92
780.26	1091.50
780.57	1041.78
780.88	1028.22
781.20	1030.48
781.51	1098.28
781.83	1001.10
782.14	1089.24
782.45	1025.96
782.77	964.95
783.08	1041.78
783.39	1044.04
783.71	1035.00
784.02	1021.44
784.34	1001.10
784.65	1039.52
784.96	1053.08
785.28	1039.52
785.59	1086.98
785.90	980.77
786.22	994.32
786.53	1019.18
786.84	1007.88
787.15	1053.08
787.47	1044.04
787.78	1050.82
788.09	1062.12
788.41	1025.96
788.72	1041.78
789.03	1016.92
789.35	1055.34
789.66	1016.92
789.97	1055.34
790.28	1068.90
790.60	953.65
790.91	1041.78
791.22	1012.40
791.53	964.95
791.84	1053.08
792.16	1048.56
792.47	1039.52
792.78	1037.26
793.09	1041.78
793.41	1028.22
793.72	1048.56
794.03	1068.90
794.34	1046.30
794.65	1091.50
794.96	987.54
795.28	1057.60
795.59	1064.38
795.90	1014.66
796.21	1019.18
796.52	1019.18
796.83	1028.22
797.15	1035.00
797.46	992.06
797.77	971.73
798.08	1077.94
798.39	980.77
798.70	1080.20
799.01	1025.96
799.32	1050.82
799.63	1010.14
799.95	1050.82
800.26	1041.78
800.57	1039.52
800.88	992.06
801.19	1037.26
801.50	1055.34
801.81	1037.26
802.12	1062.12
802.43	1077.94
802.74	1046.30
803.05	1037.26
803.36	1037.26
803.67	1003.36
803.98	1021.44
804.29	992.06
804.60	1039.52
804.91	1041.78
805.22	1044.04
805.53	1059.86
805.84	1041.78
806.15	1012.40
806.46	1030.48
806.77	1059.86
807.08	1066.64
807.39	1046.30
807.70	1048.56
808.01	1023.70
808.32	1091.50
808.63	1012.40
808.94	994.32
809.25	1010.14
809.56	1001.10
809.87	1023.70
810.18	998.84
810.49	1039.52
810.79	1046.30
811.10	1091.50
811.41	1053.08
811.72	1035.00
812.03	960.43
812.34	1028.22
812.65	1116.35
812.96	1003.36
813.27	1039.52
813.57	1010.14
813.88	1055.34
814.19	1032.74
814.50	1048.56
814.81	1066.64
815.12	1023.70
815.42	1021.44
815.73	1077.94
816.04	1062.12
816.35	1032.74
816.66	1012.40
816.97	1073.42
817.27	1012.40
817.58	1025.96
817.89	1032.74
818.20	1005.62
818.50	1032.74
818.81	1082.46
819.12	1068.90
819.43	1075.68
819.73	1030.48
820.04	1066.64
820.35	1068.90
820.66	1089.24
820.96	1050.82
821.27	1025.96
821.58	1046.30
821.89	994.32
822.19	1093.76
822.50	964.95
822.81	1025.96
823.11	1032.74
823.42	1044.04
823.73	1014.66
824.03	1016.92
824.34	1050.82
824.65	1077.94
824.95	1048.56
825.26	998.84
825.57	1003.36
825.87	1014.66
826.18	1037.26
826.49	996.58
826.79	985.28
827.10	1032.74
827.40	1055.34
827.71	1037.26
828.02	1057.60
828.32	998.84
828.63	1046.30
828.93	1030.48
829.24	1046.30
829.55	1035.00
829.85	1019.18
830.16	1044.04
830.46	987.54
830.77	1089.24
831.07	1116.35
831.38	1050.82
831.69	1041.78
831.99	1007.88
832.30	983.02
832.60	1035.00
832.91	1028.22
833.21	1044.04
833.52	1035.00
833.82	989.80
834.13	1041.78
834.43	1025.96
834.74	1010.14
835.04	985.28
835.35	1053.08
835.65	1041.78
835.96	1059.86
836.26	1025.96
836.56	1062.12
836.87	1068.90
837.17	1057.60
837.48	1068.90
837.78	1053.08
838.09	1010.14
838.39	1037.26
838.69	992.06
839.00	1014.66
839.30	1041.78
839.61	955.91
839.91	1035.00
840.21	1152.51
840.52	1023.70
840.82	1080.20
841.13	992.06
841.43	1014.66
841.73	983.02
842.04	1005.62
842.34	1016.92
842.64	1016.92
842.95	1021.44
843.25	1059.86
843.55	976.25
843.86	1010.14
844.16	1068.90
844.46	1039.52
844.77	1007.88
845.07	1010.14
845.37	1007.88
845.68	1012.40
845.98	987.54
846.28	1044.04
846.58	1007.88
846.89	1025.96
847.19	1050.82
847.49	1075.68
847.79	1028.22
848.10	1021.44
848.40	1028.22
848.70	1021.44
849.00	1046.30
849.31	998.84
849.61	1030.48
849.91	1028.22
850.21	1055.34
850.51	1019.18
850.82	1007.88
851.12	1025.96
851.42	1032.74
851.72	1012.40
852.02	1025.96
852.32	1044.04
852.63	989.80
852.93	996.58
853.23	1007.88
853.53	1025.96
853.83	1111.84
854.13	1077.94
854.43	1041.78
854.74	1021.44
855.04	1046.30
855.34	1025.96
855.64	1075.68
855.94	1035.00
856.24	1048.56
856.54	994.32
856.84	1059.86
857.14	1077.94
857.44	1064.38
857.74	1050.82
858.05	1091.50
858.35	1030.48
858.65	985.28
858.95	1021.44
859.25	1064.38
859.55	1030.48
859.85	1037.26
860.15	1096.02
860.45	1021.44
860.75	1001.10
861.05	978.51
861.35	1030.48
861.65	946.87
861.95	980.77
862.25	1084.72
862.55	1080.20
862.85	1019.18
863.15	1032.74
863.45	994.32
863.75	1032.74
864.05	1028.22
864.35	1068.90
864.64	1066.64
864.94	1025.96
865.24	1016.92
865.54	1050.82
865.84	985.28
866.14	946.87
866.44	1050.82
866.74	996.58
867.04	1037.26
867.34	1046.30
867.64	1039.52
867.93	1037.26
868.23	1053.08
868.53	1003.36
868.83	1019.18
869.13	1044.04
869.43	1028.22
869.73	1019.18
870.02	1082.46
870.32	1046.30
870.62	1044.04
870.92	987.54
871.22	1059.86
871.51	987.54
871.81	998.84
872.11	1025.96
872.41	1025.96
872.71	1012.40
873.00	985.28
873.30	1066.64
873.60	1010.14
873.90	1077.94
874.19	1057.60
874.49	1055.34
874.79	1082.46
875.09	980.77
875.38	1066.64
875.68	967.21
875.98	1041.78
876.28	1035.00
876.57	1048.56
876.87	1048.56
877.17	1048.56
