300.47	2632.00
301.26	2626.00
302.04	2631.00
302.82	2629.00
303.60	2633.00
304.38	2633.00
305.17	2631.00
305.95	2628.00
306.73	2629.00
307.51	2631.00
308.29	2630.00
309.08	2632.00
309.86	2628.00
310.64	2630.00
311.42	2630.00
312.20	2630.00
312.98	2632.00
313.76	2628.00
314.55	2626.00
315.33	2628.00
316.11	2628.00
316.89	2624.00
317.67	2630.00
318.45	2637.00
319.23	2629.00
320.01	2635.00
320.79	2635.00
321.57	2633.00
322.35	2630.00
323.13	2632.00
323.91	2633.00
324.69	2637.00
325.47	2637.00
326.25	2638.00
327.03	2632.00
327.81	2625.00
328.59	2640.00
329.37	2640.00
330.15	2642.00
330.93	2635.00
331.71	2630.00
332.49	2633.00
333.27	2632.00
334.05	2635.00
334.83	2639.00
335.61	2643.00
336.39	2636.00
337.17	2634.00
337.95	2644.00
338.73	2641.00
339.51	2651.00
340.29	2650.00
341.07	2647.00
341.84	2647.00
342.62	2644.00
343.40	2647.00
344.18	2652.00
344.96	2652.00
345.74	2660.00
346.52	2661.00
347.29	2663.00
348.07	2664.00
348.85	2666.00
349.63	2673.00
350.41	2675.00
351.18	2675.00
351.96	2682.00
352.74	2684.00
353.52	2688.00
354.30	2694.00
355.07	2688.00
355.85	2704.00
356.63	2710.00
357.41	2708.00
358.18	2715.00
358.96	2721.00
359.74	2729.00
360.52	2732.00
361.29	2739.00
362.07	2740.00
362.85	2746.00
363.62	2754.00
364.40	2765.00
365.18	2766.00
365.95	2784.00
366.73	2784.00
367.51	2789.00
368.28	2798.00
369.06	2815.00
369.84	2817.00
370.61	2825.00
371.39	2835.00
372.17	2849.00
372.94	2849.00
373.72	2867.00
374.49	2879.00
375.27	2896.00
376.05	2889.00
376.82	2911.00
377.60	2927.00
378.37	2947.00
379.15	2955.00
379.92	2967.00
380.70	2987.00
381.47	3000.00
382.25	3020.00
383.02	3029.00
383.80	3041.00
384.58	3064.00
385.35	3092.00
386.13	3098.00
386.90	3119.00
387.67	3134.00
388.45	3157.00
389.22	3179.00
390.00	3193.00
390.77	3212.00
391.55	3238.00
392.32	3263.00
393.10	3287.00
393.87	3304.00
394.65	3319.00
395.42	3352.00
396.19	3378.00
396.97	3402.00
397.74	3435.00
398.52	3441.00
399.29	3465.00
400.06	3491.00
400.84	3517.00
401.61	3544.00
402.38	3564.00
403.16	3594.00
403.93	3621.00
404.70	3645.00
405.48	3680.00
406.25	3689.00
407.02	3723.00
407.80	3746.00
408.57	3783.00
409.34	3813.00
410.12	3843.00
410.89	3861.00
411.66	3903.00
412.43	3917.00
413.21	3968.00
413.98	3981.00
414.75	4004.00
415.52	4044.00
416.30	4085.00
417.07	4106.00
417.84	4139.00
418.61	4188.00
419.39	4209.00
420.16	4233.00
420.93	4281.00
421.70	4281.00
422.47	4325.00
423.24	4374.00
424.02	4422.00
424.79	4458.00
425.56	4483.00
426.33	4542.00
427.10	4571.00
427.87	4627.00
428.64	4641.00
429.42	4689.00
430.19	4755.00
430.96	4797.00
431.73	4837.00
432.50	4880.00
433.27	4934.00
434.04	4966.00
434.81	5024.00
435.58	5093.00
436.35	5127.00
437.12	5193.00
437.89	5229.00
438.67	5313.00
439.44	5366.00
440.21	5430.00
440.98	5485.00
441.75	5530.00
442.52	5593.00
443.29	5660.00
444.06	5709.00
444.83	5790.00
445.60	5873.00
446.37	5914.00
447.13	5992.00
447.90	6063.00
448.67	6128.00
449.44	6206.00
450.21	6285.00
450.98	6360.00
451.75	6436.00
452.52	6516.00
453.29	6613.00
454.06	6696.00
454.83	6775.00
455.60	6851.00
456.37	6938.00
457.13	7002.00
457.90	7123.00
458.67	7189.00
459.44	7300.00
460.21	7417.00
460.98	7486.00
461.75	7587.00
462.51	7701.00
463.28	7828.00
464.05	7892.00
464.82	7990.00
465.59	8114.00
466.35	8180.00
467.12	8296.00
467.89	8430.00
468.66	8509.00
469.43	8612.00
470.19	8738.00
470.96	8844.00
471.73	8932.00
472.50	9059.00
473.26	9194.00
474.03	9309.00
474.80	9422.00
475.56	9531.00
476.33	9655.00
477.10	9768.00
477.87	9898.00
478.63	10037.00
479.40	10134.00
480.17	10294.00
480.93	10423.00
481.70	10556.00
482.47	10683.00
483.23	10795.00
484.00	10957.00
484.76	11098.00
485.53	11256.00
486.30	11400.00
487.06	11520.00
487.83	11669.00
488.60	11829.00
489.36	11974.00
490.13	12109.00
490.89	12253.00
491.66	12390.00
492.42	12568.00
493.19	12717.00
493.96	12857.00
494.72	13007.00
495.49	13143.00
496.25	13293.00
497.02	13463.00
497.78	13591.00
498.55	13751.00
499.31	13902.00
500.08	14058.00
500.84	14180.00
501.61	14345.00
502.37	14549.00
503.14	14703.00
503.90	14871.00
504.67	15057.00
505.43	15213.00
506.20	15394.00
506.96	15578.00
507.72	15777.00
508.49	15924.00
509.25	16128.00
510.02	16317.00
510.78	16464.00
511.54	16696.00
512.31	16896.00
513.07	17038.00
513.84	17182.00
514.60	17405.00
515.36	17559.00
516.13	17711.00
516.89	17897.00
517.65	18017.00
518.42	18156.00
519.18	18353.00
519.94	18561.00
520.71	18746.00
521.47	18870.00
522.23	19058.00
523.00	19329.00
523.76	19457.00
524.52	19723.00
525.28	19866.00
526.05	20033.00
526.81	20264.00
527.57	20478.00
528.33	20642.00
529.10	20823.00
529.86	21044.00
530.62	21259.00
531.38	21387.00
532.15	21593.00
532.91	21762.00
533.67	21901.00
534.43	22083.00
535.19	22297.00
535.96	22524.00
536.72	22692.00
537.48	22859.00
538.24	23005.00
539.00	23268.00
539.76	23491.00
540.53	23797.00
541.29	23982.00
542.05	24171.00
542.81	24391.00
543.57	24576.00
544.33	24778.00
545.09	24991.00
545.85	25273.00
546.61	25387.00
547.38	25508.00
548.14	25682.00
548.90	25909.00
549.66	26178.00
550.42	26388.00
551.18	26686.00
551.94	26870.00
552.70	27045.00
553.46	27165.00
554.22	27386.00
554.98	27644.00
555.74	27766.00
556.50	27989.00
557.26	28220.00
558.02	28517.00
558.78	28736.00
559.54	28890.00
560.30	29035.00
561.06	29277.00
561.82	29474.00
562.58	29820.00
563.34	30040.00
564.10	30140.00
564.86	30375.00
565.61	30629.00
566.37	30891.00
567.13	31146.00
567.89	31254.00
568.65	31460.00
569.41	31716.00
570.17	31918.00
570.93	32084.00
571.69	32299.00
572.44	32486.00
573.20	32725.00
573.96	32897.00
574.72	33109.00
575.48	33329.00
576.24	33521.00
576.99	33787.00
577.75	33985.00
578.51	34284.00
579.27	34490.00
580.03	34645.00
580.78	34910.00
581.54	35119.00
582.30	35408.00
583.06	35466.00
583.82	35620.00
584.57	35920.00
585.33	36156.00
586.09	36267.00
586.84	36506.00
587.60	36533.00
588.36	36698.00
589.12	36837.00
589.87	37125.00
590.63	37338.00
591.39	37634.00
592.14	37788.00
592.90	37918.00
593.66	38196.00
594.41	38405.00
595.17	38708.00
595.93	38807.00
596.68	38838.00
597.44	39079.00
598.20	39367.00
598.95	39664.00
599.71	39853.00
600.46	40054.00
601.22	40104.00
601.98	40345.00
602.73	40761.00
603.49	41066.00
604.24	41246.00
605.00	41419.00
605.76	41536.00
606.51	41777.00
607.27	41983.00
608.02	42218.00
608.78	42583.00
609.53	42745.00
610.29	42821.00
611.04	43165.00
611.80	43430.00
612.55	43706.00
613.31	43923.00
614.06	44234.00
614.82	44443.00
615.57	44620.00
616.33	44876.00
617.08	45050.00
617.84	45247.00
618.59	45306.00
619.35	45228.00
620.10	45261.00
620.85	45211.00
621.61	45326.00
622.36	45356.00
623.12	45499.00
623.87	45455.00
624.62	45671.00
625.38	45828.00
626.13	45910.00
626.89	46275.00
627.64	46342.00
628.39	46387.00
629.15	46402.00
629.90	46375.00
630.65	46435.00
631.41	46516.00
632.16	46496.00
632.91	46531.00
633.67	46557.00
634.42	46605.00
635.17	46890.00
635.92	47210.00
636.68	47845.00
637.43	48424.00
638.18	49040.00
638.94	49401.00
639.69	49755.00
640.44	50226.00
641.19	50695.00
641.95	51204.00
642.70	51534.00
643.45	51682.00
644.20	51988.00
644.95	52031.00
645.71	52141.00
646.46	52353.00
647.21	52513.00
647.96	52621.00
648.71	52722.00
649.47	53009.00
650.22	53017.00
650.97	53244.00
651.72	53281.00
652.47	53467.00
653.22	53529.00
653.97	53874.00
654.73	53972.00
655.48	54140.00
656.23	54464.00
656.98	54588.00
657.73	54895.00
658.48	54916.00
659.23	54904.00
659.98	54905.00
660.73	54937.00
661.48	55102.00
662.23	55238.00
662.99	55229.00
663.74	55339.00
664.49	55564.00
665.24	56153.00
665.99	56579.00
666.74	56695.00
667.49	56634.00
668.24	56741.00
668.99	56853.00
669.74	57096.00
670.49	57303.00
671.24	57444.00
671.99	57621.00
672.74	57814.00
673.48	57944.00
674.23	57926.00
674.98	58062.00
675.73	58126.00
676.48	58332.00
677.23	58380.00
677.98	58390.00
678.73	58362.00
679.48	58440.00
680.23	58579.00
680.98	58539.00
681.73	58526.00
682.47	58678.00
683.22	58578.00
683.97	58713.00
684.72	58811.00
685.47	58844.00
686.22	59014.00
686.97	59159.00
687.71	59522.00
688.46	59642.00
689.21	59672.00
689.96	59696.00
690.71	59722.00
691.45	59793.00
692.20	59855.00
692.95	59824.00
693.70	59873.00
694.44	59912.00
695.19	60055.00
695.94	60285.00
696.69	60338.00
697.43	60364.00
698.18	60419.00
698.93	60542.00
699.68	60570.00
700.42	60587.00
701.17	60705.00
701.92	60694.00
702.66	60856.00
703.41	60872.00
704.16	60908.00
704.90	60953.00
705.65	60930.00
706.40	60839.00
707.14	60937.00
707.89	60975.00
708.64	60981.00
709.38	61068.00
710.13	61203.00
710.88	61173.00
711.62	61257.00
712.37	61398.00
713.11	61351.00
713.86	61395.00
714.61	61355.00
715.35	61195.00
716.10	61031.00
716.84	60895.00
717.59	60766.00
718.33	60486.00
719.08	60508.00
719.83	60382.00
720.57	60383.00
721.32	60259.00
722.06	60221.00
722.81	60070.00
723.55	60015.00
724.30	60082.00
725.04	60189.00
725.79	60202.00
726.53	60179.00
727.28	60199.00
728.02	60189.00
728.76	60293.00
729.51	60408.00
730.25	60548.00
731.00	60506.00
731.74	60379.00
732.49	60355.00
733.23	60325.00
733.97	60137.00
734.72	60051.00
735.46	59988.00
736.21	60003.00
736.95	60029.00
737.69	60038.00
738.44	60217.00
739.18	60276.00
739.92	60380.00
740.67	60477.00
741.41	60407.00
742.15	60598.00
742.90	60780.00
743.64	60942.00
744.38	60837.00
745.13	60738.00
745.87	60781.00
746.61	60797.00
747.36	60820.00
748.10	60755.00
748.84	60876.00
749.58	60704.00
750.33	60733.00
751.07	60658.00
751.81	60492.00
752.55	60360.00
753.30	60324.00
754.04	60220.00
754.78	59959.00
755.52	59772.00
756.27	59539.00
757.01	59455.00
757.75	59652.00
758.49	59619.00
759.23	59535.00
759.97	59493.00
760.72	59564.00
761.46	59498.00
762.20	59564.00
762.94	59523.00
763.68	59486.00
764.42	59329.00
765.16	59344.00
765.91	59343.00
766.65	59422.00
767.39	59325.00
768.13	59153.00
768.87	59244.00
769.61	59192.00
770.35	59045.00
771.09	58832.00
771.83	58650.00
772.57	58623.00
773.31	58705.00
774.05	58675.00
774.80	58710.00
775.54	58687.00
776.28	58606.00
777.02	58513.00
777.76	58472.00
778.50	58272.00
779.24	57961.00
779.98	57716.00
780.72	57682.00
781.46	57529.00
782.20	57554.00
782.93	57417.00
783.67	57299.00
784.41	57121.00
785.15	57041.00
785.89	56947.00
786.63	56723.00
787.37	56609.00
788.11	56237.00
788.85	56230.00
789.59	56205.00
790.33	56153.00
791.07	56237.00
791.81	56070.00
792.54	55894.00
793.28	55700.00
794.02	55440.00
794.76	55163.00
795.50	54897.00
796.24	54662.00
796.97	54431.00
797.71	54021.00
798.45	53886.00
799.19	53777.00
799.93	53695.00
800.67	53659.00
801.40	53618.00
802.14	53712.00
802.88	53816.00
803.62	53914.00
804.35	53778.00
805.09	53710.00
805.83	53557.00
806.57	53348.00
807.30	53333.00
808.04	53276.00
808.78	53209.00
809.52	52778.00
810.25	52573.00
810.99	52289.00
811.73	52244.00
812.46	52178.00
813.20	52169.00
813.94	52141.00
814.68	52021.00
815.41	51866.00
816.15	51761.00
816.88	51953.00
817.62	51884.00
818.36	51744.00
819.09	51472.00
819.83	51264.00
820.57	51102.00
821.30	51007.00
822.04	50962.00
822.77	50757.00
823.51	50559.00
824.25	50510.00
824.98	50406.00
825.72	50280.00
826.45	50201.00
827.19	49965.00
827.92	49782.00
828.66	49415.00
829.40	49189.00
830.13	49229.00
830.87	49183.00
831.60	49073.00
832.34	48953.00
833.07	48903.00
833.81	48875.00
834.54	48788.00
835.28	48893.00
836.01	48849.00
836.75	48523.00
837.48	48296.00
838.22	48102.00
838.95	48063.00
839.68	48139.00
840.42	48199.00
841.15	48155.00
841.89	48044.00
842.62	47787.00
843.36	47609.00
844.09	47482.00
844.82	47571.00
845.56	47598.00
846.29	47400.00
847.02	47217.00
847.76	47123.00
848.49	47125.00
849.23	47274.00
849.96	47666.00
850.69	47749.00
851.43	47603.00
852.16	47229.00
852.89	46870.00
853.63	46762.00
854.36	46655.00
855.09	46645.00
855.82	46645.00
856.56	46597.00
857.29	46411.00
858.02	46277.00
858.76	46261.00
859.49	46189.00
860.22	46188.00
860.95	45932.00
861.69	45733.00
862.42	45388.00
863.15	45157.00
863.88	45217.00
864.61	45253.00
865.35	45285.00
866.08	45226.00
866.81	45057.00
867.54	44851.00
868.27	44645.00
869.01	44614.00
869.74	44576.00
870.47	44428.00
871.20	44292.00
871.93	44048.00
872.66	43868.00
873.40	43681.00
874.13	43520.00
874.86	43234.00
875.59	43177.00
876.32	43065.00
877.05	42987.00
877.78	42973.00
878.51	42644.00
879.24	42490.00
879.97	42267.00
880.71	42134.00
881.44	41946.00
882.17	41830.00
882.90	41630.00
883.63	41518.00
884.36	41512.00
885.09	41628.00
885.82	41757.00
886.55	41780.00
887.28	41800.00
888.01	41799.00
888.74	41615.00
889.47	41310.00
890.20	41020.00
890.93	40653.00
891.66	40433.00
892.39	40373.00
893.12	40313.00
893.85	40408.00
894.57	40363.00
895.30	40335.00
896.03	40258.00
896.76	40232.00
897.49	40064.00
898.22	40023.00
898.95	39693.00
899.68	39544.00
900.41	39384.00
901.14	39077.00
901.86	38958.00
902.59	38985.00
903.32	38879.00
904.05	38883.00
904.78	38755.00
905.51	38639.00
906.24	38596.00
906.96	38434.00
907.69	38265.00
908.42	37956.00
909.15	37843.00
909.88	37651.00
910.60	37417.00
911.33	37182.00
912.06	37005.00
912.79	36813.00
913.52	36653.00
914.24	36590.00
914.97	36449.00
915.70	36368.00
916.42	36225.00
917.15	35981.00
917.88	35855.00
918.61	35638.00
919.33	35296.00
920.06	35057.00
920.79	34769.00
921.51	34569.00
922.24	34519.00
922.97	34316.00
923.69	34185.00
924.42	34100.00
925.15	33868.00
925.87	33586.00
926.60	33345.00
927.33	33093.00
928.05	32696.00
928.78	32492.00
929.51	32105.00
930.23	31839.00
930.96	31427.00
931.68	31134.00
932.41	30711.00
933.14	30384.00
933.86	30095.00
934.59	29744.00
935.31	29289.00
936.04	28809.00
936.76	28238.00
937.49	27803.00
938.21	27229.00
938.94	26657.00
939.66	26270.00
940.39	25807.00
941.11	25359.00
941.84	25031.00
942.56	24693.00
943.29	24404.00
944.01	24210.00
944.74	24022.00
945.46	23980.00
946.19	24014.00
946.91	24015.00
947.64	24071.00
948.36	24137.00
949.09	24171.00
949.81	24233.00
950.53	24338.00
951.26	24344.00
951.98	24452.00
952.71	24472.00
953.43	24549.00
954.15	24769.00
954.88	24815.00
955.60	24915.00
956.33	24957.00
957.05	24930.00
957.77	25043.00
958.50	25163.00
959.22	25137.00
959.94	25127.00
960.67	25062.00
961.39	24954.00
962.11	24998.00
962.84	25040.00
963.56	25046.00
964.28	24934.00
965.00	24742.00
965.73	24548.00
966.45	24449.00
967.17	24236.00
967.89	24055.00
968.62	23804.00
969.34	23674.00
970.06	23526.00
970.78	23316.00
971.51	23293.00
972.23	23103.00
972.95	22988.00
973.67	22785.00
974.40	22641.00
975.12	22517.00
975.84	22353.00
976.56	22216.00
977.28	21962.00
978.00	21900.00
978.73	21815.00
979.45	21741.00
980.17	21665.00
980.89	21569.00
981.61	21457.00
982.33	21346.00
983.05	21311.00
983.77	21282.00
984.50	21141.00
985.22	21083.00
985.94	20989.00
986.66	20940.00
987.38	20832.00
988.10	20778.00
988.82	20815.00
989.54	20661.00
990.26	20587.00
990.98	20365.00
991.70	20208.00
992.42	20063.00
993.14	19997.00
993.86	19737.00
994.58	19632.00
995.30	19503.00
996.02	19270.00
996.74	19213.00
997.46	19173.00
998.18	19074.00
998.90	18899.00
999.62	18749.00
1000.34	18665.00
1001.06	18678.00
1001.78	18485.00
1002.50	18361.00
1003.22	18129.00
1003.94	17937.00
1004.66	17829.00
1005.38	17693.00
1006.09	17480.00
1006.81	17338.00
1007.53	17068.00
1008.25	16900.00
1008.97	16806.00
1009.69	16737.00
1010.41	16608.00
1011.13	16424.00
1011.84	16265.00
1012.56	16090.00
1013.28	16002.00
1014.00	15839.00
1014.72	15760.00
1015.44	15504.00
1016.15	15286.00
1016.87	15075.00
1017.59	14901.00
1018.31	14750.00
1019.03	14625.00
1019.74	14539.00
1020.46	14468.00
1021.18	14348.00
1021.90	14226.00
1022.61	14121.00
1023.33	13976.00
1024.05	13822.00
1024.76	13703.00
1025.48	13489.00
1026.20	13231.00
1026.92	13020.00
1027.63	12907.00
1028.35	12746.00
1029.07	12564.00
1029.78	12369.00
1030.50	12244.00
1031.22	12044.00
1031.93	11911.00
1032.65	11833.00
1033.37	11717.00
1034.08	11590.00
1034.80	11500.00
1035.52	11378.00
1036.23	11329.00
1036.95	11218.00
1037.66	11114.00
1038.38	11017.00
1039.10	10783.00
1039.81	10607.00
1040.53	10457.00
1041.24	10286.00
1041.96	10123.00
1042.67	10031.00
1043.39	9956.00
1044.10	9814.00
1044.82	9714.00
1045.54	9590.00
1046.25	9453.00
1046.97	9327.00
1047.68	9217.00
1048.40	9018.00
1049.11	8903.00
1049.83	8747.00
1050.54	8641.00
1051.26	8526.00
1051.97	8442.00
1052.68	8318.00
1053.40	8176.00
1054.11	8086.00
1054.83	7947.00
1055.54	7816.00
1056.26	7727.00
1056.97	7627.00
1057.69	7528.00
1058.40	7446.00
1059.11	7279.00
1059.83	7153.00
1060.54	6998.00
1061.25	6837.00
1061.97	6707.00
1062.68	6573.00
1063.40	6441.00
1064.11	6346.00
1064.82	6181.00
1065.54	6080.00
1066.25	2583.00
1066.96	2576.00
1067.68	2574.00
1068.39	2572.00
1069.10	2630.00
1069.82	2632.00
1070.53	2635.00
1071.24	2631.00
1071.95	2633.00
1072.67	2630.00
1073.38	5934.00
1074.09	5777.00
1074.80	5687.00
1075.52	5572.00
1076.23	5424.00
1076.94	5318.00
1077.65	2562.00
1078.37	2559.00
1079.08	2563.00
1079.79	2565.00
