300.47	2631.00
301.26	2625.00
302.04	2626.00
302.82	2624.00
303.60	2627.00
304.38	2631.00
305.17	2629.00
305.95	2631.00
306.73	2628.00
307.51	2623.00
308.29	2633.00
309.08	2636.00
309.86	2636.00
310.64	2631.00
311.42	2633.00
312.20	2633.00
312.98	2642.00
313.76	2630.00
314.55	2625.00
315.33	2625.00
316.11	2626.00
316.89	2629.00
317.67	2635.00
318.45	2631.00
319.23	2633.00
320.01	2632.00
320.79	2639.00
321.57	2632.00
322.35	2627.00
323.13	2633.00
323.91	2630.00
324.69	2636.00
325.47	2635.00
326.25	2638.00
327.03	2634.00
327.81	2629.00
328.59	2629.00
329.37	2639.00
330.15	2642.00
330.93	2639.00
331.71	2635.00
332.49	2631.00
333.27	2633.00
334.05	2644.00
334.83	2641.00
335.61	2638.00
336.39	2642.00
337.17	2638.00
337.95	2637.00
338.73	2640.00
339.51	2651.00
340.29	2653.00
341.07	2648.00
341.84	2652.00
342.62	2653.00
343.40	2652.00
344.18	2646.00
344.96	2651.00
345.74	2658.00
346.52	2665.00
347.29	2666.00
348.07	2666.00
348.85	2664.00
349.63	2672.00
350.41	2673.00
351.18	2680.00
351.96	2688.00
352.74	2685.00
353.52	2685.00
354.30	2688.00
355.07	2699.00
355.85	2699.00
356.63	2706.00
357.41	2704.00
358.18	2718.00
358.96	2724.00
359.74	2731.00
360.52	2737.00
361.29	2737.00
362.07	2737.00
362.85	2748.00
363.62	2764.00
364.40	2766.00
365.18	2771.00
365.95	2774.00
366.73	2784.00
367.51	2803.00
368.28	2808.00
369.06	2806.00
369.84	2816.00
370.61	2826.00
371.39	2840.00
372.17	2854.00
372.94	2864.00
373.72	2875.00
374.49	2880.00
375.27	2887.00
376.05	2907.00
376.82	2911.00
377.60	2922.00
378.37	2939.00
379.15	2954.00
379.92	2975.00
380.70	2988.00
381.47	3003.00
382.25	3019.00
383.02	3035.00
383.80	3054.00
384.58	3070.00
385.35	3087.00
386.13	3111.00
386.90	3121.00
387.67	3145.00
388.45	3148.00
389.22	3194.00
390.00	3200.00
390.77	3221.00
391.55	3237.00
392.32	3260.00
393.10	3289.00
393.87	3304.00
394.65	3329.00
395.42	3359.00
396.19	3381.00
396.97	3407.00
397.74	3427.00
398.52	3448.00
399.29	3471.00
400.06	3503.00
400.84	3527.00
401.61	3547.00
402.38	3582.00
403.16	3598.00
403.93	3629.00
404.70	3659.00
405.48	3700.00
406.25	3688.00
407.02	3746.00
407.80	3770.00
408.57	3784.00
409.34	3820.00
410.12	3851.00
410.89	3875.00
411.66	3912.00
412.43	3939.00
413.21	3957.00
413.98	3988.00
414.75	4030.00
415.52	4039.00
416.30	4079.00
417.07	4116.00
417.84	4155.00
418.61	4174.00
419.39	4227.00
420.16	4256.00
420.93	4284.00
421.70	4313.00
422.47	4349.00
423.24	4377.00
424.02	4434.00
424.79	4467.00
425.56	4495.00
426.33	4545.00
427.10	4592.00
427.87	4626.00
428.64	4664.00
429.42	4710.00
430.19	4748.00
430.96	4800.00
431.73	4873.00
432.50	4901.00
433.27	4952.00
434.04	5012.00
434.81	5053.00
435.58	5093.00
436.35	5163.00
437.12	5243.00
437.89	5276.00
438.67	5336.00
439.44	5383.00
440.21	5456.00
440.98	5490.00
441.75	5564.00
442.52	5620.00
443.29	5666.00
444.06	5762.00
444.83	5808.00
445.60	5898.00
446.37	5952.00
447.13	6018.00
447.90	6083.00
448.67	6183.00
449.44	6223.00
450.21	6332.00
450.98	6363.00
451.75	6454.00
452.52	6549.00
453.29	6644.00
454.06	6733.00
454.83	6780.00
455.60	6902.00
456.37	6937.00
457.13	7050.00
457.90	7157.00
458.67	7270.00
459.44	7339.00
460.21	7439.00
460.98	7494.00
461.75	7606.00
462.51	7732.00
463.28	7807.00
464.05	7930.00
464.82	8033.00
465.59	8129.00
466.35	8230.00
467.12	8319.00
467.89	8457.00
468.66	8587.00
469.43	8626.00
470.19	8770.00
470.96	8860.00
471.73	8988.00
472.50	9122.00
473.26	9220.00
474.03	9360.00
474.80	9473.00
475.56	9620.00
476.33	9742.00
477.10	9861.00
477.87	9973.00
478.63	10084.00
479.40	10270.00
480.17	10357.00
480.93	10474.00
481.70	10624.00
482.47	10723.00
483.23	10888.00
484.00	11017.00
484.76	11162.00
485.53	11316.00
486.30	11424.00
487.06	11624.00
487.83	11757.00
488.60	11924.00
489.36	12033.00
490.13	12189.00
490.89	12325.00
491.66	12463.00
492.42	12631.00
493.19	12849.00
493.96	12919.00
494.72	13096.00
495.49	13241.00
496.25	13380.00
497.02	13550.00
497.78	13751.00
498.55	13880.00
499.31	13973.00
500.08	14115.00
500.84	14273.00
501.61	14421.00
502.37	14612.00
503.14	14809.00
503.90	14960.00
504.67	15106.00
505.43	15332.00
506.20	15489.00
506.96	15674.00
507.72	15866.00
508.49	16119.00
509.25	16296.00
510.02	16405.00
510.78	16605.00
511.54	16862.00
512.31	17024.00
513.07	17188.00
513.84	17335.00
514.60	17545.00
515.36	17729.00
516.13	17857.00
516.89	17987.00
517.65	18152.00
518.42	18293.00
519.18	18464.00
519.94	18631.00
520.71	18910.00
521.47	19033.00
522.23	19216.00
523.00	19450.00
523.76	19632.00
524.52	19869.00
525.28	20037.00
526.05	20230.00
526.81	20469.00
527.57	20666.00
528.33	20795.00
529.10	20991.00
529.86	21222.00
530.62	21366.00
531.38	21580.00
532.15	21790.00
532.91	21931.00
533.67	22109.00
534.43	22291.00
535.19	22528.00
535.96	22696.00
536.72	22835.00
537.48	22922.00
538.24	23260.00
539.00	23445.00
539.76	23704.00
540.53	24028.00
541.29	24188.00
542.05	24363.00
542.81	24576.00
543.57	24769.00
544.33	25012.00
545.09	25243.00
545.85	25544.00
546.61	25581.00
547.38	25745.00
548.14	25997.00
548.90	26175.00
549.66	26389.00
550.42	26619.00
551.18	26822.00
551.94	27063.00
552.70	27252.00
553.46	27471.00
554.22	27648.00
554.98	27954.00
555.74	28070.00
556.50	28249.00
557.26	28452.00
558.02	28710.00
558.78	28987.00
559.54	29090.00
560.30	29292.00
561.06	29565.00
561.82	29747.00
562.58	30004.00
563.34	30295.00
564.10	30441.00
564.86	30679.00
565.61	30940.00
566.37	31223.00
567.13	31355.00
567.89	31578.00
568.65	31769.00
569.41	32028.00
570.17	32184.00
570.93	32363.00
571.69	32556.00
572.44	32768.00
573.20	33044.00
573.96	33197.00
574.72	33407.00
575.48	33638.00
576.24	33888.00
576.99	34077.00
577.75	34309.00
578.51	34611.00
579.27	34773.00
580.03	34888.00
580.78	35227.00
581.54	35452.00
582.30	35680.00
583.06	35841.00
583.82	36004.00
584.57	36178.00
585.33	36387.00
586.09	36654.00
586.84	36824.00
587.60	36891.00
588.36	36969.00
589.12	37166.00
589.87	37446.00
590.63	37718.00
591.39	37867.00
592.14	38101.00
592.90	38321.00
593.66	38539.00
594.41	38793.00
595.17	39077.00
595.93	39149.00
596.68	39275.00
597.44	39404.00
598.20	39661.00
598.95	40045.00
599.71	40222.00
600.46	40387.00
601.22	40395.00
601.98	40750.00
602.73	41140.00
603.49	41424.00
604.24	41657.00
605.00	41771.00
605.76	41977.00
606.51	42172.00
607.27	42348.00
608.02	42685.00
608.78	42919.00
609.53	43207.00
610.29	43192.00
611.04	43580.00
611.80	43825.00
612.55	44129.00
613.31	44402.00
614.06	44628.00
614.82	44810.00
615.57	45039.00
616.33	45296.00
617.08	45431.00
617.84	45631.00
618.59	45778.00
619.35	45705.00
620.10	45711.00
620.85	45692.00
621.61	45775.00
622.36	45817.00
623.12	45844.00
623.87	45992.00
624.62	46033.00
625.38	46250.00
626.13	46495.00
626.89	46670.00
627.64	46762.00
628.39	46862.00
629.15	46849.00
629.90	46896.00
630.65	46955.00
631.41	46901.00
632.16	46903.00
632.91	46936.00
633.67	47012.00
634.42	47082.00
635.17	47247.00
635.92	47761.00
636.68	48257.00
637.43	48876.00
638.18	49405.00
638.94	49929.00
639.69	50339.00
640.44	50722.00
641.19	51259.00
641.95	51659.00
642.70	51943.00
643.45	52193.00
644.20	52400.00
644.95	52630.00
645.71	52762.00
646.46	52917.00
647.21	53026.00
647.96	53167.00
648.71	53260.00
649.47	53482.00
650.22	53567.00
650.97	53641.00
651.72	53835.00
652.47	54009.00
653.22	54130.00
653.97	54353.00
654.73	54518.00
655.48	54614.00
656.23	54803.00
656.98	55150.00
657.73	55508.00
658.48	55446.00
659.23	55387.00
659.98	55417.00
660.73	55506.00
661.48	55481.00
662.23	55637.00
662.99	55754.00
663.74	55819.00
664.49	56190.00
665.24	56605.00
665.99	57107.00
666.74	57199.00
667.49	57288.00
668.24	57278.00
668.99	57394.00
669.74	57683.00
670.49	57880.00
671.24	57944.00
671.99	58194.00
672.74	58306.00
673.48	58475.00
674.23	58571.00
674.98	58605.00
675.73	58715.00
676.48	58867.00
677.23	58840.00
677.98	58953.00
678.73	58961.00
679.48	59015.00
680.23	59070.00
680.98	59170.00
681.73	59078.00
682.47	59121.00
683.22	59109.00
683.97	59240.00
684.72	59412.00
685.47	59234.00
686.22	59511.00
686.97	59730.00
687.71	60009.00
688.46	60163.00
689.21	60218.00
689.96	60164.00
690.71	60235.00
691.45	60372.00
692.20	60242.00
692.95	60325.00
693.70	60509.00
694.44	60539.00
695.19	60630.00
695.94	60787.00
696.69	60886.00
697.43	60898.00
698.18	60897.00
698.93	60996.00
699.68	61204.00
700.42	61198.00
701.17	61165.00
701.92	61215.00
702.66	61473.00
703.41	61504.00
704.16	61441.00
704.90	61422.00
705.65	61492.00
706.40	61377.00
707.14	61446.00
707.89	61578.00
708.64	61595.00
709.38	61631.00
710.13	61693.00
710.88	61794.00
711.62	61921.00
712.37	61747.00
713.11	61857.00
713.86	61958.00
714.61	61852.00
715.35	61754.00
716.10	61628.00
716.84	61550.00
717.59	61304.00
718.33	61033.00
719.08	60992.00
719.83	60968.00
720.57	60880.00
721.32	60824.00
722.06	60828.00
722.81	60644.00
723.55	60601.00
724.30	60612.00
725.04	60717.00
725.79	60821.00
726.53	60691.00
727.28	60654.00
728.02	60693.00
728.76	60825.00
729.51	61011.00
730.25	61067.00
731.00	61108.00
731.74	60851.00
732.49	60894.00
733.23	60749.00
733.97	60680.00
734.72	60552.00
735.46	60558.00
736.21	60578.00
736.95	60558.00
737.69	60654.00
738.44	60696.00
739.18	60884.00
739.92	60928.00
740.67	60994.00
741.41	61052.00
742.15	61189.00
742.90	61245.00
743.64	61458.00
744.38	61324.00
745.13	61324.00
745.87	61348.00
746.61	61367.00
747.36	61276.00
748.10	61292.00
748.84	61346.00
749.58	61226.00
750.33	61208.00
751.07	61087.00
751.81	60983.00
752.55	60966.00
753.30	60780.00
754.04	60773.00
754.78	60537.00
755.52	60406.00
756.27	60090.00
757.01	60059.00
757.75	60239.00
758.49	60147.00
759.23	60061.00
759.97	60127.00
760.72	59980.00
761.46	60037.00
762.20	60143.00
762.94	60040.00
763.68	60077.00
764.42	60027.00
765.16	59848.00
765.91	59854.00
766.65	59870.00
767.39	59709.00
768.13	59710.00
768.87	59701.00
769.61	59693.00
770.35	59571.00
771.09	59388.00
771.83	59309.00
772.57	59165.00
773.31	59322.00
774.05	59253.00
774.80	59377.00
775.54	59120.00
776.28	59079.00
777.02	59017.00
777.76	58915.00
778.50	58780.00
779.24	58501.00
779.98	58343.00
780.72	58275.00
781.46	58100.00
782.20	58054.00
782.93	58096.00
783.67	57951.00
784.41	57721.00
785.15	57652.00
785.89	57441.00
786.63	57241.00
787.37	56988.00
788.11	56752.00
788.85	56794.00
789.59	56807.00
790.33	56728.00
791.07	56714.00
791.81	56648.00
792.54	56398.00
793.28	56173.00
794.02	55951.00
794.76	55635.00
795.50	55452.00
796.24	55113.00
796.97	54924.00
797.71	54471.00
798.45	54327.00
799.19	54373.00
799.93	54333.00
800.67	54142.00
801.40	54077.00
802.14	54237.00
802.88	54337.00
803.62	54350.00
804.35	54358.00
805.09	54226.00
805.83	54074.00
806.57	53951.00
807.30	53809.00
808.04	53910.00
808.78	53681.00
809.52	53443.00
810.25	53039.00
810.99	52900.00
811.73	52815.00
812.46	52682.00
813.20	52742.00
813.94	52608.00
814.68	52483.00
815.41	52289.00
816.15	52365.00
816.88	52526.00
817.62	52433.00
818.36	52263.00
819.09	51939.00
819.83	51750.00
820.57	51614.00
821.30	51545.00
822.04	51438.00
822.77	51164.00
823.51	50983.00
824.25	51012.00
824.98	50877.00
825.72	50735.00
826.45	50587.00
827.19	50393.00
827.92	50218.00
828.66	49872.00
829.40	49812.00
830.13	49745.00
830.87	49612.00
831.60	49612.00
832.34	49569.00
833.07	49382.00
833.81	49318.00
834.54	49402.00
835.28	49381.00
836.01	49331.00
836.75	49027.00
837.48	48842.00
838.22	48622.00
838.95	48589.00
839.68	48677.00
840.42	48639.00
841.15	48694.00
841.89	48529.00
842.62	48216.00
843.36	48099.00
844.09	48028.00
844.82	48144.00
845.56	48098.00
846.29	47968.00
847.02	47805.00
847.76	47504.00
848.49	47613.00
849.23	47824.00
849.96	48050.00
850.69	48147.00
851.43	47937.00
852.16	47687.00
852.89	47343.00
853.63	47255.00
854.36	47171.00
855.09	47103.00
855.82	47225.00
856.56	47255.00
857.29	46896.00
858.02	46834.00
858.76	46714.00
859.49	46644.00
860.22	46573.00
860.95	46299.00
861.69	46140.00
862.42	45902.00
863.15	45706.00
863.88	45672.00
864.61	45771.00
865.35	45811.00
866.08	45736.00
866.81	45556.00
867.54	45348.00
868.27	45055.00
869.01	45001.00
869.74	45033.00
870.47	45016.00
871.20	44767.00
871.93	44537.00
872.66	44274.00
873.40	44129.00
874.13	43975.00
874.86	43829.00
875.59	43671.00
876.32	43490.00
877.05	43521.00
877.78	43355.00
878.51	43256.00
879.24	42870.00
879.97	42733.00
880.71	42552.00
881.44	42464.00
882.17	42280.00
882.90	42074.00
883.63	41928.00
884.36	41989.00
885.09	42009.00
885.82	42110.00
886.55	42278.00
887.28	42386.00
888.01	42273.00
888.74	42007.00
889.47	41779.00
890.20	41472.00
890.93	41122.00
891.66	40921.00
892.39	40829.00
893.12	40720.00
893.85	40756.00
894.57	40789.00
895.30	40707.00
896.03	40752.00
896.76	40644.00
897.49	40457.00
898.22	40399.00
898.95	40156.00
899.68	40002.00
900.41	39764.00
901.14	39440.00
901.86	39487.00
902.59	39328.00
903.32	39352.00
904.05	39336.00
904.78	39301.00
905.51	39113.00
906.24	39017.00
906.96	38841.00
907.69	38719.00
908.42	38489.00
909.15	38203.00
909.88	37946.00
910.60	37725.00
911.33	37649.00
912.06	37420.00
912.79	37236.00
913.52	37061.00
914.24	36998.00
914.97	36885.00
915.70	36753.00
916.42	36607.00
917.15	36435.00
917.88	36289.00
918.61	36013.00
919.33	35668.00
920.06	35323.00
920.79	35122.00
921.51	34946.00
922.24	34908.00
922.97	34768.00
923.69	34503.00
924.42	34432.00
925.15	34269.00
925.87	34064.00
926.60	33761.00
927.33	33408.00
928.05	33130.00
928.78	32816.00
929.51	32504.00
930.23	32179.00
930.96	31793.00
931.68	31479.00
932.41	31104.00
933.14	30725.00
933.86	30434.00
934.59	30128.00
935.31	29705.00
936.04	29084.00
936.76	28653.00
937.49	28132.00
938.21	27568.00
938.94	27096.00
939.66	26477.00
940.39	26151.00
941.11	25689.00
941.84	25285.00
942.56	24927.00
943.29	24683.00
944.01	24501.00
944.74	24368.00
945.46	24295.00
946.19	24348.00
946.91	24379.00
947.64	24387.00
948.36	24429.00
949.09	24506.00
949.81	24514.00
950.53	24598.00
951.26	24675.00
951.98	24729.00
952.71	24821.00
953.43	24884.00
954.15	25031.00
954.88	25165.00
955.60	25286.00
956.33	25277.00
957.05	25361.00
957.77	25360.00
958.50	25481.00
959.22	25479.00
959.94	25445.00
960.67	25386.00
961.39	25246.00
962.11	25351.00
962.84	25364.00
963.56	25320.00
964.28	25258.00
965.00	25074.00
965.73	24855.00
966.45	24771.00
967.17	24642.00
967.89	24442.00
968.62	24141.00
969.34	23974.00
970.06	23876.00
970.78	23734.00
971.51	23615.00
972.23	23441.00
972.95	23279.00
973.67	23158.00
974.40	22981.00
975.12	22865.00
975.84	22748.00
976.56	22562.00
977.28	22332.00
978.00	22289.00
978.73	22153.00
979.45	22021.00
980.17	21976.00
980.89	21928.00
981.61	21819.00
982.33	21682.00
983.05	21706.00
983.77	21604.00
984.50	21501.00
985.22	21467.00
985.94	21386.00
986.66	21282.00
987.38	21221.00
988.10	21151.00
988.82	21191.00
989.54	21045.00
990.26	20958.00
990.98	20760.00
991.70	20567.00
992.42	20482.00
993.14	20277.00
993.86	20169.00
994.58	19990.00
995.30	19818.00
996.02	19706.00
996.74	19554.00
997.46	19527.00
998.18	19411.00
998.90	19257.00
999.62	19142.00
1000.34	18974.00
1001.06	18940.00
1001.78	18868.00
1002.50	18697.00
1003.22	18449.00
1003.94	18326.00
1004.66	18169.00
1005.38	17948.00
1006.09	17841.00
1006.81	17615.00
1007.53	17433.00
1008.25	17228.00
1008.97	17076.00
1009.69	17061.00
1010.41	16916.00
1011.13	16711.00
1011.84	16554.00
1012.56	16416.00
1013.28	16248.00
1014.00	16103.00
1014.72	15966.00
1015.44	15785.00
1016.15	15576.00
1016.87	15340.00
1017.59	15184.00
1018.31	15039.00
1019.03	14936.00
1019.74	14815.00
1020.46	14779.00
1021.18	14565.00
1021.90	14524.00
1022.61	14367.00
1023.33	14246.00
1024.05	14080.00
1024.76	13917.00
1025.48	13718.00
1026.20	13532.00
1026.92	13300.00
1027.63	13138.00
1028.35	12992.00
1029.07	12802.00
1029.78	12617.00
1030.50	12417.00
1031.22	12257.00
1031.93	12072.00
1032.65	12031.00
1033.37	11907.00
1034.08	11817.00
1034.80	11727.00
1035.52	11635.00
1036.23	11532.00
1036.95	11422.00
1037.66	11335.00
1038.38	11195.00
1039.10	11037.00
1039.81	10846.00
1040.53	10589.00
1041.24	10500.00
1041.96	10338.00
1042.67	10199.00
1043.39	10120.00
1044.10	9958.00
1044.82	9863.00
1045.54	9743.00
1046.25	9620.00
1046.97	9511.00
1047.68	9379.00
1048.40	9198.00
1049.11	9014.00
1049.83	8904.00
1050.54	8753.00
1051.26	8665.00
1051.97	8545.00
1052.68	8456.00
1053.40	8337.00
1054.11	8167.00
1054.83	8107.00
1055.54	7964.00
1056.26	7840.00
1056.97	7740.00
1057.69	7655.00
1058.40	7546.00
1059.11	7435.00
1059.83	7277.00
1060.54	7097.00
1061.25	6969.00
1061.97	6797.00
1062.68	6699.00
1063.40	6563.00
1064.11	6409.00
1064.82	6319.00
1065.54	6176.00
1066.25	2580.00
1066.96	2575.00
1067.68	2572.00
1068.39	2572.00
1069.10	2626.00
1069.82	2630.00
1070.53	2629.00
1071.24	2629.00
1071.95	2622.00
1072.67	2622.00
1073.38	6023.00
1074.09	5894.00
1074.80	5760.00
1075.52	5642.00
1076.23	5537.00
1076.94	5400.00
1077.65	2585.00
1078.37	2582.00
1079.08	2560.00
1079.79	2604.00
