300.47	2634.00
301.26	2625.00
302.04	2629.00
302.82	2630.00
303.60	2630.00
304.38	2632.00
305.17	2633.00
305.95	2627.00
306.73	2624.00
307.51	2631.00
308.29	2624.00
309.08	2631.00
309.86	2629.00
310.64	2629.00
311.42	2632.00
312.20	2630.00
312.98	2626.00
313.76	2630.00
314.55	2624.00
315.33	2626.00
316.11	2632.00
316.89	2628.00
317.67	2628.00
318.45	2628.00
319.23	2633.00
320.01	2632.00
320.79	2631.00
321.57	2629.00
322.35	2630.00
323.13	2639.00
323.91	2646.00
324.69	2637.00
325.47	2625.00
326.25	2628.00
327.03	2633.00
327.81	2635.00
328.59	2640.00
329.37	2637.00
330.15	2633.00
330.93	2633.00
331.71	2631.00
332.49	2643.00
333.27	2638.00
334.05	2638.00
334.83	2638.00
335.61	2634.00
336.39	2640.00
337.17	2644.00
337.95	2641.00
338.73	2647.00
339.51	2643.00
340.29	2644.00
341.07	2650.00
341.84	2647.00
342.62	2647.00
343.40	2651.00
344.18	2649.00
344.96	2656.00
345.74	2657.00
346.52	2663.00
347.29	2659.00
348.07	2663.00
348.85	2662.00
349.63	2675.00
350.41	2673.00
351.18	2671.00
351.96	2678.00
352.74	2683.00
353.52	2687.00
354.30	2696.00
355.07	2702.00
355.85	2698.00
356.63	2708.00
357.41	2716.00
358.18	2719.00
358.96	2719.00
359.74	2725.00
360.52	2727.00
361.29	2740.00
362.07	2742.00
362.85	2744.00
363.62	2751.00
364.40	2764.00
365.18	2775.00
365.95	2776.00
366.73	2784.00
367.51	2793.00
368.28	2799.00
369.06	2809.00
369.84	2814.00
370.61	2824.00
371.39	2845.00
372.17	2852.00
372.94	2863.00
373.72	2871.00
374.49	2882.00
375.27	2895.00
376.05	2903.00
376.82	2920.00
377.60	2928.00
378.37	2944.00
379.15	2958.00
379.92	2975.00
380.70	2989.00
381.47	3006.00
382.25	3022.00
383.02	3036.00
383.80	3059.00
384.58	3074.00
385.35	3090.00
386.13	3112.00
386.90	3131.00
387.67	3146.00
388.45	3161.00
389.22	3186.00
390.00	3208.00
390.77	3224.00
391.55	3253.00
392.32	3257.00
393.10	3270.00
393.87	3315.00
394.65	3334.00
395.42	3361.00
396.19	3380.00
396.97	3396.00
397.74	3426.00
398.52	3449.00
399.29	3483.00
400.06	3497.00
400.84	3521.00
401.61	3537.00
402.38	3580.00
403.16	3591.00
403.93	3626.00
404.70	3655.00
405.48	3690.00
406.25	3715.00
407.02	3730.00
407.80	3772.00
408.57	3792.00
409.34	3812.00
410.12	3833.00
410.89	3873.00
411.66	3906.00
412.43	3938.00
413.21	3946.00
413.98	3979.00
414.75	4027.00
415.52	4046.00
416.30	4089.00
417.07	4100.00
417.84	4152.00
418.61	4178.00
419.39	4229.00
420.16	4248.00
420.93	4277.00
421.70	4332.00
422.47	4351.00
423.24	4393.00
424.02	4428.00
424.79	4464.00
425.56	4497.00
426.33	4549.00
427.10	4594.00
427.87	4626.00
428.64	4662.00
429.42	4722.00
430.19	4758.00
430.96	4789.00
431.73	4862.00
432.50	4907.00
433.27	4936.00
434.04	5004.00
434.81	5067.00
435.58	5117.00
436.35	5147.00
437.12	5219.00
437.89	5257.00
438.67	5328.00
439.44	5369.00
440.21	5458.00
440.98	5498.00
441.75	5583.00
442.52	5632.00
443.29	5681.00
444.06	5745.00
444.83	5803.00
445.60	5891.00
446.37	5959.00
447.13	6027.00
447.90	6112.00
448.67	6156.00
449.44	6227.00
450.21	6337.00
450.98	6376.00
451.75	6470.00
452.52	6524.00
453.29	6593.00
454.06	6722.00
454.83	6824.00
455.60	6873.00
456.37	6977.00
457.13	7056.00
457.90	7165.00
458.67	7252.00
459.44	7355.00
460.21	7424.00
460.98	7517.00
461.75	7620.00
462.51	7700.00
463.28	7819.00
464.05	7933.00
464.82	8037.00
465.59	8129.00
466.35	8218.00
467.12	8329.00
467.89	8461.00
468.66	8563.00
469.43	8665.00
470.19	8784.00
470.96	8876.00
471.73	9005.00
472.50	9117.00
473.26	9240.00
474.03	9361.00
474.80	9483.00
475.56	9597.00
476.33	9705.00
477.10	9811.00
477.87	9950.00
478.63	10079.00
479.40	10226.00
480.17	10350.00
480.93	10498.00
481.70	10581.00
482.47	10730.00
483.23	10868.00
484.00	11021.00
484.76	11200.00
485.53	11276.00
486.30	11443.00
487.06	11602.00
487.83	11749.00
488.60	11941.00
489.36	12050.00
490.13	12214.00
490.89	12298.00
491.66	12449.00
492.42	12610.00
493.19	12776.00
493.96	12897.00
494.72	13081.00
495.49	13219.00
496.25	13364.00
497.02	13544.00
497.78	13696.00
498.55	13858.00
499.31	13932.00
500.08	14156.00
500.84	14324.00
501.61	14407.00
502.37	14611.00
503.14	14800.00
503.90	14978.00
504.67	15120.00
505.43	15298.00
506.20	15457.00
506.96	15678.00
507.72	15811.00
508.49	16049.00
509.25	16238.00
510.02	16398.00
510.78	16591.00
511.54	16809.00
512.31	16992.00
513.07	17124.00
513.84	17320.00
514.60	17544.00
515.36	17628.00
516.13	17798.00
516.89	18010.00
517.65	18113.00
518.42	18264.00
519.18	18485.00
519.94	18691.00
520.71	18897.00
521.47	18997.00
522.23	19227.00
523.00	19390.00
523.76	19618.00
524.52	19878.00
525.28	20001.00
526.05	20236.00
526.81	20471.00
527.57	20592.00
528.33	20841.00
529.10	20940.00
529.86	21145.00
530.62	21356.00
531.38	21542.00
532.15	21748.00
532.91	21906.00
533.67	22126.00
534.43	22288.00
535.19	22471.00
535.96	22701.00
536.72	22840.00
537.48	23042.00
538.24	23183.00
539.00	23474.00
539.76	23688.00
540.53	23898.00
541.29	24154.00
542.05	24352.00
542.81	24565.00
543.57	24836.00
544.33	25017.00
545.09	25248.00
545.85	25423.00
546.61	25548.00
547.38	25764.00
548.14	25861.00
548.90	26107.00
549.66	26393.00
550.42	26601.00
551.18	26817.00
551.94	26978.00
552.70	27228.00
553.46	27491.00
554.22	27692.00
554.98	27889.00
555.74	27990.00
556.50	28205.00
557.26	28417.00
558.02	28717.00
558.78	28947.00
559.54	29132.00
560.30	29338.00
561.06	29529.00
561.82	29724.00
562.58	30029.00
563.34	30238.00
564.10	30434.00
564.86	30620.00
565.61	30836.00
566.37	31108.00
567.13	31447.00
567.89	31580.00
568.65	31727.00
569.41	32001.00
570.17	32139.00
570.93	32345.00
571.69	32562.00
572.44	32732.00
573.20	32922.00
573.96	33111.00
574.72	33324.00
575.48	33639.00
576.24	33815.00
576.99	34032.00
577.75	34284.00
578.51	34474.00
579.27	34775.00
580.03	35017.00
580.78	35181.00
581.54	35437.00
582.30	35718.00
583.06	35739.00
583.82	35972.00
584.57	36166.00
585.33	36358.00
586.09	36550.00
586.84	36672.00
587.60	36782.00
588.36	36966.00
589.12	37157.00
589.87	37453.00
590.63	37591.00
591.39	37833.00
592.14	38019.00
592.90	38209.00
593.66	38529.00
594.41	38776.00
595.17	38952.00
595.93	39094.00
596.68	39212.00
597.44	39387.00
598.20	39615.00
598.95	39992.00
599.71	40130.00
600.46	40336.00
601.22	40410.00
601.98	40650.00
602.73	41041.00
603.49	41373.00
604.24	41607.00
605.00	41687.00
605.76	41933.00
606.51	42039.00
607.27	42343.00
608.02	42642.00
608.78	42882.00
609.53	42987.00
610.29	43206.00
611.04	43380.00
611.80	43755.00
612.55	44005.00
613.31	44329.00
614.06	44515.00
614.82	44860.00
615.57	45031.00
616.33	45280.00
617.08	45405.00
617.84	45519.00
618.59	45599.00
619.35	45653.00
620.10	45613.00
620.85	45613.00
621.61	45664.00
622.36	45819.00
623.12	45706.00
623.87	45876.00
624.62	45968.00
625.38	46111.00
626.13	46318.00
626.89	46603.00
627.64	46769.00
628.39	46776.00
629.15	46736.00
629.90	46808.00
630.65	46790.00
631.41	46745.00
632.16	46880.00
632.91	46939.00
633.67	46850.00
634.42	47036.00
635.17	47258.00
635.92	47592.00
636.68	48139.00
637.43	48814.00
638.18	49368.00
638.94	49773.00
639.69	50147.00
640.44	50623.00
641.19	51133.00
641.95	51601.00
642.70	51847.00
643.45	52064.00
644.20	52313.00
644.95	52426.00
645.71	52752.00
646.46	52789.00
647.21	53004.00
647.96	53064.00
648.71	53271.00
649.47	53348.00
650.22	53498.00
650.97	53512.00
651.72	53649.00
652.47	53920.00
653.22	54019.00
653.97	54205.00
654.73	54406.00
655.48	54581.00
656.23	54812.00
656.98	55130.00
657.73	55352.00
658.48	55416.00
659.23	55384.00
659.98	55260.00
660.73	55329.00
661.48	55480.00
662.23	55637.00
662.99	55773.00
663.74	55725.00
664.49	56132.00
665.24	56633.00
665.99	56975.00
666.74	57176.00
667.49	57261.00
668.24	57271.00
668.99	57384.00
669.74	57541.00
670.49	57722.00
671.24	57837.00
671.99	58060.00
672.74	58197.00
673.48	58365.00
674.23	58436.00
674.98	58557.00
675.73	58672.00
676.48	58659.00
677.23	58755.00
677.98	58936.00
678.73	58879.00
679.48	58933.00
680.23	58949.00
680.98	58967.00
681.73	59020.00
682.47	59117.00
683.22	59017.00
683.97	59135.00
684.72	59235.00
685.47	59329.00
686.22	59448.00
686.97	59666.00
687.71	59865.00
688.46	60079.00
689.21	60078.00
689.96	60067.00
690.71	60152.00
691.45	60107.00
692.20	60221.00
692.95	60284.00
693.70	60367.00
694.44	60460.00
695.19	60525.00
695.94	60581.00
696.69	60750.00
697.43	60762.00
698.18	60870.00
698.93	60891.00
699.68	61143.00
700.42	61212.00
701.17	61155.00
701.92	61177.00
702.66	61252.00
703.41	61357.00
704.16	61424.00
704.90	61432.00
705.65	61439.00
706.40	61400.00
707.14	61412.00
707.89	61397.00
708.64	61512.00
709.38	61608.00
710.13	61599.00
710.88	61685.00
711.62	61767.00
712.37	61747.00
713.11	61855.00
713.86	61853.00
714.61	61837.00
715.35	61713.00
716.10	61500.00
716.84	61360.00
717.59	61120.00
718.33	60943.00
719.08	60919.00
719.83	60922.00
720.57	60773.00
721.32	60725.00
722.06	60711.00
722.81	60602.00
723.55	60577.00
724.30	60585.00
725.04	60683.00
725.79	60734.00
726.53	60677.00
727.28	60721.00
728.02	60613.00
728.76	60669.00
729.51	60842.00
730.25	60993.00
731.00	60910.00
731.74	60902.00
732.49	60873.00
733.23	60678.00
733.97	60615.00
734.72	60628.00
735.46	60525.00
736.21	60376.00
736.95	60447.00
737.69	60609.00
738.44	60646.00
739.18	60862.00
739.92	60858.00
740.67	60936.00
741.41	60972.00
742.15	61168.00
742.90	61335.00
743.64	61298.00
744.38	61321.00
745.13	61276.00
745.87	61297.00
746.61	61160.00
747.36	61218.00
748.10	61324.00
748.84	61297.00
749.58	61219.00
750.33	61132.00
751.07	61084.00
751.81	60934.00
752.55	60800.00
753.30	60833.00
754.04	60749.00
754.78	60409.00
755.52	60291.00
756.27	60037.00
757.01	59976.00
757.75	60071.00
758.49	60101.00
759.23	60033.00
759.97	59973.00
760.72	59982.00
761.46	59991.00
762.20	60076.00
762.94	60106.00
763.68	60028.00
764.42	59817.00
765.16	59872.00
765.91	59844.00
766.65	59961.00
767.39	59746.00
768.13	59732.00
768.87	59723.00
769.61	59602.00
770.35	59485.00
771.09	59368.00
771.83	59093.00
772.57	59228.00
773.31	59254.00
774.05	59268.00
774.80	59272.00
775.54	59121.00
776.28	59010.00
777.02	58954.00
777.76	58809.00
778.50	58660.00
779.24	58432.00
779.98	58245.00
780.72	58143.00
781.46	58155.00
782.20	57979.00
782.93	57924.00
783.67	57786.00
784.41	57593.00
785.15	57544.00
785.89	57364.00
786.63	57062.00
787.37	56955.00
788.11	56728.00
788.85	56699.00
789.59	56655.00
790.33	56625.00
791.07	56631.00
791.81	56603.00
792.54	56490.00
793.28	56127.00
794.02	55885.00
794.76	55635.00
795.50	55244.00
796.24	55005.00
796.97	54854.00
797.71	54491.00
798.45	54256.00
799.19	54301.00
799.93	54228.00
800.67	54068.00
801.40	54028.00
802.14	54210.00
802.88	54208.00
803.62	54344.00
804.35	54243.00
805.09	54145.00
805.83	53954.00
806.57	53829.00
807.30	53659.00
808.04	53745.00
808.78	53527.00
809.52	53224.00
810.25	52935.00
810.99	52823.00
811.73	52710.00
812.46	52536.00
813.20	52560.00
813.94	52530.00
814.68	52299.00
815.41	52332.00
816.15	52190.00
816.88	52331.00
817.62	52338.00
818.36	52147.00
819.09	51867.00
819.83	51699.00
820.57	51572.00
821.30	51524.00
822.04	51320.00
822.77	51206.00
823.51	50982.00
824.25	50867.00
824.98	50875.00
825.72	50811.00
826.45	50472.00
827.19	50290.00
827.92	50124.00
828.66	49761.00
829.40	49705.00
830.13	49527.00
830.87	49576.00
831.60	49481.00
832.34	49397.00
833.07	49237.00
833.81	49276.00
834.54	49248.00
835.28	49143.00
836.01	49172.00
836.75	49057.00
837.48	48753.00
838.22	48680.00
838.95	48460.00
839.68	48478.00
840.42	48576.00
841.15	48534.00
841.89	48403.00
842.62	48130.00
843.36	47971.00
844.09	47919.00
844.82	48009.00
845.56	48062.00
846.29	47805.00
847.02	47661.00
847.76	47476.00
848.49	47488.00
849.23	47766.00
849.96	47994.00
850.69	48083.00
851.43	47768.00
852.16	47571.00
852.89	47336.00
853.63	47154.00
854.36	47051.00
855.09	47149.00
855.82	47123.00
856.56	47017.00
857.29	46720.00
858.02	46723.00
858.76	46686.00
859.49	46536.00
860.22	46381.00
860.95	46258.00
861.69	46082.00
862.42	45800.00
863.15	45541.00
863.88	45504.00
864.61	45646.00
865.35	45732.00
866.08	45581.00
866.81	45388.00
867.54	45121.00
868.27	45157.00
869.01	44901.00
869.74	44904.00
870.47	44823.00
871.20	44688.00
871.93	44391.00
872.66	44163.00
873.40	44024.00
874.13	43859.00
874.86	43619.00
875.59	43467.00
876.32	43500.00
877.05	43412.00
877.78	43291.00
878.51	43091.00
879.24	42807.00
879.97	42661.00
880.71	42430.00
881.44	42262.00
882.17	42199.00
882.90	41993.00
883.63	41805.00
884.36	41881.00
885.09	41888.00
885.82	42039.00
886.55	42142.00
887.28	42171.00
888.01	42120.00
888.74	41970.00
889.47	41663.00
890.20	41345.00
890.93	41009.00
891.66	40831.00
892.39	40781.00
893.12	40635.00
893.85	40684.00
894.57	40781.00
895.30	40644.00
896.03	40623.00
896.76	40535.00
897.49	40337.00
898.22	40236.00
898.95	40130.00
899.68	39864.00
900.41	39730.00
901.14	39476.00
901.86	39291.00
902.59	39335.00
903.32	39223.00
904.05	39228.00
904.78	39166.00
905.51	38981.00
906.24	38941.00
906.96	38765.00
907.69	38580.00
908.42	38309.00
909.15	38119.00
909.88	37862.00
910.60	37702.00
911.33	37548.00
912.06	37389.00
912.79	37138.00
913.52	36947.00
914.24	36876.00
914.97	36813.00
915.70	36657.00
916.42	36533.00
917.15	36357.00
917.88	36180.00
918.61	35984.00
919.33	35614.00
920.06	35242.00
920.79	35057.00
921.51	34851.00
922.24	34786.00
922.97	34583.00
923.69	34520.00
924.42	34295.00
925.15	34224.00
925.87	33965.00
926.60	33697.00
927.33	33415.00
928.05	33053.00
928.78	32716.00
929.51	32391.00
930.23	32052.00
930.96	31735.00
931.68	31346.00
932.41	31013.00
933.14	30637.00
933.86	30388.00
934.59	30104.00
935.31	29612.00
936.04	29004.00
936.76	28529.00
937.49	27978.00
938.21	27532.00
938.94	26910.00
939.66	26516.00
940.39	26042.00
941.11	25598.00
941.84	25240.00
942.56	24895.00
943.29	24658.00
944.01	24413.00
944.74	24309.00
945.46	24260.00
946.19	24266.00
946.91	24227.00
947.64	24267.00
948.36	24406.00
949.09	24425.00
949.81	24456.00
950.53	24589.00
951.26	24597.00
951.98	24656.00
952.71	24717.00
953.43	24849.00
954.15	24987.00
954.88	25092.00
955.60	25148.00
956.33	25229.00
957.05	25240.00
957.77	25330.00
958.50	25356.00
959.22	25449.00
959.94	25389.00
960.67	25343.00
961.39	25242.00
962.11	25325.00
962.84	25340.00
963.56	25202.00
964.28	25137.00
965.00	24996.00
965.73	24779.00
966.45	24703.00
967.17	24546.00
967.89	24326.00
968.62	24128.00
969.34	23923.00
970.06	23801.00
970.78	23634.00
971.51	23527.00
972.23	23495.00
972.95	23223.00
973.67	23037.00
974.40	22923.00
975.12	22741.00
975.84	22602.00
976.56	22452.00
977.28	22301.00
978.00	22194.00
978.73	22108.00
979.45	21984.00
980.17	21925.00
980.89	21893.00
981.61	21725.00
982.33	21647.00
983.05	21625.00
983.77	21591.00
984.50	21457.00
985.22	21395.00
985.94	21331.00
986.66	21177.00
987.38	21204.00
988.10	21104.00
988.82	21097.00
989.54	20950.00
990.26	20841.00
990.98	20655.00
991.70	20561.00
992.42	20364.00
993.14	20259.00
993.86	20119.00
994.58	19913.00
995.30	19759.00
996.02	19668.00
996.74	19555.00
997.46	19478.00
998.18	19315.00
998.90	19198.00
999.62	19111.00
1000.34	18963.00
1001.06	18882.00
1001.78	18768.00
1002.50	18612.00
1003.22	18465.00
1003.94	18306.00
1004.66	18086.00
1005.38	17959.00
1006.09	17759.00
1006.81	17587.00
1007.53	17318.00
1008.25	17173.00
1008.97	17029.00
1009.69	17007.00
1010.41	16840.00
1011.13	16681.00
1011.84	16562.00
1012.56	16364.00
1013.28	16242.00
1014.00	16091.00
1014.72	15950.00
1015.44	15768.00
1016.15	15521.00
1016.87	15274.00
1017.59	15122.00
1018.31	14986.00
1019.03	14863.00
1019.74	14777.00
1020.46	14659.00
1021.18	14613.00
1021.90	14420.00
1022.61	14352.00
1023.33	14175.00
1024.05	14066.00
1024.76	13876.00
1025.48	13677.00
1026.20	13435.00
1026.92	13276.00
1027.63	13086.00
1028.35	12911.00
1029.07	12805.00
1029.78	12582.00
1030.50	12387.00
1031.22	12245.00
1031.93	12097.00
1032.65	11951.00
1033.37	11901.00
1034.08	11773.00
1034.80	11663.00
1035.52	11582.00
1036.23	11471.00
1036.95	11423.00
1037.66	11312.00
1038.38	11117.00
1039.10	11010.00
1039.81	10796.00
1040.53	10589.00
1041.24	10455.00
1041.96	10283.00
1042.67	10178.00
1043.39	10046.00
1044.10	9956.00
1044.82	9845.00
1045.54	9722.00
1046.25	9608.00
1046.97	9500.00
1047.68	9325.00
1048.40	9157.00
1049.11	8988.00
1049.83	8846.00
1050.54	8771.00
1051.26	8647.00
1051.97	8532.00
1052.68	8453.00
1053.40	8309.00
1054.11	8179.00
1054.83	8075.00
1055.54	7919.00
1056.26	7792.00
1056.97	7706.00
1057.69	7587.00
1058.40	7521.00
1059.11	7410.00
1059.83	7265.00
1060.54	7083.00
1061.25	6945.00
1061.97	6789.00
1062.68	6685.00
1063.40	6529.00
1064.11	6429.00
1064.82	6289.00
1065.54	6137.00
1066.25	2572.00
1066.96	2569.00
1067.68	2580.00
1068.39	2576.00
1069.10	2634.00
1069.82	2635.00
1070.53	2633.00
1071.24	2629.00
1071.95	2628.00
1072.67	2628.00
1073.38	5993.00
1074.09	5852.00
1074.80	5722.00
1075.52	5642.00
1076.23	5533.00
1076.94	5399.00
1077.65	2581.00
1078.37	2569.00
1079.08	2573.00
1079.79	2596.00
