300.47	2633.00
301.26	2631.00
302.04	2627.00
302.82	2628.00
303.60	2623.00
304.38	2633.00
305.17	2633.00
305.95	2632.00
306.73	2630.00
307.51	2627.00
308.29	2628.00
309.08	2627.00
309.86	2632.00
310.64	2629.00
311.42	2630.00
312.20	2630.00
312.98	2627.00
313.76	2629.00
314.55	2634.00
315.33	2633.00
316.11	2629.00
316.89	2628.00
317.67	2631.00
318.45	2633.00
319.23	2632.00
320.01	2627.00
320.79	2633.00
321.57	2639.00
322.35	2638.00
323.13	2630.00
323.91	2631.00
324.69	2633.00
325.47	2633.00
326.25	2636.00
327.03	2636.00
327.81	2630.00
328.59	2637.00
329.37	2633.00
330.15	2634.00
330.93	2634.00
331.71	2634.00
332.49	2641.00
333.27	2632.00
334.05	2638.00
334.83	2639.00
335.61	2637.00
336.39	2635.00
337.17	2644.00
337.95	2642.00
338.73	2646.00
339.51	2643.00
340.29	2644.00
341.07	2643.00
341.84	2649.00
342.62	2655.00
343.40	2651.00
344.18	2656.00
344.96	2654.00
345.74	2657.00
346.52	2658.00
347.29	2658.00
348.07	2665.00
348.85	2675.00
349.63	2673.00
350.41	2670.00
351.18	2673.00
351.96	2677.00
352.74	2688.00
353.52	2688.00
354.30	2692.00
355.07	2694.00
355.85	2703.00
356.63	2707.00
357.41	2712.00
358.18	2720.00
358.96	2722.00
359.74	2725.00
360.52	2730.00
361.29	2741.00
362.07	2752.00
362.85	2752.00
363.62	2758.00
364.40	2762.00
365.18	2767.00
365.95	2779.00
366.73	2784.00
367.51	2798.00
368.28	2808.00
369.06	2812.00
369.84	2824.00
370.61	2834.00
371.39	2841.00
372.17	2853.00
372.94	2865.00
373.72	2876.00
374.49	2880.00
375.27	2891.00
376.05	2897.00
376.82	2925.00
377.60	2938.00
378.37	2941.00
379.15	2956.00
379.92	2961.00
380.70	2984.00
381.47	3004.00
382.25	3018.00
383.02	3038.00
383.80	3044.00
384.58	3078.00
385.35	3091.00
386.13	3104.00
386.90	3126.00
387.67	3141.00
388.45	3161.00
389.22	3194.00
390.00	3204.00
390.77	3228.00
391.55	3245.00
392.32	3267.00
393.10	3276.00
393.87	3310.00
394.65	3322.00
395.42	3354.00
396.19	3361.00
396.97	3408.00
397.74	3433.00
398.52	3449.00
399.29	3477.00
400.06	3492.00
400.84	3519.00
401.61	3547.00
402.38	3580.00
403.16	3610.00
403.93	3634.00
404.70	3650.00
405.48	3690.00
406.25	3707.00
407.02	3726.00
407.80	3757.00
408.57	3789.00
409.34	3821.00
410.12	3847.00
410.89	3880.00
411.66	3920.00
412.43	3934.00
413.21	3964.00
413.98	3995.00
414.75	4034.00
415.52	4056.00
416.30	4079.00
417.07	4110.00
417.84	4146.00
418.61	4198.00
419.39	4213.00
420.16	4242.00
420.93	4296.00
421.70	4326.00
422.47	4335.00
423.24	4389.00
424.02	4426.00
424.79	4460.00
425.56	4504.00
426.33	4543.00
427.10	4575.00
427.87	4637.00
428.64	4672.00
429.42	4708.00
430.19	4761.00
430.96	4796.00
431.73	4860.00
432.50	4925.00
433.27	4930.00
434.04	4993.00
434.81	5042.00
435.58	5101.00
436.35	5155.00
437.12	5216.00
437.89	5253.00
438.67	5300.00
439.44	5385.00
440.21	5445.00
440.98	5499.00
441.75	5589.00
442.52	5620.00
443.29	5682.00
444.06	5738.00
444.83	5834.00
445.60	5883.00
446.37	5943.00
447.13	5992.00
447.90	6088.00
448.67	6154.00
449.44	6219.00
450.21	6318.00
450.98	6381.00
451.75	6459.00
452.52	6539.00
453.29	6637.00
454.06	6724.00
454.83	6809.00
455.60	6883.00
456.37	6982.00
457.13	7060.00
457.90	7137.00
458.67	7231.00
459.44	7348.00
460.21	7421.00
460.98	7497.00
461.75	7599.00
462.51	7720.00
463.28	7825.00
464.05	7950.00
464.82	8046.00
465.59	8120.00
466.35	8234.00
467.12	8320.00
467.89	8445.00
468.66	8579.00
469.43	8662.00
470.19	8787.00
470.96	8853.00
471.73	9024.00
472.50	9118.00
473.26	9235.00
474.03	9321.00
474.80	9509.00
475.56	9597.00
476.33	9727.00
477.10	9845.00
477.87	9949.00
478.63	10097.00
479.40	10222.00
480.17	10348.00
480.93	10479.00
481.70	10598.00
482.47	10755.00
483.23	10894.00
484.00	11007.00
484.76	11175.00
485.53	11320.00
486.30	11449.00
487.06	11622.00
487.83	11758.00
488.60	11897.00
489.36	12067.00
490.13	12182.00
490.89	12305.00
491.66	12462.00
492.42	12615.00
493.19	12719.00
493.96	12912.00
494.72	13090.00
495.49	13205.00
496.25	13361.00
497.02	13531.00
497.78	13674.00
498.55	13824.00
499.31	13947.00
500.08	14152.00
500.84	14287.00
501.61	14450.00
502.37	14603.00
503.14	14781.00
503.90	14959.00
504.67	15144.00
505.43	15324.00
506.20	15480.00
506.96	15674.00
507.72	15873.00
508.49	16009.00
509.25	16263.00
510.02	16395.00
510.78	16604.00
511.54	16810.00
512.31	16936.00
513.07	17142.00
513.84	17317.00
514.60	17491.00
515.36	17685.00
516.13	17845.00
516.89	18008.00
517.65	18125.00
518.42	18306.00
519.18	18445.00
519.94	18680.00
520.71	18794.00
521.47	19010.00
522.23	19213.00
523.00	19418.00
523.76	19623.00
524.52	19855.00
525.28	20034.00
526.05	20202.00
526.81	20445.00
527.57	20609.00
528.33	20830.00
529.10	21015.00
529.86	21161.00
530.62	21399.00
531.38	21573.00
532.15	21765.00
532.91	21936.00
533.67	22135.00
534.43	22286.00
535.19	22492.00
535.96	22620.00
536.72	22856.00
537.48	22978.00
538.24	23182.00
539.00	23422.00
539.76	23716.00
540.53	23947.00
541.29	24115.00
542.05	24297.00
542.81	24653.00
543.57	24759.00
544.33	25000.00
545.09	25217.00
545.85	25410.00
546.61	25566.00
547.38	25764.00
548.14	25971.00
548.90	26177.00
549.66	26403.00
550.42	26708.00
551.18	26835.00
551.94	27002.00
552.70	27218.00
553.46	27478.00
554.22	27668.00
554.98	27960.00
555.74	28133.00
556.50	28245.00
557.26	28444.00
558.02	28640.00
558.78	28924.00
559.54	29150.00
560.30	29303.00
561.06	29507.00
561.82	29724.00
562.58	30006.00
563.34	30257.00
564.10	30525.00
564.86	30668.00
565.61	30946.00
566.37	31148.00
567.13	31349.00
567.89	31612.00
568.65	31807.00
569.41	31935.00
570.17	32107.00
570.93	32369.00
571.69	32589.00
572.44	32764.00
573.20	32999.00
573.96	33196.00
574.72	33403.00
575.48	33598.00
576.24	33856.00
576.99	34064.00
577.75	34362.00
578.51	34605.00
579.27	34774.00
580.03	34958.00
580.78	35249.00
581.54	35531.00
582.30	35729.00
583.06	35854.00
583.82	36025.00
584.57	36204.00
585.33	36432.00
586.09	36626.00
586.84	36737.00
587.60	36899.00
588.36	36935.00
589.12	37195.00
589.87	37424.00
590.63	37657.00
591.39	37938.00
592.14	38058.00
592.90	38297.00
593.66	38538.00
594.41	38815.00
595.17	38926.00
595.93	39107.00
596.68	39254.00
597.44	39451.00
598.20	39680.00
598.95	40003.00
599.71	40237.00
600.46	40381.00
601.22	40594.00
601.98	40704.00
602.73	41096.00
603.49	41345.00
604.24	41603.00
605.00	41720.00
605.76	41922.00
606.51	42125.00
607.27	42278.00
608.02	42641.00
608.78	42869.00
609.53	43015.00
610.29	43219.00
611.04	43529.00
611.80	43742.00
612.55	44113.00
613.31	44377.00
614.06	44658.00
614.82	44785.00
615.57	45045.00
616.33	45325.00
617.08	45457.00
617.84	45560.00
618.59	45737.00
619.35	45679.00
620.10	45712.00
620.85	45701.00
621.61	45676.00
622.36	45879.00
623.12	45884.00
623.87	45915.00
624.62	46019.00
625.38	46285.00
626.13	46346.00
626.89	46637.00
627.64	46767.00
628.39	46862.00
629.15	46848.00
629.90	46868.00
630.65	46941.00
631.41	46823.00
632.16	47023.00
632.91	46897.00
633.67	46980.00
634.42	47010.00
635.17	47357.00
635.92	47698.00
636.68	48322.00
637.43	48804.00
638.18	49478.00
638.94	49876.00
639.69	50203.00
640.44	50830.00
641.19	51191.00
641.95	51590.00
642.70	51927.00
643.45	52221.00
644.20	52355.00
644.95	52676.00
645.71	52736.00
646.46	52985.00
647.21	53122.00
647.96	53217.00
648.71	53297.00
649.47	53308.00
650.22	53480.00
650.97	53657.00
651.72	53806.00
652.47	53952.00
653.22	54118.00
653.97	54337.00
654.73	54491.00
655.48	54640.00
656.23	54841.00
656.98	55223.00
657.73	55413.00
658.48	55498.00
659.23	55441.00
659.98	55475.00
660.73	55469.00
661.48	55707.00
662.23	55680.00
662.99	55706.00
663.74	55829.00
664.49	56168.00
665.24	56723.00
665.99	57188.00
666.74	57142.00
667.49	57296.00
668.24	57299.00
668.99	57498.00
669.74	57662.00
670.49	57827.00
671.24	57943.00
671.99	58125.00
672.74	58408.00
673.48	58434.00
674.23	58543.00
674.98	58542.00
675.73	58595.00
676.48	58769.00
677.23	58895.00
677.98	58952.00
678.73	58917.00
679.48	59062.00
680.23	59108.00
680.98	59187.00
681.73	59116.00
682.47	59175.00
683.22	59195.00
683.97	59299.00
684.72	59371.00
685.47	59370.00
686.22	59495.00
686.97	59777.00
687.71	60028.00
688.46	60178.00
689.21	60276.00
689.96	60277.00
690.71	60267.00
691.45	60265.00
692.20	60334.00
692.95	60373.00
693.70	60435.00
694.44	60455.00
695.19	60675.00
695.94	60786.00
696.69	60892.00
697.43	60915.00
698.18	61016.00
698.93	61064.00
699.68	61098.00
700.42	61141.00
701.17	61125.00
701.92	61219.00
702.66	61333.00
703.41	61476.00
704.16	61554.00
704.90	61485.00
705.65	61379.00
706.40	61446.00
707.14	61398.00
707.89	61557.00
708.64	61638.00
709.38	61778.00
710.13	61767.00
710.88	61870.00
711.62	61843.00
712.37	61879.00
713.11	61975.00
713.86	61960.00
714.61	61891.00
715.35	61700.00
716.10	61613.00
716.84	61522.00
717.59	61265.00
718.33	61076.00
719.08	61098.00
719.83	61028.00
720.57	60959.00
721.32	60800.00
722.06	60669.00
722.81	60692.00
723.55	60662.00
724.30	60722.00
725.04	60831.00
725.79	60820.00
726.53	60764.00
727.28	60686.00
728.02	60782.00
728.76	60885.00
729.51	60934.00
730.25	61036.00
731.00	60949.00
731.74	60900.00
732.49	61000.00
733.23	60727.00
733.97	60749.00
734.72	60673.00
735.46	60553.00
736.21	60564.00
736.95	60619.00
737.69	60644.00
738.44	60723.00
739.18	60925.00
739.92	61063.00
740.67	61041.00
741.41	61093.00
742.15	61284.00
742.90	61399.00
743.64	61418.00
744.38	61355.00
745.13	61454.00
745.87	61329.00
746.61	61325.00
747.36	61333.00
748.10	61407.00
748.84	61416.00
749.58	61255.00
750.33	61179.00
751.07	61217.00
751.81	61119.00
752.55	61058.00
753.30	60835.00
754.04	60747.00
754.78	60528.00
755.52	60294.00
756.27	60159.00
757.01	60089.00
757.75	60143.00
758.49	60229.00
759.23	60062.00
759.97	60136.00
760.72	60089.00
761.46	60095.00
762.20	60041.00
762.94	60202.00
763.68	60077.00
764.42	59952.00
765.16	59931.00
765.91	59943.00
766.65	60029.00
767.39	59887.00
768.13	59837.00
768.87	59804.00
769.61	59733.00
770.35	59602.00
771.09	59409.00
771.83	59276.00
772.57	59293.00
773.31	59313.00
774.05	59268.00
774.80	59326.00
775.54	59234.00
776.28	59191.00
777.02	59027.00
777.76	59068.00
778.50	58782.00
779.24	58522.00
779.98	58363.00
780.72	58256.00
781.46	58180.00
782.20	58031.00
782.93	58101.00
783.67	57891.00
784.41	57753.00
785.15	57606.00
785.89	57428.00
786.63	57184.00
787.37	57082.00
788.11	56846.00
788.85	56753.00
789.59	56758.00
790.33	56622.00
791.07	56769.00
791.81	56647.00
792.54	56491.00
793.28	56311.00
794.02	55917.00
794.76	55632.00
795.50	55480.00
796.24	55135.00
796.97	54866.00
797.71	54648.00
798.45	54333.00
799.19	54391.00
799.93	54284.00
800.67	54185.00
801.40	54187.00
802.14	54191.00
802.88	54291.00
803.62	54419.00
804.35	54376.00
805.09	54213.00
805.83	54074.00
806.57	53977.00
807.30	53873.00
808.04	53777.00
808.78	53688.00
809.52	53337.00
810.25	53098.00
810.99	52976.00
811.73	52834.00
812.46	52622.00
813.20	52739.00
813.94	52601.00
814.68	52556.00
815.41	52361.00
816.15	52478.00
816.88	52459.00
817.62	52458.00
818.36	52301.00
819.09	52058.00
819.83	51686.00
820.57	51613.00
821.30	51592.00
822.04	51405.00
822.77	51210.00
823.51	51005.00
824.25	50912.00
824.98	50913.00
825.72	50837.00
826.45	50653.00
827.19	50467.00
827.92	50217.00
828.66	49936.00
829.40	49755.00
830.13	49676.00
830.87	49722.00
831.60	49582.00
832.34	49542.00
833.07	49353.00
833.81	49423.00
834.54	49300.00
835.28	49374.00
836.01	49239.00
836.75	49047.00
837.48	48833.00
838.22	48696.00
838.95	48619.00
839.68	48631.00
840.42	48756.00
841.15	48653.00
841.89	48510.00
842.62	48314.00
843.36	48028.00
844.09	48144.00
844.82	48138.00
845.56	48083.00
846.29	47955.00
847.02	47779.00
847.76	47650.00
848.49	47673.00
849.23	47791.00
849.96	48101.00
850.69	48092.00
851.43	47954.00
852.16	47585.00
852.89	47382.00
853.63	47148.00
854.36	47099.00
855.09	47118.00
855.82	47139.00
856.56	47101.00
857.29	46966.00
858.02	46734.00
858.76	46773.00
859.49	46573.00
860.22	46547.00
860.95	46369.00
861.69	46151.00
862.42	45869.00
863.15	45685.00
863.88	45656.00
864.61	45711.00
865.35	45813.00
866.08	45680.00
866.81	45595.00
867.54	45304.00
868.27	45131.00
869.01	45030.00
869.74	45046.00
870.47	44955.00
871.20	44806.00
871.93	44562.00
872.66	44298.00
873.40	44180.00
874.13	43965.00
874.86	43836.00
875.59	43568.00
876.32	43563.00
877.05	43464.00
877.78	43391.00
878.51	43214.00
879.24	42836.00
879.97	42775.00
880.71	42596.00
881.44	42341.00
882.17	42289.00
882.90	42097.00
883.63	41954.00
884.36	41981.00
885.09	42067.00
885.82	42163.00
886.55	42302.00
887.28	42321.00
888.01	42287.00
888.74	42088.00
889.47	41727.00
890.20	41492.00
890.93	41033.00
891.66	40930.00
892.39	40815.00
893.12	40819.00
893.85	40832.00
894.57	40844.00
895.30	40772.00
896.03	40679.00
896.76	40595.00
897.49	40542.00
898.22	40362.00
898.95	40176.00
899.68	39939.00
900.41	39718.00
901.14	39555.00
901.86	39369.00
902.59	39393.00
903.32	39380.00
904.05	39321.00
904.78	39226.00
905.51	39129.00
906.24	39003.00
906.96	38935.00
907.69	38675.00
908.42	38505.00
909.15	38244.00
909.88	38027.00
910.60	37763.00
911.33	37626.00
912.06	37345.00
912.79	37285.00
913.52	37071.00
914.24	36979.00
914.97	36874.00
915.70	36770.00
916.42	36609.00
917.15	36493.00
917.88	36232.00
918.61	35981.00
919.33	35694.00
920.06	35359.00
920.79	35206.00
921.51	34974.00
922.24	34889.00
922.97	34741.00
923.69	34626.00
924.42	34487.00
925.15	34264.00
925.87	34021.00
926.60	33733.00
927.33	33485.00
928.05	33173.00
928.78	32868.00
929.51	32584.00
930.23	32198.00
930.96	31781.00
931.68	31464.00
932.41	31134.00
933.14	30768.00
933.86	30473.00
934.59	30087.00
935.31	29699.00
936.04	29147.00
936.76	28641.00
937.49	28097.00
938.21	27623.00
938.94	27031.00
939.66	26601.00
940.39	26133.00
941.11	25714.00
941.84	25289.00
942.56	24954.00
943.29	24712.00
944.01	24546.00
944.74	24347.00
945.46	24390.00
946.19	24292.00
946.91	24336.00
947.64	24371.00
948.36	24450.00
949.09	24541.00
949.81	24470.00
950.53	24607.00
951.26	24685.00
951.98	24764.00
952.71	24809.00
953.43	24950.00
954.15	25076.00
954.88	25203.00
955.60	25185.00
956.33	25319.00
957.05	25326.00
957.77	25453.00
958.50	25483.00
959.22	25476.00
959.94	25409.00
960.67	25311.00
961.39	25338.00
962.11	25316.00
962.84	25340.00
963.56	25357.00
964.28	25251.00
965.00	25072.00
965.73	24927.00
966.45	24760.00
967.17	24600.00
967.89	24449.00
968.62	24197.00
969.34	23949.00
970.06	23861.00
970.78	23729.00
971.51	23642.00
972.23	23508.00
972.95	23348.00
973.67	23184.00
974.40	22988.00
975.12	22833.00
975.84	22699.00
976.56	22558.00
977.28	22355.00
978.00	22219.00
978.73	22145.00
979.45	22055.00
980.17	21992.00
980.89	21979.00
981.61	21892.00
982.33	21721.00
983.05	21666.00
983.77	21590.00
984.50	21492.00
985.22	21432.00
985.94	21425.00
986.66	21291.00
987.38	21217.00
988.10	21175.00
988.82	21119.00
989.54	20962.00
990.26	20883.00
990.98	20739.00
991.70	20589.00
992.42	20388.00
993.14	20282.00
993.86	20202.00
994.58	20029.00
995.30	19848.00
996.02	19653.00
996.74	19561.00
997.46	19538.00
998.18	19338.00
998.90	19255.00
999.62	19138.00
1000.34	19016.00
1001.06	19004.00
1001.78	18844.00
1002.50	18711.00
1003.22	18521.00
1003.94	18306.00
1004.66	18176.00
1005.38	18012.00
1006.09	17851.00
1006.81	17645.00
1007.53	17408.00
1008.25	17262.00
1008.97	17096.00
1009.69	17001.00
1010.41	16886.00
1011.13	16742.00
1011.84	16532.00
1012.56	16405.00
1013.28	16292.00
1014.00	16173.00
1014.72	15980.00
1015.44	15803.00
1016.15	15554.00
1016.87	15380.00
1017.59	15111.00
1018.31	15043.00
1019.03	14912.00
1019.74	14858.00
1020.46	14704.00
1021.18	14644.00
1021.90	14473.00
1022.61	14401.00
1023.33	14243.00
1024.05	14164.00
1024.76	13969.00
1025.48	13694.00
1026.20	13518.00
1026.92	13323.00
1027.63	13163.00
1028.35	12953.00
1029.07	12838.00
1029.78	12599.00
1030.50	12462.00
1031.22	12251.00
1031.93	12183.00
1032.65	12011.00
1033.37	11943.00
1034.08	11809.00
1034.80	11718.00
1035.52	11624.00
1036.23	11566.00
1036.95	11476.00
1037.66	11357.00
1038.38	11161.00
1039.10	11064.00
1039.81	10841.00
1040.53	10613.00
1041.24	10476.00
1041.96	10316.00
1042.67	10236.00
1043.39	10129.00
1044.10	10019.00
1044.82	9887.00
1045.54	9762.00
1046.25	9631.00
1046.97	9511.00
1047.68	9350.00
1048.40	9184.00
1049.11	9060.00
1049.83	8885.00
1050.54	8799.00
1051.26	8674.00
1051.97	8567.00
1052.68	8491.00
1053.40	8367.00
1054.11	8195.00
1054.83	8083.00
1055.54	7935.00
1056.26	7840.00
1056.97	7743.00
1057.69	7655.00
1058.40	7557.00
1059.11	7425.00
1059.83	7279.00
1060.54	7152.00
1061.25	6963.00
1061.97	6826.00
1062.68	6673.00
1063.40	6546.00
1064.11	6465.00
1064.82	6312.00
1065.54	6159.00
1066.25	2581.00
1066.96	2573.00
1067.68	2573.00
1068.39	2571.00
1069.10	2627.00
1069.82	2625.00
1070.53	2626.00
1071.24	2633.00
1071.95	2632.00
1072.67	2633.00
1073.38	6035.00
1074.09	5872.00
1074.80	5765.00
1075.52	5667.00
1076.23	5514.00
1076.94	5414.00
1077.65	2585.00
1078.37	2562.00
1079.08	2585.00
1079.79	2592.00
