300.47	2627.00
301.26	2626.00
302.04	2633.00
302.82	2632.00
303.60	2634.00
304.38	2630.00
305.17	2627.00
305.95	2626.00
306.73	2634.00
307.51	2628.00
308.29	2632.00
309.08	2633.00
309.86	2636.00
310.64	2629.00
311.42	2627.00
312.20	2627.00
312.98	2626.00
313.76	2625.00
314.55	2630.00
315.33	2636.00
316.11	2629.00
316.89	2628.00
317.67	2629.00
318.45	2629.00
319.23	2634.00
320.01	2633.00
320.79	2634.00
321.57	2627.00
322.35	2628.00
323.13	2634.00
323.91	2635.00
324.69	2636.00
325.47	2630.00
326.25	2634.00
327.03	2632.00
327.81	2629.00
328.59	2638.00
329.37	2631.00
330.15	2639.00
330.93	2630.00
331.71	2634.00
332.49	2641.00
333.27	2641.00
334.05	2641.00
334.83	2637.00
335.61	2635.00
336.39	2640.00
337.17	2642.00
337.95	2642.00
338.73	2644.00
339.51	2648.00
340.29	2646.00
341.07	2645.00
341.84	2647.00
342.62	2653.00
343.40	2653.00
344.18	2656.00
344.96	2653.00
345.74	2654.00
346.52	2652.00
347.29	2667.00
348.07	2669.00
348.85	2673.00
349.63	2671.00
350.41	2672.00
351.18	2680.00
351.96	2684.00
352.74	2689.00
353.52	2693.00
354.30	2690.00
355.07	2696.00
355.85	2700.00
356.63	2713.00
357.41	2709.00
358.18	2718.00
358.96	2709.00
359.74	2728.00
360.52	2737.00
361.29	2739.00
362.07	2742.00
362.85	2745.00
363.62	2752.00
364.40	2756.00
365.18	2766.00
365.95	2780.00
366.73	2788.00
367.51	2794.00
368.28	2790.00
369.06	2814.00
369.84	2825.00
370.61	2840.00
371.39	2845.00
372.17	2845.00
372.94	2856.00
373.72	2867.00
374.49	2876.00
375.27	2898.00
376.05	2903.00
376.82	2911.00
377.60	2924.00
378.37	2939.00
379.15	2964.00
379.92	2973.00
380.70	2992.00
381.47	3000.00
382.25	3009.00
383.02	3029.00
383.80	3050.00
384.58	3070.00
385.35	3093.00
386.13	3109.00
386.90	3121.00
387.67	3138.00
388.45	3159.00
389.22	3184.00
390.00	3196.00
390.77	3216.00
391.55	3253.00
392.32	3279.00
393.10	3293.00
393.87	3313.00
394.65	3344.00
395.42	3360.00
396.19	3369.00
396.97	3399.00
397.74	3416.00
398.52	3448.00
399.29	3467.00
400.06	3503.00
400.84	3525.00
401.61	3551.00
402.38	3578.00
403.16	3606.00
403.93	3631.00
404.70	3650.00
405.48	3687.00
406.25	3702.00
407.02	3737.00
407.80	3753.00
408.57	3788.00
409.34	3828.00
410.12	3835.00
410.89	3863.00
411.66	3904.00
412.43	3931.00
413.21	3961.00
413.98	3989.00
414.75	4017.00
415.52	4052.00
416.30	4107.00
417.07	4119.00
417.84	4146.00
418.61	4182.00
419.39	4204.00
420.16	4245.00
420.93	4293.00
421.70	4325.00
422.47	4347.00
423.24	4395.00
424.02	4439.00
424.79	4457.00
425.56	4489.00
426.33	4540.00
427.10	4579.00
427.87	4616.00
428.64	4672.00
429.42	4715.00
430.19	4760.00
430.96	4796.00
431.73	4869.00
432.50	4917.00
433.27	4956.00
434.04	4992.00
434.81	5055.00
435.58	5118.00
436.35	5155.00
437.12	5197.00
437.89	5289.00
438.67	5334.00
439.44	5414.00
440.21	5451.00
440.98	5497.00
441.75	5559.00
442.52	5643.00
443.29	5702.00
444.06	5748.00
444.83	5798.00
445.60	5894.00
446.37	5964.00
447.13	6032.00
447.90	6097.00
448.67	6141.00
449.44	6277.00
450.21	6355.00
450.98	6382.00
451.75	6442.00
452.52	6532.00
453.29	6621.00
454.06	6715.00
454.83	6820.00
455.60	6893.00
456.37	6979.00
457.13	7063.00
457.90	7161.00
458.67	7251.00
459.44	7363.00
460.21	7451.00
460.98	7533.00
461.75	7632.00
462.51	7743.00
463.28	7832.00
464.05	7946.00
464.82	8053.00
465.59	8158.00
466.35	8250.00
467.12	8354.00
467.89	8422.00
468.66	8542.00
469.43	8680.00
470.19	8817.00
470.96	8906.00
471.73	8999.00
472.50	9116.00
473.26	9237.00
474.03	9385.00
474.80	9500.00
475.56	9609.00
476.33	9720.00
477.10	9836.00
477.87	9964.00
478.63	10092.00
479.40	10237.00
480.17	10368.00
480.93	10493.00
481.70	10593.00
482.47	10699.00
483.23	10910.00
484.00	11028.00
484.76	11191.00
485.53	11318.00
486.30	11471.00
487.06	11608.00
487.83	11764.00
488.60	11905.00
489.36	12019.00
490.13	12209.00
490.89	12357.00
491.66	12434.00
492.42	12663.00
493.19	12825.00
493.96	12944.00
494.72	13070.00
495.49	13256.00
496.25	13375.00
497.02	13536.00
497.78	13694.00
498.55	13827.00
499.31	14017.00
500.08	14138.00
500.84	14355.00
501.61	14468.00
502.37	14645.00
503.14	14855.00
503.90	14960.00
504.67	15103.00
505.43	15300.00
506.20	15487.00
506.96	15699.00
507.72	15858.00
508.49	16049.00
509.25	16268.00
510.02	16412.00
510.78	16625.00
511.54	16811.00
512.31	16954.00
513.07	17174.00
513.84	17306.00
514.60	17518.00
515.36	17689.00
516.13	17872.00
516.89	18021.00
517.65	18147.00
518.42	18312.00
519.18	18490.00
519.94	18716.00
520.71	18849.00
521.47	19070.00
522.23	19205.00
523.00	19413.00
523.76	19677.00
524.52	19876.00
525.28	20058.00
526.05	20252.00
526.81	20457.00
527.57	20666.00
528.33	20800.00
529.10	21040.00
529.86	21202.00
530.62	21381.00
531.38	21588.00
532.15	21807.00
532.91	21904.00
533.67	22151.00
534.43	22300.00
535.19	22480.00
535.96	22649.00
536.72	22877.00
537.48	22949.00
538.24	23225.00
539.00	23432.00
539.76	23722.00
540.53	23977.00
541.29	24223.00
542.05	24375.00
542.81	24613.00
543.57	24855.00
544.33	25057.00
545.09	25285.00
545.85	25416.00
546.61	25522.00
547.38	25733.00
548.14	25951.00
548.90	26108.00
549.66	26395.00
550.42	26657.00
551.18	26830.00
551.94	27024.00
552.70	27251.00
553.46	27461.00
554.22	27681.00
554.98	27954.00
555.74	28081.00
556.50	28218.00
557.26	28456.00
558.02	28709.00
558.78	28990.00
559.54	29136.00
560.30	29275.00
561.06	29504.00
561.82	29773.00
562.58	30031.00
563.34	30299.00
564.10	30443.00
564.86	30647.00
565.61	30919.00
566.37	31178.00
567.13	31397.00
567.89	31613.00
568.65	31783.00
569.41	32037.00
570.17	32207.00
570.93	32442.00
571.69	32638.00
572.44	32762.00
573.20	33052.00
573.96	33167.00
574.72	33506.00
575.48	33625.00
576.24	33858.00
576.99	34082.00
577.75	34337.00
578.51	34545.00
579.27	34798.00
580.03	34957.00
580.78	35162.00
581.54	35553.00
582.30	35735.00
583.06	35900.00
583.82	36008.00
584.57	36238.00
585.33	36408.00
586.09	36635.00
586.84	36832.00
587.60	36867.00
588.36	36946.00
589.12	37225.00
589.87	37480.00
590.63	37717.00
591.39	37929.00
592.14	38102.00
592.90	38276.00
593.66	38567.00
594.41	38832.00
595.17	39073.00
595.93	39202.00
596.68	39228.00
597.44	39486.00
598.20	39721.00
598.95	40026.00
599.71	40261.00
600.46	40402.00
601.22	40512.00
601.98	40752.00
602.73	41136.00
603.49	41394.00
604.24	41657.00
605.00	41805.00
605.76	41946.00
606.51	42139.00
607.27	42385.00
608.02	42696.00
608.78	42923.00
609.53	43048.00
610.29	43280.00
611.04	43525.00
611.80	43776.00
612.55	44053.00
613.31	44340.00
614.06	44650.00
614.82	44854.00
615.57	45100.00
616.33	45193.00
617.08	45499.00
617.84	45710.00
618.59	45671.00
619.35	45747.00
620.10	45642.00
620.85	45729.00
621.61	45779.00
622.36	45793.00
623.12	45788.00
623.87	46054.00
624.62	46104.00
625.38	46268.00
626.13	46376.00
626.89	46709.00
627.64	46829.00
628.39	46814.00
629.15	46934.00
629.90	46896.00
630.65	46833.00
631.41	46904.00
632.16	47014.00
632.91	47009.00
633.67	46962.00
634.42	47069.00
635.17	47317.00
635.92	47808.00
636.68	48281.00
637.43	48864.00
638.18	49396.00
638.94	50042.00
639.69	50221.00
640.44	50751.00
641.19	51282.00
641.95	51571.00
642.70	51993.00
643.45	52173.00
644.20	52460.00
644.95	52626.00
645.71	52854.00
646.46	52923.00
647.21	53048.00
647.96	53128.00
648.71	53340.00
649.47	53433.00
650.22	53503.00
650.97	53573.00
651.72	53791.00
652.47	54017.00
653.22	54173.00
653.97	54252.00
654.73	54533.00
655.48	54680.00
656.23	54843.00
656.98	55122.00
657.73	55364.00
658.48	55532.00
659.23	55401.00
659.98	55438.00
660.73	55515.00
661.48	55618.00
662.23	55711.00
662.99	55713.00
663.74	55814.00
664.49	56166.00
665.24	56648.00
665.99	57001.00
666.74	57236.00
667.49	57235.00
668.24	57402.00
668.99	57360.00
669.74	57679.00
670.49	57849.00
671.24	57968.00
671.99	58132.00
672.74	58328.00
673.48	58507.00
674.23	58500.00
674.98	58648.00
675.73	58637.00
676.48	58751.00
677.23	58853.00
677.98	59004.00
678.73	58858.00
679.48	59043.00
680.23	59120.00
680.98	59064.00
681.73	59106.00
682.47	59161.00
683.22	59221.00
683.97	59161.00
684.72	59394.00
685.47	59405.00
686.22	59539.00
686.97	59847.00
687.71	59981.00
688.46	60119.00
689.21	60253.00
689.96	60282.00
690.71	60239.00
691.45	60315.00
692.20	60473.00
692.95	60427.00
693.70	60478.00
694.44	60518.00
695.19	60547.00
695.94	60746.00
696.69	60989.00
697.43	60821.00
698.18	60923.00
698.93	61089.00
699.68	61182.00
700.42	61187.00
701.17	61175.00
701.92	61301.00
702.66	61429.00
703.41	61519.00
704.16	61448.00
704.90	61567.00
705.65	61567.00
706.40	61550.00
707.14	61545.00
707.89	61594.00
708.64	61699.00
709.38	61631.00
710.13	61618.00
710.88	61893.00
711.62	61862.00
712.37	61769.00
713.11	61986.00
713.86	61932.00
714.61	61827.00
715.35	61733.00
716.10	61700.00
716.84	61425.00
717.59	61259.00
718.33	61051.00
719.08	61119.00
719.83	60988.00
720.57	60899.00
721.32	60793.00
722.06	60749.00
722.81	60666.00
723.55	60689.00
724.30	60645.00
725.04	60798.00
725.79	60865.00
726.53	60776.00
727.28	60766.00
728.02	60721.00
728.76	60708.00
729.51	60980.00
730.25	61022.00
731.00	61031.00
731.74	60972.00
732.49	60924.00
733.23	60865.00
733.97	60720.00
734.72	60601.00
735.46	60561.00
736.21	60556.00
736.95	60513.00
737.69	60530.00
738.44	60730.00
739.18	60890.00
739.92	60915.00
740.67	60978.00
741.41	61162.00
742.15	61237.00
742.90	61326.00
743.64	61352.00
744.38	61391.00
745.13	61233.00
745.87	61281.00
746.61	61289.00
747.36	61338.00
748.10	61329.00
748.84	61368.00
749.58	61307.00
750.33	61154.00
751.07	61252.00
751.81	61022.00
752.55	61064.00
753.30	60876.00
754.04	60723.00
754.78	60554.00
755.52	60199.00
756.27	60128.00
757.01	60043.00
757.75	60186.00
758.49	60137.00
759.23	60053.00
759.97	60082.00
760.72	59967.00
761.46	59968.00
762.20	60076.00
762.94	60107.00
763.68	60067.00
764.42	59934.00
765.16	59890.00
765.91	59953.00
766.65	59840.00
767.39	59780.00
768.13	59773.00
768.87	59685.00
769.61	59727.00
770.35	59609.00
771.09	59435.00
771.83	59203.00
772.57	59304.00
773.31	59375.00
774.05	59330.00
774.80	59298.00
775.54	59257.00
776.28	59040.00
777.02	59033.00
777.76	58921.00
778.50	58758.00
779.24	58442.00
779.98	58401.00
780.72	58237.00
781.46	58118.00
782.20	58029.00
782.93	58007.00
783.67	57903.00
784.41	57643.00
785.15	57662.00
785.89	57417.00
786.63	57194.00
787.37	57061.00
788.11	56786.00
788.85	56790.00
789.59	56774.00
790.33	56812.00
791.07	56754.00
791.81	56650.00
792.54	56558.00
793.28	56240.00
794.02	55888.00
794.76	55740.00
795.50	55409.00
796.24	55204.00
796.97	54823.00
797.71	54662.00
798.45	54421.00
799.19	54414.00
799.93	54420.00
800.67	54162.00
801.40	54169.00
802.14	54235.00
802.88	54315.00
803.62	54360.00
804.35	54367.00
805.09	54354.00
805.83	54112.00
806.57	53937.00
807.30	53876.00
808.04	53808.00
808.78	53702.00
809.52	53336.00
810.25	53093.00
810.99	52967.00
811.73	52855.00
812.46	52756.00
813.20	52769.00
813.94	52594.00
814.68	52518.00
815.41	52386.00
816.15	52336.00
816.88	52502.00
817.62	52431.00
818.36	52253.00
819.09	52002.00
819.83	51758.00
820.57	51693.00
821.30	51623.00
822.04	51441.00
822.77	51232.00
823.51	51128.00
824.25	51026.00
824.98	50882.00
825.72	50832.00
826.45	50609.00
827.19	50432.00
827.92	50200.00
828.66	49894.00
829.40	49758.00
830.13	49627.00
830.87	49648.00
831.60	49662.00
832.34	49556.00
833.07	49380.00
833.81	49338.00
834.54	49302.00
835.28	49278.00
836.01	49261.00
836.75	49162.00
837.48	48843.00
838.22	48693.00
838.95	48586.00
839.68	48673.00
840.42	48733.00
841.15	48676.00
841.89	48614.00
842.62	48319.00
843.36	48092.00
844.09	48027.00
844.82	48143.00
845.56	48128.00
846.29	47919.00
847.02	47800.00
847.76	47607.00
848.49	47559.00
849.23	47886.00
849.96	48032.00
850.69	48116.00
851.43	47986.00
852.16	47704.00
852.89	47426.00
853.63	47222.00
854.36	47152.00
855.09	47156.00
855.82	47148.00
856.56	47099.00
857.29	46900.00
858.02	46796.00
858.76	46678.00
859.49	46711.00
860.22	46581.00
860.95	46381.00
861.69	46139.00
862.42	45855.00
863.15	45734.00
863.88	45727.00
864.61	45655.00
865.35	45839.00
866.08	45759.00
866.81	45604.00
867.54	45338.00
868.27	45113.00
869.01	45081.00
869.74	45030.00
870.47	44959.00
871.20	44739.00
871.93	44478.00
872.66	44304.00
873.40	44105.00
874.13	44037.00
874.86	43789.00
875.59	43592.00
876.32	43563.00
877.05	43537.00
877.78	43444.00
878.51	43211.00
879.24	42963.00
879.97	42733.00
880.71	42558.00
881.44	42375.00
882.17	42299.00
882.90	42048.00
883.63	41930.00
884.36	41957.00
885.09	42132.00
885.82	42084.00
886.55	42304.00
887.28	42326.00
888.01	42312.00
888.74	42063.00
889.47	41830.00
890.20	41443.00
890.93	41105.00
891.66	40985.00
892.39	40776.00
893.12	40863.00
893.85	40733.00
894.57	40791.00
895.30	40785.00
896.03	40784.00
896.76	40575.00
897.49	40504.00
898.22	40319.00
898.95	40143.00
899.68	39986.00
900.41	39790.00
901.14	39549.00
901.86	39407.00
902.59	39377.00
903.32	39337.00
904.05	39408.00
904.78	39248.00
905.51	39107.00
906.24	39015.00
906.96	38779.00
907.69	38741.00
908.42	38452.00
909.15	38215.00
909.88	37967.00
910.60	37702.00
911.33	37647.00
912.06	37474.00
912.79	37187.00
913.52	37117.00
914.24	37039.00
914.97	36897.00
915.70	36764.00
916.42	36580.00
917.15	36498.00
917.88	36313.00
918.61	36056.00
919.33	35717.00
920.06	35364.00
920.79	35206.00
921.51	34932.00
922.24	34936.00
922.97	34773.00
923.69	34633.00
924.42	34369.00
925.15	34276.00
925.87	34058.00
926.60	33801.00
927.33	33530.00
928.05	33178.00
928.78	32812.00
929.51	32521.00
930.23	32239.00
930.96	31826.00
931.68	31502.00
932.41	31106.00
933.14	30822.00
933.86	30543.00
934.59	30109.00
935.31	29677.00
936.04	29110.00
936.76	28594.00
937.49	28166.00
938.21	27617.00
938.94	27114.00
939.66	26637.00
940.39	26103.00
941.11	25720.00
941.84	25294.00
942.56	25017.00
943.29	24685.00
944.01	24537.00
944.74	24413.00
945.46	24396.00
946.19	24324.00
946.91	24321.00
947.64	24339.00
948.36	24485.00
949.09	24500.00
949.81	24586.00
950.53	24617.00
951.26	24652.00
951.98	24762.00
952.71	24856.00
953.43	24932.00
954.15	25094.00
954.88	25208.00
955.60	25294.00
956.33	25288.00
957.05	25336.00
957.77	25429.00
958.50	25557.00
959.22	25557.00
959.94	25458.00
960.67	25420.00
961.39	25336.00
962.11	25383.00
962.84	25417.00
963.56	25359.00
964.28	25275.00
965.00	25067.00
965.73	24928.00
966.45	24704.00
967.17	24613.00
967.89	24402.00
968.62	24245.00
969.34	23992.00
970.06	23825.00
970.78	23703.00
971.51	23600.00
972.23	23549.00
972.95	23314.00
973.67	23138.00
974.40	22991.00
975.12	22856.00
975.84	22695.00
976.56	22560.00
977.28	22323.00
978.00	22268.00
978.73	22152.00
979.45	22043.00
980.17	21999.00
980.89	21926.00
981.61	21831.00
982.33	21778.00
983.05	21700.00
983.77	21657.00
984.50	21520.00
985.22	21457.00
985.94	21347.00
986.66	21316.00
987.38	21204.00
988.10	21171.00
988.82	21092.00
989.54	21025.00
990.26	20922.00
990.98	20790.00
991.70	20575.00
992.42	20467.00
993.14	20288.00
993.86	20187.00
994.58	19980.00
995.30	19794.00
996.02	19696.00
996.74	19582.00
997.46	19474.00
998.18	19381.00
998.90	19233.00
999.62	19146.00
1000.34	19024.00
1001.06	19014.00
1001.78	18818.00
1002.50	18739.00
1003.22	18480.00
1003.94	18353.00
1004.66	18166.00
1005.38	17983.00
1006.09	17847.00
1006.81	17602.00
1007.53	17405.00
1008.25	17249.00
1008.97	17098.00
1009.69	17061.00
1010.41	16923.00
1011.13	16781.00
1011.84	16571.00
1012.56	16430.00
1013.28	16238.00
1014.00	16132.00
1014.72	16039.00
1015.44	15823.00
1016.15	15590.00
1016.87	15351.00
1017.59	15229.00
1018.31	15016.00
1019.03	14968.00
1019.74	14890.00
1020.46	14734.00
1021.18	14659.00
1021.90	14479.00
1022.61	14348.00
1023.33	14265.00
1024.05	14109.00
1024.76	13930.00
1025.48	13737.00
1026.20	13468.00
1026.92	13322.00
1027.63	13102.00
1028.35	13010.00
1029.07	12765.00
1029.78	12618.00
1030.50	12407.00
1031.22	12294.00
1031.93	12126.00
1032.65	12021.00
1033.37	11903.00
1034.08	11818.00
1034.80	11700.00
1035.52	11657.00
1036.23	11520.00
1036.95	11440.00
1037.66	11319.00
1038.38	11196.00
1039.10	11063.00
1039.81	10821.00
1040.53	10656.00
1041.24	10496.00
1041.96	10288.00
1042.67	10227.00
1043.39	10088.00
1044.10	10015.00
1044.82	9881.00
1045.54	9731.00
1046.25	9652.00
1046.97	9492.00
1047.68	9373.00
1048.40	9193.00
1049.11	9027.00
1049.83	8875.00
1050.54	8809.00
1051.26	8692.00
1051.97	8531.00
1052.68	8460.00
1053.40	8306.00
1054.11	8197.00
1054.83	8105.00
1055.54	7938.00
1056.26	7824.00
1056.97	7758.00
1057.69	7642.00
1058.40	7545.00
1059.11	7410.00
1059.83	7296.00
1060.54	7100.00
1061.25	6962.00
1061.97	6837.00
1062.68	6700.00
1063.40	6576.00
1064.11	6420.00
1064.82	6311.00
1065.54	6157.00
1066.25	2579.00
1066.96	2577.00
1067.68	2570.00
1068.39	2572.00
1069.10	2632.00
1069.82	2635.00
1070.53	2630.00
1071.24	2630.00
1071.95	2630.00
1072.67	2626.00
1073.38	6017.00
1074.09	5890.00
1074.80	5749.00
1075.52	5657.00
1076.23	5551.00
1076.94	5410.00
1077.65	2588.00
1078.37	2575.00
1079.08	2569.00
1079.79	2601.00
