300.47	2628.00
301.26	2628.00
302.04	2630.00
302.82	2634.00
303.60	2631.00
304.38	2634.00
305.17	2625.00
305.95	2636.00
306.73	2631.00
307.51	2629.00
308.29	2625.00
309.08	2624.00
309.86	2626.00
310.64	2631.00
311.42	2626.00
312.20	2635.00
312.98	2632.00
313.76	2630.00
314.55	2633.00
315.33	2633.00
316.11	2625.00
316.89	2625.00
317.67	2626.00
318.45	2632.00
319.23	2633.00
320.01	2627.00
320.79	2634.00
321.57	2627.00
322.35	2626.00
323.13	2637.00
323.91	2634.00
324.69	2637.00
325.47	2629.00
326.25	2626.00
327.03	2630.00
327.81	2635.00
328.59	2643.00
329.37	2641.00
330.15	2633.00
330.93	2629.00
331.71	2634.00
332.49	2639.00
333.27	2637.00
334.05	2633.00
334.83	2637.00
335.61	2634.00
336.39	2642.00
337.17	2643.00
337.95	2647.00
338.73	2642.00
339.51	2639.00
340.29	2642.00
341.07	2649.00
341.84	2653.00
342.62	2648.00
343.40	2650.00
344.18	2654.00
344.96	2651.00
345.74	2653.00
346.52	2656.00
347.29	2665.00
348.07	2664.00
348.85	2667.00
349.63	2668.00
350.41	2674.00
351.18	2673.00
351.96	2687.00
352.74	2695.00
353.52	2687.00
354.30	2684.00
355.07	2695.00
355.85	2705.00
356.63	2707.00
357.41	2708.00
358.18	2711.00
358.96	2725.00
359.74	2726.00
360.52	2727.00
361.29	2738.00
362.07	2740.00
362.85	2749.00
363.62	2753.00
364.40	2760.00
365.18	2769.00
365.95	2778.00
366.73	2784.00
367.51	2793.00
368.28	2805.00
369.06	2809.00
369.84	2809.00
370.61	2832.00
371.39	2845.00
372.17	2853.00
372.94	2864.00
373.72	2871.00
374.49	2875.00
375.27	2880.00
376.05	2905.00
376.82	2919.00
377.60	2938.00
378.37	2944.00
379.15	2955.00
379.92	2975.00
380.70	2985.00
381.47	2991.00
382.25	3016.00
383.02	3045.00
383.80	3059.00
384.58	3078.00
385.35	3092.00
386.13	3112.00
386.90	3128.00
387.67	3144.00
388.45	3152.00
389.22	3191.00
390.00	3196.00
390.77	3222.00
391.55	3246.00
392.32	3270.00
393.10	3285.00
393.87	3307.00
394.65	3320.00
395.42	3349.00
396.19	3367.00
396.97	3398.00
397.74	3420.00
398.52	3440.00
399.29	3475.00
400.06	3499.00
400.84	3537.00
401.61	3548.00
402.38	3577.00
403.16	3589.00
403.93	3626.00
404.70	3654.00
405.48	3672.00
406.25	3703.00
407.02	3743.00
407.80	3755.00
408.57	3792.00
409.34	3798.00
410.12	3825.00
410.89	3882.00
411.66	3903.00
412.43	3934.00
413.21	3969.00
413.98	3989.00
414.75	4026.00
415.52	4057.00
416.30	4081.00
417.07	4114.00
417.84	4136.00
418.61	4177.00
419.39	4203.00
420.16	4244.00
420.93	4289.00
421.70	4324.00
422.47	4361.00
423.24	4380.00
424.02	4411.00
424.79	4449.00
425.56	4491.00
426.33	4548.00
427.10	4581.00
427.87	4619.00
428.64	4670.00
429.42	4710.00
430.19	4760.00
430.96	4804.00
431.73	4847.00
432.50	4902.00
433.27	4941.00
434.04	4992.00
434.81	5059.00
435.58	5108.00
436.35	5169.00
437.12	5193.00
437.89	5265.00
438.67	5337.00
439.44	5357.00
440.21	5423.00
440.98	5497.00
441.75	5569.00
442.52	5618.00
443.29	5684.00
444.06	5740.00
444.83	5838.00
445.60	5916.00
446.37	5954.00
447.13	6008.00
447.90	6080.00
448.67	6159.00
449.44	6264.00
450.21	6329.00
450.98	6406.00
451.75	6438.00
452.52	6542.00
453.29	6629.00
454.06	6722.00
454.83	6797.00
455.60	6866.00
456.37	6972.00
457.13	7051.00
457.90	7147.00
458.67	7236.00
459.44	7332.00
460.21	7419.00
460.98	7522.00
461.75	7604.00
462.51	7703.00
463.28	7839.00
464.05	7936.00
464.82	8082.00
465.59	8143.00
466.35	8221.00
467.12	8323.00
467.89	8469.00
468.66	8551.00
469.43	8678.00
470.19	8766.00
470.96	8899.00
471.73	9010.00
472.50	9119.00
473.26	9254.00
474.03	9299.00
474.80	9469.00
475.56	9587.00
476.33	9713.00
477.10	9817.00
477.87	9921.00
478.63	10080.00
479.40	10240.00
480.17	10402.00
480.93	10533.00
481.70	10589.00
482.47	10719.00
483.23	10851.00
484.00	11019.00
484.76	11144.00
485.53	11302.00
486.30	11442.00
487.06	11615.00
487.83	11750.00
488.60	11870.00
489.36	12075.00
490.13	12187.00
490.89	12300.00
491.66	12452.00
492.42	12631.00
493.19	12768.00
493.96	12909.00
494.72	13085.00
495.49	13222.00
496.25	13369.00
497.02	13532.00
497.78	13681.00
498.55	13809.00
499.31	13998.00
500.08	14129.00
500.84	14259.00
501.61	14436.00
502.37	14604.00
503.14	14800.00
503.90	14933.00
504.67	15128.00
505.43	15301.00
506.20	15478.00
506.96	15671.00
507.72	15831.00
508.49	16075.00
509.25	16227.00
510.02	16406.00
510.78	16577.00
511.54	16812.00
512.31	17003.00
513.07	17148.00
513.84	17316.00
514.60	17521.00
515.36	17660.00
516.13	17852.00
516.89	17982.00
517.65	18176.00
518.42	18261.00
519.18	18430.00
519.94	18660.00
520.71	18824.00
521.47	18964.00
522.23	19183.00
523.00	19391.00
523.76	19625.00
524.52	19759.00
525.28	19979.00
526.05	20185.00
526.81	20398.00
527.57	20613.00
528.33	20814.00
529.10	21049.00
529.86	21183.00
530.62	21331.00
531.38	21545.00
532.15	21719.00
532.91	21880.00
533.67	22070.00
534.43	22263.00
535.19	22456.00
535.96	22694.00
536.72	22899.00
537.48	23004.00
538.24	23213.00
539.00	23405.00
539.76	23688.00
540.53	23902.00
541.29	24177.00
542.05	24399.00
542.81	24625.00
543.57	24813.00
544.33	25045.00
545.09	25191.00
545.85	25447.00
546.61	25566.00
547.38	25795.00
548.14	25923.00
548.90	26105.00
549.66	26424.00
550.42	26638.00
551.18	26883.00
551.94	27024.00
552.70	27273.00
553.46	27458.00
554.22	27703.00
554.98	27863.00
555.74	27973.00
556.50	28199.00
557.26	28436.00
558.02	28722.00
558.78	28947.00
559.54	29110.00
560.30	29328.00
561.06	29507.00
561.82	29806.00
562.58	30015.00
563.34	30232.00
564.10	30538.00
564.86	30680.00
565.61	30883.00
566.37	31109.00
567.13	31384.00
567.89	31586.00
568.65	31775.00
569.41	31899.00
570.17	32131.00
570.93	32307.00
571.69	32485.00
572.44	32763.00
573.20	32923.00
573.96	33179.00
574.72	33401.00
575.48	33530.00
576.24	33765.00
576.99	34030.00
577.75	34300.00
578.51	34510.00
579.27	34765.00
580.03	34978.00
580.78	35186.00
581.54	35453.00
582.30	35603.00
583.06	35814.00
583.82	35935.00
584.57	36117.00
585.33	36400.00
586.09	36575.00
586.84	36636.00
587.60	36805.00
588.36	36964.00
589.12	37065.00
589.87	37422.00
590.63	37696.00
591.39	37821.00
592.14	37958.00
592.90	38257.00
593.66	38435.00
594.41	38840.00
595.17	38984.00
595.93	39076.00
596.68	39246.00
597.44	39427.00
598.20	39627.00
598.95	40043.00
599.71	40221.00
600.46	40435.00
601.22	40520.00
601.98	40659.00
602.73	40983.00
603.49	41454.00
604.24	41651.00
605.00	41746.00
605.76	41918.00
606.51	42132.00
607.27	42310.00
608.02	42535.00
608.78	42914.00
609.53	43141.00
610.29	43302.00
611.04	43471.00
611.80	43789.00
612.55	44047.00
613.31	44308.00
614.06	44645.00
614.82	44737.00
615.57	45048.00
616.33	45300.00
617.08	45433.00
617.84	45447.00
618.59	45682.00
619.35	45688.00
620.10	45614.00
620.85	45619.00
621.61	45764.00
622.36	45805.00
623.12	45830.00
623.87	45845.00
624.62	46030.00
625.38	46172.00
626.13	46442.00
626.89	46602.00
627.64	46854.00
628.39	46754.00
629.15	46827.00
629.90	46863.00
630.65	46857.00
631.41	46903.00
632.16	46937.00
632.91	46887.00
633.67	46909.00
634.42	47020.00
635.17	47265.00
635.92	47710.00
636.68	48249.00
637.43	48807.00
638.18	49411.00
638.94	49847.00
639.69	50254.00
640.44	50613.00
641.19	51147.00
641.95	51542.00
642.70	51864.00
643.45	52164.00
644.20	52290.00
644.95	52532.00
645.71	52672.00
646.46	52856.00
647.21	53065.00
647.96	53184.00
648.71	53220.00
649.47	53379.00
650.22	53528.00
650.97	53642.00
651.72	53701.00
652.47	53918.00
653.22	54053.00
653.97	54241.00
654.73	54492.00
655.48	54629.00
656.23	54862.00
656.98	55125.00
657.73	55383.00
658.48	55382.00
659.23	55336.00
659.98	55337.00
660.73	55367.00
661.48	55532.00
662.23	55821.00
662.99	55693.00
663.74	55684.00
664.49	56182.00
665.24	56606.00
665.99	57030.00
666.74	57168.00
667.49	57308.00
668.24	57337.00
668.99	57348.00
669.74	57646.00
670.49	57832.00
671.24	57971.00
671.99	58087.00
672.74	58224.00
673.48	58486.00
674.23	58409.00
674.98	58564.00
675.73	58642.00
676.48	58709.00
677.23	58889.00
677.98	58929.00
678.73	59017.00
679.48	58857.00
680.23	59023.00
680.98	59100.00
681.73	59061.00
682.47	59020.00
683.22	59079.00
683.97	59238.00
684.72	59261.00
685.47	59319.00
686.22	59500.00
686.97	59703.00
687.71	59921.00
688.46	60133.00
689.21	60079.00
689.96	60221.00
690.71	60197.00
691.45	60214.00
692.20	60237.00
692.95	60301.00
693.70	60409.00
694.44	60395.00
695.19	60592.00
695.94	60699.00
696.69	60795.00
697.43	60901.00
698.18	60792.00
698.93	61006.00
699.68	61048.00
700.42	61171.00
701.17	61215.00
701.92	61245.00
702.66	61313.00
703.41	61407.00
704.16	61486.00
704.90	61420.00
705.65	61461.00
706.40	61401.00
707.14	61486.00
707.89	61549.00
708.64	61605.00
709.38	61601.00
710.13	61709.00
710.88	61755.00
711.62	61853.00
712.37	61740.00
713.11	61914.00
713.86	61924.00
714.61	61876.00
715.35	61751.00
716.10	61562.00
716.84	61472.00
717.59	61259.00
718.33	61055.00
719.08	61047.00
719.83	60990.00
720.57	60869.00
721.32	60788.00
722.06	60751.00
722.81	60588.00
723.55	60610.00
724.30	60692.00
725.04	60739.00
725.79	60713.00
726.53	60710.00
727.28	60737.00
728.02	60720.00
728.76	60694.00
729.51	60895.00
730.25	60955.00
731.00	60956.00
731.74	60858.00
732.49	60821.00
733.23	60716.00
733.97	60736.00
734.72	60605.00
735.46	60591.00
736.21	60446.00
736.95	60572.00
737.69	60601.00
738.44	60706.00
739.18	60836.00
739.92	60916.00
740.67	61006.00
741.41	60953.00
742.15	61117.00
742.90	61276.00
743.64	61479.00
744.38	61352.00
745.13	61267.00
745.87	61272.00
746.61	61286.00
747.36	61333.00
748.10	61385.00
748.84	61305.00
749.58	61232.00
750.33	61141.00
751.07	61129.00
751.81	60946.00
752.55	60883.00
753.30	60757.00
754.04	60693.00
754.78	60556.00
755.52	60254.00
756.27	60098.00
757.01	60008.00
757.75	60092.00
758.49	60225.00
759.23	60115.00
759.97	60012.00
760.72	60008.00
761.46	60036.00
762.20	60068.00
762.94	60050.00
763.68	60078.00
764.42	59901.00
765.16	59820.00
765.91	59904.00
766.65	59929.00
767.39	59761.00
768.13	59677.00
768.87	59722.00
769.61	59699.00
770.35	59584.00
771.09	59343.00
771.83	59244.00
772.57	59177.00
773.31	59268.00
774.05	59324.00
774.80	59283.00
775.54	59281.00
776.28	59081.00
777.02	58960.00
777.76	58947.00
778.50	58731.00
779.24	58489.00
779.98	58361.00
780.72	58276.00
781.46	58090.00
782.20	58018.00
782.93	58011.00
783.67	57806.00
784.41	57683.00
785.15	57619.00
785.89	57483.00
786.63	57166.00
787.37	56965.00
788.11	56752.00
788.85	56735.00
789.59	56751.00
790.33	56648.00
791.07	56750.00
791.81	56647.00
792.54	56426.00
793.28	56233.00
794.02	55894.00
794.76	55616.00
795.50	55341.00
796.24	55174.00
796.97	54879.00
797.71	54558.00
798.45	54364.00
799.19	54364.00
799.93	54240.00
800.67	54199.00
801.40	54181.00
802.14	54105.00
802.88	54244.00
803.62	54324.00
804.35	54324.00
805.09	54247.00
805.83	54043.00
806.57	53874.00
807.30	53914.00
808.04	53817.00
808.78	53626.00
809.52	53283.00
810.25	53036.00
810.99	52917.00
811.73	52723.00
812.46	52688.00
813.20	52671.00
813.94	52532.00
814.68	52502.00
815.41	52352.00
816.15	52360.00
816.88	52415.00
817.62	52375.00
818.36	52236.00
819.09	51981.00
819.83	51650.00
820.57	51588.00
821.30	51656.00
822.04	51443.00
822.77	51163.00
823.51	51146.00
824.25	50918.00
824.98	50798.00
825.72	50772.00
826.45	50573.00
827.19	50371.00
827.92	50215.00
828.66	49819.00
829.40	49758.00
830.13	49640.00
830.87	49638.00
831.60	49535.00
832.34	49418.00
833.07	49317.00
833.81	49388.00
834.54	49248.00
835.28	49273.00
836.01	49219.00
836.75	49052.00
837.48	48840.00
838.22	48599.00
838.95	48546.00
839.68	48650.00
840.42	48694.00
841.15	48632.00
841.89	48486.00
842.62	48261.00
843.36	48149.00
844.09	48069.00
844.82	48021.00
845.56	48058.00
846.29	47929.00
847.02	47672.00
847.76	47553.00
848.49	47573.00
849.23	47761.00
849.96	48001.00
850.69	48103.00
851.43	47885.00
852.16	47641.00
852.89	47343.00
853.63	47090.00
854.36	47099.00
855.09	47249.00
855.82	47086.00
856.56	46963.00
857.29	46855.00
858.02	46793.00
858.76	46690.00
859.49	46642.00
860.22	46484.00
860.95	46340.00
861.69	46136.00
862.42	45844.00
863.15	45704.00
863.88	45556.00
864.61	45681.00
865.35	45752.00
866.08	45648.00
866.81	45441.00
867.54	45220.00
868.27	45079.00
869.01	44941.00
869.74	44937.00
870.47	44896.00
871.20	44653.00
871.93	44444.00
872.66	44269.00
873.40	44072.00
874.13	43850.00
874.86	43722.00
875.59	43553.00
876.32	43428.00
877.05	43457.00
877.78	43320.00
878.51	43051.00
879.24	42886.00
879.97	42594.00
880.71	42505.00
881.44	42446.00
882.17	42188.00
882.90	42030.00
883.63	41869.00
884.36	41853.00
885.09	41948.00
885.82	42082.00
886.55	42248.00
887.28	42263.00
888.01	42170.00
888.74	42045.00
889.47	41795.00
890.20	41333.00
890.93	41092.00
891.66	40815.00
892.39	40769.00
893.12	40724.00
893.85	40720.00
894.57	40810.00
895.30	40705.00
896.03	40637.00
896.76	40601.00
897.49	40473.00
898.22	40308.00
898.95	40103.00
899.68	39916.00
900.41	39699.00
901.14	39510.00
901.86	39353.00
902.59	39292.00
903.32	39282.00
904.05	39266.00
904.78	39186.00
905.51	39068.00
906.24	38994.00
906.96	38944.00
907.69	38643.00
908.42	38406.00
909.15	38167.00
909.88	37937.00
910.60	37690.00
911.33	37548.00
912.06	37410.00
912.79	37168.00
913.52	37061.00
914.24	36922.00
914.97	36969.00
915.70	36759.00
916.42	36587.00
917.15	36421.00
917.88	36254.00
918.61	35949.00
919.33	35772.00
920.06	35356.00
920.79	35190.00
921.51	34959.00
922.24	34822.00
922.97	34742.00
923.69	34561.00
924.42	34446.00
925.15	34198.00
925.87	33993.00
926.60	33748.00
927.33	33488.00
928.05	33071.00
928.78	32803.00
929.51	32501.00
930.23	32143.00
930.96	31784.00
931.68	31404.00
932.41	31076.00
933.14	30796.00
933.86	30498.00
934.59	30088.00
935.31	29630.00
936.04	29069.00
936.76	28654.00
937.49	28124.00
938.21	27570.00
938.94	27073.00
939.66	26558.00
940.39	26080.00
941.11	25719.00
941.84	25285.00
942.56	24992.00
943.29	24684.00
944.01	24548.00
944.74	24374.00
945.46	24307.00
946.19	24322.00
946.91	24309.00
947.64	24384.00
948.36	24470.00
949.09	24502.00
949.81	24502.00
950.53	24640.00
951.26	24649.00
951.98	24813.00
952.71	24854.00
953.43	24879.00
954.15	25007.00
954.88	25170.00
955.60	25209.00
956.33	25274.00
957.05	25301.00
957.77	25385.00
958.50	25432.00
959.22	25456.00
959.94	25438.00
960.67	25319.00
961.39	25321.00
962.11	25320.00
962.84	25368.00
963.56	25332.00
964.28	25245.00
965.00	25103.00
965.73	24899.00
966.45	24697.00
967.17	24528.00
967.89	24380.00
968.62	24213.00
969.34	24018.00
970.06	23796.00
970.78	23701.00
971.51	23648.00
972.23	23480.00
972.95	23262.00
973.67	23170.00
974.40	22954.00
975.12	22847.00
975.84	22632.00
976.56	22529.00
977.28	22276.00
978.00	22244.00
978.73	22140.00
979.45	22005.00
980.17	21915.00
980.89	21914.00
981.61	21819.00
982.33	21690.00
983.05	21602.00
983.77	21599.00
984.50	21484.00
985.22	21434.00
985.94	21374.00
986.66	21275.00
987.38	21137.00
988.10	21124.00
988.82	21146.00
989.54	21070.00
990.26	20854.00
990.98	20774.00
991.70	20561.00
992.42	20425.00
993.14	20265.00
993.86	20132.00
994.58	19981.00
995.30	19823.00
996.02	19652.00
996.74	19557.00
997.46	19512.00
998.18	19380.00
998.90	19223.00
999.62	19126.00
1000.34	18980.00
1001.06	18935.00
1001.78	18821.00
1002.50	18708.00
1003.22	18505.00
1003.94	18269.00
1004.66	18129.00
1005.38	18036.00
1006.09	17832.00
1006.81	17561.00
1007.53	17422.00
1008.25	17199.00
1008.97	17009.00
1009.69	17026.00
1010.41	16861.00
1011.13	16768.00
1011.84	16572.00
1012.56	16385.00
1013.28	16247.00
1014.00	16146.00
1014.72	15959.00
1015.44	15821.00
1016.15	15571.00
1016.87	15320.00
1017.59	15140.00
1018.31	15042.00
1019.03	14918.00
1019.74	14868.00
1020.46	14747.00
1021.18	14576.00
1021.90	14475.00
1022.61	14329.00
1023.33	14235.00
1024.05	14102.00
1024.76	13897.00
1025.48	13715.00
1026.20	13478.00
1026.92	13324.00
1027.63	13105.00
1028.35	12955.00
1029.07	12813.00
1029.78	12609.00
1030.50	12427.00
1031.22	12290.00
1031.93	12132.00
1032.65	12021.00
1033.37	11951.00
1034.08	11809.00
1034.80	11718.00
1035.52	11590.00
1036.23	11508.00
1036.95	11438.00
1037.66	11299.00
1038.38	11198.00
1039.10	10994.00
1039.81	10834.00
1040.53	10585.00
1041.24	10480.00
1041.96	10281.00
1042.67	10203.00
1043.39	10099.00
1044.10	10009.00
1044.82	9825.00
1045.54	9729.00
1046.25	9590.00
1046.97	9509.00
1047.68	9380.00
1048.40	9192.00
1049.11	9047.00
1049.83	8865.00
1050.54	8763.00
1051.26	8663.00
1051.97	8557.00
1052.68	8458.00
1053.40	8318.00
1054.11	8203.00
1054.83	8079.00
1055.54	7933.00
1056.26	7835.00
1056.97	7722.00
1057.69	7631.00
1058.40	7552.00
1059.11	7387.00
1059.83	7263.00
1060.54	7106.00
1061.25	6961.00
1061.97	6843.00
1062.68	6697.00
1063.40	6547.00
1064.11	6432.00
1064.82	6285.00
1065.54	6161.00
1066.25	2576.00
1066.96	2576.00
1067.68	2576.00
1068.39	2571.00
1069.10	2629.00
1069.82	2627.00
1070.53	2632.00
1071.24	2638.00
1071.95	2631.00
1072.67	2632.00
1073.38	6018.00
1074.09	5874.00
1074.80	5779.00
1075.52	5641.00
1076.23	5511.00
1076.94	5419.00
1077.65	2584.00
1078.37	2567.00
1079.08	2581.00
1079.79	2585.00
