300.47	2634.00
301.26	2630.00
302.04	2635.00
302.82	2636.00
303.60	2636.00
304.38	2634.00
305.17	2631.00
305.95	2631.00
306.73	2624.00
307.51	2632.00
308.29	2629.00
309.08	2632.00
309.86	2635.00
310.64	2637.00
311.42	2631.00
312.20	2636.00
312.98	2628.00
313.76	2624.00
314.55	2626.00
315.33	2630.00
316.11	2627.00
316.89	2633.00
317.67	2633.00
318.45	2629.00
319.23	2630.00
320.01	2633.00
320.79	2631.00
321.57	2635.00
322.35	2632.00
323.13	2629.00
323.91	2629.00
324.69	2630.00
325.47	2633.00
326.25	2639.00
327.03	2631.00
327.81	2625.00
328.59	2635.00
329.37	2641.00
330.15	2633.00
330.93	2640.00
331.71	2637.00
332.49	2638.00
333.27	2632.00
334.05	2635.00
334.83	2640.00
335.61	2643.00
336.39	2641.00
337.17	2644.00
337.95	2643.00
338.73	2637.00
339.51	2646.00
340.29	2646.00
341.07	2650.00
341.84	2642.00
342.62	2646.00
343.40	2648.00
344.18	2650.00
344.96	2651.00
345.74	2664.00
346.52	2669.00
347.29	2661.00
348.07	2668.00
348.85	2664.00
349.63	2674.00
350.41	2672.00
351.18	2682.00
351.96	2679.00
352.74	2683.00
353.52	2685.00
354.30	2695.00
355.07	2699.00
355.85	2705.00
356.63	2704.00
357.41	2710.00
358.18	2713.00
358.96	2718.00
359.74	2724.00
360.52	2730.00
361.29	2736.00
362.07	2745.00
362.85	2749.00
363.62	2761.00
364.40	2768.00
365.18	2773.00
365.95	2774.00
366.73	2789.00
367.51	2798.00
368.28	2802.00
369.06	2813.00
369.84	2826.00
370.61	2832.00
371.39	2837.00
372.17	2847.00
372.94	2853.00
373.72	2869.00
374.49	2875.00
375.27	2889.00
376.05	2896.00
376.82	2918.00
377.60	2927.00
378.37	2944.00
379.15	2955.00
379.92	2969.00
380.70	2982.00
381.47	3001.00
382.25	3026.00
383.02	3030.00
383.80	3050.00
384.58	3074.00
385.35	3084.00
386.13	3104.00
386.90	3118.00
387.67	3144.00
388.45	3163.00
389.22	3176.00
390.00	3202.00
390.77	3212.00
391.55	3238.00
392.32	3267.00
393.10	3290.00
393.87	3308.00
394.65	3336.00
395.42	3346.00
396.19	3365.00
396.97	3387.00
397.74	3424.00
398.52	3435.00
399.29	3481.00
400.06	3499.00
400.84	3521.00
401.61	3543.00
402.38	3561.00
403.16	3592.00
403.93	3626.00
404.70	3651.00
405.48	3681.00
406.25	3703.00
407.02	3723.00
407.80	3765.00
408.57	3779.00
409.34	3821.00
410.12	3840.00
410.89	3878.00
411.66	3904.00
412.43	3936.00
413.21	3953.00
413.98	3982.00
414.75	4023.00
415.52	4058.00
416.30	4087.00
417.07	4123.00
417.84	4143.00
418.61	4185.00
419.39	4217.00
420.16	4236.00
420.93	4281.00
421.70	4326.00
422.47	4333.00
423.24	4382.00
424.02	4417.00
424.79	4451.00
425.56	4501.00
426.33	4540.00
427.10	4584.00
427.87	4627.00
428.64	4655.00
429.42	4711.00
430.19	4749.00
430.96	4794.00
431.73	4855.00
432.50	4874.00
433.27	4956.00
434.04	5007.00
434.81	5043.00
435.58	5107.00
436.35	5153.00
437.12	5208.00
437.89	5256.00
438.67	5301.00
439.44	5377.00
440.21	5445.00
440.98	5483.00
441.75	5560.00
442.52	5608.00
443.29	5660.00
444.06	5742.00
444.83	5816.00
445.60	5886.00
446.37	5947.00
447.13	6015.00
447.90	6080.00
448.67	6154.00
449.44	6227.00
450.21	6302.00
450.98	6401.00
451.75	6449.00
452.52	6530.00
453.29	6642.00
454.06	6709.00
454.83	6795.00
455.60	6868.00
456.37	6950.00
457.13	7036.00
457.90	7172.00
458.67	7231.00
459.44	7322.00
460.21	7424.00
460.98	7453.00
461.75	7595.00
462.51	7738.00
463.28	7814.00
464.05	7931.00
464.82	8027.00
465.59	8118.00
466.35	8209.00
467.12	8338.00
467.89	8440.00
468.66	8529.00
469.43	8673.00
470.19	8768.00
470.96	8863.00
471.73	8964.00
472.50	9089.00
473.26	9254.00
474.03	9328.00
474.80	9473.00
475.56	9600.00
476.33	9706.00
477.10	9826.00
477.87	9901.00
478.63	10054.00
479.40	10160.00
480.17	10363.00
480.93	10495.00
481.70	10566.00
482.47	10690.00
483.23	10853.00
484.00	10996.00
484.76	11150.00
485.53	11294.00
486.30	11447.00
487.06	11586.00
487.83	11753.00
488.60	11889.00
489.36	12042.00
490.13	12197.00
490.89	12315.00
491.66	12456.00
492.42	12634.00
493.19	12784.00
493.96	12930.00
494.72	13065.00
495.49	13181.00
496.25	13330.00
497.02	13498.00
497.78	13651.00
498.55	13794.00
499.31	13952.00
500.08	14087.00
500.84	14280.00
501.61	14451.00
502.37	14597.00
503.14	14766.00
503.90	14911.00
504.67	15041.00
505.43	15316.00
506.20	15444.00
506.96	15634.00
507.72	15838.00
508.49	16035.00
509.25	16285.00
510.02	16425.00
510.78	16585.00
511.54	16754.00
512.31	16996.00
513.07	17112.00
513.84	17318.00
514.60	17469.00
515.36	17617.00
516.13	17769.00
516.89	17973.00
517.65	18079.00
518.42	18261.00
519.18	18413.00
519.94	18620.00
520.71	18785.00
521.47	18972.00
522.23	19162.00
523.00	19352.00
523.76	19597.00
524.52	19807.00
525.28	19977.00
526.05	20199.00
526.81	20361.00
527.57	20546.00
528.33	20801.00
529.10	20992.00
529.86	21157.00
530.62	21295.00
531.38	21476.00
532.15	21702.00
532.91	21837.00
533.67	22045.00
534.43	22145.00
535.19	22399.00
535.96	22653.00
536.72	22759.00
537.48	22951.00
538.24	23147.00
539.00	23337.00
539.76	23652.00
540.53	23891.00
541.29	24107.00
542.05	24345.00
542.81	24509.00
543.57	24725.00
544.33	24984.00
545.09	25200.00
545.85	25390.00
546.61	25495.00
547.38	25643.00
548.14	25773.00
548.90	26042.00
549.66	26344.00
550.42	26517.00
551.18	26774.00
551.94	26929.00
552.70	27196.00
553.46	27389.00
554.22	27658.00
554.98	27784.00
555.74	27879.00
556.50	28088.00
557.26	28336.00
558.02	28658.00
558.78	28922.00
559.54	29016.00
560.30	29147.00
561.06	29420.00
561.82	29691.00
562.58	29867.00
563.34	30201.00
564.10	30393.00
564.86	30600.00
565.61	30731.00
566.37	30964.00
567.13	31361.00
567.89	31493.00
568.65	31650.00
569.41	31840.00
570.17	32027.00
570.93	32269.00
571.69	32497.00
572.44	32644.00
573.20	32891.00
573.96	33056.00
574.72	33267.00
575.48	33516.00
576.24	33729.00
576.99	34025.00
577.75	34237.00
578.51	34426.00
579.27	34650.00
580.03	34773.00
580.78	35064.00
581.54	35371.00
582.30	35545.00
583.06	35730.00
583.82	35940.00
584.57	36105.00
585.33	36282.00
586.09	36418.00
586.84	36553.00
587.60	36745.00
588.36	36876.00
589.12	37058.00
589.87	37385.00
590.63	37569.00
591.39	37711.00
592.14	37957.00
592.90	38102.00
593.66	38401.00
594.41	38674.00
595.17	38868.00
595.93	38923.00
596.68	39160.00
597.44	39300.00
598.20	39549.00
598.95	39820.00
599.71	40188.00
600.46	40295.00
601.22	40401.00
601.98	40603.00
602.73	40903.00
603.49	41166.00
604.24	41502.00
605.00	41623.00
605.76	41733.00
606.51	41960.00
607.27	42240.00
608.02	42509.00
608.78	42731.00
609.53	42893.00
610.29	43051.00
611.04	43414.00
611.80	43618.00
612.55	43830.00
613.31	44215.00
614.06	44462.00
614.82	44636.00
615.57	44838.00
616.33	45105.00
617.08	45362.00
617.84	45504.00
618.59	45520.00
619.35	45429.00
620.10	45500.00
620.85	45484.00
621.61	45591.00
622.36	45647.00
623.12	45653.00
623.87	45759.00
624.62	45915.00
625.38	46005.00
626.13	46262.00
626.89	46457.00
627.64	46609.00
628.39	46577.00
629.15	46636.00
629.90	46700.00
630.65	46730.00
631.41	46647.00
632.16	46725.00
632.91	46784.00
633.67	46914.00
634.42	46899.00
635.17	47130.00
635.92	47540.00
636.68	48073.00
637.43	48666.00
638.18	49334.00
638.94	49696.00
639.69	50072.00
640.44	50518.00
641.19	50967.00
641.95	51357.00
642.70	51693.00
643.45	51974.00
644.20	52169.00
644.95	52411.00
645.71	52520.00
646.46	52748.00
647.21	52862.00
647.96	53027.00
648.71	52977.00
649.47	53228.00
650.22	53289.00
650.97	53423.00
651.72	53572.00
652.47	53723.00
653.22	53813.00
653.97	54131.00
654.73	54304.00
655.48	54456.00
656.23	54706.00
656.98	54945.00
657.73	55151.00
658.48	55264.00
659.23	55204.00
659.98	55245.00
660.73	55270.00
661.48	55332.00
662.23	55446.00
662.99	55471.00
663.74	55603.00
664.49	55938.00
665.24	56400.00
665.99	56835.00
666.74	56971.00
667.49	56932.00
668.24	57062.00
668.99	57098.00
669.74	57335.00
670.49	57561.00
671.24	57659.00
671.99	57792.00
672.74	58103.00
673.48	58134.00
674.23	58282.00
674.98	58360.00
675.73	58346.00
676.48	58495.00
677.23	58554.00
677.98	58738.00
678.73	58669.00
679.48	58745.00
680.23	58786.00
680.98	58831.00
681.73	58887.00
682.47	58918.00
683.22	58846.00
683.97	58929.00
684.72	59117.00
685.47	59077.00
686.22	59261.00
686.97	59502.00
687.71	59635.00
688.46	59943.00
689.21	59930.00
689.96	59912.00
690.71	59949.00
691.45	60018.00
692.20	60100.00
692.95	60077.00
693.70	60188.00
694.44	60190.00
695.19	60367.00
695.94	60388.00
696.69	60584.00
697.43	60715.00
698.18	60626.00
698.93	60762.00
699.68	60939.00
700.42	60983.00
701.17	60951.00
701.92	60947.00
702.66	61104.00
703.41	61119.00
704.16	61179.00
704.90	61108.00
705.65	61192.00
706.40	61190.00
707.14	61183.00
707.89	61201.00
708.64	61299.00
709.38	61407.00
710.13	61506.00
710.88	61487.00
711.62	61621.00
712.37	61665.00
713.11	61716.00
713.86	61762.00
714.61	61628.00
715.35	61515.00
716.10	61418.00
716.84	61182.00
717.59	60992.00
718.33	60768.00
719.08	60740.00
719.83	60589.00
720.57	60628.00
721.32	60514.00
722.06	60432.00
722.81	60326.00
723.55	60421.00
724.30	60389.00
725.04	60535.00
725.79	60513.00
726.53	60458.00
727.28	60454.00
728.02	60491.00
728.76	60645.00
729.51	60683.00
730.25	60752.00
731.00	60717.00
731.74	60648.00
732.49	60668.00
733.23	60540.00
733.97	60438.00
734.72	60349.00
735.46	60264.00
736.21	60307.00
736.95	60154.00
737.69	60435.00
738.44	60418.00
739.18	60741.00
739.92	60632.00
740.67	60693.00
741.41	60834.00
742.15	60966.00
742.90	61093.00
743.64	61130.00
744.38	61179.00
745.13	61067.00
745.87	61089.00
746.61	61120.00
747.36	61108.00
748.10	61065.00
748.84	61169.00
749.58	60973.00
750.33	60934.00
751.07	60949.00
751.81	60810.00
752.55	60628.00
753.30	60622.00
754.04	60502.00
754.78	60298.00
755.52	60054.00
756.27	59820.00
757.01	59831.00
757.75	59887.00
758.49	59960.00
759.23	59844.00
759.97	59819.00
760.72	59815.00
761.46	59848.00
762.20	59851.00
762.94	59932.00
763.68	59839.00
764.42	59597.00
765.16	59639.00
765.91	59698.00
766.65	59695.00
767.39	59643.00
768.13	59505.00
768.87	59407.00
769.61	59496.00
770.35	59297.00
771.09	59161.00
771.83	59013.00
772.57	58947.00
773.31	59111.00
774.05	59032.00
774.80	59077.00
775.54	58956.00
776.28	58873.00
777.02	58841.00
777.76	58734.00
778.50	58551.00
779.24	58361.00
779.98	58176.00
780.72	57971.00
781.46	57859.00
782.20	57673.00
782.93	57753.00
783.67	57625.00
784.41	57311.00
785.15	57294.00
785.89	57171.00
786.63	57025.00
787.37	56729.00
788.11	56538.00
788.85	56460.00
789.59	56509.00
790.33	56519.00
791.07	56380.00
791.81	56456.00
792.54	56118.00
793.28	55922.00
794.02	55664.00
794.76	55429.00
795.50	55106.00
796.24	54877.00
796.97	54607.00
797.71	54390.00
798.45	54122.00
799.19	54092.00
799.93	54056.00
800.67	53893.00
801.40	53846.00
802.14	53923.00
802.88	54082.00
803.62	54027.00
804.35	54046.00
805.09	53977.00
805.83	53859.00
806.57	53675.00
807.30	53631.00
808.04	53575.00
808.78	53344.00
809.52	52903.00
810.25	52927.00
810.99	52587.00
811.73	52575.00
812.46	52459.00
813.20	52547.00
813.94	52371.00
814.68	52231.00
815.41	52159.00
816.15	52114.00
816.88	52235.00
817.62	52217.00
818.36	52008.00
819.09	51726.00
819.83	51526.00
820.57	51407.00
821.30	51248.00
822.04	51163.00
822.77	51027.00
823.51	50706.00
824.25	50710.00
824.98	50611.00
825.72	50594.00
826.45	50381.00
827.19	50289.00
827.92	49921.00
828.66	49641.00
829.40	49517.00
830.13	49495.00
830.87	49539.00
831.60	49360.00
832.34	49244.00
833.07	49171.00
833.81	49114.00
834.54	49110.00
835.28	49072.00
836.01	48957.00
836.75	48839.00
837.48	48550.00
838.22	48499.00
838.95	48344.00
839.68	48335.00
840.42	48475.00
841.15	48431.00
841.89	48277.00
842.62	48098.00
843.36	47885.00
844.09	47853.00
844.82	47855.00
845.56	47844.00
846.29	47711.00
847.02	47509.00
847.76	47388.00
848.49	47352.00
849.23	47579.00
849.96	47719.00
850.69	47930.00
851.43	47625.00
852.16	47477.00
852.89	47082.00
853.63	46911.00
854.36	46855.00
855.09	46950.00
855.82	46915.00
856.56	46815.00
857.29	46711.00
858.02	46600.00
858.76	46452.00
859.49	46396.00
860.22	46241.00
860.95	46160.00
861.69	45901.00
862.42	45629.00
863.15	45481.00
863.88	45397.00
864.61	45565.00
865.35	45511.00
866.08	45499.00
866.81	45347.00
867.54	45096.00
868.27	44944.00
869.01	44826.00
869.74	44742.00
870.47	44692.00
871.20	44509.00
871.93	44207.00
872.66	44092.00
873.40	43892.00
874.13	43640.00
874.86	43479.00
875.59	43298.00
876.32	43319.00
877.05	43285.00
877.78	43207.00
878.51	42940.00
879.24	42704.00
879.97	42531.00
880.71	42285.00
881.44	42177.00
882.17	42065.00
882.90	41833.00
883.63	41736.00
884.36	41724.00
885.09	41809.00
885.82	41932.00
886.55	42133.00
887.28	42119.00
888.01	41985.00
888.74	41907.00
889.47	41505.00
890.20	41233.00
890.93	40944.00
891.66	40700.00
892.39	40540.00
893.12	40552.00
893.85	40608.00
894.57	40631.00
895.30	40577.00
896.03	40479.00
896.76	40405.00
897.49	40312.00
898.22	40148.00
898.95	39938.00
899.68	39755.00
900.41	39515.00
901.14	39278.00
901.86	39153.00
902.59	39140.00
903.32	39056.00
904.05	39118.00
904.78	38976.00
905.51	38829.00
906.24	38750.00
906.96	38737.00
907.69	38423.00
908.42	38227.00
909.15	38032.00
909.88	37713.00
910.60	37625.00
911.33	37427.00
912.06	37212.00
912.79	37017.00
913.52	36824.00
914.24	36791.00
914.97	36713.00
915.70	36588.00
916.42	36485.00
917.15	36235.00
917.88	36049.00
918.61	35848.00
919.33	35541.00
920.06	35105.00
920.79	34980.00
921.51	34809.00
922.24	34624.00
922.97	34581.00
923.69	34371.00
924.42	34255.00
925.15	34138.00
925.87	33814.00
926.60	33624.00
927.33	33296.00
928.05	32975.00
928.78	32628.00
929.51	32290.00
930.23	31982.00
930.96	31619.00
931.68	31287.00
932.41	30945.00
933.14	30608.00
933.86	30252.00
934.59	29914.00
935.31	29514.00
936.04	28977.00
936.76	28449.00
937.49	27929.00
938.21	27374.00
938.94	26924.00
939.66	26332.00
940.39	25903.00
941.11	25504.00
941.84	25089.00
942.56	24850.00
943.29	24589.00
944.01	24358.00
944.74	24275.00
945.46	24174.00
946.19	24111.00
946.91	24231.00
947.64	24194.00
948.36	24303.00
949.09	24371.00
949.81	24406.00
950.53	24467.00
951.26	24495.00
951.98	24584.00
952.71	24662.00
953.43	24809.00
954.15	24835.00
954.88	24981.00
955.60	25049.00
956.33	25086.00
957.05	25150.00
957.77	25238.00
958.50	25278.00
959.22	25305.00
959.94	25249.00
960.67	25182.00
961.39	25187.00
962.11	25179.00
962.84	25190.00
963.56	25204.00
964.28	25058.00
965.00	24872.00
965.73	24740.00
966.45	24554.00
967.17	24443.00
967.89	24212.00
968.62	23958.00
969.34	23858.00
970.06	23676.00
970.78	23510.00
971.51	23447.00
972.23	23282.00
972.95	23135.00
973.67	22985.00
974.40	22756.00
975.12	22663.00
975.84	22542.00
976.56	22385.00
977.28	22213.00
978.00	22052.00
978.73	21951.00
979.45	21905.00
980.17	21832.00
980.89	21762.00
981.61	21666.00
982.33	21526.00
983.05	21510.00
983.77	21410.00
984.50	21331.00
985.22	21324.00
985.94	21227.00
986.66	21090.00
987.38	21037.00
988.10	20953.00
988.82	20958.00
989.54	20897.00
990.26	20782.00
990.98	20608.00
991.70	20418.00
992.42	20298.00
993.14	20166.00
993.86	20066.00
994.58	19806.00
995.30	19609.00
996.02	19531.00
996.74	19396.00
997.46	19352.00
998.18	19203.00
998.90	19144.00
999.62	18979.00
1000.34	18841.00
1001.06	18777.00
1001.78	18723.00
1002.50	18543.00
1003.22	18318.00
1003.94	18187.00
1004.66	17973.00
1005.38	17849.00
1006.09	17644.00
1006.81	17463.00
1007.53	17281.00
1008.25	17039.00
1008.97	16943.00
1009.69	16856.00
1010.41	16810.00
1011.13	16614.00
1011.84	16445.00
1012.56	16275.00
1013.28	16131.00
1014.00	16079.00
1014.72	15855.00
1015.44	15673.00
1016.15	15457.00
1016.87	15249.00
1017.59	15044.00
1018.31	14856.00
1019.03	14828.00
1019.74	14733.00
1020.46	14635.00
1021.18	14505.00
1021.90	14406.00
1022.61	14313.00
1023.33	14148.00
1024.05	13986.00
1024.76	13866.00
1025.48	13618.00
1026.20	13367.00
1026.92	13184.00
1027.63	12980.00
1028.35	12835.00
1029.07	12703.00
1029.78	12528.00
1030.50	12385.00
1031.22	12170.00
1031.93	12009.00
1032.65	11914.00
1033.37	11821.00
1034.08	11697.00
1034.80	11620.00
1035.52	11515.00
1036.23	11413.00
1036.95	11355.00
1037.66	11260.00
1038.38	11075.00
1039.10	10954.00
1039.81	10747.00
1040.53	10542.00
1041.24	10407.00
1041.96	10245.00
1042.67	10135.00
1043.39	10021.00
1044.10	9935.00
1044.82	9793.00
1045.54	9706.00
1046.25	9534.00
1046.97	9451.00
1047.68	9245.00
1048.40	9125.00
1049.11	8954.00
1049.83	8801.00
1050.54	8723.00
1051.26	8603.00
1051.97	8490.00
1052.68	8389.00
1053.40	8301.00
1054.11	8144.00
1054.83	7994.00
1055.54	7908.00
1056.26	7766.00
1056.97	7683.00
1057.69	7582.00
1058.40	7494.00
1059.11	7348.00
1059.83	7239.00
1060.54	7057.00
1061.25	6908.00
1061.97	6786.00
1062.68	6630.00
1063.40	6511.00
1064.11	6387.00
1064.82	6253.00
1065.54	6133.00
1066.25	2578.00
1066.96	2577.00
1067.68	2576.00
1068.39	2575.00
1069.10	2633.00
1069.82	2634.00
1070.53	2629.00
1071.24	2633.00
1071.95	2625.00
1072.67	2626.00
1073.38	5977.00
1074.09	5827.00
1074.80	5735.00
1075.52	5589.00
1076.23	5479.00
1076.94	5416.00
1077.65	2571.00
1078.37	2563.00
1079.08	2573.00
1079.79	2580.00
