300.47	2630.00
301.26	2626.00
302.04	2625.00
302.82	2634.00
303.60	2632.00
304.38	2628.00
305.17	2625.00
305.95	2623.00
306.73	2625.00
307.51	2624.00
308.29	2629.00
309.08	2630.00
309.86	2641.00
310.64	2634.00
311.42	2624.00
312.20	2628.00
312.98	2629.00
313.76	2629.00
314.55	2629.00
315.33	2629.00
316.11	2632.00
316.89	2635.00
317.67	2639.00
318.45	2625.00
319.23	2628.00
320.01	2630.00
320.79	2635.00
321.57	2637.00
322.35	2631.00
323.13	2634.00
323.91	2631.00
324.69	2627.00
325.47	2635.00
326.25	2634.00
327.03	2635.00
327.81	2626.00
328.59	2635.00
329.37	2629.00
330.15	2634.00
330.93	2638.00
331.71	2631.00
332.49	2632.00
333.27	2632.00
334.05	2635.00
334.83	2639.00
335.61	2645.00
336.39	2642.00
337.17	2636.00
337.95	2641.00
338.73	2643.00
339.51	2642.00
340.29	2648.00
341.07	2650.00
341.84	2652.00
342.62	2650.00
343.40	2644.00
344.18	2653.00
344.96	2655.00
345.74	2662.00
346.52	2655.00
347.29	2659.00
348.07	2662.00
348.85	2669.00
349.63	2676.00
350.41	2682.00
351.18	2680.00
351.96	2676.00
352.74	2685.00
353.52	2683.00
354.30	2694.00
355.07	2704.00
355.85	2700.00
356.63	2699.00
357.41	2705.00
358.18	2710.00
358.96	2720.00
359.74	2731.00
360.52	2735.00
361.29	2739.00
362.07	2741.00
362.85	2745.00
363.62	2753.00
364.40	2763.00
365.18	2773.00
365.95	2778.00
366.73	2785.00
367.51	2793.00
368.28	2799.00
369.06	2811.00
369.84	2822.00
370.61	2830.00
371.39	2841.00
372.17	2851.00
372.94	2860.00
373.72	2870.00
374.49	2882.00
375.27	2890.00
376.05	2903.00
376.82	2915.00
377.60	2932.00
378.37	2947.00
379.15	2959.00
379.92	2974.00
380.70	2991.00
381.47	2993.00
382.25	3018.00
383.02	3028.00
383.80	3056.00
384.58	3066.00
385.35	3090.00
386.13	3109.00
386.90	3130.00
387.67	3143.00
388.45	3156.00
389.22	3191.00
390.00	3186.00
390.77	3209.00
391.55	3239.00
392.32	3265.00
393.10	3291.00
393.87	3304.00
394.65	3327.00
395.42	3348.00
396.19	3357.00
396.97	3404.00
397.74	3430.00
398.52	3435.00
399.29	3473.00
400.06	3491.00
400.84	3519.00
401.61	3541.00
402.38	3559.00
403.16	3610.00
403.93	3627.00
404.70	3647.00
405.48	3682.00
406.25	3701.00
407.02	3750.00
407.80	3771.00
408.57	3793.00
409.34	3814.00
410.12	3831.00
410.89	3866.00
411.66	3895.00
412.43	3935.00
413.21	3962.00
413.98	3999.00
414.75	4016.00
415.52	4041.00
416.30	4091.00
417.07	4123.00
417.84	4140.00
418.61	4187.00
419.39	4202.00
420.16	4258.00
420.93	4269.00
421.70	4314.00
422.47	4343.00
423.24	4400.00
424.02	4409.00
424.79	4470.00
425.56	4506.00
426.33	4533.00
427.10	4579.00
427.87	4635.00
428.64	4667.00
429.42	4711.00
430.19	4761.00
430.96	4830.00
431.73	4859.00
432.50	4907.00
433.27	4943.00
434.04	4994.00
434.81	5051.00
435.58	5110.00
436.35	5162.00
437.12	5207.00
437.89	5250.00
438.67	5320.00
439.44	5366.00
440.21	5445.00
440.98	5483.00
441.75	5580.00
442.52	5634.00
443.29	5687.00
444.06	5751.00
444.83	5806.00
445.60	5890.00
446.37	5963.00
447.13	5989.00
447.90	6083.00
448.67	6155.00
449.44	6260.00
450.21	6297.00
450.98	6395.00
451.75	6452.00
452.52	6536.00
453.29	6642.00
454.06	6728.00
454.83	6799.00
455.60	6883.00
456.37	6966.00
457.13	7079.00
457.90	7165.00
458.67	7242.00
459.44	7360.00
460.21	7417.00
460.98	7501.00
461.75	7611.00
462.51	7744.00
463.28	7820.00
464.05	7942.00
464.82	8027.00
465.59	8150.00
466.35	8214.00
467.12	8367.00
467.89	8419.00
468.66	8553.00
469.43	8661.00
470.19	8801.00
470.96	8878.00
471.73	8993.00
472.50	9129.00
473.26	9201.00
474.03	9345.00
474.80	9493.00
475.56	9598.00
476.33	9686.00
477.10	9877.00
477.87	9943.00
478.63	10056.00
479.40	10205.00
480.17	10362.00
480.93	10480.00
481.70	10576.00
482.47	10723.00
483.23	10844.00
484.00	11040.00
484.76	11211.00
485.53	11302.00
486.30	11436.00
487.06	11610.00
487.83	11761.00
488.60	11885.00
489.36	12048.00
490.13	12187.00
490.89	12282.00
491.66	12436.00
492.42	12601.00
493.19	12789.00
493.96	12932.00
494.72	13060.00
495.49	13217.00
496.25	13406.00
497.02	13525.00
497.78	13745.00
498.55	13826.00
499.31	13942.00
500.08	14125.00
500.84	14312.00
501.61	14494.00
502.37	14563.00
503.14	14823.00
503.90	14945.00
504.67	15132.00
505.43	15327.00
506.20	15497.00
506.96	15690.00
507.72	15831.00
508.49	16049.00
509.25	16266.00
510.02	16416.00
510.78	16653.00
511.54	16762.00
512.31	16964.00
513.07	17150.00
513.84	17274.00
514.60	17476.00
515.36	17641.00
516.13	17843.00
516.89	17967.00
517.65	18146.00
518.42	18319.00
519.18	18441.00
519.94	18710.00
520.71	18882.00
521.47	19009.00
522.23	19160.00
523.00	19414.00
523.76	19601.00
524.52	19834.00
525.28	20012.00
526.05	20242.00
526.81	20446.00
527.57	20624.00
528.33	20812.00
529.10	20980.00
529.86	21163.00
530.62	21370.00
531.38	21536.00
532.15	21767.00
532.91	21881.00
533.67	22131.00
534.43	22226.00
535.19	22451.00
535.96	22676.00
536.72	22852.00
537.48	22972.00
538.24	23227.00
539.00	23447.00
539.76	23674.00
540.53	23957.00
541.29	24211.00
542.05	24375.00
542.81	24516.00
543.57	24786.00
544.33	25035.00
545.09	25236.00
545.85	25385.00
546.61	25571.00
547.38	25755.00
548.14	25916.00
548.90	26185.00
549.66	26328.00
550.42	26587.00
551.18	26818.00
551.94	26992.00
552.70	27154.00
553.46	27464.00
554.22	27670.00
554.98	27827.00
555.74	28010.00
556.50	28213.00
557.26	28458.00
558.02	28724.00
558.78	28958.00
559.54	29077.00
560.30	29217.00
561.06	29449.00
561.82	29736.00
562.58	29997.00
563.34	30226.00
564.10	30443.00
564.86	30665.00
565.61	30862.00
566.37	31125.00
567.13	31392.00
567.89	31516.00
568.65	31699.00
569.41	31993.00
570.17	32140.00
570.93	32363.00
571.69	32578.00
572.44	32766.00
573.20	32922.00
573.96	33164.00
574.72	33380.00
575.48	33604.00
576.24	33834.00
576.99	34022.00
577.75	34274.00
578.51	34534.00
579.27	34752.00
580.03	34988.00
580.78	35174.00
581.54	35470.00
582.30	35683.00
583.06	35803.00
583.82	36022.00
584.57	36164.00
585.33	36316.00
586.09	36554.00
586.84	36716.00
587.60	36839.00
588.36	36954.00
589.12	37166.00
589.87	37365.00
590.63	37694.00
591.39	37847.00
592.14	37937.00
592.90	38290.00
593.66	38494.00
594.41	38811.00
595.17	38935.00
595.93	39072.00
596.68	39179.00
597.44	39458.00
598.20	39707.00
598.95	39972.00
599.71	40273.00
600.46	40402.00
601.22	40518.00
601.98	40651.00
602.73	41066.00
603.49	41394.00
604.24	41567.00
605.00	41747.00
605.76	41901.00
606.51	42145.00
607.27	42328.00
608.02	42647.00
608.78	42820.00
609.53	43066.00
610.29	43226.00
611.04	43418.00
611.80	43711.00
612.55	44010.00
613.31	44348.00
614.06	44582.00
614.82	44744.00
615.57	45074.00
616.33	45268.00
617.08	45487.00
617.84	45574.00
618.59	45617.00
619.35	45687.00
620.10	45646.00
620.85	45653.00
621.61	45702.00
622.36	45754.00
623.12	45817.00
623.87	45905.00
624.62	46044.00
625.38	46101.00
626.13	46367.00
626.89	46591.00
627.64	46712.00
628.39	46747.00
629.15	46785.00
629.90	46838.00
630.65	46832.00
631.41	46787.00
632.16	46852.00
632.91	46886.00
633.67	46967.00
634.42	47074.00
635.17	47262.00
635.92	47566.00
636.68	48177.00
637.43	48786.00
638.18	49378.00
638.94	49928.00
639.69	50236.00
640.44	50637.00
641.19	51117.00
641.95	51533.00
642.70	51909.00
643.45	52085.00
644.20	52258.00
644.95	52601.00
645.71	52647.00
646.46	52893.00
647.21	52962.00
647.96	53079.00
648.71	53218.00
649.47	53352.00
650.22	53453.00
650.97	53563.00
651.72	53709.00
652.47	53872.00
653.22	54040.00
653.97	54197.00
654.73	54444.00
655.48	54491.00
656.23	54795.00
656.98	55126.00
657.73	55334.00
658.48	55404.00
659.23	55353.00
659.98	55461.00
660.73	55334.00
661.48	55489.00
662.23	55623.00
662.99	55674.00
663.74	55825.00
664.49	56179.00
665.24	56607.00
665.99	56939.00
666.74	57164.00
667.49	57164.00
668.24	57184.00
668.99	57370.00
669.74	57585.00
670.49	57727.00
671.24	57850.00
671.99	58000.00
672.74	58341.00
673.48	58429.00
674.23	58448.00
674.98	58533.00
675.73	58589.00
676.48	58717.00
677.23	58750.00
677.98	58904.00
678.73	58874.00
679.48	58894.00
680.23	58952.00
680.98	59058.00
681.73	58944.00
682.47	59158.00
683.22	58989.00
683.97	59078.00
684.72	59213.00
685.47	59288.00
686.22	59451.00
686.97	59695.00
687.71	59863.00
688.46	60065.00
689.21	60194.00
689.96	60138.00
690.71	60205.00
691.45	60157.00
692.20	60253.00
692.95	60335.00
693.70	60350.00
694.44	60423.00
695.19	60474.00
695.94	60602.00
696.69	60710.00
697.43	60790.00
698.18	60886.00
698.93	61025.00
699.68	60961.00
700.42	61100.00
701.17	61238.00
701.92	61207.00
702.66	61224.00
703.41	61403.00
704.16	61453.00
704.90	61321.00
705.65	61374.00
706.40	61347.00
707.14	61388.00
707.89	61412.00
708.64	61524.00
709.38	61599.00
710.13	61527.00
710.88	61656.00
711.62	61720.00
712.37	61743.00
713.11	61923.00
713.86	61892.00
714.61	61940.00
715.35	61663.00
716.10	61587.00
716.84	61362.00
717.59	61249.00
718.33	60961.00
719.08	60852.00
719.83	60825.00
720.57	60816.00
721.32	60721.00
722.06	60645.00
722.81	60587.00
723.55	60501.00
724.30	60568.00
725.04	60648.00
725.79	60792.00
726.53	60718.00
727.28	60572.00
728.02	60633.00
728.76	60688.00
729.51	60893.00
730.25	60931.00
731.00	60936.00
731.74	60913.00
732.49	60797.00
733.23	60733.00
733.97	60584.00
734.72	60603.00
735.46	60414.00
736.21	60402.00
736.95	60483.00
737.69	60515.00
738.44	60664.00
739.18	60754.00
739.92	60869.00
740.67	60907.00
741.41	60964.00
742.15	61167.00
742.90	61303.00
743.64	61306.00
744.38	61303.00
745.13	61154.00
745.87	61173.00
746.61	61249.00
747.36	61227.00
748.10	61256.00
748.84	61259.00
749.58	61210.00
750.33	61166.00
751.07	61039.00
751.81	60920.00
752.55	60891.00
753.30	60778.00
754.04	60718.00
754.78	60387.00
755.52	60164.00
756.27	60096.00
757.01	60012.00
757.75	60063.00
758.49	60164.00
759.23	60008.00
759.97	60042.00
760.72	59875.00
761.46	60047.00
762.20	60038.00
762.94	60058.00
763.68	59941.00
764.42	59825.00
765.16	59828.00
765.91	59802.00
766.65	59901.00
767.39	59752.00
768.13	59679.00
768.87	59673.00
769.61	59626.00
770.35	59499.00
771.09	59328.00
771.83	59136.00
772.57	59125.00
773.31	59241.00
774.05	59205.00
774.80	59241.00
775.54	59125.00
776.28	59026.00
777.02	58935.00
777.76	58919.00
778.50	58635.00
779.24	58390.00
779.98	58260.00
780.72	58193.00
781.46	58024.00
782.20	57985.00
782.93	57888.00
783.67	57888.00
784.41	57637.00
785.15	57544.00
785.89	57400.00
786.63	57208.00
787.37	56930.00
788.11	56697.00
788.85	56788.00
789.59	56641.00
790.33	56693.00
791.07	56758.00
791.81	56663.00
792.54	56328.00
793.28	56175.00
794.02	55916.00
794.76	55541.00
795.50	55371.00
796.24	55081.00
796.97	54875.00
797.71	54446.00
798.45	54372.00
799.19	54212.00
799.93	54272.00
800.67	54120.00
801.40	54109.00
802.14	54125.00
802.88	54196.00
803.62	54241.00
804.35	54304.00
805.09	54203.00
805.83	54102.00
806.57	53831.00
807.30	53741.00
808.04	53777.00
808.78	53507.00
809.52	53318.00
810.25	52998.00
810.99	52846.00
811.73	52684.00
812.46	52640.00
813.20	52608.00
813.94	52584.00
814.68	52471.00
815.41	52308.00
816.15	52247.00
816.88	52424.00
817.62	52347.00
818.36	52181.00
819.09	51911.00
819.83	51706.00
820.57	51582.00
821.30	51516.00
822.04	51401.00
822.77	51131.00
823.51	50950.00
824.25	50884.00
824.98	50886.00
825.72	50706.00
826.45	50582.00
827.19	50324.00
827.92	50077.00
828.66	49858.00
829.40	49716.00
830.13	49543.00
830.87	49606.00
831.60	49559.00
832.34	49461.00
833.07	49282.00
833.81	49286.00
834.54	49299.00
835.28	49256.00
836.01	49134.00
836.75	48968.00
837.48	48763.00
838.22	48594.00
838.95	48537.00
839.68	48531.00
840.42	48538.00
841.15	48609.00
841.89	48476.00
842.62	48219.00
843.36	48035.00
844.09	47956.00
844.82	48030.00
845.56	48025.00
846.29	47867.00
847.02	47637.00
847.76	47544.00
848.49	47625.00
849.23	47752.00
849.96	48007.00
850.69	48112.00
851.43	47900.00
852.16	47653.00
852.89	47333.00
853.63	47114.00
854.36	47071.00
855.09	47297.00
855.82	47100.00
856.56	46999.00
857.29	46862.00
858.02	46675.00
858.76	46617.00
859.49	46592.00
860.22	46445.00
860.95	46254.00
861.69	46094.00
862.42	45804.00
863.15	45707.00
863.88	45597.00
864.61	45659.00
865.35	45766.00
866.08	45641.00
866.81	45441.00
867.54	45190.00
868.27	45011.00
869.01	45037.00
869.74	44988.00
870.47	44999.00
871.20	44754.00
871.93	44388.00
872.66	44137.00
873.40	44077.00
874.13	43926.00
874.86	43673.00
875.59	43593.00
876.32	43484.00
877.05	43523.00
877.78	43293.00
878.51	43051.00
879.24	42957.00
879.97	42618.00
880.71	42497.00
881.44	42305.00
882.17	42153.00
882.90	41990.00
883.63	41812.00
884.36	41820.00
885.09	41937.00
885.82	42140.00
886.55	42244.00
887.28	42265.00
888.01	42186.00
888.74	42024.00
889.47	41728.00
890.20	41405.00
890.93	41074.00
891.66	40865.00
892.39	40725.00
893.12	40683.00
893.85	40692.00
894.57	40714.00
895.30	40675.00
896.03	40676.00
896.76	40630.00
897.49	40456.00
898.22	40276.00
898.95	40064.00
899.68	39903.00
900.41	39696.00
901.14	39408.00
901.86	39387.00
902.59	39334.00
903.32	39227.00
904.05	39187.00
904.78	39126.00
905.51	39105.00
906.24	38932.00
906.96	38817.00
907.69	38613.00
908.42	38414.00
909.15	38194.00
909.88	37877.00
910.60	37669.00
911.33	37579.00
912.06	37489.00
912.79	37168.00
913.52	36975.00
914.24	36901.00
914.97	36849.00
915.70	36703.00
916.42	36503.00
917.15	36385.00
917.88	36133.00
918.61	36033.00
919.33	35607.00
920.06	35321.00
920.79	35123.00
921.51	34880.00
922.24	34785.00
922.97	34670.00
923.69	34475.00
924.42	34364.00
925.15	34178.00
925.87	34027.00
926.60	33682.00
927.33	33448.00
928.05	33112.00
928.78	32916.00
929.51	32452.00
930.23	32191.00
930.96	31768.00
931.68	31418.00
932.41	31045.00
933.14	30731.00
933.86	30459.00
934.59	30138.00
935.31	29634.00
936.04	29019.00
936.76	28619.00
937.49	27997.00
938.21	27599.00
938.94	27016.00
939.66	26618.00
940.39	26154.00
941.11	25598.00
941.84	25286.00
942.56	24938.00
943.29	24748.00
944.01	24427.00
944.74	24428.00
945.46	24279.00
946.19	24296.00
946.91	24308.00
947.64	24312.00
948.36	24439.00
949.09	24453.00
949.81	24524.00
950.53	24612.00
951.26	24632.00
951.98	24795.00
952.71	24770.00
953.43	24880.00
954.15	25013.00
954.88	25165.00
955.60	25218.00
956.33	25298.00
957.05	25306.00
957.77	25459.00
958.50	25459.00
959.22	25464.00
959.94	25371.00
960.67	25394.00
961.39	25303.00
962.11	25301.00
962.84	25410.00
963.56	25297.00
964.28	25263.00
965.00	25013.00
965.73	24890.00
966.45	24751.00
967.17	24562.00
967.89	24385.00
968.62	24133.00
969.34	23979.00
970.06	23793.00
970.78	23671.00
971.51	23612.00
972.23	23496.00
972.95	23276.00
973.67	23119.00
974.40	22930.00
975.12	22805.00
975.84	22660.00
976.56	22481.00
977.28	22334.00
978.00	22210.00
978.73	22083.00
979.45	22035.00
980.17	21938.00
980.89	21849.00
981.61	21795.00
982.33	21706.00
983.05	21621.00
983.77	21605.00
984.50	21547.00
985.22	21424.00
985.94	21342.00
986.66	21248.00
987.38	21128.00
988.10	21132.00
988.82	21104.00
989.54	20934.00
990.26	20836.00
990.98	20658.00
991.70	20561.00
992.42	20458.00
993.14	20275.00
993.86	20078.00
994.58	19979.00
995.30	19778.00
996.02	19629.00
996.74	19555.00
997.46	19524.00
998.18	19341.00
998.90	19226.00
999.62	19076.00
1000.34	18993.00
1001.06	18920.00
1001.78	18803.00
1002.50	18632.00
1003.22	18441.00
1003.94	18289.00
1004.66	18156.00
1005.38	17952.00
1006.09	17789.00
1006.81	17516.00
1007.53	17353.00
1008.25	17162.00
1008.97	17058.00
1009.69	17015.00
1010.41	16826.00
1011.13	16725.00
1011.84	16535.00
1012.56	16353.00
1013.28	16230.00
1014.00	16099.00
1014.72	15925.00
1015.44	15718.00
1016.15	15512.00
1016.87	15295.00
1017.59	15126.00
1018.31	15002.00
1019.03	14865.00
1019.74	14790.00
1020.46	14710.00
1021.18	14576.00
1021.90	14447.00
1022.61	14340.00
1023.33	14251.00
1024.05	14105.00
1024.76	13899.00
1025.48	13690.00
1026.20	13472.00
1026.92	13287.00
1027.63	13141.00
1028.35	12920.00
1029.07	12750.00
1029.78	12629.00
1030.50	12394.00
1031.22	12230.00
1031.93	12165.00
1032.65	11958.00
1033.37	11896.00
1034.08	11798.00
1034.80	11673.00
1035.52	11604.00
1036.23	11501.00
1036.95	11420.00
1037.66	11327.00
1038.38	11170.00
1039.10	11008.00
1039.81	10827.00
1040.53	10625.00
1041.24	10471.00
1041.96	10324.00
1042.67	10185.00
1043.39	10085.00
1044.10	9971.00
1044.82	9850.00
1045.54	9768.00
1046.25	9625.00
1046.97	9516.00
1047.68	9343.00
1048.40	9194.00
1049.11	9015.00
1049.83	8897.00
1050.54	8746.00
1051.26	8662.00
1051.97	8554.00
1052.68	8422.00
1053.40	8339.00
1054.11	8196.00
1054.83	8072.00
1055.54	7930.00
1056.26	7809.00
1056.97	7725.00
1057.69	7625.00
1058.40	7509.00
1059.11	7419.00
1059.83	7256.00
1060.54	7086.00
1061.25	6994.00
1061.97	6807.00
1062.68	6672.00
1063.40	6568.00
1064.11	6401.00
1064.82	6279.00
1065.54	6146.00
1066.25	2577.00
1066.96	2571.00
1067.68	2572.00
1068.39	2574.00
1069.10	2629.00
1069.82	2628.00
1070.53	2633.00
1071.24	2638.00
1071.95	2633.00
1072.67	2629.00
1073.38	5982.00
1074.09	5890.00
1074.80	5776.00
1075.52	5668.00
1076.23	5516.00
1076.94	5420.00
1077.65	2582.00
1078.37	2561.00
1079.08	2582.00
1079.79	2580.00
