300.47	2633.00
301.26	2630.00
302.04	2630.00
302.82	2623.00
303.60	2623.00
304.38	2629.00
305.17	2637.00
305.95	2631.00
306.73	2623.00
307.51	2627.00
308.29	2628.00
309.08	2628.00
309.86	2632.00
310.64	2636.00
311.42	2635.00
312.20	2636.00
312.98	2634.00
313.76	2623.00
314.55	2627.00
315.33	2633.00
316.11	2634.00
316.89	2634.00
317.67	2635.00
318.45	2627.00
319.23	2624.00
320.01	2634.00
320.79	2629.00
321.57	2625.00
322.35	2636.00
323.13	2635.00
323.91	2631.00
324.69	2632.00
325.47	2630.00
326.25	2632.00
327.03	2634.00
327.81	2633.00
328.59	2636.00
329.37	2636.00
330.15	2635.00
330.93	2643.00
331.71	2638.00
332.49	2642.00
333.27	2637.00
334.05	2636.00
334.83	2636.00
335.61	2639.00
336.39	2644.00
337.17	2638.00
337.95	2641.00
338.73	2640.00
339.51	2640.00
340.29	2641.00
341.07	2642.00
341.84	2644.00
342.62	2653.00
343.40	2649.00
344.18	2655.00
344.96	2657.00
345.74	2662.00
346.52	2655.00
347.29	2664.00
348.07	2673.00
348.85	2669.00
349.63	2675.00
350.41	2673.00
351.18	2676.00
351.96	2676.00
352.74	2683.00
353.52	2690.00
354.30	2703.00
355.07	2700.00
355.85	2697.00
356.63	2703.00
357.41	2705.00
358.18	2716.00
358.96	2725.00
359.74	2731.00
360.52	2733.00
361.29	2740.00
362.07	2739.00
362.85	2750.00
363.62	2761.00
364.40	2766.00
365.18	2775.00
365.95	2783.00
366.73	2795.00
367.51	2799.00
368.28	2797.00
369.06	2809.00
369.84	2825.00
370.61	2821.00
371.39	2840.00
372.17	2844.00
372.94	2862.00
373.72	2869.00
374.49	2883.00
375.27	2892.00
376.05	2908.00
376.82	2916.00
377.60	2928.00
378.37	2944.00
379.15	2956.00
379.92	2957.00
380.70	2981.00
381.47	3006.00
382.25	3023.00
383.02	3040.00
383.80	3048.00
384.58	3066.00
385.35	3087.00
386.13	3103.00
386.90	3135.00
387.67	3132.00
388.45	3161.00
389.22	3185.00
390.00	3207.00
390.77	3234.00
391.55	3241.00
392.32	3263.00
393.10	3285.00
393.87	3304.00
394.65	3326.00
395.42	3353.00
396.19	3372.00
396.97	3391.00
397.74	3422.00
398.52	3450.00
399.29	3482.00
400.06	3491.00
400.84	3521.00
401.61	3549.00
402.38	3580.00
403.16	3596.00
403.93	3627.00
404.70	3646.00
405.48	3675.00
406.25	3700.00
407.02	3733.00
407.80	3771.00
408.57	3796.00
409.34	3817.00
410.12	3837.00
410.89	3875.00
411.66	3890.00
412.43	3923.00
413.21	3954.00
413.98	3989.00
414.75	4035.00
415.52	4070.00
416.30	4075.00
417.07	4131.00
417.84	4156.00
418.61	4184.00
419.39	4215.00
420.16	4254.00
420.93	4287.00
421.70	4323.00
422.47	4352.00
423.24	4388.00
424.02	4429.00
424.79	4464.00
425.56	4497.00
426.33	4530.00
427.10	4579.00
427.87	4627.00
428.64	4671.00
429.42	4713.00
430.19	4760.00
430.96	4795.00
431.73	4851.00
432.50	4890.00
433.27	4924.00
434.04	4990.00
434.81	5029.00
435.58	5113.00
436.35	5170.00
437.12	5211.00
437.89	5265.00
438.67	5318.00
439.44	5375.00
440.21	5444.00
440.98	5502.00
441.75	5589.00
442.52	5621.00
443.29	5668.00
444.06	5760.00
444.83	5826.00
445.60	5888.00
446.37	5942.00
447.13	5985.00
447.90	6078.00
448.67	6140.00
449.44	6221.00
450.21	6300.00
450.98	6380.00
451.75	6460.00
452.52	6524.00
453.29	6606.00
454.06	6738.00
454.83	6807.00
455.60	6886.00
456.37	6970.00
457.13	7046.00
457.90	7137.00
458.67	7237.00
459.44	7324.00
460.21	7444.00
460.98	7498.00
461.75	7628.00
462.51	7720.00
463.28	7809.00
464.05	7938.00
464.82	8016.00
465.59	8139.00
466.35	8233.00
467.12	8312.00
467.89	8408.00
468.66	8537.00
469.43	8645.00
470.19	8761.00
470.96	8852.00
471.73	9021.00
472.50	9115.00
473.26	9241.00
474.03	9347.00
474.80	9478.00
475.56	9566.00
476.33	9687.00
477.10	9847.00
477.87	9964.00
478.63	10067.00
479.40	10218.00
480.17	10344.00
480.93	10468.00
481.70	10581.00
482.47	10741.00
483.23	10894.00
484.00	11024.00
484.76	11175.00
485.53	11292.00
486.30	11437.00
487.06	11584.00
487.83	11748.00
488.60	11862.00
489.36	12046.00
490.13	12193.00
490.89	12287.00
491.66	12484.00
492.42	12589.00
493.19	12761.00
493.96	12962.00
494.72	13061.00
495.49	13195.00
496.25	13381.00
497.02	13513.00
497.78	13664.00
498.55	13826.00
499.31	13998.00
500.08	14154.00
500.84	14251.00
501.61	14388.00
502.37	14590.00
503.14	14806.00
503.90	14940.00
504.67	15124.00
505.43	15297.00
506.20	15499.00
506.96	15642.00
507.72	15860.00
508.49	16090.00
509.25	16260.00
510.02	16430.00
510.78	16600.00
511.54	16755.00
512.31	16955.00
513.07	17158.00
513.84	17325.00
514.60	17462.00
515.36	17666.00
516.13	17845.00
516.89	18008.00
517.65	18133.00
518.42	18264.00
519.18	18476.00
519.94	18667.00
520.71	18806.00
521.47	19029.00
522.23	19243.00
523.00	19381.00
523.76	19605.00
524.52	19824.00
525.28	20021.00
526.05	20201.00
526.81	20435.00
527.57	20597.00
528.33	20784.00
529.10	20936.00
529.86	21139.00
530.62	21346.00
531.38	21544.00
532.15	21734.00
532.91	21879.00
533.67	22063.00
534.43	22302.00
535.19	22473.00
535.96	22675.00
536.72	22817.00
537.48	22968.00
538.24	23143.00
539.00	23462.00
539.76	23650.00
540.53	23942.00
541.29	24161.00
542.05	24326.00
542.81	24565.00
543.57	24814.00
544.33	25031.00
545.09	25174.00
545.85	25393.00
546.61	25558.00
547.38	25721.00
548.14	25891.00
548.90	26105.00
549.66	26359.00
550.42	26619.00
551.18	26872.00
551.94	26968.00
552.70	27201.00
553.46	27440.00
554.22	27658.00
554.98	27911.00
555.74	28007.00
556.50	28174.00
557.26	28429.00
558.02	28674.00
558.78	28819.00
559.54	29080.00
560.30	29241.00
561.06	29500.00
561.82	29778.00
562.58	29979.00
563.34	30203.00
564.10	30428.00
564.86	30643.00
565.61	30849.00
566.37	31088.00
567.13	31289.00
567.89	31568.00
568.65	31701.00
569.41	31946.00
570.17	32203.00
570.93	32313.00
571.69	32568.00
572.44	32755.00
573.20	32959.00
573.96	33216.00
574.72	33380.00
575.48	33596.00
576.24	33776.00
576.99	34045.00
577.75	34229.00
578.51	34523.00
579.27	34670.00
580.03	34914.00
580.78	35146.00
581.54	35443.00
582.30	35574.00
583.06	35783.00
583.82	35959.00
584.57	36161.00
585.33	36306.00
586.09	36543.00
586.84	36616.00
587.60	36857.00
588.36	36968.00
589.12	37138.00
589.87	37374.00
590.63	37688.00
591.39	37866.00
592.14	38013.00
592.90	38239.00
593.66	38454.00
594.41	38834.00
595.17	38931.00
595.93	39029.00
596.68	39218.00
597.44	39349.00
598.20	39643.00
598.95	40085.00
599.71	40213.00
600.46	40418.00
601.22	40443.00
601.98	40682.00
602.73	41035.00
603.49	41327.00
604.24	41616.00
605.00	41694.00
605.76	41951.00
606.51	41970.00
607.27	42238.00
608.02	42560.00
608.78	42818.00
609.53	43087.00
610.29	43208.00
611.04	43417.00
611.80	43713.00
612.55	43984.00
613.31	44312.00
614.06	44571.00
614.82	44703.00
615.57	44952.00
616.33	45233.00
617.08	45412.00
617.84	45525.00
618.59	45646.00
619.35	45665.00
620.10	45592.00
620.85	45556.00
621.61	45658.00
622.36	45725.00
623.12	45730.00
623.87	45893.00
624.62	45985.00
625.38	46034.00
626.13	46291.00
626.89	46575.00
627.64	46834.00
628.39	46799.00
629.15	46763.00
629.90	46748.00
630.65	46819.00
631.41	46854.00
632.16	46852.00
632.91	46945.00
633.67	46932.00
634.42	46944.00
635.17	47279.00
635.92	47691.00
636.68	48189.00
637.43	48691.00
638.18	49324.00
638.94	49752.00
639.69	50289.00
640.44	50646.00
641.19	51127.00
641.95	51588.00
642.70	51838.00
643.45	52136.00
644.20	52463.00
644.95	52524.00
645.71	52604.00
646.46	52846.00
647.21	53005.00
647.96	53055.00
648.71	53142.00
649.47	53408.00
650.22	53563.00
650.97	53593.00
651.72	53688.00
652.47	53896.00
653.22	54017.00
653.97	54245.00
654.73	54438.00
655.48	54622.00
656.23	54744.00
656.98	55038.00
657.73	55250.00
658.48	55415.00
659.23	55330.00
659.98	55334.00
660.73	55309.00
661.48	55509.00
662.23	55624.00
662.99	55635.00
663.74	55691.00
664.49	56059.00
665.24	56577.00
665.99	57068.00
666.74	57131.00
667.49	57201.00
668.24	57287.00
668.99	57393.00
669.74	57514.00
670.49	57846.00
671.24	57869.00
671.99	57988.00
672.74	58243.00
673.48	58409.00
674.23	58473.00
674.98	58614.00
675.73	58625.00
676.48	58500.00
677.23	58830.00
677.98	58864.00
678.73	58899.00
679.48	58878.00
680.23	59022.00
680.98	58949.00
681.73	58984.00
682.47	58995.00
683.22	59052.00
683.97	59184.00
684.72	59236.00
685.47	59302.00
686.22	59395.00
686.97	59561.00
687.71	59892.00
688.46	60170.00
689.21	60174.00
689.96	60111.00
690.71	60127.00
691.45	60169.00
692.20	60284.00
692.95	60318.00
693.70	60317.00
694.44	60344.00
695.19	60554.00
695.94	60652.00
696.69	60736.00
697.43	60877.00
698.18	60948.00
698.93	61016.00
699.68	61068.00
700.42	61110.00
701.17	61096.00
701.92	61147.00
702.66	61400.00
703.41	61344.00
704.16	61373.00
704.90	61350.00
705.65	61382.00
706.40	61346.00
707.14	61373.00
707.89	61345.00
708.64	61421.00
709.38	61581.00
710.13	61674.00
710.88	61740.00
711.62	61728.00
712.37	61744.00
713.11	61898.00
713.86	61943.00
714.61	61813.00
715.35	61639.00
716.10	61525.00
716.84	61388.00
717.59	61290.00
718.33	61012.00
719.08	60960.00
719.83	60920.00
720.57	60754.00
721.32	60719.00
722.06	60641.00
722.81	60623.00
723.55	60518.00
724.30	60614.00
725.04	60717.00
725.79	60608.00
726.53	60683.00
727.28	60639.00
728.02	60711.00
728.76	60748.00
729.51	60822.00
730.25	60908.00
731.00	60873.00
731.74	60837.00
732.49	60806.00
733.23	60669.00
733.97	60647.00
734.72	60618.00
735.46	60426.00
736.21	60427.00
736.95	60374.00
737.69	60509.00
738.44	60693.00
739.18	60807.00
739.92	60888.00
740.67	60923.00
741.41	61012.00
742.15	61106.00
742.90	61264.00
743.64	61331.00
744.38	61267.00
745.13	61321.00
745.87	61207.00
746.61	61304.00
747.36	61216.00
748.10	61367.00
748.84	61303.00
749.58	61070.00
750.33	61122.00
751.07	61084.00
751.81	60932.00
752.55	60792.00
753.30	60871.00
754.04	60722.00
754.78	60375.00
755.52	60194.00
756.27	60011.00
757.01	60007.00
757.75	60036.00
758.49	60152.00
759.23	59961.00
759.97	60041.00
760.72	59907.00
761.46	59983.00
762.20	59972.00
762.94	60076.00
763.68	59996.00
764.42	59924.00
765.16	59805.00
765.91	59866.00
766.65	59876.00
767.39	59779.00
768.13	59634.00
768.87	59734.00
769.61	59653.00
770.35	59499.00
771.09	59240.00
771.83	59160.00
772.57	59208.00
773.31	59209.00
774.05	59176.00
774.80	59304.00
775.54	59108.00
776.28	59060.00
777.02	59040.00
777.76	59001.00
778.50	58736.00
779.24	58432.00
779.98	58275.00
780.72	58173.00
781.46	58033.00
782.20	57963.00
782.93	57854.00
783.67	57867.00
784.41	57638.00
785.15	57541.00
785.89	57388.00
786.63	57215.00
787.37	56883.00
788.11	56702.00
788.85	56636.00
789.59	56695.00
790.33	56675.00
791.07	56649.00
791.81	56675.00
792.54	56444.00
793.28	56199.00
794.02	55792.00
794.76	55609.00
795.50	55308.00
796.24	55162.00
796.97	54909.00
797.71	54543.00
798.45	54448.00
799.19	54300.00
799.93	54225.00
800.67	54075.00
801.40	54074.00
802.14	54094.00
802.88	54279.00
803.62	54330.00
804.35	54202.00
805.09	54128.00
805.83	54005.00
806.57	53881.00
807.30	53804.00
808.04	53724.00
808.78	53563.00
809.52	53258.00
810.25	53045.00
810.99	52798.00
811.73	52713.00
812.46	52597.00
813.20	52604.00
813.94	52596.00
814.68	52474.00
815.41	52298.00
816.15	52319.00
816.88	52393.00
817.62	52417.00
818.36	52195.00
819.09	51905.00
819.83	51704.00
820.57	51575.00
821.30	51464.00
822.04	51426.00
822.77	51196.00
823.51	51083.00
824.25	50853.00
824.98	50789.00
825.72	50783.00
826.45	50623.00
827.19	50357.00
827.92	50124.00
828.66	49876.00
829.40	49679.00
830.13	49614.00
830.87	49616.00
831.60	49553.00
832.34	49342.00
833.07	49293.00
833.81	49239.00
834.54	49297.00
835.28	49367.00
836.01	49216.00
836.75	49108.00
837.48	48699.00
838.22	48593.00
838.95	48530.00
839.68	48515.00
840.42	48673.00
841.15	48632.00
841.89	48423.00
842.62	48271.00
843.36	48028.00
844.09	47947.00
844.82	47985.00
845.56	48014.00
846.29	47873.00
847.02	47632.00
847.76	47609.00
848.49	47486.00
849.23	47794.00
849.96	47984.00
850.69	48128.00
851.43	47931.00
852.16	47602.00
852.89	47297.00
853.63	47171.00
854.36	47053.00
855.09	47136.00
855.82	47184.00
856.56	47063.00
857.29	46838.00
858.02	46660.00
858.76	46681.00
859.49	46649.00
860.22	46561.00
860.95	46299.00
861.69	46094.00
862.42	45855.00
863.15	45694.00
863.88	45563.00
864.61	45651.00
865.35	45753.00
866.08	45568.00
866.81	45430.00
867.54	45143.00
868.27	45000.00
869.01	45038.00
869.74	44987.00
870.47	44904.00
871.20	44713.00
871.93	44382.00
872.66	44235.00
873.40	44072.00
874.13	43832.00
874.86	43744.00
875.59	43521.00
876.32	43427.00
877.05	43459.00
877.78	43439.00
878.51	43159.00
879.24	42863.00
879.97	42547.00
880.71	42519.00
881.44	42373.00
882.17	42214.00
882.90	41962.00
883.63	41865.00
884.36	41938.00
885.09	41981.00
885.82	42110.00
886.55	42252.00
887.28	42183.00
888.01	42183.00
888.74	42056.00
889.47	41734.00
890.20	41335.00
890.93	41018.00
891.66	40823.00
892.39	40702.00
893.12	40677.00
893.85	40754.00
894.57	40740.00
895.30	40733.00
896.03	40743.00
896.76	40543.00
897.49	40381.00
898.22	40304.00
898.95	40095.00
899.68	39946.00
900.41	39662.00
901.14	39463.00
901.86	39370.00
902.59	39187.00
903.32	39261.00
904.05	39222.00
904.78	39175.00
905.51	39003.00
906.24	38890.00
906.96	38816.00
907.69	38637.00
908.42	38356.00
909.15	38124.00
909.88	37959.00
910.60	37768.00
911.33	37608.00
912.06	37327.00
912.79	37169.00
913.52	37011.00
914.24	36904.00
914.97	36832.00
915.70	36808.00
916.42	36531.00
917.15	36416.00
917.88	36153.00
918.61	35893.00
919.33	35650.00
920.06	35268.00
920.79	35165.00
921.51	35008.00
922.24	34857.00
922.97	34708.00
923.69	34572.00
924.42	34369.00
925.15	34260.00
925.87	33945.00
926.60	33713.00
927.33	33433.00
928.05	33084.00
928.78	32687.00
929.51	32493.00
930.23	32231.00
930.96	31785.00
931.68	31410.00
932.41	31084.00
933.14	30749.00
933.86	30413.00
934.59	30116.00
935.31	29636.00
936.04	29123.00
936.76	28630.00
937.49	28068.00
938.21	27543.00
938.94	26968.00
939.66	26566.00
940.39	26099.00
941.11	25651.00
941.84	25269.00
942.56	24960.00
943.29	24740.00
944.01	24486.00
944.74	24395.00
945.46	24328.00
946.19	24325.00
946.91	24337.00
947.64	24356.00
948.36	24411.00
949.09	24497.00
949.81	24538.00
950.53	24581.00
951.26	24699.00
951.98	24758.00
952.71	24756.00
953.43	24892.00
954.15	25045.00
954.88	25130.00
955.60	25277.00
956.33	25274.00
957.05	25283.00
957.77	25412.00
958.50	25511.00
959.22	25490.00
959.94	25485.00
960.67	25324.00
961.39	25297.00
962.11	25353.00
962.84	25354.00
963.56	25344.00
964.28	25247.00
965.00	25081.00
965.73	24882.00
966.45	24714.00
967.17	24568.00
967.89	24400.00
968.62	24205.00
969.34	24033.00
970.06	23848.00
970.78	23722.00
971.51	23651.00
972.23	23449.00
972.95	23304.00
973.67	23122.00
974.40	22937.00
975.12	22810.00
975.84	22645.00
976.56	22504.00
977.28	22292.00
978.00	22266.00
978.73	22100.00
979.45	22012.00
980.17	21946.00
980.89	21900.00
981.61	21779.00
982.33	21682.00
983.05	21639.00
983.77	21613.00
984.50	21504.00
985.22	21466.00
985.94	21325.00
986.66	21272.00
987.38	21176.00
988.10	21142.00
988.82	21071.00
989.54	21001.00
990.26	20892.00
990.98	20763.00
991.70	20569.00
992.42	20433.00
993.14	20325.00
993.86	20132.00
994.58	19901.00
995.30	19787.00
996.02	19650.00
996.74	19542.00
997.46	19469.00
998.18	19360.00
998.90	19262.00
999.62	19122.00
1000.34	18961.00
1001.06	18874.00
1001.78	18893.00
1002.50	18655.00
1003.22	18422.00
1003.94	18302.00
1004.66	18162.00
1005.38	18019.00
1006.09	17736.00
1006.81	17610.00
1007.53	17383.00
1008.25	17218.00
1008.97	17010.00
1009.69	16978.00
1010.41	16885.00
1011.13	16723.00
1011.84	16530.00
1012.56	16333.00
1013.28	16221.00
1014.00	16105.00
1014.72	15910.00
1015.44	15799.00
1016.15	15557.00
1016.87	15373.00
1017.59	15124.00
1018.31	14975.00
1019.03	14893.00
1019.74	14820.00
1020.46	14682.00
1021.18	14579.00
1021.90	14468.00
1022.61	14360.00
1023.33	14167.00
1024.05	14089.00
1024.76	13889.00
1025.48	13645.00
1026.20	13487.00
1026.92	13266.00
1027.63	13072.00
1028.35	12989.00
1029.07	12755.00
1029.78	12578.00
1030.50	12452.00
1031.22	12231.00
1031.93	12115.00
1032.65	11965.00
1033.37	11881.00
1034.08	11823.00
1034.80	11682.00
1035.52	11584.00
1036.23	11520.00
1036.95	11404.00
1037.66	11304.00
1038.38	11153.00
1039.10	10984.00
1039.81	10793.00
1040.53	10614.00
1041.24	10434.00
1041.96	10316.00
1042.67	10209.00
1043.39	10069.00
1044.10	9973.00
1044.82	9854.00
1045.54	9722.00
1046.25	9637.00
1046.97	9485.00
1047.68	9332.00
1048.40	9202.00
1049.11	9051.00
1049.83	8890.00
1050.54	8770.00
1051.26	8665.00
1051.97	8579.00
1052.68	8429.00
1053.40	8353.00
1054.11	8204.00
1054.83	8067.00
1055.54	7934.00
1056.26	7836.00
1056.97	7724.00
1057.69	7635.00
1058.40	7513.00
1059.11	7388.00
1059.83	7261.00
1060.54	7095.00
1061.25	6973.00
1061.97	6833.00
1062.68	6662.00
1063.40	6541.00
1064.11	6415.00
1064.82	6288.00
1065.54	6165.00
1066.25	2573.00
1066.96	2574.00
1067.68	2571.00
1068.39	2569.00
1069.10	2628.00
1069.82	2627.00
1070.53	2623.00
1071.24	2628.00
1071.95	2630.00
1072.67	2628.00
1073.38	6009.00
1074.09	5883.00
1074.80	5792.00
1075.52	5627.00
1076.23	5536.00
1076.94	5418.00
1077.65	2564.00
1078.37	2584.00
1079.08	2581.00
1079.79	2585.00
