300.47	2629.00
301.26	2633.00
302.04	2640.00
302.82	2633.00
303.60	2630.00
304.38	2629.00
305.17	2631.00
305.95	2628.00
306.73	2630.00
307.51	2629.00
308.29	2625.00
309.08	2631.00
309.86	2633.00
310.64	2630.00
311.42	2632.00
312.20	2630.00
312.98	2629.00
313.76	2632.00
314.55	2634.00
315.33	2625.00
316.11	2626.00
316.89	2629.00
317.67	2629.00
318.45	2632.00
319.23	2632.00
320.01	2635.00
320.79	2628.00
321.57	2631.00
322.35	2629.00
323.13	2629.00
323.91	2633.00
324.69	2637.00
325.47	2631.00
326.25	2634.00
327.03	2628.00
327.81	2629.00
328.59	2630.00
329.37	2636.00
330.15	2633.00
330.93	2633.00
331.71	2637.00
332.49	2637.00
333.27	2636.00
334.05	2634.00
334.83	2634.00
335.61	2637.00
336.39	2639.00
337.17	2642.00
337.95	2644.00
338.73	2637.00
339.51	2633.00
340.29	2646.00
341.07	2639.00
341.84	2648.00
342.62	2654.00
343.40	2652.00
344.18	2658.00
344.96	2664.00
345.74	2659.00
346.52	2660.00
347.29	2668.00
348.07	2665.00
348.85	2663.00
349.63	2673.00
350.41	2670.00
351.18	2676.00
351.96	2684.00
352.74	2692.00
353.52	2685.00
354.30	2693.00
355.07	2692.00
355.85	2701.00
356.63	2703.00
357.41	2712.00
358.18	2721.00
358.96	2729.00
359.74	2733.00
360.52	2725.00
361.29	2733.00
362.07	2739.00
362.85	2755.00
363.62	2754.00
364.40	2765.00
365.18	2763.00
365.95	2769.00
366.73	2787.00
367.51	2797.00
368.28	2804.00
369.06	2812.00
369.84	2824.00
370.61	2831.00
371.39	2843.00
372.17	2857.00
372.94	2868.00
373.72	2870.00
374.49	2880.00
375.27	2897.00
376.05	2902.00
376.82	2918.00
377.60	2917.00
378.37	2943.00
379.15	2960.00
379.92	2961.00
380.70	2985.00
381.47	2997.00
382.25	3010.00
383.02	3031.00
383.80	3035.00
384.58	3060.00
385.35	3086.00
386.13	3099.00
386.90	3115.00
387.67	3132.00
388.45	3162.00
389.22	3182.00
390.00	3207.00
390.77	3221.00
391.55	3238.00
392.32	3254.00
393.10	3273.00
393.87	3307.00
394.65	3332.00
395.42	3362.00
396.19	3382.00
396.97	3394.00
397.74	3411.00
398.52	3449.00
399.29	3471.00
400.06	3505.00
400.84	3518.00
401.61	3550.00
402.38	3573.00
403.16	3583.00
403.93	3616.00
404.70	3642.00
405.48	3679.00
406.25	3707.00
407.02	3734.00
407.80	3751.00
408.57	3794.00
409.34	3818.00
410.12	3843.00
410.89	3865.00
411.66	3901.00
412.43	3920.00
413.21	3960.00
413.98	3996.00
414.75	3996.00
415.52	4039.00
416.30	4077.00
417.07	4120.00
417.84	4162.00
418.61	4168.00
419.39	4204.00
420.16	4250.00
420.93	4278.00
421.70	4303.00
422.47	4339.00
423.24	4395.00
424.02	4408.00
424.79	4465.00
425.56	4490.00
426.33	4529.00
427.10	4592.00
427.87	4623.00
428.64	4660.00
429.42	4700.00
430.19	4756.00
430.96	4790.00
431.73	4841.00
432.50	4888.00
433.27	4936.00
434.04	5002.00
434.81	5031.00
435.58	5090.00
436.35	5141.00
437.12	5197.00
437.89	5264.00
438.67	5320.00
439.44	5365.00
440.21	5411.00
440.98	5514.00
441.75	5536.00
442.52	5595.00
443.29	5671.00
444.06	5744.00
444.83	5794.00
445.60	5864.00
446.37	5942.00
447.13	6000.00
447.90	6070.00
448.67	6165.00
449.44	6234.00
450.21	6282.00
450.98	6369.00
451.75	6444.00
452.52	6521.00
453.29	6596.00
454.06	6694.00
454.83	6780.00
455.60	6836.00
456.37	6927.00
457.13	7014.00
457.90	7100.00
458.67	7254.00
459.44	7331.00
460.21	7416.00
460.98	7499.00
461.75	7580.00
462.51	7721.00
463.28	7782.00
464.05	7908.00
464.82	8008.00
465.59	8110.00
466.35	8254.00
467.12	8297.00
467.89	8444.00
468.66	8520.00
469.43	8640.00
470.19	8752.00
470.96	8862.00
471.73	8958.00
472.50	9077.00
473.26	9219.00
474.03	9316.00
474.80	9466.00
475.56	9597.00
476.33	9673.00
477.10	9766.00
477.87	9897.00
478.63	10065.00
479.40	10176.00
480.17	10331.00
480.93	10418.00
481.70	10552.00
482.47	10700.00
483.23	10833.00
484.00	11010.00
484.76	11112.00
485.53	11277.00
486.30	11431.00
487.06	11577.00
487.83	11694.00
488.60	11870.00
489.36	11984.00
490.13	12101.00
490.89	12248.00
491.66	12397.00
492.42	12564.00
493.19	12731.00
493.96	12888.00
494.72	13032.00
495.49	13149.00
496.25	13292.00
497.02	13497.00
497.78	13619.00
498.55	13829.00
499.31	13905.00
500.08	14083.00
500.84	14203.00
501.61	14386.00
502.37	14573.00
503.14	14726.00
503.90	14914.00
504.67	15052.00
505.43	15220.00
506.20	15455.00
506.96	15586.00
507.72	15807.00
508.49	15974.00
509.25	16152.00
510.02	16354.00
510.78	16518.00
511.54	16702.00
512.31	16932.00
513.07	17138.00
513.84	17255.00
514.60	17424.00
515.36	17636.00
516.13	17752.00
516.89	17933.00
517.65	18038.00
518.42	18226.00
519.18	18329.00
519.94	18586.00
520.71	18780.00
521.47	18959.00
522.23	19122.00
523.00	19313.00
523.76	19555.00
524.52	19739.00
525.28	19907.00
526.05	20115.00
526.81	20364.00
527.57	20536.00
528.33	20726.00
529.10	20923.00
529.86	21046.00
530.62	21296.00
531.38	21498.00
532.15	21640.00
532.91	21809.00
533.67	21935.00
534.43	22194.00
535.19	22334.00
535.96	22591.00
536.72	22739.00
537.48	22895.00
538.24	23085.00
539.00	23292.00
539.76	23560.00
540.53	23851.00
541.29	24072.00
542.05	24219.00
542.81	24433.00
543.57	24625.00
544.33	24939.00
545.09	25123.00
545.85	25300.00
546.61	25451.00
547.38	25571.00
548.14	25776.00
548.90	26001.00
549.66	26223.00
550.42	26506.00
551.18	26735.00
551.94	26895.00
552.70	27091.00
553.46	27326.00
554.22	27541.00
554.98	27747.00
555.74	27900.00
556.50	27995.00
557.26	28251.00
558.02	28562.00
558.78	28786.00
559.54	28996.00
560.30	29187.00
561.06	29379.00
561.82	29589.00
562.58	29848.00
563.34	30071.00
564.10	30244.00
564.86	30489.00
565.61	30645.00
566.37	30949.00
567.13	31185.00
567.89	31413.00
568.65	31571.00
569.41	31761.00
570.17	31999.00
570.93	32104.00
571.69	32365.00
572.44	32530.00
573.20	32862.00
573.96	33046.00
574.72	33192.00
575.48	33393.00
576.24	33656.00
576.99	33883.00
577.75	34121.00
578.51	34338.00
579.27	34487.00
580.03	34792.00
580.78	35044.00
581.54	35305.00
582.30	35499.00
583.06	35657.00
583.82	35743.00
584.57	36015.00
585.33	36164.00
586.09	36373.00
586.84	36474.00
587.60	36657.00
588.36	36755.00
589.12	36965.00
589.87	37210.00
590.63	37434.00
591.39	37596.00
592.14	37807.00
592.90	38068.00
593.66	38305.00
594.41	38612.00
595.17	38792.00
595.93	38914.00
596.68	39015.00
597.44	39201.00
598.20	39458.00
598.95	39730.00
599.71	40004.00
600.46	40180.00
601.22	40302.00
601.98	40461.00
602.73	40805.00
603.49	41162.00
604.24	41455.00
605.00	41533.00
605.76	41617.00
606.51	41833.00
607.27	42086.00
608.02	42386.00
608.78	42642.00
609.53	42820.00
610.29	42969.00
611.04	43264.00
611.80	43383.00
612.55	43691.00
613.31	44106.00
614.06	44310.00
614.82	44528.00
615.57	44743.00
616.33	44942.00
617.08	45234.00
617.84	45337.00
618.59	45447.00
619.35	45456.00
620.10	45365.00
620.85	45418.00
621.61	45483.00
622.36	45574.00
623.12	45557.00
623.87	45670.00
624.62	45849.00
625.38	45930.00
626.13	46026.00
626.89	46365.00
627.64	46450.00
628.39	46558.00
629.15	46490.00
629.90	46598.00
630.65	46554.00
631.41	46611.00
632.16	46673.00
632.91	46642.00
633.67	46654.00
634.42	46752.00
635.17	46996.00
635.92	47473.00
636.68	47905.00
637.43	48609.00
638.18	49117.00
638.94	49566.00
639.69	49891.00
640.44	50464.00
641.19	50980.00
641.95	51272.00
642.70	51603.00
643.45	51871.00
644.20	52078.00
644.95	52266.00
645.71	52407.00
646.46	52618.00
647.21	52717.00
647.96	52840.00
648.71	52938.00
649.47	53111.00
650.22	53235.00
650.97	53389.00
651.72	53457.00
652.47	53626.00
653.22	53814.00
653.97	54035.00
654.73	54125.00
655.48	54260.00
656.23	54522.00
656.98	54783.00
657.73	55065.00
658.48	55051.00
659.23	55081.00
659.98	54988.00
660.73	55071.00
661.48	55225.00
662.23	55428.00
662.99	55420.00
663.74	55557.00
664.49	55822.00
665.24	56283.00
665.99	56688.00
666.74	56816.00
667.49	56931.00
668.24	57026.00
668.99	57089.00
669.74	57267.00
670.49	57483.00
671.24	57611.00
671.99	57777.00
672.74	57929.00
673.48	58054.00
674.23	58151.00
674.98	58199.00
675.73	58308.00
676.48	58354.00
677.23	58494.00
677.98	58565.00
678.73	58580.00
679.48	58634.00
680.23	58675.00
680.98	58753.00
681.73	58727.00
682.47	58725.00
683.22	58772.00
683.97	58910.00
684.72	58997.00
685.47	59004.00
686.22	59093.00
686.97	59432.00
687.71	59658.00
688.46	59785.00
689.21	59831.00
689.96	59880.00
690.71	59771.00
691.45	59941.00
692.20	60082.00
692.95	60072.00
693.70	60083.00
694.44	60094.00
695.19	60163.00
695.94	60414.00
696.69	60467.00
697.43	60473.00
698.18	60459.00
698.93	60706.00
699.68	60752.00
700.42	60810.00
701.17	60844.00
701.92	60744.00
702.66	61017.00
703.41	61035.00
704.16	61122.00
704.90	61127.00
705.65	61063.00
706.40	61058.00
707.14	61118.00
707.89	61056.00
708.64	61234.00
709.38	61253.00
710.13	61344.00
710.88	61395.00
711.62	61469.00
712.37	61417.00
713.11	61608.00
713.86	61643.00
714.61	61456.00
715.35	61423.00
716.10	61225.00
716.84	61106.00
717.59	60868.00
718.33	60721.00
719.08	60665.00
719.83	60560.00
720.57	60429.00
721.32	60317.00
722.06	60387.00
722.81	60283.00
723.55	60258.00
724.30	60348.00
725.04	60328.00
725.79	60392.00
726.53	60399.00
727.28	60380.00
728.02	60367.00
728.76	60458.00
729.51	60550.00
730.25	60658.00
731.00	60581.00
731.74	60586.00
732.49	60567.00
733.23	60397.00
733.97	60285.00
734.72	60344.00
735.46	60123.00
736.21	60168.00
736.95	60276.00
737.69	60325.00
738.44	60378.00
739.18	60472.00
739.92	60638.00
740.67	60696.00
741.41	60661.00
742.15	60899.00
742.90	61021.00
743.64	61047.00
744.38	61045.00
745.13	61048.00
745.87	61060.00
746.61	60999.00
747.36	60974.00
748.10	61034.00
748.84	61030.00
749.58	60902.00
750.33	60801.00
751.07	60821.00
751.81	60584.00
752.55	60624.00
753.30	60475.00
754.04	60194.00
754.78	60208.00
755.52	59933.00
756.27	59770.00
757.01	59655.00
757.75	59811.00
758.49	59824.00
759.23	59696.00
759.97	59664.00
760.72	59778.00
761.46	59599.00
762.20	59756.00
762.94	59729.00
763.68	59640.00
764.42	59501.00
765.16	59544.00
765.91	59579.00
766.65	59555.00
767.39	59539.00
768.13	59405.00
768.87	59305.00
769.61	59367.00
770.35	59231.00
771.09	59042.00
771.83	58859.00
772.57	58880.00
773.31	58830.00
774.05	58964.00
774.80	58987.00
775.54	58825.00
776.28	58743.00
777.02	58633.00
777.76	58566.00
778.50	58440.00
779.24	58149.00
779.98	57907.00
780.72	57843.00
781.46	57826.00
782.20	57768.00
782.93	57724.00
783.67	57442.00
784.41	57324.00
785.15	57235.00
785.89	57099.00
786.63	56965.00
787.37	56662.00
788.11	56477.00
788.85	56372.00
789.59	56274.00
790.33	56328.00
791.07	56456.00
791.81	56276.00
792.54	56125.00
793.28	55832.00
794.02	55548.00
794.76	55340.00
795.50	55031.00
796.24	54777.00
796.97	54520.00
797.71	54276.00
798.45	54126.00
799.19	54031.00
799.93	53852.00
800.67	53819.00
801.40	53701.00
802.14	53825.00
802.88	53930.00
803.62	54015.00
804.35	54034.00
805.09	53926.00
805.83	53659.00
806.57	53709.00
807.30	53523.00
808.04	53466.00
808.78	53293.00
809.52	52955.00
810.25	52819.00
810.99	52614.00
811.73	52471.00
812.46	52377.00
813.20	52347.00
813.94	52347.00
814.68	52208.00
815.41	52027.00
816.15	52061.00
816.88	52202.00
817.62	52166.00
818.36	51872.00
819.09	51650.00
819.83	51391.00
820.57	51296.00
821.30	51295.00
822.04	51045.00
822.77	50871.00
823.51	50708.00
824.25	50589.00
824.98	50595.00
825.72	50479.00
826.45	50357.00
827.19	50080.00
827.92	49847.00
828.66	49539.00
829.40	49335.00
830.13	49310.00
830.87	49380.00
831.60	49201.00
832.34	49145.00
833.07	49016.00
833.81	49002.00
834.54	48958.00
835.28	49002.00
836.01	48953.00
836.75	48806.00
837.48	48522.00
838.22	48351.00
838.95	48277.00
839.68	48312.00
840.42	48373.00
841.15	48372.00
841.89	48214.00
842.62	47966.00
843.36	47830.00
844.09	47744.00
844.82	47711.00
845.56	47694.00
846.29	47514.00
847.02	47361.00
847.76	47250.00
848.49	47291.00
849.23	47507.00
849.96	47678.00
850.69	47835.00
851.43	47583.00
852.16	47322.00
852.89	47061.00
853.63	46888.00
854.36	46819.00
855.09	46904.00
855.82	46882.00
856.56	46777.00
857.29	46540.00
858.02	46509.00
858.76	46343.00
859.49	46451.00
860.22	46236.00
860.95	45995.00
861.69	45797.00
862.42	45593.00
863.15	45418.00
863.88	45350.00
864.61	45459.00
865.35	45464.00
866.08	45437.00
866.81	45245.00
867.54	44999.00
868.27	44764.00
869.01	44679.00
869.74	44691.00
870.47	44614.00
871.20	44521.00
871.93	44147.00
872.66	43963.00
873.40	43751.00
874.13	43622.00
874.86	43446.00
875.59	43326.00
876.32	43199.00
877.05	43164.00
877.78	43083.00
878.51	42805.00
879.24	42510.00
879.97	42346.00
880.71	42184.00
881.44	42142.00
882.17	41924.00
882.90	41788.00
883.63	41616.00
884.36	41638.00
885.09	41761.00
885.82	41876.00
886.55	42046.00
887.28	42080.00
888.01	41911.00
888.74	41744.00
889.47	41468.00
890.20	41094.00
890.93	40833.00
891.66	40627.00
892.39	40524.00
893.12	40523.00
893.85	40535.00
894.57	40474.00
895.30	40500.00
896.03	40451.00
896.76	40353.00
897.49	40263.00
898.22	39998.00
898.95	39872.00
899.68	39798.00
900.41	39388.00
901.14	39262.00
901.86	39154.00
902.59	39015.00
903.32	39026.00
904.05	39011.00
904.78	38868.00
905.51	38890.00
906.24	38642.00
906.96	38573.00
907.69	38366.00
908.42	38204.00
909.15	37962.00
909.88	37704.00
910.60	37364.00
911.33	37308.00
912.06	37082.00
912.79	36904.00
913.52	36812.00
914.24	36708.00
914.97	36745.00
915.70	36472.00
916.42	36391.00
917.15	36165.00
917.88	35922.00
918.61	35738.00
919.33	35474.00
920.06	35156.00
920.79	34867.00
921.51	34779.00
922.24	34645.00
922.97	34493.00
923.69	34275.00
924.42	34230.00
925.15	33980.00
925.87	33718.00
926.60	33528.00
927.33	33247.00
928.05	32804.00
928.78	32538.00
929.51	32249.00
930.23	31939.00
930.96	31509.00
931.68	31187.00
932.41	30867.00
933.14	30438.00
933.86	30215.00
934.59	29820.00
935.31	29480.00
936.04	28826.00
936.76	28393.00
937.49	27865.00
938.21	27343.00
938.94	26845.00
939.66	26340.00
940.39	25838.00
941.11	25440.00
941.84	25042.00
942.56	24725.00
943.29	24457.00
944.01	24222.00
944.74	24157.00
945.46	24090.00
946.19	24033.00
946.91	24085.00
947.64	24163.00
948.36	24177.00
949.09	24275.00
949.81	24271.00
950.53	24375.00
951.26	24435.00
951.98	24433.00
952.71	24596.00
953.43	24709.00
954.15	24850.00
954.88	24938.00
955.60	24982.00
956.33	25017.00
957.05	25100.00
957.77	25143.00
958.50	25193.00
959.22	25246.00
959.94	25174.00
960.67	25110.00
961.39	25070.00
962.11	25110.00
962.84	25192.00
963.56	25046.00
964.28	25007.00
965.00	24782.00
965.73	24613.00
966.45	24512.00
967.17	24362.00
967.89	24137.00
968.62	23970.00
969.34	23752.00
970.06	23571.00
970.78	23411.00
971.51	23411.00
972.23	23187.00
972.95	23037.00
973.67	22843.00
974.40	22679.00
975.12	22604.00
975.84	22338.00
976.56	22272.00
977.28	22088.00
978.00	21970.00
978.73	21918.00
979.45	21793.00
980.17	21701.00
980.89	21675.00
981.61	21567.00
982.33	21509.00
983.05	21383.00
983.77	21321.00
984.50	21207.00
985.22	21146.00
985.94	21109.00
986.66	20983.00
987.38	20872.00
988.10	20917.00
988.82	20879.00
989.54	20716.00
990.26	20558.00
990.98	20502.00
991.70	20349.00
992.42	20219.00
993.14	20068.00
993.86	19949.00
994.58	19734.00
995.30	19544.00
996.02	19462.00
996.74	19293.00
997.46	19224.00
998.18	19182.00
998.90	18991.00
999.62	18875.00
1000.34	18788.00
1001.06	18663.00
1001.78	18597.00
1002.50	18477.00
1003.22	18216.00
1003.94	18063.00
1004.66	17905.00
1005.38	17756.00
1006.09	17621.00
1006.81	17370.00
1007.53	17221.00
1008.25	17011.00
1008.97	16870.00
1009.69	16787.00
1010.41	16686.00
1011.13	16508.00
1011.84	16391.00
1012.56	16162.00
1013.28	16097.00
1014.00	15931.00
1014.72	15761.00
1015.44	15585.00
1016.15	15384.00
1016.87	15130.00
1017.59	14949.00
1018.31	14839.00
1019.03	14716.00
1019.74	14610.00
1020.46	14553.00
1021.18	14425.00
1021.90	14299.00
1022.61	14174.00
1023.33	14069.00
1024.05	13890.00
1024.76	13749.00
1025.48	13540.00
1026.20	13331.00
1026.92	13137.00
1027.63	13014.00
1028.35	12796.00
1029.07	12635.00
1029.78	12485.00
1030.50	12262.00
1031.22	12087.00
1031.93	11982.00
1032.65	11821.00
1033.37	11792.00
1034.08	11666.00
1034.80	11502.00
1035.52	11491.00
1036.23	11361.00
1036.95	11317.00
1037.66	11147.00
1038.38	11007.00
1039.10	10869.00
1039.81	10714.00
1040.53	10462.00
1041.24	10384.00
1041.96	10170.00
1042.67	10058.00
1043.39	9985.00
1044.10	9845.00
1044.82	9749.00
1045.54	9645.00
1046.25	9498.00
1046.97	9377.00
1047.68	9276.00
1048.40	9020.00
1049.11	8922.00
1049.83	8809.00
1050.54	8668.00
1051.26	8562.00
1051.97	8470.00
1052.68	8338.00
1053.40	8244.00
1054.11	8074.00
1054.83	7987.00
1055.54	7818.00
1056.26	7724.00
1056.97	7623.00
1057.69	7525.00
1058.40	7426.00
1059.11	7310.00
1059.83	7181.00
1060.54	7012.00
1061.25	6879.00
1061.97	6718.00
1062.68	6599.00
1063.40	6493.00
1064.11	6357.00
1064.82	6243.00
1065.54	6077.00
1066.25	2573.00
1066.96	2568.00
1067.68	2574.00
1068.39	2571.00
1069.10	2629.00
1069.82	2631.00
1070.53	2629.00
1071.24	2630.00
1071.95	2634.00
1072.67	2629.00
1073.38	5947.00
1074.09	5791.00
1074.80	5702.00
1075.52	5607.00
1076.23	5435.00
1076.94	5366.00
1077.65	2552.00
1078.37	2571.00
1079.08	2570.00
1079.79	2580.00
