300.47	2634.00
301.26	2636.00
302.04	2633.00
302.82	2629.00
303.60	2625.00
304.38	2627.00
305.17	2634.00
305.95	2627.00
306.73	2626.00
307.51	2623.00
308.29	2625.00
309.08	2633.00
309.86	2638.00
310.64	2634.00
311.42	2633.00
312.20	2627.00
312.98	2628.00
313.76	2629.00
314.55	2625.00
315.33	2637.00
316.11	2638.00
316.89	2629.00
317.67	2635.00
318.45	2630.00
319.23	2631.00
320.01	2631.00
320.79	2633.00
321.57	2630.00
322.35	2640.00
323.13	2632.00
323.91	2630.00
324.69	2630.00
325.47	2633.00
326.25	2637.00
327.03	2632.00
327.81	2632.00
328.59	2633.00
329.37	2632.00
330.15	2637.00
330.93	2637.00
331.71	2632.00
332.49	2640.00
333.27	2639.00
334.05	2644.00
334.83	2638.00
335.61	2632.00
336.39	2633.00
337.17	2641.00
337.95	2639.00
338.73	2641.00
339.51	2642.00
340.29	2641.00
341.07	2654.00
341.84	2649.00
342.62	2645.00
343.40	2651.00
344.18	2651.00
344.96	2653.00
345.74	2666.00
346.52	2661.00
347.29	2660.00
348.07	2665.00
348.85	2670.00
349.63	2676.00
350.41	2670.00
351.18	2675.00
351.96	2680.00
352.74	2686.00
353.52	2696.00
354.30	2696.00
355.07	2704.00
355.85	2700.00
356.63	2705.00
357.41	2706.00
358.18	2718.00
358.96	2716.00
359.74	2732.00
360.52	2728.00
361.29	2733.00
362.07	2736.00
362.85	2749.00
363.62	2758.00
364.40	2768.00
365.18	2775.00
365.95	2774.00
366.73	2778.00
367.51	2798.00
368.28	2794.00
369.06	2810.00
369.84	2821.00
370.61	2827.00
371.39	2833.00
372.17	2853.00
372.94	2864.00
373.72	2873.00
374.49	2882.00
375.27	2885.00
376.05	2900.00
376.82	2912.00
377.60	2931.00
378.37	2941.00
379.15	2960.00
379.92	2966.00
380.70	2985.00
381.47	3002.00
382.25	3023.00
383.02	3034.00
383.80	3061.00
384.58	3080.00
385.35	3094.00
386.13	3114.00
386.90	3121.00
387.67	3147.00
388.45	3156.00
389.22	3181.00
390.00	3192.00
390.77	3223.00
391.55	3231.00
392.32	3270.00
393.10	3291.00
393.87	3315.00
394.65	3338.00
395.42	3359.00
396.19	3372.00
396.97	3402.00
397.74	3419.00
398.52	3444.00
399.29	3471.00
400.06	3514.00
400.84	3524.00
401.61	3545.00
402.38	3577.00
403.16	3599.00
403.93	3625.00
404.70	3653.00
405.48	3677.00
406.25	3713.00
407.02	3740.00
407.80	3764.00
408.57	3781.00
409.34	3817.00
410.12	3840.00
410.89	3867.00
411.66	3902.00
412.43	3930.00
413.21	3968.00
413.98	3988.00
414.75	4025.00
415.52	4057.00
416.30	4074.00
417.07	4123.00
417.84	4162.00
418.61	4181.00
419.39	4196.00
420.16	4246.00
420.93	4287.00
421.70	4316.00
422.47	4345.00
423.24	4396.00
424.02	4424.00
424.79	4469.00
425.56	4490.00
426.33	4541.00
427.10	4610.00
427.87	4637.00
428.64	4669.00
429.42	4711.00
430.19	4743.00
430.96	4797.00
431.73	4852.00
432.50	4915.00
433.27	4952.00
434.04	4984.00
434.81	5065.00
435.58	5104.00
436.35	5138.00
437.12	5210.00
437.89	5259.00
438.67	5314.00
439.44	5397.00
440.21	5443.00
440.98	5505.00
441.75	5563.00
442.52	5637.00
443.29	5681.00
444.06	5751.00
444.83	5818.00
445.60	5908.00
446.37	5970.00
447.13	6050.00
447.90	6102.00
448.67	6163.00
449.44	6252.00
450.21	6334.00
450.98	6392.00
451.75	6479.00
452.52	6542.00
453.29	6639.00
454.06	6721.00
454.83	6789.00
455.60	6879.00
456.37	6962.00
457.13	7039.00
457.90	7130.00
458.67	7242.00
459.44	7345.00
460.21	7444.00
460.98	7540.00
461.75	7638.00
462.51	7722.00
463.28	7836.00
464.05	7959.00
464.82	8040.00
465.59	8113.00
466.35	8243.00
467.12	8315.00
467.89	8467.00
468.66	8580.00
469.43	8688.00
470.19	8776.00
470.96	8900.00
471.73	9033.00
472.50	9111.00
473.26	9225.00
474.03	9347.00
474.80	9467.00
475.56	9597.00
476.33	9717.00
477.10	9821.00
477.87	9972.00
478.63	10094.00
479.40	10234.00
480.17	10379.00
480.93	10481.00
481.70	10622.00
482.47	10734.00
483.23	10892.00
484.00	11026.00
484.76	11179.00
485.53	11349.00
486.30	11461.00
487.06	11615.00
487.83	11751.00
488.60	11948.00
489.36	12050.00
490.13	12144.00
490.89	12294.00
491.66	12424.00
492.42	12614.00
493.19	12834.00
493.96	12943.00
494.72	13099.00
495.49	13264.00
496.25	13382.00
497.02	13561.00
497.78	13709.00
498.55	13905.00
499.31	13975.00
500.08	14145.00
500.84	14247.00
501.61	14436.00
502.37	14651.00
503.14	14804.00
503.90	14945.00
504.67	15096.00
505.43	15305.00
506.20	15497.00
506.96	15683.00
507.72	15871.00
508.49	16050.00
509.25	16219.00
510.02	16439.00
510.78	16631.00
511.54	16813.00
512.31	17009.00
513.07	17130.00
513.84	17355.00
514.60	17515.00
515.36	17681.00
516.13	17819.00
516.89	18019.00
517.65	18148.00
518.42	18264.00
519.18	18524.00
519.94	18690.00
520.71	18847.00
521.47	19038.00
522.23	19229.00
523.00	19435.00
523.76	19628.00
524.52	19848.00
525.28	20049.00
526.05	20215.00
526.81	20429.00
527.57	20646.00
528.33	20788.00
529.10	21036.00
529.86	21179.00
530.62	21432.00
531.38	21575.00
532.15	21791.00
532.91	21959.00
533.67	22138.00
534.43	22273.00
535.19	22493.00
535.96	22739.00
536.72	22853.00
537.48	23020.00
538.24	23243.00
539.00	23499.00
539.76	23690.00
540.53	23926.00
541.29	24150.00
542.05	24375.00
542.81	24594.00
543.57	24820.00
544.33	25018.00
545.09	25250.00
545.85	25467.00
546.61	25614.00
547.38	25754.00
548.14	25976.00
548.90	26233.00
549.66	26471.00
550.42	26661.00
551.18	26867.00
551.94	27083.00
552.70	27240.00
553.46	27524.00
554.22	27703.00
554.98	27933.00
555.74	28002.00
556.50	28258.00
557.26	28475.00
558.02	28731.00
558.78	29065.00
559.54	29143.00
560.30	29298.00
561.06	29544.00
561.82	29724.00
562.58	30111.00
563.34	30249.00
564.10	30485.00
564.86	30717.00
565.61	30871.00
566.37	31149.00
567.13	31396.00
567.89	31590.00
568.65	31760.00
569.41	31942.00
570.17	32249.00
570.93	32439.00
571.69	32655.00
572.44	32813.00
573.20	33019.00
573.96	33241.00
574.72	33443.00
575.48	33692.00
576.24	33904.00
576.99	34096.00
577.75	34305.00
578.51	34622.00
579.27	34781.00
580.03	34976.00
580.78	35272.00
581.54	35515.00
582.30	35705.00
583.06	35854.00
583.82	35962.00
584.57	36185.00
585.33	36327.00
586.09	36629.00
586.84	36698.00
587.60	36863.00
588.36	37049.00
589.12	37148.00
589.87	37469.00
590.63	37683.00
591.39	37844.00
592.14	38120.00
592.90	38296.00
593.66	38573.00
594.41	38892.00
595.17	38998.00
595.93	39161.00
596.68	39236.00
597.44	39467.00
598.20	39678.00
598.95	40053.00
599.71	40293.00
600.46	40455.00
601.22	40513.00
601.98	40776.00
602.73	41055.00
603.49	41461.00
604.24	41618.00
605.00	41778.00
605.76	41948.00
606.51	42133.00
607.27	42393.00
608.02	42660.00
608.78	42915.00
609.53	43087.00
610.29	43323.00
611.04	43566.00
611.80	43748.00
612.55	44088.00
613.31	44387.00
614.06	44676.00
614.82	44968.00
615.57	45061.00
616.33	45300.00
617.08	45487.00
617.84	45641.00
618.59	45725.00
619.35	45699.00
620.10	45717.00
620.85	45750.00
621.61	45826.00
622.36	45912.00
623.12	45959.00
623.87	45947.00
624.62	46110.00
625.38	46199.00
626.13	46446.00
626.89	46689.00
627.64	46849.00
628.39	46887.00
629.15	46838.00
629.90	46852.00
630.65	46996.00
631.41	46907.00
632.16	46913.00
632.91	46968.00
633.67	46971.00
634.42	47078.00
635.17	47342.00
635.92	47769.00
636.68	48292.00
637.43	48930.00
638.18	49483.00
638.94	49929.00
639.69	50282.00
640.44	50742.00
641.19	51202.00
641.95	51708.00
642.70	52031.00
643.45	52229.00
644.20	52444.00
644.95	52676.00
645.71	52733.00
646.46	53009.00
647.21	53125.00
647.96	53146.00
648.71	53323.00
649.47	53495.00
650.22	53625.00
650.97	53647.00
651.72	53843.00
652.47	53974.00
653.22	54093.00
653.97	54298.00
654.73	54514.00
655.48	54653.00
656.23	54904.00
656.98	55152.00
657.73	55424.00
658.48	55462.00
659.23	55442.00
659.98	55407.00
660.73	55540.00
661.48	55492.00
662.23	55814.00
662.99	55755.00
663.74	55851.00
664.49	56232.00
665.24	56793.00
665.99	57194.00
666.74	57242.00
667.49	57311.00
668.24	57390.00
668.99	57487.00
669.74	57654.00
670.49	57812.00
671.24	58059.00
671.99	58149.00
672.74	58393.00
673.48	58438.00
674.23	58603.00
674.98	58727.00
675.73	58738.00
676.48	58845.00
677.23	58811.00
677.98	58977.00
678.73	59022.00
679.48	59013.00
680.23	59126.00
680.98	59148.00
681.73	59204.00
682.47	59147.00
683.22	59138.00
683.97	59315.00
684.72	59340.00
685.47	59467.00
686.22	59554.00
686.97	59785.00
687.71	60107.00
688.46	60257.00
689.21	60269.00
689.96	60285.00
690.71	60280.00
691.45	60344.00
692.20	60401.00
692.95	60431.00
693.70	60492.00
694.44	60500.00
695.19	60597.00
695.94	60744.00
696.69	60927.00
697.43	60874.00
698.18	61032.00
698.93	61159.00
699.68	61215.00
700.42	61246.00
701.17	61273.00
701.92	61416.00
702.66	61423.00
703.41	61478.00
704.16	61568.00
704.90	61569.00
705.65	61547.00
706.40	61525.00
707.14	61581.00
707.89	61547.00
708.64	61665.00
709.38	61673.00
710.13	61865.00
710.88	61764.00
711.62	61785.00
712.37	61877.00
713.11	61926.00
713.86	62023.00
714.61	61948.00
715.35	61905.00
716.10	61654.00
716.84	61573.00
717.59	61288.00
718.33	61115.00
719.08	61038.00
719.83	60987.00
720.57	60976.00
721.32	60929.00
722.06	60848.00
722.81	60695.00
723.55	60592.00
724.30	60691.00
725.04	60819.00
725.79	60836.00
726.53	60854.00
727.28	60780.00
728.02	60803.00
728.76	60936.00
729.51	60942.00
730.25	61064.00
731.00	61055.00
731.74	61017.00
732.49	61015.00
733.23	60910.00
733.97	60707.00
734.72	60738.00
735.46	60637.00
736.21	60674.00
736.95	60578.00
737.69	60618.00
738.44	60778.00
739.18	60837.00
739.92	61003.00
740.67	61023.00
741.41	61229.00
742.15	61292.00
742.90	61438.00
743.64	61450.00
744.38	61428.00
745.13	61429.00
745.87	61402.00
746.61	61396.00
747.36	61404.00
748.10	61415.00
748.84	61406.00
749.58	61362.00
750.33	61264.00
751.07	61216.00
751.81	61121.00
752.55	61025.00
753.30	60940.00
754.04	60918.00
754.78	60630.00
755.52	60304.00
756.27	60215.00
757.01	60197.00
757.75	60218.00
758.49	60259.00
759.23	60079.00
759.97	60172.00
760.72	60215.00
761.46	60115.00
762.20	60214.00
762.94	60095.00
763.68	60137.00
764.42	60105.00
765.16	59920.00
765.91	60029.00
766.65	59946.00
767.39	59923.00
768.13	59873.00
768.87	59808.00
769.61	59755.00
770.35	59602.00
771.09	59498.00
771.83	59205.00
772.57	59414.00
773.31	59370.00
774.05	59442.00
774.80	59400.00
775.54	59215.00
776.28	59127.00
777.02	59121.00
777.76	59073.00
778.50	58821.00
779.24	58589.00
779.98	58428.00
780.72	58255.00
781.46	58242.00
782.20	58096.00
782.93	57987.00
783.67	57948.00
784.41	57766.00
785.15	57740.00
785.89	57654.00
786.63	57250.00
787.37	57110.00
788.11	56917.00
788.85	56874.00
789.59	56815.00
790.33	56813.00
791.07	56864.00
791.81	56810.00
792.54	56559.00
793.28	56383.00
794.02	56044.00
794.76	55776.00
795.50	55481.00
796.24	55273.00
796.97	55010.00
797.71	54666.00
798.45	54470.00
799.19	54458.00
799.93	54362.00
800.67	54213.00
801.40	54230.00
802.14	54361.00
802.88	54311.00
803.62	54511.00
804.35	54420.00
805.09	54301.00
805.83	54102.00
806.57	54024.00
807.30	53997.00
808.04	53893.00
808.78	53763.00
809.52	53445.00
810.25	53095.00
810.99	52933.00
811.73	52809.00
812.46	52732.00
813.20	52735.00
813.94	52667.00
814.68	52522.00
815.41	52403.00
816.15	52435.00
816.88	52527.00
817.62	52465.00
818.36	52365.00
819.09	52131.00
819.83	51745.00
820.57	51719.00
821.30	51651.00
822.04	51513.00
822.77	51307.00
823.51	51161.00
824.25	51047.00
824.98	50891.00
825.72	50916.00
826.45	50681.00
827.19	50495.00
827.92	50279.00
828.66	49999.00
829.40	49846.00
830.13	49793.00
830.87	49733.00
831.60	49720.00
832.34	49527.00
833.07	49426.00
833.81	49393.00
834.54	49379.00
835.28	49384.00
836.01	49379.00
836.75	49103.00
837.48	48952.00
838.22	48705.00
838.95	48672.00
839.68	48733.00
840.42	48826.00
841.15	48681.00
841.89	48571.00
842.62	48385.00
843.36	48192.00
844.09	48034.00
844.82	48153.00
845.56	48090.00
846.29	48004.00
847.02	47795.00
847.76	47640.00
848.49	47710.00
849.23	47947.00
849.96	48107.00
850.69	48229.00
851.43	48026.00
852.16	47739.00
852.89	47499.00
853.63	47276.00
854.36	47241.00
855.09	47222.00
855.82	47263.00
856.56	47199.00
857.29	46953.00
858.02	46788.00
858.76	46829.00
859.49	46737.00
860.22	46600.00
860.95	46451.00
861.69	46220.00
862.42	45956.00
863.15	45775.00
863.88	45717.00
864.61	45825.00
865.35	45887.00
866.08	45778.00
866.81	45660.00
867.54	45365.00
868.27	45240.00
869.01	45142.00
869.74	45108.00
870.47	44991.00
871.20	44803.00
871.93	44580.00
872.66	44374.00
873.40	44214.00
874.13	43987.00
874.86	43767.00
875.59	43666.00
876.32	43652.00
877.05	43618.00
877.78	43444.00
878.51	43302.00
879.24	43057.00
879.97	42755.00
880.71	42661.00
881.44	42466.00
882.17	42327.00
882.90	42148.00
883.63	41967.00
884.36	41972.00
885.09	42062.00
885.82	42088.00
886.55	42369.00
887.28	42420.00
888.01	42221.00
888.74	42095.00
889.47	41853.00
890.20	41480.00
890.93	41138.00
891.66	41005.00
892.39	40855.00
893.12	40876.00
893.85	40819.00
894.57	40883.00
895.30	40771.00
896.03	40768.00
896.76	40608.00
897.49	40571.00
898.22	40424.00
898.95	40192.00
899.68	40037.00
900.41	39877.00
901.14	39638.00
901.86	39430.00
902.59	39426.00
903.32	39419.00
904.05	39369.00
904.78	39307.00
905.51	39193.00
906.24	39093.00
906.96	38950.00
907.69	38733.00
908.42	38522.00
909.15	38265.00
909.88	38010.00
910.60	37932.00
911.33	37669.00
912.06	37545.00
912.79	37341.00
913.52	37177.00
914.24	37074.00
914.97	37058.00
915.70	36809.00
916.42	36702.00
917.15	36471.00
917.88	36360.00
918.61	36101.00
919.33	35800.00
920.06	35428.00
920.79	35222.00
921.51	35053.00
922.24	34888.00
922.97	34783.00
923.69	34657.00
924.42	34544.00
925.15	34320.00
925.87	34098.00
926.60	33805.00
927.33	33527.00
928.05	33134.00
928.78	32864.00
929.51	32637.00
930.23	32217.00
930.96	31855.00
931.68	31487.00
932.41	31109.00
933.14	30879.00
933.86	30492.00
934.59	30137.00
935.31	29717.00
936.04	29157.00
936.76	28665.00
937.49	28175.00
938.21	27657.00
938.94	27119.00
939.66	26657.00
940.39	26141.00
941.11	25751.00
941.84	25310.00
942.56	25008.00
943.29	24745.00
944.01	24561.00
944.74	24418.00
945.46	24414.00
946.19	24385.00
946.91	24453.00
947.64	24438.00
948.36	24470.00
949.09	24521.00
949.81	24588.00
950.53	24627.00
951.26	24803.00
951.98	24814.00
952.71	24915.00
953.43	24996.00
954.15	25062.00
954.88	25232.00
955.60	25257.00
956.33	25261.00
957.05	25388.00
957.77	25480.00
958.50	25543.00
959.22	25528.00
959.94	25505.00
960.67	25432.00
961.39	25343.00
962.11	25371.00
962.84	25521.00
963.56	25324.00
964.28	25318.00
965.00	25176.00
965.73	24957.00
966.45	24827.00
967.17	24647.00
967.89	24447.00
968.62	24196.00
969.34	24001.00
970.06	23874.00
970.78	23815.00
971.51	23682.00
972.23	23551.00
972.95	23375.00
973.67	23143.00
974.40	23015.00
975.12	22753.00
975.84	22714.00
976.56	22540.00
977.28	22466.00
978.00	22240.00
978.73	22144.00
979.45	22067.00
980.17	22008.00
980.89	21897.00
981.61	21905.00
982.33	21824.00
983.05	21720.00
983.77	21644.00
984.50	21556.00
985.22	21521.00
985.94	21385.00
986.66	21277.00
987.38	21225.00
988.10	21216.00
988.82	21148.00
989.54	21069.00
990.26	20901.00
990.98	20780.00
991.70	20592.00
992.42	20406.00
993.14	20372.00
993.86	20134.00
994.58	20031.00
995.30	19834.00
996.02	19644.00
996.74	19614.00
997.46	19504.00
998.18	19360.00
998.90	19309.00
999.62	19112.00
1000.34	19021.00
1001.06	19000.00
1001.78	18873.00
1002.50	18700.00
1003.22	18541.00
1003.94	18300.00
1004.66	18205.00
1005.38	17996.00
1006.09	17880.00
1006.81	17628.00
1007.53	17418.00
1008.25	17261.00
1008.97	17077.00
1009.69	17021.00
1010.41	16908.00
1011.13	16781.00
1011.84	16639.00
1012.56	16446.00
1013.28	16270.00
1014.00	16200.00
1014.72	16011.00
1015.44	15808.00
1016.15	15608.00
1016.87	15379.00
1017.59	15162.00
1018.31	15083.00
1019.03	14926.00
1019.74	14884.00
1020.46	14701.00
1021.18	14646.00
1021.90	14532.00
1022.61	14391.00
1023.33	14250.00
1024.05	14177.00
1024.76	13944.00
1025.48	13755.00
1026.20	13530.00
1026.92	13352.00
1027.63	13152.00
1028.35	13030.00
1029.07	12822.00
1029.78	12640.00
1030.50	12480.00
1031.22	12277.00
1031.93	12173.00
1032.65	12046.00
1033.37	11949.00
1034.08	11813.00
1034.80	11697.00
1035.52	11642.00
1036.23	11576.00
1036.95	11470.00
1037.66	11353.00
1038.38	11184.00
1039.10	11055.00
1039.81	10851.00
1040.53	10647.00
1041.24	10494.00
1041.96	10389.00
1042.67	10226.00
1043.39	10114.00
1044.10	10023.00
1044.82	9848.00
1045.54	9780.00
1046.25	9656.00
1046.97	9498.00
1047.68	9373.00
1048.40	9230.00
1049.11	9061.00
1049.83	8911.00
1050.54	8798.00
1051.26	8684.00
1051.97	8578.00
1052.68	8486.00
1053.40	8348.00
1054.11	8220.00
1054.83	8093.00
1055.54	7932.00
1056.26	7862.00
1056.97	7741.00
1057.69	7663.00
1058.40	7522.00
1059.11	7452.00
1059.83	7268.00
1060.54	7148.00
1061.25	6993.00
1061.97	6826.00
1062.68	6721.00
1063.40	6563.00
1064.11	6441.00
1064.82	6304.00
1065.54	6172.00
1066.25	2568.00
1066.96	2573.00
1067.68	2574.00
1068.39	2572.00
1069.10	2624.00
1069.82	2629.00
1070.53	2631.00
1071.24	2633.00
1071.95	2635.00
1072.67	2635.00
1073.38	6027.00
1074.09	5903.00
1074.80	5765.00
1075.52	5667.00
1076.23	5542.00
1076.94	5458.00
1077.65	2582.00
1078.37	2576.00
1079.08	2585.00
1079.79	2589.00
