300.47	2629.00
301.26	2630.00
302.04	2624.00
302.82	2619.00
303.60	2621.00
304.38	2627.00
305.17	2636.00
305.95	2629.00
306.73	2627.00
307.51	2626.00
308.29	2626.00
309.08	2635.00
309.86	2638.00
310.64	2628.00
311.42	2627.00
312.20	2623.00
312.98	2630.00
313.76	2636.00
314.55	2634.00
315.33	2628.00
316.11	2625.00
316.89	2628.00
317.67	2636.00
318.45	2633.00
319.23	2633.00
320.01	2629.00
320.79	2628.00
321.57	2635.00
322.35	2627.00
323.13	2637.00
323.91	2633.00
324.69	2632.00
325.47	2631.00
326.25	2633.00
327.03	2638.00
327.81	2635.00
328.59	2636.00
329.37	2631.00
330.15	2639.00
330.93	2645.00
331.71	2634.00
332.49	2633.00
333.27	2635.00
334.05	2635.00
334.83	2635.00
335.61	2639.00
336.39	2635.00
337.17	2639.00
337.95	2643.00
338.73	2643.00
339.51	2639.00
340.29	2639.00
341.07	2646.00
341.84	2650.00
342.62	2650.00
343.40	2647.00
344.18	2651.00
344.96	2657.00
345.74	2662.00
346.52	2657.00
347.29	2662.00
348.07	2667.00
348.85	2670.00
349.63	2676.00
350.41	2677.00
351.18	2669.00
351.96	2678.00
352.74	2684.00
353.52	2694.00
354.30	2692.00
355.07	2702.00
355.85	2700.00
356.63	2699.00
357.41	2710.00
358.18	2722.00
358.96	2715.00
359.74	2729.00
360.52	2736.00
361.29	2735.00
362.07	2739.00
362.85	2744.00
363.62	2750.00
364.40	2770.00
365.18	2772.00
365.95	2776.00
366.73	2785.00
367.51	2796.00
368.28	2802.00
369.06	2810.00
369.84	2824.00
370.61	2838.00
371.39	2839.00
372.17	2848.00
372.94	2859.00
373.72	2877.00
374.49	2887.00
375.27	2887.00
376.05	2902.00
376.82	2917.00
377.60	2930.00
378.37	2941.00
379.15	2960.00
379.92	2969.00
380.70	2989.00
381.47	3006.00
382.25	3026.00
383.02	3047.00
383.80	3047.00
384.58	3067.00
385.35	3084.00
386.13	3095.00
386.90	3121.00
387.67	3157.00
388.45	3167.00
389.22	3184.00
390.00	3188.00
390.77	3221.00
391.55	3246.00
392.32	3266.00
393.10	3286.00
393.87	3300.00
394.65	3331.00
395.42	3348.00
396.19	3379.00
396.97	3392.00
397.74	3422.00
398.52	3448.00
399.29	3465.00
400.06	3507.00
400.84	3517.00
401.61	3551.00
402.38	3577.00
403.16	3597.00
403.93	3625.00
404.70	3650.00
405.48	3673.00
406.25	3711.00
407.02	3725.00
407.80	3756.00
408.57	3802.00
409.34	3817.00
410.12	3845.00
410.89	3864.00
411.66	3903.00
412.43	3944.00
413.21	3959.00
413.98	3985.00
414.75	4015.00
415.52	4057.00
416.30	4079.00
417.07	4115.00
417.84	4132.00
418.61	4182.00
419.39	4204.00
420.16	4267.00
420.93	4285.00
421.70	4321.00
422.47	4351.00
423.24	4384.00
424.02	4440.00
424.79	4466.00
425.56	4522.00
426.33	4545.00
427.10	4591.00
427.87	4609.00
428.64	4673.00
429.42	4715.00
430.19	4774.00
430.96	4816.00
431.73	4869.00
432.50	4911.00
433.27	4955.00
434.04	5005.00
434.81	5068.00
435.58	5108.00
436.35	5156.00
437.12	5211.00
437.89	5251.00
438.67	5307.00
439.44	5377.00
440.21	5425.00
440.98	5506.00
441.75	5566.00
442.52	5611.00
443.29	5689.00
444.06	5756.00
444.83	5825.00
445.60	5883.00
446.37	5947.00
447.13	6023.00
447.90	6073.00
448.67	6157.00
449.44	6286.00
450.21	6345.00
450.98	6384.00
451.75	6479.00
452.52	6537.00
453.29	6633.00
454.06	6724.00
454.83	6818.00
455.60	6858.00
456.37	6977.00
457.13	7057.00
457.90	7171.00
458.67	7236.00
459.44	7352.00
460.21	7407.00
460.98	7491.00
461.75	7628.00
462.51	7733.00
463.28	7807.00
464.05	7954.00
464.82	8047.00
465.59	8130.00
466.35	8235.00
467.12	8315.00
467.89	8467.00
468.66	8571.00
469.43	8662.00
470.19	8787.00
470.96	8866.00
471.73	9003.00
472.50	9130.00
473.26	9233.00
474.03	9327.00
474.80	9455.00
475.56	9591.00
476.33	9724.00
477.10	9853.00
477.87	9936.00
478.63	10109.00
479.40	10214.00
480.17	10361.00
480.93	10469.00
481.70	10613.00
482.47	10756.00
483.23	10883.00
484.00	11037.00
484.76	11187.00
485.53	11395.00
486.30	11465.00
487.06	11580.00
487.83	11707.00
488.60	11890.00
489.36	12057.00
490.13	12184.00
490.89	12291.00
491.66	12438.00
492.42	12639.00
493.19	12801.00
493.96	12933.00
494.72	13045.00
495.49	13191.00
496.25	13377.00
497.02	13525.00
497.78	13696.00
498.55	13838.00
499.31	13951.00
500.08	14107.00
500.84	14262.00
501.61	14468.00
502.37	14619.00
503.14	14768.00
503.90	14933.00
504.67	15143.00
505.43	15298.00
506.20	15484.00
506.96	15699.00
507.72	15873.00
508.49	16061.00
509.25	16270.00
510.02	16440.00
510.78	16627.00
511.54	16794.00
512.31	17018.00
513.07	17150.00
513.84	17351.00
514.60	17512.00
515.36	17670.00
516.13	17791.00
516.89	18028.00
517.65	18126.00
518.42	18238.00
519.18	18472.00
519.94	18677.00
520.71	18862.00
521.47	18983.00
522.23	19193.00
523.00	19417.00
523.76	19625.00
524.52	19858.00
525.28	20028.00
526.05	20247.00
526.81	20437.00
527.57	20647.00
528.33	20800.00
529.10	20996.00
529.86	21202.00
530.62	21392.00
531.38	21559.00
532.15	21761.00
532.91	21878.00
533.67	22117.00
534.43	22238.00
535.19	22472.00
535.96	22689.00
536.72	22827.00
537.48	23025.00
538.24	23171.00
539.00	23423.00
539.76	23687.00
540.53	23970.00
541.29	24166.00
542.05	24324.00
542.81	24602.00
543.57	24800.00
544.33	25042.00
545.09	25273.00
545.85	25425.00
546.61	25616.00
547.38	25821.00
548.14	25931.00
548.90	26144.00
549.66	26421.00
550.42	26649.00
551.18	26868.00
551.94	27037.00
552.70	27249.00
553.46	27419.00
554.22	27742.00
554.98	27837.00
555.74	28008.00
556.50	28151.00
557.26	28484.00
558.02	28765.00
558.78	28947.00
559.54	29097.00
560.30	29235.00
561.06	29568.00
561.82	29742.00
562.58	30015.00
563.34	30244.00
564.10	30398.00
564.86	30726.00
565.61	30824.00
566.37	31133.00
567.13	31422.00
567.89	31606.00
568.65	31775.00
569.41	31992.00
570.17	32264.00
570.93	32404.00
571.69	32534.00
572.44	32754.00
573.20	32973.00
573.96	33211.00
574.72	33427.00
575.48	33596.00
576.24	33886.00
576.99	34106.00
577.75	34312.00
578.51	34537.00
579.27	34753.00
580.03	34949.00
580.78	35130.00
581.54	35476.00
582.30	35674.00
583.06	35837.00
583.82	36064.00
584.57	36238.00
585.33	36415.00
586.09	36646.00
586.84	36689.00
587.60	36890.00
588.36	37016.00
589.12	37215.00
589.87	37453.00
590.63	37741.00
591.39	37842.00
592.14	38061.00
592.90	38292.00
593.66	38544.00
594.41	38818.00
595.17	39021.00
595.93	39082.00
596.68	39262.00
597.44	39420.00
598.20	39702.00
598.95	40003.00
599.71	40226.00
600.46	40392.00
601.22	40534.00
601.98	40684.00
602.73	41075.00
603.49	41387.00
604.24	41714.00
605.00	41768.00
605.76	41918.00
606.51	42138.00
607.27	42332.00
608.02	42627.00
608.78	42821.00
609.53	43113.00
610.29	43283.00
611.04	43440.00
611.80	43760.00
612.55	44124.00
613.31	44361.00
614.06	44638.00
614.82	44826.00
615.57	44960.00
616.33	45378.00
617.08	45441.00
617.84	45632.00
618.59	45748.00
619.35	45725.00
620.10	45590.00
620.85	45714.00
621.61	45767.00
622.36	45801.00
623.12	45849.00
623.87	45872.00
624.62	46048.00
625.38	46180.00
626.13	46353.00
626.89	46695.00
627.64	46752.00
628.39	46762.00
629.15	46865.00
629.90	46806.00
630.65	46856.00
631.41	46781.00
632.16	46979.00
632.91	47013.00
633.67	47027.00
634.42	47112.00
635.17	47309.00
635.92	47761.00
636.68	48252.00
637.43	48920.00
638.18	49469.00
638.94	49955.00
639.69	50304.00
640.44	50638.00
641.19	51195.00
641.95	51662.00
642.70	51897.00
643.45	52240.00
644.20	52409.00
644.95	52567.00
645.71	52765.00
646.46	52989.00
647.21	53074.00
647.96	53190.00
648.71	53320.00
649.47	53368.00
650.22	53642.00
650.97	53667.00
651.72	53810.00
652.47	54008.00
653.22	54084.00
653.97	54300.00
654.73	54538.00
655.48	54630.00
656.23	54860.00
656.98	55122.00
657.73	55345.00
658.48	55362.00
659.23	55484.00
659.98	55376.00
660.73	55447.00
661.48	55636.00
662.23	55808.00
662.99	55676.00
663.74	55876.00
664.49	56227.00
665.24	56647.00
665.99	57025.00
666.74	57228.00
667.49	57268.00
668.24	57278.00
668.99	57440.00
669.74	57591.00
670.49	57891.00
671.24	58012.00
671.99	58101.00
672.74	58262.00
673.48	58405.00
674.23	58573.00
674.98	58634.00
675.73	58681.00
676.48	58795.00
677.23	58841.00
677.98	58984.00
678.73	58946.00
679.48	59011.00
680.23	59037.00
680.98	59103.00
681.73	59192.00
682.47	59156.00
683.22	59183.00
683.97	59253.00
684.72	59380.00
685.47	59480.00
686.22	59528.00
686.97	59790.00
687.71	59956.00
688.46	60197.00
689.21	60242.00
689.96	60291.00
690.71	60268.00
691.45	60328.00
692.20	60390.00
692.95	60362.00
693.70	60428.00
694.44	60560.00
695.19	60706.00
695.94	60743.00
696.69	61114.00
697.43	60895.00
698.18	60955.00
698.93	61005.00
699.68	61088.00
700.42	61156.00
701.17	61151.00
701.92	61280.00
702.66	61347.00
703.41	61536.00
704.16	61542.00
704.90	61460.00
705.65	61515.00
706.40	61484.00
707.14	61500.00
707.89	61570.00
708.64	61682.00
709.38	61738.00
710.13	61681.00
710.88	61864.00
711.62	61882.00
712.37	61854.00
713.11	61940.00
713.86	61963.00
714.61	61904.00
715.35	61768.00
716.10	61629.00
716.84	61476.00
717.59	61323.00
718.33	61037.00
719.08	61012.00
719.83	61038.00
720.57	60945.00
721.32	60721.00
722.06	60788.00
722.81	60733.00
723.55	60682.00
724.30	60591.00
725.04	60798.00
725.79	60798.00
726.53	60845.00
727.28	60759.00
728.02	60793.00
728.76	60843.00
729.51	61090.00
730.25	61058.00
731.00	60974.00
731.74	60984.00
732.49	60991.00
733.23	60828.00
733.97	60793.00
734.72	60713.00
735.46	60637.00
736.21	60572.00
736.95	60652.00
737.69	60664.00
738.44	60767.00
739.18	60875.00
739.92	61021.00
740.67	60960.00
741.41	61065.00
742.15	61213.00
742.90	61409.00
743.64	61450.00
744.38	61412.00
745.13	61356.00
745.87	61380.00
746.61	61343.00
747.36	61387.00
748.10	61364.00
748.84	61308.00
749.58	61249.00
750.33	61208.00
751.07	61220.00
751.81	61045.00
752.55	60949.00
753.30	60918.00
754.04	60768.00
754.78	60598.00
755.52	60422.00
756.27	60259.00
757.01	60063.00
757.75	60187.00
758.49	60180.00
759.23	60181.00
759.97	60058.00
760.72	60102.00
761.46	60100.00
762.20	60084.00
762.94	60200.00
763.68	60193.00
764.42	59980.00
765.16	59941.00
765.91	59824.00
766.65	59892.00
767.39	59870.00
768.13	59749.00
768.87	59765.00
769.61	59768.00
770.35	59535.00
771.09	59421.00
771.83	59257.00
772.57	59333.00
773.31	59301.00
774.05	59376.00
774.80	59415.00
775.54	59278.00
776.28	59109.00
777.02	58984.00
777.76	59003.00
778.50	58770.00
779.24	58555.00
779.98	58284.00
780.72	58172.00
781.46	58142.00
782.20	58228.00
782.93	57984.00
783.67	57929.00
784.41	57735.00
785.15	57633.00
785.89	57373.00
786.63	57285.00
787.37	57068.00
788.11	56837.00
788.85	56752.00
789.59	56731.00
790.33	56745.00
791.07	56760.00
791.81	56668.00
792.54	56486.00
793.28	56230.00
794.02	56009.00
794.76	55619.00
795.50	55482.00
796.24	55186.00
796.97	54894.00
797.71	54567.00
798.45	54403.00
799.19	54389.00
799.93	54336.00
800.67	54254.00
801.40	54160.00
802.14	54204.00
802.88	54348.00
803.62	54361.00
804.35	54346.00
805.09	54308.00
805.83	54094.00
806.57	53989.00
807.30	53896.00
808.04	53849.00
808.78	53699.00
809.52	53305.00
810.25	53125.00
810.99	52930.00
811.73	52907.00
812.46	52717.00
813.20	52694.00
813.94	52633.00
814.68	52525.00
815.41	52507.00
816.15	52433.00
816.88	52515.00
817.62	52419.00
818.36	52251.00
819.09	52028.00
819.83	51747.00
820.57	51702.00
821.30	51678.00
822.04	51530.00
822.77	51268.00
823.51	51007.00
824.25	50994.00
824.98	50901.00
825.72	50773.00
826.45	50625.00
827.19	50379.00
827.92	50187.00
828.66	49963.00
829.40	49688.00
830.13	49746.00
830.87	49674.00
831.60	49586.00
832.34	49537.00
833.07	49405.00
833.81	49434.00
834.54	49294.00
835.28	49363.00
836.01	49219.00
836.75	49142.00
837.48	48854.00
838.22	48691.00
838.95	48628.00
839.68	48532.00
840.42	48707.00
841.15	48705.00
841.89	48563.00
842.62	48283.00
843.36	48175.00
844.09	48168.00
844.82	48136.00
845.56	48127.00
846.29	47956.00
847.02	47761.00
847.76	47659.00
848.49	47630.00
849.23	47822.00
849.96	48184.00
850.69	48249.00
851.43	47987.00
852.16	47705.00
852.89	47406.00
853.63	47322.00
854.36	47203.00
855.09	47165.00
855.82	47201.00
856.56	47133.00
857.29	46909.00
858.02	46861.00
858.76	46743.00
859.49	46651.00
860.22	46556.00
860.95	46337.00
861.69	46150.00
862.42	45827.00
863.15	45726.00
863.88	45675.00
864.61	45834.00
865.35	45836.00
866.08	45701.00
866.81	45628.00
867.54	45327.00
868.27	45183.00
869.01	44962.00
869.74	45066.00
870.47	44944.00
871.20	44799.00
871.93	44535.00
872.66	44385.00
873.40	44083.00
874.13	44009.00
874.86	43835.00
875.59	43727.00
876.32	43643.00
877.05	43531.00
877.78	43469.00
878.51	43228.00
879.24	42911.00
879.97	42738.00
880.71	42633.00
881.44	42433.00
882.17	42293.00
882.90	42105.00
883.63	41937.00
884.36	41976.00
885.09	42081.00
885.82	42188.00
886.55	42305.00
887.28	42346.00
888.01	42262.00
888.74	42144.00
889.47	41786.00
890.20	41487.00
890.93	41198.00
891.66	40910.00
892.39	40844.00
893.12	40861.00
893.85	40859.00
894.57	40845.00
895.30	40758.00
896.03	40776.00
896.76	40653.00
897.49	40524.00
898.22	40444.00
898.95	40275.00
899.68	40045.00
900.41	39696.00
901.14	39488.00
901.86	39375.00
902.59	39449.00
903.32	39395.00
904.05	39372.00
904.78	39267.00
905.51	39168.00
906.24	39014.00
906.96	38874.00
907.69	38689.00
908.42	38450.00
909.15	38192.00
909.88	38032.00
910.60	37886.00
911.33	37632.00
912.06	37440.00
912.79	37268.00
913.52	37126.00
914.24	37037.00
914.97	36975.00
915.70	36810.00
916.42	36672.00
917.15	36516.00
917.88	36275.00
918.61	36049.00
919.33	35749.00
920.06	35416.00
920.79	35237.00
921.51	35056.00
922.24	34905.00
922.97	34765.00
923.69	34642.00
924.42	34440.00
925.15	34297.00
925.87	34034.00
926.60	33785.00
927.33	33519.00
928.05	33095.00
928.78	32896.00
929.51	32535.00
930.23	32265.00
930.96	31883.00
931.68	31543.00
932.41	31145.00
933.14	30804.00
933.86	30468.00
934.59	30111.00
935.31	29706.00
936.04	29142.00
936.76	28646.00
937.49	28082.00
938.21	27630.00
938.94	27091.00
939.66	26603.00
940.39	26136.00
941.11	25694.00
941.84	25357.00
942.56	25050.00
943.29	24744.00
944.01	24539.00
944.74	24375.00
945.46	24409.00
946.19	24303.00
946.91	24401.00
947.64	24410.00
948.36	24493.00
949.09	24559.00
949.81	24515.00
950.53	24632.00
951.26	24739.00
951.98	24764.00
952.71	24924.00
953.43	25010.00
954.15	25052.00
954.88	25178.00
955.60	25301.00
956.33	25338.00
957.05	25323.00
957.77	25371.00
958.50	25493.00
959.22	25509.00
959.94	25490.00
960.67	25447.00
961.39	25366.00
962.11	25345.00
962.84	25371.00
963.56	25392.00
964.28	25336.00
965.00	25081.00
965.73	24849.00
966.45	24762.00
967.17	24644.00
967.89	24451.00
968.62	24215.00
969.34	24050.00
970.06	23855.00
970.78	23749.00
971.51	23670.00
972.23	23491.00
972.95	23303.00
973.67	23165.00
974.40	23008.00
975.12	22868.00
975.84	22749.00
976.56	22546.00
977.28	22323.00
978.00	22230.00
978.73	22124.00
979.45	22080.00
980.17	22043.00
980.89	21941.00
981.61	21820.00
982.33	21811.00
983.05	21674.00
983.77	21591.00
984.50	21554.00
985.22	21446.00
985.94	21399.00
986.66	21281.00
987.38	21245.00
988.10	21189.00
988.82	21119.00
989.54	21080.00
990.26	20948.00
990.98	20748.00
991.70	20586.00
992.42	20505.00
993.14	20359.00
993.86	20161.00
994.58	20073.00
995.30	19886.00
996.02	19712.00
996.74	19619.00
997.46	19509.00
998.18	19391.00
998.90	19321.00
999.62	19133.00
1000.34	19028.00
1001.06	18972.00
1001.78	18849.00
1002.50	18708.00
1003.22	18510.00
1003.94	18364.00
1004.66	18176.00
1005.38	18008.00
1006.09	17861.00
1006.81	17596.00
1007.53	17412.00
1008.25	17234.00
1008.97	17105.00
1009.69	17054.00
1010.41	16957.00
1011.13	16745.00
1011.84	16603.00
1012.56	16417.00
1013.28	16257.00
1014.00	16198.00
1014.72	15984.00
1015.44	15846.00
1016.15	15588.00
1016.87	15394.00
1017.59	15171.00
1018.31	15071.00
1019.03	14957.00
1019.74	14833.00
1020.46	14779.00
1021.18	14609.00
1021.90	14494.00
1022.61	14400.00
1023.33	14275.00
1024.05	14140.00
1024.76	13935.00
1025.48	13729.00
1026.20	13513.00
1026.92	13341.00
1027.63	13156.00
1028.35	12970.00
1029.07	12826.00
1029.78	12636.00
1030.50	12474.00
1031.22	12277.00
1031.93	12120.00
1032.65	12035.00
1033.37	11941.00
1034.08	11817.00
1034.80	11748.00
1035.52	11620.00
1036.23	11568.00
1036.95	11464.00
1037.66	11347.00
1038.38	11156.00
1039.10	11073.00
1039.81	10829.00
1040.53	10651.00
1041.24	10527.00
1041.96	10328.00
1042.67	10247.00
1043.39	10124.00
1044.10	9998.00
1044.82	9891.00
1045.54	9760.00
1046.25	9617.00
1046.97	9541.00
1047.68	9370.00
1048.40	9189.00
1049.11	9056.00
1049.83	8894.00
1050.54	8774.00
1051.26	8690.00
1051.97	8542.00
1052.68	8489.00
1053.40	8327.00
1054.11	8213.00
1054.83	8085.00
1055.54	7979.00
1056.26	7839.00
1056.97	7769.00
1057.69	7655.00
1058.40	7541.00
1059.11	7432.00
1059.83	7265.00
1060.54	7136.00
1061.25	6989.00
1061.97	6820.00
1062.68	6705.00
1063.40	6567.00
1064.11	6416.00
1064.82	6322.00
1065.54	6155.00
1066.25	2574.00
1066.96	2571.00
1067.68	2572.00
1068.39	2574.00
1069.10	2631.00
1069.82	2632.00
1070.53	2628.00
1071.24	2625.00
1071.95	2625.00
1072.67	2631.00
1073.38	6033.00
1074.09	5917.00
1074.80	5772.00
1075.52	5659.00
1076.23	5564.00
1076.94	5403.00
1077.65	2592.00
1078.37	2580.00
1079.08	2571.00
1079.79	2607.00
