Data from PL_2polymer_F8BT_MEHPPV_USB2H096331_0406.txt Node
Date: Tue Dec 15 16:36:36 CET 2020
User: spadmin
Spectrometer: USB2+H09633
Trigger mode: 0
Integration Time (sec): 1.000000E-2
Scans to average: 1
Electric dark correction enabled: true
Nonlinearity correction enabled: false
Boxcar width: 0
XAxis mode: Wavelengths
Number of Pixels in Spectrum: 2048
>>>>>Begin Spectral Data<<<<<
174.027	-19.07
174.405	-19.07
174.783	-19.07
175.162	-150.14
175.54	-73.3
175.918	-89.12
176.296	-84.6
176.674	-111.72
177.052	-127.54
177.43	-116.24
177.808	-37.15
178.186	-39.41
178.564	-21.33
178.942	-37.15
179.32	-5.51
179.698	75.85
180.076	44.21
180.453	60.03
180.831	150.42
181.209	21.61
181.587	114.26
181.965	114.26
182.342	127.82
182.72	173.02
183.098	163.98
183.475	227.25
183.853	310.87
184.231	231.77
184.608	265.67
184.986	281.49
185.363	267.93
185.741	295.05
186.118	313.13
186.496	292.79
186.873	308.61
187.251	308.61
187.628	313.13
188.006	267.93
188.383	310.87
188.76	281.49
189.138	267.93
189.515	279.23
189.892	292.79
190.27	283.75
190.647	317.65
191.024	342.51
191.401	279.23
191.778	324.43
192.155	365.1
192.533	365.1
192.91	297.31
193.287	267.93
193.664	261.15
194.041	301.83
194.418	283.75
194.795	292.79
195.172	299.57
195.549	301.83
195.926	310.87
196.302	299.57
196.679	283.75
197.056	274.71
197.433	297.31
197.81	358.32
198.187	367.36
198.563	267.93
198.94	301.83
199.317	286.01
199.693	315.39
200.07	292.79
200.447	283.75
200.823	299.57
201.2	258.89
201.576	331.21
201.953	267.93
202.329	270.19
202.706	263.41
203.082	245.33
203.459	365.1
203.835	317.65
204.212	256.63
204.588	276.97
204.964	333.47
205.341	288.27
205.717	304.09
206.093	290.53
206.469	310.87
206.846	272.45
207.222	252.11
207.598	304.09
207.974	315.39
208.35	301.83
208.726	335.73
209.102	328.95
209.479	258.89
209.855	295.05
210.231	270.19
210.607	252.11
210.982	324.43
211.358	245.33
211.734	256.63
212.11	299.57
212.486	333.47
212.862	301.83
213.238	308.61
213.614	276.97
213.989	333.47
214.365	319.91
214.741	356.06
215.116	349.28
215.492	267.93
215.868	299.57
216.243	258.89
216.619	281.49
216.995	308.61
217.37	315.39
217.746	308.61
218.121	286.01
218.497	328.95
218.872	308.61
219.247	286.01
219.623	252.11
219.998	317.65
220.374	389.96
220.749	279.23
221.124	240.81
221.499	347.02
221.875	297.31
222.25	245.33
222.625	313.13
223	369.62
223.376	317.65
223.751	328.95
224.126	344.76
224.501	292.79
224.876	369.62
225.251	304.09
225.626	295.05
226.001	356.06
226.376	367.36
226.751	319.91
227.126	299.57
227.501	297.31
227.875	342.51
228.25	331.21
228.625	238.55
229	276.97
229.375	387.7
229.749	340.25
230.124	245.33
230.499	301.83
230.873	283.75
231.248	310.87
231.623	356.06
231.997	392.22
232.372	331.21
232.746	297.31
233.121	358.32
233.495	340.25
233.87	333.47
234.244	322.17
234.619	290.53
234.993	299.57
235.367	349.28
235.742	319.91
236.116	322.17
236.49	317.65
236.865	322.17
237.239	304.09
237.613	306.35
237.987	283.75
238.361	356.06
238.736	335.73
239.11	315.39
239.484	365.1
239.858	301.83
240.232	367.36
240.606	344.76
240.98	270.19
241.354	267.93
241.728	286.01
242.102	367.36
242.475	351.54
242.849	403.52
243.223	358.32
243.597	292.79
243.971	328.95
244.344	371.88
244.718	378.66
245.092	292.79
245.466	306.35
245.839	290.53
246.213	360.58
246.586	322.17
246.96	299.57
247.334	360.58
247.707	356.06
248.081	380.92
248.454	301.83
248.828	344.76
249.201	324.43
249.574	295.05
249.948	317.65
250.321	376.4
250.694	337.99
251.068	362.84
251.441	360.58
251.814	292.79
252.187	358.32
252.561	385.44
252.934	383.18
253.307	344.76
253.68	362.84
254.053	337.99
254.426	369.62
254.799	401.26
255.172	335.73
255.545	281.49
255.918	326.69
256.291	324.43
256.664	369.62
257.037	310.87
257.41	335.73
257.782	383.18
258.155	297.31
258.528	380.92
258.901	313.13
259.273	324.43
259.646	439.68
260.019	392.22
260.391	408.04
260.764	349.28
261.137	295.05
261.509	315.39
261.882	365.1
262.254	360.58
262.627	313.13
262.999	412.56
263.372	319.91
263.744	313.13
264.116	326.69
264.489	288.27
264.861	326.69
265.233	337.99
265.606	347.02
265.978	392.22
266.35	349.28
266.722	362.84
267.094	301.83
267.467	387.7
267.839	349.28
268.211	394.48
268.583	387.7
268.955	376.4
269.327	353.8
269.699	335.73
270.071	299.57
270.443	360.58
270.815	337.99
271.186	356.06
271.558	337.99
271.93	360.58
272.302	401.26
272.674	322.17
273.045	313.13
273.417	444.2
273.789	392.22
274.16	344.76
274.532	353.8
274.904	371.88
275.275	358.32
275.647	374.14
276.018	326.69
276.39	333.47
276.761	335.73
277.133	358.32
277.504	337.99
277.875	376.4
278.247	410.3
278.618	412.56
278.989	315.39
279.361	317.65
279.732	326.69
280.103	403.52
280.474	306.35
280.846	331.21
281.217	365.1
281.588	333.47
281.959	371.88
282.33	428.38
282.701	342.51
283.072	399
283.443	356.06
283.814	337.99
284.185	347.02
284.556	392.22
284.927	365.1
285.297	365.1
285.668	387.7
286.039	349.28
286.41	333.47
286.781	349.28
287.151	310.87
287.522	387.7
287.893	428.38
288.263	337.99
288.634	367.36
289.004	322.17
289.375	410.3
289.745	360.58
290.116	340.25
290.486	439.68
290.857	360.58
291.227	376.4
291.598	401.26
291.968	351.54
292.338	353.8
292.709	385.44
293.079	403.52
293.449	297.31
293.819	358.32
294.189	387.7
294.56	356.06
294.93	405.78
295.3	383.18
295.67	371.88
296.04	365.1
296.41	389.96
296.78	396.74
297.15	387.7
297.52	441.94
297.89	308.61
298.259	383.18
298.629	365.1
298.999	432.9
299.369	353.8
299.739	392.22
300.108	342.51
300.478	378.66
300.848	385.44
301.217	326.69
301.587	403.52
301.957	365.1
302.326	331.21
302.696	378.66
303.065	394.48
303.435	410.3
303.804	387.7
304.174	428.38
304.543	403.52
304.912	344.76
305.282	408.04
305.651	412.56
306.02	317.65
306.39	399
306.759	387.7
307.128	362.84
307.497	471.32
307.866	401.26
308.235	441.94
308.604	385.44
308.974	421.6
309.343	389.96
309.712	444.2
310.08	401.26
310.449	439.68
310.818	448.72
311.187	428.38
311.556	460.02
311.925	389.96
312.294	408.04
312.662	441.94
313.031	399
313.4	335.73
313.769	392.22
314.137	383.18
314.506	374.14
314.874	448.72
315.243	439.68
315.612	408.04
315.98	489.39
316.349	489.39
316.717	410.3
317.085	423.86
317.454	392.22
317.822	349.28
318.191	455.5
318.559	491.65
318.927	417.08
319.295	432.9
319.664	496.17
320.032	419.34
320.4	396.74
320.768	505.21
321.136	523.29
321.504	435.16
321.872	462.28
322.24	466.8
322.608	421.6
322.976	403.52
323.344	439.68
323.712	378.66
324.08	367.36
324.448	385.44
324.816	441.94
325.183	403.52
325.551	383.18
325.919	430.64
326.287	387.7
326.654	405.78
327.022	444.2
327.389	423.86
327.757	419.34
328.125	414.82
328.492	414.82
328.86	455.5
329.227	430.64
329.594	450.98
329.962	419.34
330.329	450.98
330.697	473.58
331.064	478.09
331.431	480.35
331.798	475.83
332.166	417.08
332.533	502.95
332.9	453.24
333.267	450.98
333.634	419.34
334.001	410.3
334.368	518.77
334.735	471.32
335.102	460.02
335.469	462.28
335.836	480.35
336.203	482.61
336.57	462.28
336.937	462.28
337.304	437.42
337.67	437.42
338.037	493.91
338.404	460.02
338.771	464.54
339.137	523.29
339.504	435.16
339.87	446.46
340.237	548.15
340.604	493.91
340.97	480.35
341.337	509.73
341.703	509.73
342.069	566.23
342.436	545.89
342.802	480.35
343.169	532.33
343.535	437.42
343.901	480.35
344.267	493.91
344.634	509.73
345	511.99
345.366	573.01
345.732	516.51
346.098	482.61
346.464	471.32
346.83	559.45
347.196	507.47
347.562	548.15
347.928	534.59
348.294	527.81
348.66	545.89
349.026	505.21
349.392	489.39
349.757	521.03
350.123	573.01
350.489	516.51
350.855	502.95
351.22	496.17
351.586	500.69
351.951	509.73
352.317	602.39
352.683	570.75
353.048	602.39
353.414	505.21
353.779	482.61
354.144	489.39
354.51	534.59
354.875	597.87
355.24	606.9
355.606	595.61
355.971	622.72
356.336	557.19
356.701	597.87
357.067	597.87
357.432	563.97
357.797	622.72
358.162	593.35
358.527	602.39
358.892	566.23
359.257	652.1
359.622	622.72
359.987	629.5
360.352	604.65
360.717	688.26
361.082	548.15
361.446	602.39
361.811	609.16
362.176	645.32
362.541	636.28
362.905	690.52
363.27	645.32
363.635	672.44
363.999	765.09
364.364	737.97
364.728	681.48
365.093	672.44
365.457	796.73
365.822	742.49
366.186	778.65
366.55	719.9
366.915	753.79
367.279	726.68
367.643	728.94
368.008	733.46
368.372	826.11
368.736	774.13
369.1	778.65
369.464	837.41
369.828	771.87
370.192	819.33
370.556	821.59
370.92	828.37
371.284	893.9
371.648	841.93
372.012	911.98
372.376	957.18
372.74	954.92
373.104	1038.53
373.468	1038.53
373.831	1085.99
374.195	1045.31
374.559	1076.95
374.922	1049.83
375.286	1083.73
375.65	1165.08
376.013	1248.7
376.377	1212.54
376.74	1244.18
377.104	1257.74
377.467	1382.03
377.83	1379.77
378.194	1420.44
378.557	1567.33
378.92	1682.58
379.284	1621.57
379.647	1802.35
380.01	1922.12
380.373	1942.46
380.736	2188.78
381.1	2396.69
381.463	2444.14
381.826	2457.7
382.189	2819.28
382.552	2891.59
382.915	3226.05
383.278	3418.13
383.64	3802.3
384.003	4007.95
384.366	4378.56
384.729	4835.04
385.092	5097.18
385.454	5280.23
385.817	6044.05
386.18	6477.94
386.542	7264.36
386.905	7894.85
387.268	8697.09
387.63	9497.07
387.993	10254.11
388.355	11117.36
388.718	12260.84
389.08	13476.62
389.442	14629.14
389.805	16012.15
390.167	17081.05
390.529	19209.81
390.892	21117.1
391.254	22509.15
391.616	24289.9
391.978	27220.89
392.34	29749.64
392.702	31089.72
393.064	33891.91
393.426	36174.33
393.788	38468.06
394.15	40463.48
394.512	43322.17
394.874	46354.85
395.236	49025.97
395.598	51814.6
395.96	54361.42
396.321	56506
396.683	58395.22
397.045	60307.03
397.406	62478.72
397.768	64026.71
398.13	65082.05
398.491	65082.05
398.853	65082.05
399.214	65082.05
399.576	65082.05
399.937	65082.05
400.299	65082.05
400.66	65082.05
401.021	65082.05
401.383	65082.05
401.744	65082.05
402.105	65082.05
402.466	65082.05
402.827	65082.05
403.189	65082.05
403.55	65082.05
403.911	65082.05
404.272	65082.05
404.633	65082.05
404.994	65082.05
405.355	65082.05
405.716	65082.05
406.077	65082.05
406.437	65082.05
406.798	65082.05
407.159	65082.05
407.52	65082.05
407.88	65082.05
408.241	65082.05
408.602	65082.05
408.962	65082.05
409.323	65082.05
409.684	65082.05
410.044	65082.05
410.405	65082.05
410.765	65082.05
411.125	65082.05
411.486	65082.05
411.846	65082.05
412.206	65082.05
412.567	65082.05
412.927	65082.05
413.287	65082.05
413.647	65082.05
414.007	65082.05
414.368	65082.05
414.728	65082.05
415.088	65082.05
415.448	65082.05
415.808	65082.05
416.168	65082.05
416.528	65082.05
416.887	65082.05
417.247	65082.05
417.607	65082.05
417.967	65082.05
418.327	64295.63
418.686	63344.24
419.046	62483.24
419.406	61290.06
419.765	60899.1
420.125	59082.2
420.484	57834.78
420.844	56822.38
421.203	54996.44
421.563	53455.23
421.922	53364.84
422.282	50291.47
422.641	47846.34
423	46397.79
423.36	44560.55
423.719	41498.49
424.078	38978.78
424.437	36567.54
424.796	35254.58
425.155	34133.71
425.515	31925.86
425.874	30877.3
426.233	28054.77
426.592	26106.8
426.95	25871.78
427.309	24016.46
427.668	23205.18
428.027	21691.1
428.386	20931.79
428.745	18760.1
429.103	17691.2
429.462	17001.95
429.821	15910.46
430.179	15354.54
430.538	15015.57
430.897	14373.77
431.255	13334.25
431.614	12724.1
431.972	12258.58
432.33	11625.82
432.689	11610.01
433.047	10800.99
433.405	10236.03
433.764	9632.66
434.122	9445.09
434.48	8916.29
434.838	8516.3
435.197	8138.91
435.555	8030.44
435.913	7616.89
436.271	7467.74
436.629	7101.65
436.987	6651.94
437.345	6527.65
437.703	6166.08
438.061	5879.08
438.418	5431.64
438.776	5246.33
439.134	5192.1
439.492	4934.47
439.849	4703.97
440.207	4419.23
440.565	4308.5
440.922	4046.36
441.28	3815.86
441.637	3763.88
441.995	3578.58
442.352	3406.83
442.71	3370.67
443.067	3289.32
443.425	3135.65
443.782	2959.39
444.139	2979.72
444.496	2706.28
444.854	2760.52
445.211	2674.65
445.568	2595.55
445.925	2227.2
446.282	2315.33
446.639	2322.11
446.996	2152.63
447.353	2274.66
447.71	2233.98
448.067	2224.94
448.424	2010.26
448.781	1870.15
449.137	1885.97
449.494	1836.25
449.851	1822.69
450.208	1716.48
450.564	1610.27
450.921	1587.67
451.278	1608.01
451.634	1585.41
451.991	1470.16
452.347	1501.8
452.704	1397.84
453.06	1411.4
453.416	1264.51
453.773	1208.02
454.129	1219.32
454.485	1176.38
454.841	1212.54
455.198	1108.59
455.554	1090.51
455.91	1160.56
456.266	1133.44
456.622	1058.87
456.978	1047.57
457.334	884.86
457.69	977.52
458.046	966.22
458.402	925.54
458.758	900.68
459.114	914.24
459.469	902.94
459.825	896.16
460.181	747.01
460.536	778.65
460.892	821.59
461.248	810.29
461.603	753.79
461.959	794.47
462.314	726.68
462.67	728.94
463.025	767.35
463.38	731.2
463.736	692.78
464.091	676.96
464.446	667.92
464.802	679.22
465.157	647.58
465.512	697.3
465.867	695.04
466.222	643.06
466.577	699.56
466.932	713.12
467.287	665.66
467.642	593.35
467.997	688.26
468.352	577.53
468.707	629.5
469.062	568.49
469.417	559.45
469.771	618.2
470.126	573.01
470.481	568.49
470.835	636.28
471.19	584.31
471.544	516.51
471.899	636.28
472.253	532.33
472.608	563.97
472.962	530.07
473.317	518.77
473.671	586.57
474.025	579.79
474.38	536.85
474.734	480.35
475.088	478.09
475.442	550.41
475.796	525.55
476.15	539.11
476.504	554.93
476.858	523.29
477.212	545.89
477.566	543.63
477.92	466.8
478.274	471.32
478.628	509.73
478.982	484.87
479.336	541.37
479.689	530.07
480.043	469.06
480.397	568.49
480.75	496.17
481.104	532.33
481.457	507.47
481.811	455.5
482.164	487.13
482.518	557.19
482.871	536.85
483.225	502.95
483.578	500.69
483.931	507.47
484.284	559.45
484.638	518.77
484.991	491.65
485.344	493.91
485.697	539.11
486.05	489.39
486.403	441.94
486.756	516.51
487.109	514.25
487.462	498.43
487.815	507.47
488.168	516.51
488.52	521.03
488.873	455.5
489.226	462.28
489.579	437.42
489.931	430.64
490.284	466.8
490.637	505.21
490.989	496.17
491.342	496.17
491.694	423.86
492.047	439.68
492.399	543.63
492.751	453.24
493.104	475.83
493.456	478.09
493.808	487.13
494.16	444.2
494.513	469.06
494.865	441.94
495.217	444.2
495.569	493.91
495.921	450.98
496.273	441.94
496.625	521.03
496.977	466.8
497.329	469.06
497.68	473.58
498.032	487.13
498.384	462.28
498.736	554.93
499.087	444.2
499.439	471.32
499.791	432.9
500.142	414.82
500.494	435.16
500.845	554.93
501.197	525.55
501.548	455.5
501.9	536.85
502.251	471.32
502.602	478.09
502.954	394.48
503.305	482.61
503.656	568.49
504.007	482.61
504.358	423.86
504.709	577.53
505.061	498.43
505.412	509.73
505.763	489.39
506.113	475.83
506.464	464.54
506.815	516.51
507.166	484.87
507.517	507.47
507.868	523.29
508.218	489.39
508.569	511.99
508.92	471.32
509.27	466.8
509.621	480.35
509.971	462.28
510.322	527.81
510.672	518.77
511.023	471.32
511.373	444.2
511.723	498.43
512.074	532.33
512.424	534.59
512.774	514.25
513.124	482.61
513.475	595.61
513.825	554.93
514.175	455.5
514.525	484.87
514.875	573.01
515.225	539.11
515.575	511.99
515.924	518.77
516.274	534.59
516.624	498.43
516.974	507.47
517.324	591.09
517.673	498.43
518.023	493.91
518.373	475.83
518.722	521.03
519.072	548.15
519.421	521.03
519.771	493.91
520.12	455.5
520.469	464.54
520.819	484.87
521.168	557.19
521.517	516.51
521.867	541.37
522.216	582.05
522.565	568.49
522.914	534.59
523.263	496.17
523.612	541.37
523.961	539.11
524.31	586.57
524.659	586.57
525.008	518.77
525.357	491.65
525.705	505.21
526.054	615.94
526.403	559.45
526.752	518.77
527.1	563.97
527.449	511.99
527.797	532.33
528.146	509.73
528.495	460.02
528.843	457.76
529.191	514.25
529.54	502.95
529.888	561.71
530.236	579.79
530.585	469.06
530.933	491.65
531.281	582.05
531.629	521.03
531.977	496.17
532.325	500.69
532.673	471.32
533.021	523.29
533.369	570.75
533.717	521.03
534.065	530.07
534.413	530.07
534.761	514.25
535.108	557.19
535.456	550.41
535.804	548.15
536.151	620.46
536.499	437.42
536.847	493.91
537.194	534.59
537.542	491.65
537.889	527.81
538.236	509.73
538.584	419.34
538.931	482.61
539.278	489.39
539.626	453.24
539.973	484.87
540.32	507.47
540.667	484.87
541.014	426.12
541.361	487.13
541.708	437.42
542.055	502.95
542.402	511.99
542.749	511.99
543.096	500.69
543.443	521.03
543.789	464.54
544.136	491.65
544.483	507.47
544.83	523.29
545.176	410.3
545.523	471.32
545.869	516.51
546.216	498.43
546.562	471.32
546.909	450.98
547.255	430.64
547.601	487.13
547.948	500.69
548.294	432.9
548.64	498.43
548.986	462.28
549.332	475.83
549.678	439.68
550.025	444.2
550.371	496.17
550.717	507.47
551.062	489.39
551.408	430.64
551.754	392.22
552.1	469.06
552.446	478.09
552.792	500.69
553.137	441.94
553.483	496.17
553.828	525.55
554.174	505.21
554.52	444.2
554.865	464.54
555.211	541.37
555.556	539.11
555.901	498.43
556.247	478.09
556.592	500.69
556.937	480.35
557.282	437.42
557.628	385.44
557.973	439.68
558.318	448.72
558.663	525.55
559.008	480.35
559.353	414.82
559.698	453.24
560.043	435.16
560.388	428.38
560.732	466.8
561.077	450.98
561.422	525.55
561.766	543.63
562.111	432.9
562.456	432.9
562.8	478.09
563.145	426.12
563.489	405.78
563.834	478.09
564.178	471.32
564.523	460.02
564.867	464.54
565.211	414.82
565.555	478.09
565.9	453.24
566.244	419.34
566.588	441.94
566.932	414.82
567.276	408.04
567.62	394.48
567.964	371.88
568.308	432.9
568.652	475.83
568.996	471.32
569.339	466.8
569.683	457.76
570.027	448.72
570.371	408.04
570.714	464.54
571.058	417.08
571.401	460.02
571.745	380.92
572.088	385.44
572.432	518.77
572.775	430.64
573.118	489.39
573.462	356.06
573.805	435.16
574.148	439.68
574.491	389.96
574.835	487.13
575.178	421.6
575.521	347.02
575.864	378.66
576.207	421.6
576.55	428.38
576.892	417.08
577.235	356.06
577.578	428.38
577.921	414.82
578.264	496.17
578.606	408.04
578.949	421.6
579.292	419.34
579.634	457.76
579.977	401.26
580.319	457.76
580.662	396.74
581.004	493.91
581.346	403.52
581.689	369.62
582.031	349.28
582.373	380.92
582.715	396.74
583.057	360.58
583.4	401.26
583.742	430.64
584.084	387.7
584.426	385.44
584.768	356.06
585.109	378.66
585.451	380.92
585.793	342.51
586.135	403.52
586.477	394.48
586.818	417.08
587.16	466.8
587.502	437.42
587.843	401.26
588.185	369.62
588.526	408.04
588.868	385.44
589.209	396.74
589.55	408.04
589.892	401.26
590.233	374.14
590.574	387.7
590.915	387.7
591.257	380.92
591.598	362.84
591.939	371.88
592.28	376.4
592.621	392.22
592.962	360.58
593.303	380.92
593.643	380.92
593.984	328.95
594.325	367.36
594.666	385.44
595.006	392.22
595.347	455.5
595.688	340.25
596.028	401.26
596.369	385.44
596.709	367.36
597.05	337.99
597.39	399
597.73	392.22
598.071	396.74
598.411	385.44
598.751	385.44
599.091	426.12
599.431	408.04
599.772	331.21
600.112	371.88
600.452	347.02
600.792	337.99
601.132	347.02
601.471	365.1
601.811	389.96
602.151	322.17
602.491	349.28
602.831	371.88
603.17	367.36
603.51	378.66
603.849	358.32
604.189	455.5
604.528	304.09
604.868	401.26
605.207	371.88
605.547	351.54
605.886	428.38
606.225	371.88
606.565	446.46
606.904	310.87
607.243	371.88
607.582	380.92
607.921	315.39
608.26	349.28
608.599	347.02
608.938	342.51
609.277	369.62
609.616	297.31
609.955	423.86
610.293	423.86
610.632	297.31
610.971	376.4
611.309	342.51
611.648	310.87
611.987	351.54
612.325	369.62
612.664	367.36
613.002	385.44
613.34	356.06
613.679	276.97
614.017	399
614.355	299.57
614.694	292.79
615.032	319.91
615.37	378.66
615.708	369.62
616.046	310.87
616.384	276.97
616.722	324.43
617.06	292.79
617.398	353.8
617.736	310.87
618.073	374.14
618.411	342.51
618.749	342.51
619.086	328.95
619.424	403.52
619.762	319.91
620.099	317.65
620.437	353.8
620.774	313.13
621.112	331.21
621.449	322.17
621.786	342.51
622.123	356.06
622.461	344.76
622.798	335.73
623.135	324.43
623.472	286.01
623.809	301.83
624.146	315.39
624.483	299.57
624.82	265.67
625.157	333.47
625.494	308.61
625.83	401.26
626.167	340.25
626.504	295.05
626.841	301.83
627.177	360.58
627.514	362.84
627.85	342.51
628.187	319.91
628.523	362.84
628.86	374.14
629.196	263.41
629.532	317.65
629.869	299.57
630.205	326.69
630.541	272.45
630.877	319.91
631.213	315.39
631.549	263.41
631.885	270.19
632.221	272.45
632.557	328.95
632.893	263.41
633.229	304.09
633.564	360.58
633.9	389.96
634.236	319.91
634.572	324.43
634.907	310.87
635.243	272.45
635.578	380.92
635.914	347.02
636.249	351.54
636.585	276.97
636.92	308.61
637.255	353.8
637.59	317.65
637.926	272.45
638.261	295.05
638.596	270.19
638.931	401.26
639.266	385.44
639.601	313.13
639.936	236.29
640.271	342.51
640.606	371.88
640.94	292.79
641.275	328.95
641.61	335.73
641.945	272.45
642.279	272.45
642.614	347.02
642.948	313.13
643.283	288.27
643.617	310.87
643.952	261.15
644.286	265.67
644.62	362.84
644.955	356.06
645.289	347.02
645.623	347.02
645.957	353.8
646.291	243.07
646.625	252.11
646.959	265.67
647.293	258.89
647.627	315.39
647.961	313.13
648.295	344.76
648.629	286.01
648.962	301.83
649.296	324.43
649.63	301.83
649.963	326.69
650.297	331.21
650.63	322.17
650.964	306.35
651.297	365.1
651.631	326.69
651.964	319.91
652.297	317.65
652.631	326.69
652.964	283.75
653.297	322.17
653.63	286.01
653.963	394.48
654.296	301.83
654.629	288.27
654.962	283.75
655.295	337.99
655.628	331.21
655.961	288.27
656.293	276.97
656.626	310.87
656.959	347.02
657.291	297.31
657.624	326.69
657.956	324.43
658.289	274.71
658.621	279.23
658.954	376.4
659.286	261.15
659.618	365.1
659.95	317.65
660.283	265.67
660.615	299.57
660.947	270.19
661.279	331.21
661.611	308.61
661.943	306.35
662.275	209.18
662.607	283.75
662.939	306.35
663.27	392.22
663.602	279.23
663.934	308.61
664.266	283.75
664.597	315.39
664.929	331.21
665.26	297.31
665.592	290.53
665.923	283.75
666.255	331.21
666.586	290.53
666.917	351.54
667.248	263.41
667.58	317.65
667.911	362.84
668.242	301.83
668.573	263.41
668.904	333.47
669.235	265.67
669.566	290.53
669.897	335.73
670.228	295.05
670.558	288.27
670.889	326.69
671.22	283.75
671.551	254.37
671.881	319.91
672.212	261.15
672.542	297.31
672.873	286.01
673.203	265.67
673.533	340.25
673.864	347.02
674.194	290.53
674.524	276.97
674.855	272.45
675.185	333.47
675.515	326.69
675.845	254.37
676.175	283.75
676.505	295.05
676.835	319.91
677.165	344.76
677.494	308.61
677.824	276.97
678.154	274.71
678.484	331.21
678.813	290.53
679.143	333.47
679.472	288.27
679.802	333.47
680.131	247.59
680.461	297.31
680.79	344.76
681.119	231.77
681.449	317.65
681.778	272.45
682.107	227.25
682.436	306.35
682.765	322.17
683.094	328.95
683.423	324.43
683.752	224.99
684.081	238.55
684.41	301.83
684.739	308.61
685.067	224.99
685.396	301.83
685.725	315.39
686.053	292.79
686.382	337.99
686.711	322.17
687.039	272.45
687.367	263.41
687.696	331.21
688.024	247.59
688.352	263.41
688.681	270.19
689.009	236.29
689.337	238.55
689.665	252.11
689.993	301.83
690.321	315.39
690.649	310.87
690.977	281.49
691.305	337.99
691.633	288.27
691.961	254.37
692.288	258.89
692.616	265.67
692.944	288.27
693.271	301.83
693.599	238.55
693.926	308.61
694.254	324.43
694.581	337.99
694.908	306.35
695.236	279.23
695.563	263.41
695.89	261.15
696.217	256.63
696.544	317.65
696.871	261.15
697.198	317.65
697.525	306.35
697.852	240.81
698.179	286.01
698.506	254.37
698.833	170.76
699.16	342.51
699.486	324.43
699.813	288.27
700.139	286.01
700.466	276.97
700.793	290.53
701.119	281.49
701.445	342.51
701.772	281.49
702.098	292.79
702.424	276.97
702.75	245.33
703.077	290.53
703.403	261.15
703.729	261.15
704.055	279.23
704.381	288.27
704.707	290.53
705.033	333.47
705.358	281.49
705.684	252.11
706.01	290.53
706.336	267.93
706.661	283.75
706.987	261.15
707.312	263.41
707.638	193.36
707.963	286.01
708.289	247.59
708.614	328.95
708.939	283.75
709.265	310.87
709.59	299.57
709.915	308.61
710.24	267.93
710.565	272.45
710.89	317.65
711.215	256.63
711.54	295.05
711.865	261.15
712.19	270.19
712.515	252.11
712.839	315.39
713.164	328.95
713.489	319.91
713.813	308.61
714.138	304.09
714.462	299.57
714.787	265.67
715.111	272.45
715.435	322.17
715.76	297.31
716.084	308.61
716.408	265.67
716.732	290.53
717.056	315.39
717.381	295.05
717.705	227.25
718.028	252.11
718.352	249.85
718.676	333.47
719	299.57
719.324	335.73
719.648	270.19
719.971	292.79
720.295	258.89
720.618	288.27
720.942	254.37
721.265	265.67
721.589	288.27
721.912	243.07
722.236	315.39
722.559	308.61
722.882	258.89
723.205	247.59
723.528	324.43
723.851	344.76
724.174	308.61
724.497	283.75
724.82	254.37
725.143	288.27
725.466	306.35
725.789	306.35
726.112	315.39
726.434	347.02
726.757	308.61
727.08	215.95
727.402	292.79
727.725	256.63
728.047	308.61
728.37	304.09
728.692	261.15
729.014	263.41
729.336	263.41
729.659	297.31
729.981	319.91
730.303	261.15
730.625	211.44
730.947	270.19
731.269	267.93
731.591	279.23
731.913	252.11
732.235	238.55
732.556	353.8
732.878	324.43
733.2	283.75
733.521	283.75
733.843	310.87
734.164	328.95
734.486	243.07
734.807	288.27
735.129	238.55
735.45	252.11
735.771	267.93
736.092	254.37
736.414	281.49
736.735	299.57
737.056	243.07
737.377	304.09
737.698	299.57
738.019	270.19
738.34	313.13
738.66	270.19
738.981	270.19
739.302	328.95
739.623	292.79
739.943	274.71
740.264	319.91
740.584	272.45
740.905	267.93
741.225	274.71
741.546	283.75
741.866	263.41
742.186	283.75
742.507	263.41
742.827	279.23
743.147	304.09
743.467	347.02
743.787	270.19
744.107	290.53
744.427	290.53
744.747	249.85
745.067	240.81
745.386	247.59
745.706	292.79
746.026	229.51
746.346	206.92
746.665	272.45
746.985	276.97
747.304	292.79
747.624	279.23
747.943	272.45
748.262	276.97
748.582	227.25
748.901	231.77
749.22	292.79
749.539	263.41
749.858	304.09
750.177	272.45
750.496	331.21
750.815	281.49
751.134	281.49
751.453	220.47
751.772	274.71
752.09	267.93
752.409	256.63
752.728	342.51
753.046	267.93
753.365	258.89
753.683	304.09
754.002	295.05
754.32	290.53
754.639	263.41
754.957	254.37
755.275	256.63
755.593	247.59
755.911	247.59
756.23	308.61
756.548	283.75
756.866	234.03
757.183	252.11
757.501	290.53
757.819	392.22
758.137	351.54
758.455	299.57
758.772	270.19
759.09	299.57
759.408	261.15
759.725	276.97
760.043	245.33
760.36	267.93
760.677	310.87
760.995	206.92
761.312	344.76
761.629	272.45
761.946	288.27
762.264	258.89
762.581	224.99
762.898	231.77
763.215	310.87
763.532	265.67
763.848	315.39
764.165	360.58
764.482	265.67
764.799	297.31
765.115	292.79
765.432	328.95
765.749	324.43
766.065	328.95
766.382	317.65
766.698	292.79
767.014	258.89
767.331	234.03
767.647	315.39
767.963	292.79
768.279	310.87
768.595	304.09
768.911	247.59
769.227	263.41
769.543	362.84
769.859	283.75
770.175	243.07
770.491	292.79
770.807	281.49
771.122	263.41
771.438	229.51
771.754	295.05
772.069	247.59
772.385	290.53
772.7	306.35
773.016	297.31
773.331	317.65
773.646	353.8
773.961	306.35
774.277	204.66
774.592	231.77
774.907	243.07
775.222	292.79
775.537	313.13
775.852	256.63
776.167	238.55
776.482	295.05
776.796	317.65
777.111	256.63
777.426	283.75
777.74	276.97
778.055	308.61
778.369	286.01
778.684	324.43
778.998	283.75
779.313	286.01
779.627	252.11
779.941	292.79
780.255	310.87
780.57	326.69
780.884	195.62
781.198	231.77
781.512	274.71
781.826	206.92
782.14	274.71
782.453	281.49
782.767	211.44
783.081	369.62
783.395	304.09
783.708	306.35
784.022	224.99
784.335	267.93
784.649	265.67
784.962	333.47
785.276	283.75
785.589	304.09
785.902	261.15
786.216	308.61
786.529	270.19
786.842	326.69
787.155	310.87
787.468	254.37
787.781	353.8
788.094	288.27
788.407	240.81
788.72	261.15
789.032	283.75
789.345	317.65
789.658	306.35
789.97	211.44
790.283	270.19
790.595	267.93
790.908	261.15
791.22	238.55
791.532	281.49
791.845	295.05
792.157	276.97
792.469	267.93
792.781	261.15
793.093	261.15
793.405	258.89
793.717	297.31
794.029	288.27
794.341	286.01
794.653	254.37
794.965	191.1
795.276	247.59
795.588	261.15
795.9	313.13
796.211	258.89
796.523	254.37
796.834	213.69
797.146	276.97
797.457	276.97
797.768	256.63
798.08	290.53
798.391	270.19
798.702	335.73
799.013	290.53
799.324	267.93
799.635	200.14
799.946	209.18
800.257	224.99
800.568	213.69
800.878	270.19
801.189	344.76
801.5	290.53
801.81	274.71
802.121	263.41
802.431	227.25
802.742	265.67
803.052	258.89
803.363	276.97
803.673	283.75
803.983	274.71
804.293	243.07
804.603	209.18
804.913	247.59
805.224	231.77
805.533	270.19
805.843	301.83
806.153	274.71
806.463	254.37
806.773	328.95
807.083	380.92
807.392	220.47
807.702	206.92
808.011	315.39
808.321	227.25
808.63	224.99
808.94	308.61
809.249	399
809.558	342.51
809.868	301.83
810.177	270.19
810.486	279.23
810.795	274.71
811.104	234.03
811.413	281.49
811.722	306.35
812.031	349.28
812.339	243.07
812.648	211.44
812.957	290.53
813.266	213.69
813.574	258.89
813.883	279.23
814.191	317.65
814.5	270.19
814.808	204.66
815.116	319.91
815.424	256.63
815.733	281.49
816.041	236.29
816.349	247.59
816.657	304.09
816.965	286.01
817.273	270.19
817.581	292.79
817.889	283.75
818.196	229.51
818.504	238.55
818.812	197.88
819.12	256.63
819.427	301.83
819.735	333.47
820.042	245.33
820.349	301.83
820.657	299.57
820.964	204.66
821.271	292.79
821.579	236.29
821.886	292.79
822.193	324.43
822.5	276.97
822.807	301.83
823.114	365.1
823.421	297.31
823.727	315.39
824.034	310.87
824.341	234.03
824.648	304.09
824.954	290.53
825.261	315.39
825.567	261.15
825.874	299.57
826.18	272.45
826.486	299.57
826.793	308.61
827.099	308.61
827.405	328.95
827.711	263.41
828.017	297.31
828.323	310.87
828.629	224.99
828.935	258.89
829.241	234.03
829.547	317.65
829.852	299.57
830.158	324.43
830.464	310.87
830.769	306.35
831.075	215.95
831.38	245.33
831.686	267.93
831.991	353.8
832.296	265.67
832.601	274.71
832.907	236.29
833.212	344.76
833.517	301.83
833.822	243.07
834.127	270.19
834.432	247.59
834.737	328.95
835.041	252.11
835.346	276.97
835.651	206.92
835.956	222.73
836.26	297.31
836.565	272.45
836.869	274.71
837.174	337.99
837.478	281.49
837.782	337.99
838.087	356.06
838.391	279.23
838.695	224.99
838.999	301.83
839.303	315.39
839.607	290.53
839.911	245.33
840.215	209.18
840.519	279.23
840.822	351.54
841.126	308.61
841.43	304.09
841.733	281.49
842.037	227.25
842.34	258.89
842.644	274.71
842.947	342.51
843.251	369.62
843.554	306.35
843.857	279.23
844.16	304.09
844.463	240.81
844.766	249.85
845.069	272.45
845.372	256.63
845.675	342.51
845.978	245.33
846.281	272.45
846.583	274.71
846.886	308.61
847.189	297.31
847.491	405.78
847.794	256.63
848.096	236.29
848.399	267.93
848.701	281.49
849.003	362.84
849.305	231.77
849.608	197.88
849.91	238.55
850.212	295.05
850.514	295.05
850.816	243.07
851.118	272.45
851.419	236.29
851.721	288.27
852.023	356.06
852.325	337.99
852.626	254.37
852.928	229.51
853.229	326.69
853.531	283.75
853.832	218.21
854.133	254.37
854.435	263.41
854.736	295.05
855.037	310.87
855.338	263.41
855.639	333.47
855.94	295.05
856.241	286.01
856.542	245.33
856.843	274.71
857.144	351.54
857.444	333.47
857.745	317.65
858.046	297.31
858.346	304.09
858.647	240.81
858.947	267.93
859.247	283.75
859.548	290.53
859.848	261.15
860.148	281.49
860.448	283.75
860.749	290.53
861.049	267.93
861.349	297.31
861.648	297.31
861.948	245.33
862.248	297.31
862.548	236.29
862.848	286.01
863.147	231.77
863.447	234.03
863.746	326.69
864.046	288.27
864.345	281.49
864.645	252.11
864.944	220.47
865.243	283.75
865.542	247.59
865.842	342.51
866.141	276.97
866.44	281.49
866.739	331.21
867.038	292.79
867.337	179.8
867.635	240.81
867.934	317.65
868.233	283.75
868.531	276.97
868.83	224.99
869.129	276.97
869.427	299.57
869.725	267.93
870.024	256.63
870.322	288.27
870.62	362.84
870.918	274.71
871.217	261.15
871.515	276.97
871.813	351.54
872.111	247.59
872.409	265.67
872.706	247.59
873.004	283.75
873.302	265.67
873.6	258.89
873.897	331.21
874.195	301.83
874.492	290.53
874.79	317.65
875.087	304.09
875.384	288.27
875.682	249.85
875.979	299.57
876.276	299.57
876.573	283.75
876.87	283.75
877.167	283.75
