Data from PL_2polymer_F8BT_MEHPPV_USB2H096331_0064.txt Node
Date: Tue Dec 15 16:36:32 CET 2020
User: spadmin
Spectrometer: USB2+H09633
Trigger mode: 0
Integration Time (sec): 1.000000E-2
Scans to average: 1
Electric dark correction enabled: true
Nonlinearity correction enabled: false
Boxcar width: 0
XAxis mode: Wavelengths
Number of Pixels in Spectrum: 2048
>>>>>Begin Spectral Data<<<<<
174.027	-69.63
174.405	-69.63
174.783	-69.63
175.162	-74.15
175.54	-108.05
175.918	-160.02
176.296	-160.02
176.674	-31.21
177.052	-85.45
177.43	-67.37
177.808	-58.33
178.186	-1.84
178.564	-87.71
178.942	7.2
179.32	9.46
179.698	41.1
180.076	11.72
180.453	81.78
180.831	75
181.209	68.22
181.587	75
181.965	122.45
182.342	136.01
182.72	113.42
183.098	160.87
183.475	228.67
183.853	244.49
184.231	253.52
184.608	328.1
184.986	183.47
185.363	300.98
185.741	282.9
186.118	258.04
186.496	316.8
186.873	289.68
187.251	267.08
187.628	359.74
188.006	294.2
188.383	264.82
188.76	300.98
189.138	343.92
189.515	262.56
189.892	323.58
190.27	352.96
190.647	343.92
191.024	334.88
191.401	316.8
191.778	298.72
192.155	364.26
192.533	330.36
192.91	278.38
193.287	314.54
193.664	307.76
194.041	348.44
194.418	310.02
194.795	233.19
195.172	296.46
195.549	310.02
195.926	323.58
196.302	319.06
196.679	219.63
197.056	300.98
197.433	282.9
197.81	300.98
198.187	239.97
198.563	273.86
198.94	287.42
199.317	287.42
199.693	258.04
200.07	321.32
200.447	289.68
200.823	262.56
201.2	269.34
201.576	294.2
201.953	249
202.329	307.76
202.706	260.3
203.082	316.8
203.459	269.34
203.835	280.64
204.212	325.84
204.588	314.54
204.964	282.9
205.341	350.7
205.717	296.46
206.093	325.84
206.469	260.3
206.846	278.38
207.222	271.6
207.598	287.42
207.974	206.07
208.35	323.58
208.726	276.12
209.102	325.84
209.479	260.3
209.855	278.38
210.231	321.32
210.607	280.64
210.982	303.24
211.358	271.6
211.734	298.72
212.11	314.54
212.486	262.56
212.862	287.42
213.238	371.04
213.614	291.94
213.989	291.94
214.365	262.56
214.741	303.24
215.116	287.42
215.492	251.26
215.868	310.02
216.243	312.28
216.619	289.68
216.995	285.16
217.37	350.7
217.746	280.64
218.121	219.63
218.497	300.98
218.872	310.02
219.247	230.93
219.623	276.12
219.998	253.52
220.374	269.34
220.749	305.5
221.124	328.1
221.499	332.62
221.875	244.49
222.25	312.28
222.625	233.19
223	246.74
223.376	291.94
223.751	287.42
224.126	314.54
224.501	332.62
224.876	271.6
225.251	341.66
225.626	276.12
226.001	269.34
226.376	339.4
226.751	289.68
227.126	276.12
227.501	328.1
227.875	300.98
228.25	321.32
228.625	328.1
229	352.96
229.375	314.54
229.749	273.86
230.124	233.19
230.499	310.02
230.873	321.32
231.248	332.62
231.623	239.97
231.997	310.02
232.372	334.88
232.746	330.36
233.121	377.81
233.495	413.97
233.87	328.1
234.244	289.68
234.619	332.62
234.993	325.84
235.367	343.92
235.742	343.92
236.116	323.58
236.49	280.64
236.865	359.74
237.239	305.5
237.613	334.88
237.987	305.5
238.361	291.94
238.736	249
239.11	352.96
239.484	323.58
239.858	289.68
240.232	339.4
240.606	366.52
240.98	334.88
241.354	303.24
241.728	285.16
242.102	303.24
242.475	357.48
242.849	319.06
243.223	377.81
243.597	296.46
243.971	312.28
244.344	321.32
244.718	267.08
245.092	310.02
245.466	285.16
245.839	280.64
246.213	269.34
246.586	291.94
246.96	262.56
247.334	319.06
247.707	393.63
248.081	291.94
248.454	346.18
248.828	321.32
249.201	350.7
249.574	352.96
249.948	373.3
250.321	323.58
250.694	235.45
251.068	398.15
251.441	359.74
251.814	330.36
252.187	328.1
252.561	384.59
252.934	323.58
253.307	303.24
253.68	334.88
254.053	382.33
254.426	244.49
254.799	303.24
255.172	264.82
255.545	359.74
255.918	258.04
256.291	368.78
256.664	323.58
257.037	307.76
257.41	303.24
257.782	289.68
258.155	330.36
258.528	346.18
258.901	409.45
259.273	368.78
259.646	348.44
260.019	328.1
260.391	350.7
260.764	321.32
261.137	341.66
261.509	368.78
261.882	325.84
262.254	393.63
262.627	334.88
262.999	339.4
263.372	296.46
263.744	343.92
264.116	371.04
264.489	303.24
264.861	294.2
265.233	300.98
265.606	278.38
265.978	339.4
266.35	368.78
266.722	346.18
267.094	273.86
267.467	328.1
267.839	337.14
268.211	375.56
268.583	316.8
268.955	321.32
269.327	357.48
269.699	341.66
270.071	312.28
270.443	355.22
270.815	323.58
271.186	312.28
271.558	355.22
271.93	341.66
272.302	398.15
272.674	325.84
273.045	371.04
273.417	420.75
273.789	386.85
274.16	373.3
274.532	357.48
274.904	384.59
275.275	296.46
275.647	350.7
276.018	330.36
276.39	343.92
276.761	332.62
277.133	321.32
277.504	357.48
277.875	294.2
278.247	357.48
278.618	395.89
278.989	303.24
279.361	364.26
279.732	393.63
280.103	368.78
280.474	339.4
280.846	382.33
281.217	328.1
281.588	339.4
281.959	305.5
282.33	287.42
282.701	398.15
283.072	350.7
283.443	377.81
283.814	359.74
284.185	341.66
284.556	339.4
284.927	362
285.297	420.75
285.668	337.14
286.039	334.88
286.41	368.78
286.781	348.44
287.151	380.07
287.522	404.93
287.893	427.53
288.263	411.71
288.634	328.1
289.004	334.88
289.375	312.28
289.745	380.07
290.116	346.18
290.486	267.08
290.857	380.07
291.227	321.32
291.598	373.3
291.968	366.52
292.338	402.67
292.709	404.93
293.079	391.37
293.449	352.96
293.819	352.96
294.189	375.56
294.56	377.81
294.93	350.7
295.3	423.01
295.67	359.74
296.04	366.52
296.41	382.33
296.78	343.92
297.15	380.07
297.52	346.18
297.89	366.52
298.259	436.57
298.629	357.48
298.999	368.78
299.369	368.78
299.739	332.62
300.108	386.85
300.478	395.89
300.848	395.89
301.217	249
301.587	359.74
301.957	413.97
302.326	350.7
302.696	366.52
303.065	346.18
303.435	398.15
303.804	382.33
304.174	386.85
304.543	371.04
304.912	395.89
305.282	357.48
305.651	411.71
306.02	423.01
306.39	427.53
306.759	368.78
307.128	382.33
307.497	411.71
307.866	382.33
308.235	418.49
308.604	375.56
308.974	375.56
309.343	389.11
309.712	398.15
310.08	416.23
310.449	445.61
310.818	386.85
311.187	366.52
311.556	436.57
311.925	432.05
312.294	359.74
312.662	429.79
313.031	400.41
313.4	364.26
313.769	456.91
314.137	432.05
314.506	391.37
314.874	425.27
315.243	490.81
315.612	443.35
315.98	375.56
316.349	432.05
316.717	395.89
317.085	499.85
317.454	452.39
317.822	400.41
318.191	427.53
318.559	468.21
318.927	377.81
319.295	413.97
319.664	395.89
320.032	391.37
320.4	411.71
320.768	427.53
321.136	420.75
321.504	398.15
321.872	454.65
322.24	459.17
322.608	436.57
322.976	337.14
323.344	386.85
323.712	382.33
324.08	411.71
324.448	479.51
324.816	481.77
325.183	420.75
325.551	463.69
325.919	434.31
326.287	377.81
326.654	332.62
327.022	429.79
327.389	398.15
327.757	411.71
328.125	438.83
328.492	429.79
328.86	443.35
329.227	445.61
329.594	508.88
329.962	461.43
330.329	375.56
330.697	402.67
331.064	404.93
331.431	375.56
331.798	391.37
332.166	407.19
332.533	488.55
332.9	441.09
333.267	411.71
333.634	436.57
334.001	493.07
334.368	418.49
334.735	465.95
335.102	441.09
335.469	456.91
335.836	386.85
336.203	472.73
336.57	472.73
336.937	425.27
337.304	463.69
337.67	425.27
338.037	465.95
338.404	447.87
338.771	481.77
339.137	404.93
339.504	445.61
339.87	468.21
340.237	495.33
340.604	481.77
340.97	411.71
341.337	495.33
341.703	506.63
342.069	432.05
342.436	538.26
342.802	441.09
343.169	504.37
343.535	533.74
343.901	481.77
344.267	499.85
344.634	517.92
345	533.74
345.366	533.74
345.732	447.87
346.098	502.11
346.464	495.33
346.83	502.11
347.196	493.07
347.562	554.08
347.928	524.7
348.294	486.29
348.66	556.34
349.026	540.52
349.392	497.59
349.757	536
350.123	569.9
350.489	547.3
350.855	524.7
351.22	606.06
351.586	626.4
351.951	558.6
352.317	526.96
352.683	599.28
353.048	578.94
353.414	585.72
353.779	504.37
354.144	511.14
354.51	540.52
354.875	594.76
355.24	576.68
355.606	585.72
355.971	610.58
356.336	628.66
356.701	594.76
357.067	581.2
357.432	617.36
357.797	587.98
358.162	642.21
358.527	551.82
358.892	610.58
359.257	639.95
359.622	644.47
359.987	642.21
360.352	601.54
360.717	619.62
361.082	630.92
361.446	601.54
361.811	707.75
362.176	655.77
362.541	700.97
362.905	685.15
363.27	597.02
363.635	691.93
363.999	689.67
364.364	737.13
364.728	646.73
365.093	703.23
365.457	766.51
365.822	719.05
366.186	764.25
366.55	773.28
366.915	775.54
367.279	784.58
367.643	734.87
368.008	746.17
368.372	678.37
368.736	823
369.1	813.96
369.464	739.39
369.828	852.38
370.192	899.84
370.556	802.66
370.92	868.2
371.284	854.64
371.648	902.09
372.012	888.54
372.376	976.67
372.74	958.59
373.104	967.63
373.468	992.49
373.831	1067.06
374.195	1096.44
374.559	1012.83
374.922	1055.76
375.286	1161.98
375.65	1164.23
376.013	1198.13
376.377	1227.51
376.74	1256.89
377.104	1322.42
377.467	1372.14
377.83	1464.79
378.194	1428.63
378.557	1600.38
378.92	1559.7
379.284	1803.77
379.647	1758.57
380.01	1919.02
380.373	1973.25
380.736	2328.05
381.1	2364.2
381.463	2461.38
381.826	2709.96
382.189	2743.85
382.552	3001.47
382.915	3392.42
383.278	3503.16
383.64	3860.21
384.003	4158.51
384.366	4355.11
384.729	4883.91
385.092	5419.49
385.454	5772.02
385.817	6203.65
386.18	6856.74
386.542	7530.17
386.905	8232.98
387.268	9078.15
387.63	9832.93
387.993	10519.92
388.355	11559.44
388.718	12739.07
389.08	13997.8
389.442	15125.45
389.805	16485.87
390.167	17896
390.529	19834.93
390.892	22374.98
391.254	23391.9
391.616	24946.66
391.978	27929.63
392.34	30921.64
392.702	32437.99
393.064	35457.12
393.426	37773.44
393.788	39913.5
394.15	42150.73
394.512	44340.5
394.874	47628.55
395.236	50805.87
395.598	53366.25
395.96	55526.65
396.321	57641.85
396.683	59162.71
397.045	61483.55
397.406	63381.81
397.768	65051.82
398.13	65069.9
398.491	65069.9
398.853	65069.9
399.214	65069.9
399.576	65069.9
399.937	65069.9
400.299	65069.9
400.66	65069.9
401.021	65069.9
401.383	65069.9
401.744	65069.9
402.105	65069.9
402.466	65069.9
402.827	65069.9
403.189	65069.9
403.55	65069.9
403.911	65069.9
404.272	65069.9
404.633	65069.9
404.994	65069.9
405.355	65069.9
405.716	65069.9
406.077	65069.9
406.437	65069.9
406.798	65069.9
407.159	65069.9
407.52	65069.9
407.88	65069.9
408.241	65069.9
408.602	65069.9
408.962	65069.9
409.323	65069.9
409.684	65069.9
410.044	65069.9
410.405	65069.9
410.765	65069.9
411.125	65069.9
411.486	65069.9
411.846	65069.9
412.206	65069.9
412.567	65069.9
412.927	65069.9
413.287	65069.9
413.647	65069.9
414.007	65069.9
414.368	65069.9
414.728	65069.9
415.088	65069.9
415.448	65069.9
415.808	65069.9
416.168	65069.9
416.528	65069.9
416.887	65069.9
417.247	65069.9
417.607	65069.9
417.967	65069.9
418.327	65069.9
418.686	64423.59
419.046	63289.16
419.406	62575.05
419.765	62093.71
420.125	60143.48
420.484	58706.22
420.844	58335.61
421.203	56276.91
421.563	54771.86
421.922	54322.16
422.282	52107.53
422.641	50200.23
423	47843.23
423.36	46344.97
423.719	43662.55
424.078	40580.15
424.437	38338.4
424.796	36510.2
425.155	35545.25
425.515	33529.49
425.874	32329.52
426.233	28930.74
426.592	27511.56
426.95	26698.03
427.309	25287.89
427.668	24072.11
428.027	22569.32
428.386	21889.11
428.745	19866.57
429.103	18653.04
429.462	17966.05
429.821	16700.55
430.179	16004.52
430.538	15283.64
430.897	14876.87
431.255	14155.98
431.614	13195.56
431.972	12913.08
432.33	12115.36
432.689	12151.52
433.047	11150.41
433.405	10587.72
433.764	10160.61
434.122	9880.39
434.48	9225.04
434.838	8956.12
435.197	8605.85
435.555	8486.08
435.913	7979.87
436.271	7473.67
436.629	7125.66
436.987	6908.72
437.345	6529.07
437.703	6562.96
438.061	6056.76
438.418	5720.05
438.776	5462.43
439.134	5394.63
439.492	5112.15
439.849	4822.9
440.207	4791.26
440.565	4553.98
440.922	4199.18
441.28	3968.68
441.637	3869.25
441.995	3880.55
442.352	3767.56
442.71	3518.98
443.067	3333.67
443.425	3157.4
443.782	3112.21
444.139	3161.92
444.496	2956.28
444.854	2784.53
445.211	2581.15
445.568	2730.3
445.925	2490.75
446.282	2511.09
446.639	2373.24
446.996	2375.5
447.353	2309.97
447.71	2298.67
448.067	2203.76
448.424	2174.38
448.781	2020.71
449.137	1853.48
449.494	1919.02
449.851	1907.72
450.208	1810.55
450.564	1661.4
450.921	1598.12
451.278	1586.82
451.634	1668.18
451.991	1561.96
452.347	1507.73
452.704	1473.83
453.06	1374.4
453.416	1451.23
453.773	1331.46
454.129	1345.02
454.485	1279.49
454.841	1195.87
455.198	1166.49
455.554	1087.4
455.91	1130.34
456.266	1123.56
456.622	1055.76
456.978	1003.79
457.334	1006.05
457.69	922.43
458.046	1001.53
458.402	915.65
458.758	947.29
459.114	861.42
459.469	920.17
459.825	820.74
460.181	886.28
460.536	725.83
460.892	795.88
461.248	827.52
461.603	789.1
461.959	870.46
462.314	816.22
462.67	777.8
463.025	804.92
463.38	737.13
463.736	716.79
464.091	673.85
464.446	730.35
464.802	689.67
465.157	696.45
465.512	700.97
465.867	719.05
466.222	655.77
466.577	687.41
466.932	669.33
467.287	615.1
467.642	630.92
467.997	592.5
468.352	536
468.707	574.42
469.062	662.55
469.417	626.4
469.771	612.84
470.126	597.02
470.481	603.8
470.835	542.78
471.19	599.28
471.544	597.02
471.899	597.02
472.253	585.72
472.608	547.3
472.962	567.64
473.317	533.74
473.671	517.92
474.025	522.44
474.38	495.33
474.734	506.63
475.088	493.07
475.442	572.16
475.796	642.21
476.15	499.85
476.504	456.91
476.858	556.34
477.212	506.63
477.566	560.86
477.92	587.98
478.274	506.63
478.628	526.96
478.982	474.99
479.336	506.63
479.689	477.25
480.043	499.85
480.397	479.51
480.75	517.92
481.104	587.98
481.457	470.47
481.811	513.4
482.164	511.14
482.518	481.77
482.871	515.66
483.225	506.63
483.578	490.81
483.931	402.67
484.284	526.96
484.638	456.91
484.991	470.47
485.344	488.55
485.697	454.65
486.05	436.57
486.403	443.35
486.756	427.53
487.109	472.73
487.462	486.29
487.815	486.29
488.168	484.03
488.52	463.69
488.873	386.85
489.226	506.63
489.579	459.17
489.931	452.39
490.284	511.14
490.637	443.35
490.989	438.83
491.342	468.21
491.694	429.79
492.047	479.51
492.399	411.71
492.751	452.39
493.104	398.15
493.456	420.75
493.808	425.27
494.16	432.05
494.513	497.59
494.865	450.13
495.217	438.83
495.569	436.57
495.921	434.31
496.273	438.83
496.625	377.81
496.977	454.65
497.329	432.05
497.68	456.91
498.032	441.09
498.384	484.03
498.736	380.07
499.087	425.27
499.439	423.01
499.791	420.75
500.142	454.65
500.494	456.91
500.845	425.27
501.197	402.67
501.548	398.15
501.9	423.01
502.251	468.21
502.602	497.59
502.954	470.47
503.305	438.83
503.656	425.27
504.007	508.88
504.358	438.83
504.709	497.59
505.061	472.73
505.412	423.01
505.763	423.01
506.113	425.27
506.464	450.13
506.815	479.51
507.166	502.11
507.517	461.43
507.868	529.22
508.218	513.4
508.569	461.43
508.92	524.7
509.27	499.85
509.621	504.37
509.971	488.55
510.322	522.44
510.672	504.37
511.023	468.21
511.373	465.95
511.723	558.6
512.074	542.78
512.424	572.16
512.774	567.64
513.124	538.26
513.475	533.74
513.825	511.14
514.175	594.76
514.525	615.1
514.875	545.04
515.225	522.44
515.575	617.36
515.924	608.32
516.274	536
516.624	556.34
516.974	585.72
517.324	531.48
517.673	644.47
518.023	615.1
518.373	608.32
518.722	524.7
519.072	646.73
519.421	682.89
519.771	658.03
520.12	619.62
520.469	592.5
520.819	651.25
521.168	624.14
521.517	646.73
521.867	691.93
522.216	646.73
522.565	617.36
522.914	624.14
523.263	653.51
523.612	669.33
523.961	691.93
524.31	626.4
524.659	741.65
525.008	653.51
525.357	669.33
525.705	714.53
526.054	658.03
526.403	687.41
526.752	642.21
527.1	719.05
527.449	655.77
527.797	719.05
528.146	741.65
528.495	761.99
528.843	804.92
529.191	712.27
529.54	741.65
529.888	651.25
530.236	789.1
530.585	748.43
530.933	685.15
531.281	732.61
531.629	694.19
531.977	761.99
532.325	678.37
532.673	771.02
533.021	719.05
533.369	734.87
533.717	687.41
534.065	746.17
534.413	823
534.761	773.28
535.108	752.95
535.456	705.49
535.804	741.65
536.151	680.63
536.499	723.57
536.847	746.17
537.194	734.87
537.542	728.09
537.889	732.61
538.236	730.35
538.584	728.09
538.931	800.4
539.278	741.65
539.626	771.02
539.973	759.73
540.32	732.61
540.667	789.1
541.014	750.69
541.361	694.19
541.708	694.19
542.055	691.93
542.402	748.43
542.749	716.79
543.096	764.25
543.443	777.8
543.789	737.13
544.136	728.09
544.483	730.35
544.83	719.05
545.176	703.23
545.523	694.19
545.869	761.99
546.216	800.4
546.562	694.19
546.909	714.53
547.255	786.84
547.601	714.53
547.948	700.97
548.294	743.91
548.64	818.48
548.986	771.02
549.332	768.77
549.678	759.73
550.025	863.68
550.371	739.39
550.717	809.44
551.062	786.84
551.408	741.65
551.754	782.32
552.1	850.12
552.446	775.54
552.792	809.44
553.137	759.73
553.483	832.04
553.828	780.06
554.174	802.66
554.52	786.84
554.865	775.54
555.211	750.69
555.556	834.3
555.901	825.26
556.247	886.28
556.592	764.25
556.937	881.76
557.282	845.6
557.628	886.28
557.973	872.72
558.318	868.2
558.663	807.18
559.008	911.13
559.353	879.5
559.698	777.8
560.043	813.96
560.388	926.95
560.732	908.87
561.077	881.76
561.422	890.8
561.766	938.25
562.111	897.58
562.456	926.95
562.8	924.69
563.145	1019.61
563.489	922.43
563.834	854.64
564.178	1001.53
564.523	999.27
564.867	904.35
565.211	969.89
565.555	976.67
565.9	931.47
566.244	958.59
566.588	974.41
566.932	974.41
567.276	1001.53
567.62	911.13
567.964	1134.86
568.308	1010.57
568.652	1017.35
568.996	1071.58
569.339	1114.52
569.683	983.45
570.027	992.49
570.371	1116.78
570.714	1078.36
571.058	1100.96
571.401	1107.74
571.745	1006.05
572.088	1100.96
572.432	1096.44
572.775	1044.46
573.118	1182.31
573.462	1148.42
573.805	1017.35
574.148	1094.18
574.491	1046.72
574.835	1091.92
575.178	1146.16
575.521	1130.34
575.864	1141.64
576.207	1166.49
576.55	1112.26
576.892	1096.44
577.235	1042.2
577.578	1012.83
577.921	1139.38
578.264	1069.32
578.606	1073.84
578.949	1128.08
579.292	1105.48
579.634	1082.88
579.977	1159.72
580.319	1116.78
580.662	1139.38
581.004	1132.6
581.346	1134.86
581.689	1125.82
582.031	1080.62
582.373	1146.16
582.715	1152.94
583.057	1087.4
583.4	1073.84
583.742	1019.61
584.084	1082.88
584.426	1030.91
584.768	1125.82
585.109	1091.92
585.451	1033.16
585.793	1035.42
586.135	1028.65
586.477	1021.87
586.818	1076.1
587.16	1035.42
587.502	981.19
587.843	929.21
588.185	1010.57
588.526	1019.61
588.868	1019.61
589.209	1053.5
589.55	1035.42
589.892	949.55
590.233	972.15
590.574	992.49
590.915	938.25
591.257	1001.53
591.598	897.58
591.939	917.91
592.28	947.29
592.621	908.87
592.962	931.47
593.303	841.08
593.643	886.28
593.984	832.04
594.325	850.12
594.666	877.24
595.006	886.28
595.347	823
595.688	854.64
596.028	859.16
596.369	852.38
596.709	834.3
597.05	786.84
597.39	809.44
597.73	829.78
598.071	820.74
598.411	743.91
598.751	852.38
599.091	843.34
599.431	743.91
599.772	768.77
600.112	757.47
600.452	748.43
600.792	678.37
601.132	773.28
601.471	700.97
601.811	752.95
602.151	737.13
602.491	820.74
602.831	698.71
603.17	773.28
603.51	655.77
603.849	694.19
604.189	673.85
604.528	664.81
604.868	682.89
605.207	696.45
605.547	658.03
605.886	676.11
606.225	669.33
606.565	621.88
606.904	698.71
607.243	658.03
607.582	691.93
607.921	664.81
608.26	696.45
608.599	626.4
608.938	655.77
609.277	673.85
609.616	630.92
609.955	671.59
610.293	687.41
610.632	628.66
610.971	601.54
611.309	624.14
611.648	660.29
611.987	608.32
612.325	619.62
612.664	644.47
613.002	587.98
613.34	685.15
613.679	628.66
614.017	624.14
614.355	639.95
614.694	633.18
615.032	639.95
615.37	601.54
615.708	599.28
616.046	644.47
616.384	583.46
616.722	597.02
617.06	547.3
617.398	565.38
617.736	646.73
618.073	608.32
618.411	601.54
618.749	547.3
619.086	542.78
619.424	592.5
619.762	639.95
620.099	578.94
620.437	608.32
620.774	637.7
621.112	633.18
621.449	606.06
621.786	594.76
622.123	597.02
622.461	556.34
622.798	576.68
623.135	619.62
623.472	680.63
623.809	597.02
624.146	563.12
624.483	542.78
624.82	694.19
625.157	664.81
625.494	563.12
625.83	610.58
626.167	626.4
626.504	612.84
626.841	658.03
627.177	637.7
627.514	617.36
627.85	574.42
628.187	578.94
628.523	644.47
628.86	615.1
629.196	635.44
629.532	540.52
629.869	658.03
630.205	587.98
630.541	612.84
630.877	606.06
631.213	601.54
631.549	610.58
631.885	583.46
632.221	585.72
632.557	567.64
632.893	576.68
633.229	574.42
633.564	590.24
633.9	531.48
634.236	572.16
634.572	558.6
634.907	540.52
635.243	540.52
635.578	592.5
635.914	551.82
636.249	594.76
636.585	536
636.92	531.48
637.255	536
637.59	538.26
637.926	599.28
638.261	551.82
638.596	504.37
638.931	533.74
639.266	481.77
639.601	493.07
639.936	522.44
640.271	477.25
640.606	468.21
640.94	538.26
641.275	536
641.61	526.96
641.945	497.59
642.279	556.34
642.614	470.47
642.948	504.37
643.283	511.14
643.617	542.78
643.952	502.11
644.286	490.81
644.62	542.78
644.955	493.07
645.289	488.55
645.623	470.47
645.957	504.37
646.291	504.37
646.625	536
646.959	411.71
647.293	459.17
647.627	520.18
647.961	447.87
648.295	484.03
648.629	465.95
648.962	493.07
649.296	452.39
649.63	481.77
649.963	508.88
650.297	508.88
650.63	404.93
650.964	558.6
651.297	411.71
651.631	418.49
651.964	481.77
652.297	416.23
652.631	429.79
652.964	438.83
653.297	400.41
653.63	452.39
653.963	434.31
654.296	359.74
654.629	416.23
654.962	447.87
655.295	529.22
655.628	499.85
655.961	472.73
656.293	441.09
656.626	400.41
656.959	456.91
657.291	425.27
657.624	436.57
657.956	384.59
658.289	441.09
658.621	418.49
658.954	393.63
659.286	452.39
659.618	443.35
659.95	373.3
660.283	371.04
660.615	416.23
660.947	411.71
661.279	375.56
661.611	357.48
661.943	461.43
662.275	409.45
662.607	420.75
662.939	420.75
663.27	352.96
663.602	416.23
663.934	366.52
664.266	398.15
664.597	350.7
664.929	373.3
665.26	386.85
665.592	384.59
665.923	391.37
666.255	423.01
666.586	375.56
666.917	402.67
667.248	411.71
667.58	380.07
667.911	380.07
668.242	429.79
668.573	389.11
668.904	404.93
669.235	359.74
669.566	325.84
669.897	343.92
670.228	371.04
670.558	380.07
670.889	393.63
671.22	411.71
671.551	362
671.881	330.36
672.212	407.19
672.542	375.56
672.873	373.3
673.203	355.22
673.533	382.33
673.864	339.4
674.194	461.43
674.524	371.04
674.855	400.41
675.185	407.19
675.515	389.11
675.845	377.81
676.175	371.04
676.505	368.78
676.835	341.66
677.165	332.62
677.494	395.89
677.824	346.18
678.154	384.59
678.484	341.66
678.813	359.74
679.143	310.02
679.472	323.58
679.802	305.5
680.131	316.8
680.461	380.07
680.79	305.5
681.119	343.92
681.449	337.14
681.778	264.82
682.107	348.44
682.436	307.76
682.765	386.85
683.094	355.22
683.423	411.71
683.752	343.92
684.081	395.89
684.41	310.02
684.739	296.46
685.067	321.32
685.396	298.72
685.725	267.08
686.053	298.72
686.382	305.5
686.711	364.26
687.039	384.59
687.367	391.37
687.696	348.44
688.024	366.52
688.352	341.66
688.681	325.84
689.009	282.9
689.337	330.36
689.665	267.08
689.993	321.32
690.321	341.66
690.649	343.92
690.977	391.37
691.305	291.94
691.633	321.32
691.961	334.88
692.288	343.92
692.616	300.98
692.944	368.78
693.271	328.1
693.599	355.22
693.926	332.62
694.254	323.58
694.581	323.58
694.908	294.2
695.236	330.36
695.563	325.84
695.89	337.14
696.217	294.2
696.544	389.11
696.871	280.64
697.198	285.16
697.525	328.1
697.852	312.28
698.179	314.54
698.506	251.26
698.833	343.92
699.16	314.54
699.486	289.68
699.813	341.66
700.139	300.98
700.466	339.4
700.793	339.4
701.119	307.76
701.445	348.44
701.772	343.92
702.098	296.46
702.424	325.84
702.75	285.16
703.077	237.71
703.403	287.42
703.729	291.94
704.055	287.42
704.381	269.34
704.707	307.76
705.033	262.56
705.358	350.7
705.684	294.2
706.01	276.12
706.336	332.62
706.661	334.88
706.987	328.1
707.312	300.98
707.638	300.98
707.963	267.08
708.289	325.84
708.614	343.92
708.939	289.68
709.265	382.33
709.59	287.42
709.915	300.98
710.24	230.93
710.565	264.82
710.89	298.72
711.215	289.68
711.54	323.58
711.865	325.84
712.19	339.4
712.515	262.56
712.839	285.16
713.164	285.16
713.489	343.92
713.813	255.78
714.138	262.56
714.462	325.84
714.787	312.28
715.111	300.98
715.435	291.94
715.76	285.16
716.084	267.08
716.408	339.4
716.732	321.32
717.056	310.02
717.381	316.8
717.705	249
718.028	253.52
718.352	357.48
718.676	314.54
719	377.81
719.324	343.92
719.648	312.28
719.971	357.48
720.295	323.58
720.618	291.94
720.942	287.42
721.265	316.8
721.589	352.96
721.912	294.2
722.236	255.78
722.559	260.3
722.882	289.68
723.205	325.84
723.528	316.8
723.851	334.88
724.174	300.98
724.497	282.9
724.82	280.64
725.143	319.06
725.466	362
725.789	357.48
726.112	282.9
726.434	294.2
726.757	339.4
727.08	310.02
727.402	249
727.725	282.9
728.047	251.26
728.37	314.54
728.692	278.38
729.014	294.2
729.336	312.28
729.659	221.89
729.981	364.26
730.303	319.06
730.625	377.81
730.947	273.86
731.269	255.78
731.591	269.34
731.913	267.08
732.235	312.28
732.556	262.56
732.878	350.7
733.2	253.52
733.521	271.6
733.843	255.78
734.164	291.94
734.486	325.84
734.807	291.94
735.129	316.8
735.45	294.2
735.771	269.34
736.092	276.12
736.414	334.88
736.735	271.6
737.056	194.77
737.377	278.38
737.698	251.26
738.019	219.63
738.34	271.6
738.66	305.5
738.981	289.68
739.302	319.06
739.623	303.24
739.943	291.94
740.264	307.76
740.584	300.98
740.905	251.26
741.225	239.97
741.546	307.76
741.866	314.54
742.186	251.26
742.507	305.5
742.827	310.02
743.147	294.2
743.467	319.06
743.787	262.56
744.107	287.42
744.427	282.9
744.747	314.54
745.067	249
745.386	307.76
745.706	269.34
746.026	289.68
746.346	267.08
746.665	251.26
746.985	228.67
747.304	258.04
747.624	291.94
747.943	239.97
748.262	312.28
748.582	203.81
748.901	282.9
749.22	291.94
749.539	332.62
749.858	267.08
750.177	291.94
750.496	314.54
750.815	289.68
751.134	273.86
751.453	289.68
751.772	278.38
752.09	273.86
752.409	271.6
752.728	298.72
753.046	287.42
753.365	305.5
753.683	287.42
754.002	264.82
754.32	267.08
754.639	278.38
754.957	294.2
755.275	260.3
755.593	282.9
755.911	285.16
756.23	267.08
756.548	366.52
756.866	323.58
757.183	280.64
757.501	244.49
757.819	273.86
758.137	307.76
758.455	271.6
758.772	325.84
759.09	346.18
759.408	316.8
759.725	253.52
760.043	316.8
760.36	239.97
760.677	258.04
760.995	246.74
761.312	206.07
761.629	296.46
761.946	269.34
762.264	258.04
762.581	287.42
762.898	298.72
763.215	244.49
763.532	264.82
763.848	319.06
764.165	280.64
764.482	287.42
764.799	262.56
765.115	269.34
765.432	285.16
765.749	291.94
766.065	260.3
766.382	355.22
766.698	271.6
767.014	319.06
767.331	289.68
767.647	350.7
767.963	296.46
768.279	298.72
768.595	291.94
768.911	323.58
769.227	321.32
769.543	278.38
769.859	305.5
770.175	255.78
770.491	260.3
770.807	296.46
771.122	282.9
771.438	307.76
771.754	294.2
772.069	267.08
772.385	296.46
772.7	289.68
773.016	249
773.331	267.08
773.646	282.9
773.961	255.78
774.277	255.78
774.592	271.6
774.907	249
775.222	237.71
775.537	262.56
775.852	341.66
776.167	253.52
776.482	233.19
776.796	219.63
777.111	298.72
777.426	239.97
777.74	305.5
778.055	319.06
778.369	233.19
778.684	287.42
778.998	260.3
779.313	303.24
779.627	294.2
779.941	319.06
780.255	258.04
780.57	298.72
780.884	280.64
781.198	244.49
781.512	235.45
781.826	289.68
782.14	258.04
782.453	296.46
782.767	269.34
783.081	341.66
783.395	280.64
783.708	219.63
784.022	262.56
784.335	314.54
784.649	298.72
784.962	249
785.276	314.54
785.589	312.28
785.902	278.38
786.216	269.34
786.529	244.49
786.842	249
787.155	255.78
787.468	197.03
787.781	278.38
788.094	253.52
788.407	325.84
788.72	230.93
789.032	303.24
789.345	271.6
789.658	258.04
789.97	273.86
790.283	237.71
790.595	224.15
790.908	239.97
791.22	285.16
791.532	303.24
791.845	280.64
792.157	298.72
792.469	285.16
792.781	269.34
793.093	226.41
793.405	289.68
793.717	262.56
794.029	307.76
794.341	246.74
794.653	316.8
794.965	242.23
795.276	251.26
795.588	246.74
795.9	287.42
796.211	289.68
796.523	289.68
796.834	316.8
797.146	271.6
797.457	253.52
797.768	300.98
798.08	255.78
798.391	291.94
798.702	237.71
799.013	271.6
799.324	251.26
799.635	246.74
799.946	267.08
800.257	285.16
800.568	269.34
800.878	251.26
801.189	296.46
801.5	307.76
801.81	226.41
802.121	228.67
802.431	307.76
802.742	221.89
803.052	280.64
803.363	314.54
803.673	307.76
803.983	255.78
804.293	276.12
804.603	251.26
804.913	230.93
805.224	312.28
805.533	262.56
805.843	289.68
806.153	298.72
806.463	253.52
806.773	339.4
807.083	300.98
807.392	316.8
807.702	219.63
808.011	187.99
808.321	262.56
808.63	273.86
808.94	291.94
809.249	242.23
809.558	285.16
809.868	319.06
810.177	271.6
810.486	212.85
810.795	221.89
811.104	253.52
811.413	294.2
811.722	300.98
812.031	278.38
812.339	255.78
812.648	289.68
812.957	255.78
813.266	276.12
813.574	262.56
813.883	291.94
814.191	219.63
814.5	305.5
814.808	310.02
815.116	325.84
815.424	307.76
815.733	291.94
816.041	235.45
816.349	276.12
816.657	337.14
816.965	271.6
817.273	251.26
817.581	291.94
817.889	271.6
818.196	244.49
818.504	285.16
818.812	291.94
819.12	246.74
819.427	215.11
819.735	233.19
820.042	271.6
820.349	258.04
820.657	255.78
820.964	278.38
821.271	291.94
821.579	355.22
821.886	330.36
822.193	276.12
822.5	303.24
822.807	244.49
823.114	319.06
823.421	271.6
823.727	384.59
824.034	310.02
824.341	321.32
824.648	249
824.954	289.68
825.261	215.11
825.567	244.49
825.874	235.45
826.18	251.26
826.486	230.93
826.793	262.56
827.099	253.52
827.405	289.68
827.711	269.34
828.017	323.58
828.323	303.24
828.629	294.2
828.935	181.21
829.241	276.12
829.547	253.52
829.852	226.41
830.158	255.78
830.464	305.5
830.769	230.93
831.075	287.42
831.38	273.86
831.686	226.41
831.991	305.5
832.296	337.14
832.601	246.74
832.907	287.42
833.212	300.98
833.517	289.68
833.822	262.56
834.127	262.56
834.432	212.85
834.737	312.28
835.041	255.78
835.346	287.42
835.651	289.68
835.956	291.94
836.26	251.26
836.565	314.54
836.869	215.11
837.174	206.07
837.478	253.52
837.782	334.88
838.087	341.66
838.391	282.9
838.695	233.19
838.999	280.64
839.303	208.33
839.607	253.52
839.911	312.28
840.215	316.8
840.519	228.67
840.822	296.46
841.126	278.38
841.43	296.46
841.733	183.47
842.037	271.6
842.34	269.34
842.644	343.92
842.947	321.32
843.251	255.78
843.554	255.78
843.857	258.04
844.16	276.12
844.463	269.34
844.766	280.64
845.069	230.93
845.372	246.74
845.675	235.45
845.978	314.54
846.281	291.94
846.583	287.42
846.886	280.64
847.189	312.28
847.491	371.04
847.794	291.94
848.096	262.56
848.399	355.22
848.701	244.49
849.003	273.86
849.305	289.68
849.608	197.03
849.91	235.45
850.212	282.9
850.514	255.78
850.816	242.23
851.118	276.12
851.419	249
851.721	316.8
852.023	249
852.325	228.67
852.626	206.07
852.928	303.24
853.229	273.86
853.531	276.12
853.832	242.23
854.133	237.71
854.435	258.04
854.736	321.32
855.037	262.56
855.338	253.52
855.639	269.34
855.94	294.2
856.241	310.02
856.542	314.54
856.843	314.54
857.144	278.38
857.444	296.46
857.745	285.16
858.046	276.12
858.346	300.98
858.647	269.34
858.947	280.64
859.247	276.12
859.548	273.86
859.848	246.74
860.148	307.76
860.448	271.6
860.749	319.06
861.049	249
861.349	282.9
861.648	249
861.948	219.63
862.248	244.49
862.548	242.23
862.848	208.33
863.147	237.71
863.447	262.56
863.746	235.45
864.046	343.92
864.345	321.32
864.645	208.33
864.944	267.08
865.243	233.19
865.542	314.54
865.842	276.12
866.141	271.6
866.44	253.52
866.739	233.19
867.038	226.41
867.337	287.42
867.635	269.34
867.934	337.14
868.233	285.16
868.531	255.78
868.83	282.9
869.129	271.6
869.427	278.38
869.725	233.19
870.024	249
870.322	255.78
870.62	278.38
870.918	314.54
871.217	294.2
871.515	251.26
871.813	239.97
872.111	267.08
872.409	264.82
872.706	316.8
873.004	273.86
873.302	187.99
873.6	233.19
873.897	253.52
874.195	249
874.492	228.67
874.79	273.86
875.087	300.98
875.384	278.38
875.682	253.52
875.979	287.42
876.276	319.06
876.573	258.04
876.87	258.04
877.167	258.04
