Data from PL_2polymer_F8BT_MEHPPV_USB2H096331_0333.txt Node
Date: Tue Dec 15 16:36:35 CET 2020
User: spadmin
Spectrometer: USB2+H09633
Trigger mode: 0
Integration Time (sec): 1.000000E-2
Scans to average: 1
Electric dark correction enabled: true
Nonlinearity correction enabled: false
Boxcar width: 0
XAxis mode: Wavelengths
Number of Pixels in Spectrum: 2048
>>>>>Begin Spectral Data<<<<<
174.027	-108.61
174.405	-108.61
174.783	-108.61
175.162	-104.09
175.54	-40.82
175.918	-38.56
176.296	-79.24
176.674	-72.46
177.052	-63.42
177.43	-110.87
177.808	-99.57
178.186	-49.86
178.564	-15.96
178.942	-52.12
179.32	42.8
179.698	2.12
180.076	58.61
180.453	76.69
180.831	78.95
181.209	83.47
181.587	85.73
181.965	115.11
182.342	153.53
182.72	185.16
183.098	176.13
183.475	221.32
183.853	243.92
184.231	248.44
184.608	343.35
184.986	252.96
185.363	309.46
185.741	309.46
186.118	262
186.496	334.31
186.873	334.31
187.251	320.75
187.628	365.95
188.006	399.85
188.383	454.08
188.76	377.25
189.138	341.09
189.515	295.9
189.892	323.01
190.27	311.71
190.647	350.13
191.024	325.27
191.401	318.49
191.778	323.01
192.155	338.83
192.533	356.91
192.91	390.81
193.287	334.31
193.664	341.09
194.041	295.9
194.418	271.04
194.795	307.2
195.172	275.56
195.549	275.56
195.926	289.12
196.302	397.59
196.679	286.86
197.056	329.79
197.433	243.92
197.81	323.01
198.187	336.57
198.563	293.64
198.94	295.9
199.317	338.83
199.693	309.46
200.07	289.12
200.447	291.38
200.823	298.16
201.2	295.9
201.576	350.13
201.953	266.52
202.329	313.97
202.706	250.7
203.082	295.9
203.459	320.75
203.835	302.68
204.212	295.9
204.588	338.83
204.964	311.71
205.341	266.52
205.717	338.83
206.093	338.83
206.469	329.79
206.846	318.49
207.222	327.53
207.598	280.08
207.974	323.01
208.35	271.04
208.726	271.04
209.102	282.34
209.479	318.49
209.855	307.2
210.231	370.47
210.607	329.79
210.982	282.34
211.358	350.13
211.734	298.16
212.11	273.3
212.486	284.6
212.862	343.35
213.238	289.12
213.614	252.96
213.989	345.61
214.365	320.75
214.741	318.49
215.116	302.68
215.492	320.75
215.868	325.27
216.243	300.42
216.619	304.94
216.995	304.94
217.37	316.23
217.746	368.21
218.121	313.97
218.497	268.78
218.872	327.53
219.247	280.08
219.623	325.27
219.998	302.68
220.374	286.86
220.749	365.95
221.124	318.49
221.499	341.09
221.875	318.49
222.25	343.35
222.625	266.52
223	393.07
223.376	327.53
223.751	275.56
224.126	273.3
224.501	325.27
224.876	311.71
225.251	417.93
225.626	284.6
226.001	402.11
226.376	332.05
226.751	313.97
227.126	304.94
227.501	307.2
227.875	347.87
228.25	329.79
228.625	372.73
229	323.01
229.375	363.69
229.749	329.79
230.124	350.13
230.499	318.49
230.873	379.51
231.248	379.51
231.623	350.13
231.997	386.29
232.372	384.03
232.746	343.35
233.121	372.73
233.495	334.31
233.87	343.35
234.244	298.16
234.619	395.33
234.993	318.49
235.367	286.86
235.742	408.89
236.116	300.42
236.49	332.05
236.865	399.85
237.239	345.61
237.613	316.23
237.987	336.57
238.361	336.57
238.736	313.97
239.11	295.9
239.484	395.33
239.858	388.55
240.232	372.73
240.606	289.12
240.98	320.75
241.354	293.64
241.728	381.77
242.102	381.77
242.475	316.23
242.849	336.57
243.223	377.25
243.597	347.87
243.971	336.57
244.344	359.17
244.718	295.9
245.092	347.87
245.466	300.42
245.839	350.13
246.213	318.49
246.586	304.94
246.96	341.09
247.334	386.29
247.707	332.05
248.081	354.65
248.454	334.31
248.828	347.87
249.201	354.65
249.574	300.42
249.948	377.25
250.321	323.01
250.694	289.12
251.068	404.37
251.441	363.69
251.814	372.73
252.187	372.73
252.561	388.55
252.934	332.05
253.307	359.17
253.68	354.65
254.053	390.81
254.426	388.55
254.799	323.01
255.172	393.07
255.545	345.61
255.918	379.51
256.291	426.97
256.664	304.94
257.037	397.59
257.41	343.35
257.782	334.31
258.155	345.61
258.528	413.41
258.901	336.57
259.273	347.87
259.646	327.53
260.019	341.09
260.391	386.29
260.764	408.89
261.137	381.77
261.509	336.57
261.882	359.17
262.254	361.43
262.627	352.39
262.999	379.51
263.372	352.39
263.744	372.73
264.116	311.71
264.489	361.43
264.861	395.33
265.233	352.39
265.606	325.27
265.978	381.77
266.35	393.07
266.722	350.13
267.094	408.89
267.467	390.81
267.839	332.05
268.211	334.31
268.583	347.87
268.955	318.49
269.327	350.13
269.699	395.33
270.071	368.21
270.443	295.9
270.815	397.59
271.186	395.33
271.558	368.21
271.93	352.39
272.302	345.61
272.674	402.11
273.045	365.95
273.417	436.01
273.789	359.17
274.16	399.85
274.532	365.95
274.904	343.35
275.275	381.77
275.647	354.65
276.018	370.47
276.39	393.07
276.761	404.37
277.133	393.07
277.504	415.67
277.875	361.43
278.247	329.79
278.618	365.95
278.989	417.93
279.361	359.17
279.732	404.37
280.103	386.29
280.474	354.65
280.846	433.75
281.217	463.12
281.588	445.04
281.959	397.59
282.33	393.07
282.701	399.85
283.072	440.53
283.443	356.91
283.814	388.55
284.185	393.07
284.556	363.69
284.927	347.87
285.297	377.25
285.668	399.85
286.039	370.47
286.41	408.89
286.781	415.67
287.151	395.33
287.522	399.85
287.893	460.86
288.263	386.29
288.634	436.01
289.004	381.77
289.375	395.33
289.745	424.71
290.116	365.95
290.486	399.85
290.857	374.99
291.227	384.03
291.598	420.19
291.968	397.59
292.338	343.35
292.709	399.85
293.079	408.89
293.449	406.63
293.819	356.91
294.189	313.97
294.56	370.47
294.93	386.29
295.3	374.99
295.67	343.35
296.04	415.67
296.41	386.29
296.78	431.49
297.15	417.93
297.52	426.97
297.89	363.69
298.259	422.45
298.629	406.63
298.999	447.3
299.369	417.93
299.739	417.93
300.108	404.37
300.478	381.77
300.848	384.03
301.217	436.01
301.587	436.01
301.957	345.61
302.326	399.85
302.696	402.11
303.065	440.53
303.435	417.93
303.804	393.07
304.174	404.37
304.543	411.15
304.912	422.45
305.282	374.99
305.651	370.47
306.02	402.11
306.39	433.75
306.759	311.71
307.128	390.81
307.497	377.25
307.866	420.19
308.235	447.3
308.604	508.32
308.974	492.5
309.343	413.41
309.712	431.49
310.08	431.49
310.449	413.41
310.818	449.56
311.187	449.56
311.556	458.6
311.925	399.85
312.294	429.23
312.662	379.51
313.031	408.89
313.4	438.27
313.769	413.41
314.137	467.64
314.506	499.28
314.874	404.37
315.243	429.23
315.612	487.98
315.98	445.04
316.349	478.94
316.717	413.41
317.085	422.45
317.454	456.34
317.822	417.93
318.191	417.93
318.559	402.11
318.927	426.97
319.295	506.06
319.664	384.03
320.032	458.6
320.4	454.08
320.768	454.08
321.136	388.55
321.504	429.23
321.872	417.93
322.24	445.04
322.608	431.49
322.976	469.9
323.344	481.2
323.712	501.54
324.08	467.64
324.448	384.03
324.816	413.41
325.183	485.72
325.551	485.72
325.919	476.68
326.287	492.5
326.654	431.49
327.022	481.2
327.389	460.86
327.757	445.04
328.125	492.5
328.492	438.27
328.86	492.5
329.227	456.34
329.594	438.27
329.962	440.53
330.329	472.16
330.697	508.32
331.064	474.42
331.431	420.19
331.798	469.9
332.166	460.86
332.533	524.14
332.9	487.98
333.267	521.88
333.634	497.02
334.001	458.6
334.368	474.42
334.735	433.75
335.102	512.84
335.469	467.64
335.836	483.46
336.203	558.04
336.57	492.5
336.937	478.94
337.304	485.72
337.67	490.24
338.037	458.6
338.404	436.01
338.771	501.54
339.137	506.06
339.504	533.18
339.87	483.46
340.237	571.6
340.604	465.38
340.97	497.02
341.337	524.14
341.703	438.27
342.069	515.1
342.436	460.86
342.802	503.8
343.169	524.14
343.535	503.8
343.901	476.68
344.267	508.32
344.634	528.66
345	535.44
345.366	533.18
345.732	555.78
346.098	558.04
346.464	553.52
346.83	560.3
347.196	519.62
347.562	497.02
347.928	533.18
348.294	526.4
348.66	526.4
349.026	533.18
349.392	564.82
349.757	551.26
350.123	519.62
350.489	487.98
350.855	544.48
351.22	515.1
351.586	562.56
351.951	524.14
352.317	521.88
352.683	558.04
353.048	537.7
353.414	587.41
353.779	587.41
354.144	598.71
354.51	569.34
354.875	643.91
355.24	553.52
355.606	582.89
355.971	598.71
356.336	564.82
356.701	648.43
357.067	630.35
357.432	637.13
357.797	634.87
358.162	576.11
358.527	621.31
358.892	610.01
359.257	621.31
359.622	639.39
359.987	664.25
360.352	652.95
360.717	652.95
361.082	673.29
361.446	686.85
361.811	675.55
362.176	707.18
362.541	689.11
362.905	732.04
363.27	628.09
363.635	718.48
363.999	723
364.364	752.38
364.728	709.44
365.093	711.7
365.457	756.9
365.822	790.8
366.186	790.8
366.55	677.81
366.915	700.41
367.279	826.96
367.643	774.98
368.008	774.98
368.372	817.92
368.736	799.84
369.1	808.88
369.464	838.25
369.828	765.94
370.192	869.89
370.556	887.97
370.92	856.33
371.284	804.36
371.648	869.89
372.012	971.58
372.376	930.91
372.74	928.65
373.104	946.73
373.468	1030.34
373.831	1086.84
374.195	996.44
374.559	1156.89
374.922	1064.24
375.286	1159.15
375.65	1172.71
376.013	1235.98
376.377	1163.67
376.74	1272.14
377.104	1364.79
377.467	1432.59
377.83	1473.27
378.194	1550.1
378.557	1606.6
378.92	1604.34
379.284	1712.81
379.647	1852.92
380.01	1979.47
380.373	2033.7
380.736	2157.99
381.1	2361.38
381.463	2512.79
381.826	2655.16
382.189	2788.49
382.552	3143.28
382.915	3231.41
383.278	3498.07
383.64	3837.05
384.003	4096.93
384.366	4456.24
384.729	4797.47
385.092	5294.63
385.454	5570.33
385.817	6180.49
386.18	6686.69
386.542	7353.34
386.905	8191.73
387.268	8944.26
387.63	9787.17
387.993	10410.88
388.355	11267.36
388.718	12471.85
389.08	13533.97
389.442	14849.19
389.805	16406.21
390.167	17303.36
390.529	19502.17
390.892	21565.39
391.254	23072.7
391.616	24670.4
391.978	27859.01
392.34	30437.48
392.702	31723.32
393.064	34539.06
393.426	37027.13
393.788	38999.96
394.15	41280.13
394.512	43892.49
394.874	46970.38
395.236	50134.13
395.598	52260.63
395.96	54818.76
396.321	56845.82
396.683	58911.3
397.045	60836.68
397.406	62866
397.768	64468.22
398.13	65098.71
398.491	65098.71
398.853	65098.71
399.214	65098.71
399.576	65098.71
399.937	65098.71
400.299	65098.71
400.66	65098.71
401.021	65098.71
401.383	65098.71
401.744	65098.71
402.105	65098.71
402.466	65098.71
402.827	65098.71
403.189	65098.71
403.55	65098.71
403.911	65098.71
404.272	65098.71
404.633	65098.71
404.994	65098.71
405.355	65098.71
405.716	65098.71
406.077	65098.71
406.437	65098.71
406.798	65098.71
407.159	65098.71
407.52	65098.71
407.88	65098.71
408.241	65098.71
408.602	65098.71
408.962	65098.71
409.323	65098.71
409.684	65098.71
410.044	65098.71
410.405	65098.71
410.765	65098.71
411.125	65098.71
411.486	65098.71
411.846	65098.71
412.206	65098.71
412.567	65098.71
412.927	65098.71
413.287	65098.71
413.647	65098.71
414.007	65098.71
414.368	65098.71
414.728	65098.71
415.088	65098.71
415.448	65098.71
415.808	65098.71
416.168	65098.71
416.528	65098.71
416.887	65098.71
417.247	65098.71
417.607	65098.71
417.967	65098.71
418.327	64696.46
418.686	63971.06
419.046	62843.4
419.406	62054.72
419.765	61641.18
420.125	59451.4
420.484	58289.85
420.844	57462.75
421.203	55736.25
421.563	54129.51
421.922	53702.4
422.282	51196.25
422.641	49155.63
423	47047.21
423.36	45377.2
423.719	42475.58
424.078	39567.18
424.437	37583.05
424.796	36089.31
425.155	34620.42
425.515	32597.87
425.874	31260.05
426.233	28466.91
426.592	26733.62
426.95	26071.49
427.309	24591.3
427.668	24024.09
428.027	21752.96
428.386	21312.29
428.745	19357.54
429.103	18195.99
429.462	17206.19
429.821	16191.52
430.179	15850.29
430.538	14806.25
430.897	14672.92
431.255	13608.54
431.614	12907.99
431.972	12444.73
432.33	11850.39
432.689	11721.58
433.047	10991.66
433.405	10345.35
433.764	10026.71
434.122	9590.57
434.48	9082.11
434.838	8720.53
435.197	8453.87
435.555	8015.47
435.913	7651.63
436.271	7387.24
436.629	7066.34
436.987	6874.25
437.345	6474.26
437.703	6336.42
438.061	6026.82
438.418	5522.88
438.776	5407.63
439.134	5305.93
439.492	5098.03
439.849	4691.26
440.207	4494.66
440.565	4334.21
440.922	4198.62
441.28	4078.85
441.637	3832.53
441.995	3719.53
442.352	3536.49
442.71	3324.07
443.067	3382.82
443.425	3240.45
443.782	2996.39
444.139	2994.13
444.496	2808.82
444.854	2734.25
445.211	2664.2
445.568	2589.62
445.925	2551.2
446.282	2415.61
446.639	2329.74
446.996	2289.06
447.353	2356.86
447.71	2228.05
448.067	2225.79
448.424	2031.44
448.781	1952.35
449.137	1956.87
449.494	1918.45
449.851	1868.74
450.208	1685.69
450.564	1593.04
450.921	1606.6
451.278	1604.34
451.634	1687.95
451.991	1489.09
452.347	1471.01
452.704	1448.41
453.06	1461.97
453.416	1308.3
453.773	1312.82
454.129	1278.92
454.485	1233.72
454.841	1290.22
455.198	1215.65
455.554	1215.65
455.91	1111.69
456.266	1116.21
456.622	1174.97
456.978	1118.47
457.334	1061.98
457.69	1077.8
458.046	948.99
458.402	883.45
458.758	878.93
459.114	996.44
459.469	958.03
459.825	937.69
460.181	876.67
460.536	854.07
460.892	777.24
461.248	745.6
461.603	854.07
461.959	779.5
462.314	770.46
462.67	797.58
463.025	772.72
463.38	759.16
463.736	704.92
464.091	716.22
464.446	734.3
464.802	652.95
465.157	732.04
465.512	709.44
465.867	682.33
466.222	698.15
466.577	628.09
466.932	661.99
467.287	668.77
467.642	698.15
467.997	682.33
468.352	650.69
468.707	596.45
469.062	623.57
469.417	580.63
469.771	537.7
470.126	659.73
470.481	605.49
470.835	655.21
471.19	603.23
471.544	564.82
471.899	573.85
472.253	630.35
472.608	605.49
472.962	596.45
473.317	612.27
473.671	542.22
474.025	537.7
474.38	603.23
474.734	616.79
475.088	517.36
475.442	573.85
475.796	537.7
476.15	524.14
476.504	526.4
476.858	533.18
477.212	519.62
477.566	576.11
477.92	530.92
478.274	587.41
478.628	524.14
478.982	519.62
479.336	515.1
479.689	605.49
480.043	417.93
480.397	542.22
480.75	445.04
481.104	555.78
481.457	517.36
481.811	537.7
482.164	569.34
482.518	526.4
482.871	517.36
483.225	474.42
483.578	454.08
483.931	458.6
484.284	483.46
484.638	515.1
484.991	560.3
485.344	539.96
485.697	564.82
486.05	449.56
486.403	585.15
486.756	492.5
487.109	508.32
487.462	478.94
487.815	438.27
488.168	539.96
488.52	501.54
488.873	469.9
489.226	469.9
489.579	501.54
489.931	517.36
490.284	539.96
490.637	530.92
490.989	524.14
491.342	442.78
491.694	478.94
492.047	388.55
492.399	510.58
492.751	460.86
493.104	451.82
493.456	463.12
493.808	490.24
494.16	424.71
494.513	510.58
494.865	426.97
495.217	497.02
495.569	472.16
495.921	465.38
496.273	558.04
496.625	483.46
496.977	517.36
497.329	445.04
497.68	456.34
498.032	426.97
498.384	472.16
498.736	474.42
499.087	508.32
499.439	463.12
499.791	517.36
500.142	517.36
500.494	465.38
500.845	485.72
501.197	467.64
501.548	463.12
501.9	521.88
502.251	494.76
502.602	460.86
502.954	492.5
503.305	463.12
503.656	512.84
504.007	433.75
504.358	508.32
504.709	549
505.061	508.32
505.412	497.02
505.763	528.66
506.113	426.97
506.464	515.1
506.815	433.75
507.166	519.62
507.517	485.72
507.868	497.02
508.218	539.96
508.569	492.5
508.92	503.8
509.27	521.88
509.621	576.11
509.971	551.26
510.322	449.56
510.672	521.88
511.023	524.14
511.373	524.14
511.723	445.04
512.074	494.76
512.424	558.04
512.774	497.02
513.124	476.68
513.475	483.46
513.825	553.52
514.175	476.68
514.525	603.23
514.875	535.44
515.225	555.78
515.575	533.18
515.924	549
516.274	530.92
516.624	596.45
516.974	474.42
517.324	539.96
517.673	510.58
518.023	501.54
518.373	553.52
518.722	478.94
519.072	510.58
519.421	467.64
519.771	526.4
520.12	576.11
520.469	526.4
520.819	530.92
521.168	537.7
521.517	526.4
521.867	555.78
522.216	521.88
522.565	508.32
522.914	578.37
523.263	571.6
523.612	546.74
523.961	551.26
524.31	528.66
524.659	553.52
525.008	487.98
525.357	564.82
525.705	476.68
526.054	549
526.403	562.56
526.752	585.15
527.1	524.14
527.449	607.75
527.797	526.4
528.146	526.4
528.495	472.16
528.843	582.89
529.191	591.93
529.54	537.7
529.888	546.74
530.236	512.84
530.585	530.92
530.933	530.92
531.281	537.7
531.629	483.46
531.977	555.78
532.325	546.74
532.673	510.58
533.021	517.36
533.369	555.78
533.717	526.4
534.065	490.24
534.413	558.04
534.761	481.2
535.108	571.6
535.456	506.06
535.804	508.32
536.151	510.58
536.499	519.62
536.847	546.74
537.194	515.1
537.542	549
537.889	546.74
538.236	445.04
538.584	519.62
538.931	571.6
539.278	510.58
539.626	564.82
539.973	506.06
540.32	562.56
540.667	546.74
541.014	508.32
541.361	524.14
541.708	499.28
542.055	506.06
542.402	512.84
542.749	569.34
543.096	521.88
543.443	510.58
543.789	420.19
544.136	472.16
544.483	485.72
544.83	445.04
545.176	515.1
545.523	449.56
545.869	481.2
546.216	524.14
546.562	546.74
546.909	503.8
547.255	483.46
547.601	526.4
547.948	487.98
548.294	481.2
548.64	533.18
548.986	442.78
549.332	499.28
549.678	528.66
550.025	533.18
550.371	499.28
550.717	429.23
551.062	521.88
551.408	483.46
551.754	530.92
552.1	472.16
552.446	458.6
552.792	476.68
553.137	478.94
553.483	445.04
553.828	438.27
554.174	474.42
554.52	481.2
554.865	483.46
555.211	524.14
555.556	454.08
555.901	436.01
556.247	460.86
556.592	454.08
556.937	476.68
557.282	408.89
557.628	551.26
557.973	408.89
558.318	456.34
558.663	521.88
559.008	465.38
559.353	422.45
559.698	472.16
560.043	472.16
560.388	553.52
560.732	445.04
561.077	413.41
561.422	465.38
561.766	431.49
562.111	436.01
562.456	474.42
562.8	472.16
563.145	472.16
563.489	542.22
563.834	449.56
564.178	465.38
564.523	393.07
564.867	445.04
565.211	463.12
565.555	472.16
565.9	406.63
566.244	440.53
566.588	472.16
566.932	485.72
567.276	422.45
567.62	492.5
567.964	422.45
568.308	454.08
568.652	404.37
568.996	408.89
569.339	465.38
569.683	424.71
570.027	456.34
570.371	440.53
570.714	354.65
571.058	451.82
571.401	424.71
571.745	384.03
572.088	397.59
572.432	436.01
572.775	449.56
573.118	454.08
573.462	483.46
573.805	406.63
574.148	406.63
574.491	395.33
574.835	415.67
575.178	497.02
575.521	438.27
575.864	485.72
576.207	404.37
576.55	433.75
576.892	404.37
577.235	429.23
577.578	399.85
577.921	424.71
578.264	413.41
578.606	413.41
578.949	384.03
579.292	402.11
579.634	442.78
579.977	393.07
580.319	442.78
580.662	372.73
581.004	413.41
581.346	345.61
581.689	404.37
582.031	424.71
582.373	456.34
582.715	390.81
583.057	388.55
583.4	384.03
583.742	422.45
584.084	399.85
584.426	476.68
584.768	417.93
585.109	374.99
585.451	390.81
585.793	451.82
586.135	408.89
586.477	413.41
586.818	372.73
587.16	413.41
587.502	327.53
587.843	445.04
588.185	332.05
588.526	429.23
588.868	402.11
589.209	447.3
589.55	447.3
589.892	406.63
590.233	390.81
590.574	334.31
590.915	359.17
591.257	438.27
591.598	381.77
591.939	395.33
592.28	426.97
592.621	417.93
592.962	365.95
593.303	381.77
593.643	377.25
593.984	404.37
594.325	379.51
594.666	429.23
595.006	388.55
595.347	417.93
595.688	406.63
596.028	350.13
596.369	384.03
596.709	332.05
597.05	361.43
597.39	399.85
597.73	424.71
598.071	350.13
598.411	372.73
598.751	408.89
599.091	368.21
599.431	399.85
599.772	350.13
600.112	316.23
600.452	334.31
600.792	341.09
601.132	404.37
601.471	329.79
601.811	338.83
602.151	345.61
602.491	413.41
602.831	374.99
603.17	354.65
603.51	424.71
603.849	393.07
604.189	334.31
604.528	309.46
604.868	393.07
605.207	381.77
605.547	334.31
605.886	334.31
606.225	354.65
606.565	363.69
606.904	381.77
607.243	393.07
607.582	384.03
607.921	313.97
608.26	406.63
608.599	347.87
608.938	309.46
609.277	363.69
609.616	422.45
609.955	338.83
610.293	395.33
610.632	356.91
610.971	356.91
611.309	334.31
611.648	388.55
611.987	354.65
612.325	402.11
612.664	354.65
613.002	347.87
613.34	377.25
613.679	399.85
614.017	350.13
614.355	273.3
614.694	368.21
615.032	368.21
615.37	295.9
615.708	334.31
616.046	372.73
616.384	323.01
616.722	365.95
617.06	420.19
617.398	381.77
617.736	336.57
618.073	327.53
618.411	361.43
618.749	345.61
619.086	384.03
619.424	327.53
619.762	354.65
620.099	368.21
620.437	440.53
620.774	334.31
621.112	323.01
621.449	350.13
621.786	402.11
622.123	323.01
622.461	341.09
622.798	368.21
623.135	332.05
623.472	334.31
623.809	354.65
624.146	336.57
624.483	289.12
624.82	350.13
625.157	323.01
625.494	388.55
625.83	390.81
626.167	341.09
626.504	408.89
626.841	363.69
627.177	347.87
627.514	320.75
627.85	352.39
628.187	329.79
628.523	361.43
628.86	298.16
629.196	345.61
629.532	379.51
629.869	386.29
630.205	379.51
630.541	359.17
630.877	284.6
631.213	341.09
631.549	323.01
631.885	361.43
632.221	323.01
632.557	386.29
632.893	390.81
633.229	309.46
633.564	302.68
633.9	323.01
634.236	368.21
634.572	320.75
634.907	338.83
635.243	307.2
635.578	268.78
635.914	334.31
636.249	397.59
636.585	365.95
636.92	307.2
637.255	318.49
637.59	332.05
637.926	329.79
638.261	311.71
638.596	390.81
638.931	325.27
639.266	368.21
639.601	280.08
639.936	268.78
640.271	422.45
640.606	363.69
640.94	302.68
641.275	325.27
641.61	345.61
641.945	259.74
642.279	343.35
642.614	329.79
642.948	304.94
643.283	325.27
643.617	393.07
643.952	347.87
644.286	361.43
644.62	338.83
644.955	327.53
645.289	338.83
645.623	264.26
645.957	336.57
646.291	302.68
646.625	329.79
646.959	323.01
647.293	293.64
647.627	411.15
647.961	268.78
648.295	345.61
648.629	327.53
648.962	320.75
649.296	304.94
649.63	320.75
649.963	341.09
650.297	343.35
650.63	293.64
650.964	338.83
651.297	354.65
651.631	300.42
651.964	311.71
652.297	343.35
652.631	280.08
652.964	318.49
653.297	388.55
653.63	302.68
653.963	363.69
654.296	395.33
654.629	329.79
654.962	304.94
655.295	255.22
655.628	402.11
655.961	350.13
656.293	395.33
656.626	343.35
656.959	280.08
657.291	259.74
657.624	289.12
657.956	329.79
658.289	318.49
658.621	347.87
658.954	327.53
659.286	286.86
659.618	282.34
659.95	304.94
660.283	338.83
660.615	275.56
660.947	381.77
661.279	289.12
661.611	347.87
661.943	275.56
662.275	352.39
662.607	282.34
662.939	325.27
663.27	384.03
663.602	318.49
663.934	286.86
664.266	334.31
664.597	350.13
664.929	388.55
665.26	336.57
665.592	291.38
665.923	325.27
666.255	336.57
666.586	386.29
666.917	275.56
667.248	266.52
667.58	313.97
667.911	266.52
668.242	343.35
668.573	284.6
668.904	313.97
669.235	313.97
669.566	343.35
669.897	356.91
670.228	295.9
670.558	234.88
670.889	302.68
671.22	280.08
671.551	341.09
671.881	318.49
672.212	341.09
672.542	252.96
672.873	295.9
673.203	282.34
673.533	295.9
673.864	304.94
674.194	271.04
674.524	262
674.855	345.61
675.185	381.77
675.515	307.2
675.845	302.68
676.175	262
676.505	295.9
676.835	289.12
677.165	347.87
677.494	280.08
677.824	332.05
678.154	313.97
678.484	295.9
678.813	273.3
679.143	295.9
679.472	232.62
679.802	291.38
680.131	293.64
680.461	325.27
680.79	295.9
681.119	384.03
681.449	318.49
681.778	338.83
682.107	329.79
682.436	325.27
682.765	341.09
683.094	282.34
683.423	316.23
683.752	275.56
684.081	300.42
684.41	275.56
684.739	318.49
685.067	259.74
685.396	313.97
685.725	325.27
686.053	304.94
686.382	291.38
686.711	293.64
687.039	273.3
687.367	318.49
687.696	309.46
688.024	262
688.352	311.71
688.681	277.82
689.009	341.09
689.337	295.9
689.665	343.35
689.993	316.23
690.321	282.34
690.649	295.9
690.977	291.38
691.305	304.94
691.633	223.58
691.961	282.34
692.288	293.64
692.616	334.31
692.944	289.12
693.271	302.68
693.599	291.38
693.926	255.22
694.254	365.95
694.581	295.9
694.908	300.42
695.236	293.64
695.563	338.83
695.89	408.89
696.217	275.56
696.544	300.42
696.871	316.23
697.198	225.84
697.525	307.2
697.852	332.05
698.179	313.97
698.506	300.42
698.833	341.09
699.16	293.64
699.486	223.58
699.813	216.8
700.139	325.27
700.466	223.58
700.793	302.68
701.119	356.91
701.445	311.71
701.772	289.12
702.098	327.53
702.424	334.31
702.75	268.78
703.077	313.97
703.403	316.23
703.729	302.68
704.055	271.04
704.381	343.35
704.707	313.97
705.033	309.46
705.358	388.55
705.684	313.97
706.01	343.35
706.336	291.38
706.661	268.78
706.987	262
707.312	282.34
707.638	286.86
707.963	320.75
708.289	347.87
708.614	289.12
708.939	286.86
709.265	318.49
709.59	271.04
709.915	332.05
710.24	291.38
710.565	275.56
710.89	325.27
711.215	325.27
711.54	336.57
711.865	280.08
712.19	379.51
712.515	311.71
712.839	345.61
713.164	300.42
713.489	286.86
713.813	329.79
714.138	313.97
714.462	365.95
714.787	302.68
715.111	368.21
715.435	239.4
715.76	298.16
716.084	282.34
716.408	311.71
716.732	352.39
717.056	252.96
717.381	243.92
717.705	275.56
718.028	318.49
718.352	286.86
718.676	318.49
719	277.82
719.324	323.01
719.648	325.27
719.971	347.87
720.295	293.64
720.618	293.64
720.942	295.9
721.265	262
721.589	286.86
721.912	266.52
722.236	345.61
722.559	286.86
722.882	298.16
723.205	255.22
723.528	250.7
723.851	284.6
724.174	350.13
724.497	300.42
724.82	318.49
725.143	300.42
725.466	338.83
725.789	318.49
726.112	275.56
726.434	273.3
726.757	273.3
727.08	318.49
727.402	243.92
727.725	311.71
728.047	320.75
728.37	316.23
728.692	307.2
729.014	341.09
729.336	225.84
729.659	257.48
729.981	332.05
730.303	334.31
730.625	363.69
730.947	307.2
731.269	271.04
731.591	338.83
731.913	336.57
732.235	257.48
732.556	255.22
732.878	273.3
733.2	298.16
733.521	313.97
733.843	300.42
734.164	291.38
734.486	246.18
734.807	284.6
735.129	316.23
735.45	350.13
735.771	318.49
736.092	332.05
736.414	234.88
736.735	343.35
737.056	352.39
737.377	264.26
737.698	277.82
738.019	282.34
738.34	286.86
738.66	311.71
738.981	268.78
739.302	277.82
739.623	273.3
739.943	304.94
740.264	300.42
740.584	259.74
740.905	318.49
741.225	280.08
741.546	295.9
741.866	327.53
742.186	336.57
742.507	343.35
742.827	327.53
743.147	300.42
743.467	280.08
743.787	259.74
744.107	302.68
744.427	311.71
744.747	293.64
745.067	323.01
745.386	286.86
745.706	329.79
746.026	259.74
746.346	271.04
746.665	323.01
746.985	250.7
747.304	313.97
747.624	309.46
747.943	252.96
748.262	320.75
748.582	327.53
748.901	291.38
749.22	268.78
749.539	381.77
749.858	300.42
750.177	295.9
750.496	304.94
750.815	334.31
751.134	282.34
751.453	354.65
751.772	332.05
752.09	284.6
752.409	386.29
752.728	338.83
753.046	280.08
753.365	343.35
753.683	341.09
754.002	237.14
754.32	298.16
754.639	307.2
754.957	325.27
755.275	320.75
755.593	252.96
755.911	252.96
756.23	282.34
756.548	354.65
756.866	284.6
757.183	286.86
757.501	302.68
757.819	280.08
758.137	275.56
758.455	320.75
758.772	345.61
759.09	354.65
759.408	309.46
759.725	241.66
760.043	304.94
760.36	311.71
760.677	323.01
760.995	332.05
761.312	334.31
761.629	309.46
761.946	300.42
762.264	323.01
762.581	293.64
762.898	271.04
763.215	361.43
763.532	300.42
763.848	316.23
764.165	311.71
764.482	295.9
764.799	286.86
765.115	291.38
765.432	336.57
765.749	284.6
766.065	273.3
766.382	234.88
766.698	295.9
767.014	309.46
767.331	304.94
767.647	273.3
767.963	293.64
768.279	363.69
768.595	255.22
768.911	289.12
769.227	225.84
769.543	334.31
769.859	359.17
770.175	356.91
770.491	293.64
770.807	300.42
771.122	354.65
771.438	275.56
771.754	167.09
772.069	300.42
772.385	295.9
772.7	271.04
773.016	381.77
773.331	311.71
773.646	350.13
773.961	323.01
774.277	309.46
774.592	246.18
774.907	275.56
775.222	365.95
775.537	336.57
775.852	318.49
776.167	316.23
776.482	327.53
776.796	286.86
777.111	327.53
777.426	307.2
777.74	302.68
778.055	304.94
778.369	273.3
778.684	275.56
778.998	311.71
779.313	264.26
779.627	268.78
779.941	302.68
780.255	293.64
780.57	250.7
780.884	264.26
781.198	393.07
781.512	332.05
781.826	259.74
782.14	352.39
782.453	370.47
782.767	318.49
783.081	295.9
783.395	316.23
783.708	300.42
784.022	327.53
784.335	252.96
784.649	302.68
784.962	271.04
785.276	268.78
785.589	277.82
785.902	284.6
786.216	307.2
786.529	257.48
786.842	248.44
787.155	343.35
787.468	255.22
787.781	345.61
788.094	304.94
788.407	293.64
788.72	291.38
789.032	280.08
789.345	284.6
789.658	350.13
789.97	268.78
790.283	311.71
790.595	300.42
790.908	268.78
791.22	304.94
791.532	280.08
791.845	311.71
792.157	354.65
792.469	277.82
792.781	252.96
793.093	282.34
793.405	271.04
793.717	300.42
794.029	318.49
794.341	248.44
794.653	384.03
794.965	266.52
795.276	275.56
795.588	341.09
795.9	255.22
796.211	304.94
796.523	284.6
796.834	273.3
797.146	327.53
797.457	345.61
797.768	266.52
798.08	316.23
798.391	309.46
798.702	350.13
799.013	345.61
799.324	255.22
799.635	268.78
799.946	336.57
800.257	291.38
800.568	327.53
800.878	347.87
801.189	295.9
801.5	302.68
801.81	291.38
802.121	307.2
802.431	277.82
802.742	325.27
803.052	282.34
803.363	286.86
803.673	248.44
803.983	266.52
804.293	230.36
804.603	255.22
804.913	291.38
805.224	347.87
805.533	304.94
805.843	350.13
806.153	307.2
806.463	300.42
806.773	286.86
807.083	307.2
807.392	280.08
807.702	304.94
808.011	329.79
808.321	289.12
808.63	241.66
808.94	223.58
809.249	255.22
809.558	336.57
809.868	332.05
810.177	350.13
810.486	291.38
810.795	214.54
811.104	259.74
811.413	356.91
811.722	329.79
812.031	309.46
812.339	250.7
812.648	309.46
812.957	313.97
813.266	255.22
813.574	336.57
813.883	264.26
814.191	350.13
814.5	262
814.808	248.44
815.116	332.05
815.424	257.48
815.733	228.1
816.041	295.9
816.349	311.71
816.657	259.74
816.965	259.74
817.273	304.94
817.581	313.97
817.889	325.27
818.196	338.83
818.504	345.61
818.812	252.96
819.12	291.38
819.427	304.94
819.735	262
820.042	332.05
820.349	295.9
820.657	275.56
820.964	334.31
821.271	307.2
821.579	327.53
821.886	318.49
822.193	343.35
822.5	295.9
822.807	395.33
823.114	354.65
823.421	300.42
823.727	300.42
824.034	311.71
824.341	307.2
824.648	298.16
824.954	320.75
825.261	359.17
825.567	273.3
825.874	284.6
826.18	304.94
826.486	289.12
826.793	293.64
827.099	250.7
827.405	313.97
827.711	313.97
828.017	291.38
828.323	264.26
828.629	216.8
828.935	318.49
829.241	268.78
829.547	277.82
829.852	277.82
830.158	273.3
830.464	262
830.769	264.26
831.075	232.62
831.38	225.84
831.686	289.12
831.991	323.01
832.296	300.42
832.601	300.42
832.907	302.68
833.212	277.82
833.517	316.23
833.822	311.71
834.127	313.97
834.432	291.38
834.737	347.87
835.041	234.88
835.346	257.48
835.651	347.87
835.956	354.65
836.26	307.2
836.565	334.31
836.869	255.22
837.174	309.46
837.478	298.16
837.782	289.12
838.087	313.97
838.391	255.22
838.695	293.64
838.999	309.46
839.303	300.42
839.607	311.71
839.911	237.14
840.215	304.94
840.519	286.86
840.822	216.8
841.126	345.61
841.43	327.53
841.733	345.61
842.037	271.04
842.34	329.79
842.644	354.65
842.947	257.48
843.251	259.74
843.554	286.86
843.857	343.35
844.16	350.13
844.463	323.01
844.766	286.86
845.069	232.62
845.372	304.94
845.675	277.82
845.978	309.46
846.281	318.49
846.583	289.12
846.886	277.82
847.189	273.3
847.491	289.12
847.794	332.05
848.096	252.96
848.399	266.52
848.701	280.08
849.003	309.46
849.305	293.64
849.608	271.04
849.91	268.78
850.212	277.82
850.514	300.42
850.816	289.12
851.118	282.34
851.419	239.4
851.721	318.49
852.023	250.7
852.325	368.21
852.626	327.53
852.928	257.48
853.229	338.83
853.531	334.31
853.832	307.2
854.133	323.01
854.435	313.97
854.736	350.13
855.037	295.9
855.338	307.2
855.639	318.49
855.94	275.56
856.241	293.64
856.542	313.97
856.843	309.46
857.144	228.1
857.444	277.82
857.745	291.38
858.046	307.2
858.346	313.97
858.647	291.38
858.947	250.7
859.247	302.68
859.548	228.1
859.848	361.43
860.148	302.68
860.448	286.86
860.749	291.38
861.049	370.47
861.349	316.23
861.648	309.46
861.948	332.05
862.248	329.79
862.548	343.35
862.848	341.09
863.147	309.46
863.447	332.05
863.746	295.9
864.046	284.6
864.345	345.61
864.645	327.53
864.944	257.48
865.243	264.26
865.542	273.3
865.842	259.74
866.141	300.42
866.44	302.68
866.739	302.68
867.038	291.38
867.337	241.66
867.635	293.64
867.934	323.01
868.233	275.56
868.531	262
868.83	228.1
869.129	243.92
869.427	228.1
869.725	341.09
870.024	289.12
870.322	291.38
870.62	323.01
870.918	313.97
871.217	291.38
871.515	316.23
871.813	295.9
872.111	311.71
872.409	372.73
872.706	268.78
873.004	325.27
873.302	302.68
873.6	259.74
873.897	255.22
874.195	309.46
874.492	291.38
874.79	329.79
875.087	295.9
875.384	300.42
875.682	345.61
875.979	255.22
876.276	302.68
876.573	295.9
876.87	295.9
877.167	295.9
