Data from PL_2polymer_F8BT_MEHPPV_USB2H096331_0154.txt Node
Date: Tue Dec 15 16:36:33 CET 2020
User: spadmin
Spectrometer: USB2+H09633
Trigger mode: 0
Integration Time (sec): 1.000000E-2
Scans to average: 1
Electric dark correction enabled: true
Nonlinearity correction enabled: false
Boxcar width: 0
XAxis mode: Wavelengths
Number of Pixels in Spectrum: 2048
>>>>>Begin Spectral Data<<<<<
174.027	-88.42
174.405	-88.42
174.783	-88.42
175.162	-135.87
175.54	-92.94
175.918	-83.9
176.296	-131.35
176.674	-74.86
177.052	-77.12
177.43	-86.16
177.808	-16.1
178.186	-59.04
178.564	-13.84
178.942	-50
179.32	-72.6
179.698	-7.06
180.076	31.36
180.453	53.95
180.831	126.27
181.209	114.97
181.587	119.49
181.965	142.09
182.342	130.79
182.72	178.24
183.098	155.65
183.475	189.54
183.853	241.52
184.231	243.78
184.608	259.6
184.986	282.2
185.363	316.09
185.741	368.07
186.118	259.6
186.496	320.61
186.873	275.42
187.251	361.29
187.628	356.77
188.006	304.79
188.383	284.46
188.76	266.38
189.138	268.64
189.515	316.09
189.892	327.39
190.27	327.39
190.647	336.43
191.024	300.27
191.401	338.69
191.778	320.61
192.155	266.38
192.533	325.13
192.91	295.75
193.287	309.31
193.664	309.31
194.041	338.69
194.418	288.98
194.795	282.2
195.172	282.2
195.549	286.72
195.926	291.24
196.302	295.75
196.679	307.05
197.056	277.68
197.433	207.62
197.81	316.09
198.187	300.27
198.563	273.16
198.94	307.05
199.317	329.65
199.693	298.01
200.07	286.72
200.447	288.98
200.823	293.5
201.2	279.94
201.576	286.72
201.953	291.24
202.329	313.83
202.706	359.03
203.082	277.68
203.459	365.81
203.835	273.16
204.212	284.46
204.588	365.81
204.964	246.04
205.341	264.12
205.717	295.75
206.093	365.81
206.469	243.78
206.846	259.6
207.222	250.56
207.598	327.39
207.974	304.79
208.35	291.24
208.726	282.2
209.102	288.98
209.479	302.53
209.855	304.79
210.231	320.61
210.607	246.04
210.982	270.9
211.358	293.5
211.734	266.38
212.11	331.91
212.486	255.08
212.862	304.79
213.238	243.78
213.614	237
213.989	288.98
214.365	377.11
214.741	302.53
215.116	365.81
215.492	295.75
215.868	311.57
216.243	259.6
216.619	282.2
216.995	298.01
217.37	257.34
217.746	338.69
218.121	334.17
218.497	230.22
218.872	325.13
219.247	327.39
219.623	345.47
219.998	264.12
220.374	340.95
220.749	365.81
221.124	311.57
221.499	334.17
221.875	359.03
222.25	352.25
222.625	340.95
223	284.46
223.376	325.13
223.751	313.83
224.126	298.01
224.501	300.27
224.876	307.05
225.251	288.98
225.626	338.69
226.001	311.57
226.376	298.01
226.751	273.16
227.126	302.53
227.501	361.29
227.875	316.09
228.25	277.68
228.625	370.33
229	304.79
229.375	284.46
229.749	223.44
230.124	334.17
230.499	327.39
230.873	336.43
231.248	320.61
231.623	356.77
231.997	343.21
232.372	302.53
232.746	392.93
233.121	304.79
233.495	336.43
233.87	356.77
234.244	352.25
234.619	329.65
234.993	282.2
235.367	359.03
235.742	302.53
236.116	270.9
236.49	347.73
236.865	329.65
237.239	374.85
237.613	261.86
237.987	327.39
238.361	349.99
238.736	363.55
239.11	356.77
239.484	300.27
239.858	304.79
240.232	336.43
240.606	327.39
240.98	356.77
241.354	311.57
241.728	286.72
242.102	365.81
242.475	309.31
242.849	279.94
243.223	279.94
243.597	356.77
243.971	320.61
244.344	352.25
244.718	313.83
245.092	356.77
245.466	322.87
245.839	322.87
246.213	411.01
246.586	359.03
246.96	347.73
247.334	277.68
247.707	327.39
248.081	343.21
248.454	361.29
248.828	248.3
249.201	345.47
249.574	361.29
249.948	313.83
250.321	345.47
250.694	329.65
251.068	325.13
251.441	288.98
251.814	279.94
252.187	307.05
252.561	331.91
252.934	383.89
253.307	370.33
253.68	338.69
254.053	347.73
254.426	379.37
254.799	359.03
255.172	311.57
255.545	359.03
255.918	288.98
256.291	381.63
256.664	255.08
257.037	390.67
257.41	372.59
257.782	302.53
258.155	343.21
258.528	336.43
258.901	325.13
259.273	343.21
259.646	316.09
260.019	318.35
260.391	336.43
260.764	347.73
261.137	372.59
261.509	331.91
261.882	361.29
262.254	379.37
262.627	372.59
262.999	338.69
263.372	347.73
263.744	401.97
264.116	374.85
264.489	368.07
264.861	340.95
265.233	404.23
265.606	397.45
265.978	340.95
266.35	363.55
266.722	293.5
267.094	361.29
267.467	318.35
267.839	426.82
268.211	370.33
268.583	302.53
268.955	347.73
269.327	401.97
269.699	386.15
270.071	298.01
270.443	352.25
270.815	370.33
271.186	365.81
271.558	318.35
271.93	429.08
272.302	424.57
272.674	383.89
273.045	336.43
273.417	368.07
273.789	379.37
274.16	352.25
274.532	340.95
274.904	343.21
275.275	388.41
275.647	336.43
276.018	408.75
276.39	386.15
276.761	420.05
277.133	386.15
277.504	336.43
277.875	411.01
278.247	316.09
278.618	340.95
278.989	356.77
279.361	354.51
279.732	383.89
280.103	395.19
280.474	365.81
280.846	354.51
281.217	338.69
281.588	316.09
281.959	359.03
282.33	340.95
282.701	365.81
283.072	392.93
283.443	379.37
283.814	449.42
284.185	356.77
284.556	399.71
284.927	302.53
285.297	417.79
285.668	420.05
286.039	401.97
286.41	395.19
286.781	370.33
287.151	368.07
287.522	359.03
287.893	404.23
288.263	322.87
288.634	320.61
289.004	388.41
289.375	374.85
289.745	338.69
290.116	415.53
290.486	361.29
290.857	340.95
291.227	474.28
291.598	311.57
291.968	388.41
292.338	356.77
292.709	377.11
293.079	361.29
293.449	349.99
293.819	361.29
294.189	340.95
294.56	374.85
294.93	365.81
295.3	429.08
295.67	386.15
296.04	370.33
296.41	322.87
296.78	383.89
297.15	381.63
297.52	361.29
297.89	368.07
298.259	352.25
298.629	347.73
298.999	365.81
299.369	388.41
299.739	390.67
300.108	329.65
300.478	383.89
300.848	395.19
301.217	372.59
301.587	327.39
301.957	352.25
302.326	406.49
302.696	438.12
303.065	426.82
303.435	336.43
303.804	399.71
304.174	415.53
304.543	392.93
304.912	388.41
305.282	426.82
305.651	401.97
306.02	368.07
306.39	408.75
306.759	370.33
307.128	460.72
307.497	447.16
307.866	469.76
308.235	422.31
308.604	413.27
308.974	438.12
309.343	424.57
309.712	411.01
310.08	426.82
310.449	456.2
310.818	465.24
311.187	417.79
311.556	413.27
311.925	467.5
312.294	420.05
312.662	447.16
313.031	397.45
313.4	340.95
313.769	426.82
314.137	372.59
314.506	462.98
314.874	399.71
315.243	431.34
315.612	449.42
315.98	426.82
316.349	447.16
316.717	524
317.085	429.08
317.454	413.27
317.822	456.2
318.191	462.98
318.559	370.33
318.927	467.5
319.295	451.68
319.664	415.53
320.032	411.01
320.4	429.08
320.768	417.79
321.136	426.82
321.504	318.35
321.872	426.82
322.24	478.8
322.608	485.58
322.976	397.45
323.344	424.57
323.712	474.28
324.08	433.6
324.448	451.68
324.816	408.75
325.183	499.14
325.551	420.05
325.919	435.86
326.287	424.57
326.654	372.59
327.022	411.01
327.389	503.66
327.757	460.72
328.125	458.46
328.492	456.2
328.86	438.12
329.227	449.42
329.594	424.57
329.962	413.27
330.329	465.24
330.697	456.2
331.064	440.38
331.431	496.88
331.798	444.9
332.166	444.9
332.533	501.4
332.9	458.46
333.267	481.06
333.634	453.94
334.001	472.02
334.368	526.26
334.735	422.31
335.102	483.32
335.469	433.6
335.836	510.44
336.203	548.86
336.57	492.36
336.937	483.32
337.304	478.8
337.67	535.3
338.037	517.22
338.404	481.06
338.771	481.06
339.137	499.14
339.504	481.06
339.87	503.66
340.237	517.22
340.604	562.41
340.97	555.64
341.337	514.96
341.703	524
342.069	449.42
342.436	544.34
342.802	505.92
343.169	499.14
343.535	508.18
343.901	496.88
344.267	462.98
344.634	519.48
345	501.4
345.366	573.71
345.732	499.14
346.098	501.4
346.464	458.46
346.83	487.84
347.196	562.41
347.562	533.04
347.928	573.71
348.294	555.64
348.66	555.64
349.026	519.48
349.392	535.3
349.757	551.12
350.123	555.64
350.489	524
350.855	546.6
351.22	535.3
351.586	555.64
351.951	580.49
352.317	528.52
352.683	587.27
353.048	555.64
353.414	578.23
353.779	537.56
354.144	544.34
354.51	618.91
354.875	544.34
355.24	564.67
355.606	544.34
355.971	591.79
356.336	580.49
356.701	639.25
357.067	578.23
357.432	587.27
357.797	636.99
358.162	641.51
358.527	591.79
358.892	607.61
359.257	646.03
359.622	612.13
359.987	650.55
360.352	643.77
360.717	693.48
361.082	609.87
361.446	533.04
361.811	686.71
362.176	605.35
362.541	659.59
362.905	704.78
363.27	650.55
363.635	700.26
363.999	688.96
364.364	720.6
364.728	716.08
365.093	711.56
365.457	673.15
365.822	713.82
366.186	713.82
366.55	781.62
366.915	679.93
367.279	711.56
367.643	688.96
368.008	729.64
368.372	799.7
368.736	788.4
369.1	799.7
369.464	833.59
369.828	829.07
370.192	851.67
370.556	833.59
370.92	872.01
371.284	874.27
371.648	942.07
372.012	987.26
372.376	971.44
372.74	890.09
373.104	1012.12
373.468	1093.47
373.831	1050.54
374.195	1088.95
374.559	1131.89
374.922	1082.17
375.286	1097.99
375.65	1138.67
376.013	1213.24
376.377	1159.01
376.74	1242.62
377.104	1249.4
377.467	1348.83
377.83	1430.19
378.194	1461.83
378.557	1534.14
378.92	1676.51
379.284	1651.65
379.647	1841.48
380.01	1812.1
380.373	1986.11
380.736	2117.18
381.1	2352.2
381.463	2410.95
381.826	2542.02
382.189	2697.95
382.552	2989.47
382.915	3271.95
383.278	3418.84
383.64	3732.95
384.003	3956.68
384.366	4160.06
384.729	4770.21
385.092	5149.86
385.454	5339.69
385.817	5976.96
386.18	6754.34
386.542	7294.44
386.905	7922.67
387.268	8480.85
387.63	9341.84
387.993	10180.24
388.355	11224.28
388.718	12144.03
389.08	13348.52
389.442	14925.88
389.805	15850.15
390.167	17248.98
390.529	18937.07
390.892	21255.66
391.254	22383.31
391.616	23960.67
391.978	26844.21
392.34	30003.45
392.702	30489.31
393.064	34138.93
393.426	35987.47
393.788	38473.28
394.15	40382.84
394.512	43110.45
394.874	46373.64
395.236	49153.23
395.598	51937.33
395.96	54086.43
396.321	56463.77
396.683	58210.62
397.045	60493.04
397.406	62472.65
397.768	64095.21
398.13	65087.27
398.491	65087.27
398.853	65087.27
399.214	65087.27
399.576	65087.27
399.937	65087.27
400.299	65087.27
400.66	65087.27
401.021	65087.27
401.383	65087.27
401.744	65087.27
402.105	65087.27
402.466	65087.27
402.827	65087.27
403.189	65087.27
403.55	65087.27
403.911	65087.27
404.272	65087.27
404.633	65087.27
404.994	65087.27
405.355	65087.27
405.716	65087.27
406.077	65087.27
406.437	65087.27
406.798	65087.27
407.159	65087.27
407.52	65087.27
407.88	65087.27
408.241	65087.27
408.602	65087.27
408.962	65087.27
409.323	65087.27
409.684	65087.27
410.044	65087.27
410.405	65087.27
410.765	65087.27
411.125	65087.27
411.486	65087.27
411.846	65087.27
412.206	65087.27
412.567	65087.27
412.927	65087.27
413.287	65087.27
413.647	65087.27
414.007	65087.27
414.368	65087.27
414.728	65087.27
415.088	65087.27
415.448	65087.27
415.808	65087.27
416.168	65087.27
416.528	65087.27
416.887	65087.27
417.247	65087.27
417.607	65087.27
417.967	65087.27
418.327	64395.76
418.686	63451.16
419.046	62391.3
419.406	61354.04
419.765	60893.03
420.125	59150.7
420.484	57736.05
420.844	56732.69
421.203	54886.41
421.563	53234.48
421.922	53191.54
422.282	50222.13
422.641	47790.55
423	45955.57
423.36	44674.25
423.719	41069.82
424.078	39029.2
424.437	36744.51
424.796	34844
425.155	33992.04
425.515	31736.74
425.874	30878
426.233	27876.95
426.592	26179.82
426.95	25605.82
427.309	24123.38
427.668	23506.44
428.027	21583.33
428.386	21045.49
428.745	18769.85
429.103	17847.84
429.462	16851.25
429.821	16064.83
430.179	15364.29
430.538	14948.48
430.897	14331.54
431.255	13405.01
431.614	12602.78
431.972	12073.98
432.33	11707.88
432.689	11463.82
433.047	10828.81
433.405	10182.5
433.764	9768.95
434.122	9301.17
434.48	8978.01
434.838	8566.72
435.197	8196.11
435.555	8198.37
435.913	7538.5
436.271	7380.31
436.629	7082.02
436.987	6704.63
437.345	6424.41
437.703	6198.42
438.061	5839.11
438.418	5549.85
438.776	5186.02
439.134	5093.37
439.492	4840.27
439.849	4612.03
440.207	4471.92
440.565	4264.01
440.922	4123.9
441.28	3796.23
441.637	3728.43
441.995	3414.32
442.352	3421.1
442.71	3328.44
443.067	3296.81
443.425	3143.14
443.782	2881
444.139	3025.63
444.496	2799.64
444.854	2729.59
445.211	2539.76
445.568	2469.71
445.925	2447.11
446.282	2340.9
446.639	2241.47
446.996	2302.48
447.353	2302.48
447.71	2144.29
448.067	2164.63
448.424	2071.98
448.781	1988.37
449.137	1909.27
449.494	1841.48
449.851	1773.68
450.208	1714.93
450.564	1658.43
450.921	1488.94
451.278	1475.38
451.634	1554.48
451.991	1448.27
452.347	1504.76
452.704	1470.87
453.06	1414.37
453.416	1231.32
453.773	1256.18
454.129	1283.3
454.485	1226.8
454.841	1242.62
455.198	1143.19
455.554	1102.51
455.91	1125.11
456.266	1118.33
456.622	1048.28
456.978	1093.47
457.334	914.95
457.69	923.99
458.046	933.03
458.402	894.61
458.758	885.57
459.114	822.29
459.469	894.61
459.825	908.17
460.181	862.97
460.536	829.07
460.892	862.97
461.248	781.62
461.603	736.42
461.959	806.48
462.314	734.16
462.67	752.24
463.025	734.16
463.38	679.93
463.736	704.78
464.091	704.78
464.446	695.74
464.802	670.89
465.157	707.04
465.512	668.63
465.867	673.15
466.222	636.99
466.577	616.65
466.932	688.96
467.287	587.27
467.642	679.93
467.997	600.83
468.352	625.69
468.707	650.55
469.062	596.31
469.417	627.95
469.771	607.61
470.126	627.95
470.481	580.49
470.835	535.3
471.19	548.86
471.544	594.05
471.899	539.82
472.253	539.82
472.608	600.83
472.962	553.38
473.317	521.74
473.671	562.41
474.025	569.19
474.38	537.56
474.734	519.48
475.088	467.5
475.442	528.52
475.796	603.09
476.15	560.15
476.504	519.48
476.858	557.89
477.212	614.39
477.566	555.64
477.92	562.41
478.274	483.32
478.628	519.48
478.982	557.89
479.336	458.46
479.689	537.56
480.043	469.76
480.397	440.38
480.75	539.82
481.104	539.82
481.457	460.72
481.811	526.26
482.164	519.48
482.518	517.22
482.871	508.18
483.225	449.42
483.578	415.53
483.931	406.49
484.284	476.54
484.638	453.94
484.991	487.84
485.344	433.6
485.697	460.72
486.05	462.98
486.403	539.82
486.756	510.44
487.109	465.24
487.462	519.48
487.815	510.44
488.168	528.52
488.52	560.15
488.873	478.8
489.226	487.84
489.579	544.34
489.931	453.94
490.284	472.02
490.637	460.72
490.989	478.8
491.342	449.42
491.694	433.6
492.047	406.49
492.399	438.12
492.751	510.44
493.104	533.04
493.456	503.66
493.808	451.68
494.16	487.84
494.513	487.84
494.865	417.79
495.217	444.9
495.569	453.94
495.921	514.96
496.273	456.2
496.625	487.84
496.977	496.88
497.329	490.1
497.68	444.9
498.032	449.42
498.384	483.32
498.736	490.1
499.087	406.49
499.439	503.66
499.791	420.05
500.142	413.27
500.494	528.52
500.845	494.62
501.197	469.76
501.548	501.4
501.9	476.54
502.251	449.42
502.602	456.2
502.954	481.06
503.305	447.16
503.656	447.16
504.007	431.34
504.358	467.5
504.709	487.84
505.061	431.34
505.412	472.02
505.763	571.45
506.113	465.24
506.464	467.5
506.815	533.04
507.166	512.7
507.517	444.9
507.868	487.84
508.218	476.54
508.569	429.08
508.92	521.74
509.27	494.62
509.621	485.58
509.971	519.48
510.322	481.06
510.672	392.93
511.023	505.92
511.373	494.62
511.723	487.84
512.074	417.79
512.424	483.32
512.774	472.02
513.124	487.84
513.475	487.84
513.825	487.84
514.175	487.84
514.525	512.7
514.875	460.72
515.225	444.9
515.575	492.36
515.924	417.79
516.274	483.32
516.624	519.48
516.974	512.7
517.324	492.36
517.673	433.6
518.023	521.74
518.373	496.88
518.722	474.28
519.072	485.58
519.421	571.45
519.771	494.62
520.12	517.22
520.469	582.75
520.819	533.04
521.168	496.88
521.517	467.5
521.867	542.08
522.216	462.98
522.565	483.32
522.914	487.84
523.263	544.34
523.612	467.5
523.961	453.94
524.31	528.52
524.659	544.34
525.008	542.08
525.357	456.2
525.705	573.71
526.054	510.44
526.403	544.34
526.752	510.44
527.1	467.5
527.449	456.2
527.797	548.86
528.146	485.58
528.495	483.32
528.843	438.12
529.191	528.52
529.54	496.88
529.888	465.24
530.236	524
530.585	490.1
530.933	589.53
531.281	499.14
531.629	485.58
531.977	501.4
532.325	566.93
532.673	499.14
533.021	510.44
533.369	453.94
533.717	472.02
534.065	503.66
534.413	453.94
534.761	519.48
535.108	449.42
535.456	458.46
535.804	485.58
536.151	492.36
536.499	521.74
536.847	438.12
537.194	503.66
537.542	544.34
537.889	496.88
538.236	569.19
538.584	603.09
538.931	467.5
539.278	492.36
539.626	456.2
539.973	478.8
540.32	485.58
540.667	496.88
541.014	526.26
541.361	505.92
541.708	462.98
542.055	420.05
542.402	494.62
542.749	460.72
543.096	408.75
543.443	483.32
543.789	465.24
544.136	474.28
544.483	465.24
544.83	512.7
545.176	510.44
545.523	492.36
545.869	413.27
546.216	458.46
546.562	519.48
546.909	458.46
547.255	472.02
547.601	458.46
547.948	447.16
548.294	433.6
548.64	460.72
548.986	485.58
549.332	462.98
549.678	508.18
550.025	478.8
550.371	447.16
550.717	517.22
551.062	469.76
551.408	422.31
551.754	521.74
552.1	424.57
552.446	438.12
552.792	472.02
553.137	490.1
553.483	456.2
553.828	478.8
554.174	478.8
554.52	456.2
554.865	456.2
555.211	404.23
555.556	359.03
555.901	424.57
556.247	406.49
556.592	478.8
556.937	449.42
557.282	462.98
557.628	462.98
557.973	440.38
558.318	433.6
558.663	435.86
559.008	435.86
559.353	424.57
559.698	406.49
560.043	438.12
560.388	533.04
560.732	449.42
561.077	469.76
561.422	456.2
561.766	411.01
562.111	478.8
562.456	431.34
562.8	465.24
563.145	397.45
563.489	444.9
563.834	451.68
564.178	404.23
564.523	401.97
564.867	438.12
565.211	433.6
565.555	442.64
565.9	438.12
566.244	422.31
566.588	388.41
566.932	399.71
567.276	462.98
567.62	413.27
567.964	438.12
568.308	404.23
568.652	465.24
568.996	381.63
569.339	476.54
569.683	420.05
570.027	401.97
570.371	388.41
570.714	444.9
571.058	429.08
571.401	390.67
571.745	372.59
572.088	372.59
572.432	420.05
572.775	372.59
573.118	392.93
573.462	417.79
573.805	440.38
574.148	411.01
574.491	397.45
574.835	431.34
575.178	406.49
575.521	406.49
575.864	408.75
576.207	397.45
576.55	386.15
576.892	372.59
577.235	379.37
577.578	408.75
577.921	433.6
578.264	429.08
578.606	365.81
578.949	377.11
579.292	401.97
579.634	456.2
579.977	354.51
580.319	397.45
580.662	372.59
581.004	370.33
581.346	365.81
581.689	374.85
582.031	347.73
582.373	415.53
582.715	388.41
583.057	331.91
583.4	368.07
583.742	408.75
584.084	429.08
584.426	397.45
584.768	417.79
585.109	401.97
585.451	397.45
585.793	417.79
586.135	354.51
586.477	408.75
586.818	374.85
587.16	406.49
587.502	354.51
587.843	363.55
588.185	379.37
588.526	322.87
588.868	404.23
589.209	420.05
589.55	368.07
589.892	392.93
590.233	316.09
590.574	354.51
590.915	307.05
591.257	365.81
591.598	316.09
591.939	397.45
592.28	336.43
592.621	390.67
592.962	354.51
593.303	352.25
593.643	313.83
593.984	379.37
594.325	404.23
594.666	349.99
595.006	327.39
595.347	386.15
595.688	338.69
596.028	345.47
596.369	361.29
596.709	390.67
597.05	449.42
597.39	374.85
597.73	422.31
598.071	411.01
598.411	386.15
598.751	307.05
599.091	370.33
599.431	361.29
599.772	374.85
600.112	368.07
600.452	390.67
600.792	386.15
601.132	340.95
601.471	345.47
601.811	388.41
602.151	336.43
602.491	331.91
602.831	318.35
603.17	413.27
603.51	365.81
603.849	338.69
604.189	336.43
604.528	334.17
604.868	347.73
605.207	420.05
605.547	343.21
605.886	359.03
606.225	352.25
606.565	327.39
606.904	311.57
607.243	372.59
607.582	343.21
607.921	356.77
608.26	413.27
608.599	295.75
608.938	343.21
609.277	331.91
609.616	334.17
609.955	311.57
610.293	336.43
610.632	411.01
610.971	325.13
611.309	273.16
611.648	334.17
611.987	363.55
612.325	347.73
612.664	307.05
613.002	368.07
613.34	343.21
613.679	356.77
614.017	288.98
614.355	286.72
614.694	327.39
615.032	356.77
615.37	325.13
615.708	291.24
616.046	374.85
616.384	322.87
616.722	320.61
617.06	365.81
617.398	318.35
617.736	363.55
618.073	340.95
618.411	307.05
618.749	293.5
619.086	304.79
619.424	320.61
619.762	318.35
620.099	361.29
620.437	368.07
620.774	345.47
621.112	345.47
621.449	336.43
621.786	338.69
622.123	322.87
622.461	309.31
622.798	304.79
623.135	431.34
623.472	343.21
623.809	372.59
624.146	377.11
624.483	381.63
624.82	359.03
625.157	352.25
625.494	320.61
625.83	318.35
626.167	440.38
626.504	325.13
626.841	340.95
627.177	322.87
627.514	361.29
627.85	368.07
628.187	338.69
628.523	329.65
628.86	361.29
629.196	354.51
629.532	318.35
629.869	293.5
630.205	340.95
630.541	361.29
630.877	300.27
631.213	307.05
631.549	377.11
631.885	340.95
632.221	399.71
632.557	340.95
632.893	320.61
633.229	288.98
633.564	338.69
633.9	349.99
634.236	361.29
634.572	309.31
634.907	311.57
635.243	352.25
635.578	356.77
635.914	218.92
636.249	279.94
636.585	284.46
636.92	307.05
637.255	347.73
637.59	286.72
637.926	309.31
638.261	338.69
638.596	397.45
638.931	316.09
639.266	379.37
639.601	250.56
639.936	325.13
640.271	322.87
640.606	318.35
640.94	313.83
641.275	270.9
641.61	352.25
641.945	300.27
642.279	277.68
642.614	343.21
642.948	309.31
643.283	304.79
643.617	372.59
643.952	365.81
644.286	316.09
644.62	343.21
644.955	354.51
645.289	329.65
645.623	313.83
645.957	411.01
646.291	388.41
646.625	320.61
646.959	336.43
647.293	304.79
647.627	334.17
647.961	336.43
648.295	309.31
648.629	307.05
648.962	331.91
649.296	374.85
649.63	316.09
649.963	347.73
650.297	329.65
650.63	368.07
650.964	338.69
651.297	304.79
651.631	307.05
651.964	282.2
652.297	279.94
652.631	345.47
652.964	302.53
653.297	246.04
653.63	334.17
653.963	361.29
654.296	291.24
654.629	295.75
654.962	354.51
655.295	304.79
655.628	334.17
655.961	374.85
656.293	331.91
656.626	307.05
656.959	237
657.291	349.99
657.624	336.43
657.956	293.5
658.289	270.9
658.621	345.47
658.954	340.95
659.286	349.99
659.618	327.39
659.95	298.01
660.283	286.72
660.615	302.53
660.947	282.2
661.279	307.05
661.611	349.99
661.943	345.47
662.275	334.17
662.607	266.38
662.939	334.17
663.27	318.35
663.602	284.46
663.934	343.21
664.266	257.34
664.597	295.75
664.929	388.41
665.26	286.72
665.592	304.79
665.923	313.83
666.255	298.01
666.586	255.08
666.917	288.98
667.248	293.5
667.58	298.01
667.911	343.21
668.242	352.25
668.573	338.69
668.904	356.77
669.235	286.72
669.566	275.42
669.897	275.42
670.228	237
670.558	331.91
670.889	261.86
671.22	266.38
671.551	345.47
671.881	268.64
672.212	298.01
672.542	325.13
672.873	279.94
673.203	313.83
673.533	329.65
673.864	261.86
674.194	349.99
674.524	347.73
674.855	347.73
675.185	286.72
675.515	293.5
675.845	273.16
676.175	270.9
676.505	320.61
676.835	307.05
677.165	309.31
677.494	295.75
677.824	259.6
678.154	313.83
678.484	322.87
678.813	322.87
679.143	349.99
679.472	318.35
679.802	230.22
680.131	270.9
680.461	273.16
680.79	320.61
681.119	291.24
681.449	347.73
681.778	325.13
682.107	293.5
682.436	264.12
682.765	279.94
683.094	291.24
683.423	223.44
683.752	279.94
684.081	395.19
684.41	279.94
684.739	252.82
685.067	313.83
685.396	232.48
685.725	295.75
686.053	293.5
686.382	325.13
686.711	241.52
687.039	277.68
687.367	307.05
687.696	237
688.024	327.39
688.352	298.01
688.681	343.21
689.009	279.94
689.337	295.75
689.665	264.12
689.993	225.7
690.321	311.57
690.649	302.53
690.977	273.16
691.305	279.94
691.633	316.09
691.961	293.5
692.288	293.5
692.616	205.36
692.944	313.83
693.271	316.09
693.599	268.64
693.926	381.63
694.254	286.72
694.581	230.22
694.908	300.27
695.236	252.82
695.563	338.69
695.89	275.42
696.217	277.68
696.544	255.08
696.871	295.75
697.198	302.53
697.525	304.79
697.852	307.05
698.179	234.74
698.506	320.61
698.833	325.13
699.16	322.87
699.486	286.72
699.813	288.98
700.139	250.56
700.466	286.72
700.793	284.46
701.119	279.94
701.445	322.87
701.772	320.61
702.098	291.24
702.424	234.74
702.75	361.29
703.077	300.27
703.403	307.05
703.729	338.69
704.055	298.01
704.381	248.3
704.707	268.64
705.033	295.75
705.358	270.9
705.684	304.79
706.01	304.79
706.336	304.79
706.661	329.65
706.987	288.98
707.312	320.61
707.638	282.2
707.963	275.42
708.289	336.43
708.614	334.17
708.939	327.39
709.265	261.86
709.59	291.24
709.915	309.31
710.24	291.24
710.565	329.65
710.89	261.86
711.215	214.4
711.54	266.38
711.865	279.94
712.19	302.53
712.515	275.42
712.839	252.82
713.164	313.83
713.489	230.22
713.813	255.08
714.138	361.29
714.462	325.13
714.787	288.98
715.111	307.05
715.435	316.09
715.76	293.5
716.084	313.83
716.408	298.01
716.732	293.5
717.056	325.13
717.381	329.65
717.705	255.08
718.028	266.38
718.352	257.34
718.676	302.53
719	304.79
719.324	295.75
719.648	331.91
719.971	316.09
720.295	282.2
720.618	322.87
720.942	295.75
721.265	291.24
721.589	307.05
721.912	284.46
722.236	320.61
722.559	273.16
722.882	284.46
723.205	241.52
723.528	252.82
723.851	309.31
724.174	273.16
724.497	313.83
724.82	327.39
725.143	250.56
725.466	322.87
725.789	325.13
726.112	273.16
726.434	279.94
726.757	273.16
727.08	275.42
727.402	266.38
727.725	255.08
728.047	298.01
728.37	232.48
728.692	302.53
729.014	286.72
729.336	252.82
729.659	325.13
729.981	277.68
730.303	250.56
730.625	325.13
730.947	300.27
731.269	313.83
731.591	273.16
731.913	230.22
732.235	311.57
732.556	282.2
732.878	284.46
733.2	304.79
733.521	334.17
733.843	302.53
734.164	316.09
734.486	356.77
734.807	261.86
735.129	246.04
735.45	216.66
735.771	318.35
736.092	329.65
736.414	304.79
736.735	264.12
737.056	309.31
737.377	313.83
737.698	175.98
738.019	270.9
738.34	200.84
738.66	243.78
738.981	243.78
739.302	327.39
739.623	343.21
739.943	257.34
740.264	309.31
740.584	300.27
740.905	270.9
741.225	359.03
741.546	241.52
741.866	268.64
742.186	230.22
742.507	293.5
742.827	284.46
743.147	316.09
743.467	286.72
743.787	313.83
744.107	316.09
744.427	266.38
744.747	298.01
745.067	279.94
745.386	259.6
745.706	316.09
746.026	359.03
746.346	203.1
746.665	325.13
746.985	336.43
747.304	232.48
747.624	307.05
747.943	304.79
748.262	282.2
748.582	288.98
748.901	261.86
749.22	316.09
749.539	264.12
749.858	225.7
750.177	298.01
750.496	307.05
750.815	282.2
751.134	318.35
751.453	214.4
751.772	307.05
752.09	252.82
752.409	309.31
752.728	291.24
753.046	286.72
753.365	286.72
753.683	268.64
754.002	313.83
754.32	268.64
754.639	300.27
754.957	320.61
755.275	205.36
755.593	293.5
755.911	307.05
756.23	365.81
756.548	241.52
756.866	338.69
757.183	293.5
757.501	255.08
757.819	316.09
758.137	214.4
758.455	252.82
758.772	257.34
759.09	270.9
759.408	266.38
759.725	298.01
760.043	343.21
760.36	252.82
760.677	225.7
760.995	313.83
761.312	293.5
761.629	196.32
761.946	282.2
762.264	307.05
762.581	325.13
762.898	277.68
763.215	268.64
763.532	194.06
763.848	277.68
764.165	302.53
764.482	325.13
764.799	302.53
765.115	214.4
765.432	255.08
765.749	273.16
766.065	298.01
766.382	302.53
766.698	307.05
767.014	259.6
767.331	277.68
767.647	318.35
767.963	275.42
768.279	291.24
768.595	291.24
768.911	279.94
769.227	252.82
769.543	354.51
769.859	266.38
770.175	223.44
770.491	295.75
770.807	377.11
771.122	318.35
771.438	255.08
771.754	338.69
772.069	273.16
772.385	279.94
772.7	340.95
773.016	313.83
773.331	334.17
773.646	248.3
773.961	293.5
774.277	270.9
774.592	336.43
774.907	311.57
775.222	370.33
775.537	300.27
775.852	264.12
776.167	284.46
776.482	252.82
776.796	298.01
777.111	187.28
777.426	284.46
777.74	311.57
778.055	221.18
778.369	288.98
778.684	243.78
778.998	307.05
779.313	279.94
779.627	307.05
779.941	311.57
780.255	178.24
780.57	252.82
780.884	284.46
781.198	200.84
781.512	356.77
781.826	322.87
782.14	302.53
782.453	268.64
782.767	291.24
783.081	286.72
783.395	291.24
783.708	239.26
784.022	279.94
784.335	268.64
784.649	318.35
784.962	277.68
785.276	320.61
785.589	216.66
785.902	288.98
786.216	313.83
786.529	279.94
786.842	282.2
787.155	293.5
787.468	277.68
787.781	295.75
788.094	343.21
788.407	282.2
788.72	338.69
789.032	322.87
789.345	293.5
789.658	329.65
789.97	336.43
790.283	302.53
790.595	288.98
790.908	331.91
791.22	246.04
791.532	320.61
791.845	221.18
792.157	252.82
792.469	293.5
792.781	334.17
793.093	268.64
793.405	237
793.717	284.46
794.029	365.81
794.341	309.31
794.653	295.75
794.965	275.42
795.276	318.35
795.588	273.16
795.9	295.75
796.211	255.08
796.523	257.34
796.834	237
797.146	284.46
797.457	331.91
797.768	295.75
798.08	286.72
798.391	288.98
798.702	322.87
799.013	309.31
799.324	246.04
799.635	277.68
799.946	318.35
800.257	284.46
800.568	207.62
800.878	293.5
801.189	255.08
801.5	311.57
801.81	275.42
802.121	291.24
802.431	250.56
802.742	284.46
803.052	352.25
803.363	309.31
803.673	218.92
803.983	286.72
804.293	293.5
804.603	288.98
804.913	241.52
805.224	279.94
805.533	277.68
805.843	234.74
806.153	302.53
806.463	257.34
806.773	309.31
807.083	313.83
807.392	225.7
807.702	277.68
808.011	264.12
808.321	363.55
808.63	255.08
808.94	298.01
809.249	311.57
809.558	273.16
809.868	259.6
810.177	273.16
810.486	257.34
810.795	268.64
811.104	322.87
811.413	343.21
811.722	311.57
812.031	277.68
812.339	347.73
812.648	266.38
812.957	320.61
813.266	313.83
813.574	302.53
813.883	313.83
814.191	259.6
814.5	286.72
814.808	286.72
815.116	320.61
815.424	334.17
815.733	298.01
816.041	311.57
816.349	279.94
816.657	275.42
816.965	284.46
817.273	288.98
817.581	268.64
817.889	282.2
818.196	298.01
818.504	252.82
818.812	295.75
819.12	246.04
819.427	343.21
819.735	243.78
820.042	368.07
820.349	300.27
820.657	354.51
820.964	327.39
821.271	316.09
821.579	255.08
821.886	273.16
822.193	300.27
822.5	311.57
822.807	349.99
823.114	243.78
823.421	284.46
823.727	309.31
824.034	212.14
824.341	266.38
824.648	361.29
824.954	286.72
825.261	293.5
825.567	255.08
825.874	216.66
826.18	241.52
826.486	232.48
826.793	243.78
827.099	302.53
827.405	264.12
827.711	302.53
828.017	248.3
828.323	284.46
828.629	372.59
828.935	284.46
829.241	311.57
829.547	264.12
829.852	279.94
830.158	264.12
830.464	307.05
830.769	212.14
831.075	302.53
831.38	295.75
831.686	295.75
831.991	259.6
832.296	309.31
832.601	345.47
832.907	288.98
833.212	273.16
833.517	282.2
833.822	320.61
834.127	293.5
834.432	300.27
834.737	232.48
835.041	255.08
835.346	252.82
835.651	316.09
835.956	320.61
836.26	282.2
836.565	345.47
836.869	349.99
837.174	279.94
837.478	279.94
837.782	282.2
838.087	295.75
838.391	307.05
838.695	279.94
838.999	325.13
839.303	270.9
839.607	268.64
839.911	264.12
840.215	318.35
840.519	230.22
840.822	302.53
841.126	320.61
841.43	237
841.733	288.98
842.037	307.05
842.34	320.61
842.644	259.6
842.947	284.46
843.251	275.42
843.554	307.05
843.857	275.42
844.16	295.75
844.463	311.57
844.766	340.95
845.069	322.87
845.372	266.38
845.675	241.52
845.978	295.75
846.281	241.52
846.583	304.79
846.886	221.18
847.189	264.12
847.491	239.26
847.794	243.78
848.096	338.69
848.399	313.83
848.701	300.27
849.003	291.24
849.305	275.42
849.608	279.94
849.91	311.57
850.212	322.87
850.514	356.77
850.816	279.94
851.118	273.16
851.419	300.27
851.721	307.05
852.023	284.46
852.325	259.6
852.626	282.2
852.928	329.65
853.229	279.94
853.531	288.98
853.832	295.75
854.133	313.83
854.435	304.79
854.736	286.72
855.037	318.35
855.338	270.9
855.639	277.68
855.94	257.34
856.241	309.31
856.542	288.98
856.843	252.82
857.144	266.38
857.444	216.66
857.745	241.52
858.046	293.5
858.346	293.5
858.647	284.46
858.947	266.38
859.247	264.12
859.548	246.04
859.848	284.46
860.148	304.79
860.448	270.9
860.749	298.01
861.049	277.68
861.349	214.4
861.648	275.42
861.948	279.94
862.248	257.34
862.548	325.13
862.848	248.3
863.147	284.46
863.447	334.17
863.746	302.53
864.046	282.2
864.345	252.82
864.645	284.46
864.944	266.38
865.243	313.83
865.542	318.35
865.842	316.09
866.141	227.96
866.44	273.16
866.739	273.16
867.038	282.2
867.337	311.57
867.635	279.94
867.934	327.39
868.233	336.43
868.531	246.04
868.83	270.9
869.129	279.94
869.427	252.82
869.725	282.2
870.024	241.52
870.322	252.82
870.62	259.6
870.918	288.98
871.217	343.21
871.515	320.61
871.813	275.42
872.111	338.69
872.409	284.46
872.706	313.83
873.004	331.91
873.302	243.78
873.6	282.2
873.897	307.05
874.195	288.98
874.492	295.75
874.79	270.9
875.087	293.5
875.384	288.98
875.682	343.21
875.979	293.5
876.276	277.68
876.573	232.48
876.87	232.48
877.167	232.48
