300.47	2617.00
301.26	2617.00
302.04	2616.00
302.82	2611.00
303.60	2614.00
304.38	2617.00
305.17	2616.00
305.95	2611.00
306.73	2611.00
307.51	2614.00
308.29	2614.00
309.08	2615.00
309.86	2609.00
310.64	2616.00
311.42	2618.00
312.20	2615.00
312.98	2614.00
313.76	2611.00
314.55	2611.00
315.33	2613.00
316.11	2615.00
316.89	2618.00
317.67	2612.00
318.45	2612.00
319.23	2612.00
320.01	2618.00
320.79	2618.00
321.57	2617.00
322.35	2619.00
323.13	2616.00
323.91	2619.00
324.69	2619.00
325.47	2615.00
326.25	2620.00
327.03	2621.00
327.81	2615.00
328.59	2614.00
329.37	2618.00
330.15	2622.00
330.93	2624.00
331.71	2623.00
332.49	2618.00
333.27	2621.00
334.05	2624.00
334.83	2625.00
335.61	2627.00
336.39	2625.00
337.17	2622.00
337.95	2623.00
338.73	2630.00
339.51	2622.00
340.29	2627.00
341.07	2630.00
341.84	2634.00
342.62	2634.00
343.40	2635.00
344.18	2637.00
344.96	2637.00
345.74	2646.00
346.52	2643.00
347.29	2646.00
348.07	2648.00
348.85	2649.00
349.63	2644.00
350.41	2656.00
351.18	2664.00
351.96	2665.00
352.74	2667.00
353.52	2671.00
354.30	2670.00
355.07	2675.00
355.85	2676.00
356.63	2684.00
357.41	2683.00
358.18	2697.00
358.96	2702.00
359.74	2705.00
360.52	2710.00
361.29	2711.00
362.07	2720.00
362.85	2722.00
363.62	2729.00
364.40	2740.00
365.18	2741.00
365.95	2752.00
366.73	2760.00
367.51	2769.00
368.28	2773.00
369.06	2777.00
369.84	2781.00
370.61	2797.00
371.39	2805.00
372.17	2816.00
372.94	2823.00
373.72	2831.00
374.49	2838.00
375.27	2855.00
376.05	2867.00
376.82	2877.00
377.60	2892.00
378.37	2907.00
379.15	2919.00
379.92	2926.00
380.70	2950.00
381.47	2962.00
382.25	2980.00
383.02	2990.00
383.80	2995.00
384.58	3017.00
385.35	3037.00
386.13	3049.00
386.90	3069.00
387.67	3093.00
388.45	3101.00
389.22	3118.00
390.00	3137.00
390.77	3153.00
391.55	3178.00
392.32	3203.00
393.10	3219.00
393.87	3242.00
394.65	3256.00
395.42	3280.00
396.19	3292.00
396.97	3320.00
397.74	3341.00
398.52	3372.00
399.29	3385.00
400.06	3401.00
400.84	3443.00
401.61	3454.00
402.38	3474.00
403.16	3509.00
403.93	3532.00
404.70	3567.00
405.48	3569.00
406.25	3593.00
407.02	3611.00
407.80	3651.00
408.57	3676.00
409.34	3706.00
410.12	3717.00
410.89	3759.00
411.66	3793.00
412.43	3810.00
413.21	3832.00
413.98	3860.00
414.75	3884.00
415.52	3916.00
416.30	3944.00
417.07	3980.00
417.84	4011.00
418.61	4036.00
419.39	4069.00
420.16	4089.00
420.93	4136.00
421.70	4155.00
422.47	4179.00
423.24	4244.00
424.02	4253.00
424.79	4299.00
425.56	4334.00
426.33	4379.00
427.10	4395.00
427.87	4436.00
428.64	4481.00
429.42	4539.00
430.19	4567.00
430.96	4602.00
431.73	4642.00
432.50	4694.00
433.27	4742.00
434.04	4781.00
434.81	4836.00
435.58	4901.00
436.35	4918.00
437.12	4984.00
437.89	5024.00
438.67	5095.00
439.44	5140.00
440.21	5188.00
440.98	5260.00
441.75	5298.00
442.52	5347.00
443.29	5397.00
444.06	5489.00
444.83	5517.00
445.60	5607.00
446.37	5656.00
447.13	5702.00
447.90	5776.00
448.67	5858.00
449.44	5913.00
450.21	6002.00
450.98	6050.00
451.75	6105.00
452.52	6173.00
453.29	6258.00
454.06	6357.00
454.83	6416.00
455.60	6521.00
456.37	6579.00
457.13	6667.00
457.90	6743.00
458.67	6857.00
459.44	6926.00
460.21	7012.00
460.98	7105.00
461.75	7157.00
462.51	7280.00
463.28	7395.00
464.05	7423.00
464.82	7571.00
465.59	7656.00
466.35	7753.00
467.12	7821.00
467.89	7944.00
468.66	8029.00
469.43	8145.00
470.19	8253.00
470.96	8342.00
471.73	8435.00
472.50	8579.00
473.26	8667.00
474.03	8753.00
474.80	8859.00
475.56	8971.00
476.33	9076.00
477.10	9188.00
477.87	9306.00
478.63	9410.00
479.40	9546.00
480.17	9699.00
480.93	9794.00
481.70	9882.00
482.47	10004.00
483.23	10104.00
484.00	10253.00
484.76	10392.00
485.53	10520.00
486.30	10665.00
487.06	10817.00
487.83	10967.00
488.60	11112.00
489.36	11199.00
490.13	11287.00
490.89	11404.00
491.66	11564.00
492.42	11690.00
493.19	11908.00
493.96	11987.00
494.72	12087.00
495.49	12242.00
496.25	12421.00
497.02	12583.00
497.78	12726.00
498.55	12864.00
499.31	12978.00
500.08	13128.00
500.84	13266.00
501.61	13383.00
502.37	13557.00
503.14	13704.00
503.90	13831.00
504.67	14026.00
505.43	14207.00
506.20	14310.00
506.96	14486.00
507.72	14648.00
508.49	14839.00
509.25	14960.00
510.02	15204.00
510.78	15360.00
511.54	15541.00
512.31	15722.00
513.07	15839.00
513.84	15976.00
514.60	16144.00
515.36	16360.00
516.13	16488.00
516.89	16613.00
517.65	16667.00
518.42	16881.00
519.18	17015.00
519.94	17212.00
520.71	17430.00
521.47	17565.00
522.23	17695.00
523.00	17900.00
523.76	18102.00
524.52	18291.00
525.28	18486.00
526.05	18568.00
526.81	18717.00
527.57	18980.00
528.33	19104.00
529.10	19331.00
529.86	19495.00
530.62	19675.00
531.38	19861.00
532.15	20015.00
532.91	20230.00
533.67	20351.00
534.43	20504.00
535.19	20669.00
535.96	20941.00
536.72	21038.00
537.48	21163.00
538.24	21404.00
539.00	21643.00
539.76	21811.00
540.53	22021.00
541.29	22280.00
542.05	22423.00
542.81	22563.00
543.57	22794.00
544.33	23031.00
545.09	23277.00
545.85	23388.00
546.61	23554.00
547.38	23693.00
548.14	23786.00
548.90	24027.00
549.66	24252.00
550.42	24489.00
551.18	24683.00
551.94	24795.00
552.70	24953.00
553.46	25189.00
554.22	25388.00
554.98	25642.00
555.74	25739.00
556.50	25882.00
557.26	26163.00
558.02	26437.00
558.78	26621.00
559.54	26733.00
560.30	26917.00
561.06	27052.00
561.82	27306.00
562.58	27548.00
563.34	27800.00
564.10	27913.00
564.86	28108.00
565.61	28278.00
566.37	28537.00
567.13	28804.00
567.89	28959.00
568.65	29011.00
569.41	29271.00
570.17	29381.00
570.93	29634.00
571.69	29814.00
572.44	29989.00
573.20	30208.00
573.96	30418.00
574.72	30585.00
575.48	30783.00
576.24	30967.00
576.99	31160.00
577.75	31340.00
578.51	31549.00
579.27	31835.00
580.03	31951.00
580.78	32182.00
581.54	32506.00
582.30	32644.00
583.06	32762.00
583.82	32982.00
584.57	33218.00
585.33	33368.00
586.09	33607.00
586.84	33739.00
587.60	33799.00
588.36	33891.00
589.12	34034.00
589.87	34368.00
590.63	34545.00
591.39	34728.00
592.14	34808.00
592.90	34979.00
593.66	35259.00
594.41	35493.00
595.17	35671.00
595.93	35819.00
596.68	35863.00
597.44	36021.00
598.20	36217.00
598.95	36636.00
599.71	36802.00
600.46	36854.00
601.22	37110.00
601.98	37186.00
602.73	37556.00
603.49	37949.00
604.24	38141.00
605.00	38181.00
605.76	38371.00
606.51	38540.00
607.27	38727.00
608.02	39009.00
608.78	39255.00
609.53	39416.00
610.29	39603.00
611.04	39850.00
611.80	40149.00
612.55	40413.00
613.31	40681.00
614.06	40818.00
614.82	41045.00
615.57	41280.00
616.33	41502.00
617.08	41668.00
617.84	41795.00
618.59	41908.00
619.35	41905.00
620.10	41926.00
620.85	41926.00
621.61	41925.00
622.36	41986.00
623.12	41996.00
623.87	42125.00
624.62	42146.00
625.38	42302.00
626.13	42425.00
626.89	42599.00
627.64	42862.00
628.39	42964.00
629.15	42935.00
629.90	43048.00
630.65	43212.00
631.41	43169.00
632.16	43131.00
632.91	43183.00
633.67	43151.00
634.42	43183.00
635.17	43323.00
635.92	43666.00
636.68	44179.00
637.43	44706.00
638.18	45219.00
638.94	45581.00
639.69	45957.00
640.44	46387.00
641.19	46829.00
641.95	47178.00
642.70	47544.00
643.45	47814.00
644.20	48069.00
644.95	48124.00
645.71	48275.00
646.46	48473.00
647.21	48573.00
647.96	48690.00
648.71	48720.00
649.47	48862.00
650.22	48863.00
650.97	48997.00
651.72	49158.00
652.47	49267.00
653.22	49327.00
653.97	49574.00
654.73	49699.00
655.48	49844.00
656.23	50054.00
656.98	50375.00
657.73	50642.00
658.48	50681.00
659.23	50812.00
659.98	50888.00
660.73	50804.00
661.48	50981.00
662.23	51145.00
662.99	50969.00
663.74	51026.00
664.49	51319.00
665.24	51771.00
665.99	52178.00
666.74	52330.00
667.49	52401.00
668.24	52402.00
668.99	52585.00
669.74	52707.00
670.49	52943.00
671.24	52958.00
671.99	53122.00
672.74	53289.00
673.48	53389.00
674.23	53548.00
674.98	53703.00
675.73	53751.00
676.48	53825.00
677.23	53951.00
677.98	54104.00
678.73	54181.00
679.48	54149.00
680.23	54372.00
680.98	54358.00
681.73	54298.00
682.47	54278.00
683.22	54339.00
683.97	54317.00
684.72	54467.00
685.47	54515.00
686.22	54692.00
686.97	54865.00
687.71	55183.00
688.46	55361.00
689.21	55418.00
689.96	55409.00
690.71	55576.00
691.45	55502.00
692.20	55605.00
692.95	55556.00
693.70	55596.00
694.44	55666.00
695.19	55745.00
695.94	55884.00
696.69	55982.00
697.43	55945.00
698.18	56051.00
698.93	55983.00
699.68	56078.00
700.42	56165.00
701.17	56160.00
701.92	56168.00
702.66	56314.00
703.41	56339.00
704.16	56338.00
704.90	56466.00
705.65	56410.00
706.40	56501.00
707.14	56560.00
707.89	56566.00
708.64	56515.00
709.38	56714.00
710.13	56752.00
710.88	56807.00
711.62	56812.00
712.37	56933.00
713.11	57006.00
713.86	56968.00
714.61	56961.00
715.35	56849.00
716.10	56625.00
716.84	56438.00
717.59	56252.00
718.33	56022.00
719.08	55902.00
719.83	55737.00
720.57	55707.00
721.32	55741.00
722.06	55742.00
722.81	55666.00
723.55	55713.00
724.30	55908.00
725.04	55956.00
725.79	55963.00
726.53	56002.00
727.28	56002.00
728.02	55918.00
728.76	55980.00
729.51	56112.00
730.25	56084.00
731.00	56091.00
731.74	56066.00
732.49	56116.00
733.23	56038.00
733.97	55822.00
734.72	55587.00
735.46	55622.00
736.21	55568.00
736.95	55549.00
737.69	55720.00
738.44	55843.00
739.18	55857.00
739.92	55904.00
740.67	56022.00
741.41	56192.00
742.15	56361.00
742.90	56442.00
743.64	56519.00
744.38	56504.00
745.13	56463.00
745.87	56452.00
746.61	56563.00
747.36	56632.00
748.10	56672.00
748.84	56523.00
749.58	56459.00
750.33	56334.00
751.07	56238.00
751.81	56131.00
752.55	56029.00
753.30	55889.00
754.04	55760.00
754.78	55455.00
755.52	55203.00
756.27	55153.00
757.01	55044.00
757.75	55006.00
758.49	55049.00
759.23	55159.00
759.97	55054.00
760.72	55182.00
761.46	55151.00
762.20	55115.00
762.94	55172.00
763.68	55105.00
764.42	55133.00
765.16	55005.00
765.91	55012.00
766.65	54936.00
767.39	54759.00
768.13	54711.00
768.87	54811.00
769.61	54643.00
770.35	54604.00
771.09	54566.00
771.83	54481.00
772.57	54410.00
773.31	54419.00
774.05	54381.00
774.80	54392.00
775.54	54306.00
776.28	54063.00
777.02	53981.00
777.76	53897.00
778.50	53747.00
779.24	53572.00
779.98	53485.00
780.72	53361.00
781.46	53394.00
782.20	53264.00
782.93	53314.00
783.67	53174.00
784.41	52989.00
785.15	52957.00
785.89	52792.00
786.63	52613.00
787.37	52327.00
788.11	52245.00
788.85	52141.00
789.59	52102.00
790.33	52079.00
791.07	52183.00
791.81	51984.00
792.54	51865.00
793.28	51672.00
794.02	51476.00
794.76	51108.00
795.50	50888.00
796.24	50772.00
796.97	50376.00
797.71	50206.00
798.45	50035.00
799.19	49845.00
799.93	49769.00
800.67	49614.00
801.40	49613.00
802.14	49614.00
802.88	49727.00
803.62	49719.00
804.35	49864.00
805.09	49726.00
805.83	49685.00
806.57	49696.00
807.30	49682.00
808.04	49843.00
808.78	49649.00
809.52	49324.00
810.25	49108.00
810.99	49031.00
811.73	48876.00
812.46	48769.00
813.20	48597.00
813.94	48523.00
814.68	48472.00
815.41	48410.00
816.15	48555.00
816.88	48721.00
817.62	48659.00
818.36	48454.00
819.09	48328.00
819.83	48019.00
820.57	47929.00
821.30	47803.00
822.04	47661.00
822.77	47547.00
823.51	47332.00
824.25	47221.00
824.98	47140.00
825.72	47129.00
826.45	47070.00
827.19	46847.00
827.92	46577.00
828.66	46358.00
829.40	46076.00
830.13	46091.00
830.87	46070.00
831.60	45968.00
832.34	45933.00
833.07	45861.00
833.81	45827.00
834.54	45894.00
835.28	45972.00
836.01	45921.00
836.75	45737.00
837.48	45462.00
838.22	45256.00
838.95	45138.00
839.68	45159.00
840.42	45198.00
841.15	45255.00
841.89	44949.00
842.62	44804.00
843.36	44608.00
844.09	44630.00
844.82	44639.00
845.56	44653.00
846.29	44580.00
847.02	44394.00
847.76	44260.00
848.49	44383.00
849.23	44536.00
849.96	44784.00
850.69	44852.00
851.43	44600.00
852.16	44411.00
852.89	43984.00
853.63	43850.00
854.36	43684.00
855.09	43659.00
855.82	43518.00
856.56	43414.00
857.29	43155.00
858.02	43085.00
858.76	43103.00
859.49	43151.00
860.22	43042.00
860.95	42956.00
861.69	42870.00
862.42	42623.00
863.15	42540.00
863.88	42486.00
864.61	42613.00
865.35	42476.00
866.08	42554.00
866.81	42276.00
867.54	42076.00
868.27	41848.00
869.01	41875.00
869.74	41800.00
870.47	41808.00
871.20	41659.00
871.93	41453.00
872.66	41070.00
873.40	40981.00
874.13	40851.00
874.86	40677.00
875.59	40608.00
876.32	40433.00
877.05	40329.00
877.78	40333.00
878.51	40093.00
879.24	39997.00
879.97	39840.00
880.71	39701.00
881.44	39616.00
882.17	39572.00
882.90	39323.00
883.63	39147.00
884.36	39164.00
885.09	39124.00
885.82	39252.00
886.55	39343.00
887.28	39292.00
888.01	39266.00
888.74	39080.00
889.47	38798.00
890.20	38546.00
890.93	38311.00
891.66	38131.00
892.39	38050.00
893.12	38084.00
893.85	38096.00
894.57	38075.00
895.30	37964.00
896.03	38104.00
896.76	38046.00
897.49	37904.00
898.22	37798.00
898.95	37571.00
899.68	37365.00
900.41	37139.00
901.14	36916.00
901.86	36859.00
902.59	36758.00
903.32	36696.00
904.05	36651.00
904.78	36498.00
905.51	36359.00
906.24	36256.00
906.96	36140.00
907.69	35998.00
908.42	35769.00
909.15	35693.00
909.88	35469.00
910.60	35331.00
911.33	35212.00
912.06	35154.00
912.79	34927.00
913.52	34779.00
914.24	34659.00
914.97	34603.00
915.70	34480.00
916.42	34369.00
917.15	34192.00
917.88	33954.00
918.61	33782.00
919.33	33497.00
920.06	33232.00
920.79	33062.00
921.51	32928.00
922.24	32778.00
922.97	32684.00
923.69	32553.00
924.42	32416.00
925.15	32379.00
925.87	32121.00
926.60	32008.00
927.33	31642.00
928.05	31323.00
928.78	31014.00
929.51	30728.00
930.23	30393.00
930.96	29990.00
931.68	29592.00
932.41	29275.00
933.14	28980.00
933.86	28647.00
934.59	28171.00
935.31	27875.00
936.04	27368.00
936.76	26909.00
937.49	26481.00
938.21	26008.00
938.94	25495.00
939.66	25017.00
940.39	24647.00
941.11	24301.00
941.84	23917.00
942.56	23530.00
943.29	23350.00
944.01	23123.00
944.74	22941.00
945.46	22912.00
946.19	22910.00
946.91	22998.00
947.64	22988.00
948.36	23042.00
949.09	23153.00
949.81	23291.00
950.53	23420.00
951.26	23510.00
951.98	23534.00
952.71	23540.00
953.43	23575.00
954.15	23686.00
954.88	23853.00
955.60	23887.00
956.33	23903.00
957.05	23915.00
957.77	23975.00
958.50	24124.00
959.22	24044.00
959.94	24072.00
960.67	23987.00
961.39	23971.00
962.11	23919.00
962.84	23949.00
963.56	23978.00
964.28	23912.00
965.00	23782.00
965.73	23589.00
966.45	23471.00
967.17	23297.00
967.89	23180.00
968.62	23109.00
969.34	22861.00
970.06	22694.00
970.78	22581.00
971.51	22455.00
972.23	22284.00
972.95	22133.00
973.67	22020.00
974.40	21757.00
975.12	21611.00
975.84	21536.00
976.56	21371.00
977.28	21151.00
978.00	21069.00
978.73	21022.00
979.45	20888.00
980.17	20864.00
980.89	20830.00
981.61	20773.00
982.33	20657.00
983.05	20635.00
983.77	20562.00
984.50	20466.00
985.22	20355.00
985.94	20307.00
986.66	20196.00
987.38	20106.00
988.10	20004.00
988.82	19988.00
989.54	19910.00
990.26	19747.00
990.98	19667.00
991.70	19517.00
992.42	19411.00
993.14	19271.00
993.86	19169.00
994.58	18991.00
995.30	18850.00
996.02	18721.00
996.74	18642.00
997.46	18552.00
998.18	18457.00
998.90	18339.00
999.62	18210.00
1000.34	18105.00
1001.06	18085.00
1001.78	17922.00
1002.50	17866.00
1003.22	17664.00
1003.94	17519.00
1004.66	17365.00
1005.38	17259.00
1006.09	17060.00
1006.81	16833.00
1007.53	16644.00
1008.25	16513.00
1008.97	16405.00
1009.69	16325.00
1010.41	16208.00
1011.13	16035.00
1011.84	15891.00
1012.56	15740.00
1013.28	15595.00
1014.00	15464.00
1014.72	15299.00
1015.44	15157.00
1016.15	14941.00
1016.87	14669.00
1017.59	14531.00
1018.31	14373.00
1019.03	14275.00
1019.74	14165.00
1020.46	14109.00
1021.18	13991.00
1021.90	13889.00
1022.61	13783.00
1023.33	13633.00
1024.05	13517.00
1024.76	13335.00
1025.48	13140.00
1026.20	12921.00
1026.92	12741.00
1027.63	12620.00
1028.35	12443.00
1029.07	12347.00
1029.78	12152.00
1030.50	11988.00
1031.22	11856.00
1031.93	11736.00
1032.65	11612.00
1033.37	11477.00
1034.08	11356.00
1034.80	11301.00
1035.52	11242.00
1036.23	11099.00
1036.95	11052.00
1037.66	10883.00
1038.38	10789.00
1039.10	10634.00
1039.81	10446.00
1040.53	10263.00
1041.24	10135.00
1041.96	9940.00
1042.67	9850.00
1043.39	9743.00
1044.10	9665.00
1044.82	9551.00
1045.54	9420.00
1046.25	9329.00
1046.97	9240.00
1047.68	9045.00
1048.40	8929.00
1049.11	8790.00
1049.83	8643.00
1050.54	8514.00
1051.26	8431.00
1051.97	8332.00
1052.68	8204.00
1053.40	8117.00
1054.11	7976.00
1054.83	7871.00
1055.54	7744.00
1056.26	7645.00
1056.97	7570.00
1057.69	7449.00
1058.40	7360.00
1059.11	7230.00
1059.83	7125.00
1060.54	6969.00
1061.25	6798.00
1061.97	6652.00
1062.68	6537.00
1063.40	6411.00
1064.11	6297.00
1064.82	6150.00
1065.54	6033.00
1066.25	2564.00
1066.96	2560.00
1067.68	2559.00
1068.39	2558.00
1069.10	2615.00
1069.82	2612.00
1070.53	2621.00
1071.24	2617.00
1071.95	2614.00
1072.67	2619.00
1073.38	5897.00
1074.09	5803.00
1074.80	5643.00
1075.52	5547.00
1076.23	5438.00
1076.94	5340.00
1077.65	2614.00
1078.37	2609.00
1079.08	2608.00
1079.79	2629.00
