300.47	2613.00
301.26	2615.00
302.04	2611.00
302.82	2610.00
303.60	2616.00
304.38	2614.00
305.17	2611.00
305.95	2614.00
306.73	2610.00
307.51	2617.00
308.29	2609.00
309.08	2612.00
309.86	2613.00
310.64	2608.00
311.42	2618.00
312.20	2608.00
312.98	2616.00
313.76	2613.00
314.55	2610.00
315.33	2612.00
316.11	2615.00
316.89	2613.00
317.67	2612.00
318.45	2613.00
319.23	2612.00
320.01	2609.00
320.79	2615.00
321.57	2613.00
322.35	2617.00
323.13	2614.00
323.91	2615.00
324.69	2615.00
325.47	2616.00
326.25	2615.00
327.03	2617.00
327.81	2616.00
328.59	2616.00
329.37	2621.00
330.15	2613.00
330.93	2621.00
331.71	2617.00
332.49	2618.00
333.27	2620.00
334.05	2619.00
334.83	2623.00
335.61	2622.00
336.39	2616.00
337.17	2626.00
337.95	2627.00
338.73	2623.00
339.51	2626.00
340.29	2632.00
341.07	2626.00
341.84	2631.00
342.62	2631.00
343.40	2630.00
344.18	2635.00
344.96	2635.00
345.74	2637.00
346.52	2644.00
347.29	2639.00
348.07	2652.00
348.85	2646.00
349.63	2657.00
350.41	2652.00
351.18	2654.00
351.96	2660.00
352.74	2666.00
353.52	2664.00
354.30	2670.00
355.07	2671.00
355.85	2677.00
356.63	2684.00
357.41	2681.00
358.18	2692.00
358.96	2696.00
359.74	2704.00
360.52	2706.00
361.29	2711.00
362.07	2713.00
362.85	2722.00
363.62	2729.00
364.40	2730.00
365.18	2742.00
365.95	2747.00
366.73	2755.00
367.51	2763.00
368.28	2776.00
369.06	2781.00
369.84	2792.00
370.61	2798.00
371.39	2801.00
372.17	2809.00
372.94	2825.00
373.72	2829.00
374.49	2847.00
375.27	2850.00
376.05	2866.00
376.82	2876.00
377.60	2884.00
378.37	2908.00
379.15	2920.00
379.92	2925.00
380.70	2944.00
381.47	2950.00
382.25	2961.00
383.02	2982.00
383.80	2994.00
384.58	3013.00
385.35	3025.00
386.13	3052.00
386.90	3069.00
387.67	3088.00
388.45	3104.00
389.22	3111.00
390.00	3140.00
390.77	3161.00
391.55	3181.00
392.32	3199.00
393.10	3204.00
393.87	3238.00
394.65	3253.00
395.42	3283.00
396.19	3301.00
396.97	3319.00
397.74	3351.00
398.52	3357.00
399.29	3395.00
400.06	3402.00
400.84	3431.00
401.61	3453.00
402.38	3475.00
403.16	3495.00
403.93	3523.00
404.70	3557.00
405.48	3583.00
406.25	3595.00
407.02	3623.00
407.80	3642.00
408.57	3669.00
409.34	3707.00
410.12	3731.00
410.89	3740.00
411.66	3777.00
412.43	3809.00
413.21	3842.00
413.98	3857.00
414.75	3903.00
415.52	3911.00
416.30	3943.00
417.07	3961.00
417.84	4015.00
418.61	4038.00
419.39	4066.00
420.16	4118.00
420.93	4136.00
421.70	4164.00
422.47	4204.00
423.24	4230.00
424.02	4278.00
424.79	4297.00
425.56	4332.00
426.33	4371.00
427.10	4399.00
427.87	4444.00
428.64	4482.00
429.42	4526.00
430.19	4571.00
430.96	4616.00
431.73	4658.00
432.50	4712.00
433.27	4736.00
434.04	4783.00
434.81	4833.00
435.58	4889.00
436.35	4935.00
437.12	4987.00
437.89	5044.00
438.67	5097.00
439.44	5125.00
440.21	5201.00
440.98	5249.00
441.75	5319.00
442.52	5376.00
443.29	5423.00
444.06	5463.00
444.83	5538.00
445.60	5618.00
446.37	5679.00
447.13	5723.00
447.90	5780.00
448.67	5859.00
449.44	5941.00
450.21	6007.00
450.98	6078.00
451.75	6134.00
452.52	6213.00
453.29	6277.00
454.06	6359.00
454.83	6415.00
455.60	6494.00
456.37	6586.00
457.13	6659.00
457.90	6751.00
458.67	6855.00
459.44	6934.00
460.21	7002.00
460.98	7082.00
461.75	7176.00
462.51	7273.00
463.28	7371.00
464.05	7516.00
464.82	7557.00
465.59	7645.00
466.35	7754.00
467.12	7826.00
467.89	7922.00
468.66	8057.00
469.43	8149.00
470.19	8225.00
470.96	8354.00
471.73	8437.00
472.50	8556.00
473.26	8682.00
474.03	8753.00
474.80	8894.00
475.56	8987.00
476.33	9109.00
477.10	9225.00
477.87	9319.00
478.63	9410.00
479.40	9549.00
480.17	9675.00
480.93	9784.00
481.70	9928.00
482.47	10031.00
483.23	10145.00
484.00	10309.00
484.76	10417.00
485.53	10585.00
486.30	10656.00
487.06	10815.00
487.83	10938.00
488.60	11112.00
489.36	11185.00
490.13	11338.00
490.89	11450.00
491.66	11629.00
492.42	11692.00
493.19	11823.00
493.96	12012.00
494.72	12149.00
495.49	12287.00
496.25	12384.00
497.02	12600.00
497.78	12719.00
498.55	12863.00
499.31	12955.00
500.08	13131.00
500.84	13287.00
501.61	13401.00
502.37	13610.00
503.14	13723.00
503.90	13878.00
504.67	13999.00
505.43	14227.00
506.20	14348.00
506.96	14495.00
507.72	14655.00
508.49	14854.00
509.25	14996.00
510.02	15146.00
510.78	15398.00
511.54	15578.00
512.31	15755.00
513.07	15909.00
513.84	15992.00
514.60	16205.00
515.36	16375.00
516.13	16468.00
516.89	16644.00
517.65	16773.00
518.42	16888.00
519.18	17108.00
519.94	17251.00
520.71	17455.00
521.47	17603.00
522.23	17773.00
523.00	18006.00
523.76	18115.00
524.52	18332.00
525.28	18506.00
526.05	18646.00
526.81	18797.00
527.57	19020.00
528.33	19152.00
529.10	19367.00
529.86	19502.00
530.62	19759.00
531.38	19910.00
532.15	20082.00
532.91	20248.00
533.67	20428.00
534.43	20599.00
535.19	20754.00
535.96	20982.00
536.72	21110.00
537.48	21247.00
538.24	21361.00
539.00	21657.00
539.76	21925.00
540.53	22079.00
541.29	22239.00
542.05	22467.00
542.81	22697.00
543.57	22891.00
544.33	23051.00
545.09	23292.00
545.85	23426.00
546.61	23582.00
547.38	23740.00
548.14	23907.00
548.90	24125.00
549.66	24375.00
550.42	24536.00
551.18	24721.00
551.94	24911.00
552.70	24984.00
553.46	25276.00
554.22	25507.00
554.98	25642.00
555.74	25807.00
556.50	25992.00
557.26	26205.00
558.02	26393.00
558.78	26683.00
559.54	26893.00
560.30	27025.00
561.06	27191.00
561.82	27431.00
562.58	27669.00
563.34	27911.00
564.10	28063.00
564.86	28170.00
565.61	28372.00
566.37	28631.00
567.13	28791.00
567.89	28956.00
568.65	29175.00
569.41	29319.00
570.17	29536.00
570.93	29682.00
571.69	29918.00
572.44	30097.00
573.20	30296.00
573.96	30416.00
574.72	30628.00
575.48	30813.00
576.24	31068.00
576.99	31259.00
577.75	31451.00
578.51	31644.00
579.27	31862.00
580.03	32024.00
580.78	32295.00
581.54	32549.00
582.30	32802.00
583.06	32923.00
583.82	33130.00
584.57	33256.00
585.33	33516.00
586.09	33637.00
586.84	33851.00
587.60	33856.00
588.36	33944.00
589.12	34183.00
589.87	34458.00
590.63	34581.00
591.39	34779.00
592.14	34928.00
592.90	35139.00
593.66	35398.00
594.41	35572.00
595.17	35805.00
595.93	35904.00
596.68	35960.00
597.44	36135.00
598.20	36396.00
598.95	36756.00
599.71	36932.00
600.46	37078.00
601.22	37100.00
601.98	37310.00
602.73	37720.00
603.49	38001.00
604.24	38182.00
605.00	38418.00
605.76	38531.00
606.51	38588.00
607.27	38900.00
608.02	39157.00
608.78	39356.00
609.53	39533.00
610.29	39690.00
611.04	39971.00
611.80	40184.00
612.55	40453.00
613.31	40781.00
614.06	40962.00
614.82	41141.00
615.57	41337.00
616.33	41576.00
617.08	41757.00
617.84	41947.00
618.59	42021.00
619.35	42011.00
620.10	42046.00
620.85	42120.00
621.61	42075.00
622.36	42143.00
623.12	42156.00
623.87	42207.00
624.62	42315.00
625.38	42408.00
626.13	42578.00
626.89	42865.00
627.64	42973.00
628.39	43106.00
629.15	43163.00
629.90	43221.00
630.65	43278.00
631.41	43290.00
632.16	43242.00
632.91	43250.00
633.67	43324.00
634.42	43286.00
635.17	43487.00
635.92	43753.00
636.68	44274.00
637.43	44764.00
638.18	45301.00
638.94	45787.00
639.69	46132.00
640.44	46534.00
641.19	46973.00
641.95	47378.00
642.70	47600.00
643.45	47878.00
644.20	48184.00
644.95	48335.00
645.71	48391.00
646.46	48507.00
647.21	48673.00
647.96	48817.00
648.71	48872.00
649.47	49051.00
650.22	49001.00
650.97	49056.00
651.72	49173.00
652.47	49412.00
653.22	49527.00
653.97	49656.00
654.73	49780.00
655.48	49969.00
656.23	50232.00
656.98	50489.00
657.73	50760.00
658.48	50845.00
659.23	50989.00
659.98	50951.00
660.73	50934.00
661.48	51162.00
662.23	51260.00
662.99	51122.00
663.74	51155.00
664.49	51443.00
665.24	52009.00
665.99	52374.00
666.74	52494.00
667.49	52437.00
668.24	52617.00
668.99	52812.00
669.74	52975.00
670.49	52988.00
671.24	53156.00
671.99	53283.00
672.74	53470.00
673.48	53569.00
674.23	53635.00
674.98	53816.00
675.73	53934.00
676.48	54026.00
677.23	54146.00
677.98	54272.00
678.73	54237.00
679.48	54336.00
680.23	54360.00
680.98	54441.00
681.73	54370.00
682.47	54451.00
683.22	54389.00
683.97	54584.00
684.72	54596.00
685.47	54668.00
686.22	54898.00
686.97	54968.00
687.71	55298.00
688.46	55506.00
689.21	55603.00
689.96	55596.00
690.71	55616.00
691.45	55692.00
692.20	55783.00
692.95	55717.00
693.70	55743.00
694.44	55787.00
695.19	55931.00
695.94	56043.00
696.69	56027.00
697.43	56145.00
698.18	56102.00
698.93	56194.00
699.68	56301.00
700.42	56224.00
701.17	56302.00
701.92	56393.00
702.66	56414.00
703.41	56465.00
704.16	56494.00
704.90	56598.00
705.65	56513.00
706.40	56536.00
707.14	56661.00
707.89	56778.00
708.64	56745.00
709.38	56827.00
710.13	56867.00
710.88	56985.00
711.62	56970.00
712.37	57057.00
713.11	57088.00
713.86	57013.00
714.61	57155.00
715.35	57067.00
716.10	56862.00
716.84	56533.00
717.59	56431.00
718.33	56134.00
719.08	56016.00
719.83	55949.00
720.57	55888.00
721.32	55953.00
722.06	55865.00
722.81	55808.00
723.55	55867.00
724.30	56051.00
725.04	56095.00
725.79	56002.00
726.53	56008.00
727.28	56055.00
728.02	56046.00
728.76	56175.00
729.51	56161.00
730.25	56197.00
731.00	56197.00
731.74	56148.00
732.49	56203.00
733.23	56114.00
733.97	56004.00
734.72	55873.00
735.46	55686.00
736.21	55722.00
736.95	55695.00
737.69	55816.00
738.44	55871.00
739.18	56007.00
739.92	55997.00
740.67	56147.00
741.41	56277.00
742.15	56442.00
742.90	56591.00
743.64	56654.00
744.38	56624.00
745.13	56582.00
745.87	56584.00
746.61	56744.00
747.36	56813.00
748.10	56793.00
748.84	56641.00
749.58	56474.00
750.33	56425.00
751.07	56298.00
751.81	56194.00
752.55	56125.00
753.30	56129.00
754.04	55871.00
754.78	55623.00
755.52	55405.00
756.27	55257.00
757.01	55176.00
757.75	55194.00
758.49	55196.00
759.23	55197.00
759.97	55185.00
760.72	55182.00
761.46	55383.00
762.20	55332.00
762.94	55361.00
763.68	55290.00
764.42	55210.00
765.16	55155.00
765.91	55081.00
766.65	55106.00
767.39	55054.00
768.13	54848.00
768.87	54823.00
769.61	54898.00
770.35	54790.00
771.09	54713.00
771.83	54650.00
772.57	54599.00
773.31	54577.00
774.05	54570.00
774.80	54450.00
775.54	54366.00
776.28	54222.00
777.02	54094.00
777.76	54060.00
778.50	53792.00
779.24	53728.00
779.98	53637.00
780.72	53512.00
781.46	53404.00
782.20	53459.00
782.93	53395.00
783.67	53359.00
784.41	53109.00
785.15	52989.00
785.89	52848.00
786.63	52683.00
787.37	52425.00
788.11	52313.00
788.85	52252.00
789.59	52226.00
790.33	52224.00
791.07	52215.00
791.81	52177.00
792.54	51910.00
793.28	51799.00
794.02	51566.00
794.76	51318.00
795.50	51117.00
796.24	50805.00
796.97	50474.00
797.71	50222.00
798.45	50071.00
799.19	49964.00
799.93	49875.00
800.67	49790.00
801.40	49630.00
802.14	49655.00
802.88	49875.00
803.62	49869.00
804.35	49900.00
805.09	49880.00
805.83	49813.00
806.57	49835.00
807.30	49741.00
808.04	49877.00
808.78	49714.00
809.52	49469.00
810.25	49247.00
810.99	49091.00
811.73	48862.00
812.46	48883.00
813.20	48849.00
813.94	48657.00
814.68	48532.00
815.41	48549.00
816.15	48623.00
816.88	48727.00
817.62	48722.00
818.36	48578.00
819.09	48347.00
819.83	48181.00
820.57	48037.00
821.30	47901.00
822.04	47704.00
822.77	47573.00
823.51	47378.00
824.25	47288.00
824.98	47284.00
825.72	47290.00
826.45	47131.00
827.19	46897.00
827.92	46741.00
828.66	46444.00
829.40	46216.00
830.13	46158.00
830.87	46187.00
831.60	46078.00
832.34	45986.00
833.07	45916.00
833.81	45873.00
834.54	46024.00
835.28	46042.00
836.01	45963.00
836.75	45847.00
837.48	45525.00
838.22	45348.00
838.95	45233.00
839.68	45252.00
840.42	45281.00
841.15	45258.00
841.89	45116.00
842.62	44925.00
843.36	44722.00
844.09	44750.00
844.82	44698.00
845.56	44856.00
846.29	44688.00
847.02	44481.00
847.76	44360.00
848.49	44377.00
849.23	44742.00
849.96	44971.00
850.69	44998.00
851.43	44688.00
852.16	44417.00
852.89	44151.00
853.63	43887.00
854.36	43739.00
855.09	43727.00
855.82	43613.00
856.56	43464.00
857.29	43275.00
858.02	43172.00
858.76	43228.00
859.49	43239.00
860.22	43195.00
860.95	43068.00
861.69	42971.00
862.42	42801.00
863.15	42698.00
863.88	42583.00
864.61	42594.00
865.35	42732.00
866.08	42594.00
866.81	42449.00
867.54	42147.00
868.27	41902.00
869.01	41923.00
869.74	41836.00
870.47	41864.00
871.20	41710.00
871.93	41455.00
872.66	41254.00
873.40	41067.00
874.13	40816.00
874.86	40634.00
875.59	40645.00
876.32	40530.00
877.05	40360.00
877.78	40285.00
878.51	40210.00
879.24	40020.00
879.97	39897.00
880.71	39763.00
881.44	39708.00
882.17	39613.00
882.90	39394.00
883.63	39244.00
884.36	39120.00
885.09	39153.00
885.82	39294.00
886.55	39319.00
887.28	39390.00
888.01	39281.00
888.74	39157.00
889.47	38861.00
890.20	38641.00
890.93	38306.00
891.66	38277.00
892.39	38131.00
893.12	38090.00
893.85	38104.00
894.57	38137.00
895.30	38091.00
896.03	38169.00
896.76	38120.00
897.49	37923.00
898.22	37772.00
898.95	37659.00
899.68	37430.00
900.41	37248.00
901.14	37061.00
901.86	36932.00
902.59	36832.00
903.32	36787.00
904.05	36788.00
904.78	36580.00
905.51	36434.00
906.24	36358.00
906.96	36200.00
907.69	36049.00
908.42	35880.00
909.15	35748.00
909.88	35519.00
910.60	35390.00
911.33	35311.00
912.06	35139.00
912.79	34946.00
913.52	34802.00
914.24	34729.00
914.97	34599.00
915.70	34566.00
916.42	34377.00
917.15	34245.00
917.88	34035.00
918.61	33814.00
919.33	33618.00
920.06	33353.00
920.79	33120.00
921.51	32969.00
922.24	32846.00
922.97	32691.00
923.69	32588.00
924.42	32441.00
925.15	32374.00
925.87	32198.00
926.60	31981.00
927.33	31758.00
928.05	31327.00
928.78	31052.00
929.51	30755.00
930.23	30409.00
930.96	30027.00
931.68	29609.00
932.41	29353.00
933.14	28970.00
933.86	28680.00
934.59	28279.00
935.31	27871.00
936.04	27360.00
936.76	26935.00
937.49	26504.00
938.21	25983.00
938.94	25527.00
939.66	25035.00
940.39	24686.00
941.11	24266.00
941.84	23967.00
942.56	23588.00
943.29	23351.00
944.01	23133.00
944.74	23055.00
945.46	22971.00
946.19	22960.00
946.91	23014.00
947.64	23052.00
948.36	23067.00
949.09	23229.00
949.81	23362.00
950.53	23421.00
951.26	23569.00
951.98	23471.00
952.71	23591.00
953.43	23625.00
954.15	23679.00
954.88	23868.00
955.60	23961.00
956.33	23940.00
957.05	24004.00
957.77	24028.00
958.50	24085.00
959.22	24113.00
959.94	24087.00
960.67	24063.00
961.39	23957.00
962.11	23988.00
962.84	23973.00
963.56	23987.00
964.28	23960.00
965.00	23764.00
965.73	23576.00
966.45	23514.00
967.17	23427.00
967.89	23253.00
968.62	23108.00
969.34	22918.00
970.06	22716.00
970.78	22560.00
971.51	22509.00
972.23	22333.00
972.95	22141.00
973.67	22019.00
974.40	21866.00
975.12	21646.00
975.84	21544.00
976.56	21369.00
977.28	21212.00
978.00	21097.00
978.73	20999.00
979.45	20958.00
980.17	20887.00
980.89	20879.00
981.61	20770.00
982.33	20648.00
983.05	20663.00
983.77	20551.00
984.50	20479.00
985.22	20419.00
985.94	20302.00
986.66	20210.00
987.38	20121.00
988.10	20067.00
988.82	20025.00
989.54	19905.00
990.26	19840.00
990.98	19732.00
991.70	19587.00
992.42	19460.00
993.14	19268.00
993.86	19167.00
994.58	18973.00
995.30	18872.00
996.02	18734.00
996.74	18676.00
997.46	18611.00
998.18	18486.00
998.90	18361.00
999.62	18225.00
1000.34	18145.00
1001.06	18137.00
1001.78	17985.00
1002.50	17876.00
1003.22	17711.00
1003.94	17519.00
1004.66	17362.00
1005.38	17253.00
1006.09	17081.00
1006.81	16874.00
1007.53	16680.00
1008.25	16522.00
1008.97	16416.00
1009.69	16308.00
1010.41	16242.00
1011.13	16094.00
1011.84	15933.00
1012.56	15742.00
1013.28	15625.00
1014.00	15480.00
1014.72	15351.00
1015.44	15126.00
1016.15	14902.00
1016.87	14685.00
1017.59	14535.00
1018.31	14386.00
1019.03	14299.00
1019.74	14263.00
1020.46	14107.00
1021.18	13985.00
1021.90	13886.00
1022.61	13768.00
1023.33	13644.00
1024.05	13549.00
1024.76	13330.00
1025.48	13116.00
1026.20	12936.00
1026.92	12707.00
1027.63	12595.00
1028.35	12453.00
1029.07	12328.00
1029.78	12161.00
1030.50	12039.00
1031.22	11869.00
1031.93	11711.00
1032.65	11640.00
1033.37	11513.00
1034.08	11409.00
1034.80	11335.00
1035.52	11222.00
1036.23	11107.00
1036.95	11018.00
1037.66	10915.00
1038.38	10821.00
1039.10	10663.00
1039.81	10463.00
1040.53	10310.00
1041.24	10136.00
1041.96	9978.00
1042.67	9890.00
1043.39	9773.00
1044.10	9674.00
1044.82	9573.00
1045.54	9446.00
1046.25	9336.00
1046.97	9235.00
1047.68	9107.00
1048.40	8919.00
1049.11	8772.00
1049.83	8632.00
1050.54	8551.00
1051.26	8437.00
1051.97	8329.00
1052.68	8227.00
1053.40	8124.00
1054.11	7996.00
1054.83	7904.00
1055.54	7782.00
1056.26	7632.00
1056.97	7565.00
1057.69	7449.00
1058.40	7317.00
1059.11	7271.00
1059.83	7123.00
1060.54	6947.00
1061.25	6790.00
1061.97	6664.00
1062.68	6531.00
1063.40	6397.00
1064.11	6285.00
1064.82	6181.00
1065.54	6022.00
1066.25	2556.00
1066.96	2559.00
1067.68	2555.00
1068.39	2554.00
1069.10	2614.00
1069.82	2611.00
1070.53	2611.00
1071.24	2612.00
1071.95	2609.00
1072.67	2609.00
1073.38	5921.00
1074.09	5778.00
1074.80	5659.00
1075.52	5555.00
1076.23	5437.00
1076.94	5317.00
1077.65	2613.00
1078.37	2609.00
1079.08	2605.00
1079.79	2631.00
