300.47	2609.00
301.26	2610.00
302.04	2616.00
302.82	2609.00
303.60	2609.00
304.38	2614.00
305.17	2615.00
305.95	2613.00
306.73	2609.00
307.51	2615.00
308.29	2612.00
309.08	2614.00
309.86	2615.00
310.64	2617.00
311.42	2612.00
312.20	2613.00
312.98	2608.00
313.76	2612.00
314.55	2613.00
315.33	2615.00
316.11	2612.00
316.89	2615.00
317.67	2614.00
318.45	2611.00
319.23	2614.00
320.01	2611.00
320.79	2611.00
321.57	2612.00
322.35	2612.00
323.13	2613.00
323.91	2612.00
324.69	2610.00
325.47	2614.00
326.25	2614.00
327.03	2613.00
327.81	2614.00
328.59	2617.00
329.37	2617.00
330.15	2615.00
330.93	2618.00
331.71	2620.00
332.49	2620.00
333.27	2621.00
334.05	2621.00
334.83	2624.00
335.61	2618.00
336.39	2624.00
337.17	2621.00
337.95	2626.00
338.73	2627.00
339.51	2621.00
340.29	2626.00
341.07	2630.00
341.84	2626.00
342.62	2630.00
343.40	2633.00
344.18	2633.00
344.96	2638.00
345.74	2638.00
346.52	2641.00
347.29	2637.00
348.07	2647.00
348.85	2643.00
349.63	2650.00
350.41	2650.00
351.18	2654.00
351.96	2660.00
352.74	2669.00
353.52	2666.00
354.30	2669.00
355.07	2676.00
355.85	2683.00
356.63	2685.00
357.41	2682.00
358.18	2687.00
358.96	2690.00
359.74	2703.00
360.52	2708.00
361.29	2709.00
362.07	2716.00
362.85	2724.00
363.62	2728.00
364.40	2738.00
365.18	2740.00
365.95	2753.00
366.73	2757.00
367.51	2760.00
368.28	2772.00
369.06	2775.00
369.84	2786.00
370.61	2799.00
371.39	2810.00
372.17	2817.00
372.94	2823.00
373.72	2828.00
374.49	2836.00
375.27	2846.00
376.05	2864.00
376.82	2873.00
377.60	2885.00
378.37	2902.00
379.15	2917.00
379.92	2924.00
380.70	2937.00
381.47	2954.00
382.25	2967.00
383.02	2992.00
383.80	3001.00
384.58	3018.00
385.35	3034.00
386.13	3048.00
386.90	3063.00
387.67	3087.00
388.45	3107.00
389.22	3115.00
390.00	3139.00
390.77	3159.00
391.55	3173.00
392.32	3188.00
393.10	3203.00
393.87	3234.00
394.65	3255.00
395.42	3281.00
396.19	3297.00
396.97	3325.00
397.74	3342.00
398.52	3361.00
399.29	3389.00
400.06	3413.00
400.84	3441.00
401.61	3467.00
402.38	3480.00
403.16	3505.00
403.93	3523.00
404.70	3541.00
405.48	3568.00
406.25	3610.00
407.02	3616.00
407.80	3653.00
408.57	3670.00
409.34	3702.00
410.12	3713.00
410.89	3773.00
411.66	3777.00
412.43	3802.00
413.21	3834.00
413.98	3853.00
414.75	3895.00
415.52	3917.00
416.30	3932.00
417.07	3988.00
417.84	4014.00
418.61	4043.00
419.39	4081.00
420.16	4091.00
420.93	4132.00
421.70	4157.00
422.47	4193.00
423.24	4228.00
424.02	4257.00
424.79	4292.00
425.56	4341.00
426.33	4374.00
427.10	4419.00
427.87	4461.00
428.64	4484.00
429.42	4525.00
430.19	4568.00
430.96	4601.00
431.73	4648.00
432.50	4702.00
433.27	4742.00
434.04	4770.00
434.81	4827.00
435.58	4895.00
436.35	4925.00
437.12	4972.00
437.89	5032.00
438.67	5089.00
439.44	5135.00
440.21	5196.00
440.98	5245.00
441.75	5305.00
442.52	5381.00
443.29	5405.00
444.06	5467.00
444.83	5529.00
445.60	5611.00
446.37	5672.00
447.13	5718.00
447.90	5806.00
448.67	5847.00
449.44	5935.00
450.21	6008.00
450.98	6073.00
451.75	6102.00
452.52	6212.00
453.29	6293.00
454.06	6358.00
454.83	6454.00
455.60	6521.00
456.37	6567.00
457.13	6662.00
457.90	6751.00
458.67	6851.00
459.44	6946.00
460.21	7003.00
460.98	7068.00
461.75	7165.00
462.51	7286.00
463.28	7370.00
464.05	7498.00
464.82	7550.00
465.59	7649.00
466.35	7780.00
467.12	7840.00
467.89	7939.00
468.66	8056.00
469.43	8129.00
470.19	8261.00
470.96	8325.00
471.73	8473.00
472.50	8556.00
473.26	8685.00
474.03	8754.00
474.80	8862.00
475.56	8989.00
476.33	9086.00
477.10	9204.00
477.87	9318.00
478.63	9431.00
479.40	9532.00
480.17	9700.00
480.93	9777.00
481.70	9894.00
482.47	9991.00
483.23	10123.00
484.00	10277.00
484.76	10413.00
485.53	10561.00
486.30	10660.00
487.06	10799.00
487.83	10929.00
488.60	11075.00
489.36	11197.00
490.13	11376.00
490.89	11457.00
491.66	11560.00
492.42	11717.00
493.19	11845.00
493.96	11996.00
494.72	12099.00
495.49	12247.00
496.25	12425.00
497.02	12591.00
497.78	12695.00
498.55	12866.00
499.31	12973.00
500.08	13130.00
500.84	13257.00
501.61	13440.00
502.37	13602.00
503.14	13748.00
503.90	13857.00
504.67	14026.00
505.43	14145.00
506.20	14303.00
506.96	14516.00
507.72	14691.00
508.49	14821.00
509.25	14985.00
510.02	15204.00
510.78	15409.00
511.54	15554.00
512.31	15684.00
513.07	15857.00
513.84	15988.00
514.60	16149.00
515.36	16362.00
516.13	16468.00
516.89	16628.00
517.65	16733.00
518.42	16889.00
519.18	17055.00
519.94	17245.00
520.71	17408.00
521.47	17600.00
522.23	17700.00
523.00	17884.00
523.76	18133.00
524.52	18296.00
525.28	18468.00
526.05	18620.00
526.81	18829.00
527.57	19019.00
528.33	19118.00
529.10	19301.00
529.86	19529.00
530.62	19753.00
531.38	19886.00
532.15	20047.00
532.91	20150.00
533.67	20382.00
534.43	20553.00
535.19	20755.00
535.96	20984.00
536.72	21077.00
537.48	21226.00
538.24	21393.00
539.00	21634.00
539.76	21849.00
540.53	22116.00
541.29	22263.00
542.05	22410.00
542.81	22655.00
543.57	22848.00
544.33	23119.00
545.09	23182.00
545.85	23431.00
546.61	23516.00
547.38	23666.00
548.14	23898.00
548.90	24098.00
549.66	24375.00
550.42	24576.00
551.18	24668.00
551.94	24826.00
552.70	25068.00
553.46	25278.00
554.22	25424.00
554.98	25589.00
555.74	25793.00
556.50	25980.00
557.26	26192.00
558.02	26450.00
558.78	26649.00
559.54	26826.00
560.30	26931.00
561.06	27141.00
561.82	27295.00
562.58	27625.00
563.34	27855.00
564.10	27975.00
564.86	28152.00
565.61	28403.00
566.37	28547.00
567.13	28787.00
567.89	28979.00
568.65	29128.00
569.41	29327.00
570.17	29506.00
570.93	29691.00
571.69	29866.00
572.44	30026.00
573.20	30251.00
573.96	30483.00
574.72	30572.00
575.48	30879.00
576.24	31042.00
576.99	31191.00
577.75	31409.00
578.51	31561.00
579.27	31822.00
580.03	32074.00
580.78	32256.00
581.54	32513.00
582.30	32722.00
583.06	32837.00
583.82	33041.00
584.57	33276.00
585.33	33391.00
586.09	33632.00
586.84	33715.00
587.60	33872.00
588.36	33970.00
589.12	34130.00
589.87	34410.00
590.63	34622.00
591.39	34751.00
592.14	34881.00
592.90	35094.00
593.66	35347.00
594.41	35531.00
595.17	35808.00
595.93	35834.00
596.68	35917.00
597.44	36091.00
598.20	36340.00
598.95	36679.00
599.71	36914.00
600.46	37075.00
601.22	37243.00
601.98	37270.00
602.73	37598.00
603.49	37960.00
604.24	38171.00
605.00	38317.00
605.76	38400.00
606.51	38610.00
607.27	38871.00
608.02	39109.00
608.78	39290.00
609.53	39478.00
610.29	39651.00
611.04	39907.00
611.80	40186.00
612.55	40461.00
613.31	40732.00
614.06	40928.00
614.82	41037.00
615.57	41319.00
616.33	41608.00
617.08	41843.00
617.84	41918.00
618.59	42047.00
619.35	41955.00
620.10	41912.00
620.85	41997.00
621.61	42024.00
622.36	42129.00
623.12	42027.00
623.87	42108.00
624.62	42321.00
625.38	42422.00
626.13	42562.00
626.89	42761.00
627.64	42948.00
628.39	43036.00
629.15	43072.00
629.90	43179.00
630.65	43226.00
631.41	43265.00
632.16	43212.00
632.91	43248.00
633.67	43290.00
634.42	43286.00
635.17	43454.00
635.92	43714.00
636.68	44170.00
637.43	44792.00
638.18	45309.00
638.94	45708.00
639.69	46070.00
640.44	46457.00
641.19	46985.00
641.95	47327.00
642.70	47685.00
643.45	47931.00
644.20	48059.00
644.95	48223.00
645.71	48317.00
646.46	48536.00
647.21	48561.00
647.96	48661.00
648.71	48784.00
649.47	49011.00
650.22	48984.00
650.97	48998.00
651.72	49126.00
652.47	49295.00
653.22	49431.00
653.97	49629.00
654.73	49713.00
655.48	49899.00
656.23	50179.00
656.98	50513.00
657.73	50698.00
658.48	50831.00
659.23	50853.00
659.98	50868.00
660.73	50972.00
661.48	51060.00
662.23	51146.00
662.99	51111.00
663.74	51226.00
664.49	51418.00
665.24	51893.00
665.99	52344.00
666.74	52423.00
667.49	52400.00
668.24	52559.00
668.99	52698.00
669.74	52855.00
670.49	52964.00
671.24	53107.00
671.99	53276.00
672.74	53426.00
673.48	53448.00
674.23	53613.00
674.98	53770.00
675.73	53807.00
676.48	53944.00
677.23	54073.00
677.98	54108.00
678.73	54173.00
679.48	54225.00
680.23	54281.00
680.98	54397.00
681.73	54328.00
682.47	54330.00
683.22	54326.00
683.97	54380.00
684.72	54526.00
685.47	54655.00
686.22	54834.00
686.97	55017.00
687.71	55257.00
688.46	55440.00
689.21	55461.00
689.96	55516.00
690.71	55579.00
691.45	55676.00
692.20	55691.00
692.95	55622.00
693.70	55676.00
694.44	55711.00
695.19	55746.00
695.94	55970.00
696.69	55970.00
697.43	55986.00
698.18	56087.00
698.93	56111.00
699.68	56187.00
700.42	56220.00
701.17	56207.00
701.92	56361.00
702.66	56422.00
703.41	56466.00
704.16	56538.00
704.90	56476.00
705.65	56671.00
706.40	56574.00
707.14	56609.00
707.89	56587.00
708.64	56704.00
709.38	56707.00
710.13	56762.00
710.88	56823.00
711.62	56948.00
712.37	56974.00
713.11	57078.00
713.86	57184.00
714.61	57052.00
715.35	56899.00
716.10	56832.00
716.84	56549.00
717.59	56360.00
718.33	56132.00
719.08	56012.00
719.83	55897.00
720.57	55749.00
721.32	55856.00
722.06	55822.00
722.81	55811.00
723.55	55888.00
724.30	56025.00
725.04	56018.00
725.79	56041.00
726.53	56052.00
727.28	56036.00
728.02	56119.00
728.76	56226.00
729.51	56110.00
730.25	56128.00
731.00	56077.00
731.74	56128.00
732.49	56196.00
733.23	56064.00
733.97	55854.00
734.72	55867.00
735.46	55673.00
736.21	55678.00
736.95	55742.00
737.69	55753.00
738.44	55881.00
739.18	55963.00
739.92	56012.00
740.67	56019.00
741.41	56247.00
742.15	56413.00
742.90	56486.00
743.64	56547.00
744.38	56525.00
745.13	56498.00
745.87	56638.00
746.61	56675.00
747.36	56690.00
748.10	56687.00
748.84	56587.00
749.58	56569.00
750.33	56399.00
751.07	56419.00
751.81	56171.00
752.55	55994.00
753.30	56005.00
754.04	55811.00
754.78	55534.00
755.52	55375.00
756.27	55222.00
757.01	55171.00
757.75	55191.00
758.49	55131.00
759.23	55331.00
759.97	55125.00
760.72	55116.00
761.46	55273.00
762.20	55230.00
762.94	55315.00
763.68	55215.00
764.42	55199.00
765.16	55100.00
765.91	55095.00
766.65	55027.00
767.39	54906.00
768.13	54741.00
768.87	54776.00
769.61	54776.00
770.35	54668.00
771.09	54678.00
771.83	54590.00
772.57	54506.00
773.31	54437.00
774.05	54571.00
774.80	54434.00
775.54	54369.00
776.28	54194.00
777.02	54236.00
777.76	53978.00
778.50	53793.00
779.24	53584.00
779.98	53593.00
780.72	53385.00
781.46	53350.00
782.20	53309.00
782.93	53345.00
783.67	53264.00
784.41	53131.00
785.15	52919.00
785.89	52805.00
786.63	52708.00
787.37	52404.00
788.11	52203.00
788.85	52129.00
789.59	52158.00
790.33	52336.00
791.07	52281.00
791.81	52012.00
792.54	51905.00
793.28	51832.00
794.02	51537.00
794.76	51291.00
795.50	51011.00
796.24	50826.00
796.97	50525.00
797.71	50193.00
798.45	50119.00
799.19	49965.00
799.93	49834.00
800.67	49776.00
801.40	49704.00
802.14	49697.00
802.88	49831.00
803.62	49889.00
804.35	49936.00
805.09	49885.00
805.83	49720.00
806.57	49739.00
807.30	49891.00
808.04	49776.00
808.78	49633.00
809.52	49470.00
810.25	49229.00
810.99	49010.00
811.73	48916.00
812.46	48762.00
813.20	48798.00
813.94	48649.00
814.68	48494.00
815.41	48453.00
816.15	48540.00
816.88	48754.00
817.62	48720.00
818.36	48524.00
819.09	48363.00
819.83	48054.00
820.57	47957.00
821.30	47889.00
822.04	47806.00
822.77	47530.00
823.51	47367.00
824.25	47275.00
824.98	47142.00
825.72	47190.00
826.45	47063.00
827.19	46890.00
827.92	46669.00
828.66	46411.00
829.40	46197.00
830.13	46131.00
830.87	46172.00
831.60	46044.00
832.34	45972.00
833.07	45906.00
833.81	45826.00
834.54	46003.00
835.28	46053.00
836.01	46020.00
836.75	45749.00
837.48	45533.00
838.22	45376.00
838.95	45162.00
839.68	45180.00
840.42	45275.00
841.15	45192.00
841.89	45138.00
842.62	44875.00
843.36	44666.00
844.09	44644.00
844.82	44768.00
845.56	44753.00
846.29	44674.00
847.02	44437.00
847.76	44373.00
848.49	44445.00
849.23	44627.00
849.96	44834.00
850.69	44883.00
851.43	44755.00
852.16	44397.00
852.89	44086.00
853.63	43893.00
854.36	43745.00
855.09	43635.00
855.82	43547.00
856.56	43441.00
857.29	43284.00
858.02	43224.00
858.76	43205.00
859.49	43114.00
860.22	43145.00
860.95	43113.00
861.69	43015.00
862.42	42783.00
863.15	42564.00
863.88	42622.00
864.61	42601.00
865.35	42586.00
866.08	42607.00
866.81	42424.00
867.54	42103.00
868.27	41982.00
869.01	41832.00
869.74	41834.00
870.47	41831.00
871.20	41686.00
871.93	41450.00
872.66	41215.00
873.40	40971.00
874.13	40761.00
874.86	40689.00
875.59	40630.00
876.32	40514.00
877.05	40381.00
877.78	40321.00
878.51	40162.00
879.24	40057.00
879.97	39921.00
880.71	39741.00
881.44	39624.00
882.17	39528.00
882.90	39467.00
883.63	39228.00
884.36	39178.00
885.09	39163.00
885.82	39284.00
886.55	39361.00
887.28	39485.00
888.01	39261.00
888.74	39047.00
889.47	38825.00
890.20	38541.00
890.93	38338.00
891.66	38220.00
892.39	38124.00
893.12	38154.00
893.85	38058.00
894.57	38072.00
895.30	38072.00
896.03	38154.00
896.76	38107.00
897.49	37923.00
898.22	37804.00
898.95	37586.00
899.68	37458.00
900.41	37242.00
901.14	37027.00
901.86	36874.00
902.59	36849.00
903.32	36772.00
904.05	36754.00
904.78	36607.00
905.51	36435.00
906.24	36272.00
906.96	36294.00
907.69	36069.00
908.42	35875.00
909.15	35667.00
909.88	35552.00
910.60	35452.00
911.33	35232.00
912.06	35095.00
912.79	34970.00
913.52	34776.00
914.24	34674.00
914.97	34680.00
915.70	34504.00
916.42	34371.00
917.15	34152.00
917.88	34025.00
918.61	33799.00
919.33	33516.00
920.06	33344.00
920.79	33077.00
921.51	32985.00
922.24	32868.00
922.97	32749.00
923.69	32559.00
924.42	32462.00
925.15	32381.00
925.87	32170.00
926.60	31940.00
927.33	31720.00
928.05	31347.00
928.78	31116.00
929.51	30782.00
930.23	30403.00
930.96	30014.00
931.68	29677.00
932.41	29286.00
933.14	29020.00
933.86	28637.00
934.59	28271.00
935.31	27852.00
936.04	27336.00
936.76	26889.00
937.49	26455.00
938.21	26025.00
938.94	25535.00
939.66	25071.00
940.39	24684.00
941.11	24271.00
941.84	23945.00
942.56	23626.00
943.29	23348.00
944.01	23145.00
944.74	23025.00
945.46	23001.00
946.19	22943.00
946.91	23016.00
947.64	23053.00
948.36	23168.00
949.09	23197.00
949.81	23351.00
950.53	23417.00
951.26	23499.00
951.98	23530.00
952.71	23544.00
953.43	23604.00
954.15	23752.00
954.88	23928.00
955.60	23915.00
956.33	23970.00
957.05	23966.00
957.77	23996.00
958.50	24040.00
959.22	24120.00
959.94	24112.00
960.67	23999.00
961.39	23930.00
962.11	23962.00
962.84	24038.00
963.56	23954.00
964.28	23950.00
965.00	23839.00
965.73	23596.00
966.45	23445.00
967.17	23342.00
967.89	23223.00
968.62	23101.00
969.34	22965.00
970.06	22722.00
970.78	22611.00
971.51	22533.00
972.23	22385.00
972.95	22126.00
973.67	22005.00
974.40	21802.00
975.12	21668.00
975.84	21519.00
976.56	21396.00
977.28	21197.00
978.00	21120.00
978.73	21055.00
979.45	20892.00
980.17	20897.00
980.89	20824.00
981.61	20814.00
982.33	20689.00
983.05	20612.00
983.77	20619.00
984.50	20496.00
985.22	20463.00
985.94	20300.00
986.66	20225.00
987.38	20146.00
988.10	20126.00
988.82	20047.00
989.54	19929.00
990.26	19791.00
990.98	19702.00
991.70	19485.00
992.42	19453.00
993.14	19349.00
993.86	19129.00
994.58	19008.00
995.30	18835.00
996.02	18711.00
996.74	18629.00
997.46	18597.00
998.18	18490.00
998.90	18355.00
999.62	18239.00
1000.34	18119.00
1001.06	18086.00
1001.78	17985.00
1002.50	17843.00
1003.22	17702.00
1003.94	17529.00
1004.66	17366.00
1005.38	17255.00
1006.09	17076.00
1006.81	16870.00
1007.53	16731.00
1008.25	16521.00
1008.97	16391.00
1009.69	16352.00
1010.41	16257.00
1011.13	16036.00
1011.84	15917.00
1012.56	15763.00
1013.28	15590.00
1014.00	15502.00
1014.72	15382.00
1015.44	15157.00
1016.15	14906.00
1016.87	14701.00
1017.59	14514.00
1018.31	14397.00
1019.03	14348.00
1019.74	14253.00
1020.46	14093.00
1021.18	13985.00
1021.90	13926.00
1022.61	13752.00
1023.33	13679.00
1024.05	13520.00
1024.76	13303.00
1025.48	13160.00
1026.20	12975.00
1026.92	12740.00
1027.63	12596.00
1028.35	12476.00
1029.07	12300.00
1029.78	12168.00
1030.50	11967.00
1031.22	11840.00
1031.93	11707.00
1032.65	11628.00
1033.37	11537.00
1034.08	11378.00
1034.80	11330.00
1035.52	11239.00
1036.23	11100.00
1036.95	11029.00
1037.66	10926.00
1038.38	10829.00
1039.10	10657.00
1039.81	10469.00
1040.53	10289.00
1041.24	10114.00
1041.96	10011.00
1042.67	9879.00
1043.39	9757.00
1044.10	9642.00
1044.82	9589.00
1045.54	9419.00
1046.25	9343.00
1046.97	9219.00
1047.68	9101.00
1048.40	8913.00
1049.11	8752.00
1049.83	8606.00
1050.54	8557.00
1051.26	8415.00
1051.97	8323.00
1052.68	8208.00
1053.40	8111.00
1054.11	7993.00
1054.83	7862.00
1055.54	7778.00
1056.26	7628.00
1056.97	7545.00
1057.69	7465.00
1058.40	7334.00
1059.11	7262.00
1059.83	7122.00
1060.54	6951.00
1061.25	6819.00
1061.97	6677.00
1062.68	6532.00
1063.40	6405.00
1064.11	6279.00
1064.82	6171.00
1065.54	6034.00
1066.25	2559.00
1066.96	2559.00
1067.68	2558.00
1068.39	2558.00
1069.10	2605.00
1069.82	2611.00
1070.53	2614.00
1071.24	2611.00
1071.95	2608.00
1072.67	2610.00
1073.38	5893.00
1074.09	5773.00
1074.80	5666.00
1075.52	5532.00
1076.23	5414.00
1076.94	5347.00
1077.65	2615.00
1078.37	2607.00
1079.08	2607.00
1079.79	2624.00
