300.47	2614.00
301.26	2618.00
302.04	2612.00
302.82	2614.00
303.60	2611.00
304.38	2612.00
305.17	2614.00
305.95	2615.00
306.73	2610.00
307.51	2611.00
308.29	2613.00
309.08	2609.00
309.86	2614.00
310.64	2611.00
311.42	2611.00
312.20	2616.00
312.98	2612.00
313.76	2614.00
314.55	2609.00
315.33	2611.00
316.11	2612.00
316.89	2615.00
317.67	2611.00
318.45	2609.00
319.23	2615.00
320.01	2612.00
320.79	2615.00
321.57	2619.00
322.35	2610.00
323.13	2613.00
323.91	2617.00
324.69	2619.00
325.47	2615.00
326.25	2613.00
327.03	2618.00
327.81	2613.00
328.59	2614.00
329.37	2619.00
330.15	2615.00
330.93	2618.00
331.71	2615.00
332.49	2616.00
333.27	2621.00
334.05	2621.00
334.83	2620.00
335.61	2620.00
336.39	2619.00
337.17	2617.00
337.95	2626.00
338.73	2622.00
339.51	2625.00
340.29	2626.00
341.07	2629.00
341.84	2627.00
342.62	2635.00
343.40	2635.00
344.18	2634.00
344.96	2639.00
345.74	2635.00
346.52	2642.00
347.29	2644.00
348.07	2644.00
348.85	2646.00
349.63	2652.00
350.41	2652.00
351.18	2655.00
351.96	2653.00
352.74	2657.00
353.52	2669.00
354.30	2673.00
355.07	2673.00
355.85	2676.00
356.63	2682.00
357.41	2688.00
358.18	2695.00
358.96	2701.00
359.74	2706.00
360.52	2703.00
361.29	2710.00
362.07	2715.00
362.85	2729.00
363.62	2726.00
364.40	2734.00
365.18	2744.00
365.95	2745.00
366.73	2759.00
367.51	2764.00
368.28	2774.00
369.06	2775.00
369.84	2789.00
370.61	2792.00
371.39	2804.00
372.17	2808.00
372.94	2826.00
373.72	2828.00
374.49	2837.00
375.27	2857.00
376.05	2868.00
376.82	2881.00
377.60	2884.00
378.37	2898.00
379.15	2918.00
379.92	2933.00
380.70	2941.00
381.47	2957.00
382.25	2974.00
383.02	2986.00
383.80	3000.00
384.58	3008.00
385.35	3030.00
386.13	3057.00
386.90	3075.00
387.67	3083.00
388.45	3099.00
389.22	3117.00
390.00	3137.00
390.77	3157.00
391.55	3173.00
392.32	3188.00
393.10	3210.00
393.87	3232.00
394.65	3260.00
395.42	3278.00
396.19	3303.00
396.97	3326.00
397.74	3332.00
398.52	3365.00
399.29	3395.00
400.06	3412.00
400.84	3425.00
401.61	3461.00
402.38	3490.00
403.16	3508.00
403.93	3536.00
404.70	3548.00
405.48	3568.00
406.25	3592.00
407.02	3623.00
407.80	3652.00
408.57	3676.00
409.34	3712.00
410.12	3736.00
410.89	3760.00
411.66	3780.00
412.43	3799.00
413.21	3826.00
413.98	3870.00
414.75	3893.00
415.52	3915.00
416.30	3928.00
417.07	3991.00
417.84	4024.00
418.61	4048.00
419.39	4082.00
420.16	4107.00
420.93	4132.00
421.70	4155.00
422.47	4200.00
423.24	4227.00
424.02	4262.00
424.79	4295.00
425.56	4340.00
426.33	4366.00
427.10	4420.00
427.87	4460.00
428.64	4480.00
429.42	4524.00
430.19	4569.00
430.96	4610.00
431.73	4668.00
432.50	4695.00
433.27	4750.00
434.04	4796.00
434.81	4841.00
435.58	4886.00
436.35	4923.00
437.12	4981.00
437.89	5043.00
438.67	5101.00
439.44	5139.00
440.21	5178.00
440.98	5236.00
441.75	5264.00
442.52	5370.00
443.29	5410.00
444.06	5481.00
444.83	5557.00
445.60	5607.00
446.37	5669.00
447.13	5736.00
447.90	5790.00
448.67	5855.00
449.44	5924.00
450.21	6014.00
450.98	6083.00
451.75	6113.00
452.52	6196.00
453.29	6271.00
454.06	6359.00
454.83	6448.00
455.60	6514.00
456.37	6589.00
457.13	6683.00
457.90	6763.00
458.67	6837.00
459.44	6936.00
460.21	7022.00
460.98	7100.00
461.75	7175.00
462.51	7257.00
463.28	7387.00
464.05	7464.00
464.82	7548.00
465.59	7680.00
466.35	7724.00
467.12	7844.00
467.89	7937.00
468.66	8059.00
469.43	8128.00
470.19	8214.00
470.96	8353.00
471.73	8432.00
472.50	8555.00
473.26	8699.00
474.03	8776.00
474.80	8902.00
475.56	8988.00
476.33	9132.00
477.10	9199.00
477.87	9313.00
478.63	9431.00
479.40	9569.00
480.17	9688.00
480.93	9803.00
481.70	9920.00
482.47	10029.00
483.23	10159.00
484.00	10270.00
484.76	10423.00
485.53	10574.00
486.30	10666.00
487.06	10837.00
487.83	10950.00
488.60	11089.00
489.36	11248.00
490.13	11359.00
490.89	11492.00
491.66	11615.00
492.42	11733.00
493.19	11892.00
493.96	12085.00
494.72	12170.00
495.49	12317.00
496.25	12417.00
497.02	12600.00
497.78	12701.00
498.55	12884.00
499.31	12988.00
500.08	13133.00
500.84	13313.00
501.61	13425.00
502.37	13590.00
503.14	13747.00
503.90	13884.00
504.67	14076.00
505.43	14213.00
506.20	14372.00
506.96	14527.00
507.72	14720.00
508.49	14891.00
509.25	15046.00
510.02	15199.00
510.78	15386.00
511.54	15565.00
512.31	15744.00
513.07	15886.00
513.84	16017.00
514.60	16173.00
515.36	16385.00
516.13	16520.00
516.89	16692.00
517.65	16768.00
518.42	16892.00
519.18	17089.00
519.94	17291.00
520.71	17438.00
521.47	17609.00
522.23	17766.00
523.00	17917.00
523.76	18139.00
524.52	18329.00
525.28	18520.00
526.05	18676.00
526.81	18786.00
527.57	18955.00
528.33	19221.00
529.10	19357.00
529.86	19544.00
530.62	19694.00
531.38	19926.00
532.15	20083.00
532.91	20229.00
533.67	20435.00
534.43	20513.00
535.19	20752.00
535.96	21028.00
536.72	21107.00
537.48	21238.00
538.24	21470.00
539.00	21696.00
539.76	21898.00
540.53	22129.00
541.29	22364.00
542.05	22448.00
542.81	22631.00
543.57	22863.00
544.33	23099.00
545.09	23262.00
545.85	23470.00
546.61	23511.00
547.38	23782.00
548.14	23877.00
548.90	24128.00
549.66	24356.00
550.42	24546.00
551.18	24741.00
551.94	24863.00
552.70	25075.00
553.46	25270.00
554.22	25447.00
554.98	25738.00
555.74	25803.00
556.50	25972.00
557.26	26260.00
558.02	26466.00
558.78	26703.00
559.54	26847.00
560.30	27038.00
561.06	27219.00
561.82	27438.00
562.58	27644.00
563.34	27866.00
564.10	28051.00
564.86	28119.00
565.61	28407.00
566.37	28566.00
567.13	28842.00
567.89	29051.00
568.65	29156.00
569.41	29356.00
570.17	29526.00
570.93	29709.00
571.69	29927.00
572.44	30089.00
573.20	30280.00
573.96	30439.00
574.72	30641.00
575.48	30852.00
576.24	31119.00
576.99	31228.00
577.75	31481.00
578.51	31688.00
579.27	31882.00
580.03	32176.00
580.78	32317.00
581.54	32538.00
582.30	32695.00
583.06	32946.00
583.82	33030.00
584.57	33275.00
585.33	33447.00
586.09	33713.00
586.84	33818.00
587.60	33810.00
588.36	34006.00
589.12	34269.00
589.87	34429.00
590.63	34646.00
591.39	34864.00
592.14	34945.00
592.90	35107.00
593.66	35300.00
594.41	35625.00
595.17	35773.00
595.93	35913.00
596.68	35958.00
597.44	36110.00
598.20	36423.00
598.95	36708.00
599.71	36928.00
600.46	37119.00
601.22	37197.00
601.98	37372.00
602.73	37673.00
603.49	37996.00
604.24	38245.00
605.00	38419.00
605.76	38578.00
606.51	38673.00
607.27	38904.00
608.02	39155.00
608.78	39414.00
609.53	39577.00
610.29	39727.00
611.04	39974.00
611.80	40268.00
612.55	40424.00
613.31	40690.00
614.06	41060.00
614.82	41183.00
615.57	41442.00
616.33	41658.00
617.08	41817.00
617.84	41912.00
618.59	42025.00
619.35	42140.00
620.10	42141.00
620.85	42109.00
621.61	42136.00
622.36	42130.00
623.12	42151.00
623.87	42263.00
624.62	42371.00
625.38	42480.00
626.13	42560.00
626.89	42829.00
627.64	43000.00
628.39	43003.00
629.15	43148.00
629.90	43256.00
630.65	43320.00
631.41	43326.00
632.16	43373.00
632.91	43295.00
633.67	43290.00
634.42	43302.00
635.17	43457.00
635.92	43808.00
636.68	44256.00
637.43	44817.00
638.18	45308.00
638.94	45798.00
639.69	46097.00
640.44	46641.00
641.19	47042.00
641.95	47395.00
642.70	47655.00
643.45	47877.00
644.20	48159.00
644.95	48326.00
645.71	48460.00
646.46	48614.00
647.21	48751.00
647.96	48810.00
648.71	48959.00
649.47	49122.00
650.22	49077.00
650.97	49142.00
651.72	49298.00
652.47	49311.00
653.22	49524.00
653.97	49608.00
654.73	49777.00
655.48	49992.00
656.23	50236.00
656.98	50566.00
657.73	50658.00
658.48	50907.00
659.23	50930.00
659.98	50941.00
660.73	51068.00
661.48	51141.00
662.23	51266.00
662.99	51204.00
663.74	51265.00
664.49	51500.00
665.24	51990.00
665.99	52346.00
666.74	52550.00
667.49	52531.00
668.24	52548.00
668.99	52820.00
669.74	53000.00
670.49	53008.00
671.24	53194.00
671.99	53315.00
672.74	53470.00
673.48	53622.00
674.23	53753.00
674.98	53736.00
675.73	53846.00
676.48	54004.00
677.23	54121.00
677.98	54270.00
678.73	54368.00
679.48	54348.00
680.23	54513.00
680.98	54394.00
681.73	54529.00
682.47	54396.00
683.22	54443.00
683.97	54520.00
684.72	54551.00
685.47	54783.00
686.22	54872.00
686.97	55031.00
687.71	55306.00
688.46	55537.00
689.21	55658.00
689.96	55577.00
690.71	55642.00
691.45	55716.00
692.20	55747.00
692.95	55727.00
693.70	55689.00
694.44	55867.00
695.19	55940.00
695.94	56079.00
696.69	56156.00
697.43	56171.00
698.18	56244.00
698.93	56306.00
699.68	56328.00
700.42	56345.00
701.17	56322.00
701.92	56389.00
702.66	56491.00
703.41	56639.00
704.16	56591.00
704.90	56542.00
705.65	56678.00
706.40	56612.00
707.14	56701.00
707.89	56729.00
708.64	56752.00
709.38	56856.00
710.13	56839.00
710.88	56971.00
711.62	57060.00
712.37	57084.00
713.11	57085.00
713.86	57173.00
714.61	57102.00
715.35	57000.00
716.10	56793.00
716.84	56630.00
717.59	56385.00
718.33	56195.00
719.08	56064.00
719.83	56034.00
720.57	55886.00
721.32	55961.00
722.06	55848.00
722.81	55837.00
723.55	55875.00
724.30	56098.00
725.04	56142.00
725.79	56139.00
726.53	56133.00
727.28	56081.00
728.02	56204.00
728.76	56118.00
729.51	56261.00
730.25	56156.00
731.00	56098.00
731.74	56228.00
732.49	56310.00
733.23	56118.00
733.97	56000.00
734.72	55939.00
735.46	55737.00
736.21	55766.00
736.95	55739.00
737.69	55933.00
738.44	55997.00
739.18	55956.00
739.92	56066.00
740.67	56161.00
741.41	56328.00
742.15	56473.00
742.90	56684.00
743.64	56698.00
744.38	56656.00
745.13	56614.00
745.87	56656.00
746.61	56777.00
747.36	56876.00
748.10	56754.00
748.84	56774.00
749.58	56589.00
750.33	56469.00
751.07	56479.00
751.81	56286.00
752.55	56181.00
753.30	56105.00
754.04	55937.00
754.78	55584.00
755.52	55482.00
756.27	55293.00
757.01	55106.00
757.75	55196.00
758.49	55247.00
759.23	55363.00
759.97	55206.00
760.72	55211.00
761.46	55369.00
762.20	55377.00
762.94	55407.00
763.68	55344.00
764.42	55223.00
765.16	55177.00
765.91	55172.00
766.65	55145.00
767.39	55032.00
768.13	54904.00
768.87	54778.00
769.61	54782.00
770.35	54799.00
771.09	54667.00
771.83	54607.00
772.57	54550.00
773.31	54644.00
774.05	54622.00
774.80	54536.00
775.54	54410.00
776.28	54249.00
777.02	54090.00
777.76	54067.00
778.50	53943.00
779.24	53804.00
779.98	53735.00
780.72	53456.00
781.46	53411.00
782.20	53446.00
782.93	53378.00
783.67	53311.00
784.41	53213.00
785.15	53077.00
785.89	52821.00
786.63	52654.00
787.37	52563.00
788.11	52294.00
788.85	52142.00
789.59	52240.00
790.33	52296.00
791.07	52259.00
791.81	52191.00
792.54	52022.00
793.28	51793.00
794.02	51599.00
794.76	51324.00
795.50	51109.00
796.24	50802.00
796.97	50532.00
797.71	50307.00
798.45	50172.00
799.19	50005.00
799.93	49959.00
800.67	49820.00
801.40	49801.00
802.14	49821.00
802.88	50019.00
803.62	49979.00
804.35	49931.00
805.09	49897.00
805.83	49751.00
806.57	49733.00
807.30	49874.00
808.04	49874.00
808.78	49854.00
809.52	49552.00
810.25	49291.00
810.99	49189.00
811.73	49064.00
812.46	48841.00
813.20	48800.00
813.94	48768.00
814.68	48621.00
815.41	48521.00
816.15	48692.00
816.88	48826.00
817.62	48797.00
818.36	48623.00
819.09	48446.00
819.83	48185.00
820.57	47949.00
821.30	47871.00
822.04	47731.00
822.77	47594.00
823.51	47343.00
824.25	47277.00
824.98	47346.00
825.72	47235.00
826.45	47105.00
827.19	46903.00
827.92	46600.00
828.66	46416.00
829.40	46235.00
830.13	46218.00
830.87	46146.00
831.60	46100.00
832.34	45977.00
833.07	45934.00
833.81	45937.00
834.54	46109.00
835.28	46055.00
836.01	46027.00
836.75	45761.00
837.48	45563.00
838.22	45472.00
838.95	45306.00
839.68	45277.00
840.42	45346.00
841.15	45314.00
841.89	45177.00
842.62	44965.00
843.36	44815.00
844.09	44674.00
844.82	44705.00
845.56	44810.00
846.29	44670.00
847.02	44505.00
847.76	44398.00
848.49	44445.00
849.23	44667.00
849.96	44968.00
850.69	44936.00
851.43	44703.00
852.16	44434.00
852.89	44213.00
853.63	44003.00
854.36	43787.00
855.09	43692.00
855.82	43729.00
856.56	43596.00
857.29	43324.00
858.02	43277.00
858.76	43204.00
859.49	43208.00
860.22	43233.00
860.95	43016.00
861.69	42986.00
862.42	42726.00
863.15	42644.00
863.88	42599.00
864.61	42566.00
865.35	42628.00
866.08	42596.00
866.81	42376.00
867.54	42172.00
868.27	41937.00
869.01	41865.00
869.74	41830.00
870.47	41864.00
871.20	41741.00
871.93	41485.00
872.66	41301.00
873.40	41072.00
874.13	40892.00
874.86	40829.00
875.59	40602.00
876.32	40545.00
877.05	40456.00
877.78	40324.00
878.51	40241.00
879.24	40092.00
879.97	39941.00
880.71	39797.00
881.44	39702.00
882.17	39568.00
882.90	39449.00
883.63	39197.00
884.36	39278.00
885.09	39211.00
885.82	39303.00
886.55	39433.00
887.28	39484.00
888.01	39379.00
888.74	39205.00
889.47	38902.00
890.20	38662.00
890.93	38333.00
891.66	38240.00
892.39	38218.00
893.12	38179.00
893.85	38109.00
894.57	38171.00
895.30	38189.00
896.03	38177.00
896.76	38153.00
897.49	38040.00
898.22	37832.00
898.95	37723.00
899.68	37487.00
900.41	37247.00
901.14	37068.00
901.86	37007.00
902.59	36871.00
903.32	36765.00
904.05	36719.00
904.78	36686.00
905.51	36449.00
906.24	36298.00
906.96	36253.00
907.69	36087.00
908.42	35901.00
909.15	35697.00
909.88	35544.00
910.60	35451.00
911.33	35358.00
912.06	35230.00
912.79	34990.00
913.52	34843.00
914.24	34652.00
914.97	34651.00
915.70	34543.00
916.42	34408.00
917.15	34244.00
917.88	34140.00
918.61	33815.00
919.33	33566.00
920.06	33328.00
920.79	33119.00
921.51	32979.00
922.24	32887.00
922.97	32784.00
923.69	32550.00
924.42	32528.00
925.15	32363.00
925.87	32163.00
926.60	32113.00
927.33	31726.00
928.05	31421.00
928.78	31093.00
929.51	30760.00
930.23	30406.00
930.96	30075.00
931.68	29692.00
932.41	29288.00
933.14	28988.00
933.86	28674.00
934.59	28315.00
935.31	27889.00
936.04	27391.00
936.76	26974.00
937.49	26503.00
938.21	26084.00
938.94	25509.00
939.66	25068.00
940.39	24684.00
941.11	24328.00
941.84	23933.00
942.56	23618.00
943.29	23375.00
944.01	23145.00
944.74	23010.00
945.46	22978.00
946.19	22929.00
946.91	23038.00
947.64	23026.00
948.36	23156.00
949.09	23259.00
949.81	23312.00
950.53	23403.00
951.26	23515.00
951.98	23600.00
952.71	23597.00
953.43	23731.00
954.15	23738.00
954.88	23834.00
955.60	23894.00
956.33	23908.00
957.05	23948.00
957.77	24004.00
958.50	24096.00
959.22	24107.00
959.94	24090.00
960.67	23981.00
961.39	23972.00
962.11	23950.00
962.84	24045.00
963.56	23952.00
964.28	23942.00
965.00	23868.00
965.73	23684.00
966.45	23497.00
967.17	23415.00
967.89	23278.00
968.62	23145.00
969.34	22904.00
970.06	22782.00
970.78	22613.00
971.51	22510.00
972.23	22325.00
972.95	22228.00
973.67	22049.00
974.40	21806.00
975.12	21706.00
975.84	21568.00
976.56	21390.00
977.28	21221.00
978.00	21110.00
978.73	21078.00
979.45	20970.00
980.17	20914.00
980.89	20828.00
981.61	20805.00
982.33	20735.00
983.05	20644.00
983.77	20532.00
984.50	20476.00
985.22	20407.00
985.94	20372.00
986.66	20316.00
987.38	20108.00
988.10	19990.00
988.82	20027.00
989.54	19967.00
990.26	19802.00
990.98	19703.00
991.70	19528.00
992.42	19452.00
993.14	19316.00
993.86	19160.00
994.58	19016.00
995.30	18869.00
996.02	18738.00
996.74	18687.00
997.46	18595.00
998.18	18537.00
998.90	18398.00
999.62	18266.00
1000.34	18194.00
1001.06	18121.00
1001.78	17994.00
1002.50	17896.00
1003.22	17684.00
1003.94	17537.00
1004.66	17414.00
1005.38	17208.00
1006.09	17122.00
1006.81	16929.00
1007.53	16705.00
1008.25	16561.00
1008.97	16413.00
1009.69	16345.00
1010.41	16249.00
1011.13	16102.00
1011.84	15943.00
1012.56	15752.00
1013.28	15651.00
1014.00	15516.00
1014.72	15408.00
1015.44	15169.00
1016.15	14944.00
1016.87	14716.00
1017.59	14517.00
1018.31	14404.00
1019.03	14305.00
1019.74	14247.00
1020.46	14164.00
1021.18	13955.00
1021.90	13895.00
1022.61	13781.00
1023.33	13618.00
1024.05	13544.00
1024.76	13388.00
1025.48	13097.00
1026.20	12971.00
1026.92	12775.00
1027.63	12568.00
1028.35	12475.00
1029.07	12339.00
1029.78	12169.00
1030.50	11990.00
1031.22	11832.00
1031.93	11758.00
1032.65	11593.00
1033.37	11514.00
1034.08	11399.00
1034.80	11333.00
1035.52	11264.00
1036.23	11123.00
1036.95	11048.00
1037.66	10918.00
1038.38	10798.00
1039.10	10640.00
1039.81	10445.00
1040.53	10325.00
1041.24	10131.00
1041.96	10036.00
1042.67	9902.00
1043.39	9785.00
1044.10	9701.00
1044.82	9592.00
1045.54	9469.00
1046.25	9349.00
1046.97	9232.00
1047.68	9128.00
1048.40	8947.00
1049.11	8774.00
1049.83	8651.00
1050.54	8538.00
1051.26	8452.00
1051.97	8348.00
1052.68	8220.00
1053.40	8089.00
1054.11	8013.00
1054.83	7894.00
1055.54	7739.00
1056.26	7664.00
1056.97	7565.00
1057.69	7451.00
1058.40	7361.00
1059.11	7253.00
1059.83	7110.00
1060.54	6949.00
1061.25	6794.00
1061.97	6681.00
1062.68	6523.00
1063.40	6405.00
1064.11	6287.00
1064.82	6150.00
1065.54	6022.00
1066.25	2559.00
1066.96	2559.00
1067.68	2559.00
1068.39	2557.00
1069.10	2610.00
1069.82	2610.00
1070.53	2612.00
1071.24	2611.00
1071.95	2612.00
1072.67	2610.00
1073.38	5909.00
1074.09	5781.00
1074.80	5659.00
1075.52	5568.00
1076.23	5434.00
1076.94	5332.00
1077.65	2613.00
1078.37	2607.00
1079.08	2611.00
1079.79	2630.00
