300.47	2613.00
301.26	2617.00
302.04	2616.00
302.82	2614.00
303.60	2623.00
304.38	2616.00
305.17	2617.00
305.95	2613.00
306.73	2612.00
307.51	2617.00
308.29	2615.00
309.08	2609.00
309.86	2616.00
310.64	2616.00
311.42	2619.00
312.20	2614.00
312.98	2613.00
313.76	2623.00
314.55	2616.00
315.33	2617.00
316.11	2616.00
316.89	2617.00
317.67	2616.00
318.45	2613.00
319.23	2615.00
320.01	2617.00
320.79	2614.00
321.57	2617.00
322.35	2618.00
323.13	2618.00
323.91	2615.00
324.69	2621.00
325.47	2613.00
326.25	2622.00
327.03	2617.00
327.81	2621.00
328.59	2621.00
329.37	2620.00
330.15	2620.00
330.93	2621.00
331.71	2621.00
332.49	2623.00
333.27	2623.00
334.05	2626.00
334.83	2620.00
335.61	2622.00
336.39	2621.00
337.17	2624.00
337.95	2624.00
338.73	2620.00
339.51	2628.00
340.29	2633.00
341.07	2632.00
341.84	2630.00
342.62	2634.00
343.40	2637.00
344.18	2643.00
344.96	2639.00
345.74	2640.00
346.52	2636.00
347.29	2645.00
348.07	2648.00
348.85	2651.00
349.63	2656.00
350.41	2656.00
351.18	2659.00
351.96	2667.00
352.74	2666.00
353.52	2669.00
354.30	2673.00
355.07	2673.00
355.85	2677.00
356.63	2682.00
357.41	2688.00
358.18	2692.00
358.96	2701.00
359.74	2706.00
360.52	2706.00
361.29	2715.00
362.07	2719.00
362.85	2724.00
363.62	2731.00
364.40	2739.00
365.18	2747.00
365.95	2751.00
366.73	2757.00
367.51	2765.00
368.28	2777.00
369.06	2784.00
369.84	2789.00
370.61	2800.00
371.39	2802.00
372.17	2821.00
372.94	2833.00
373.72	2845.00
374.49	2842.00
375.27	2857.00
376.05	2862.00
376.82	2879.00
377.60	2898.00
378.37	2906.00
379.15	2906.00
379.92	2938.00
380.70	2954.00
381.47	2948.00
382.25	2973.00
383.02	2986.00
383.80	3007.00
384.58	3012.00
385.35	3031.00
386.13	3057.00
386.90	3062.00
387.67	3088.00
388.45	3101.00
389.22	3128.00
390.00	3143.00
390.77	3161.00
391.55	3177.00
392.32	3203.00
393.10	3211.00
393.87	3236.00
394.65	3263.00
395.42	3279.00
396.19	3306.00
396.97	3322.00
397.74	3354.00
398.52	3366.00
399.29	3399.00
400.06	3417.00
400.84	3427.00
401.61	3457.00
402.38	3475.00
403.16	3513.00
403.93	3527.00
404.70	3549.00
405.48	3581.00
406.25	3601.00
407.02	3625.00
407.80	3639.00
408.57	3682.00
409.34	3712.00
410.12	3725.00
410.89	3772.00
411.66	3767.00
412.43	3819.00
413.21	3840.00
413.98	3859.00
414.75	3891.00
415.52	3911.00
416.30	3951.00
417.07	3976.00
417.84	4014.00
418.61	4049.00
419.39	4072.00
420.16	4111.00
420.93	4125.00
421.70	4170.00
422.47	4199.00
423.24	4250.00
424.02	4259.00
424.79	4308.00
425.56	4329.00
426.33	4361.00
427.10	4423.00
427.87	4447.00
428.64	4495.00
429.42	4527.00
430.19	4561.00
430.96	4600.00
431.73	4656.00
432.50	4705.00
433.27	4734.00
434.04	4775.00
434.81	4846.00
435.58	4883.00
436.35	4944.00
437.12	4984.00
437.89	5021.00
438.67	5092.00
439.44	5157.00
440.21	5200.00
440.98	5233.00
441.75	5301.00
442.52	5370.00
443.29	5416.00
444.06	5490.00
444.83	5538.00
445.60	5629.00
446.37	5703.00
447.13	5703.00
447.90	5807.00
448.67	5858.00
449.44	5926.00
450.21	6009.00
450.98	6059.00
451.75	6127.00
452.52	6201.00
453.29	6280.00
454.06	6369.00
454.83	6430.00
455.60	6528.00
456.37	6597.00
457.13	6654.00
457.90	6785.00
458.67	6856.00
459.44	6934.00
460.21	7007.00
460.98	7103.00
461.75	7164.00
462.51	7286.00
463.28	7378.00
464.05	7476.00
464.82	7578.00
465.59	7677.00
466.35	7754.00
467.12	7822.00
467.89	7928.00
468.66	8065.00
469.43	8145.00
470.19	8241.00
470.96	8335.00
471.73	8436.00
472.50	8566.00
473.26	8666.00
474.03	8770.00
474.80	8863.00
475.56	9007.00
476.33	9107.00
477.10	9194.00
477.87	9302.00
478.63	9442.00
479.40	9562.00
480.17	9690.00
480.93	9827.00
481.70	9917.00
482.47	10043.00
483.23	10125.00
484.00	10289.00
484.76	10443.00
485.53	10550.00
486.30	10687.00
487.06	10798.00
487.83	10959.00
488.60	11116.00
489.36	11199.00
490.13	11350.00
490.89	11403.00
491.66	11601.00
492.42	11732.00
493.19	11868.00
493.96	12061.00
494.72	12173.00
495.49	12277.00
496.25	12414.00
497.02	12592.00
497.78	12713.00
498.55	12878.00
499.31	13006.00
500.08	13113.00
500.84	13272.00
501.61	13418.00
502.37	13572.00
503.14	13745.00
503.90	13926.00
504.67	14067.00
505.43	14212.00
506.20	14358.00
506.96	14524.00
507.72	14700.00
508.49	14870.00
509.25	15045.00
510.02	15245.00
510.78	15425.00
511.54	15532.00
512.31	15743.00
513.07	15857.00
513.84	16029.00
514.60	16191.00
515.36	16352.00
516.13	16480.00
516.89	16637.00
517.65	16768.00
518.42	16897.00
519.18	17104.00
519.94	17288.00
520.71	17419.00
521.47	17573.00
522.23	17761.00
523.00	17944.00
523.76	18180.00
524.52	18314.00
525.28	18470.00
526.05	18659.00
526.81	18809.00
527.57	19011.00
528.33	19182.00
529.10	19316.00
529.86	19504.00
530.62	19750.00
531.38	19877.00
532.15	20106.00
532.91	20252.00
533.67	20420.00
534.43	20543.00
535.19	20763.00
535.96	20955.00
536.72	21086.00
537.48	21256.00
538.24	21376.00
539.00	21661.00
539.76	21915.00
540.53	22123.00
541.29	22315.00
542.05	22431.00
542.81	22616.00
543.57	22862.00
544.33	23084.00
545.09	23277.00
545.85	23439.00
546.61	23579.00
547.38	23733.00
548.14	23902.00
548.90	24099.00
549.66	24315.00
550.42	24475.00
551.18	24691.00
551.94	24851.00
552.70	24983.00
553.46	25287.00
554.22	25547.00
554.98	25663.00
555.74	25849.00
556.50	25962.00
557.26	26222.00
558.02	26452.00
558.78	26675.00
559.54	26840.00
560.30	27000.00
561.06	27132.00
561.82	27374.00
562.58	27586.00
563.34	27839.00
564.10	28023.00
564.86	28179.00
565.61	28348.00
566.37	28630.00
567.13	28825.00
567.89	29041.00
568.65	29196.00
569.41	29348.00
570.17	29496.00
570.93	29713.00
571.69	29925.00
572.44	30006.00
573.20	30240.00
573.96	30419.00
574.72	30623.00
575.48	30913.00
576.24	31032.00
576.99	31231.00
577.75	31439.00
578.51	31688.00
579.27	31843.00
580.03	32049.00
580.78	32310.00
581.54	32532.00
582.30	32679.00
583.06	32948.00
583.82	33076.00
584.57	33227.00
585.33	33489.00
586.09	33645.00
586.84	33754.00
587.60	33862.00
588.36	34064.00
589.12	34272.00
589.87	34400.00
590.63	34565.00
591.39	34755.00
592.14	34914.00
592.90	35131.00
593.66	35367.00
594.41	35542.00
595.17	35750.00
595.93	35875.00
596.68	35966.00
597.44	36177.00
598.20	36347.00
598.95	36724.00
599.71	36931.00
600.46	37049.00
601.22	37154.00
601.98	37405.00
602.73	37732.00
603.49	38021.00
604.24	38275.00
605.00	38320.00
605.76	38465.00
606.51	38700.00
607.27	38828.00
608.02	39185.00
608.78	39372.00
609.53	39528.00
610.29	39692.00
611.04	40012.00
611.80	40198.00
612.55	40524.00
613.31	40710.00
614.06	40938.00
614.82	41105.00
615.57	41413.00
616.33	41634.00
617.08	41783.00
617.84	41939.00
618.59	42047.00
619.35	42099.00
620.10	42025.00
620.85	41974.00
621.61	42140.00
622.36	42127.00
623.12	42065.00
623.87	42163.00
624.62	42326.00
625.38	42457.00
626.13	42549.00
626.89	42789.00
627.64	42994.00
628.39	43062.00
629.15	43151.00
629.90	43255.00
630.65	43325.00
631.41	43284.00
632.16	43329.00
632.91	43276.00
633.67	43298.00
634.42	43337.00
635.17	43466.00
635.92	43797.00
636.68	44293.00
637.43	44827.00
638.18	45321.00
638.94	45711.00
639.69	46100.00
640.44	46492.00
641.19	46941.00
641.95	47363.00
642.70	47650.00
643.45	47881.00
644.20	48087.00
644.95	48293.00
645.71	48358.00
646.46	48496.00
647.21	48612.00
647.96	48682.00
648.71	48867.00
649.47	49000.00
650.22	49065.00
650.97	49056.00
651.72	49154.00
652.47	49353.00
653.22	49512.00
653.97	49704.00
654.73	49832.00
655.48	49968.00
656.23	50263.00
656.98	50513.00
657.73	50689.00
658.48	50856.00
659.23	50814.00
659.98	50851.00
660.73	51042.00
661.48	51155.00
662.23	51221.00
662.99	51186.00
663.74	51238.00
664.49	51419.00
665.24	51936.00
665.99	52369.00
666.74	52560.00
667.49	52454.00
668.24	52554.00
668.99	52732.00
669.74	52826.00
670.49	53134.00
671.24	53199.00
671.99	53267.00
672.74	53400.00
673.48	53617.00
674.23	53722.00
674.98	53832.00
675.73	53863.00
676.48	54031.00
677.23	54242.00
677.98	54329.00
678.73	54276.00
679.48	54336.00
680.23	54348.00
680.98	54393.00
681.73	54416.00
682.47	54452.00
683.22	54379.00
683.97	54466.00
684.72	54606.00
685.47	54707.00
686.22	54857.00
686.97	55072.00
687.71	55265.00
688.46	55399.00
689.21	55532.00
689.96	55481.00
690.71	55642.00
691.45	55681.00
692.20	55687.00
692.95	55737.00
693.70	55690.00
694.44	55825.00
695.19	55802.00
695.94	55978.00
696.69	56139.00
697.43	56128.00
698.18	56221.00
698.93	56227.00
699.68	56263.00
700.42	56204.00
701.17	56308.00
701.92	56440.00
702.66	56386.00
703.41	56437.00
704.16	56559.00
704.90	56547.00
705.65	56665.00
706.40	56560.00
707.14	56679.00
707.89	56778.00
708.64	56761.00
709.38	56825.00
710.13	56904.00
710.88	56998.00
711.62	57032.00
712.37	57003.00
713.11	57141.00
713.86	57231.00
714.61	57112.00
715.35	57035.00
716.10	56870.00
716.84	56653.00
717.59	56418.00
718.33	56150.00
719.08	56044.00
719.83	55999.00
720.57	55963.00
721.32	55919.00
722.06	55880.00
722.81	55831.00
723.55	55925.00
724.30	56063.00
725.04	56068.00
725.79	56007.00
726.53	56250.00
727.28	56065.00
728.02	56148.00
728.76	56132.00
729.51	56159.00
730.25	56289.00
731.00	56219.00
731.74	56171.00
732.49	56222.00
733.23	56152.00
733.97	55924.00
734.72	55856.00
735.46	55729.00
736.21	55823.00
736.95	55697.00
737.69	55801.00
738.44	55912.00
739.18	56062.00
739.92	56081.00
740.67	56156.00
741.41	56326.00
742.15	56518.00
742.90	56644.00
743.64	56598.00
744.38	56581.00
745.13	56566.00
745.87	56555.00
746.61	56705.00
747.36	56702.00
748.10	56832.00
748.84	56747.00
749.58	56526.00
750.33	56421.00
751.07	56360.00
751.81	56264.00
752.55	56114.00
753.30	56017.00
754.04	55829.00
754.78	55572.00
755.52	55513.00
756.27	55283.00
757.01	55178.00
757.75	55170.00
758.49	55272.00
759.23	55353.00
759.97	55255.00
760.72	55286.00
761.46	55268.00
762.20	55368.00
762.94	55297.00
763.68	55348.00
764.42	55224.00
765.16	55123.00
765.91	55122.00
766.65	55193.00
767.39	54968.00
768.13	54889.00
768.87	54791.00
769.61	54792.00
770.35	54753.00
771.09	54703.00
771.83	54525.00
772.57	54599.00
773.31	54516.00
774.05	54528.00
774.80	54548.00
775.54	54396.00
776.28	54321.00
777.02	54160.00
777.76	54110.00
778.50	53878.00
779.24	53736.00
779.98	53627.00
780.72	53477.00
781.46	53338.00
782.20	53429.00
782.93	53414.00
783.67	53229.00
784.41	53154.00
785.15	53020.00
785.89	52761.00
786.63	52594.00
787.37	52491.00
788.11	52375.00
788.85	52229.00
789.59	52175.00
790.33	52229.00
791.07	52189.00
791.81	52232.00
792.54	51948.00
793.28	51823.00
794.02	51624.00
794.76	51404.00
795.50	51017.00
796.24	50800.00
796.97	50535.00
797.71	50192.00
798.45	50129.00
799.19	49981.00
799.93	49932.00
800.67	49841.00
801.40	49825.00
802.14	49758.00
802.88	49931.00
803.62	49928.00
804.35	49951.00
805.09	49898.00
805.83	49712.00
806.57	49717.00
807.30	49824.00
808.04	49863.00
808.78	49694.00
809.52	49451.00
810.25	49285.00
810.99	49132.00
811.73	48969.00
812.46	48822.00
813.20	48851.00
813.94	48590.00
814.68	48599.00
815.41	48580.00
816.15	48584.00
816.88	48831.00
817.62	48788.00
818.36	48659.00
819.09	48346.00
819.83	48106.00
820.57	47979.00
821.30	47898.00
822.04	47834.00
822.77	47575.00
823.51	47378.00
824.25	47315.00
824.98	47288.00
825.72	47248.00
826.45	47170.00
827.19	46910.00
827.92	46742.00
828.66	46481.00
829.40	46218.00
830.13	46158.00
830.87	46124.00
831.60	46092.00
832.34	45992.00
833.07	45937.00
833.81	45881.00
834.54	46031.00
835.28	46023.00
836.01	46010.00
836.75	45807.00
837.48	45518.00
838.22	45452.00
838.95	45231.00
839.68	45320.00
840.42	45281.00
841.15	45338.00
841.89	45201.00
842.62	44853.00
843.36	44762.00
844.09	44677.00
844.82	44803.00
845.56	44720.00
846.29	44632.00
847.02	44507.00
847.76	44453.00
848.49	44430.00
849.23	44636.00
849.96	44933.00
850.69	44895.00
851.43	44764.00
852.16	44431.00
852.89	44157.00
853.63	43919.00
854.36	43819.00
855.09	43756.00
855.82	43631.00
856.56	43398.00
857.29	43275.00
858.02	43124.00
858.76	43221.00
859.49	43178.00
860.22	43201.00
860.95	43002.00
861.69	42921.00
862.42	42687.00
863.15	42608.00
863.88	42589.00
864.61	42587.00
865.35	42653.00
866.08	42564.00
866.81	42435.00
867.54	42120.00
868.27	41968.00
869.01	41908.00
869.74	41893.00
870.47	41887.00
871.20	41737.00
871.93	41479.00
872.66	41239.00
873.40	41029.00
874.13	40892.00
874.86	40745.00
875.59	40618.00
876.32	40510.00
877.05	40429.00
877.78	40354.00
878.51	40197.00
879.24	39988.00
879.97	39950.00
880.71	39737.00
881.44	39630.00
882.17	39599.00
882.90	39437.00
883.63	39235.00
884.36	39153.00
885.09	39208.00
885.82	39311.00
886.55	39329.00
887.28	39321.00
888.01	39344.00
888.74	39194.00
889.47	38803.00
890.20	38618.00
890.93	38291.00
891.66	38199.00
892.39	38204.00
893.12	38104.00
893.85	38149.00
894.57	38140.00
895.30	38097.00
896.03	38168.00
896.76	38062.00
897.49	38088.00
898.22	37848.00
898.95	37684.00
899.68	37476.00
900.41	37279.00
901.14	37092.00
901.86	37029.00
902.59	36806.00
903.32	36833.00
904.05	36756.00
904.78	36647.00
905.51	36446.00
906.24	36361.00
906.96	36216.00
907.69	36100.00
908.42	35866.00
909.15	35773.00
909.88	35513.00
910.60	35454.00
911.33	35276.00
912.06	35135.00
912.79	34953.00
913.52	34845.00
914.24	34734.00
914.97	34604.00
915.70	34523.00
916.42	34422.00
917.15	34252.00
917.88	34090.00
918.61	33865.00
919.33	33518.00
920.06	33352.00
920.79	33109.00
921.51	32950.00
922.24	32837.00
922.97	32710.00
923.69	32630.00
924.42	32581.00
925.15	32381.00
925.87	32153.00
926.60	31984.00
927.33	31694.00
928.05	31322.00
928.78	31097.00
929.51	30784.00
930.23	30323.00
930.96	30068.00
931.68	29673.00
932.41	29327.00
933.14	28995.00
933.86	28669.00
934.59	28341.00
935.31	27909.00
936.04	27424.00
936.76	26978.00
937.49	26464.00
938.21	25947.00
938.94	25481.00
939.66	25079.00
940.39	24669.00
941.11	24312.00
941.84	23949.00
942.56	23648.00
943.29	23352.00
944.01	23138.00
944.74	22998.00
945.46	22968.00
946.19	22971.00
946.91	23040.00
947.64	23034.00
948.36	23096.00
949.09	23207.00
949.81	23295.00
950.53	23404.00
951.26	23478.00
951.98	23565.00
952.71	23558.00
953.43	23614.00
954.15	23677.00
954.88	23857.00
955.60	23930.00
956.33	23984.00
957.05	23989.00
957.77	24000.00
958.50	24076.00
959.22	24112.00
959.94	24099.00
960.67	23993.00
961.39	24010.00
962.11	23958.00
962.84	23993.00
963.56	23973.00
964.28	23946.00
965.00	23785.00
965.73	23619.00
966.45	23530.00
967.17	23385.00
967.89	23228.00
968.62	23098.00
969.34	22894.00
970.06	22711.00
970.78	22626.00
971.51	22442.00
972.23	22347.00
972.95	22213.00
973.67	22089.00
974.40	21849.00
975.12	21674.00
975.84	21537.00
976.56	21369.00
977.28	21185.00
978.00	21099.00
978.73	21072.00
979.45	20945.00
980.17	20892.00
980.89	20824.00
981.61	20831.00
982.33	20723.00
983.05	20679.00
983.77	20627.00
984.50	20473.00
985.22	20422.00
985.94	20317.00
986.66	20233.00
987.38	20123.00
988.10	20059.00
988.82	20066.00
989.54	19963.00
990.26	19816.00
990.98	19756.00
991.70	19521.00
992.42	19402.00
993.14	19275.00
993.86	19198.00
994.58	18986.00
995.30	18873.00
996.02	18731.00
996.74	18649.00
997.46	18584.00
998.18	18503.00
998.90	18373.00
999.62	18257.00
1000.34	18123.00
1001.06	18094.00
1001.78	18037.00
1002.50	17882.00
1003.22	17712.00
1003.94	17516.00
1004.66	17413.00
1005.38	17250.00
1006.09	17066.00
1006.81	16924.00
1007.53	16692.00
1008.25	16518.00
1008.97	16443.00
1009.69	16340.00
1010.41	16239.00
1011.13	16070.00
1011.84	15893.00
1012.56	15716.00
1013.28	15644.00
1014.00	15488.00
1014.72	15299.00
1015.44	15131.00
1016.15	14913.00
1016.87	14700.00
1017.59	14526.00
1018.31	14398.00
1019.03	14313.00
1019.74	14228.00
1020.46	14090.00
1021.18	14016.00
1021.90	13949.00
1022.61	13776.00
1023.33	13695.00
1024.05	13524.00
1024.76	13304.00
1025.48	13131.00
1026.20	12978.00
1026.92	12765.00
1027.63	12615.00
1028.35	12482.00
1029.07	12320.00
1029.78	12197.00
1030.50	11972.00
1031.22	11840.00
1031.93	11771.00
1032.65	11615.00
1033.37	11512.00
1034.08	11396.00
1034.80	11318.00
1035.52	11233.00
1036.23	11123.00
1036.95	11028.00
1037.66	10926.00
1038.38	10792.00
1039.10	10694.00
1039.81	10488.00
1040.53	10294.00
1041.24	10115.00
1041.96	10027.00
1042.67	9883.00
1043.39	9766.00
1044.10	9694.00
1044.82	9551.00
1045.54	9513.00
1046.25	9336.00
1046.97	9239.00
1047.68	9090.00
1048.40	8930.00
1049.11	8767.00
1049.83	8627.00
1050.54	8524.00
1051.26	8455.00
1051.97	8319.00
1052.68	8208.00
1053.40	8135.00
1054.11	8001.00
1054.83	7870.00
1055.54	7755.00
1056.26	7663.00
1056.97	7562.00
1057.69	7463.00
1058.40	7384.00
1059.11	7273.00
1059.83	7113.00
1060.54	6968.00
1061.25	6818.00
1061.97	6687.00
1062.68	6524.00
1063.40	6390.00
1064.11	6287.00
1064.82	6162.00
1065.54	6059.00
1066.25	2567.00
1066.96	2564.00
1067.68	2563.00
1068.39	2564.00
1069.10	2614.00
1069.82	2613.00
1070.53	2613.00
1071.24	2615.00
1071.95	2614.00
1072.67	2616.00
1073.38	5910.00
1074.09	5784.00
1074.80	5656.00
1075.52	5553.00
1076.23	5434.00
1076.94	5343.00
1077.65	2615.00
1078.37	2611.00
1079.08	2610.00
1079.79	2630.00
