300.47	2613.00
301.26	2613.00
302.04	2610.00
302.82	2612.00
303.60	2614.00
304.38	2613.00
305.17	2614.00
305.95	2614.00
306.73	2611.00
307.51	2611.00
308.29	2609.00
309.08	2613.00
309.86	2614.00
310.64	2609.00
311.42	2617.00
312.20	2610.00
312.98	2609.00
313.76	2611.00
314.55	2611.00
315.33	2609.00
316.11	2611.00
316.89	2617.00
317.67	2614.00
318.45	2610.00
319.23	2614.00
320.01	2607.00
320.79	2613.00
321.57	2611.00
322.35	2613.00
323.13	2614.00
323.91	2618.00
324.69	2615.00
325.47	2616.00
326.25	2618.00
327.03	2615.00
327.81	2614.00
328.59	2616.00
329.37	2615.00
330.15	2614.00
330.93	2619.00
331.71	2616.00
332.49	2615.00
333.27	2619.00
334.05	2616.00
334.83	2621.00
335.61	2618.00
336.39	2625.00
337.17	2623.00
337.95	2624.00
338.73	2624.00
339.51	2625.00
340.29	2626.00
341.07	2630.00
341.84	2630.00
342.62	2632.00
343.40	2634.00
344.18	2637.00
344.96	2635.00
345.74	2637.00
346.52	2643.00
347.29	2640.00
348.07	2650.00
348.85	2644.00
349.63	2654.00
350.41	2649.00
351.18	2656.00
351.96	2658.00
352.74	2662.00
353.52	2661.00
354.30	2672.00
355.07	2677.00
355.85	2679.00
356.63	2683.00
357.41	2687.00
358.18	2684.00
358.96	2697.00
359.74	2705.00
360.52	2704.00
361.29	2710.00
362.07	2712.00
362.85	2721.00
363.62	2732.00
364.40	2733.00
365.18	2743.00
365.95	2747.00
366.73	2758.00
367.51	2767.00
368.28	2771.00
369.06	2778.00
369.84	2787.00
370.61	2799.00
371.39	2805.00
372.17	2815.00
372.94	2830.00
373.72	2824.00
374.49	2842.00
375.27	2853.00
376.05	2866.00
376.82	2877.00
377.60	2889.00
378.37	2898.00
379.15	2918.00
379.92	2924.00
380.70	2948.00
381.47	2949.00
382.25	2973.00
383.02	2983.00
383.80	2993.00
384.58	3019.00
385.35	3036.00
386.13	3045.00
386.90	3062.00
387.67	3094.00
388.45	3096.00
389.22	3124.00
390.00	3141.00
390.77	3142.00
391.55	3170.00
392.32	3190.00
393.10	3218.00
393.87	3238.00
394.65	3256.00
395.42	3270.00
396.19	3300.00
396.97	3326.00
397.74	3345.00
398.52	3352.00
399.29	3392.00
400.06	3417.00
400.84	3439.00
401.61	3443.00
402.38	3477.00
403.16	3494.00
403.93	3526.00
404.70	3559.00
405.48	3574.00
406.25	3604.00
407.02	3609.00
407.80	3644.00
408.57	3661.00
409.34	3696.00
410.12	3720.00
410.89	3747.00
411.66	3776.00
412.43	3806.00
413.21	3851.00
413.98	3852.00
414.75	3879.00
415.52	3903.00
416.30	3956.00
417.07	3977.00
417.84	4009.00
418.61	4023.00
419.39	4064.00
420.16	4100.00
420.93	4128.00
421.70	4160.00
422.47	4196.00
423.24	4228.00
424.02	4264.00
424.79	4308.00
425.56	4328.00
426.33	4368.00
427.10	4408.00
427.87	4467.00
428.64	4476.00
429.42	4518.00
430.19	4554.00
430.96	4616.00
431.73	4637.00
432.50	4698.00
433.27	4752.00
434.04	4775.00
434.81	4836.00
435.58	4856.00
436.35	4934.00
437.12	4990.00
437.89	5033.00
438.67	5088.00
439.44	5138.00
440.21	5191.00
440.98	5250.00
441.75	5304.00
442.52	5333.00
443.29	5407.00
444.06	5463.00
444.83	5527.00
445.60	5592.00
446.37	5668.00
447.13	5712.00
447.90	5780.00
448.67	5848.00
449.44	5945.00
450.21	6002.00
450.98	6045.00
451.75	6119.00
452.52	6207.00
453.29	6257.00
454.06	6350.00
454.83	6411.00
455.60	6507.00
456.37	6579.00
457.13	6652.00
457.90	6755.00
458.67	6815.00
459.44	6921.00
460.21	6977.00
460.98	7086.00
461.75	7159.00
462.51	7234.00
463.28	7370.00
464.05	7487.00
464.82	7557.00
465.59	7622.00
466.35	7711.00
467.12	7836.00
467.89	7929.00
468.66	8026.00
469.43	8125.00
470.19	8242.00
470.96	8314.00
471.73	8470.00
472.50	8491.00
473.26	8673.00
474.03	8725.00
474.80	8878.00
475.56	8970.00
476.33	9085.00
477.10	9183.00
477.87	9302.00
478.63	9433.00
479.40	9530.00
480.17	9672.00
480.93	9785.00
481.70	9904.00
482.47	9966.00
483.23	10137.00
484.00	10263.00
484.76	10419.00
485.53	10522.00
486.30	10673.00
487.06	10792.00
487.83	10960.00
488.60	11070.00
489.36	11231.00
490.13	11301.00
490.89	11421.00
491.66	11574.00
492.42	11727.00
493.19	11842.00
493.96	11970.00
494.72	12101.00
495.49	12247.00
496.25	12413.00
497.02	12544.00
497.78	12623.00
498.55	12833.00
499.31	12910.00
500.08	13081.00
500.84	13248.00
501.61	13360.00
502.37	13525.00
503.14	13729.00
503.90	13838.00
504.67	14040.00
505.43	14143.00
506.20	14365.00
506.96	14497.00
507.72	14696.00
508.49	14819.00
509.25	15019.00
510.02	15137.00
510.78	15372.00
511.54	15556.00
512.31	15660.00
513.07	15875.00
513.84	16011.00
514.60	16168.00
515.36	16351.00
516.13	16435.00
516.89	16577.00
517.65	16713.00
518.42	16875.00
519.18	17014.00
519.94	17280.00
520.71	17511.00
521.47	17539.00
522.23	17686.00
523.00	17930.00
523.76	18068.00
524.52	18288.00
525.28	18393.00
526.05	18581.00
526.81	18789.00
527.57	18973.00
528.33	19120.00
529.10	19347.00
529.86	19476.00
530.62	19650.00
531.38	19878.00
532.15	20017.00
532.91	20192.00
533.67	20346.00
534.43	20492.00
535.19	20726.00
535.96	20905.00
536.72	21060.00
537.48	21207.00
538.24	21406.00
539.00	21582.00
539.76	21765.00
540.53	22108.00
541.29	22250.00
542.05	22348.00
542.81	22624.00
543.57	22778.00
544.33	23023.00
545.09	23201.00
545.85	23296.00
546.61	23486.00
547.38	23658.00
548.14	23803.00
548.90	24038.00
549.66	24270.00
550.42	24488.00
551.18	24591.00
551.94	24793.00
552.70	24934.00
553.46	25224.00
554.22	25422.00
554.98	25583.00
555.74	25779.00
556.50	25843.00
557.26	26158.00
558.02	26466.00
558.78	26650.00
559.54	26792.00
560.30	26878.00
561.06	27143.00
561.82	27299.00
562.58	27552.00
563.34	27797.00
564.10	27961.00
564.86	28113.00
565.61	28318.00
566.37	28462.00
567.13	28739.00
567.89	28914.00
568.65	29055.00
569.41	29250.00
570.17	29417.00
570.93	29583.00
571.69	29802.00
572.44	29946.00
573.20	30238.00
573.96	30394.00
574.72	30584.00
575.48	30789.00
576.24	30980.00
576.99	31194.00
577.75	31342.00
578.51	31577.00
579.27	31788.00
580.03	31987.00
580.78	32224.00
581.54	32481.00
582.30	32673.00
583.06	32801.00
583.82	33011.00
584.57	33156.00
585.33	33383.00
586.09	33552.00
586.84	33727.00
587.60	33714.00
588.36	33914.00
589.12	34140.00
589.87	34247.00
590.63	34532.00
591.39	34654.00
592.14	34767.00
592.90	34981.00
593.66	35315.00
594.41	35452.00
595.17	35750.00
595.93	35744.00
596.68	35907.00
597.44	36013.00
598.20	36253.00
598.95	36698.00
599.71	36797.00
600.46	36952.00
601.22	37054.00
601.98	37204.00
602.73	37572.00
603.49	37961.00
604.24	38201.00
605.00	38234.00
605.76	38368.00
606.51	38524.00
607.27	38728.00
608.02	39016.00
608.78	39224.00
609.53	39484.00
610.29	39639.00
611.04	39836.00
611.80	40162.00
612.55	40398.00
613.31	40566.00
614.06	40883.00
614.82	41022.00
615.57	41300.00
616.33	41540.00
617.08	41672.00
617.84	41835.00
618.59	41904.00
619.35	41919.00
620.10	41955.00
620.85	41932.00
621.61	41913.00
622.36	42075.00
623.12	42028.00
623.87	42088.00
624.62	42129.00
625.38	42337.00
626.13	42380.00
626.89	42711.00
627.64	42827.00
628.39	42937.00
629.15	42980.00
629.90	43151.00
630.65	43278.00
631.41	43173.00
632.16	43230.00
632.91	43184.00
633.67	43154.00
634.42	43123.00
635.17	43340.00
635.92	43674.00
636.68	44179.00
637.43	44609.00
638.18	45179.00
638.94	45653.00
639.69	46034.00
640.44	46394.00
641.19	46923.00
641.95	47242.00
642.70	47545.00
643.45	47777.00
644.20	48045.00
644.95	48119.00
645.71	48233.00
646.46	48431.00
647.21	48527.00
647.96	48719.00
648.71	48649.00
649.47	48916.00
650.22	48786.00
650.97	48981.00
651.72	49089.00
652.47	49198.00
653.22	49333.00
653.97	49557.00
654.73	49674.00
655.48	49830.00
656.23	50113.00
656.98	50345.00
657.73	50525.00
658.48	50814.00
659.23	50706.00
659.98	50742.00
660.73	50851.00
661.48	50968.00
662.23	51015.00
662.99	51041.00
663.74	50966.00
664.49	51318.00
665.24	51792.00
665.99	52204.00
666.74	52284.00
667.49	52347.00
668.24	52490.00
668.99	52499.00
669.74	52816.00
670.49	52823.00
671.24	53070.00
671.99	53172.00
672.74	53366.00
673.48	53433.00
674.23	53581.00
674.98	53610.00
675.73	53713.00
676.48	53878.00
677.23	53957.00
677.98	54040.00
678.73	54130.00
679.48	54148.00
680.23	54285.00
680.98	54258.00
681.73	54294.00
682.47	54182.00
683.22	54160.00
683.97	54338.00
684.72	54439.00
685.47	54505.00
686.22	54657.00
686.97	54875.00
687.71	55103.00
688.46	55337.00
689.21	55312.00
689.96	55412.00
690.71	55434.00
691.45	55435.00
692.20	55566.00
692.95	55551.00
693.70	55631.00
694.44	55630.00
695.19	55707.00
695.94	55859.00
696.69	55920.00
697.43	55982.00
698.18	56082.00
698.93	56010.00
699.68	56187.00
700.42	56006.00
701.17	56110.00
701.92	56203.00
702.66	56272.00
703.41	56305.00
704.16	56402.00
704.90	56394.00
705.65	56558.00
706.40	56520.00
707.14	56542.00
707.89	56566.00
708.64	56574.00
709.38	56732.00
710.13	56698.00
710.88	56744.00
711.62	56880.00
712.37	56904.00
713.11	56922.00
713.86	57005.00
714.61	57046.00
715.35	56866.00
716.10	56722.00
716.84	56473.00
717.59	56313.00
718.33	55999.00
719.08	55885.00
719.83	55887.00
720.57	55700.00
721.32	55726.00
722.06	55798.00
722.81	55717.00
723.55	55771.00
724.30	55886.00
725.04	55894.00
725.79	55888.00
726.53	55940.00
727.28	55944.00
728.02	55995.00
728.76	56056.00
729.51	56068.00
730.25	56151.00
731.00	55972.00
731.74	55933.00
732.49	55970.00
733.23	55927.00
733.97	55847.00
734.72	55705.00
735.46	55711.00
736.21	55577.00
736.95	55636.00
737.69	55630.00
738.44	55772.00
739.18	55850.00
739.92	55958.00
740.67	55915.00
741.41	56139.00
742.15	56379.00
742.90	56429.00
743.64	56501.00
744.38	56387.00
745.13	56389.00
745.87	56436.00
746.61	56566.00
747.36	56622.00
748.10	56593.00
748.84	56486.00
749.58	56380.00
750.33	56352.00
751.07	56249.00
751.81	56057.00
752.55	55946.00
753.30	55902.00
754.04	55707.00
754.78	55458.00
755.52	55233.00
756.27	55121.00
757.01	55012.00
757.75	54998.00
758.49	55056.00
759.23	55196.00
759.97	55034.00
760.72	55116.00
761.46	55215.00
762.20	55239.00
762.94	55179.00
763.68	55222.00
764.42	55032.00
765.16	54937.00
765.91	55004.00
766.65	54961.00
767.39	54886.00
768.13	54716.00
768.87	54762.00
769.61	54632.00
770.35	54585.00
771.09	54540.00
771.83	54401.00
772.57	54403.00
773.31	54355.00
774.05	54389.00
774.80	54376.00
775.54	54301.00
776.28	54056.00
777.02	54024.00
777.76	53853.00
778.50	53703.00
779.24	53480.00
779.98	53448.00
780.72	53393.00
781.46	53290.00
782.20	53346.00
782.93	53187.00
783.67	53105.00
784.41	53015.00
785.15	52874.00
785.89	52703.00
786.63	52543.00
787.37	52343.00
788.11	52200.00
788.85	52116.00
789.59	52102.00
790.33	52140.00
791.07	52061.00
791.81	52009.00
792.54	51836.00
793.28	51651.00
794.02	51482.00
794.76	51152.00
795.50	50929.00
796.24	50753.00
796.97	50411.00
797.71	50067.00
798.45	49954.00
799.19	49884.00
799.93	49775.00
800.67	49629.00
801.40	49609.00
802.14	49615.00
802.88	49839.00
803.62	49804.00
804.35	49811.00
805.09	49752.00
805.83	49665.00
806.57	49683.00
807.30	49699.00
808.04	49691.00
808.78	49571.00
809.52	49277.00
810.25	49208.00
810.99	49001.00
811.73	48804.00
812.46	48706.00
813.20	48738.00
813.94	48612.00
814.68	48489.00
815.41	48505.00
816.15	48572.00
816.88	48665.00
817.62	48669.00
818.36	48490.00
819.09	48273.00
819.83	48040.00
820.57	47887.00
821.30	47808.00
822.04	47692.00
822.77	47467.00
823.51	47292.00
824.25	47214.00
824.98	47159.00
825.72	47172.00
826.45	46966.00
827.19	46748.00
827.92	46628.00
828.66	46371.00
829.40	46107.00
830.13	46065.00
830.87	46061.00
831.60	46018.00
832.34	45895.00
833.07	45863.00
833.81	45754.00
834.54	45916.00
835.28	45982.00
836.01	45857.00
836.75	45687.00
837.48	45504.00
838.22	45161.00
838.95	45172.00
839.68	45129.00
840.42	45190.00
841.15	45203.00
841.89	44987.00
842.62	44785.00
843.36	44684.00
844.09	44606.00
844.82	44693.00
845.56	44628.00
846.29	44518.00
847.02	44360.00
847.76	44312.00
848.49	44428.00
849.23	44590.00
849.96	44791.00
850.69	44812.00
851.43	44728.00
852.16	44396.00
852.89	43940.00
853.63	43789.00
854.36	43714.00
855.09	43617.00
855.82	43513.00
856.56	43427.00
857.29	43221.00
858.02	43071.00
858.76	43090.00
859.49	43106.00
860.22	42979.00
860.95	42998.00
861.69	42863.00
862.42	42669.00
863.15	42552.00
863.88	42474.00
864.61	42510.00
865.35	42653.00
866.08	42556.00
866.81	42375.00
867.54	42159.00
868.27	41820.00
869.01	41678.00
869.74	41833.00
870.47	41796.00
871.20	41592.00
871.93	41323.00
872.66	41176.00
873.40	40948.00
874.13	40802.00
874.86	40672.00
875.59	40579.00
876.32	40466.00
877.05	40403.00
877.78	40324.00
878.51	40171.00
879.24	39963.00
879.97	39869.00
880.71	39762.00
881.44	39648.00
882.17	39458.00
882.90	39356.00
883.63	39116.00
884.36	39185.00
885.09	39208.00
885.82	39232.00
886.55	39350.00
887.28	39427.00
888.01	39219.00
888.74	39048.00
889.47	38897.00
890.20	38542.00
890.93	38242.00
891.66	38141.00
892.39	38140.00
893.12	38061.00
893.85	38069.00
894.57	38143.00
895.30	38109.00
896.03	38119.00
896.76	38033.00
897.49	37942.00
898.22	37791.00
898.95	37619.00
899.68	37339.00
900.41	37126.00
901.14	36976.00
901.86	36861.00
902.59	36772.00
903.32	36730.00
904.05	36660.00
904.78	36552.00
905.51	36429.00
906.24	36321.00
906.96	36251.00
907.69	36052.00
908.42	35825.00
909.15	35692.00
909.88	35425.00
910.60	35366.00
911.33	35240.00
912.06	35131.00
912.79	34872.00
913.52	34685.00
914.24	34620.00
914.97	34536.00
915.70	34425.00
916.42	34341.00
917.15	34199.00
917.88	33981.00
918.61	33807.00
919.33	33478.00
920.06	33155.00
920.79	33135.00
921.51	32934.00
922.24	32872.00
922.97	32656.00
923.69	32551.00
924.42	32421.00
925.15	32322.00
925.87	32124.00
926.60	31845.00
927.33	31645.00
928.05	31357.00
928.78	31051.00
929.51	30793.00
930.23	30364.00
930.96	29896.00
931.68	29605.00
932.41	29261.00
933.14	28926.00
933.86	28614.00
934.59	28254.00
935.31	27868.00
936.04	27362.00
936.76	26951.00
937.49	26465.00
938.21	25957.00
938.94	25551.00
939.66	25030.00
940.39	24573.00
941.11	24271.00
941.84	23931.00
942.56	23627.00
943.29	23342.00
944.01	23060.00
944.74	22984.00
945.46	22939.00
946.19	22904.00
946.91	23003.00
947.64	23054.00
948.36	23074.00
949.09	23160.00
949.81	23263.00
950.53	23360.00
951.26	23455.00
951.98	23532.00
952.71	23490.00
953.43	23652.00
954.15	23761.00
954.88	23784.00
955.60	23833.00
956.33	23924.00
957.05	23976.00
957.77	23915.00
958.50	24067.00
959.22	24027.00
959.94	24071.00
960.67	23984.00
961.39	23954.00
962.11	23943.00
962.84	23987.00
963.56	23937.00
964.28	23901.00
965.00	23761.00
965.73	23601.00
966.45	23459.00
967.17	23331.00
967.89	23229.00
968.62	23062.00
969.34	22907.00
970.06	22674.00
970.78	22534.00
971.51	22486.00
972.23	22300.00
972.95	22157.00
973.67	21960.00
974.40	21797.00
975.12	21678.00
975.84	21485.00
976.56	21357.00
977.28	21156.00
978.00	21073.00
978.73	20973.00
979.45	20908.00
980.17	20873.00
980.89	20832.00
981.61	20723.00
982.33	20644.00
983.05	20578.00
983.77	20562.00
984.50	20441.00
985.22	20404.00
985.94	20299.00
986.66	20187.00
987.38	20112.00
988.10	20115.00
988.82	19992.00
989.54	19947.00
990.26	19746.00
990.98	19650.00
991.70	19539.00
992.42	19416.00
993.14	19307.00
993.86	19193.00
994.58	19022.00
995.30	18856.00
996.02	18749.00
996.74	18637.00
997.46	18600.00
998.18	18438.00
998.90	18374.00
999.62	18229.00
1000.34	18090.00
1001.06	18061.00
1001.78	17964.00
1002.50	17841.00
1003.22	17647.00
1003.94	17455.00
1004.66	17368.00
1005.38	17176.00
1006.09	17038.00
1006.81	16869.00
1007.53	16632.00
1008.25	16537.00
1008.97	16393.00
1009.69	16312.00
1010.41	16207.00
1011.13	16019.00
1011.84	15833.00
1012.56	15729.00
1013.28	15620.00
1014.00	15523.00
1014.72	15337.00
1015.44	15121.00
1016.15	14901.00
1016.87	14686.00
1017.59	14515.00
1018.31	14368.00
1019.03	14294.00
1019.74	14205.00
1020.46	14098.00
1021.18	13984.00
1021.90	13873.00
1022.61	13789.00
1023.33	13635.00
1024.05	13492.00
1024.76	13327.00
1025.48	13121.00
1026.20	12901.00
1026.92	12728.00
1027.63	12582.00
1028.35	12437.00
1029.07	12290.00
1029.78	12162.00
1030.50	11982.00
1031.22	11839.00
1031.93	11714.00
1032.65	11576.00
1033.37	11520.00
1034.08	11337.00
1034.80	11289.00
1035.52	11221.00
1036.23	11112.00
1036.95	11024.00
1037.66	10953.00
1038.38	10822.00
1039.10	10607.00
1039.81	10464.00
1040.53	10297.00
1041.24	10135.00
1041.96	9958.00
1042.67	9835.00
1043.39	9738.00
1044.10	9706.00
1044.82	9530.00
1045.54	9462.00
1046.25	9330.00
1046.97	9236.00
1047.68	9066.00
1048.40	8910.00
1049.11	8752.00
1049.83	8608.00
1050.54	8501.00
1051.26	8437.00
1051.97	8320.00
1052.68	8209.00
1053.40	8095.00
1054.11	8001.00
1054.83	7847.00
1055.54	7725.00
1056.26	7661.00
1056.97	7571.00
1057.69	7422.00
1058.40	7341.00
1059.11	7234.00
1059.83	7097.00
1060.54	6925.00
1061.25	6820.00
1061.97	6643.00
1062.68	6508.00
1063.40	6411.00
1064.11	6273.00
1064.82	6163.00
1065.54	6040.00
1066.25	2565.00
1066.96	2557.00
1067.68	2560.00
1068.39	2558.00
1069.10	2608.00
1069.82	2607.00
1070.53	2617.00
1071.24	2611.00
1071.95	2612.00
1072.67	2612.00
1073.38	5907.00
1074.09	5792.00
1074.80	5652.00
1075.52	5556.00
1076.23	5443.00
1076.94	5326.00
1077.65	2611.00
1078.37	2610.00
1079.08	2610.00
1079.79	2623.00
