300.47	2611.00
301.26	2614.00
302.04	2614.00
302.82	2611.00
303.60	2608.00
304.38	2614.00
305.17	2612.00
305.95	2612.00
306.73	2615.00
307.51	2613.00
308.29	2615.00
309.08	2615.00
309.86	2615.00
310.64	2615.00
311.42	2612.00
312.20	2613.00
312.98	2615.00
313.76	2615.00
314.55	2613.00
315.33	2607.00
316.11	2611.00
316.89	2615.00
317.67	2609.00
318.45	2613.00
319.23	2617.00
320.01	2614.00
320.79	2617.00
321.57	2615.00
322.35	2617.00
323.13	2621.00
323.91	2615.00
324.69	2616.00
325.47	2615.00
326.25	2621.00
327.03	2618.00
327.81	2615.00
328.59	2617.00
329.37	2620.00
330.15	2619.00
330.93	2617.00
331.71	2618.00
332.49	2624.00
333.27	2620.00
334.05	2620.00
334.83	2622.00
335.61	2625.00
336.39	2621.00
337.17	2624.00
337.95	2626.00
338.73	2624.00
339.51	2628.00
340.29	2628.00
341.07	2629.00
341.84	2625.00
342.62	2633.00
343.40	2632.00
344.18	2635.00
344.96	2636.00
345.74	2637.00
346.52	2644.00
347.29	2643.00
348.07	2643.00
348.85	2648.00
349.63	2654.00
350.41	2658.00
351.18	2654.00
351.96	2661.00
352.74	2664.00
353.52	2667.00
354.30	2665.00
355.07	2677.00
355.85	2674.00
356.63	2683.00
357.41	2685.00
358.18	2692.00
358.96	2696.00
359.74	2705.00
360.52	2706.00
361.29	2710.00
362.07	2714.00
362.85	2720.00
363.62	2726.00
364.40	2735.00
365.18	2737.00
365.95	2749.00
366.73	2753.00
367.51	2764.00
368.28	2770.00
369.06	2787.00
369.84	2785.00
370.61	2799.00
371.39	2804.00
372.17	2820.00
372.94	2828.00
373.72	2837.00
374.49	2849.00
375.27	2860.00
376.05	2866.00
376.82	2877.00
377.60	2890.00
378.37	2900.00
379.15	2920.00
379.92	2925.00
380.70	2937.00
381.47	2972.00
382.25	2968.00
383.02	2985.00
383.80	2999.00
384.58	3013.00
385.35	3036.00
386.13	3049.00
386.90	3063.00
387.67	3084.00
388.45	3103.00
389.22	3124.00
390.00	3141.00
390.77	3151.00
391.55	3190.00
392.32	3191.00
393.10	3202.00
393.87	3229.00
394.65	3256.00
395.42	3277.00
396.19	3306.00
396.97	3325.00
397.74	3339.00
398.52	3366.00
399.29	3386.00
400.06	3406.00
400.84	3435.00
401.61	3456.00
402.38	3489.00
403.16	3509.00
403.93	3522.00
404.70	3551.00
405.48	3569.00
406.25	3613.00
407.02	3634.00
407.80	3649.00
408.57	3678.00
409.34	3699.00
410.12	3732.00
410.89	3750.00
411.66	3776.00
412.43	3809.00
413.21	3829.00
413.98	3868.00
414.75	3879.00
415.52	3929.00
416.30	3953.00
417.07	3979.00
417.84	4007.00
418.61	4036.00
419.39	4061.00
420.16	4101.00
420.93	4122.00
421.70	4165.00
422.47	4202.00
423.24	4227.00
424.02	4285.00
424.79	4286.00
425.56	4320.00
426.33	4364.00
427.10	4408.00
427.87	4437.00
428.64	4484.00
429.42	4517.00
430.19	4578.00
430.96	4605.00
431.73	4669.00
432.50	4707.00
433.27	4746.00
434.04	4795.00
434.81	4852.00
435.58	4899.00
436.35	4931.00
437.12	4982.00
437.89	5047.00
438.67	5090.00
439.44	5122.00
440.21	5187.00
440.98	5264.00
441.75	5315.00
442.52	5356.00
443.29	5409.00
444.06	5463.00
444.83	5525.00
445.60	5612.00
446.37	5670.00
447.13	5725.00
447.90	5800.00
448.67	5858.00
449.44	5928.00
450.21	6009.00
450.98	6072.00
451.75	6141.00
452.52	6195.00
453.29	6282.00
454.06	6354.00
454.83	6459.00
455.60	6498.00
456.37	6594.00
457.13	6647.00
457.90	6774.00
458.67	6841.00
459.44	6939.00
460.21	7018.00
460.98	7090.00
461.75	7170.00
462.51	7288.00
463.28	7379.00
464.05	7493.00
464.82	7583.00
465.59	7669.00
466.35	7738.00
467.12	7850.00
467.89	7942.00
468.66	8037.00
469.43	8126.00
470.19	8255.00
470.96	8347.00
471.73	8472.00
472.50	8560.00
473.26	8677.00
474.03	8813.00
474.80	8866.00
475.56	8969.00
476.33	9107.00
477.10	9234.00
477.87	9323.00
478.63	9427.00
479.40	9532.00
480.17	9745.00
480.93	9775.00
481.70	9918.00
482.47	9997.00
483.23	10153.00
484.00	10318.00
484.76	10419.00
485.53	10594.00
486.30	10680.00
487.06	10814.00
487.83	10980.00
488.60	11109.00
489.36	11232.00
490.13	11346.00
490.89	11477.00
491.66	11610.00
492.42	11769.00
493.19	11905.00
493.96	12053.00
494.72	12115.00
495.49	12253.00
496.25	12436.00
497.02	12599.00
497.78	12673.00
498.55	12877.00
499.31	13019.00
500.08	13109.00
500.84	13269.00
501.61	13406.00
502.37	13591.00
503.14	13719.00
503.90	13939.00
504.67	14034.00
505.43	14221.00
506.20	14396.00
506.96	14527.00
507.72	14750.00
508.49	14879.00
509.25	15038.00
510.02	15205.00
510.78	15430.00
511.54	15558.00
512.31	15746.00
513.07	15869.00
513.84	16004.00
514.60	16175.00
515.36	16363.00
516.13	16450.00
516.89	16596.00
517.65	16781.00
518.42	16913.00
519.18	17107.00
519.94	17286.00
520.71	17430.00
521.47	17578.00
522.23	17797.00
523.00	17974.00
523.76	18177.00
524.52	18378.00
525.28	18505.00
526.05	18629.00
526.81	18834.00
527.57	19028.00
528.33	19183.00
529.10	19411.00
529.86	19499.00
530.62	19729.00
531.38	19930.00
532.15	20069.00
532.91	20217.00
533.67	20369.00
534.43	20539.00
535.19	20805.00
535.96	20974.00
536.72	21172.00
537.48	21236.00
538.24	21444.00
539.00	21646.00
539.76	21886.00
540.53	22137.00
541.29	22321.00
542.05	22411.00
542.81	22666.00
543.57	22913.00
544.33	23069.00
545.09	23279.00
545.85	23489.00
546.61	23542.00
547.38	23687.00
548.14	23908.00
548.90	24083.00
549.66	24332.00
550.42	24534.00
551.18	24687.00
551.94	24811.00
552.70	25008.00
553.46	25247.00
554.22	25491.00
554.98	25657.00
555.74	25716.00
556.50	25995.00
557.26	26194.00
558.02	26520.00
558.78	26716.00
559.54	26813.00
560.30	26952.00
561.06	27200.00
561.82	27427.00
562.58	27632.00
563.34	27869.00
564.10	28021.00
564.86	28247.00
565.61	28331.00
566.37	28616.00
567.13	28812.00
567.89	29036.00
568.65	29162.00
569.41	29309.00
570.17	29493.00
570.93	29671.00
571.69	29938.00
572.44	30025.00
573.20	30198.00
573.96	30435.00
574.72	30675.00
575.48	30824.00
576.24	31033.00
576.99	31207.00
577.75	31433.00
578.51	31632.00
579.27	31881.00
580.03	32083.00
580.78	32302.00
581.54	32568.00
582.30	32728.00
583.06	32913.00
583.82	33121.00
584.57	33310.00
585.33	33515.00
586.09	33646.00
586.84	33758.00
587.60	33867.00
588.36	34086.00
589.12	34213.00
589.87	34482.00
590.63	34711.00
591.39	34790.00
592.14	34923.00
592.90	35129.00
593.66	35361.00
594.41	35624.00
595.17	35836.00
595.93	35935.00
596.68	36034.00
597.44	36194.00
598.20	36389.00
598.95	36703.00
599.71	36940.00
600.46	37112.00
601.22	37249.00
601.98	37332.00
602.73	37669.00
603.49	38070.00
604.24	38262.00
605.00	38378.00
605.76	38498.00
606.51	38599.00
607.27	38873.00
608.02	39178.00
608.78	39324.00
609.53	39569.00
610.29	39697.00
611.04	39923.00
611.80	40181.00
612.55	40493.00
613.31	40657.00
614.06	40972.00
614.82	41116.00
615.57	41317.00
616.33	41623.00
617.08	41810.00
617.84	41879.00
618.59	42007.00
619.35	42027.00
620.10	42031.00
620.85	42051.00
621.61	42246.00
622.36	42125.00
623.12	42115.00
623.87	42191.00
624.62	42304.00
625.38	42453.00
626.13	42575.00
626.89	42802.00
627.64	42919.00
628.39	43093.00
629.15	43140.00
629.90	43251.00
630.65	43297.00
631.41	43363.00
632.16	43322.00
632.91	43333.00
633.67	43306.00
634.42	43352.00
635.17	43476.00
635.92	43834.00
636.68	44252.00
637.43	44860.00
638.18	45328.00
638.94	45704.00
639.69	46179.00
640.44	46593.00
641.19	46969.00
641.95	47343.00
642.70	47593.00
643.45	47951.00
644.20	48197.00
644.95	48223.00
645.71	48429.00
646.46	48558.00
647.21	48691.00
647.96	48741.00
648.71	48881.00
649.47	48981.00
650.22	49127.00
650.97	49117.00
651.72	49236.00
652.47	49387.00
653.22	49511.00
653.97	49706.00
654.73	49903.00
655.48	49970.00
656.23	50275.00
656.98	50617.00
657.73	50764.00
658.48	50976.00
659.23	50952.00
659.98	50983.00
660.73	50988.00
661.48	51118.00
662.23	51232.00
662.99	51274.00
663.74	51228.00
664.49	51416.00
665.24	51934.00
665.99	52398.00
666.74	52517.00
667.49	52508.00
668.24	52586.00
668.99	52730.00
669.74	52932.00
670.49	53081.00
671.24	53126.00
671.99	53277.00
672.74	53431.00
673.48	53513.00
674.23	53766.00
674.98	53804.00
675.73	53806.00
676.48	53977.00
677.23	54168.00
677.98	54335.00
678.73	54367.00
679.48	54392.00
680.23	54407.00
680.98	54501.00
681.73	54390.00
682.47	54383.00
683.22	54395.00
683.97	54487.00
684.72	54711.00
685.47	54650.00
686.22	54876.00
686.97	55127.00
687.71	55386.00
688.46	55520.00
689.21	55581.00
689.96	55522.00
690.71	55612.00
691.45	55646.00
692.20	55685.00
692.95	55720.00
693.70	55720.00
694.44	55794.00
695.19	55951.00
695.94	56014.00
696.69	56152.00
697.43	56134.00
698.18	56140.00
698.93	56206.00
699.68	56245.00
700.42	56327.00
701.17	56323.00
701.92	56427.00
702.66	56425.00
703.41	56473.00
704.16	56524.00
704.90	56600.00
705.65	56687.00
706.40	56610.00
707.14	56647.00
707.89	56722.00
708.64	56703.00
709.38	56784.00
710.13	56851.00
710.88	56880.00
711.62	57049.00
712.37	57089.00
713.11	57160.00
713.86	57249.00
714.61	57257.00
715.35	57005.00
716.10	56902.00
716.84	56733.00
717.59	56494.00
718.33	56175.00
719.08	56102.00
719.83	56017.00
720.57	55831.00
721.32	55979.00
722.06	55853.00
722.81	55825.00
723.55	55854.00
724.30	56000.00
725.04	56078.00
725.79	56134.00
726.53	56138.00
727.28	56162.00
728.02	56081.00
728.76	56158.00
729.51	56230.00
730.25	56133.00
731.00	56227.00
731.74	56221.00
732.49	56214.00
733.23	56074.00
733.97	56070.00
734.72	55899.00
735.46	55782.00
736.21	55789.00
736.95	55800.00
737.69	55902.00
738.44	55905.00
739.18	56044.00
739.92	56055.00
740.67	56114.00
741.41	56342.00
742.15	56466.00
742.90	56625.00
743.64	56702.00
744.38	56626.00
745.13	56619.00
745.87	56621.00
746.61	56695.00
747.36	56722.00
748.10	56745.00
748.84	56647.00
749.58	56508.00
750.33	56454.00
751.07	56429.00
751.81	56174.00
752.55	56182.00
753.30	56035.00
754.04	55844.00
754.78	55732.00
755.52	55523.00
756.27	55225.00
757.01	55076.00
757.75	55229.00
758.49	55266.00
759.23	55326.00
759.97	55247.00
760.72	55188.00
761.46	55239.00
762.20	55314.00
762.94	55300.00
763.68	55372.00
764.42	55260.00
765.16	55161.00
765.91	55160.00
766.65	55131.00
767.39	54998.00
768.13	54892.00
768.87	54787.00
769.61	54772.00
770.35	54765.00
771.09	54679.00
771.83	54543.00
772.57	54620.00
773.31	54464.00
774.05	54551.00
774.80	54464.00
775.54	54392.00
776.28	54248.00
777.02	54125.00
777.76	54026.00
778.50	53869.00
779.24	53750.00
779.98	53638.00
780.72	53446.00
781.46	53426.00
782.20	53478.00
782.93	53413.00
783.67	53289.00
784.41	53117.00
785.15	53071.00
785.89	52769.00
786.63	52731.00
787.37	52477.00
788.11	52339.00
788.85	52299.00
789.59	52258.00
790.33	52311.00
791.07	52300.00
791.81	52161.00
792.54	52005.00
793.28	51767.00
794.02	51559.00
794.76	51366.00
795.50	50972.00
796.24	50735.00
796.97	50548.00
797.71	50314.00
798.45	50131.00
799.19	49983.00
799.93	49916.00
800.67	49684.00
801.40	49679.00
802.14	49808.00
802.88	49837.00
803.62	49960.00
804.35	49926.00
805.09	49934.00
805.83	49755.00
806.57	49743.00
807.30	49847.00
808.04	49952.00
808.78	49787.00
809.52	49419.00
810.25	49272.00
810.99	49080.00
811.73	48905.00
812.46	48881.00
813.20	48848.00
813.94	48657.00
814.68	48609.00
815.41	48558.00
816.15	48662.00
816.88	48729.00
817.62	48766.00
818.36	48676.00
819.09	48416.00
819.83	48147.00
820.57	48081.00
821.30	48001.00
822.04	47800.00
822.77	47608.00
823.51	47357.00
824.25	47315.00
824.98	47279.00
825.72	47238.00
826.45	47042.00
827.19	46873.00
827.92	46713.00
828.66	46521.00
829.40	46294.00
830.13	46160.00
830.87	46162.00
831.60	46104.00
832.34	46015.00
833.07	45931.00
833.81	45935.00
834.54	45983.00
835.28	46036.00
836.01	46083.00
836.75	45837.00
837.48	45558.00
838.22	45373.00
838.95	45302.00
839.68	45254.00
840.42	45391.00
841.15	45367.00
841.89	45200.00
842.62	44937.00
843.36	44664.00
844.09	44691.00
844.82	44693.00
845.56	44693.00
846.29	44644.00
847.02	44466.00
847.76	44367.00
848.49	44537.00
849.23	44689.00
849.96	45014.00
850.69	44984.00
851.43	44800.00
852.16	44432.00
852.89	44077.00
853.63	43900.00
854.36	43775.00
855.09	43719.00
855.82	43653.00
856.56	43422.00
857.29	43242.00
858.02	43219.00
858.76	43160.00
859.49	43149.00
860.22	43132.00
860.95	43039.00
861.69	42972.00
862.42	42831.00
863.15	42629.00
863.88	42595.00
864.61	42656.00
865.35	42734.00
866.08	42595.00
866.81	42430.00
867.54	42138.00
868.27	41848.00
869.01	41810.00
869.74	41820.00
870.47	41906.00
871.20	41796.00
871.93	41484.00
872.66	41328.00
873.40	41088.00
874.13	40832.00
874.86	40763.00
875.59	40557.00
876.32	40542.00
877.05	40409.00
877.78	40374.00
878.51	40268.00
879.24	40046.00
879.97	39991.00
880.71	39839.00
881.44	39702.00
882.17	39573.00
882.90	39413.00
883.63	39293.00
884.36	39198.00
885.09	39162.00
885.82	39235.00
886.55	39405.00
887.28	39465.00
888.01	39381.00
888.74	39196.00
889.47	38956.00
890.20	38727.00
890.93	38396.00
891.66	38242.00
892.39	38109.00
893.12	38150.00
893.85	38142.00
894.57	38228.00
895.30	38108.00
896.03	38245.00
896.76	38118.00
897.49	38081.00
898.22	37866.00
898.95	37691.00
899.68	37433.00
900.41	37337.00
901.14	37182.00
901.86	37005.00
902.59	36858.00
903.32	36829.00
904.05	36828.00
904.78	36587.00
905.51	36434.00
906.24	36366.00
906.96	36313.00
907.69	36136.00
908.42	35880.00
909.15	35736.00
909.88	35516.00
910.60	35436.00
911.33	35347.00
912.06	35193.00
912.79	35019.00
913.52	34876.00
914.24	34707.00
914.97	34678.00
915.70	34480.00
916.42	34387.00
917.15	34183.00
917.88	34065.00
918.61	33871.00
919.33	33623.00
920.06	33340.00
920.79	33181.00
921.51	32987.00
922.24	32781.00
922.97	32701.00
923.69	32608.00
924.42	32569.00
925.15	32370.00
925.87	32198.00
926.60	32042.00
927.33	31773.00
928.05	31397.00
928.78	31090.00
929.51	30806.00
930.23	30450.00
930.96	30020.00
931.68	29641.00
932.41	29259.00
933.14	28995.00
933.86	28640.00
934.59	28273.00
935.31	27960.00
936.04	27357.00
936.76	27052.00
937.49	26479.00
938.21	26029.00
938.94	25481.00
939.66	25068.00
940.39	24659.00
941.11	24329.00
941.84	23982.00
942.56	23595.00
943.29	23360.00
944.01	23157.00
944.74	22965.00
945.46	22958.00
946.19	22995.00
946.91	22994.00
947.64	23129.00
948.36	23086.00
949.09	23216.00
949.81	23348.00
950.53	23414.00
951.26	23547.00
951.98	23529.00
952.71	23557.00
953.43	23618.00
954.15	23780.00
954.88	23843.00
955.60	23916.00
956.33	23921.00
957.05	23958.00
957.77	24095.00
958.50	24071.00
959.22	24168.00
959.94	24005.00
960.67	24019.00
961.39	23979.00
962.11	23973.00
962.84	24033.00
963.56	23974.00
964.28	23964.00
965.00	23760.00
965.73	23609.00
966.45	23517.00
967.17	23394.00
967.89	23279.00
968.62	23115.00
969.34	22899.00
970.06	22773.00
970.78	22630.00
971.51	22563.00
972.23	22375.00
972.95	22157.00
973.67	21974.00
974.40	21847.00
975.12	21719.00
975.84	21544.00
976.56	21395.00
977.28	21212.00
978.00	21057.00
978.73	21066.00
979.45	20909.00
980.17	20850.00
980.89	20835.00
981.61	20760.00
982.33	20709.00
983.05	20657.00
983.77	20619.00
984.50	20471.00
985.22	20404.00
985.94	20333.00
986.66	20230.00
987.38	20145.00
988.10	20085.00
988.82	20029.00
989.54	19954.00
990.26	19885.00
990.98	19685.00
991.70	19520.00
992.42	19405.00
993.14	19332.00
993.86	19216.00
994.58	19035.00
995.30	18885.00
996.02	18753.00
996.74	18679.00
997.46	18603.00
998.18	18463.00
998.90	18411.00
999.62	18270.00
1000.34	18140.00
1001.06	18118.00
1001.78	18020.00
1002.50	17869.00
1003.22	17689.00
1003.94	17542.00
1004.66	17387.00
1005.38	17273.00
1006.09	17087.00
1006.81	16860.00
1007.53	16703.00
1008.25	16571.00
1008.97	16430.00
1009.69	16323.00
1010.41	16230.00
1011.13	16061.00
1011.84	15953.00
1012.56	15736.00
1013.28	15604.00
1014.00	15494.00
1014.72	15355.00
1015.44	15091.00
1016.15	14936.00
1016.87	14674.00
1017.59	14506.00
1018.31	14389.00
1019.03	14291.00
1019.74	14212.00
1020.46	14144.00
1021.18	13997.00
1021.90	13907.00
1022.61	13807.00
1023.33	13647.00
1024.05	13511.00
1024.76	13353.00
1025.48	13122.00
1026.20	13007.00
1026.92	12757.00
1027.63	12613.00
1028.35	12483.00
1029.07	12307.00
1029.78	12172.00
1030.50	11980.00
1031.22	11863.00
1031.93	11696.00
1032.65	11599.00
1033.37	11530.00
1034.08	11399.00
1034.80	11359.00
1035.52	11249.00
1036.23	11168.00
1036.95	11076.00
1037.66	10944.00
1038.38	10828.00
1039.10	10644.00
1039.81	10474.00
1040.53	10261.00
1041.24	10161.00
1041.96	10006.00
1042.67	9875.00
1043.39	9770.00
1044.10	9670.00
1044.82	9586.00
1045.54	9489.00
1046.25	9371.00
1046.97	9218.00
1047.68	9088.00
1048.40	8951.00
1049.11	8785.00
1049.83	8660.00
1050.54	8529.00
1051.26	8442.00
1051.97	8349.00
1052.68	8259.00
1053.40	8141.00
1054.11	7976.00
1054.83	7844.00
1055.54	7791.00
1056.26	7670.00
1056.97	7527.00
1057.69	7470.00
1058.40	7376.00
1059.11	7248.00
1059.83	7122.00
1060.54	6991.00
1061.25	6819.00
1061.97	6668.00
1062.68	6531.00
1063.40	6435.00
1064.11	6301.00
1064.82	6180.00
1065.54	6029.00
1066.25	2564.00
1066.96	2556.00
1067.68	2565.00
1068.39	2558.00
1069.10	2613.00
1069.82	2614.00
1070.53	2617.00
1071.24	2613.00
1071.95	2611.00
1072.67	2614.00
1073.38	5884.00
1074.09	5774.00
1074.80	5656.00
1075.52	5546.00
1076.23	5439.00
1076.94	5332.00
1077.65	2616.00
1078.37	2611.00
1079.08	2610.00
1079.79	2622.00
