300.47	2617.00
301.26	2608.00
302.04	2612.00
302.82	2612.00
303.60	2609.00
304.38	2615.00
305.17	2614.00
305.95	2613.00
306.73	2611.00
307.51	2614.00
308.29	2614.00
309.08	2612.00
309.86	2610.00
310.64	2616.00
311.42	2612.00
312.20	2616.00
312.98	2614.00
313.76	2612.00
314.55	2616.00
315.33	2610.00
316.11	2613.00
316.89	2614.00
317.67	2616.00
318.45	2616.00
319.23	2616.00
320.01	2616.00
320.79	2612.00
321.57	2617.00
322.35	2618.00
323.13	2614.00
323.91	2610.00
324.69	2615.00
325.47	2614.00
326.25	2616.00
327.03	2614.00
327.81	2615.00
328.59	2620.00
329.37	2621.00
330.15	2620.00
330.93	2620.00
331.71	2620.00
332.49	2620.00
333.27	2621.00
334.05	2621.00
334.83	2624.00
335.61	2626.00
336.39	2621.00
337.17	2626.00
337.95	2620.00
338.73	2623.00
339.51	2626.00
340.29	2630.00
341.07	2627.00
341.84	2629.00
342.62	2633.00
343.40	2634.00
344.18	2639.00
344.96	2640.00
345.74	2640.00
346.52	2637.00
347.29	2643.00
348.07	2642.00
348.85	2650.00
349.63	2652.00
350.41	2649.00
351.18	2657.00
351.96	2659.00
352.74	2671.00
353.52	2662.00
354.30	2670.00
355.07	2672.00
355.85	2679.00
356.63	2686.00
357.41	2688.00
358.18	2690.00
358.96	2694.00
359.74	2702.00
360.52	2709.00
361.29	2714.00
362.07	2714.00
362.85	2725.00
363.62	2731.00
364.40	2738.00
365.18	2747.00
365.95	2745.00
366.73	2755.00
367.51	2769.00
368.28	2768.00
369.06	2776.00
369.84	2794.00
370.61	2797.00
371.39	2811.00
372.17	2816.00
372.94	2824.00
373.72	2835.00
374.49	2846.00
375.27	2853.00
376.05	2864.00
376.82	2877.00
377.60	2889.00
378.37	2904.00
379.15	2916.00
379.92	2927.00
380.70	2940.00
381.47	2957.00
382.25	2975.00
383.02	2985.00
383.80	2999.00
384.58	3015.00
385.35	3036.00
386.13	3049.00
386.90	3068.00
387.67	3083.00
388.45	3112.00
389.22	3109.00
390.00	3141.00
390.77	3147.00
391.55	3184.00
392.32	3191.00
393.10	3217.00
393.87	3233.00
394.65	3262.00
395.42	3284.00
396.19	3298.00
396.97	3320.00
397.74	3339.00
398.52	3361.00
399.29	3383.00
400.06	3410.00
400.84	3446.00
401.61	3462.00
402.38	3479.00
403.16	3502.00
403.93	3532.00
404.70	3550.00
405.48	3586.00
406.25	3605.00
407.02	3629.00
407.80	3642.00
408.57	3677.00
409.34	3706.00
410.12	3720.00
410.89	3758.00
411.66	3783.00
412.43	3809.00
413.21	3831.00
413.98	3869.00
414.75	3890.00
415.52	3916.00
416.30	3933.00
417.07	3967.00
417.84	4007.00
418.61	4038.00
419.39	4074.00
420.16	4106.00
420.93	4111.00
421.70	4166.00
422.47	4199.00
423.24	4242.00
424.02	4257.00
424.79	4289.00
425.56	4327.00
426.33	4383.00
427.10	4405.00
427.87	4445.00
428.64	4478.00
429.42	4540.00
430.19	4562.00
430.96	4620.00
431.73	4652.00
432.50	4707.00
433.27	4733.00
434.04	4789.00
434.81	4847.00
435.58	4886.00
436.35	4933.00
437.12	4975.00
437.89	5031.00
438.67	5091.00
439.44	5129.00
440.21	5196.00
440.98	5269.00
441.75	5301.00
442.52	5353.00
443.29	5408.00
444.06	5481.00
444.83	5550.00
445.60	5620.00
446.37	5661.00
447.13	5716.00
447.90	5802.00
448.67	5865.00
449.44	5940.00
450.21	6008.00
450.98	6072.00
451.75	6132.00
452.52	6200.00
453.29	6280.00
454.06	6358.00
454.83	6464.00
455.60	6505.00
456.37	6588.00
457.13	6657.00
457.90	6780.00
458.67	6859.00
459.44	6930.00
460.21	7000.00
460.98	7100.00
461.75	7176.00
462.51	7270.00
463.28	7381.00
464.05	7473.00
464.82	7530.00
465.59	7654.00
466.35	7767.00
467.12	7830.00
467.89	7945.00
468.66	8032.00
469.43	8168.00
470.19	8208.00
470.96	8346.00
471.73	8444.00
472.50	8506.00
473.26	8656.00
474.03	8761.00
474.80	8855.00
475.56	8987.00
476.33	9060.00
477.10	9210.00
477.87	9305.00
478.63	9407.00
479.40	9565.00
480.17	9673.00
480.93	9824.00
481.70	9904.00
482.47	9995.00
483.23	10154.00
484.00	10353.00
484.76	10459.00
485.53	10539.00
486.30	10709.00
487.06	10781.00
487.83	10936.00
488.60	11141.00
489.36	11239.00
490.13	11329.00
490.89	11473.00
491.66	11566.00
492.42	11734.00
493.19	11929.00
493.96	12014.00
494.72	12163.00
495.49	12272.00
496.25	12416.00
497.02	12592.00
497.78	12740.00
498.55	12831.00
499.31	13010.00
500.08	13119.00
500.84	13274.00
501.61	13417.00
502.37	13607.00
503.14	13748.00
503.90	13887.00
504.67	14040.00
505.43	14213.00
506.20	14354.00
506.96	14522.00
507.72	14730.00
508.49	14885.00
509.25	15028.00
510.02	15215.00
510.78	15347.00
511.54	15555.00
512.31	15681.00
513.07	15894.00
513.84	16041.00
514.60	16170.00
515.36	16350.00
516.13	16499.00
516.89	16629.00
517.65	16751.00
518.42	16901.00
519.18	17117.00
519.94	17312.00
520.71	17478.00
521.47	17549.00
522.23	17747.00
523.00	17964.00
523.76	18152.00
524.52	18375.00
525.28	18456.00
526.05	18650.00
526.81	18841.00
527.57	19040.00
528.33	19208.00
529.10	19308.00
529.86	19526.00
530.62	19710.00
531.38	19890.00
532.15	20086.00
532.91	20245.00
533.67	20326.00
534.43	20528.00
535.19	20778.00
535.96	20982.00
536.72	21116.00
537.48	21199.00
538.24	21393.00
539.00	21601.00
539.76	21874.00
540.53	22129.00
541.29	22300.00
542.05	22475.00
542.81	22681.00
543.57	22895.00
544.33	23073.00
545.09	23259.00
545.85	23435.00
546.61	23544.00
547.38	23756.00
548.14	23884.00
548.90	24074.00
549.66	24319.00
550.42	24541.00
551.18	24637.00
551.94	24848.00
552.70	25025.00
553.46	25252.00
554.22	25507.00
554.98	25629.00
555.74	25792.00
556.50	25990.00
557.26	26185.00
558.02	26498.00
558.78	26654.00
559.54	26844.00
560.30	26991.00
561.06	27170.00
561.82	27374.00
562.58	27641.00
563.34	27836.00
564.10	28002.00
564.86	28158.00
565.61	28398.00
566.37	28549.00
567.13	28896.00
567.89	28995.00
568.65	29103.00
569.41	29349.00
570.17	29472.00
570.93	29678.00
571.69	29890.00
572.44	30066.00
573.20	30200.00
573.96	30476.00
574.72	30630.00
575.48	30878.00
576.24	30992.00
576.99	31208.00
577.75	31409.00
578.51	31603.00
579.27	31876.00
580.03	32047.00
580.78	32302.00
581.54	32523.00
582.30	32742.00
583.06	32873.00
583.82	33127.00
584.57	33283.00
585.33	33535.00
586.09	33594.00
586.84	33716.00
587.60	33863.00
588.36	33970.00
589.12	34116.00
589.87	34376.00
590.63	34673.00
591.39	34860.00
592.14	34854.00
592.90	35135.00
593.66	35336.00
594.41	35535.00
595.17	35750.00
595.93	35901.00
596.68	36001.00
597.44	36128.00
598.20	36367.00
598.95	36739.00
599.71	36878.00
600.46	37076.00
601.22	37143.00
601.98	37329.00
602.73	37711.00
603.49	38082.00
604.24	38222.00
605.00	38338.00
605.76	38453.00
606.51	38645.00
607.27	38877.00
608.02	39115.00
608.78	39339.00
609.53	39536.00
610.29	39691.00
611.04	39957.00
611.80	40179.00
612.55	40526.00
613.31	40724.00
614.06	40948.00
614.82	41106.00
615.57	41298.00
616.33	41616.00
617.08	41784.00
617.84	41934.00
618.59	41986.00
619.35	41972.00
620.10	41980.00
620.85	42059.00
621.61	42046.00
622.36	42130.00
623.12	42110.00
623.87	42275.00
624.62	42294.00
625.38	42461.00
626.13	42538.00
626.89	42816.00
627.64	42944.00
628.39	43017.00
629.15	43113.00
629.90	43237.00
630.65	43208.00
631.41	43317.00
632.16	43316.00
632.91	43319.00
633.67	43309.00
634.42	43241.00
635.17	43473.00
635.92	43731.00
636.68	44209.00
637.43	44793.00
638.18	45296.00
638.94	45705.00
639.69	46156.00
640.44	46565.00
641.19	46957.00
641.95	47281.00
642.70	47615.00
643.45	47911.00
644.20	48161.00
644.95	48270.00
645.71	48416.00
646.46	48545.00
647.21	48626.00
647.96	48768.00
648.71	48873.00
649.47	48978.00
650.22	49053.00
650.97	49097.00
651.72	49276.00
652.47	49307.00
653.22	49446.00
653.97	49643.00
654.73	49767.00
655.48	50046.00
656.23	50243.00
656.98	50454.00
657.73	50716.00
658.48	50860.00
659.23	50947.00
659.98	50918.00
660.73	50952.00
661.48	51181.00
662.23	51262.00
662.99	51137.00
663.74	51175.00
664.49	51457.00
665.24	51872.00
665.99	52303.00
666.74	52618.00
667.49	52498.00
668.24	52550.00
668.99	52689.00
669.74	52957.00
670.49	53055.00
671.24	53125.00
671.99	53262.00
672.74	53461.00
673.48	53600.00
674.23	53629.00
674.98	53834.00
675.73	53840.00
676.48	54029.00
677.23	54169.00
677.98	54257.00
678.73	54220.00
679.48	54298.00
680.23	54405.00
680.98	54458.00
681.73	54429.00
682.47	54325.00
683.22	54434.00
683.97	54535.00
684.72	54618.00
685.47	54647.00
686.22	54871.00
686.97	55058.00
687.71	55287.00
688.46	55457.00
689.21	55460.00
689.96	55577.00
690.71	55643.00
691.45	55615.00
692.20	55704.00
692.95	55698.00
693.70	55654.00
694.44	55787.00
695.19	55870.00
695.94	55970.00
696.69	56162.00
697.43	56151.00
698.18	56199.00
698.93	56226.00
699.68	56177.00
700.42	56264.00
701.17	56249.00
701.92	56298.00
702.66	56309.00
703.41	56470.00
704.16	56548.00
704.90	56521.00
705.65	56669.00
706.40	56613.00
707.14	56662.00
707.89	56697.00
708.64	56737.00
709.38	56705.00
710.13	56862.00
710.88	56922.00
711.62	56974.00
712.37	57068.00
713.11	57042.00
713.86	57171.00
714.61	57118.00
715.35	56927.00
716.10	56844.00
716.84	56691.00
717.59	56373.00
718.33	56200.00
719.08	56079.00
719.83	55956.00
720.57	55919.00
721.32	55844.00
722.06	55819.00
722.81	55801.00
723.55	55838.00
724.30	55983.00
725.04	56159.00
725.79	56060.00
726.53	56063.00
727.28	56140.00
728.02	56047.00
728.76	56176.00
729.51	56209.00
730.25	56259.00
731.00	56111.00
731.74	56119.00
732.49	56192.00
733.23	56085.00
733.97	55947.00
734.72	55860.00
735.46	55735.00
736.21	55749.00
736.95	55702.00
737.69	55841.00
738.44	55880.00
739.18	55980.00
739.92	56055.00
740.67	56231.00
741.41	56400.00
742.15	56499.00
742.90	56511.00
743.64	56605.00
744.38	56488.00
745.13	56531.00
745.87	56593.00
746.61	56697.00
747.36	56769.00
748.10	56768.00
748.84	56752.00
749.58	56446.00
750.33	56465.00
751.07	56341.00
751.81	56307.00
752.55	56081.00
753.30	56060.00
754.04	55893.00
754.78	55625.00
755.52	55421.00
756.27	55203.00
757.01	55148.00
757.75	55237.00
758.49	55217.00
759.23	55218.00
759.97	55214.00
760.72	55239.00
761.46	55308.00
762.20	55255.00
762.94	55367.00
763.68	55213.00
764.42	55141.00
765.16	55134.00
765.91	55134.00
766.65	55133.00
767.39	54997.00
768.13	54891.00
768.87	54760.00
769.61	54799.00
770.35	54750.00
771.09	54640.00
771.83	54528.00
772.57	54542.00
773.31	54553.00
774.05	54468.00
774.80	54592.00
775.54	54459.00
776.28	54201.00
777.02	54143.00
777.76	53966.00
778.50	53823.00
779.24	53646.00
779.98	53611.00
780.72	53487.00
781.46	53380.00
782.20	53457.00
782.93	53471.00
783.67	53269.00
784.41	53153.00
785.15	52977.00
785.89	52880.00
786.63	52606.00
787.37	52411.00
788.11	52242.00
788.85	52263.00
789.59	52185.00
790.33	52271.00
791.07	52262.00
791.81	52158.00
792.54	51976.00
793.28	51909.00
794.02	51600.00
794.76	51334.00
795.50	50994.00
796.24	50742.00
796.97	50559.00
797.71	50215.00
798.45	50099.00
799.19	49971.00
799.93	49893.00
800.67	49734.00
801.40	49704.00
802.14	49809.00
802.88	49798.00
803.62	49874.00
804.35	49909.00
805.09	49918.00
805.83	49720.00
806.57	49735.00
807.30	49816.00
808.04	49798.00
808.78	49715.00
809.52	49483.00
810.25	49288.00
810.99	49049.00
811.73	48892.00
812.46	48816.00
813.20	48806.00
813.94	48726.00
814.68	48562.00
815.41	48584.00
816.15	48680.00
816.88	48765.00
817.62	48765.00
818.36	48630.00
819.09	48353.00
819.83	48040.00
820.57	48025.00
821.30	47889.00
822.04	47721.00
822.77	47535.00
823.51	47382.00
824.25	47321.00
824.98	47294.00
825.72	47225.00
826.45	47148.00
827.19	46938.00
827.92	46687.00
828.66	46399.00
829.40	46214.00
830.13	46163.00
830.87	46124.00
831.60	46113.00
832.34	45990.00
833.07	45946.00
833.81	45860.00
834.54	45943.00
835.28	46081.00
836.01	45967.00
836.75	45815.00
837.48	45514.00
838.22	45327.00
838.95	45243.00
839.68	45196.00
840.42	45373.00
841.15	45239.00
841.89	45098.00
842.62	44910.00
843.36	44701.00
844.09	44602.00
844.82	44712.00
845.56	44744.00
846.29	44630.00
847.02	44414.00
847.76	44380.00
848.49	44421.00
849.23	44646.00
849.96	44863.00
850.69	44876.00
851.43	44745.00
852.16	44435.00
852.89	44145.00
853.63	43867.00
854.36	43731.00
855.09	43633.00
855.82	43694.00
856.56	43533.00
857.29	43222.00
858.02	43168.00
858.76	43145.00
859.49	43211.00
860.22	43126.00
860.95	43039.00
861.69	42929.00
862.42	42749.00
863.15	42594.00
863.88	42524.00
864.61	42671.00
865.35	42669.00
866.08	42543.00
866.81	42404.00
867.54	42160.00
868.27	41917.00
869.01	41837.00
869.74	41870.00
870.47	41825.00
871.20	41734.00
871.93	41555.00
872.66	41183.00
873.40	41054.00
874.13	40842.00
874.86	40640.00
875.59	40596.00
876.32	40546.00
877.05	40442.00
877.78	40346.00
878.51	40190.00
879.24	40048.00
879.97	39888.00
880.71	39752.00
881.44	39724.00
882.17	39557.00
882.90	39377.00
883.63	39173.00
884.36	39147.00
885.09	39126.00
885.82	39322.00
886.55	39387.00
887.28	39511.00
888.01	39373.00
888.74	39133.00
889.47	38834.00
890.20	38598.00
890.93	38322.00
891.66	38197.00
892.39	38152.00
893.12	38087.00
893.85	38115.00
894.57	38174.00
895.30	38108.00
896.03	38150.00
896.76	38117.00
897.49	37980.00
898.22	37799.00
898.95	37619.00
899.68	37450.00
900.41	37207.00
901.14	37107.00
901.86	36938.00
902.59	36856.00
903.32	36895.00
904.05	36825.00
904.78	36597.00
905.51	36466.00
906.24	36305.00
906.96	36197.00
907.69	36141.00
908.42	35872.00
909.15	35738.00
909.88	35524.00
910.60	35434.00
911.33	35266.00
912.06	35108.00
912.79	34996.00
913.52	34863.00
914.24	34695.00
914.97	34687.00
915.70	34484.00
916.42	34416.00
917.15	34247.00
917.88	34020.00
918.61	33834.00
919.33	33609.00
920.06	33292.00
920.79	33099.00
921.51	32961.00
922.24	32800.00
922.97	32708.00
923.69	32537.00
924.42	32522.00
925.15	32311.00
925.87	32250.00
926.60	31975.00
927.33	31689.00
928.05	31394.00
928.78	31124.00
929.51	30836.00
930.23	30319.00
930.96	30076.00
931.68	29630.00
932.41	29294.00
933.14	28958.00
933.86	28703.00
934.59	28319.00
935.31	27838.00
936.04	27416.00
936.76	26972.00
937.49	26425.00
938.21	25989.00
938.94	25500.00
939.66	25101.00
940.39	24713.00
941.11	24267.00
941.84	23987.00
942.56	23611.00
943.29	23343.00
944.01	23128.00
944.74	23007.00
945.46	22958.00
946.19	22949.00
946.91	22978.00
947.64	23044.00
948.36	23082.00
949.09	23185.00
949.81	23312.00
950.53	23410.00
951.26	23492.00
951.98	23554.00
952.71	23561.00
953.43	23668.00
954.15	23740.00
954.88	23892.00
955.60	23943.00
956.33	23948.00
957.05	23945.00
957.77	23961.00
958.50	24109.00
959.22	24152.00
959.94	24133.00
960.67	23955.00
961.39	23926.00
962.11	23977.00
962.84	24054.00
963.56	23982.00
964.28	23934.00
965.00	23722.00
965.73	23636.00
966.45	23527.00
967.17	23354.00
967.89	23221.00
968.62	23102.00
969.34	22934.00
970.06	22746.00
970.78	22608.00
971.51	22457.00
972.23	22325.00
972.95	22172.00
973.67	22011.00
974.40	21788.00
975.12	21705.00
975.84	21547.00
976.56	21344.00
977.28	21208.00
978.00	21052.00
978.73	21000.00
979.45	20940.00
980.17	20833.00
980.89	20834.00
981.61	20796.00
982.33	20669.00
983.05	20628.00
983.77	20600.00
984.50	20453.00
985.22	20378.00
985.94	20336.00
986.66	20288.00
987.38	20138.00
988.10	20048.00
988.82	20045.00
989.54	19913.00
990.26	19832.00
990.98	19720.00
991.70	19560.00
992.42	19407.00
993.14	19290.00
993.86	19129.00
994.58	18963.00
995.30	18805.00
996.02	18737.00
996.74	18621.00
997.46	18570.00
998.18	18479.00
998.90	18340.00
999.62	18238.00
1000.34	18140.00
1001.06	18062.00
1001.78	18002.00
1002.50	17872.00
1003.22	17648.00
1003.94	17506.00
1004.66	17388.00
1005.38	17254.00
1006.09	17082.00
1006.81	16895.00
1007.53	16710.00
1008.25	16542.00
1008.97	16421.00
1009.69	16331.00
1010.41	16252.00
1011.13	16077.00
1011.84	15880.00
1012.56	15766.00
1013.28	15665.00
1014.00	15495.00
1014.72	15373.00
1015.44	15141.00
1016.15	14912.00
1016.87	14720.00
1017.59	14553.00
1018.31	14421.00
1019.03	14313.00
1019.74	14193.00
1020.46	14130.00
1021.18	13965.00
1021.90	13915.00
1022.61	13743.00
1023.33	13653.00
1024.05	13494.00
1024.76	13328.00
1025.48	13147.00
1026.20	12954.00
1026.92	12746.00
1027.63	12591.00
1028.35	12434.00
1029.07	12331.00
1029.78	12180.00
1030.50	12006.00
1031.22	11879.00
1031.93	11733.00
1032.65	11606.00
1033.37	11519.00
1034.08	11393.00
1034.80	11319.00
1035.52	11256.00
1036.23	11126.00
1036.95	11048.00
1037.66	10935.00
1038.38	10830.00
1039.10	10609.00
1039.81	10459.00
1040.53	10247.00
1041.24	10155.00
1041.96	9992.00
1042.67	9867.00
1043.39	9757.00
1044.10	9683.00
1044.82	9568.00
1045.54	9465.00
1046.25	9347.00
1046.97	9220.00
1047.68	9106.00
1048.40	8917.00
1049.11	8748.00
1049.83	8628.00
1050.54	8522.00
1051.26	8435.00
1051.97	8313.00
1052.68	8215.00
1053.40	8091.00
1054.11	7983.00
1054.83	7884.00
1055.54	7784.00
1056.26	7640.00
1056.97	7548.00
1057.69	7453.00
1058.40	7361.00
1059.11	7253.00
1059.83	7105.00
1060.54	6974.00
1061.25	6816.00
1061.97	6674.00
1062.68	6516.00
1063.40	6410.00
1064.11	6303.00
1064.82	6166.00
1065.54	6019.00
1066.25	2562.00
1066.96	2557.00
1067.68	2559.00
1068.39	2561.00
1069.10	2616.00
1069.82	2616.00
1070.53	2613.00
1071.24	2614.00
1071.95	2616.00
1072.67	2611.00
1073.38	5890.00
1074.09	5777.00
1074.80	5647.00
1075.52	5552.00
1076.23	5467.00
1076.94	5340.00
1077.65	2616.00
1078.37	2614.00
1079.08	2611.00
1079.79	2624.00
