174.03	759.30
174.41	759.30
174.78	759.30
175.16	763.82
175.54	754.78
175.92	732.18
176.30	799.98
176.67	818.06
177.05	820.32
177.43	759.30
177.81	781.90
178.19	890.37
178.56	962.69
178.94	824.84
179.32	881.33
179.70	931.05
180.08	949.13
180.45	892.63
180.83	928.79
181.21	1007.88
181.59	967.21
181.96	998.84
182.34	1041.78
182.72	1086.98
183.10	1129.91
183.48	1089.24
183.85	1181.89
184.23	1157.03
184.61	1111.84
184.99	1064.38
185.36	1195.45
185.74	1132.17
186.12	1152.51
186.50	1123.13
186.87	1086.98
187.25	1163.81
187.63	1181.89
188.01	1247.42
188.38	1197.71
188.76	1120.87
189.14	1202.23
189.52	1154.77
189.89	1152.51
190.27	1163.81
190.65	1199.97
191.02	1172.85
191.40	1120.87
191.78	1134.43
192.16	1154.77
192.53	1143.47
192.91	1166.07
193.29	1143.47
193.66	1195.45
194.04	1116.35
194.42	1220.31
194.79	1114.10
195.17	1186.41
195.55	1159.29
195.93	1170.59
196.30	1188.67
196.68	1134.43
197.06	1141.21
197.43	1141.21
197.81	1134.43
198.19	1141.21
198.56	1098.28
198.94	1179.63
199.32	1120.87
199.69	1206.75
200.07	1193.19
200.45	1100.54
200.82	1118.61
201.20	1197.71
201.58	1168.33
201.95	1166.07
202.33	1161.55
202.71	1127.65
203.08	1127.65
203.46	1123.13
203.84	1163.81
204.21	1184.15
204.59	1177.37
204.96	1147.99
205.34	1136.69
205.72	1147.99
206.09	1172.85
206.47	1161.55
206.85	1197.71
207.22	1143.47
207.60	1206.75
207.97	1206.75
208.35	1172.85
208.73	1186.41
209.10	1152.51
209.48	1100.54
209.85	1136.69
210.23	1136.69
210.61	1190.93
210.98	1197.71
211.36	1240.65
211.73	1213.53
212.11	1197.71
212.49	1186.41
212.86	1186.41
213.24	1105.06
213.61	1213.53
213.99	1093.76
214.37	1179.63
214.74	1109.58
215.12	1157.03
215.49	1206.75
215.87	1190.93
216.24	1136.69
216.62	1199.97
216.99	1166.07
217.37	1181.89
217.75	1132.17
218.12	1170.59
218.50	1190.93
218.87	1209.01
219.25	1120.87
219.62	1179.63
220.00	1132.17
220.37	1141.21
220.75	1145.73
221.12	1138.95
221.50	1159.29
221.87	1138.95
222.25	1206.75
222.63	1224.83
223.00	1184.15
223.38	1211.27
223.75	1170.59
224.13	1181.89
224.50	1181.89
224.88	1152.51
225.25	1184.15
225.63	1127.65
226.00	1204.49
226.38	1161.55
226.75	1175.11
227.13	1222.57
227.50	1236.13
227.88	1168.33
228.25	1109.58
228.63	1141.21
229.00	1215.79
229.37	1188.67
229.75	1213.53
230.12	1177.37
230.50	1186.41
230.87	1143.47
231.25	1136.69
231.62	1163.81
232.00	1184.15
232.37	1184.15
232.75	1147.99
233.12	1170.59
233.50	1209.01
233.87	1163.81
234.24	1190.93
234.62	1197.71
234.99	1238.39
235.37	1159.29
235.74	1175.11
236.12	1202.23
236.49	1265.50
236.86	1188.67
237.24	1242.91
237.61	1240.65
237.99	1136.69
238.36	1123.13
238.74	1202.23
239.11	1136.69
239.48	1163.81
239.86	1199.97
240.23	1197.71
240.61	1161.55
240.98	1195.45
241.35	1193.19
241.73	1186.41
242.10	1190.93
242.48	1247.42
242.85	1193.19
243.22	1163.81
243.60	1245.16
243.97	1170.59
244.34	1190.93
244.72	1213.53
245.09	1227.09
245.47	1202.23
245.84	1206.75
246.21	1172.85
246.59	1170.59
246.96	1159.29
247.33	1224.83
247.71	1179.63
248.08	1177.37
248.45	1229.35
248.83	1166.07
249.20	1206.75
249.57	1242.91
249.95	1213.53
250.32	1195.45
250.69	1186.41
251.07	1161.55
251.44	1227.09
251.81	1150.25
252.19	1260.98
252.56	1184.15
252.93	1229.35
253.31	1195.45
253.68	1177.37
254.05	1188.67
254.43	1190.93
254.80	1186.41
255.17	1209.01
255.55	1222.57
255.92	1283.58
256.29	1195.45
256.66	1197.71
257.04	1152.51
257.41	1202.23
257.78	1170.59
258.16	1199.97
258.53	1224.83
258.90	1163.81
259.27	1166.07
259.65	1206.75
260.02	1190.93
260.39	1236.13
260.76	1168.33
261.14	1270.02
261.51	1159.29
261.88	1229.35
262.25	1202.23
262.63	1202.23
263.00	1249.68
263.37	1231.61
263.74	1202.23
264.12	1213.53
264.49	1184.15
264.86	1195.45
265.23	1236.13
265.61	1218.05
265.98	1188.67
266.35	1134.43
266.72	1138.95
267.09	1184.15
267.47	1186.41
267.84	1132.17
268.21	1236.13
268.58	1166.07
268.95	1245.16
269.33	1179.63
269.70	1209.01
270.07	1211.27
270.44	1154.77
270.81	1211.27
271.19	1154.77
271.56	1179.63
271.93	1256.46
272.30	1227.09
272.67	1166.07
273.05	1260.98
273.42	1211.27
273.79	1215.79
274.16	1233.87
274.53	1181.89
274.90	1157.03
275.28	1175.11
275.65	1186.41
276.02	1179.63
276.39	1240.65
276.76	1245.16
277.13	1236.13
277.50	1229.35
277.88	1222.57
278.25	1288.10
278.62	1224.83
278.99	1236.13
279.36	1199.97
279.73	1197.71
280.10	1238.39
280.47	1220.31
280.85	1227.09
281.22	1224.83
281.59	1188.67
281.96	1170.59
282.33	1202.23
282.70	1188.67
283.07	1159.29
283.44	1215.79
283.81	1220.31
284.18	1245.16
284.56	1233.87
284.93	1190.93
285.30	1154.77
285.67	1141.21
286.04	1283.58
286.41	1263.24
286.78	1211.27
287.15	1256.46
287.52	1168.33
287.89	1218.05
288.26	1188.67
288.63	1224.83
289.00	1206.75
289.37	1199.97
289.75	1188.67
290.12	1213.53
290.49	1265.50
290.86	1213.53
291.23	1188.67
291.60	1263.24
291.97	1213.53
292.34	1236.13
292.71	1222.57
293.08	1231.61
293.45	1254.20
293.82	1213.53
294.19	1227.09
294.56	1242.91
294.93	1249.68
295.30	1258.72
295.67	1310.70
296.04	1267.76
296.41	1193.19
296.78	1204.49
297.15	1285.84
297.52	1254.20
297.89	1247.42
298.26	1281.32
298.63	1204.49
299.00	1272.28
299.37	1267.76
299.74	1236.13
300.11	1247.42
300.48	1301.66
300.85	1263.24
301.22	1254.20
301.59	1231.61
301.96	1145.73
302.33	1179.63
302.70	1238.39
303.07	1202.23
303.43	1251.94
303.80	1224.83
304.17	1211.27
304.54	1206.75
304.91	1267.76
305.28	1242.91
305.65	1267.76
306.02	1190.93
306.39	1227.09
306.76	1256.46
307.13	1236.13
307.50	1218.05
307.87	1285.84
308.24	1242.91
308.60	1222.57
308.97	1251.94
309.34	1344.60
309.71	1260.98
310.08	1270.02
310.45	1254.20
310.82	1276.80
311.19	1222.57
311.56	1344.60
311.92	1249.68
312.29	1270.02
312.66	1270.02
313.03	1206.75
313.40	1227.09
313.77	1202.23
314.14	1247.42
314.51	1294.88
314.87	1315.22
315.24	1301.66
315.61	1229.35
315.98	1270.02
316.35	1288.10
316.72	1254.20
317.09	1294.88
317.45	1251.94
317.82	1297.14
318.19	1303.92
318.56	1220.31
318.93	1215.79
319.30	1256.46
319.66	1265.50
320.03	1270.02
320.40	1288.10
320.77	1233.87
321.14	1204.49
321.50	1270.02
321.87	1245.16
322.24	1276.80
322.61	1263.24
322.98	1213.53
323.34	1220.31
323.71	1186.41
324.08	1281.32
324.45	1328.78
324.82	1204.49
325.18	1218.05
325.55	1263.24
325.92	1288.10
326.29	1367.20
326.65	1249.68
327.02	1297.14
327.39	1297.14
327.76	1281.32
328.12	1319.74
328.49	1308.44
328.86	1294.88
329.23	1285.84
329.59	1274.54
329.96	1294.88
330.33	1245.16
330.70	1247.42
331.06	1265.50
331.43	1270.02
331.80	1301.66
332.17	1281.32
332.53	1407.87
332.90	1251.94
333.27	1272.28
333.63	1326.52
334.00	1290.36
334.37	1306.18
334.74	1283.58
335.10	1308.44
335.47	1310.70
335.84	1335.56
336.20	1301.66
336.57	1260.98
336.94	1272.28
337.30	1254.20
337.67	1322.00
338.04	1281.32
338.40	1294.88
338.77	1333.30
339.14	1364.94
339.50	1319.74
339.87	1349.12
340.24	1349.12
340.60	1312.96
340.97	1322.00
341.34	1342.34
341.70	1378.49
342.07	1308.44
342.44	1340.08
342.80	1227.09
343.17	1270.02
343.53	1349.12
343.90	1315.22
344.27	1355.90
344.63	1297.14
345.00	1342.34
345.37	1303.92
345.73	1317.48
346.10	1322.00
346.46	1265.50
346.83	1355.90
347.20	1290.36
347.56	1251.94
347.93	1322.00
348.29	1315.22
348.66	1290.36
349.03	1260.98
349.39	1396.57
349.76	1351.38
350.12	1344.60
350.49	1303.92
350.85	1337.82
351.22	1385.27
351.59	1360.42
351.95	1373.98
352.32	1439.51
352.68	1337.82
353.05	1340.08
353.41	1364.94
353.78	1428.21
354.14	1351.38
354.51	1369.46
354.88	1290.36
355.24	1364.94
355.61	1392.05
355.97	1398.83
356.34	1401.09
356.70	1364.94
357.07	1412.39
357.43	1439.51
357.80	1403.35
358.16	1376.24
358.53	1396.57
358.89	1444.03
359.26	1434.99
359.62	1414.65
359.99	1416.91
360.35	1401.09
360.72	1389.79
361.08	1437.25
361.45	1486.97
361.81	1419.17
362.18	1457.59
362.54	1428.21
362.91	1482.45
363.27	1405.61
363.63	1462.11
364.00	1523.12
364.36	1493.75
364.73	1486.97
365.09	1459.85
365.46	1466.63
365.82	1482.45
366.19	1464.37
366.55	1500.53
366.91	1568.32
367.28	1473.41
367.64	1545.72
368.01	1511.82
368.37	1554.76
368.74	1496.01
369.10	1572.84
369.46	1575.10
369.83	1557.02
370.19	1579.62
370.56	1604.48
370.92	1486.97
371.28	1534.42
371.65	1545.72
372.01	1658.71
372.38	1654.19
372.74	1658.71
373.10	1670.01
373.47	1681.31
373.83	1683.57
374.19	1672.27
374.56	1731.03
374.92	1728.77
375.29	1787.52
375.65	1814.64
376.01	1834.98
376.38	1846.28
376.74	1925.37
377.10	1825.94
377.47	1950.23
377.83	1938.93
378.19	1972.83
378.56	1975.09
378.92	2088.08
379.28	2115.20
379.65	2234.97
380.01	2323.10
380.37	2293.72
380.74	2436.09
381.10	2535.53
381.46	2666.60
381.83	2802.19
382.19	2793.15
382.55	3059.81
382.91	3231.55
383.28	3285.79
383.64	3717.42
384.00	3740.01
384.37	4094.81
384.73	4388.59
385.09	4549.03
385.45	5071.05
385.82	5353.53
386.18	5717.36
386.54	6090.24
386.91	6625.81
387.27	7213.37
387.63	8203.17
387.99	8467.57
388.36	9118.40
388.72	10209.90
389.08	10799.72
389.44	11936.41
389.80	12727.35
390.17	13744.27
390.53	15208.64
390.89	17079.78
391.25	18333.98
391.62	19158.82
391.98	21705.64
392.34	24033.27
392.70	25237.75
393.06	27099.85
393.43	29131.44
393.79	30821.79
394.15	32609.31
394.51	34884.96
394.87	37623.87
395.24	40563.91
395.60	44053.08
395.96	46880.12
396.32	49539.94
396.68	51971.51
397.04	55288.94
397.41	57910.34
397.77	59596.17
398.13	61632.28
398.49	63148.62
398.85	64784.74
399.21	65535.00
399.58	65535.00
399.94	65535.00
400.30	65535.00
400.66	65535.00
401.02	65535.00
401.38	65535.00
401.74	65535.00
402.11	65535.00
402.47	65535.00
402.83	65535.00
403.19	65535.00
403.55	65535.00
403.91	65535.00
404.27	65535.00
404.63	65535.00
404.99	65535.00
405.35	65535.00
405.72	65535.00
406.08	65535.00
406.44	65535.00
406.80	65535.00
407.16	65535.00
407.52	65535.00
407.88	65535.00
408.24	65535.00
408.60	65535.00
408.96	65535.00
409.32	65535.00
409.68	65535.00
410.04	65535.00
410.40	65535.00
410.76	65535.00
411.13	65535.00
411.49	65535.00
411.85	65535.00
412.21	65535.00
412.57	65535.00
412.93	65535.00
413.29	65535.00
413.65	65535.00
414.01	65535.00
414.37	65535.00
414.73	65535.00
415.09	65535.00
415.45	65535.00
415.81	65535.00
416.17	65281.90
416.53	64423.16
416.89	63275.17
417.25	61885.38
417.61	60149.83
417.97	59763.40
418.33	58251.58
418.69	57322.79
419.05	56057.28
419.41	54744.32
419.77	54536.42
420.12	51844.96
420.48	50172.69
420.84	48848.43
421.20	46396.52
421.56	43641.79
421.92	43806.76
422.28	40855.42
422.64	38862.26
423.00	36613.73
423.36	35535.79
423.72	33095.18
424.08	30815.01
424.44	29404.88
424.80	28322.42
425.16	27262.56
425.51	25931.52
425.87	25188.04
426.23	23034.42
426.59	21646.89
426.95	21147.47
427.31	20085.35
427.67	19430.00
428.03	18015.35
428.39	17952.07
428.74	16320.47
429.10	15473.04
429.46	14519.39
429.82	13757.83
430.18	13642.58
430.54	12831.30
430.90	12578.20
431.26	11916.07
431.61	11418.91
431.97	10914.97
432.33	10533.06
432.69	10252.84
433.05	9629.13
433.41	9290.15
433.76	8865.30
434.12	8763.61
434.48	8447.24
434.84	8058.55
435.20	7828.04
435.55	7663.08
435.91	7238.23
436.27	7080.04
436.63	6684.57
436.99	6379.49
437.34	6164.81
437.70	6024.70
438.06	5837.13
438.42	5687.99
438.78	5346.75
439.13	5378.39
439.49	5093.65
439.85	4894.79
440.21	4761.46
440.56	4456.38
440.92	4564.85
441.28	4302.71
441.64	4054.13
441.99	4119.67
442.35	3956.96
442.71	3782.95
443.07	3712.90
443.42	3642.84
443.78	3566.01
444.14	3480.13
444.50	3453.02
444.85	3401.04
445.21	3181.84
445.57	3064.33
445.93	2980.71
446.28	3019.13
446.64	2978.45
447.00	2890.32
447.35	2949.08
447.71	2849.64
448.07	2779.59
448.42	2725.35
448.78	2657.56
449.14	2592.02
449.49	2476.77
449.85	2632.70
450.21	2393.16
450.56	2395.42
450.92	2277.91
451.28	2286.95
451.63	2359.26
451.99	2173.95
452.35	2221.41
452.70	2151.36
453.06	2074.52
453.42	2099.38
453.77	2018.03
454.13	1936.67
454.49	1927.63
454.84	1941.19
455.20	1977.35
455.55	1911.81
455.91	1900.52
456.27	1882.44
456.62	1875.66
456.98	1751.37
457.33	1773.96
457.69	1701.65
458.05	1753.63
458.40	1699.39
458.76	1760.41
459.11	1595.44
459.47	1712.95
459.83	1703.91
460.18	1547.98
460.54	1609.00
460.89	1561.54
461.25	1656.45
461.60	1561.54
461.96	1502.79
462.31	1618.04
462.67	1563.80
463.03	1534.42
463.38	1529.90
463.74	1545.72
464.09	1480.19
464.45	1547.98
464.80	1471.15
465.16	1527.64
465.51	1432.73
465.87	1514.08
466.22	1489.23
466.58	1505.05
466.93	1444.03
467.29	1552.50
467.64	1514.08
468.00	1489.23
468.35	1412.39
468.71	1502.79
469.06	1448.55
469.42	1394.31
469.77	1450.81
470.13	1407.87
470.48	1437.25
470.84	1358.16
471.19	1423.69
471.54	1387.53
471.90	1358.16
472.25	1419.17
472.61	1453.07
472.96	1394.31
473.32	1312.96
473.67	1333.30
474.03	1405.61
474.38	1380.75
474.73	1362.68
475.09	1367.20
475.44	1430.47
475.80	1326.52
476.15	1360.42
476.50	1405.61
476.86	1414.65
477.21	1337.82
477.57	1430.47
477.92	1326.52
478.27	1364.94
478.63	1432.73
478.98	1392.05
479.34	1301.66
479.69	1410.13
480.04	1324.26
480.40	1360.42
480.75	1238.39
481.10	1389.79
481.46	1369.46
481.81	1315.22
482.16	1337.82
482.52	1416.91
482.87	1315.22
483.22	1367.20
483.58	1322.00
483.93	1333.30
484.28	1322.00
484.64	1333.30
484.99	1312.96
485.34	1335.56
485.70	1328.78
486.05	1378.49
486.40	1315.22
486.76	1367.20
487.11	1351.38
487.46	1351.38
487.81	1297.14
488.17	1256.46
488.52	1297.14
488.87	1322.00
489.23	1233.87
489.58	1292.62
489.93	1312.96
490.28	1292.62
490.64	1249.68
490.99	1283.58
491.34	1288.10
491.69	1342.34
492.05	1331.04
492.40	1247.42
492.75	1281.32
493.10	1319.74
493.46	1281.32
493.81	1333.30
494.16	1247.42
494.51	1270.02
494.86	1247.42
495.22	1358.16
495.57	1297.14
495.92	1328.78
496.27	1272.28
496.62	1303.92
496.98	1229.35
497.33	1324.26
497.68	1267.76
498.03	1322.00
498.38	1206.75
498.74	1292.62
499.09	1229.35
499.44	1267.76
499.79	1190.93
500.14	1272.28
500.49	1247.42
500.85	1238.39
501.20	1285.84
501.55	1265.50
501.90	1236.13
502.25	1288.10
502.60	1247.42
502.95	1254.20
503.30	1288.10
503.66	1263.24
504.01	1233.87
504.36	1265.50
504.71	1227.09
505.06	1279.06
505.41	1247.42
505.76	1281.32
506.11	1215.79
506.46	1283.58
506.82	1272.28
507.17	1294.88
507.52	1281.32
507.87	1245.16
508.22	1288.10
508.57	1315.22
508.92	1233.87
509.27	1251.94
509.62	1299.40
509.97	1294.88
510.32	1263.24
510.67	1242.91
511.02	1258.72
511.37	1242.91
511.72	1251.94
512.07	1260.98
512.42	1258.72
512.77	1218.05
513.12	1310.70
513.47	1279.06
513.82	1260.98
514.17	1324.26
514.52	1206.75
514.87	1233.87
515.22	1197.71
515.57	1315.22
515.92	1199.97
516.27	1263.24
516.62	1229.35
516.97	1281.32
517.32	1279.06
517.67	1306.18
518.02	1215.79
518.37	1195.45
518.72	1231.61
519.07	1242.91
519.42	1251.94
519.77	1227.09
520.12	1263.24
520.47	1265.50
520.82	1301.66
521.17	1301.66
521.52	1312.96
521.87	1290.36
522.22	1247.42
522.56	1251.94
522.91	1281.32
523.26	1231.61
523.61	1263.24
523.96	1227.09
524.31	1281.32
524.66	1260.98
525.01	1251.94
525.36	1297.14
525.71	1179.63
526.05	1292.62
526.40	1254.20
526.75	1233.87
527.10	1254.20
527.45	1240.65
527.80	1245.16
528.15	1340.08
528.49	1195.45
528.84	1245.16
529.19	1265.50
529.54	1294.88
529.89	1236.13
530.24	1236.13
530.58	1292.62
530.93	1213.53
531.28	1195.45
531.63	1236.13
531.98	1211.27
532.33	1260.98
532.67	1297.14
533.02	1229.35
533.37	1242.91
533.72	1303.92
534.07	1251.94
534.41	1238.39
534.76	1294.88
535.11	1279.06
535.46	1233.87
535.80	1229.35
536.15	1276.80
536.50	1242.91
536.85	1279.06
537.19	1283.58
537.54	1186.41
537.89	1249.68
538.24	1227.09
538.58	1233.87
538.93	1229.35
539.28	1177.37
539.63	1258.72
539.97	1215.79
540.32	1227.09
540.67	1184.15
541.01	1270.02
541.36	1220.31
541.71	1242.91
542.06	1231.61
542.40	1260.98
542.75	1265.50
543.10	1186.41
543.44	1204.49
543.79	1213.53
544.14	1242.91
544.48	1206.75
544.83	1224.83
545.18	1199.97
545.52	1204.49
545.87	1181.89
546.22	1186.41
546.56	1206.75
546.91	1209.01
547.25	1170.59
547.60	1206.75
547.95	1184.15
548.29	1251.94
548.64	1213.53
548.99	1285.84
549.33	1143.47
549.68	1181.89
550.02	1199.97
550.37	1163.81
550.72	1247.42
551.06	1197.71
551.41	1233.87
551.75	1265.50
552.10	1190.93
552.45	1209.01
552.79	1159.29
553.14	1204.49
553.48	1218.05
553.83	1231.61
554.17	1166.07
554.52	1197.71
554.87	1181.89
555.21	1102.80
555.56	1215.79
555.90	1181.89
556.25	1265.50
556.59	1188.67
556.94	1220.31
557.28	1177.37
557.63	1238.39
557.97	1211.27
558.32	1184.15
558.66	1161.55
559.01	1274.54
559.35	1190.93
559.70	1193.19
560.04	1172.85
560.39	1168.33
560.73	1190.93
561.08	1247.42
561.42	1240.65
561.77	1242.91
562.11	1145.73
562.46	1211.27
562.80	1147.99
563.14	1152.51
563.49	1202.23
563.83	1159.29
564.18	1166.07
564.52	1179.63
564.87	1161.55
565.21	1222.57
565.56	1193.19
565.90	1202.23
566.24	1227.09
566.59	1213.53
566.93	1168.33
567.28	1161.55
567.62	1143.47
567.96	1190.93
568.31	1123.13
568.65	1240.65
569.00	1242.91
569.34	1199.97
569.68	1254.20
570.03	1274.54
570.37	1181.89
570.71	1263.24
571.06	1199.97
571.40	1229.35
571.74	1166.07
572.09	1236.13
572.43	1204.49
572.78	1220.31
573.12	1197.71
573.46	1179.63
573.80	1184.15
574.15	1186.41
574.49	1222.57
574.83	1209.01
575.18	1195.45
575.52	1197.71
575.86	1202.23
576.21	1179.63
576.55	1136.69
576.89	1175.11
577.24	1170.59
577.58	1161.55
577.92	1188.67
578.26	1236.13
578.61	1152.51
578.95	1166.07
579.29	1193.19
579.63	1199.97
579.98	1199.97
580.32	1143.47
580.66	1195.45
581.00	1254.20
581.35	1215.79
581.69	1186.41
582.03	1161.55
582.37	1204.49
582.72	1177.37
583.06	1197.71
583.40	1204.49
583.74	1195.45
584.08	1224.83
584.43	1186.41
584.77	1238.39
585.11	1202.23
585.45	1159.29
585.79	1186.41
586.13	1170.59
586.48	1202.23
586.82	1220.31
587.16	1227.09
587.50	1170.59
587.84	1157.03
588.18	1170.59
588.53	1170.59
588.87	1170.59
589.21	1231.61
589.55	1154.77
589.89	1209.01
590.23	1258.72
590.57	1211.27
590.92	1127.65
591.26	1152.51
591.60	1190.93
591.94	1213.53
592.28	1188.67
592.62	1238.39
592.96	1179.63
593.30	1227.09
593.64	1116.35
593.98	1163.81
594.32	1188.67
594.67	1143.47
595.01	1152.51
595.35	1175.11
595.69	1245.16
596.03	1177.37
596.37	1202.23
596.71	1197.71
597.05	1220.31
597.39	1238.39
597.73	1227.09
598.07	1143.47
598.41	1206.75
598.75	1224.83
599.09	1206.75
599.43	1236.13
599.77	1186.41
600.11	1161.55
600.45	1222.57
600.79	1209.01
601.13	1197.71
601.47	1224.83
601.81	1170.59
602.15	1213.53
602.49	1285.84
602.83	1211.27
603.17	1220.31
603.51	1188.67
603.85	1175.11
604.19	1231.61
604.53	1184.15
604.87	1168.33
605.21	1175.11
605.55	1179.63
605.89	1193.19
606.23	1163.81
606.56	1179.63
606.90	1193.19
607.24	1168.33
607.58	1136.69
607.92	1102.80
608.26	1190.93
608.60	1163.81
608.94	1206.75
609.28	1105.06
609.62	1134.43
609.95	1147.99
610.29	1143.47
610.63	1240.65
610.97	1209.01
611.31	1147.99
611.65	1166.07
611.99	1204.49
612.33	1204.49
612.66	1170.59
613.00	1202.23
613.34	1190.93
613.68	1197.71
614.02	1159.29
614.36	1136.69
614.69	1218.05
615.03	1204.49
615.37	1236.13
615.71	1159.29
616.05	1206.75
616.38	1222.57
616.72	1242.91
617.06	1134.43
617.40	1184.15
617.74	1177.37
618.07	1204.49
618.41	1123.13
618.75	1195.45
619.09	1199.97
619.42	1204.49
619.76	1181.89
620.10	1152.51
620.44	1129.91
620.77	1166.07
621.11	1159.29
621.45	1181.89
621.79	1199.97
622.12	1163.81
622.46	1166.07
622.80	1147.99
623.13	1111.84
623.47	1111.84
623.81	1177.37
624.15	1213.53
624.48	1132.17
624.82	1147.99
625.16	1138.95
625.49	1141.21
625.83	1159.29
626.17	1154.77
626.50	1159.29
626.84	1197.71
627.18	1245.16
627.51	1179.63
627.85	1188.67
628.19	1233.87
628.52	1199.97
628.86	1154.77
629.20	1179.63
629.53	1105.06
629.87	1172.85
630.20	1136.69
630.54	1179.63
630.88	1166.07
631.21	1141.21
631.55	1181.89
631.89	1197.71
632.22	1120.87
632.56	1136.69
632.89	1195.45
633.23	1172.85
633.56	1233.87
633.90	1132.17
634.24	1209.01
634.57	1179.63
634.91	1175.11
635.24	1152.51
635.58	1188.67
635.91	1157.03
636.25	1172.85
636.58	1186.41
636.92	1251.94
637.26	1138.95
637.59	1152.51
637.93	1256.46
638.26	1132.17
638.60	1215.79
638.93	1170.59
639.27	1161.55
639.60	1161.55
639.94	1145.73
640.27	1154.77
640.61	1181.89
640.94	1143.47
641.28	1134.43
641.61	1161.55
641.94	1134.43
642.28	1179.63
642.61	1154.77
642.95	1105.06
643.28	1086.98
643.62	1172.85
643.95	1184.15
644.29	1195.45
644.62	1129.91
644.95	1123.13
645.29	1195.45
645.62	1190.93
645.96	1157.03
646.29	1159.29
646.63	1224.83
646.96	1109.58
647.29	1152.51
647.63	1184.15
647.96	1163.81
648.29	1161.55
648.63	1206.75
648.96	1204.49
649.30	1188.67
649.63	1179.63
649.96	1202.23
650.30	1179.63
650.63	1233.87
650.96	1132.17
651.30	1152.51
651.63	1147.99
651.96	1220.31
652.30	1186.41
652.63	1127.65
652.96	1109.58
653.30	1157.03
653.63	1170.59
653.96	1172.85
654.30	1181.89
654.63	1175.11
654.96	1193.19
655.29	1181.89
655.63	1220.31
655.96	1132.17
656.29	1177.37
656.63	1152.51
656.96	1197.71
657.29	1168.33
657.62	1166.07
657.96	1224.83
658.29	1190.93
658.62	1186.41
658.95	1172.85
659.29	1220.31
659.62	1157.03
659.95	1184.15
660.28	1150.25
660.61	1161.55
660.95	1170.59
661.28	1170.59
661.61	1231.61
661.94	1179.63
662.27	1184.15
662.61	1209.01
662.94	1141.21
663.27	1143.47
663.60	1188.67
663.93	1206.75
664.27	1199.97
664.60	1186.41
664.93	1147.99
665.26	1197.71
665.59	1181.89
665.92	1161.55
666.25	1161.55
666.59	1136.69
666.92	1186.41
667.25	1175.11
667.58	1107.32
667.91	1222.57
668.24	1138.95
668.57	1125.39
668.90	1206.75
669.23	1161.55
669.57	1209.01
669.90	1118.61
670.23	1154.77
670.56	1163.81
670.89	1143.47
671.22	1186.41
671.55	1157.03
671.88	1168.33
672.21	1179.63
672.54	1166.07
672.87	1154.77
673.20	1154.77
673.53	1152.51
673.86	1218.05
674.19	1127.65
674.52	1120.87
674.85	1134.43
675.18	1179.63
675.51	1152.51
675.84	1161.55
676.17	1190.93
676.50	1141.21
676.83	1186.41
677.16	1186.41
677.49	1157.03
677.82	1089.24
678.15	1154.77
678.48	1163.81
678.81	1193.19
679.14	1184.15
679.47	1206.75
679.80	1220.31
680.13	1118.61
680.46	1204.49
680.79	1120.87
681.12	1159.29
681.45	1154.77
681.78	1138.95
682.11	1175.11
682.44	1145.73
682.77	1172.85
683.09	1170.59
683.42	1209.01
683.75	1143.47
684.08	1152.51
684.41	1127.65
684.74	1199.97
685.07	1145.73
685.40	1111.84
685.72	1163.81
686.05	1188.67
686.38	1157.03
686.71	1254.20
687.04	1152.51
687.37	1166.07
687.70	1107.32
688.02	1170.59
688.35	1199.97
688.68	1118.61
689.01	1195.45
689.34	1190.93
689.67	1123.13
689.99	1159.29
690.32	1177.37
690.65	1152.51
690.98	1134.43
691.30	1157.03
691.63	1125.39
691.96	1175.11
692.29	1129.91
692.62	1132.17
692.94	1143.47
693.27	1118.61
693.60	1193.19
693.93	1129.91
694.25	1132.17
694.58	1177.37
694.91	1170.59
695.24	1157.03
695.56	1213.53
695.89	1190.93
696.22	1177.37
696.54	1193.19
696.87	1147.99
697.20	1218.05
697.53	1157.03
697.85	1154.77
698.18	1181.89
698.51	1109.58
698.83	1190.93
699.16	1118.61
699.49	1154.77
699.81	1190.93
700.14	1159.29
700.47	1150.25
700.79	1177.37
701.12	1161.55
701.45	1145.73
701.77	1168.33
702.10	1170.59
702.42	1229.35
702.75	1177.37
703.08	1084.72
703.40	1143.47
703.73	1170.59
704.05	1150.25
704.38	1190.93
704.71	1172.85
705.03	1211.27
705.36	1195.45
705.68	1161.55
706.01	1077.94
706.34	1172.85
706.66	1181.89
706.99	1179.63
707.31	1175.11
707.64	1134.43
707.96	1157.03
708.29	1080.20
708.61	1141.21
708.94	1202.23
709.26	1145.73
709.59	1132.17
709.92	1177.37
710.24	1190.93
710.57	1177.37
710.89	1209.01
711.22	1184.15
711.54	1120.87
711.87	1132.17
712.19	1127.65
712.51	1177.37
712.84	1175.11
713.16	1145.73
713.49	1159.29
713.81	1213.53
714.14	1170.59
714.46	1150.25
714.79	1141.21
715.11	1127.65
715.44	1152.51
715.76	1147.99
716.08	1184.15
716.41	1132.17
716.73	1211.27
717.06	1172.85
717.38	1159.29
717.70	1109.58
718.03	1181.89
718.35	1190.93
718.68	1193.19
719.00	1132.17
719.32	1238.39
719.65	1202.23
719.97	1184.15
720.29	1163.81
720.62	1202.23
720.94	1136.69
721.27	1145.73
721.59	1157.03
721.91	1197.71
722.24	1159.29
722.56	1150.25
722.88	1175.11
723.21	1132.17
723.53	1166.07
723.85	1141.21
724.17	1177.37
724.50	1143.47
724.82	1177.37
725.14	1163.81
725.47	1184.15
725.79	1199.97
726.11	1125.39
726.43	1193.19
726.76	1190.93
727.08	1184.15
727.40	1204.49
727.72	1218.05
728.05	1141.21
728.37	1168.33
728.69	1206.75
729.01	1132.17
729.34	1175.11
729.66	1147.99
729.98	1114.10
730.30	1170.59
730.62	1147.99
730.95	1125.39
731.27	1136.69
731.59	1066.64
731.91	1127.65
732.23	1222.57
732.56	1111.84
732.88	1188.67
733.20	1161.55
733.52	1170.59
733.84	1233.87
734.16	1166.07
734.49	1157.03
734.81	1152.51
735.13	1150.25
735.45	1177.37
735.77	1190.93
736.09	1190.93
736.41	1152.51
736.73	1209.01
737.06	1129.91
737.38	1161.55
737.70	1093.76
738.02	1218.05
738.34	1141.21
738.66	1141.21
738.98	1242.91
739.30	1179.63
739.62	1120.87
739.94	1161.55
740.26	1161.55
740.58	1145.73
740.90	1181.89
741.23	1163.81
741.55	1175.11
741.87	1120.87
742.19	1123.13
742.51	1152.51
742.83	1125.39
743.15	1193.19
743.47	1143.47
743.79	1123.13
744.11	1132.17
744.43	1177.37
744.75	1138.95
745.07	1127.65
745.39	1147.99
745.71	1172.85
746.03	1188.67
746.35	1118.61
746.67	1179.63
746.98	1175.11
747.30	1258.72
747.62	1159.29
747.94	1143.47
748.26	1168.33
748.58	1188.67
748.90	1147.99
749.22	1129.91
749.54	1111.84
749.86	1138.95
750.18	1159.29
750.50	1152.51
750.82	1159.29
751.13	1227.09
751.45	1181.89
751.77	1152.51
752.09	1109.58
752.41	1152.51
752.73	1159.29
753.05	1209.01
753.36	1132.17
753.68	1168.33
754.00	1157.03
754.32	1229.35
754.64	1111.84
754.96	1123.13
755.28	1179.63
755.59	1184.15
755.91	1197.71
756.23	1193.19
756.55	1188.67
756.87	1089.24
757.18	1096.02
757.50	1100.54
757.82	1213.53
758.14	1154.77
758.45	1136.69
758.77	1181.89
759.09	1127.65
759.41	1177.37
759.73	1159.29
760.04	1197.71
760.36	1163.81
760.68	1125.39
760.99	1168.33
761.31	1242.91
761.63	1179.63
761.95	1154.77
762.26	1096.02
762.58	1193.19
762.90	1215.79
763.21	1202.23
763.53	1188.67
763.85	1120.87
764.17	1186.41
764.48	1204.49
764.80	1168.33
765.12	1161.55
765.43	1195.45
765.75	1177.37
766.07	1218.05
766.38	1152.51
766.70	1177.37
767.01	1193.19
767.33	1159.29
767.65	1172.85
767.96	1154.77
768.28	1240.65
768.60	1143.47
768.91	1145.73
769.23	1123.13
769.54	1199.97
769.86	1150.25
770.18	1179.63
770.49	1116.35
770.81	1179.63
771.12	1125.39
771.44	1129.91
771.75	1114.10
772.07	1132.17
772.38	1136.69
772.70	1138.95
773.02	1157.03
773.33	1202.23
773.65	1166.07
773.96	1154.77
774.28	1134.43
774.59	1190.93
774.91	1138.95
775.22	1145.73
775.54	1129.91
775.85	1161.55
776.17	1166.07
776.48	1123.13
776.80	1168.33
777.11	1138.95
777.43	1150.25
777.74	1195.45
778.05	1062.12
778.37	1129.91
778.68	1143.47
779.00	1163.81
779.31	1125.39
779.63	1215.79
779.94	1154.77
780.26	1184.15
780.57	1204.49
780.88	1154.77
781.20	1111.84
781.51	1114.10
781.83	1168.33
782.14	1184.15
782.45	1145.73
782.77	1138.95
783.08	1184.15
783.39	1125.39
783.71	1199.97
784.02	1251.94
784.34	1193.19
784.65	1199.97
784.96	1204.49
785.28	1125.39
785.59	1127.65
785.90	1098.28
786.22	1163.81
786.53	1161.55
786.84	1143.47
787.15	1116.35
787.47	1224.83
787.78	1143.47
788.09	1120.87
788.41	1199.97
788.72	1213.53
789.03	1111.84
789.35	1168.33
789.66	1154.77
789.97	1209.01
790.28	1127.65
790.60	1107.32
790.91	1109.58
791.22	1175.11
791.53	1134.43
791.84	1163.81
792.16	1129.91
792.47	1159.29
792.78	1147.99
793.09	1197.71
793.41	1123.13
793.72	1111.84
794.03	1123.13
794.34	1190.93
794.65	1184.15
794.96	1125.39
795.28	1154.77
795.59	1114.10
795.90	1161.55
796.21	1170.59
796.52	1118.61
796.83	1179.63
797.15	1143.47
797.46	1125.39
797.77	1161.55
798.08	1127.65
798.39	1190.93
798.70	1188.67
799.01	1184.15
799.32	1238.39
799.63	1129.91
799.95	1109.58
800.26	1175.11
800.57	1116.35
800.88	1136.69
801.19	1195.45
801.50	1157.03
801.81	1118.61
802.12	1138.95
802.43	1143.47
802.74	1177.37
803.05	1138.95
803.36	1114.10
803.67	1157.03
803.98	1152.51
804.29	1114.10
804.60	1190.93
804.91	1172.85
805.22	1129.91
805.53	1141.21
805.84	1163.81
806.15	1152.51
806.46	1125.39
806.77	1181.89
807.08	1175.11
807.39	1213.53
807.70	1215.79
808.01	1163.81
808.32	1159.29
808.63	1123.13
808.94	1168.33
809.25	1166.07
809.56	1195.45
809.87	1190.93
810.18	1161.55
810.49	1166.07
810.79	1154.77
811.10	1163.81
811.41	1138.95
811.72	1199.97
812.03	1118.61
812.34	1168.33
812.65	1236.13
812.96	1134.43
813.27	1114.10
813.57	1152.51
813.88	1227.09
814.19	1168.33
814.50	1147.99
814.81	1222.57
815.12	1175.11
815.42	1114.10
815.73	1150.25
816.04	1161.55
816.35	1134.43
816.66	1157.03
816.97	1163.81
817.27	1134.43
817.58	1161.55
817.89	1120.87
818.20	1184.15
818.50	1258.72
818.81	1220.31
819.12	1199.97
819.43	1168.33
819.73	1188.67
820.04	1109.58
820.35	1193.19
820.66	1188.67
820.96	1159.29
821.27	1184.15
821.58	1184.15
821.89	1177.37
822.19	1168.33
822.50	1150.25
822.81	1163.81
823.11	1179.63
823.42	1163.81
823.73	1157.03
824.03	1163.81
824.34	1175.11
824.65	1136.69
824.95	1107.32
825.26	1159.29
825.57	1170.59
825.87	1152.51
826.18	1161.55
826.49	1143.47
826.79	1202.23
827.10	1129.91
827.40	1172.85
827.71	1188.67
828.02	1154.77
828.32	1222.57
828.63	1118.61
828.93	1125.39
829.24	1125.39
829.55	1089.24
829.85	1170.59
830.16	1224.83
830.46	1159.29
830.77	1123.13
831.07	1116.35
831.38	1166.07
831.69	1102.80
831.99	1134.43
832.30	1159.29
832.60	1224.83
832.91	1161.55
833.21	1177.37
833.52	1132.17
833.82	1116.35
834.13	1161.55
834.43	1157.03
834.74	1163.81
835.04	1181.89
835.35	1193.19
835.65	1109.58
835.96	1188.67
836.26	1157.03
836.56	1197.71
836.87	1136.69
837.17	1129.91
837.48	1188.67
837.78	1138.95
838.09	1098.28
838.39	1170.59
838.69	1123.13
839.00	1170.59
839.30	1150.25
839.61	1064.38
839.91	1100.54
840.21	1134.43
840.52	1123.13
840.82	1199.97
841.13	1204.49
841.43	1125.39
841.73	1152.51
842.04	1190.93
842.34	1193.19
842.64	1125.39
842.95	1093.76
843.25	1136.69
843.55	1129.91
843.86	1068.90
844.16	1141.21
844.46	1163.81
844.77	1181.89
845.07	1199.97
845.37	1159.29
845.68	1046.30
845.98	1089.24
846.28	1145.73
846.58	1161.55
846.89	1204.49
847.19	1145.73
847.49	1116.35
847.79	1190.93
848.10	1152.51
848.40	1161.55
848.70	1118.61
849.00	1118.61
849.31	1138.95
849.61	1102.80
849.91	1177.37
850.21	1204.49
850.51	1215.79
850.82	1193.19
851.12	1204.49
851.42	1202.23
851.72	1091.50
852.02	1120.87
852.32	1138.95
852.63	1170.59
852.93	1118.61
853.23	1202.23
853.53	1154.77
853.83	1206.75
854.13	1143.47
854.43	1157.03
854.74	1152.51
855.04	1163.81
855.34	1114.10
855.64	1136.69
855.94	1134.43
856.24	1170.59
856.54	1150.25
856.84	1168.33
857.14	1147.99
857.44	1159.29
857.74	1157.03
858.05	1141.21
858.35	1136.69
858.65	1251.94
858.95	1236.13
859.25	1166.07
859.55	1211.27
859.85	1138.95
860.15	1251.94
860.45	1172.85
860.75	1179.63
861.05	1166.07
861.35	1159.29
861.65	1147.99
861.95	1163.81
862.25	1111.84
862.55	1157.03
862.85	1129.91
863.15	1147.99
863.45	1159.29
863.75	1184.15
864.05	1123.13
864.35	1152.51
864.64	1166.07
864.94	1143.47
865.24	1177.37
865.54	1118.61
865.84	1215.79
866.14	1159.29
866.44	1172.85
866.74	1193.19
867.04	1224.83
867.34	1154.77
867.64	1127.65
867.93	1181.89
868.23	1152.51
868.53	1145.73
868.83	1199.97
869.13	1145.73
869.43	1190.93
869.73	1184.15
870.02	1159.29
870.32	1145.73
870.62	1245.16
870.92	1120.87
871.22	1082.46
871.51	1157.03
871.81	1134.43
872.11	1161.55
872.41	1123.13
872.71	1105.06
873.00	1172.85
873.30	1116.35
873.60	1129.91
873.90	1204.49
874.19	1209.01
874.49	1211.27
874.79	1125.39
875.09	1152.51
875.38	1116.35
875.68	1166.07
875.98	1114.10
876.28	1147.99
876.57	1143.47
876.87	1143.47
877.17	1143.47
