174.03	786.42
174.41	786.42
174.78	786.42
175.16	732.18
175.54	682.47
175.92	743.48
176.30	754.78
176.67	761.56
177.05	858.73
177.43	870.03
177.81	854.21
178.19	851.96
178.56	874.55
178.94	903.93
179.32	881.33
179.70	879.07
180.08	856.47
180.45	994.32
180.83	1025.96
181.21	987.54
181.59	1016.92
181.96	1014.66
182.34	1093.76
182.72	1007.88
183.10	1096.02
183.48	1123.13
183.85	1145.73
184.23	1098.28
184.61	1141.21
184.99	1170.59
185.36	1175.11
185.74	1127.65
186.12	1077.94
186.50	1170.59
186.87	1163.81
187.25	1138.95
187.63	1096.02
188.01	1254.20
188.38	1125.39
188.76	1220.31
189.14	1197.71
189.52	1202.23
189.89	1143.47
190.27	1188.67
190.65	1141.21
191.02	1204.49
191.40	1179.63
191.78	1179.63
192.16	1159.29
192.53	1177.37
192.91	1157.03
193.29	1211.27
193.66	1138.95
194.04	1150.25
194.42	1168.33
194.79	1123.13
195.17	1186.41
195.55	1202.23
195.93	1168.33
196.30	1170.59
196.68	1118.61
197.06	1143.47
197.43	1118.61
197.81	1132.17
198.19	1089.24
198.56	1190.93
198.94	1220.31
199.32	1172.85
199.69	1111.84
200.07	1107.32
200.45	1168.33
200.82	1093.76
201.20	1168.33
201.58	1166.07
201.95	1197.71
202.33	1159.29
202.71	1197.71
203.08	1168.33
203.46	1093.76
203.84	1166.07
204.21	1091.50
204.59	1150.25
204.96	1166.07
205.34	1197.71
205.72	1127.65
206.09	1141.21
206.47	1213.53
206.85	1206.75
207.22	1159.29
207.60	1161.55
207.97	1111.84
208.35	1136.69
208.73	1220.31
209.10	1188.67
209.48	1147.99
209.85	1218.05
210.23	1190.93
210.61	1132.17
210.98	1172.85
211.36	1107.32
211.73	1157.03
212.11	1114.10
212.49	1177.37
212.86	1132.17
213.24	1190.93
213.61	1168.33
213.99	1177.37
214.37	1168.33
214.74	1179.63
215.12	1154.77
215.49	1157.03
215.87	1186.41
216.24	1170.59
216.62	1229.35
216.99	1206.75
217.37	1138.95
217.75	1211.27
218.12	1168.33
218.50	1145.73
218.87	1161.55
219.25	1136.69
219.62	1184.15
220.00	1170.59
220.37	1179.63
220.75	1186.41
221.12	1168.33
221.50	1154.77
221.87	1206.75
222.25	1175.11
222.63	1209.01
223.00	1125.39
223.38	1238.39
223.75	1222.57
224.13	1127.65
224.50	1190.93
224.88	1138.95
225.25	1197.71
225.63	1138.95
226.00	1184.15
226.38	1166.07
226.75	1193.19
227.13	1147.99
227.50	1220.31
227.88	1222.57
228.25	1193.19
228.63	1138.95
229.00	1179.63
229.37	1202.23
229.75	1184.15
230.12	1188.67
230.50	1218.05
230.87	1206.75
231.25	1129.91
231.62	1175.11
232.00	1184.15
232.37	1242.91
232.75	1145.73
233.12	1213.53
233.50	1193.19
233.87	1202.23
234.24	1220.31
234.62	1199.97
234.99	1170.59
235.37	1105.06
235.74	1175.11
236.12	1188.67
236.49	1267.76
236.86	1179.63
237.24	1118.61
237.61	1190.93
237.99	1114.10
238.36	1186.41
238.74	1127.65
239.11	1181.89
239.48	1157.03
239.86	1157.03
240.23	1190.93
240.61	1161.55
240.98	1202.23
241.35	1186.41
241.73	1145.73
242.10	1157.03
242.48	1258.72
242.85	1161.55
243.22	1170.59
243.60	1166.07
243.97	1204.49
244.34	1251.94
244.72	1204.49
245.09	1175.11
245.47	1143.47
245.84	1138.95
246.21	1161.55
246.59	1136.69
246.96	1184.15
247.33	1213.53
247.71	1168.33
248.08	1204.49
248.45	1220.31
248.83	1193.19
249.20	1209.01
249.57	1213.53
249.95	1150.25
250.32	1220.31
250.69	1184.15
251.07	1254.20
251.44	1202.23
251.81	1157.03
252.19	1127.65
252.56	1206.75
252.93	1215.79
253.31	1190.93
253.68	1204.49
254.05	1274.54
254.43	1186.41
254.80	1224.83
255.17	1202.23
255.55	1190.93
255.92	1186.41
256.29	1147.99
256.66	1181.89
257.04	1154.77
257.41	1188.67
257.78	1147.99
258.16	1222.57
258.53	1188.67
258.90	1211.27
259.27	1231.61
259.65	1166.07
260.02	1161.55
260.39	1168.33
260.76	1206.75
261.14	1209.01
261.51	1258.72
261.88	1256.46
262.25	1238.39
262.63	1218.05
263.00	1242.91
263.37	1202.23
263.74	1197.71
264.12	1215.79
264.49	1195.45
264.86	1251.94
265.23	1181.89
265.61	1204.49
265.98	1224.83
266.35	1195.45
266.72	1263.24
267.09	1236.13
267.47	1154.77
267.84	1236.13
268.21	1233.87
268.58	1285.84
268.95	1168.33
269.33	1184.15
269.70	1186.41
270.07	1238.39
270.44	1195.45
270.81	1233.87
271.19	1220.31
271.56	1236.13
271.93	1256.46
272.30	1199.97
272.67	1242.91
273.05	1254.20
273.42	1163.81
273.79	1211.27
274.16	1175.11
274.53	1215.79
274.90	1240.65
275.28	1172.85
275.65	1204.49
276.02	1141.21
276.39	1224.83
276.76	1231.61
277.13	1233.87
277.50	1175.11
277.88	1240.65
278.25	1240.65
278.62	1190.93
278.99	1143.47
279.36	1209.01
279.73	1227.09
280.10	1233.87
280.47	1186.41
280.85	1251.94
281.22	1249.68
281.59	1224.83
281.96	1236.13
282.33	1222.57
282.70	1206.75
283.07	1265.50
283.44	1220.31
283.81	1270.02
284.18	1211.27
284.56	1238.39
284.93	1227.09
285.30	1231.61
285.67	1227.09
286.04	1209.01
286.41	1231.61
286.78	1215.79
287.15	1297.14
287.52	1240.65
287.89	1222.57
288.26	1211.27
288.63	1220.31
289.00	1285.84
289.37	1240.65
289.75	1190.93
290.12	1260.98
290.49	1175.11
290.86	1179.63
291.23	1184.15
291.60	1132.17
291.97	1222.57
292.34	1204.49
292.71	1260.98
293.08	1199.97
293.45	1233.87
293.82	1211.27
294.19	1267.76
294.56	1215.79
294.93	1260.98
295.30	1251.94
295.67	1263.24
296.04	1245.16
296.41	1154.77
296.78	1260.98
297.15	1272.28
297.52	1294.88
297.89	1245.16
298.26	1247.42
298.63	1209.01
299.00	1197.71
299.37	1220.31
299.74	1218.05
300.11	1227.09
300.48	1260.98
300.85	1242.91
301.22	1231.61
301.59	1193.19
301.96	1238.39
302.33	1231.61
302.70	1227.09
303.07	1233.87
303.43	1236.13
303.80	1265.50
304.17	1222.57
304.54	1265.50
304.91	1254.20
305.28	1240.65
305.65	1308.44
306.02	1222.57
306.39	1222.57
306.76	1301.66
307.13	1251.94
307.50	1215.79
307.87	1265.50
308.24	1254.20
308.60	1265.50
308.97	1290.36
309.34	1247.42
309.71	1231.61
310.08	1254.20
310.45	1249.68
310.82	1281.32
311.19	1306.18
311.56	1233.87
311.92	1297.14
312.29	1204.49
312.66	1267.76
313.03	1233.87
313.40	1312.96
313.77	1283.58
314.14	1251.94
314.51	1202.23
314.87	1251.94
315.24	1233.87
315.61	1254.20
315.98	1310.70
316.35	1251.94
316.72	1351.38
317.09	1315.22
317.45	1236.13
317.82	1251.94
318.19	1256.46
318.56	1181.89
318.93	1233.87
319.30	1242.91
319.66	1258.72
320.03	1215.79
320.40	1220.31
320.77	1258.72
321.14	1265.50
321.50	1292.62
321.87	1272.28
322.24	1267.76
322.61	1279.06
322.98	1193.19
323.34	1290.36
323.71	1213.53
324.08	1315.22
324.45	1240.65
324.82	1258.72
325.18	1258.72
325.55	1267.76
325.92	1242.91
326.29	1288.10
326.65	1254.20
327.02	1317.48
327.39	1270.02
327.76	1306.18
328.12	1258.72
328.49	1238.39
328.86	1387.53
329.23	1319.74
329.59	1263.24
329.96	1251.94
330.33	1326.52
330.70	1233.87
331.06	1233.87
331.43	1272.28
331.80	1360.42
332.17	1319.74
332.53	1324.26
332.90	1308.44
333.27	1319.74
333.63	1258.72
334.00	1263.24
334.37	1308.44
334.74	1229.35
335.10	1319.74
335.47	1281.32
335.84	1299.40
336.20	1265.50
336.57	1364.94
336.94	1306.18
337.30	1240.65
337.67	1288.10
338.04	1351.38
338.40	1249.68
338.77	1292.62
339.14	1349.12
339.50	1335.56
339.87	1346.86
340.24	1310.70
340.60	1303.92
340.97	1236.13
341.34	1290.36
341.70	1376.24
342.07	1285.84
342.44	1301.66
342.80	1303.92
343.17	1294.88
343.53	1353.64
343.90	1303.92
344.27	1346.86
344.63	1301.66
345.00	1342.34
345.37	1353.64
345.73	1306.18
346.10	1355.90
346.46	1288.10
346.83	1432.73
347.20	1322.00
347.56	1346.86
347.93	1403.35
348.29	1351.38
348.66	1344.60
349.03	1358.16
349.39	1288.10
349.76	1342.34
350.12	1349.12
350.49	1310.70
350.85	1373.98
351.22	1385.27
351.59	1279.06
351.95	1337.82
352.32	1378.49
352.68	1355.90
353.05	1337.82
353.41	1412.39
353.78	1423.69
354.14	1444.03
354.51	1398.83
354.88	1308.44
355.24	1310.70
355.61	1403.35
355.97	1303.92
356.34	1416.91
356.70	1351.38
357.07	1380.75
357.43	1396.57
357.80	1364.94
358.16	1428.21
358.53	1444.03
358.89	1453.07
359.26	1453.07
359.62	1380.75
359.99	1416.91
360.35	1398.83
360.72	1421.43
361.08	1378.49
361.45	1378.49
361.81	1482.45
362.18	1462.11
362.54	1428.21
362.91	1407.87
363.27	1385.27
363.63	1430.47
364.00	1468.89
364.36	1489.23
364.73	1437.25
365.09	1529.90
365.46	1534.42
365.82	1518.60
366.19	1532.16
366.55	1545.72
366.91	1538.94
367.28	1518.60
367.64	1507.30
368.01	1557.02
368.37	1462.11
368.74	1575.10
369.10	1547.98
369.46	1568.32
369.83	1554.76
370.19	1552.50
370.56	1568.32
370.92	1538.94
371.28	1484.71
371.65	1624.82
372.01	1599.96
372.38	1694.87
372.74	1764.93
373.10	1674.53
373.47	1670.01
373.83	1706.17
374.19	1712.95
374.56	1749.11
374.92	1715.21
375.29	1710.69
375.65	1812.38
376.01	1749.11
376.38	1773.96
376.74	1859.84
377.10	1889.22
377.47	1866.62
377.83	1893.74
378.19	1977.35
378.56	1981.87
378.92	2121.98
379.28	2164.91
379.65	2239.49
380.01	2246.27
380.37	2332.14
380.74	2381.86
381.10	2621.40
381.46	2594.28
381.83	2806.71
382.19	2944.56
382.55	3100.48
382.91	3150.20
383.28	3376.18
383.64	3654.14
384.00	3758.09
384.37	4162.60
384.73	4314.01
385.09	4700.44
385.45	4795.35
385.82	5102.69
386.18	5622.45
386.54	6246.16
386.91	6634.85
387.27	7032.58
387.63	8101.48
387.99	8605.42
388.36	9348.91
388.72	10013.30
389.08	10774.86
389.44	11762.40
389.80	12650.51
390.17	13787.21
390.53	15495.64
390.89	17111.41
391.25	18076.36
391.62	19520.39
391.98	21554.24
392.34	23777.91
392.70	25289.73
393.06	27418.49
393.43	29185.67
393.79	31255.68
394.15	32679.37
394.51	34842.02
394.87	37777.54
395.24	40970.67
395.60	43797.72
395.96	46611.20
396.32	49704.91
396.68	52233.65
397.04	55151.09
397.41	57815.43
397.77	59776.96
398.13	61837.92
398.49	63083.09
398.85	64651.41
399.21	65535.00
399.58	65535.00
399.94	65535.00
400.30	65535.00
400.66	65535.00
401.02	65535.00
401.38	65535.00
401.74	65535.00
402.11	65535.00
402.47	65535.00
402.83	65535.00
403.19	65535.00
403.55	65535.00
403.91	65535.00
404.27	65535.00
404.63	65535.00
404.99	65535.00
405.35	65535.00
405.72	65535.00
406.08	65535.00
406.44	65535.00
406.80	65535.00
407.16	65535.00
407.52	65535.00
407.88	65535.00
408.24	65535.00
408.60	65535.00
408.96	65535.00
409.32	65535.00
409.68	65535.00
410.04	65535.00
410.40	65535.00
410.76	65535.00
411.13	65535.00
411.49	65535.00
411.85	65535.00
412.21	65535.00
412.57	65535.00
412.93	65535.00
413.29	65535.00
413.65	65535.00
414.01	65535.00
414.37	65535.00
414.73	65535.00
415.09	65535.00
415.45	65535.00
415.81	65535.00
416.17	65200.55
416.53	64213.00
416.89	63354.27
417.25	61822.10
417.61	60328.36
417.97	59813.12
418.33	58240.28
418.69	57456.12
419.05	55838.08
419.41	54938.67
419.77	54425.69
420.12	51817.85
420.48	49616.77
420.84	48758.04
421.20	46080.14
421.56	44057.60
421.92	43402.25
422.28	40667.86
422.64	38701.81
423.00	36638.58
423.36	35938.04
423.72	33305.34
424.08	30801.45
424.44	29619.56
424.80	28446.71
425.16	27563.12
425.51	25836.61
425.87	24968.84
426.23	22871.72
426.59	21339.55
426.95	21387.01
427.31	19911.34
427.67	19518.13
428.03	17766.76
428.39	17832.30
428.74	16024.44
429.10	15165.70
429.46	15007.52
429.82	13918.28
430.18	13366.88
430.54	12991.75
430.90	12682.15
431.26	11940.93
431.61	11450.55
431.97	10994.06
432.33	10399.73
432.69	10524.02
433.05	9852.85
433.41	9459.64
433.76	9136.48
434.12	8792.99
434.48	8426.90
434.84	8130.86
435.20	7748.95
435.55	7541.04
435.91	7296.98
436.27	7100.38
436.63	6664.23
436.99	6447.29
437.34	6266.50
437.70	6158.03
438.06	5798.72
438.42	5590.81
438.78	5423.59
439.13	5283.48
439.49	5177.26
439.85	4944.50
440.21	4551.29
440.56	4562.59
440.92	4454.12
441.28	4282.37
441.64	4241.70
441.99	3941.14
442.35	3943.40
442.71	3794.25
443.07	3791.99
443.42	3615.72
443.78	3378.44
444.14	3448.50
444.50	3285.79
444.85	3394.26
445.21	3120.82
445.57	3134.38
445.93	3037.21
446.28	3043.99
446.64	2978.45
447.00	2888.06
447.35	3019.13
447.71	2894.84
448.07	2777.33
448.42	2795.41
448.78	2596.54
449.14	2564.90
449.49	2524.23
449.85	2413.50
450.21	2347.96
450.56	2384.12
450.92	2282.43
451.28	2194.29
451.63	2305.02
451.99	2257.57
452.35	2205.59
452.70	2210.11
453.06	2126.50
453.42	1961.53
453.77	2119.72
454.13	2049.66
454.49	2011.25
454.84	2018.03
455.20	1966.05
455.55	1927.63
455.91	1875.66
456.27	1923.11
456.62	1839.50
456.98	1794.30
457.33	1780.74
457.69	1640.63
458.05	1649.67
458.40	1674.53
458.76	1681.31
459.11	1665.49
459.47	1665.49
459.83	1679.05
460.18	1663.23
460.54	1636.12
460.89	1636.12
461.25	1615.78
461.60	1665.49
461.96	1627.08
462.31	1514.08
462.67	1480.19
463.03	1566.06
463.38	1566.06
463.74	1566.06
464.09	1527.64
464.45	1552.50
464.80	1525.38
465.16	1459.85
465.51	1502.79
465.87	1491.49
466.22	1471.15
466.58	1464.37
466.93	1450.81
467.29	1588.66
467.64	1532.16
468.00	1491.49
468.35	1450.81
468.71	1459.85
469.06	1455.33
469.42	1432.73
469.77	1450.81
470.13	1430.47
470.48	1423.69
470.84	1410.13
471.19	1462.11
471.54	1425.95
471.90	1407.87
472.25	1425.95
472.61	1389.79
472.96	1414.65
473.32	1394.31
473.67	1358.16
474.03	1362.68
474.38	1387.53
474.73	1383.01
475.09	1369.46
475.44	1389.79
475.80	1326.52
476.15	1396.57
476.50	1425.95
476.86	1419.17
477.21	1340.08
477.57	1353.64
477.92	1376.24
478.27	1392.05
478.63	1353.64
478.98	1317.48
479.34	1349.12
479.69	1358.16
480.04	1389.79
480.40	1310.70
480.75	1303.92
481.10	1340.08
481.46	1353.64
481.81	1301.66
482.16	1344.60
482.52	1383.01
482.87	1371.72
483.22	1317.48
483.58	1297.14
483.93	1344.60
484.28	1283.58
484.64	1346.86
484.99	1340.08
485.34	1376.24
485.70	1281.32
486.05	1254.20
486.40	1335.56
486.76	1371.72
487.11	1335.56
487.46	1398.83
487.81	1276.80
488.17	1290.36
488.52	1317.48
488.87	1288.10
489.23	1265.50
489.58	1290.36
489.93	1288.10
490.28	1283.58
490.64	1333.30
490.99	1342.34
491.34	1303.92
491.69	1297.14
492.05	1274.54
492.40	1326.52
492.75	1242.91
493.10	1245.16
493.46	1333.30
493.81	1283.58
494.16	1308.44
494.51	1299.40
494.86	1337.82
495.22	1236.13
495.57	1281.32
495.92	1290.36
496.27	1322.00
496.62	1292.62
496.98	1281.32
497.33	1288.10
497.68	1306.18
498.03	1199.97
498.38	1258.72
498.74	1190.93
499.09	1215.79
499.44	1218.05
499.79	1288.10
500.14	1322.00
500.49	1260.98
500.85	1245.16
501.20	1274.54
501.55	1306.18
501.90	1310.70
502.25	1279.06
502.60	1245.16
502.95	1315.22
503.30	1299.40
503.66	1242.91
504.01	1297.14
504.36	1258.72
504.71	1270.02
505.06	1254.20
505.41	1188.67
505.76	1251.94
506.11	1276.80
506.46	1306.18
506.82	1267.76
507.17	1254.20
507.52	1251.94
507.87	1227.09
508.22	1213.53
508.57	1206.75
508.92	1242.91
509.27	1240.65
509.62	1288.10
509.97	1308.44
510.32	1195.45
510.67	1242.91
511.02	1290.36
511.37	1202.23
511.72	1254.20
512.07	1263.24
512.42	1328.78
512.77	1247.42
513.12	1303.92
513.47	1229.35
513.82	1265.50
514.17	1279.06
514.52	1292.62
514.87	1233.87
515.22	1285.84
515.57	1265.50
515.92	1227.09
516.27	1337.82
516.62	1204.49
516.97	1197.71
517.32	1181.89
517.67	1288.10
518.02	1209.01
518.37	1231.61
518.72	1215.79
519.07	1315.22
519.42	1195.45
519.77	1283.58
520.12	1283.58
520.47	1294.88
520.82	1281.32
521.17	1270.02
521.52	1270.02
521.87	1310.70
522.22	1292.62
522.56	1281.32
522.91	1260.98
523.26	1306.18
523.61	1310.70
523.96	1231.61
524.31	1292.62
524.66	1231.61
525.01	1242.91
525.36	1303.92
525.71	1353.64
526.05	1276.80
526.40	1294.88
526.75	1335.56
527.10	1238.39
527.45	1290.36
527.80	1281.32
528.15	1238.39
528.49	1274.54
528.84	1283.58
529.19	1292.62
529.54	1283.58
529.89	1315.22
530.24	1285.84
530.58	1303.92
530.93	1245.16
531.28	1288.10
531.63	1378.49
531.98	1260.98
532.33	1276.80
532.67	1209.01
533.02	1288.10
533.37	1279.06
533.72	1215.79
534.07	1276.80
534.41	1197.71
534.76	1254.20
535.11	1263.24
535.46	1274.54
535.80	1288.10
536.15	1211.27
536.50	1281.32
536.85	1276.80
537.19	1254.20
537.54	1199.97
537.89	1308.44
538.24	1256.46
538.58	1247.42
538.93	1231.61
539.28	1270.02
539.63	1306.18
539.97	1292.62
540.32	1301.66
540.67	1333.30
541.01	1229.35
541.36	1258.72
541.71	1249.68
542.06	1206.75
542.40	1319.74
542.75	1274.54
543.10	1265.50
543.44	1254.20
543.79	1254.20
544.14	1215.79
544.48	1209.01
544.83	1215.79
545.18	1267.76
545.52	1256.46
545.87	1276.80
546.22	1215.79
546.56	1258.72
546.91	1251.94
547.25	1256.46
547.60	1240.65
547.95	1247.42
548.29	1202.23
548.64	1279.06
548.99	1247.42
549.33	1251.94
549.68	1249.68
550.02	1288.10
550.37	1274.54
550.72	1281.32
551.06	1326.52
551.41	1263.24
551.75	1231.61
552.10	1206.75
552.45	1188.67
552.79	1170.59
553.14	1199.97
553.48	1181.89
553.83	1270.02
554.17	1238.39
554.52	1238.39
554.87	1206.75
555.21	1220.31
555.56	1224.83
555.90	1211.27
556.25	1186.41
556.59	1224.83
556.94	1222.57
557.28	1251.94
557.63	1251.94
557.97	1249.68
558.32	1227.09
558.66	1265.50
559.01	1254.20
559.35	1222.57
559.70	1254.20
560.04	1229.35
560.39	1209.01
560.73	1170.59
561.08	1285.84
561.42	1238.39
561.77	1204.49
562.11	1197.71
562.46	1301.66
562.80	1233.87
563.14	1218.05
563.49	1247.42
563.83	1258.72
564.18	1288.10
564.52	1242.91
564.87	1251.94
565.21	1281.32
565.56	1184.15
565.90	1202.23
566.24	1186.41
566.59	1242.91
566.93	1249.68
567.28	1224.83
567.62	1188.67
567.96	1227.09
568.31	1188.67
568.65	1179.63
569.00	1285.84
569.34	1222.57
569.68	1256.46
570.03	1175.11
570.37	1199.97
570.71	1188.67
571.06	1211.27
571.40	1184.15
571.74	1229.35
572.09	1292.62
572.43	1227.09
572.78	1233.87
573.12	1163.81
573.46	1215.79
573.80	1240.65
574.15	1256.46
574.49	1231.61
574.83	1166.07
575.18	1270.02
575.52	1229.35
575.86	1211.27
576.21	1249.68
576.55	1238.39
576.89	1170.59
577.24	1249.68
577.58	1276.80
577.92	1193.19
578.26	1240.65
578.61	1240.65
578.95	1199.97
579.29	1283.58
579.63	1213.53
579.98	1150.25
580.32	1224.83
580.66	1209.01
581.00	1193.19
581.35	1190.93
581.69	1179.63
582.03	1263.24
582.37	1213.53
582.72	1220.31
583.06	1238.39
583.40	1263.24
583.74	1233.87
584.08	1247.42
584.43	1199.97
584.77	1242.91
585.11	1181.89
585.45	1211.27
585.79	1177.37
586.13	1260.98
586.48	1247.42
586.82	1175.11
587.16	1159.29
587.50	1245.16
587.84	1218.05
588.18	1195.45
588.53	1184.15
588.87	1218.05
589.21	1170.59
589.55	1267.76
589.89	1220.31
590.23	1211.27
590.57	1172.85
590.92	1279.06
591.26	1227.09
591.60	1238.39
591.94	1206.75
592.28	1193.19
592.62	1231.61
592.96	1195.45
593.30	1177.37
593.64	1206.75
593.98	1227.09
594.32	1159.29
594.67	1199.97
595.01	1249.68
595.35	1193.19
595.69	1276.80
596.03	1279.06
596.37	1175.11
596.71	1233.87
597.05	1209.01
597.39	1303.92
597.73	1197.71
598.07	1222.57
598.41	1236.13
598.75	1193.19
599.09	1188.67
599.43	1188.67
599.77	1172.85
600.11	1220.31
600.45	1193.19
600.79	1123.13
601.13	1220.31
601.47	1154.77
601.81	1159.29
602.15	1199.97
602.49	1179.63
602.83	1190.93
603.17	1179.63
603.51	1231.61
603.85	1152.51
604.19	1193.19
604.53	1109.58
604.87	1170.59
605.21	1211.27
605.55	1168.33
605.89	1159.29
606.23	1251.94
606.56	1242.91
606.90	1211.27
607.24	1134.43
607.58	1168.33
607.92	1206.75
608.26	1218.05
608.60	1263.24
608.94	1190.93
609.28	1199.97
609.62	1161.55
609.95	1168.33
610.29	1143.47
610.63	1168.33
610.97	1206.75
611.31	1186.41
611.65	1229.35
611.99	1188.67
612.33	1186.41
612.66	1245.16
613.00	1238.39
613.34	1238.39
613.68	1190.93
614.02	1168.33
614.36	1190.93
614.69	1260.98
615.03	1159.29
615.37	1188.67
615.71	1159.29
616.05	1154.77
616.38	1150.25
616.72	1170.59
617.06	1190.93
617.40	1215.79
617.74	1211.27
618.07	1170.59
618.41	1202.23
618.75	1195.45
619.09	1184.15
619.42	1129.91
619.76	1188.67
620.10	1215.79
620.44	1215.79
620.77	1199.97
621.11	1143.47
621.45	1211.27
621.79	1197.71
622.12	1242.91
622.46	1134.43
622.80	1181.89
623.13	1186.41
623.47	1141.21
623.81	1193.19
624.15	1157.03
624.48	1256.46
624.82	1190.93
625.16	1202.23
625.49	1202.23
625.83	1195.45
626.17	1125.39
626.50	1168.33
626.84	1136.69
627.18	1150.25
627.51	1204.49
627.85	1114.10
628.19	1229.35
628.52	1127.65
628.86	1242.91
629.20	1211.27
629.53	1197.71
629.87	1141.21
630.20	1209.01
630.54	1168.33
630.88	1218.05
631.21	1111.84
631.55	1136.69
631.89	1157.03
632.22	1186.41
632.56	1206.75
632.89	1242.91
633.23	1177.37
633.56	1179.63
633.90	1143.47
634.24	1206.75
634.57	1256.46
634.91	1227.09
635.24	1134.43
635.58	1181.89
635.91	1242.91
636.25	1206.75
636.58	1170.59
636.92	1147.99
637.26	1188.67
637.59	1141.21
637.93	1166.07
638.26	1172.85
638.60	1177.37
638.93	1147.99
639.27	1199.97
639.60	1168.33
639.94	1147.99
640.27	1145.73
640.61	1168.33
640.94	1107.32
641.28	1184.15
641.61	1141.21
641.94	1222.57
642.28	1186.41
642.61	1181.89
642.95	1181.89
643.28	1206.75
643.62	1127.65
643.95	1197.71
644.29	1209.01
644.62	1147.99
644.95	1206.75
645.29	1231.61
645.62	1175.11
645.96	1145.73
646.29	1188.67
646.63	1138.95
646.96	1154.77
647.29	1186.41
647.63	1163.81
647.96	1242.91
648.29	1138.95
648.63	1186.41
648.96	1172.85
649.30	1181.89
649.63	1233.87
649.96	1188.67
650.30	1190.93
650.63	1150.25
650.96	1197.71
651.30	1127.65
651.63	1179.63
651.96	1143.47
652.30	1170.59
652.63	1181.89
652.96	1116.35
653.30	1227.09
653.63	1199.97
653.96	1123.13
654.30	1127.65
654.63	1175.11
654.96	1145.73
655.29	1202.23
655.63	1193.19
655.96	1267.76
656.29	1145.73
656.63	1177.37
656.96	1229.35
657.29	1134.43
657.62	1138.95
657.96	1125.39
658.29	1159.29
658.62	1166.07
658.95	1163.81
659.29	1199.97
659.62	1179.63
659.95	1177.37
660.28	1186.41
660.61	1211.27
660.95	1181.89
661.28	1188.67
661.61	1107.32
661.94	1186.41
662.27	1209.01
662.61	1256.46
662.94	1172.85
663.27	1102.80
663.60	1195.45
663.93	1175.11
664.27	1213.53
664.60	1211.27
664.93	1202.23
665.26	1147.99
665.59	1170.59
665.92	1245.16
666.25	1202.23
666.59	1154.77
666.92	1166.07
667.25	1193.19
667.58	1136.69
667.91	1186.41
668.24	1136.69
668.57	1116.35
668.90	1147.99
669.23	1150.25
669.57	1218.05
669.90	1109.58
670.23	1127.65
670.56	1134.43
670.89	1136.69
671.22	1170.59
671.55	1166.07
671.88	1143.47
672.21	1202.23
672.54	1222.57
672.87	1170.59
673.20	1163.81
673.53	1218.05
673.86	1161.55
674.19	1179.63
674.52	1170.59
674.85	1150.25
675.18	1190.93
675.51	1193.19
675.84	1163.81
676.17	1166.07
676.50	1157.03
676.83	1143.47
677.16	1136.69
677.49	1181.89
677.82	1154.77
678.15	1161.55
678.48	1181.89
678.81	1116.35
679.14	1190.93
679.47	1159.29
679.80	1166.07
680.13	1222.57
680.46	1179.63
680.79	1145.73
681.12	1177.37
681.45	1107.32
681.78	1209.01
682.11	1132.17
682.44	1138.95
682.77	1152.51
683.09	1152.51
683.42	1147.99
683.75	1132.17
684.08	1157.03
684.41	1213.53
684.74	1114.10
685.07	1120.87
685.40	1157.03
685.72	1186.41
686.05	1172.85
686.38	1184.15
686.71	1116.35
687.04	1163.81
687.37	1134.43
687.70	1141.21
688.02	1224.83
688.35	1186.41
688.68	1177.37
689.01	1161.55
689.34	1218.05
689.67	1211.27
689.99	1152.51
690.32	1141.21
690.65	1172.85
690.98	1163.81
691.30	1114.10
691.63	1147.99
691.96	1062.12
692.29	1127.65
692.62	1136.69
692.94	1172.85
693.27	1147.99
693.60	1179.63
693.93	1181.89
694.25	1152.51
694.58	1138.95
694.91	1141.21
695.24	1134.43
695.56	1127.65
695.89	1166.07
696.22	1206.75
696.54	1175.11
696.87	1125.39
697.20	1147.99
697.53	1129.91
697.85	1159.29
698.18	1143.47
698.51	1157.03
698.83	1220.31
699.16	1138.95
699.49	1168.33
699.81	1143.47
700.14	1220.31
700.47	1114.10
700.79	1150.25
701.12	1179.63
701.45	1138.95
701.77	1172.85
702.10	1150.25
702.42	1150.25
702.75	1100.54
703.08	1206.75
703.40	1170.59
703.73	1145.73
704.05	1209.01
704.38	1157.03
704.71	1120.87
705.03	1159.29
705.36	1107.32
705.68	1127.65
706.01	1157.03
706.34	1089.24
706.66	1150.25
706.99	1129.91
707.31	1186.41
707.64	1096.02
707.96	1209.01
708.29	1161.55
708.61	1136.69
708.94	1143.47
709.26	1163.81
709.59	1181.89
709.92	1179.63
710.24	1105.06
710.57	1186.41
710.89	1179.63
711.22	1143.47
711.54	1159.29
711.87	1186.41
712.19	1138.95
712.51	1159.29
712.84	1132.17
713.16	1177.37
713.49	1134.43
713.81	1254.20
714.14	1188.67
714.46	1168.33
714.79	1170.59
715.11	1181.89
715.44	1129.91
715.76	1175.11
716.08	1084.72
716.41	1195.45
716.73	1159.29
717.06	1129.91
717.38	1159.29
717.70	1136.69
718.03	1186.41
718.35	1154.77
718.68	1172.85
719.00	1168.33
719.32	1125.39
719.65	1220.31
719.97	1145.73
720.29	1211.27
720.62	1129.91
720.94	1175.11
721.27	1150.25
721.59	1177.37
721.91	1159.29
722.24	1159.29
722.56	1218.05
722.88	1152.51
723.21	1150.25
723.53	1163.81
723.85	1177.37
724.17	1109.58
724.50	1147.99
724.82	1132.17
725.14	1132.17
725.47	1114.10
725.79	1177.37
726.11	1145.73
726.43	1222.57
726.76	1175.11
727.08	1188.67
727.40	1202.23
727.72	1125.39
728.05	1166.07
728.37	1179.63
728.69	1152.51
729.01	1188.67
729.34	1209.01
729.66	1170.59
729.98	1179.63
730.30	1211.27
730.62	1116.35
730.95	1118.61
731.27	1132.17
731.59	1147.99
731.91	1098.28
732.23	1163.81
732.56	1195.45
732.88	1168.33
733.20	1100.54
733.52	1159.29
733.84	1206.75
734.16	1129.91
734.49	1123.13
734.81	1175.11
735.13	1141.21
735.45	1157.03
735.77	1136.69
736.09	1118.61
736.41	1091.50
736.73	1107.32
737.06	1147.99
737.38	1120.87
737.70	1147.99
738.02	1080.20
738.34	1159.29
738.66	1136.69
738.98	1166.07
739.30	1143.47
739.62	1152.51
739.94	1195.45
740.26	1211.27
740.58	1134.43
740.90	1152.51
741.23	1170.59
741.55	1161.55
741.87	1068.90
742.19	1170.59
742.51	1206.75
742.83	1091.50
743.15	1209.01
743.47	1147.99
743.79	1188.67
744.11	1138.95
744.43	1109.58
744.75	1161.55
745.07	1186.41
745.39	1177.37
745.71	1134.43
746.03	1100.54
746.35	1134.43
746.67	1159.29
746.98	1168.33
747.30	1125.39
747.62	1211.27
747.94	1211.27
748.26	1138.95
748.58	1159.29
748.90	1141.21
749.22	1147.99
749.54	1195.45
749.86	1186.41
750.18	1116.35
750.50	1161.55
750.82	1132.17
751.13	1166.07
751.45	1181.89
751.77	1118.61
752.09	1161.55
752.41	1166.07
752.73	1157.03
753.05	1199.97
753.36	1145.73
753.68	1132.17
754.00	1175.11
754.32	1114.10
754.64	1136.69
754.96	1134.43
755.28	1152.51
755.59	1161.55
755.91	1120.87
756.23	1152.51
756.55	1190.93
756.87	1129.91
757.18	1175.11
757.50	1163.81
757.82	1107.32
758.14	1172.85
758.45	1204.49
758.77	1184.15
759.09	1161.55
759.41	1125.39
759.73	1181.89
760.04	1114.10
760.36	1166.07
760.68	1179.63
760.99	1193.19
761.31	1170.59
761.63	1109.58
761.95	1159.29
762.26	1136.69
762.58	1118.61
762.90	1157.03
763.21	1136.69
763.53	1172.85
763.85	1195.45
764.17	1136.69
764.48	1163.81
764.80	1177.37
765.12	1229.35
765.43	1188.67
765.75	1202.23
766.07	1163.81
766.38	1134.43
766.70	1213.53
767.01	1247.42
767.33	1188.67
767.65	1199.97
767.96	1134.43
768.28	1154.77
768.60	1197.71
768.91	1143.47
769.23	1172.85
769.54	1111.84
769.86	1206.75
770.18	1161.55
770.49	1123.13
770.81	1188.67
771.12	1145.73
771.44	1152.51
771.75	1170.59
772.07	1188.67
772.38	1172.85
772.70	1143.47
773.02	1170.59
773.33	1159.29
773.65	1125.39
773.96	1107.32
774.28	1204.49
774.59	1157.03
774.91	1159.29
775.22	1154.77
775.54	1161.55
775.85	1111.84
776.17	1211.27
776.48	1150.25
776.80	1118.61
777.11	1138.95
777.43	1120.87
777.74	1152.51
778.05	1129.91
778.37	1132.17
778.68	1152.51
779.00	1163.81
779.31	1154.77
779.63	1075.68
779.94	1188.67
780.26	1118.61
780.57	1111.84
780.88	1154.77
781.20	1120.87
781.51	1145.73
781.83	1129.91
782.14	1150.25
782.45	1181.89
782.77	1123.13
783.08	1157.03
783.39	1123.13
783.71	1168.33
784.02	1143.47
784.34	1188.67
784.65	1172.85
784.96	1147.99
785.28	1109.58
785.59	1188.67
785.90	1145.73
786.22	1120.87
786.53	1127.65
786.84	1186.41
787.15	1154.77
787.47	1127.65
787.78	1179.63
788.09	1218.05
788.41	1134.43
788.72	1059.86
789.03	1134.43
789.35	1177.37
789.66	1152.51
789.97	1157.03
790.28	1161.55
790.60	1204.49
790.91	1109.58
791.22	1111.84
791.53	1195.45
791.84	1116.35
792.16	1143.47
792.47	1199.97
792.78	1168.33
793.09	1143.47
793.41	1161.55
793.72	1206.75
794.03	1127.65
794.34	1170.59
794.65	1147.99
794.96	1138.95
795.28	1150.25
795.59	1166.07
795.90	1089.24
796.21	1159.29
796.52	1245.16
796.83	1188.67
797.15	1233.87
797.46	1093.76
797.77	1206.75
798.08	1166.07
798.39	1193.19
798.70	1145.73
799.01	1163.81
799.32	1188.67
799.63	1227.09
799.95	1150.25
800.26	1197.71
800.57	1245.16
800.88	1175.11
801.19	1181.89
801.50	1193.19
801.81	1123.13
802.12	1184.15
802.43	1224.83
802.74	1145.73
803.05	1197.71
803.36	1172.85
803.67	1211.27
803.98	1184.15
804.29	1116.35
804.60	1163.81
804.91	1179.63
805.22	1166.07
805.53	1222.57
805.84	1218.05
806.15	1138.95
806.46	1116.35
806.77	1138.95
807.08	1132.17
807.39	1138.95
807.70	1168.33
808.01	1206.75
808.32	1154.77
808.63	1138.95
808.94	1197.71
809.25	1109.58
809.56	1125.39
809.87	1161.55
810.18	1136.69
810.49	1172.85
810.79	1091.50
811.10	1175.11
811.41	1127.65
811.72	1179.63
812.03	1132.17
812.34	1186.41
812.65	1170.59
812.96	1118.61
813.27	1123.13
813.57	1197.71
813.88	1163.81
814.19	1154.77
814.50	1143.47
814.81	1116.35
815.12	1147.99
815.42	1071.16
815.73	1222.57
816.04	1206.75
816.35	1147.99
816.66	1190.93
816.97	1138.95
817.27	1145.73
817.58	1168.33
817.89	1136.69
818.20	1218.05
818.50	1186.41
818.81	1154.77
819.12	1215.79
819.43	1184.15
819.73	1154.77
820.04	1141.21
820.35	1202.23
820.66	1109.58
820.96	1147.99
821.27	1129.91
821.58	1172.85
821.89	1204.49
822.19	1159.29
822.50	1163.81
822.81	1170.59
823.11	1193.19
823.42	1157.03
823.73	1184.15
824.03	1159.29
824.34	1118.61
824.65	1184.15
824.95	1177.37
825.26	1168.33
825.57	1229.35
825.87	1177.37
826.18	1138.95
826.49	1136.69
826.79	1125.39
827.10	1102.80
827.40	1150.25
827.71	1082.46
828.02	1181.89
828.32	1170.59
828.63	1181.89
828.93	1143.47
829.24	1159.29
829.55	1168.33
829.85	1141.21
830.16	1170.59
830.46	1184.15
830.77	1147.99
831.07	1159.29
831.38	1134.43
831.69	1147.99
831.99	1170.59
832.30	1134.43
832.60	1195.45
832.91	1107.32
833.21	1193.19
833.52	1181.89
833.82	1170.59
834.13	1145.73
834.43	1138.95
834.74	1186.41
835.04	1116.35
835.35	1147.99
835.65	1147.99
835.96	1123.13
836.26	1136.69
836.56	1157.03
836.87	1114.10
837.17	1143.47
837.48	1166.07
837.78	1132.17
838.09	1186.41
838.39	1233.87
838.69	1172.85
839.00	1132.17
839.30	1141.21
839.61	1141.21
839.91	1154.77
840.21	1206.75
840.52	1159.29
840.82	1096.02
841.13	1184.15
841.43	1147.99
841.73	1147.99
842.04	1161.55
842.34	1111.84
842.64	1120.87
842.95	1186.41
843.25	1141.21
843.55	1147.99
843.86	1175.11
844.16	1190.93
844.46	1166.07
844.77	1134.43
845.07	1150.25
845.37	1154.77
845.68	1152.51
845.98	1181.89
846.28	1136.69
846.58	1179.63
846.89	1125.39
847.19	1143.47
847.49	1179.63
847.79	1179.63
848.10	1161.55
848.40	1107.32
848.70	1132.17
849.00	1134.43
849.31	1086.98
849.61	1129.91
849.91	1152.51
850.21	1233.87
850.51	1166.07
850.82	1125.39
851.12	1127.65
851.42	1123.13
851.72	1116.35
852.02	1172.85
852.32	1240.65
852.63	1157.03
852.93	1233.87
853.23	1177.37
853.53	1177.37
853.83	1138.95
854.13	1143.47
854.43	1211.27
854.74	1157.03
855.04	1132.17
855.34	1109.58
855.64	1102.80
855.94	1125.39
856.24	1166.07
856.54	1154.77
856.84	1152.51
857.14	1147.99
857.44	1120.87
857.74	1195.45
858.05	1163.81
858.35	1152.51
858.65	1152.51
858.95	1132.17
859.25	1202.23
859.55	1125.39
859.85	1120.87
860.15	1190.93
860.45	1168.33
860.75	1195.45
861.05	1157.03
861.35	1154.77
861.65	1111.84
861.95	1175.11
862.25	1105.06
862.55	1170.59
862.85	1175.11
863.15	1089.24
863.45	1188.67
863.75	1166.07
864.05	1105.06
864.35	1107.32
864.64	1195.45
864.94	1152.51
865.24	1111.84
865.54	1080.20
865.84	1127.65
866.14	1084.72
866.44	1129.91
866.74	1147.99
867.04	1204.49
867.34	1134.43
867.64	1163.81
867.93	1175.11
868.23	1125.39
868.53	1154.77
868.83	1161.55
869.13	1120.87
869.43	1138.95
869.73	1172.85
870.02	1168.33
870.32	1163.81
870.62	1127.65
870.92	1127.65
871.22	1105.06
871.51	1199.97
871.81	1147.99
872.11	1177.37
872.41	1154.77
872.71	1161.55
873.00	1100.54
873.30	1190.93
873.60	1163.81
873.90	1132.17
874.19	1136.69
874.49	1213.53
874.79	1163.81
875.09	1170.59
875.38	1172.85
875.68	1129.91
875.98	1181.89
876.28	1136.69
876.57	1179.63
876.87	1179.63
877.17	1179.63
