174.03	763.82
174.41	763.82
174.78	763.82
175.16	775.12
175.54	775.12
175.92	818.06
176.30	759.30
176.67	779.64
177.05	799.98
177.43	818.06
177.81	827.10
178.19	831.62
178.56	806.76
178.94	860.99
179.32	888.11
179.70	872.29
180.08	924.27
180.45	931.05
180.83	980.77
181.21	931.05
181.59	953.65
181.96	1028.22
182.34	1032.74
182.72	1053.08
183.10	1111.84
183.48	1089.24
183.85	1109.58
184.23	1123.13
184.61	1145.73
184.99	1166.07
185.36	1154.77
185.74	1127.65
186.12	1186.41
186.50	1172.85
186.87	1161.55
187.25	1145.73
187.63	1215.79
188.01	1197.71
188.38	1222.57
188.76	1227.09
189.14	1190.93
189.52	1154.77
189.89	1181.89
190.27	1150.25
190.65	1107.32
191.02	1105.06
191.40	1129.91
191.78	1236.13
192.16	1193.19
192.53	1181.89
192.91	1197.71
193.29	1163.81
193.66	1159.29
194.04	1132.17
194.42	1154.77
194.79	1134.43
195.17	1141.21
195.55	1159.29
195.93	1125.39
196.30	1145.73
196.68	1161.55
197.06	1179.63
197.43	1143.47
197.81	1184.15
198.19	1145.73
198.56	1084.72
198.94	1161.55
199.32	1107.32
199.69	1116.35
200.07	1073.42
200.45	1102.80
200.82	1082.46
201.20	1102.80
201.58	1089.24
201.95	1152.51
202.33	1188.67
202.71	1082.46
203.08	1168.33
203.46	1100.54
203.84	1181.89
204.21	1138.95
204.59	1129.91
204.96	1089.24
205.34	1152.51
205.72	1150.25
206.09	1127.65
206.47	1143.47
206.85	1136.69
207.22	1150.25
207.60	1136.69
207.97	1105.06
208.35	1150.25
208.73	1227.09
209.10	1102.80
209.48	1188.67
209.85	1134.43
210.23	1107.32
210.61	1170.59
210.98	1150.25
211.36	1152.51
211.73	1168.33
212.11	1195.45
212.49	1145.73
212.86	1136.69
213.24	1211.27
213.61	1154.77
213.99	1134.43
214.37	1136.69
214.74	1152.51
215.12	1136.69
215.49	1154.77
215.87	1109.58
216.24	1157.03
216.62	1134.43
216.99	1152.51
217.37	1098.28
217.75	1159.29
218.12	1136.69
218.50	1141.21
218.87	1202.23
219.25	1143.47
219.62	1170.59
220.00	1168.33
220.37	1143.47
220.75	1157.03
221.12	1181.89
221.50	1231.61
221.87	1134.43
222.25	1138.95
222.63	1202.23
223.00	1163.81
223.38	1114.10
223.75	1127.65
224.13	1199.97
224.50	1163.81
224.88	1215.79
225.25	1163.81
225.63	1105.06
226.00	1172.85
226.38	1190.93
226.75	1218.05
227.13	1132.17
227.50	1109.58
227.88	1166.07
228.25	1098.28
228.63	1175.11
229.00	1172.85
229.37	1157.03
229.75	1186.41
230.12	1199.97
230.50	1172.85
230.87	1114.10
231.25	1170.59
231.62	1188.67
232.00	1166.07
232.37	1184.15
232.75	1188.67
233.12	1150.25
233.50	1107.32
233.87	1206.75
234.24	1186.41
234.62	1184.15
234.99	1188.67
235.37	1152.51
235.74	1202.23
236.12	1179.63
236.49	1184.15
236.86	1166.07
237.24	1157.03
237.61	1150.25
237.99	1193.19
238.36	1154.77
238.74	1150.25
239.11	1233.87
239.48	1141.21
239.86	1143.47
240.23	1188.67
240.61	1209.01
240.98	1154.77
241.35	1177.37
241.73	1197.71
242.10	1218.05
242.48	1175.11
242.85	1181.89
243.22	1195.45
243.60	1161.55
243.97	1195.45
244.34	1175.11
244.72	1154.77
245.09	1231.61
245.47	1150.25
245.84	1168.33
246.21	1134.43
246.59	1209.01
246.96	1161.55
247.33	1220.31
247.71	1190.93
248.08	1157.03
248.45	1172.85
248.83	1188.67
249.20	1195.45
249.57	1195.45
249.95	1240.65
250.32	1138.95
250.69	1179.63
251.07	1195.45
251.44	1204.49
251.81	1150.25
252.19	1186.41
252.56	1242.91
252.93	1197.71
253.31	1204.49
253.68	1184.15
254.05	1147.99
254.43	1143.47
254.80	1215.79
255.17	1231.61
255.55	1125.39
255.92	1236.13
256.29	1197.71
256.66	1154.77
257.04	1170.59
257.41	1157.03
257.78	1166.07
258.16	1202.23
258.53	1199.97
258.90	1236.13
259.27	1111.84
259.65	1123.13
260.02	1256.46
260.39	1111.84
260.76	1197.71
261.14	1236.13
261.51	1179.63
261.88	1188.67
262.25	1227.09
262.63	1177.37
263.00	1265.50
263.37	1222.57
263.74	1161.55
264.12	1186.41
264.49	1209.01
264.86	1186.41
265.23	1154.77
265.61	1242.91
265.98	1227.09
266.35	1132.17
266.72	1233.87
267.09	1118.61
267.47	1177.37
267.84	1202.23
268.21	1161.55
268.58	1157.03
268.95	1159.29
269.33	1206.75
269.70	1190.93
270.07	1190.93
270.44	1179.63
270.81	1197.71
271.19	1215.79
271.56	1195.45
271.93	1233.87
272.30	1209.01
272.67	1127.65
273.05	1170.59
273.42	1190.93
273.79	1163.81
274.16	1242.91
274.53	1141.21
274.90	1206.75
275.28	1170.59
275.65	1202.23
276.02	1179.63
276.39	1238.39
276.76	1184.15
277.13	1145.73
277.50	1251.94
277.88	1145.73
278.25	1213.53
278.62	1188.67
278.99	1177.37
279.36	1209.01
279.73	1238.39
280.10	1195.45
280.47	1202.23
280.85	1206.75
281.22	1166.07
281.59	1150.25
281.96	1218.05
282.33	1184.15
282.70	1258.72
283.07	1209.01
283.44	1138.95
283.81	1193.19
284.18	1220.31
284.56	1170.59
284.93	1175.11
285.30	1199.97
285.67	1181.89
286.04	1209.01
286.41	1172.85
286.78	1231.61
287.15	1245.16
287.52	1206.75
287.89	1202.23
288.26	1224.83
288.63	1166.07
289.00	1245.16
289.37	1166.07
289.75	1193.19
290.12	1224.83
290.49	1238.39
290.86	1238.39
291.23	1218.05
291.60	1188.67
291.97	1181.89
292.34	1163.81
292.71	1186.41
293.08	1227.09
293.45	1238.39
293.82	1258.72
294.19	1188.67
294.56	1186.41
294.93	1233.87
295.30	1202.23
295.67	1245.16
296.04	1186.41
296.41	1195.45
296.78	1240.65
297.15	1184.15
297.52	1172.85
297.89	1274.54
298.26	1181.89
298.63	1224.83
299.00	1256.46
299.37	1181.89
299.74	1163.81
300.11	1188.67
300.48	1199.97
300.85	1175.11
301.22	1229.35
301.59	1209.01
301.96	1247.42
302.33	1267.76
302.70	1220.31
303.07	1177.37
303.43	1220.31
303.80	1188.67
304.17	1211.27
304.54	1251.94
304.91	1224.83
305.28	1224.83
305.65	1213.53
306.02	1258.72
306.39	1204.49
306.76	1231.61
307.13	1181.89
307.50	1211.27
307.87	1260.98
308.24	1265.50
308.60	1263.24
308.97	1247.42
309.34	1222.57
309.71	1215.79
310.08	1238.39
310.45	1254.20
310.82	1227.09
311.19	1247.42
311.56	1254.20
311.92	1195.45
312.29	1186.41
312.66	1213.53
313.03	1206.75
313.40	1184.15
313.77	1260.98
314.14	1193.19
314.51	1242.91
314.87	1315.22
315.24	1213.53
315.61	1288.10
315.98	1272.28
316.35	1247.42
316.72	1276.80
317.09	1260.98
317.45	1215.79
317.82	1254.20
318.19	1211.27
318.56	1227.09
318.93	1233.87
319.30	1224.83
319.66	1299.40
320.03	1202.23
320.40	1312.96
320.77	1310.70
321.14	1224.83
321.50	1236.13
321.87	1283.58
322.24	1145.73
322.61	1213.53
322.98	1247.42
323.34	1240.65
323.71	1290.36
324.08	1303.92
324.45	1204.49
324.82	1215.79
325.18	1227.09
325.55	1229.35
325.92	1224.83
326.29	1256.46
326.65	1238.39
327.02	1310.70
327.39	1310.70
327.76	1267.76
328.12	1229.35
328.49	1238.39
328.86	1224.83
329.23	1310.70
329.59	1202.23
329.96	1276.80
330.33	1202.23
330.70	1288.10
331.06	1274.54
331.43	1319.74
331.80	1233.87
332.17	1238.39
332.53	1340.08
332.90	1290.36
333.27	1245.16
333.63	1285.84
334.00	1254.20
334.37	1254.20
334.74	1315.22
335.10	1267.76
335.47	1340.08
335.84	1260.98
336.20	1324.26
336.57	1308.44
336.94	1285.84
337.30	1308.44
337.67	1297.14
338.04	1281.32
338.40	1285.84
338.77	1342.34
339.14	1224.83
339.50	1224.83
339.87	1428.21
340.24	1319.74
340.60	1355.90
340.97	1353.64
341.34	1315.22
341.70	1312.96
342.07	1319.74
342.44	1371.72
342.80	1265.50
343.17	1299.40
343.53	1340.08
343.90	1324.26
344.27	1315.22
344.63	1349.12
345.00	1281.32
345.37	1283.58
345.73	1312.96
346.10	1301.66
346.46	1335.56
346.83	1324.26
347.20	1274.54
347.56	1380.75
347.93	1324.26
348.29	1303.92
348.66	1238.39
349.03	1303.92
349.39	1308.44
349.76	1285.84
350.12	1362.68
350.49	1331.04
350.85	1337.82
351.22	1317.48
351.59	1294.88
351.95	1299.40
352.32	1394.31
352.68	1349.12
353.05	1358.16
353.41	1328.78
353.78	1258.72
354.14	1344.60
354.51	1322.00
354.88	1355.90
355.24	1331.04
355.61	1333.30
355.97	1371.72
356.34	1322.00
356.70	1439.51
357.07	1319.74
357.43	1414.65
357.80	1351.38
358.16	1383.01
358.53	1358.16
358.89	1383.01
359.26	1310.70
359.62	1385.27
359.99	1396.57
360.35	1407.87
360.72	1405.61
361.08	1362.68
361.45	1351.38
361.81	1446.29
362.18	1450.81
362.54	1432.73
362.91	1430.47
363.27	1491.49
363.63	1457.59
364.00	1500.53
364.36	1446.29
364.73	1493.75
365.09	1453.07
365.46	1475.67
365.82	1425.95
366.19	1477.93
366.55	1444.03
366.91	1500.53
367.28	1552.50
367.64	1459.85
368.01	1552.50
368.37	1509.56
368.74	1477.93
369.10	1486.97
369.46	1586.40
369.83	1595.44
370.19	1577.36
370.56	1520.86
370.92	1500.53
371.28	1545.72
371.65	1609.00
372.01	1622.56
372.38	1613.52
372.74	1633.86
373.10	1613.52
373.47	1712.95
373.83	1701.65
374.19	1712.95
374.56	1701.65
374.92	1706.17
375.29	1706.17
375.65	1751.37
376.01	1764.93
376.38	1792.04
376.74	1828.20
377.10	1828.20
377.47	1832.72
377.83	1966.05
378.19	2018.03
378.56	2067.74
378.92	2063.22
379.28	2126.50
379.65	2248.53
380.01	2318.58
380.37	2354.74
380.74	2302.76
381.10	2508.41
381.46	2657.56
381.83	2756.99
382.19	2811.23
382.55	3041.73
382.91	3150.20
383.28	3353.58
383.64	3633.80
384.00	3744.53
384.37	4067.69
384.73	4332.09
385.09	4576.15
385.45	4799.87
385.82	5220.20
386.18	5620.19
386.54	6047.30
386.91	6637.11
387.27	7351.22
387.63	7907.14
387.99	8386.22
388.36	9188.46
388.72	9995.22
389.08	10811.02
389.44	11778.22
389.80	12768.03
390.17	13619.98
390.53	15167.96
390.89	16989.38
391.25	17979.19
391.62	19292.15
391.98	21744.06
392.34	23994.85
392.70	24980.13
393.06	27208.32
393.43	29032.00
393.79	30715.58
394.15	32439.82
394.51	34753.89
394.87	37980.92
395.24	40688.20
395.60	43603.37
395.96	46498.21
396.32	49668.75
396.68	52030.27
397.04	55160.13
397.41	57851.59
397.77	59514.82
398.13	61555.44
398.49	63035.63
398.85	64651.41
399.21	65535.00
399.58	65535.00
399.94	65535.00
400.30	65535.00
400.66	65535.00
401.02	65535.00
401.38	65535.00
401.74	65535.00
402.11	65535.00
402.47	65535.00
402.83	65535.00
403.19	65535.00
403.55	65535.00
403.91	65535.00
404.27	65535.00
404.63	65535.00
404.99	65535.00
405.35	65535.00
405.72	65535.00
406.08	65535.00
406.44	65535.00
406.80	65535.00
407.16	65535.00
407.52	65535.00
407.88	65535.00
408.24	65535.00
408.60	65535.00
408.96	65535.00
409.32	65535.00
409.68	65535.00
410.04	65535.00
410.40	65535.00
410.76	65535.00
411.13	65535.00
411.49	65535.00
411.85	65535.00
412.21	65535.00
412.57	65535.00
412.93	65535.00
413.29	65535.00
413.65	65535.00
414.01	65535.00
414.37	65535.00
414.73	65535.00
415.09	65535.00
415.45	65535.00
415.81	65535.00
416.17	65200.55
416.53	64335.03
416.89	63281.95
417.25	61905.72
417.61	60233.44
417.97	59621.03
418.33	58409.76
418.69	57621.08
419.05	56122.82
419.41	54992.90
419.77	54455.07
420.12	51716.15
420.48	49876.65
420.84	48534.32
421.20	45987.49
421.56	43632.75
421.92	43564.96
422.28	40502.89
422.64	38634.01
423.00	36808.07
423.36	35556.13
423.72	33022.86
424.08	30817.27
424.44	29865.88
424.80	28385.69
425.16	27063.70
425.51	25705.54
425.87	25016.29
426.23	22747.42
426.59	21332.77
426.95	21090.97
427.31	19931.68
427.67	19497.79
428.03	18162.23
428.39	17726.09
428.74	16331.77
429.10	15543.09
429.46	14650.46
429.82	14051.61
430.18	13405.30
430.54	12910.40
430.90	12634.70
431.26	11977.09
431.61	11172.59
431.97	10971.46
432.33	10417.81
432.69	10433.62
433.05	10002.00
433.41	9502.58
433.76	8969.26
434.12	8736.49
434.48	8415.60
434.84	8006.57
435.20	7647.26
435.55	7651.78
435.91	7197.55
436.27	7183.99
436.63	6777.22
436.99	6621.29
437.34	6300.40
437.70	6250.68
438.06	5715.10
438.42	5369.35
438.78	5446.18
439.13	5306.08
439.49	5123.03
439.85	4772.76
440.21	4612.31
440.56	4576.15
440.92	4390.84
441.28	4311.75
441.64	4178.42
441.99	4045.09
442.35	3954.70
442.71	3726.46
443.07	3706.12
443.42	3622.50
443.78	3523.07
444.14	3337.77
444.50	3328.73
444.85	3310.65
445.21	3245.11
445.57	3089.18
445.93	2998.79
446.28	3032.69
446.64	2795.41
447.00	2901.62
447.35	2912.92
447.71	2924.22
448.07	2790.89
448.42	2693.71
448.78	2603.32
449.14	2596.54
449.49	2413.50
449.85	2628.18
450.21	2481.29
450.56	2368.30
450.92	2289.21
451.28	2250.79
451.63	2264.35
451.99	2140.06
452.35	2158.14
452.70	2097.12
453.06	2108.42
453.42	2056.44
453.77	1952.49
454.13	1954.75
454.49	1979.61
454.84	1902.77
455.20	1844.02
455.55	1871.14
455.91	1923.11
456.27	1819.16
456.62	1764.93
456.98	1740.07
457.33	1805.60
457.69	1717.47
458.05	1708.43
458.40	1701.65
458.76	1649.67
459.11	1640.63
459.47	1658.71
459.83	1638.38
460.18	1622.56
460.54	1731.03
460.89	1597.70
461.25	1604.48
461.60	1536.68
461.96	1489.23
462.31	1525.38
462.67	1482.45
463.03	1486.97
463.38	1511.82
463.74	1541.20
464.09	1500.53
464.45	1477.93
464.80	1496.01
465.16	1493.75
465.51	1455.33
465.87	1473.41
466.22	1482.45
466.58	1484.71
466.93	1428.21
467.29	1466.63
467.64	1459.85
468.00	1466.63
468.35	1471.15
468.71	1410.13
469.06	1421.43
469.42	1444.03
469.77	1385.27
470.13	1441.77
470.48	1362.68
470.84	1369.46
471.19	1383.01
471.54	1387.53
471.90	1439.51
472.25	1351.38
472.61	1421.43
472.96	1279.06
473.32	1317.48
473.67	1385.27
474.03	1385.27
474.38	1412.39
474.73	1315.22
475.09	1358.16
475.44	1315.22
475.80	1387.53
476.15	1355.90
476.50	1360.42
476.86	1340.08
477.21	1315.22
477.57	1299.40
477.92	1322.00
478.27	1337.82
478.63	1328.78
478.98	1299.40
479.34	1308.44
479.69	1331.04
480.04	1335.56
480.40	1272.28
480.75	1297.14
481.10	1326.52
481.46	1303.92
481.81	1396.57
482.16	1308.44
482.52	1351.38
482.87	1315.22
483.22	1245.16
483.58	1260.98
483.93	1333.30
484.28	1324.26
484.64	1285.84
484.99	1308.44
485.34	1319.74
485.70	1355.90
486.05	1288.10
486.40	1317.48
486.76	1319.74
487.11	1310.70
487.46	1315.22
487.81	1310.70
488.17	1346.86
488.52	1308.44
488.87	1279.06
489.23	1328.78
489.58	1301.66
489.93	1288.10
490.28	1317.48
490.64	1256.46
490.99	1220.31
491.34	1231.61
491.69	1294.88
492.05	1303.92
492.40	1270.02
492.75	1224.83
493.10	1267.76
493.46	1274.54
493.81	1258.72
494.16	1290.36
494.51	1238.39
494.86	1249.68
495.22	1204.49
495.57	1281.32
495.92	1181.89
496.27	1211.27
496.62	1267.76
496.98	1263.24
497.33	1242.91
497.68	1247.42
498.03	1229.35
498.38	1229.35
498.74	1236.13
499.09	1218.05
499.44	1281.32
499.79	1299.40
500.14	1251.94
500.49	1258.72
500.85	1206.75
501.20	1251.94
501.55	1229.35
501.90	1240.65
502.25	1220.31
502.60	1265.50
502.95	1306.18
503.30	1258.72
503.66	1233.87
504.01	1224.83
504.36	1303.92
504.71	1236.13
505.06	1215.79
505.41	1227.09
505.76	1231.61
506.11	1256.46
506.46	1211.27
506.82	1222.57
507.17	1256.46
507.52	1199.97
507.87	1270.02
508.22	1193.19
508.57	1213.53
508.92	1242.91
509.27	1260.98
509.62	1254.20
509.97	1260.98
510.32	1260.98
510.67	1213.53
511.02	1229.35
511.37	1204.49
511.72	1231.61
512.07	1190.93
512.42	1215.79
512.77	1229.35
513.12	1197.71
513.47	1202.23
513.82	1159.29
514.17	1267.76
514.52	1299.40
514.87	1218.05
515.22	1206.75
515.57	1211.27
515.92	1220.31
516.27	1294.88
516.62	1181.89
516.97	1215.79
517.32	1229.35
517.67	1157.03
518.02	1231.61
518.37	1245.16
518.72	1190.93
519.07	1134.43
519.42	1240.65
519.77	1256.46
520.12	1242.91
520.47	1270.02
520.82	1184.15
521.17	1247.42
521.52	1263.24
521.87	1236.13
522.22	1270.02
522.56	1199.97
522.91	1258.72
523.26	1184.15
523.61	1202.23
523.96	1270.02
524.31	1213.53
524.66	1166.07
525.01	1209.01
525.36	1251.94
525.71	1218.05
526.05	1236.13
526.40	1197.71
526.75	1251.94
527.10	1274.54
527.45	1213.53
527.80	1238.39
528.15	1202.23
528.49	1263.24
528.84	1267.76
529.19	1263.24
529.54	1227.09
529.89	1256.46
530.24	1301.66
530.58	1254.20
530.93	1272.28
531.28	1231.61
531.63	1265.50
531.98	1251.94
532.33	1247.42
532.67	1240.65
533.02	1265.50
533.37	1263.24
533.72	1227.09
534.07	1233.87
534.41	1285.84
534.76	1272.28
535.11	1249.68
535.46	1242.91
535.80	1240.65
536.15	1276.80
536.50	1306.18
536.85	1249.68
537.19	1270.02
537.54	1218.05
537.89	1231.61
538.24	1306.18
538.58	1220.31
538.93	1233.87
539.28	1199.97
539.63	1206.75
539.97	1263.24
540.32	1184.15
540.67	1229.35
541.01	1247.42
541.36	1260.98
541.71	1204.49
542.06	1211.27
542.40	1220.31
542.75	1231.61
543.10	1163.81
543.44	1141.21
543.79	1258.72
544.14	1222.57
544.48	1157.03
544.83	1256.46
545.18	1172.85
545.52	1175.11
545.87	1231.61
546.22	1199.97
546.56	1188.67
546.91	1186.41
547.25	1312.96
547.60	1231.61
547.95	1166.07
548.29	1116.35
548.64	1125.39
548.99	1136.69
549.33	1215.79
549.68	1224.83
550.02	1245.16
550.37	1206.75
550.72	1193.19
551.06	1238.39
551.41	1209.01
551.75	1168.33
552.10	1193.19
552.45	1179.63
552.79	1197.71
553.14	1220.31
553.48	1163.81
553.83	1179.63
554.17	1258.72
554.52	1193.19
554.87	1220.31
555.21	1181.89
555.56	1263.24
555.90	1177.37
556.25	1193.19
556.59	1231.61
556.94	1229.35
557.28	1206.75
557.63	1179.63
557.97	1125.39
558.32	1193.19
558.66	1168.33
559.01	1222.57
559.35	1143.47
559.70	1263.24
560.04	1195.45
560.39	1227.09
560.73	1190.93
561.08	1247.42
561.42	1215.79
561.77	1215.79
562.11	1188.67
562.46	1181.89
562.80	1168.33
563.14	1170.59
563.49	1209.01
563.83	1204.49
564.18	1213.53
564.52	1199.97
564.87	1204.49
565.21	1270.02
565.56	1209.01
565.90	1098.28
566.24	1138.95
566.59	1177.37
566.93	1143.47
567.28	1145.73
567.62	1168.33
567.96	1175.11
568.31	1193.19
568.65	1168.33
569.00	1143.47
569.34	1202.23
569.68	1147.99
570.03	1127.65
570.37	1247.42
570.71	1206.75
571.06	1199.97
571.40	1118.61
571.74	1125.39
572.09	1188.67
572.43	1209.01
572.78	1168.33
573.12	1181.89
573.46	1136.69
573.80	1147.99
574.15	1211.27
574.49	1195.45
574.83	1247.42
575.18	1224.83
575.52	1184.15
575.86	1161.55
576.21	1204.49
576.55	1195.45
576.89	1188.67
577.24	1184.15
577.58	1202.23
577.92	1190.93
578.26	1175.11
578.61	1161.55
578.95	1053.08
579.29	1181.89
579.63	1204.49
579.98	1211.27
580.32	1222.57
580.66	1168.33
581.00	1224.83
581.35	1199.97
581.69	1089.24
582.03	1134.43
582.37	1134.43
582.72	1218.05
583.06	1218.05
583.40	1211.27
583.74	1179.63
584.08	1218.05
584.43	1186.41
584.77	1222.57
585.11	1161.55
585.45	1152.51
585.79	1161.55
586.13	1127.65
586.48	1152.51
586.82	1105.06
587.16	1123.13
587.50	1091.50
587.84	1186.41
588.18	1172.85
588.53	1136.69
588.87	1152.51
589.21	1170.59
589.55	1172.85
589.89	1184.15
590.23	1195.45
590.57	1260.98
590.92	1184.15
591.26	1199.97
591.60	1202.23
591.94	1109.58
592.28	1213.53
592.62	1215.79
592.96	1224.83
593.30	1163.81
593.64	1132.17
593.98	1190.93
594.32	1199.97
594.67	1123.13
595.01	1184.15
595.35	1138.95
595.69	1177.37
596.03	1199.97
596.37	1175.11
596.71	1150.25
597.05	1186.41
597.39	1170.59
597.73	1179.63
598.07	1294.88
598.41	1170.59
598.75	1147.99
599.09	1134.43
599.43	1141.21
599.77	1159.29
600.11	1231.61
600.45	1242.91
600.79	1129.91
601.13	1175.11
601.47	1134.43
601.81	1172.85
602.15	1152.51
602.49	1195.45
602.83	1184.15
603.17	1188.67
603.51	1166.07
603.85	1181.89
604.19	1118.61
604.53	1132.17
604.87	1188.67
605.21	1152.51
605.55	1177.37
605.89	1152.51
606.23	1157.03
606.56	1202.23
606.90	1181.89
607.24	1170.59
607.58	1177.37
607.92	1204.49
608.26	1175.11
608.60	1197.71
608.94	1204.49
609.28	1143.47
609.62	1209.01
609.95	1157.03
610.29	1150.25
610.63	1157.03
610.97	1138.95
611.31	1163.81
611.65	1188.67
611.99	1188.67
612.33	1127.65
612.66	1157.03
613.00	1150.25
613.34	1143.47
613.68	1190.93
614.02	1141.21
614.36	1179.63
614.69	1152.51
615.03	1179.63
615.37	1123.13
615.71	1199.97
616.05	1138.95
616.38	1129.91
616.72	1181.89
617.06	1157.03
617.40	1159.29
617.74	1172.85
618.07	1215.79
618.41	1129.91
618.75	1163.81
619.09	1166.07
619.42	1150.25
619.76	1143.47
620.10	1150.25
620.44	1195.45
620.77	1136.69
621.11	1098.28
621.45	1143.47
621.79	1168.33
622.12	1125.39
622.46	1157.03
622.80	1134.43
623.13	1125.39
623.47	1172.85
623.81	1184.15
624.15	1240.65
624.48	1150.25
624.82	1168.33
625.16	1202.23
625.49	1170.59
625.83	1129.91
626.17	1129.91
626.50	1168.33
626.84	1188.67
627.18	1166.07
627.51	1215.79
627.85	1125.39
628.19	1120.87
628.52	1116.35
628.86	1159.29
629.20	1127.65
629.53	1114.10
629.87	1168.33
630.20	1136.69
630.54	1157.03
630.88	1206.75
631.21	1145.73
631.55	1125.39
631.89	1141.21
632.22	1170.59
632.56	1107.32
632.89	1134.43
633.23	1206.75
633.56	1157.03
633.90	1091.50
634.24	1163.81
634.57	1193.19
634.91	1132.17
635.24	1175.11
635.58	1159.29
635.91	1150.25
636.25	1125.39
636.58	1157.03
636.92	1215.79
637.26	1229.35
637.59	1177.37
637.93	1220.31
638.26	1265.50
638.60	1188.67
638.93	1107.32
639.27	1197.71
639.60	1062.12
639.94	1123.13
640.27	1150.25
640.61	1166.07
640.94	1127.65
641.28	1177.37
641.61	1240.65
641.94	1150.25
642.28	1227.09
642.61	1134.43
642.95	1145.73
643.28	1136.69
643.62	1138.95
643.95	1161.55
644.29	1138.95
644.62	1193.19
644.95	1190.93
645.29	1197.71
645.62	1202.23
645.96	1134.43
646.29	1129.91
646.63	1177.37
646.96	1152.51
647.29	1157.03
647.63	1204.49
647.96	1161.55
648.29	1107.32
648.63	1163.81
648.96	1109.58
649.30	1145.73
649.63	1177.37
649.96	1188.67
650.30	1206.75
650.63	1152.51
650.96	1152.51
651.30	1157.03
651.63	1170.59
651.96	1220.31
652.30	1145.73
652.63	1116.35
652.96	1100.54
653.30	1161.55
653.63	1211.27
653.96	1184.15
654.30	1163.81
654.63	1177.37
654.96	1111.84
655.29	1132.17
655.63	1143.47
655.96	1138.95
656.29	1091.50
656.63	1177.37
656.96	1181.89
657.29	1215.79
657.62	1138.95
657.96	1152.51
658.29	1168.33
658.62	1125.39
658.95	1154.77
659.29	1168.33
659.62	1179.63
659.95	1159.29
660.28	1161.55
660.61	1159.29
660.95	1152.51
661.28	1175.11
661.61	1150.25
661.94	1114.10
662.27	1107.32
662.61	1134.43
662.94	1057.60
663.27	1129.91
663.60	1096.02
663.93	1186.41
664.27	1125.39
664.60	1199.97
664.93	1134.43
665.26	1197.71
665.59	1170.59
665.92	1152.51
666.25	1170.59
666.59	1199.97
666.92	1109.58
667.25	1233.87
667.58	1143.47
667.91	1166.07
668.24	1125.39
668.57	1123.13
668.90	1168.33
669.23	1138.95
669.57	1193.19
669.90	1141.21
670.23	1145.73
670.56	1170.59
670.89	1170.59
671.22	1190.93
671.55	1159.29
671.88	1109.58
672.21	1197.71
672.54	1227.09
672.87	1181.89
673.20	1161.55
673.53	1096.02
673.86	1179.63
674.19	1170.59
674.52	1193.19
674.85	1175.11
675.18	1125.39
675.51	1161.55
675.84	1172.85
676.17	1159.29
676.50	1175.11
676.83	1179.63
677.16	1145.73
677.49	1163.81
677.82	1073.42
678.15	1138.95
678.48	1150.25
678.81	1197.71
679.14	1123.13
679.47	1159.29
679.80	1109.58
680.13	1170.59
680.46	1179.63
680.79	1116.35
681.12	1161.55
681.45	1175.11
681.78	1168.33
682.11	1166.07
682.44	1215.79
682.77	1170.59
683.09	1136.69
683.42	1186.41
683.75	1129.91
684.08	1111.84
684.41	1127.65
684.74	1175.11
685.07	1154.77
685.40	1152.51
685.72	1168.33
686.05	1170.59
686.38	1154.77
686.71	1116.35
687.04	1127.65
687.37	1116.35
687.70	1138.95
688.02	1096.02
688.35	1098.28
688.68	1184.15
689.01	1175.11
689.34	1152.51
689.67	1138.95
689.99	1111.84
690.32	1181.89
690.65	1177.37
690.98	1186.41
691.30	1111.84
691.63	1172.85
691.96	1157.03
692.29	1220.31
692.62	1188.67
692.94	1152.51
693.27	1127.65
693.60	1170.59
693.93	1161.55
694.25	1179.63
694.58	1152.51
694.91	1152.51
695.24	1166.07
695.56	1181.89
695.89	1166.07
696.22	1147.99
696.54	1184.15
696.87	1132.17
697.20	1102.80
697.53	1105.06
697.85	1202.23
698.18	1132.17
698.51	1143.47
698.83	1134.43
699.16	1132.17
699.49	1127.65
699.81	1145.73
700.14	1102.80
700.47	1132.17
700.79	1159.29
701.12	1166.07
701.45	1150.25
701.77	1157.03
702.10	1138.95
702.42	1064.38
702.75	1134.43
703.08	1105.06
703.40	1163.81
703.73	1105.06
704.05	1170.59
704.38	1089.24
704.71	1123.13
705.03	1129.91
705.36	1163.81
705.68	1157.03
706.01	1186.41
706.34	1168.33
706.66	1123.13
706.99	1166.07
707.31	1107.32
707.64	1089.24
707.96	1098.28
708.29	1093.76
708.61	1125.39
708.94	1123.13
709.26	1186.41
709.59	1184.15
709.92	1127.65
710.24	1145.73
710.57	1147.99
710.89	1143.47
711.22	1145.73
711.54	1136.69
711.87	1093.76
712.19	1161.55
712.51	1177.37
712.84	1098.28
713.16	1127.65
713.49	1127.65
713.81	1143.47
714.14	1143.47
714.46	1141.21
714.79	1166.07
715.11	1193.19
715.44	1163.81
715.76	1102.80
716.08	1138.95
716.41	1188.67
716.73	1150.25
717.06	1161.55
717.38	1089.24
717.70	1179.63
718.03	1184.15
718.35	1152.51
718.68	1152.51
719.00	1120.87
719.32	1166.07
719.65	1175.11
719.97	1120.87
720.29	1154.77
720.62	1154.77
720.94	1141.21
721.27	1166.07
721.59	1188.67
721.91	1179.63
722.24	1168.33
722.56	1125.39
722.88	1143.47
723.21	1114.10
723.53	1186.41
723.85	1170.59
724.17	1111.84
724.50	1159.29
724.82	1175.11
725.14	1170.59
725.47	1136.69
725.79	1123.13
726.11	1170.59
726.43	1093.76
726.76	1157.03
727.08	1145.73
727.40	1114.10
727.72	1172.85
728.05	1184.15
728.37	1143.47
728.69	1118.61
729.01	1184.15
729.34	1136.69
729.66	1136.69
729.98	1179.63
730.30	1120.87
730.62	1154.77
730.95	1215.79
731.27	1068.90
731.59	1086.98
731.91	1150.25
732.23	1154.77
732.56	1120.87
732.88	1157.03
733.20	1181.89
733.52	1084.72
733.84	1163.81
734.16	1105.06
734.49	1138.95
734.81	1118.61
735.13	1102.80
735.45	1107.32
735.77	1179.63
736.09	1188.67
736.41	1129.91
736.73	1195.45
737.06	1143.47
737.38	1132.17
737.70	1138.95
738.02	1091.50
738.34	1206.75
738.66	1168.33
738.98	1166.07
739.30	1120.87
739.62	1184.15
739.94	1107.32
740.26	1114.10
740.58	1075.68
740.90	1105.06
741.23	1190.93
741.55	1157.03
741.87	1138.95
742.19	1123.13
742.51	1105.06
742.83	1012.40
743.15	1138.95
743.47	1179.63
743.79	1116.35
744.11	1179.63
744.43	1132.17
744.75	1150.25
745.07	1129.91
745.39	1116.35
745.71	1170.59
746.03	1172.85
746.35	1120.87
746.67	1105.06
746.98	1138.95
747.30	1143.47
747.62	1168.33
747.94	1172.85
748.26	1071.16
748.58	1147.99
748.90	1159.29
749.22	1118.61
749.54	1170.59
749.86	1114.10
750.18	1134.43
750.50	1136.69
750.82	1114.10
751.13	1125.39
751.45	1136.69
751.77	1109.58
752.09	1143.47
752.41	1193.19
752.73	1125.39
753.05	1136.69
753.36	1152.51
753.68	1172.85
754.00	1084.72
754.32	1175.11
754.64	1089.24
754.96	1132.17
755.28	1129.91
755.59	1091.50
755.91	1107.32
756.23	1102.80
756.55	1141.21
756.87	1123.13
757.18	1145.73
757.50	1125.39
757.82	1188.67
758.14	1177.37
758.45	1048.56
758.77	1168.33
759.09	1157.03
759.41	1206.75
759.73	1136.69
760.04	1161.55
760.36	1166.07
760.68	1138.95
760.99	1145.73
761.31	1102.80
761.63	1136.69
761.95	1107.32
762.26	1100.54
762.58	1116.35
762.90	1111.84
763.21	1220.31
763.53	1161.55
763.85	1143.47
764.17	1107.32
764.48	1134.43
764.80	1145.73
765.12	1143.47
765.43	1114.10
765.75	1150.25
766.07	1195.45
766.38	1141.21
766.70	1157.03
767.01	1157.03
767.33	1107.32
767.65	1193.19
767.96	1143.47
768.28	1172.85
768.60	1172.85
768.91	1161.55
769.23	1132.17
769.54	1159.29
769.86	1134.43
770.18	1125.39
770.49	1102.80
770.81	1127.65
771.12	1134.43
771.44	1125.39
771.75	1157.03
772.07	1123.13
772.38	1102.80
772.70	1098.28
773.02	1138.95
773.33	1109.58
773.65	1163.81
773.96	1168.33
774.28	1152.51
774.59	1202.23
774.91	1184.15
775.22	1168.33
775.54	1111.84
775.85	1152.51
776.17	1150.25
776.48	1129.91
776.80	1150.25
777.11	1197.71
777.43	1163.81
777.74	1134.43
778.05	1159.29
778.37	1123.13
778.68	1136.69
779.00	1150.25
779.31	1123.13
779.63	1152.51
779.94	1136.69
780.26	1132.17
780.57	1107.32
780.88	1116.35
781.20	1096.02
781.51	1188.67
781.83	1181.89
782.14	1141.21
782.45	1181.89
782.77	1125.39
783.08	1118.61
783.39	1161.55
783.71	1120.87
784.02	1091.50
784.34	1181.89
784.65	1132.17
784.96	1132.17
785.28	1127.65
785.59	1129.91
785.90	1025.96
786.22	1157.03
786.53	1147.99
786.84	1172.85
787.15	1204.49
787.47	1096.02
787.78	1145.73
788.09	1154.77
788.41	1118.61
788.72	1145.73
789.03	1114.10
789.35	1125.39
789.66	1154.77
789.97	1186.41
790.28	1089.24
790.60	1098.28
790.91	1143.47
791.22	1170.59
791.53	1132.17
791.84	1193.19
792.16	1134.43
792.47	1170.59
792.78	1120.87
793.09	1143.47
793.41	1084.72
793.72	1116.35
794.03	1114.10
794.34	1172.85
794.65	1114.10
794.96	1109.58
795.28	1102.80
795.59	1127.65
795.90	1152.51
796.21	1086.98
796.52	1157.03
796.83	1159.29
797.15	1220.31
797.46	1129.91
797.77	1107.32
798.08	1147.99
798.39	1159.29
798.70	1159.29
799.01	1177.37
799.32	1138.95
799.63	1136.69
799.95	1100.54
800.26	1118.61
800.57	1141.21
800.88	1141.21
801.19	1111.84
801.50	1102.80
801.81	1071.16
802.12	1163.81
802.43	1125.39
802.74	1199.97
803.05	1184.15
803.36	1163.81
803.67	1089.24
803.98	1071.16
804.29	1172.85
804.60	1177.37
804.91	1159.29
805.22	1105.06
805.53	1170.59
805.84	1125.39
806.15	1152.51
806.46	1077.94
806.77	1118.61
807.08	1195.45
807.39	1129.91
807.70	1082.46
808.01	1152.51
808.32	1129.91
808.63	1125.39
808.94	1116.35
809.25	1161.55
809.56	1098.28
809.87	1105.06
810.18	1125.39
810.49	1197.71
810.79	1209.01
811.10	1154.77
811.41	1175.11
811.72	1143.47
812.03	1127.65
812.34	1202.23
812.65	1093.76
812.96	1199.97
813.27	1159.29
813.57	1125.39
813.88	1161.55
814.19	1186.41
814.50	1134.43
814.81	1100.54
815.12	1157.03
815.42	1136.69
815.73	1197.71
816.04	1147.99
816.35	1143.47
816.66	1111.84
816.97	1159.29
817.27	1143.47
817.58	1127.65
817.89	1132.17
818.20	1166.07
818.50	1132.17
818.81	1152.51
819.12	1193.19
819.43	1195.45
819.73	1190.93
820.04	1147.99
820.35	1166.07
820.66	1145.73
820.96	1123.13
821.27	1172.85
821.58	1132.17
821.89	1163.81
822.19	1141.21
822.50	1179.63
822.81	1093.76
823.11	1111.84
823.42	1145.73
823.73	1118.61
824.03	1136.69
824.34	1199.97
824.65	1120.87
824.95	1138.95
825.26	1141.21
825.57	1147.99
825.87	1172.85
826.18	1147.99
826.49	1147.99
826.79	1116.35
827.10	1123.13
827.40	1202.23
827.71	1129.91
828.02	1114.10
828.32	1114.10
828.63	1157.03
828.93	1141.21
829.24	1120.87
829.55	1102.80
829.85	1123.13
830.16	1091.50
830.46	1209.01
830.77	1209.01
831.07	1184.15
831.38	1141.21
831.69	1154.77
831.99	1157.03
832.30	1143.47
832.60	1186.41
832.91	1202.23
833.21	1127.65
833.52	1114.10
833.82	1166.07
834.13	1159.29
834.43	1098.28
834.74	1102.80
835.04	1091.50
835.35	1195.45
835.65	1163.81
835.96	1064.38
836.26	1179.63
836.56	1222.57
836.87	1111.84
837.17	1125.39
837.48	1143.47
837.78	1195.45
838.09	1154.77
838.39	1168.33
838.69	1197.71
839.00	1159.29
839.30	1093.76
839.61	1143.47
839.91	1179.63
840.21	1109.58
840.52	1190.93
840.82	1141.21
841.13	1179.63
841.43	1159.29
841.73	1123.13
842.04	1184.15
842.34	1179.63
842.64	1134.43
842.95	1080.20
843.25	1098.28
843.55	1177.37
843.86	1161.55
844.16	1118.61
844.46	1161.55
844.77	1202.23
845.07	1118.61
845.37	1152.51
845.68	1172.85
845.98	1125.39
846.28	1093.76
846.58	1134.43
846.89	1186.41
847.19	1086.98
847.49	1084.72
847.79	1111.84
848.10	1166.07
848.40	1109.58
848.70	1068.90
849.00	1125.39
849.31	1147.99
849.61	1141.21
849.91	1150.25
850.21	1161.55
850.51	1159.29
850.82	1109.58
851.12	1195.45
851.42	1118.61
851.72	1129.91
852.02	1134.43
852.32	1157.03
852.63	1161.55
852.93	1184.15
853.23	1154.77
853.53	1147.99
853.83	1206.75
854.13	1098.28
854.43	1141.21
854.74	1175.11
855.04	1168.33
855.34	1111.84
855.64	1107.32
855.94	1157.03
856.24	1136.69
856.54	1190.93
856.84	1102.80
857.14	1159.29
857.44	1181.89
857.74	1093.76
858.05	1213.53
858.35	1138.95
858.65	1102.80
858.95	1123.13
859.25	1129.91
859.55	1091.50
859.85	1177.37
860.15	1211.27
860.45	1107.32
860.75	1145.73
861.05	1152.51
861.35	1177.37
861.65	1141.21
861.95	1127.65
862.25	1100.54
862.55	1168.33
862.85	1118.61
863.15	1150.25
863.45	1195.45
863.75	1105.06
864.05	1086.98
864.35	1147.99
864.64	1186.41
864.94	1143.47
865.24	1109.58
865.54	1114.10
865.84	1193.19
866.14	1138.95
866.44	1267.76
866.74	1098.28
867.04	1098.28
867.34	1152.51
867.64	1166.07
867.93	1118.61
868.23	1055.34
868.53	1161.55
868.83	1132.17
869.13	1134.43
869.43	1138.95
869.73	1105.06
870.02	1129.91
870.32	1143.47
870.62	1114.10
870.92	1179.63
871.22	1089.24
871.51	1098.28
871.81	1123.13
872.11	1163.81
872.41	1218.05
872.71	1132.17
873.00	1143.47
873.30	1195.45
873.60	1186.41
873.90	1111.84
874.19	1143.47
874.49	1177.37
874.79	1109.58
875.09	1123.13
875.38	1123.13
875.68	1102.80
875.98	1143.47
876.28	1105.06
876.57	1077.94
876.87	1077.94
877.17	1077.94
