174.03	802.24
174.41	802.24
174.78	802.24
175.16	750.26
175.54	680.21
175.92	779.64
176.30	790.94
176.67	750.26
177.05	754.78
177.43	815.80
177.81	831.62
178.19	829.36
178.56	775.12
178.94	874.55
179.32	897.15
179.70	897.15
180.08	922.01
180.45	917.49
180.83	940.09
181.21	1050.82
181.59	897.15
181.96	973.99
182.34	996.58
182.72	1077.94
183.10	1075.68
183.48	1023.70
183.85	1064.38
184.23	1098.28
184.61	1127.65
184.99	1136.69
185.36	1150.25
185.74	1077.94
186.12	1166.07
186.50	1188.67
186.87	1134.43
187.25	1168.33
187.63	1091.50
188.01	1166.07
188.38	1150.25
188.76	1118.61
189.14	1168.33
189.52	1224.83
189.89	1206.75
190.27	1227.09
190.65	1175.11
191.02	1215.79
191.40	1138.95
191.78	1215.79
192.16	1181.89
192.53	1136.69
192.91	1123.13
193.29	1270.02
193.66	1129.91
194.04	1134.43
194.42	1166.07
194.79	1080.20
195.17	1181.89
195.55	1132.17
195.93	1163.81
196.30	1127.65
196.68	1195.45
197.06	1159.29
197.43	1138.95
197.81	1172.85
198.19	1141.21
198.56	1175.11
198.94	1132.17
199.32	1134.43
199.69	1190.93
200.07	1145.73
200.45	1147.99
200.82	1147.99
201.20	1089.24
201.58	1102.80
201.95	1209.01
202.33	1059.86
202.71	1175.11
203.08	1129.91
203.46	1170.59
203.84	1150.25
204.21	1145.73
204.59	1204.49
204.96	1141.21
205.34	1193.19
205.72	1123.13
206.09	1096.02
206.47	1091.50
206.85	1145.73
207.22	1204.49
207.60	1100.54
207.97	1111.84
208.35	1091.50
208.73	1071.16
209.10	1147.99
209.48	1150.25
209.85	1129.91
210.23	1120.87
210.61	1086.98
210.98	1157.03
211.36	1181.89
211.73	1127.65
212.11	1202.23
212.49	1175.11
212.86	1102.80
213.24	1059.86
213.61	1136.69
213.99	1111.84
214.37	1127.65
214.74	1086.98
215.12	1134.43
215.49	1159.29
215.87	1138.95
216.24	1136.69
216.62	1096.02
216.99	1177.37
217.37	1145.73
217.75	1143.47
218.12	1190.93
218.50	1132.17
218.87	1096.02
219.25	1077.94
219.62	1175.11
220.00	1120.87
220.37	1154.77
220.75	1190.93
221.12	1166.07
221.50	1163.81
221.87	1109.58
222.25	1102.80
222.63	1184.15
223.00	1159.29
223.38	1184.15
223.75	1152.51
224.13	1154.77
224.50	1154.77
224.88	1175.11
225.25	1134.43
225.63	1152.51
226.00	1206.75
226.38	1154.77
226.75	1138.95
227.13	1186.41
227.50	1172.85
227.88	1125.39
228.25	1161.55
228.63	1179.63
229.00	1218.05
229.37	1193.19
229.75	1175.11
230.12	1202.23
230.50	1147.99
230.87	1163.81
231.25	1220.31
231.62	1157.03
232.00	1168.33
232.37	1190.93
232.75	1181.89
233.12	1127.65
233.50	1120.87
233.87	1193.19
234.24	1145.73
234.62	1168.33
234.99	1168.33
235.37	1175.11
235.74	1129.91
236.12	1177.37
236.49	1218.05
236.86	1136.69
237.24	1168.33
237.61	1157.03
237.99	1161.55
238.36	1150.25
238.74	1147.99
239.11	1118.61
239.48	1170.59
239.86	1091.50
240.23	1109.58
240.61	1102.80
240.98	1136.69
241.35	1168.33
241.73	1150.25
242.10	1202.23
242.48	1123.13
242.85	1102.80
243.22	1184.15
243.60	1127.65
243.97	1170.59
244.34	1170.59
244.72	1170.59
245.09	1129.91
245.47	1193.19
245.84	1184.15
246.21	1229.35
246.59	1220.31
246.96	1227.09
247.33	1154.77
247.71	1166.07
248.08	1145.73
248.45	1186.41
248.83	1177.37
249.20	1150.25
249.57	1145.73
249.95	1152.51
250.32	1202.23
250.69	1215.79
251.07	1141.21
251.44	1172.85
251.81	1143.47
252.19	1193.19
252.56	1213.53
252.93	1193.19
253.31	1152.51
253.68	1141.21
254.05	1166.07
254.43	1170.59
254.80	1168.33
255.17	1260.98
255.55	1218.05
255.92	1202.23
256.29	1206.75
256.66	1145.73
257.04	1143.47
257.41	1154.77
257.78	1175.11
258.16	1220.31
258.53	1186.41
258.90	1213.53
259.27	1213.53
259.65	1195.45
260.02	1231.61
260.39	1195.45
260.76	1125.39
261.14	1181.89
261.51	1193.19
261.88	1127.65
262.25	1166.07
262.63	1111.84
263.00	1172.85
263.37	1245.16
263.74	1204.49
264.12	1109.58
264.49	1211.27
264.86	1227.09
265.23	1161.55
265.61	1195.45
265.98	1215.79
266.35	1181.89
266.72	1186.41
267.09	1177.37
267.47	1145.73
267.84	1150.25
268.21	1141.21
268.58	1254.20
268.95	1186.41
269.33	1215.79
269.70	1190.93
270.07	1186.41
270.44	1209.01
270.81	1218.05
271.19	1141.21
271.56	1218.05
271.93	1147.99
272.30	1188.67
272.67	1186.41
273.05	1172.85
273.42	1152.51
273.79	1172.85
274.16	1154.77
274.53	1240.65
274.90	1218.05
275.28	1224.83
275.65	1272.28
276.02	1195.45
276.39	1215.79
276.76	1163.81
277.13	1177.37
277.50	1179.63
277.88	1181.89
278.25	1150.25
278.62	1127.65
278.99	1202.23
279.36	1152.51
279.73	1150.25
280.10	1215.79
280.47	1224.83
280.85	1193.19
281.22	1166.07
281.59	1172.85
281.96	1215.79
282.33	1168.33
282.70	1172.85
283.07	1236.13
283.44	1129.91
283.81	1227.09
284.18	1199.97
284.56	1247.42
284.93	1213.53
285.30	1172.85
285.67	1272.28
286.04	1229.35
286.41	1206.75
286.78	1245.16
287.15	1274.54
287.52	1251.94
287.89	1301.66
288.26	1195.45
288.63	1147.99
289.00	1220.31
289.37	1168.33
289.75	1172.85
290.12	1270.02
290.49	1229.35
290.86	1195.45
291.23	1240.65
291.60	1240.65
291.97	1222.57
292.34	1233.87
292.71	1132.17
293.08	1199.97
293.45	1147.99
293.82	1170.59
294.19	1202.23
294.56	1260.98
294.93	1229.35
295.30	1197.71
295.67	1231.61
296.04	1285.84
296.41	1181.89
296.78	1190.93
297.15	1181.89
297.52	1215.79
297.89	1179.63
298.26	1184.15
298.63	1211.27
299.00	1170.59
299.37	1168.33
299.74	1206.75
300.11	1166.07
300.48	1260.98
300.85	1258.72
301.22	1179.63
301.59	1242.91
301.96	1197.71
302.33	1236.13
302.70	1218.05
303.07	1193.19
303.43	1172.85
303.80	1251.94
304.17	1238.39
304.54	1179.63
304.91	1170.59
305.28	1258.72
305.65	1224.83
306.02	1218.05
306.39	1193.19
306.76	1270.02
307.13	1242.91
307.50	1247.42
307.87	1242.91
308.24	1215.79
308.60	1254.20
308.97	1197.71
309.34	1220.31
309.71	1267.76
310.08	1285.84
310.45	1292.62
310.82	1229.35
311.19	1220.31
311.56	1199.97
311.92	1236.13
312.29	1240.65
312.66	1254.20
313.03	1260.98
313.40	1258.72
313.77	1290.36
314.14	1157.03
314.51	1254.20
314.87	1206.75
315.24	1247.42
315.61	1249.68
315.98	1227.09
316.35	1260.98
316.72	1260.98
317.09	1213.53
317.45	1270.02
317.82	1245.16
318.19	1254.20
318.56	1197.71
318.93	1270.02
319.30	1222.57
319.66	1186.41
320.03	1254.20
320.40	1206.75
320.77	1272.28
321.14	1161.55
321.50	1297.14
321.87	1247.42
322.24	1272.28
322.61	1301.66
322.98	1186.41
323.34	1206.75
323.71	1249.68
324.08	1260.98
324.45	1281.32
324.82	1206.75
325.18	1227.09
325.55	1204.49
325.92	1245.16
326.29	1258.72
326.65	1238.39
327.02	1222.57
327.39	1231.61
327.76	1256.46
328.12	1292.62
328.49	1265.50
328.86	1215.79
329.23	1285.84
329.59	1240.65
329.96	1245.16
330.33	1272.28
330.70	1197.71
331.06	1260.98
331.43	1260.98
331.80	1301.66
332.17	1260.98
332.53	1283.58
332.90	1303.92
333.27	1324.26
333.63	1274.54
334.00	1270.02
334.37	1272.28
334.74	1279.06
335.10	1297.14
335.47	1270.02
335.84	1306.18
336.20	1270.02
336.57	1283.58
336.94	1283.58
337.30	1240.65
337.67	1276.80
338.04	1308.44
338.40	1319.74
338.77	1279.06
339.14	1299.40
339.50	1301.66
339.87	1294.88
340.24	1276.80
340.60	1285.84
340.97	1328.78
341.34	1274.54
341.70	1312.96
342.07	1328.78
342.44	1322.00
342.80	1342.34
343.17	1326.52
343.53	1333.30
343.90	1322.00
344.27	1283.58
344.63	1290.36
345.00	1299.40
345.37	1398.83
345.73	1346.86
346.10	1290.36
346.46	1340.08
346.83	1349.12
347.20	1288.10
347.56	1288.10
347.93	1274.54
348.29	1310.70
348.66	1367.20
349.03	1308.44
349.39	1362.68
349.76	1331.04
350.12	1349.12
350.49	1328.78
350.85	1333.30
351.22	1310.70
351.59	1362.68
351.95	1389.79
352.32	1306.18
352.68	1288.10
353.05	1342.34
353.41	1360.42
353.78	1369.46
354.14	1380.75
354.51	1385.27
354.88	1398.83
355.24	1380.75
355.61	1401.09
355.97	1360.42
356.34	1414.65
356.70	1344.60
357.07	1346.86
357.43	1342.34
357.80	1394.31
358.16	1387.53
358.53	1369.46
358.89	1373.98
359.26	1364.94
359.62	1392.05
359.99	1380.75
360.35	1328.78
360.72	1346.86
361.08	1371.72
361.45	1462.11
361.81	1455.33
362.18	1509.56
362.54	1414.65
362.91	1439.51
363.27	1428.21
363.63	1511.82
364.00	1491.49
364.36	1491.49
364.73	1498.27
365.09	1500.53
365.46	1473.41
365.82	1502.79
366.19	1480.19
366.55	1520.86
366.91	1496.01
367.28	1471.15
367.64	1480.19
368.01	1471.15
368.37	1502.79
368.74	1518.60
369.10	1516.34
369.46	1525.38
369.83	1618.04
370.19	1538.94
370.56	1595.44
370.92	1579.62
371.28	1525.38
371.65	1581.88
372.01	1559.28
372.38	1627.08
372.74	1593.18
373.10	1679.05
373.47	1710.69
373.83	1663.23
374.19	1787.52
374.56	1719.73
374.92	1733.29
375.29	1724.25
375.65	1721.99
376.01	1789.78
376.38	1812.38
376.74	1866.62
377.10	1789.78
377.47	1862.10
377.83	1891.48
378.19	1954.75
378.56	1950.23
378.92	2008.99
379.28	2076.78
379.65	2289.21
380.01	2194.29
380.37	2277.91
380.74	2350.22
381.10	2533.27
381.46	2508.41
381.83	2745.69
382.19	2888.06
382.55	2992.01
382.91	3116.30
383.28	3254.15
383.64	3504.99
384.00	3782.95
384.37	3999.89
384.73	4298.19
385.09	4612.31
385.45	4826.99
385.82	5220.20
386.18	5687.99
386.54	6148.99
386.91	6673.27
387.27	7111.68
387.63	7859.68
387.99	8241.59
388.36	9183.94
388.72	10169.22
389.08	10874.29
389.44	11744.32
389.80	12609.84
390.17	13784.95
390.53	15172.48
390.89	16969.05
391.25	18033.42
391.62	19396.10
391.98	21570.05
392.34	23920.28
392.70	25280.69
393.06	27203.80
393.43	28864.78
393.79	31031.95
394.15	32781.06
394.51	35235.23
394.87	37603.53
395.24	40450.91
395.60	43899.41
395.96	46430.42
396.32	49537.68
396.68	52407.66
397.04	55492.33
397.41	57743.11
397.77	59634.59
398.13	61600.64
398.49	63008.51
398.85	64721.46
399.21	65535.00
399.58	65535.00
399.94	65535.00
400.30	65535.00
400.66	65535.00
401.02	65535.00
401.38	65535.00
401.74	65535.00
402.11	65535.00
402.47	65535.00
402.83	65535.00
403.19	65535.00
403.55	65535.00
403.91	65535.00
404.27	65535.00
404.63	65535.00
404.99	65535.00
405.35	65535.00
405.72	65535.00
406.08	65535.00
406.44	65535.00
406.80	65535.00
407.16	65535.00
407.52	65535.00
407.88	65535.00
408.24	65535.00
408.60	65535.00
408.96	65535.00
409.32	65535.00
409.68	65535.00
410.04	65535.00
410.40	65535.00
410.76	65535.00
411.13	65535.00
411.49	65535.00
411.85	65535.00
412.21	65535.00
412.57	65535.00
412.93	65535.00
413.29	65535.00
413.65	65535.00
414.01	65535.00
414.37	65535.00
414.73	65535.00
415.09	65535.00
415.45	65535.00
415.81	65535.00
416.17	65173.43
416.53	64136.17
416.89	63365.57
417.25	61851.48
417.61	60441.35
417.97	59797.30
418.33	58538.57
418.69	57266.29
419.05	56262.93
419.41	55083.30
419.77	54149.99
420.12	51695.82
420.48	49628.07
420.84	49205.49
421.20	45958.11
421.56	43824.84
421.92	43770.60
422.28	40615.88
422.64	38297.30
423.00	36848.75
423.36	35612.62
423.72	33298.56
424.08	30928.00
424.44	29567.58
424.80	28898.68
425.16	27459.16
425.51	25608.37
425.87	24980.13
426.23	22591.50
426.59	21217.52
426.95	21531.64
427.31	19852.59
427.67	19481.97
428.03	17988.23
428.39	17581.46
428.74	16040.26
429.10	15310.33
429.46	14650.46
429.82	13891.16
430.18	13400.78
430.54	12926.21
430.90	12752.21
431.26	11857.32
431.61	11321.74
431.97	11177.11
432.33	10474.30
432.69	10401.99
433.05	9726.30
433.41	9247.21
433.76	9079.99
434.12	8826.89
434.48	8338.76
434.84	8144.42
435.20	7843.86
435.55	7583.98
435.91	7353.48
436.27	6788.52
436.63	6576.10
436.99	6558.02
437.34	6219.05
437.70	6117.35
438.06	5832.62
438.42	5466.52
438.78	5326.41
439.13	5267.66
439.49	4969.36
439.85	4743.38
440.21	4695.92
440.56	4492.54
440.92	4352.43
441.28	4266.55
441.64	4083.51
441.99	4049.61
442.35	3952.44
442.71	3730.98
443.07	3697.08
443.42	3568.27
443.78	3389.74
444.14	3457.54
444.50	3346.80
444.85	3258.67
445.21	3147.94
445.57	3141.16
445.93	3010.09
446.28	2949.08
446.64	2874.50
447.00	2962.63
447.35	2924.22
447.71	2822.52
448.07	2869.98
448.42	2639.48
448.78	2560.38
449.14	2479.03
449.49	2544.57
449.85	2503.89
450.21	2316.32
450.56	2413.50
450.92	2271.13
451.28	2293.72
451.63	2323.10
451.99	2164.91
452.35	2167.17
452.70	2169.43
453.06	2230.45
453.42	2067.74
453.77	1988.65
454.13	1938.93
454.49	2006.73
454.84	1934.41
455.20	1918.59
455.55	2020.29
455.91	1891.48
456.27	1871.14
456.62	1819.16
456.98	1812.38
457.33	1688.09
457.69	1764.93
458.05	1764.93
458.40	1685.83
458.76	1665.49
459.11	1688.09
459.47	1602.22
459.83	1733.29
460.18	1658.71
460.54	1672.27
460.89	1645.15
461.25	1676.79
461.60	1547.98
461.96	1525.38
462.31	1561.54
462.67	1554.76
463.03	1566.06
463.38	1561.54
463.74	1557.02
464.09	1477.93
464.45	1523.12
464.80	1532.16
465.16	1554.76
465.51	1489.23
465.87	1450.81
466.22	1477.93
466.58	1509.56
466.93	1525.38
467.29	1462.11
467.64	1419.17
468.00	1491.49
468.35	1502.79
468.71	1396.57
469.06	1401.09
469.42	1333.30
469.77	1437.25
470.13	1423.69
470.48	1373.98
470.84	1369.46
471.19	1335.56
471.54	1398.83
471.90	1342.34
472.25	1353.64
472.61	1412.39
472.96	1432.73
473.32	1392.05
473.67	1308.44
474.03	1385.27
474.38	1369.46
474.73	1292.62
475.09	1378.49
475.44	1310.70
475.80	1392.05
476.15	1353.64
476.50	1425.95
476.86	1428.21
477.21	1331.04
477.57	1349.12
477.92	1439.51
478.27	1355.90
478.63	1367.20
478.98	1337.82
479.34	1319.74
479.69	1328.78
480.04	1333.30
480.40	1358.16
480.75	1376.24
481.10	1319.74
481.46	1353.64
481.81	1360.42
482.16	1349.12
482.52	1331.04
482.87	1256.46
483.22	1303.92
483.58	1297.14
483.93	1274.54
484.28	1274.54
484.64	1358.16
484.99	1315.22
485.34	1315.22
485.70	1308.44
486.05	1301.66
486.40	1301.66
486.76	1310.70
487.11	1340.08
487.46	1249.68
487.81	1288.10
488.17	1315.22
488.52	1301.66
488.87	1373.98
489.23	1263.24
489.58	1292.62
489.93	1367.20
490.28	1258.72
490.64	1335.56
490.99	1242.91
491.34	1220.31
491.69	1274.54
492.05	1206.75
492.40	1301.66
492.75	1369.46
493.10	1265.50
493.46	1233.87
493.81	1242.91
494.16	1265.50
494.51	1231.61
494.86	1270.02
495.22	1274.54
495.57	1224.83
495.92	1184.15
496.27	1263.24
496.62	1312.96
496.98	1227.09
497.33	1229.35
497.68	1240.65
498.03	1204.49
498.38	1249.68
498.74	1263.24
499.09	1229.35
499.44	1172.85
499.79	1274.54
500.14	1170.59
500.49	1285.84
500.85	1240.65
501.20	1195.45
501.55	1245.16
501.90	1294.88
502.25	1211.27
502.60	1294.88
502.95	1195.45
503.30	1220.31
503.66	1222.57
504.01	1193.19
504.36	1206.75
504.71	1204.49
505.06	1233.87
505.41	1251.94
505.76	1247.42
506.11	1254.20
506.46	1288.10
506.82	1263.24
507.17	1211.27
507.52	1274.54
507.87	1249.68
508.22	1218.05
508.57	1254.20
508.92	1242.91
509.27	1303.92
509.62	1274.54
509.97	1224.83
510.32	1179.63
510.67	1175.11
511.02	1263.24
511.37	1220.31
511.72	1279.06
512.07	1247.42
512.42	1202.23
512.77	1270.02
513.12	1193.19
513.47	1272.28
513.82	1240.65
514.17	1231.61
514.52	1184.15
514.87	1206.75
515.22	1224.83
515.57	1170.59
515.92	1281.32
516.27	1231.61
516.62	1245.16
516.97	1245.16
517.32	1249.68
517.67	1186.41
518.02	1236.13
518.37	1281.32
518.72	1224.83
519.07	1258.72
519.42	1245.16
519.77	1213.53
520.12	1274.54
520.47	1231.61
520.82	1188.67
521.17	1188.67
521.52	1251.94
521.87	1204.49
522.22	1240.65
522.56	1251.94
522.91	1233.87
523.26	1251.94
523.61	1102.80
523.96	1251.94
524.31	1256.46
524.66	1251.94
525.01	1227.09
525.36	1306.18
525.71	1213.53
526.05	1154.77
526.40	1285.84
526.75	1233.87
527.10	1220.31
527.45	1132.17
527.80	1265.50
528.15	1258.72
528.49	1213.53
528.84	1181.89
529.19	1211.27
529.54	1274.54
529.89	1222.57
530.24	1163.81
530.58	1249.68
530.93	1249.68
531.28	1222.57
531.63	1249.68
531.98	1315.22
532.33	1238.39
532.67	1249.68
533.02	1267.76
533.37	1276.80
533.72	1204.49
534.07	1326.52
534.41	1256.46
534.76	1245.16
535.11	1245.16
535.46	1310.70
535.80	1152.51
536.15	1247.42
536.50	1215.79
536.85	1242.91
537.19	1222.57
537.54	1260.98
537.89	1170.59
538.24	1238.39
538.58	1202.23
538.93	1236.13
539.28	1220.31
539.63	1310.70
539.97	1206.75
540.32	1215.79
540.67	1195.45
541.01	1177.37
541.36	1213.53
541.71	1152.51
542.06	1231.61
542.40	1256.46
542.75	1220.31
543.10	1181.89
543.44	1197.71
543.79	1233.87
544.14	1172.85
544.48	1238.39
544.83	1202.23
545.18	1193.19
545.52	1150.25
545.87	1267.76
546.22	1260.98
546.56	1260.98
546.91	1195.45
547.25	1220.31
547.60	1190.93
547.95	1240.65
548.29	1172.85
548.64	1186.41
548.99	1177.37
549.33	1209.01
549.68	1229.35
550.02	1256.46
550.37	1181.89
550.72	1127.65
551.06	1175.11
551.41	1231.61
551.75	1229.35
552.10	1172.85
552.45	1138.95
552.79	1204.49
553.14	1206.75
553.48	1258.72
553.83	1188.67
554.17	1179.63
554.52	1193.19
554.87	1285.84
555.21	1166.07
555.56	1184.15
555.90	1209.01
556.25	1240.65
556.59	1215.79
556.94	1204.49
557.28	1206.75
557.63	1159.29
557.97	1179.63
558.32	1199.97
558.66	1202.23
559.01	1159.29
559.35	1118.61
559.70	1134.43
560.04	1193.19
560.39	1236.13
560.73	1213.53
561.08	1211.27
561.42	1177.37
561.77	1190.93
562.11	1138.95
562.46	1181.89
562.80	1224.83
563.14	1179.63
563.49	1206.75
563.83	1152.51
564.18	1186.41
564.52	1159.29
564.87	1163.81
565.21	1209.01
565.56	1138.95
565.90	1154.77
566.24	1229.35
566.59	1175.11
566.93	1152.51
567.28	1181.89
567.62	1168.33
567.96	1175.11
568.31	1236.13
568.65	1150.25
569.00	1195.45
569.34	1206.75
569.68	1143.47
570.03	1168.33
570.37	1166.07
570.71	1166.07
571.06	1222.57
571.40	1145.73
571.74	1193.19
572.09	1134.43
572.43	1150.25
572.78	1229.35
573.12	1193.19
573.46	1166.07
573.80	1206.75
574.15	1224.83
574.49	1161.55
574.83	1204.49
575.18	1227.09
575.52	1147.99
575.86	1109.58
576.21	1127.65
576.55	1147.99
576.89	1181.89
577.24	1186.41
577.58	1222.57
577.92	1145.73
578.26	1111.84
578.61	1157.03
578.95	1204.49
579.29	1179.63
579.63	1177.37
579.98	1175.11
580.32	1147.99
580.66	1134.43
581.00	1179.63
581.35	1193.19
581.69	1206.75
582.03	1202.23
582.37	1193.19
582.72	1170.59
583.06	1190.93
583.40	1190.93
583.74	1188.67
584.08	1220.31
584.43	1179.63
584.77	1202.23
585.11	1166.07
585.45	1154.77
585.79	1157.03
586.13	1172.85
586.48	1120.87
586.82	1168.33
587.16	1213.53
587.50	1157.03
587.84	1224.83
588.18	1161.55
588.53	1179.63
588.87	1179.63
589.21	1163.81
589.55	1199.97
589.89	1154.77
590.23	1161.55
590.57	1172.85
590.92	1159.29
591.26	1190.93
591.60	1134.43
591.94	1157.03
592.28	1172.85
592.62	1152.51
592.96	1190.93
593.30	1172.85
593.64	1168.33
593.98	1166.07
594.32	1175.11
594.67	1186.41
595.01	1288.10
595.35	1215.79
595.69	1138.95
596.03	1190.93
596.37	1127.65
596.71	1195.45
597.05	1209.01
597.39	1157.03
597.73	1168.33
598.07	1150.25
598.41	1159.29
598.75	1177.37
599.09	1138.95
599.43	1193.19
599.77	1152.51
600.11	1206.75
600.45	1129.91
600.79	1177.37
601.13	1195.45
601.47	1179.63
601.81	1218.05
602.15	1145.73
602.49	1231.61
602.83	1195.45
603.17	1193.19
603.51	1256.46
603.85	1136.69
604.19	1096.02
604.53	1141.21
604.87	1231.61
605.21	1141.21
605.55	1159.29
605.89	1170.59
606.23	1195.45
606.56	1134.43
606.90	1161.55
607.24	1152.51
607.58	1145.73
607.92	1150.25
608.26	1116.35
608.60	1190.93
608.94	1141.21
609.28	1166.07
609.62	1181.89
609.95	1154.77
610.29	1143.47
610.63	1132.17
610.97	1175.11
611.31	1127.65
611.65	1168.33
611.99	1197.71
612.33	1166.07
612.66	1184.15
613.00	1161.55
613.34	1179.63
613.68	1100.54
614.02	1197.71
614.36	1265.50
614.69	1161.55
615.03	1188.67
615.37	1213.53
615.71	1147.99
616.05	1224.83
616.38	1093.76
616.72	1179.63
617.06	1111.84
617.40	1181.89
617.74	1166.07
618.07	1209.01
618.41	1147.99
618.75	1116.35
619.09	1236.13
619.42	1170.59
619.76	1238.39
620.10	1206.75
620.44	1188.67
620.77	1188.67
621.11	1129.91
621.45	1159.29
621.79	1159.29
622.12	1107.32
622.46	1138.95
622.80	1184.15
623.13	1186.41
623.47	1114.10
623.81	1123.13
624.15	1172.85
624.48	1091.50
624.82	1154.77
625.16	1202.23
625.49	1114.10
625.83	1102.80
626.17	1229.35
626.50	1150.25
626.84	1166.07
627.18	1168.33
627.51	1170.59
627.85	1195.45
628.19	1120.87
628.52	1181.89
628.86	1154.77
629.20	1233.87
629.53	1175.11
629.87	1195.45
630.20	1120.87
630.54	1195.45
630.88	1163.81
631.21	1145.73
631.55	1175.11
631.89	1123.13
632.22	1184.15
632.56	1143.47
632.89	1218.05
633.23	1111.84
633.56	1091.50
633.90	1086.98
634.24	1188.67
634.57	1161.55
634.91	1172.85
635.24	1166.07
635.58	1127.65
635.91	1204.49
636.25	1199.97
636.58	1157.03
636.92	1143.47
637.26	1118.61
637.59	1161.55
637.93	1195.45
638.26	1161.55
638.60	1184.15
638.93	1157.03
639.27	1159.29
639.60	1138.95
639.94	1195.45
640.27	1204.49
640.61	1129.91
640.94	1157.03
641.28	1159.29
641.61	1134.43
641.94	1152.51
642.28	1161.55
642.61	1170.59
642.95	1161.55
643.28	1211.27
643.62	1161.55
643.95	1120.87
644.29	1197.71
644.62	1179.63
644.95	1154.77
645.29	1102.80
645.62	1145.73
645.96	1125.39
646.29	1147.99
646.63	1102.80
646.96	1188.67
647.29	1118.61
647.63	1093.76
647.96	1168.33
648.29	1138.95
648.63	1111.84
648.96	1166.07
649.30	1193.19
649.63	1152.51
649.96	1116.35
650.30	1127.65
650.63	1184.15
650.96	1193.19
651.30	1204.49
651.63	1145.73
651.96	1163.81
652.30	1091.50
652.63	1125.39
652.96	1157.03
653.30	1134.43
653.63	1161.55
653.96	1098.28
654.30	1161.55
654.63	1127.65
654.96	1129.91
655.29	1147.99
655.63	1188.67
655.96	1129.91
656.29	1145.73
656.63	1188.67
656.96	1163.81
657.29	1177.37
657.62	1184.15
657.96	1159.29
658.29	1129.91
658.62	1134.43
658.95	1166.07
659.29	1172.85
659.62	1132.17
659.95	1152.51
660.28	1138.95
660.61	1172.85
660.95	1075.68
661.28	1093.76
661.61	1209.01
661.94	1179.63
662.27	1086.98
662.61	1184.15
662.94	1166.07
663.27	1175.11
663.60	1222.57
663.93	1080.20
664.27	1120.87
664.60	1150.25
664.93	1172.85
665.26	1161.55
665.59	1161.55
665.92	1116.35
666.25	1159.29
666.59	1159.29
666.92	1154.77
667.25	1132.17
667.58	1123.13
667.91	1143.47
668.24	1179.63
668.57	1166.07
668.90	1170.59
669.23	1141.21
669.57	1141.21
669.90	1111.84
670.23	1166.07
670.56	1177.37
670.89	1157.03
671.22	1166.07
671.55	1181.89
671.88	1127.65
672.21	1107.32
672.54	1175.11
672.87	1166.07
673.20	1177.37
673.53	1202.23
673.86	1209.01
674.19	1166.07
674.52	1111.84
674.85	1166.07
675.18	1134.43
675.51	1166.07
675.84	1132.17
676.17	1145.73
676.50	1152.51
676.83	1132.17
677.16	1213.53
677.49	1168.33
677.82	1193.19
678.15	1168.33
678.48	1116.35
678.81	1109.58
679.14	1134.43
679.47	1215.79
679.80	1109.58
680.13	1186.41
680.46	1098.28
680.79	1071.16
681.12	1213.53
681.45	1177.37
681.78	1195.45
682.11	1166.07
682.44	1159.29
682.77	1143.47
683.09	1188.67
683.42	1109.58
683.75	1102.80
684.08	1116.35
684.41	1190.93
684.74	1170.59
685.07	1127.65
685.40	1134.43
685.72	1166.07
686.05	1086.98
686.38	1188.67
686.71	1068.90
687.04	1118.61
687.37	1145.73
687.70	1136.69
688.02	1161.55
688.35	1154.77
688.68	1129.91
689.01	1134.43
689.34	1147.99
689.67	1170.59
689.99	1102.80
690.32	1222.57
690.65	1102.80
690.98	1114.10
691.30	1170.59
691.63	1116.35
691.96	1209.01
692.29	1211.27
692.62	1175.11
692.94	1157.03
693.27	1141.21
693.60	1125.39
693.93	1157.03
694.25	1138.95
694.58	1138.95
694.91	1157.03
695.24	1206.75
695.56	1147.99
695.89	1096.02
696.22	1132.17
696.54	1055.34
696.87	1222.57
697.20	1157.03
697.53	1181.89
697.85	1118.61
698.18	1111.84
698.51	1150.25
698.83	1109.58
699.16	1213.53
699.49	1206.75
699.81	1168.33
700.14	1066.64
700.47	1109.58
700.79	1166.07
701.12	1209.01
701.45	1138.95
701.77	1098.28
702.10	1197.71
702.42	1154.77
702.75	1199.97
703.08	1123.13
703.40	1181.89
703.73	1206.75
704.05	1136.69
704.38	1193.19
704.71	1141.21
705.03	1129.91
705.36	1098.28
705.68	1089.24
706.01	1118.61
706.34	1188.67
706.66	1109.58
706.99	1172.85
707.31	1170.59
707.64	1136.69
707.96	1114.10
708.29	1170.59
708.61	1114.10
708.94	1204.49
709.26	1123.13
709.59	1143.47
709.92	1145.73
710.24	1175.11
710.57	1154.77
710.89	1181.89
711.22	1082.46
711.54	1159.29
711.87	1172.85
712.19	1161.55
712.51	1152.51
712.84	1120.87
713.16	1105.06
713.49	1147.99
713.81	1109.58
714.14	1193.19
714.46	1120.87
714.79	1105.06
715.11	1127.65
715.44	1127.65
715.76	1204.49
716.08	1136.69
716.41	1111.84
716.73	1150.25
717.06	1114.10
717.38	1145.73
717.70	1118.61
718.03	1168.33
718.35	1114.10
718.68	1134.43
719.00	1091.50
719.32	1211.27
719.65	1114.10
719.97	1114.10
720.29	1177.37
720.62	1114.10
720.94	1091.50
721.27	1159.29
721.59	1161.55
721.91	1138.95
722.24	1152.51
722.56	1161.55
722.88	1136.69
723.21	1195.45
723.53	1127.65
723.85	1127.65
724.17	1096.02
724.50	1193.19
724.82	1136.69
725.14	1107.32
725.47	1161.55
725.79	1114.10
726.11	1193.19
726.43	1116.35
726.76	1154.77
727.08	1161.55
727.40	1129.91
727.72	1116.35
728.05	1102.80
728.37	1086.98
728.69	1181.89
729.01	1129.91
729.34	1129.91
729.66	1134.43
729.98	1098.28
730.30	1129.91
730.62	1129.91
730.95	1159.29
731.27	1138.95
731.59	1111.84
731.91	1150.25
732.23	1138.95
732.56	1161.55
732.88	1086.98
733.20	1141.21
733.52	1141.21
733.84	1199.97
734.16	1134.43
734.49	1127.65
734.81	1129.91
735.13	1127.65
735.45	1089.24
735.77	1179.63
736.09	1107.32
736.41	1168.33
736.73	1177.37
737.06	1193.19
737.38	1159.29
737.70	1150.25
738.02	1168.33
738.34	1136.69
738.66	1190.93
738.98	1129.91
739.30	1163.81
739.62	1123.13
739.94	1116.35
740.26	1147.99
740.58	1118.61
740.90	1150.25
741.23	1202.23
741.55	1154.77
741.87	1134.43
742.19	1184.15
742.51	1150.25
742.83	1168.33
743.15	1114.10
743.47	1138.95
743.79	1084.72
744.11	1125.39
744.43	1157.03
744.75	1089.24
745.07	1190.93
745.39	1150.25
745.71	1175.11
746.03	1233.87
746.35	1098.28
746.67	1134.43
746.98	1195.45
747.30	1152.51
747.62	1125.39
747.94	1154.77
748.26	1134.43
748.58	1172.85
748.90	1177.37
749.22	1136.69
749.54	1166.07
749.86	1209.01
750.18	1157.03
750.50	1114.10
750.82	1199.97
751.13	1170.59
751.45	1147.99
751.77	1152.51
752.09	1123.13
752.41	1154.77
752.73	1179.63
753.05	1184.15
753.36	1116.35
753.68	1141.21
754.00	1116.35
754.32	1152.51
754.64	1109.58
754.96	1186.41
755.28	1170.59
755.59	1118.61
755.91	1170.59
756.23	1143.47
756.55	1193.19
756.87	1168.33
757.18	1199.97
757.50	1159.29
757.82	1118.61
758.14	1096.02
758.45	1044.04
758.77	1188.67
759.09	1116.35
759.41	1080.20
759.73	1163.81
760.04	1098.28
760.36	1123.13
760.68	1177.37
760.99	1161.55
761.31	1179.63
761.63	1098.28
761.95	1147.99
762.26	1129.91
762.58	1100.54
762.90	1170.59
763.21	1154.77
763.53	1114.10
763.85	1096.02
764.17	1150.25
764.48	1179.63
764.80	1152.51
765.12	1098.28
765.43	1136.69
765.75	1138.95
766.07	1141.21
766.38	1159.29
766.70	1147.99
767.01	1129.91
767.33	1157.03
767.65	1138.95
767.96	1098.28
768.28	1096.02
768.60	1143.47
768.91	1141.21
769.23	1168.33
769.54	1195.45
769.86	1116.35
770.18	1157.03
770.49	1177.37
770.81	1138.95
771.12	1181.89
771.44	1138.95
771.75	1168.33
772.07	1154.77
772.38	1143.47
772.70	1129.91
773.02	1116.35
773.33	1084.72
773.65	1168.33
773.96	1152.51
774.28	1102.80
774.59	1100.54
774.91	1175.11
775.22	1179.63
775.54	1025.96
775.85	1170.59
776.17	1161.55
776.48	1184.15
776.80	1125.39
777.11	1188.67
777.43	1129.91
777.74	1154.77
778.05	1118.61
778.37	1168.33
778.68	1114.10
779.00	1177.37
779.31	1134.43
779.63	1102.80
779.94	1118.61
780.26	1181.89
780.57	1168.33
780.88	1127.65
781.20	1206.75
781.51	1089.24
781.83	1202.23
782.14	1145.73
782.45	1096.02
782.77	1186.41
783.08	1132.17
783.39	1260.98
783.71	1166.07
784.02	1152.51
784.34	1093.76
784.65	1102.80
784.96	1091.50
785.28	1177.37
785.59	1093.76
785.90	1141.21
786.22	1184.15
786.53	1116.35
786.84	1170.59
787.15	1147.99
787.47	1134.43
787.78	1105.06
788.09	1136.69
788.41	1170.59
788.72	1224.83
789.03	1143.47
789.35	1100.54
789.66	1168.33
789.97	1177.37
790.28	1186.41
790.60	1134.43
790.91	1132.17
791.22	1125.39
791.53	1100.54
791.84	1154.77
792.16	1118.61
792.47	1161.55
792.78	1141.21
793.09	1111.84
793.41	1127.65
793.72	1138.95
794.03	1170.59
794.34	1136.69
794.65	1150.25
794.96	1116.35
795.28	1071.16
795.59	1114.10
795.90	1163.81
796.21	1159.29
796.52	1109.58
796.83	1150.25
797.15	1150.25
797.46	1134.43
797.77	1066.64
798.08	1125.39
798.39	1118.61
798.70	1118.61
799.01	1129.91
799.32	1102.80
799.63	1159.29
799.95	1179.63
800.26	1145.73
800.57	1147.99
800.88	1172.85
801.19	1197.71
801.50	1157.03
801.81	1175.11
802.12	1147.99
802.43	1154.77
802.74	1109.58
803.05	1168.33
803.36	1138.95
803.67	1125.39
803.98	1213.53
804.29	1132.17
804.60	1073.42
804.91	1166.07
805.22	1186.41
805.53	1184.15
805.84	1143.47
806.15	1188.67
806.46	1199.97
806.77	1177.37
807.08	1125.39
807.39	1204.49
807.70	1120.87
808.01	1111.84
808.32	1168.33
808.63	1138.95
808.94	1143.47
809.25	1132.17
809.56	1177.37
809.87	1143.47
810.18	1152.51
810.49	1134.43
810.79	1120.87
811.10	1102.80
811.41	1166.07
811.72	1218.05
812.03	1102.80
812.34	1172.85
812.65	1123.13
812.96	1141.21
813.27	1195.45
813.57	1114.10
813.88	1206.75
814.19	1163.81
814.50	1168.33
814.81	1134.43
815.12	1125.39
815.42	1145.73
815.73	1093.76
816.04	1057.60
816.35	1080.20
816.66	1177.37
816.97	1141.21
817.27	1166.07
817.58	1134.43
817.89	1077.94
818.20	1107.32
818.50	1170.59
818.81	1105.06
819.12	1184.15
819.43	1179.63
819.73	1096.02
820.04	1152.51
820.35	1177.37
820.66	1129.91
820.96	1098.28
821.27	1132.17
821.58	1127.65
821.89	1147.99
822.19	1154.77
822.50	1120.87
822.81	1188.67
823.11	1181.89
823.42	1111.84
823.73	1098.28
824.03	1127.65
824.34	1111.84
824.65	1132.17
824.95	1150.25
825.26	1152.51
825.57	1138.95
825.87	1134.43
826.18	1120.87
826.49	1177.37
826.79	1168.33
827.10	1190.93
827.40	1166.07
827.71	1157.03
828.02	1111.84
828.32	1116.35
828.63	1190.93
828.93	1125.39
829.24	1102.80
829.55	1123.13
829.85	1211.27
830.16	1199.97
830.46	1147.99
830.77	1138.95
831.07	1143.47
831.38	1116.35
831.69	1154.77
831.99	1123.13
832.30	1107.32
832.60	1129.91
832.91	1224.83
833.21	1125.39
833.52	1109.58
833.82	1150.25
834.13	1116.35
834.43	1190.93
834.74	1147.99
835.04	1195.45
835.35	1170.59
835.65	1138.95
835.96	1177.37
836.26	1157.03
836.56	1116.35
836.87	1159.29
837.17	1114.10
837.48	1129.91
837.78	1123.13
838.09	1114.10
838.39	1100.54
838.69	1138.95
839.00	1109.58
839.30	1141.21
839.61	1134.43
839.91	1168.33
840.21	1134.43
840.52	1163.81
840.82	1168.33
841.13	1143.47
841.43	1224.83
841.73	1096.02
842.04	1062.12
842.34	1170.59
842.64	1132.17
842.95	1177.37
843.25	1141.21
843.55	1161.55
843.86	1098.28
844.16	1177.37
844.46	1184.15
844.77	1118.61
845.07	1127.65
845.37	1170.59
845.68	1086.98
845.98	1186.41
846.28	1100.54
846.58	1109.58
846.89	1132.17
847.19	1147.99
847.49	1188.67
847.79	1109.58
848.10	1199.97
848.40	1132.17
848.70	1170.59
849.00	1143.47
849.31	1157.03
849.61	1159.29
849.91	1145.73
850.21	1163.81
850.51	1184.15
850.82	1100.54
851.12	1102.80
851.42	1154.77
851.72	1123.13
852.02	1136.69
852.32	1114.10
852.63	1163.81
852.93	1132.17
853.23	1129.91
853.53	1172.85
853.83	1123.13
854.13	1195.45
854.43	1111.84
854.74	1152.51
855.04	1181.89
855.34	1179.63
855.64	1166.07
855.94	1229.35
856.24	1172.85
856.54	1118.61
856.84	1100.54
857.14	1096.02
857.44	1150.25
857.74	1105.06
858.05	1204.49
858.35	1125.39
858.65	1213.53
858.95	1141.21
859.25	1127.65
859.55	1188.67
859.85	1134.43
860.15	1129.91
860.45	1141.21
860.75	1129.91
861.05	1129.91
861.35	1111.84
861.65	1120.87
861.95	1136.69
862.25	1175.11
862.55	1172.85
862.85	1082.46
863.15	1206.75
863.45	1175.11
863.75	1084.72
864.05	1102.80
864.35	1197.71
864.64	1157.03
864.94	1073.42
865.24	1096.02
865.54	1138.95
865.84	1161.55
866.14	1120.87
866.44	1132.17
866.74	1170.59
867.04	1186.41
867.34	1204.49
867.64	1136.69
867.93	1181.89
868.23	1161.55
868.53	1161.55
868.83	1193.19
869.13	1143.47
869.43	1215.79
869.73	1145.73
870.02	1138.95
870.32	1150.25
870.62	1100.54
870.92	1125.39
871.22	1114.10
871.51	1150.25
871.81	1175.11
872.11	1127.65
872.41	1114.10
872.71	1152.51
873.00	1154.77
873.30	1100.54
873.60	1123.13
873.90	1055.34
874.19	1127.65
874.49	1152.51
874.79	1116.35
875.09	1175.11
875.38	1125.39
875.68	1114.10
875.98	1077.94
876.28	1154.77
876.57	1123.13
876.87	1123.13
877.17	1123.13
