174.03	788.68
174.41	788.68
174.78	788.68
175.16	741.22
175.54	686.99
175.92	763.82
176.30	766.08
176.67	770.60
177.05	752.52
177.43	804.50
177.81	824.84
178.19	879.07
178.56	820.32
178.94	881.33
179.32	881.33
179.70	922.01
180.08	1007.88
180.45	917.49
180.83	978.51
181.21	1007.88
181.59	960.43
181.96	1046.30
182.34	1025.96
182.72	971.73
183.10	1044.04
183.48	1168.33
183.85	1066.64
184.23	1098.28
184.61	1211.27
184.99	1120.87
185.36	1175.11
185.74	1163.81
186.12	1143.47
186.50	1206.75
186.87	1166.07
187.25	1197.71
187.63	1125.39
188.01	1186.41
188.38	1120.87
188.76	1071.16
189.14	1199.97
189.52	1127.65
189.89	1242.91
190.27	1116.35
190.65	1213.53
191.02	1186.41
191.40	1161.55
191.78	1213.53
192.16	1206.75
192.53	1132.17
192.91	1132.17
193.29	1120.87
193.66	1170.59
194.04	1147.99
194.42	1199.97
194.79	1170.59
195.17	1138.95
195.55	1145.73
195.93	1134.43
196.30	1143.47
196.68	1170.59
197.06	1181.89
197.43	1193.19
197.81	1120.87
198.19	1188.67
198.56	1123.13
198.94	1147.99
199.32	1195.45
199.69	1247.42
200.07	1132.17
200.45	1238.39
200.82	1166.07
201.20	1181.89
201.58	1222.57
201.95	1181.89
202.33	1138.95
202.71	1206.75
203.08	1096.02
203.46	1206.75
203.84	1172.85
204.21	1175.11
204.59	1188.67
204.96	1125.39
205.34	1159.29
205.72	1089.24
206.09	1209.01
206.47	1120.87
206.85	1114.10
207.22	1170.59
207.60	1175.11
207.97	1141.21
208.35	1204.49
208.73	1125.39
209.10	1206.75
209.48	1138.95
209.85	1120.87
210.23	1154.77
210.61	1132.17
210.98	1170.59
211.36	1161.55
211.73	1197.71
212.11	1251.94
212.49	1190.93
212.86	1233.87
213.24	1247.42
213.61	1197.71
213.99	1218.05
214.37	1188.67
214.74	1129.91
215.12	1202.23
215.49	1166.07
215.87	1163.81
216.24	1184.15
216.62	1166.07
216.99	1233.87
217.37	1147.99
217.75	1213.53
218.12	1197.71
218.50	1181.89
218.87	1270.02
219.25	1152.51
219.62	1236.13
220.00	1213.53
220.37	1199.97
220.75	1177.37
221.12	1161.55
221.50	1181.89
221.87	1055.34
222.25	1157.03
222.63	1159.29
223.00	1127.65
223.38	1195.45
223.75	1170.59
224.13	1125.39
224.50	1195.45
224.88	1168.33
225.25	1211.27
225.63	1118.61
226.00	1152.51
226.38	1218.05
226.75	1181.89
227.13	1107.32
227.50	1170.59
227.88	1159.29
228.25	1161.55
228.63	1184.15
229.00	1179.63
229.37	1190.93
229.75	1270.02
230.12	1166.07
230.50	1218.05
230.87	1138.95
231.25	1218.05
231.62	1206.75
232.00	1166.07
232.37	1236.13
232.75	1220.31
233.12	1159.29
233.50	1147.99
233.87	1157.03
234.24	1147.99
234.62	1150.25
234.99	1222.57
235.37	1175.11
235.74	1134.43
236.12	1190.93
236.49	1249.68
236.86	1213.53
237.24	1215.79
237.61	1177.37
237.99	1202.23
238.36	1181.89
238.74	1215.79
239.11	1163.81
239.48	1231.61
239.86	1213.53
240.23	1136.69
240.61	1193.19
240.98	1233.87
241.35	1177.37
241.73	1170.59
242.10	1213.53
242.48	1215.79
242.85	1172.85
243.22	1215.79
243.60	1249.68
243.97	1233.87
244.34	1184.15
244.72	1147.99
245.09	1240.65
245.47	1147.99
245.84	1222.57
246.21	1150.25
246.59	1213.53
246.96	1179.63
247.33	1202.23
247.71	1190.93
248.08	1231.61
248.45	1251.94
248.83	1231.61
249.20	1224.83
249.57	1197.71
249.95	1147.99
250.32	1166.07
250.69	1188.67
251.07	1224.83
251.44	1179.63
251.81	1204.49
252.19	1233.87
252.56	1202.23
252.93	1249.68
253.31	1222.57
253.68	1209.01
254.05	1157.03
254.43	1251.94
254.80	1236.13
255.17	1202.23
255.55	1195.45
255.92	1175.11
256.29	1170.59
256.66	1186.41
257.04	1134.43
257.41	1238.39
257.78	1179.63
258.16	1209.01
258.53	1206.75
258.90	1213.53
259.27	1150.25
259.65	1136.69
260.02	1240.65
260.39	1213.53
260.76	1197.71
261.14	1197.71
261.51	1197.71
261.88	1186.41
262.25	1249.68
262.63	1188.67
263.00	1213.53
263.37	1236.13
263.74	1195.45
264.12	1177.37
264.49	1227.09
264.86	1172.85
265.23	1263.24
265.61	1186.41
265.98	1190.93
266.35	1233.87
266.72	1218.05
267.09	1181.89
267.47	1199.97
267.84	1209.01
268.21	1249.68
268.58	1229.35
268.95	1231.61
269.33	1211.27
269.70	1288.10
270.07	1141.21
270.44	1218.05
270.81	1260.98
271.19	1220.31
271.56	1123.13
271.93	1170.59
272.30	1188.67
272.67	1249.68
273.05	1249.68
273.42	1125.39
273.79	1209.01
274.16	1236.13
274.53	1159.29
274.90	1288.10
275.28	1233.87
275.65	1238.39
276.02	1193.19
276.39	1143.47
276.76	1256.46
277.13	1229.35
277.50	1125.39
277.88	1159.29
278.25	1229.35
278.62	1202.23
278.99	1283.58
279.36	1170.59
279.73	1222.57
280.10	1303.92
280.47	1233.87
280.85	1220.31
281.22	1197.71
281.59	1159.29
281.96	1247.42
282.33	1227.09
282.70	1141.21
283.07	1193.19
283.44	1184.15
283.81	1288.10
284.18	1222.57
284.56	1206.75
284.93	1184.15
285.30	1249.68
285.67	1186.41
286.04	1227.09
286.41	1197.71
286.78	1213.53
287.15	1215.79
287.52	1240.65
287.89	1218.05
288.26	1161.55
288.63	1206.75
289.00	1215.79
289.37	1229.35
289.75	1233.87
290.12	1251.94
290.49	1247.42
290.86	1251.94
291.23	1263.24
291.60	1258.72
291.97	1224.83
292.34	1238.39
292.71	1197.71
293.08	1340.08
293.45	1233.87
293.82	1184.15
294.19	1249.68
294.56	1285.84
294.93	1272.28
295.30	1245.16
295.67	1270.02
296.04	1267.76
296.41	1231.61
296.78	1215.79
297.15	1218.05
297.52	1229.35
297.89	1285.84
298.26	1202.23
298.63	1254.20
299.00	1179.63
299.37	1213.53
299.74	1227.09
300.11	1236.13
300.48	1229.35
300.85	1240.65
301.22	1229.35
301.59	1297.14
301.96	1231.61
302.33	1276.80
302.70	1240.65
303.07	1317.48
303.43	1279.06
303.80	1254.20
304.17	1204.49
304.54	1265.50
304.91	1256.46
305.28	1213.53
305.65	1285.84
306.02	1263.24
306.39	1251.94
306.76	1303.92
307.13	1254.20
307.50	1306.18
307.87	1258.72
308.24	1303.92
308.60	1265.50
308.97	1272.28
309.34	1272.28
309.71	1292.62
310.08	1224.83
310.45	1294.88
310.82	1270.02
311.19	1247.42
311.56	1202.23
311.92	1333.30
312.29	1254.20
312.66	1299.40
313.03	1211.27
313.40	1256.46
313.77	1249.68
314.14	1285.84
314.51	1188.67
314.87	1260.98
315.24	1279.06
315.61	1324.26
315.98	1247.42
316.35	1301.66
316.72	1281.32
317.09	1281.32
317.45	1324.26
317.82	1310.70
318.19	1240.65
318.56	1272.28
318.93	1231.61
319.30	1310.70
319.66	1328.78
320.03	1260.98
320.40	1279.06
320.77	1315.22
321.14	1322.00
321.50	1231.61
321.87	1260.98
322.24	1260.98
322.61	1310.70
322.98	1283.58
323.34	1274.54
323.71	1231.61
324.08	1249.68
324.45	1333.30
324.82	1260.98
325.18	1297.14
325.55	1213.53
325.92	1272.28
326.29	1272.28
326.65	1215.79
327.02	1297.14
327.39	1276.80
327.76	1299.40
328.12	1283.58
328.49	1279.06
328.86	1297.14
329.23	1360.42
329.59	1306.18
329.96	1328.78
330.33	1306.18
330.70	1317.48
331.06	1294.88
331.43	1292.62
331.80	1317.48
332.17	1312.96
332.53	1344.60
332.90	1344.60
333.27	1288.10
333.63	1288.10
334.00	1322.00
334.37	1328.78
334.74	1256.46
335.10	1337.82
335.47	1299.40
335.84	1256.46
336.20	1308.44
336.57	1306.18
336.94	1319.74
337.30	1260.98
337.67	1303.92
338.04	1256.46
338.40	1301.66
338.77	1333.30
339.14	1344.60
339.50	1322.00
339.87	1344.60
340.24	1355.90
340.60	1342.34
340.97	1310.70
341.34	1342.34
341.70	1315.22
342.07	1324.26
342.44	1367.20
342.80	1328.78
343.17	1308.44
343.53	1319.74
343.90	1306.18
344.27	1369.46
344.63	1373.98
345.00	1301.66
345.37	1326.52
345.73	1306.18
346.10	1290.36
346.46	1288.10
346.83	1344.60
347.20	1272.28
347.56	1373.98
347.93	1344.60
348.29	1340.08
348.66	1288.10
349.03	1308.44
349.39	1301.66
349.76	1403.35
350.12	1396.57
350.49	1362.68
350.85	1405.61
351.22	1369.46
351.59	1337.82
351.95	1434.99
352.32	1410.13
352.68	1385.27
353.05	1344.60
353.41	1432.73
353.78	1428.21
354.14	1378.49
354.51	1373.98
354.88	1389.79
355.24	1412.39
355.61	1385.27
355.97	1407.87
356.34	1407.87
356.70	1342.34
357.07	1355.90
357.43	1471.15
357.80	1401.09
358.16	1378.49
358.53	1466.63
358.89	1459.85
359.26	1428.21
359.62	1486.97
359.99	1337.82
360.35	1403.35
360.72	1344.60
361.08	1446.29
361.45	1455.33
361.81	1509.56
362.18	1536.68
362.54	1437.25
362.91	1459.85
363.27	1471.15
363.63	1486.97
364.00	1482.45
364.36	1624.82
364.73	1502.79
365.09	1538.94
365.46	1473.41
365.82	1453.07
366.19	1538.94
366.55	1547.98
366.91	1590.92
367.28	1593.18
367.64	1455.33
368.01	1482.45
368.37	1577.36
368.74	1579.62
369.10	1468.89
369.46	1568.32
369.83	1575.10
370.19	1538.94
370.56	1579.62
370.92	1554.76
371.28	1579.62
371.65	1640.63
372.01	1690.35
372.38	1672.27
372.74	1760.41
373.10	1708.43
373.47	1670.01
373.83	1796.56
374.19	1758.15
374.56	1751.37
374.92	1794.30
375.29	1706.17
375.65	1830.46
376.01	1850.80
376.38	1841.76
376.74	1877.92
377.10	1941.19
377.47	1938.93
377.83	1920.85
378.19	2110.68
378.56	2101.64
378.92	2063.22
379.28	2192.03
379.65	2275.65
380.01	2418.02
380.37	2379.60
380.74	2481.29
381.10	2759.25
381.46	2788.63
381.83	2897.10
382.19	3028.17
382.55	3168.28
382.91	3376.18
383.28	3414.60
383.64	3746.79
384.00	3914.02
384.37	4264.29
384.73	4510.62
385.09	4824.73
385.45	5231.50
385.82	5574.99
386.18	6058.60
386.54	6338.82
386.91	6987.39
387.27	7577.20
387.63	8467.57
387.99	9018.97
388.36	9687.88
388.72	10684.46
389.08	11321.74
389.44	12413.23
389.80	13592.86
390.17	14564.59
390.53	16431.21
390.89	18076.36
391.25	19127.18
391.62	20650.30
391.98	23111.26
392.34	25276.17
392.70	26871.61
393.06	28970.99
393.43	31090.71
393.79	32767.50
394.15	34631.86
394.51	37370.77
394.87	40181.99
395.24	43320.89
395.60	46545.67
395.96	49621.29
396.32	52276.59
396.68	54814.38
397.04	57234.65
397.41	59564.54
397.77	61469.57
398.13	63417.54
398.49	64655.93
398.85	65535.00
399.21	65535.00
399.58	65535.00
399.94	65535.00
400.30	65535.00
400.66	65535.00
401.02	65535.00
401.38	65535.00
401.74	65535.00
402.11	65535.00
402.47	65535.00
402.83	65535.00
403.19	65535.00
403.55	65535.00
403.91	65535.00
404.27	65535.00
404.63	65535.00
404.99	65535.00
405.35	65535.00
405.72	65535.00
406.08	65535.00
406.44	65535.00
406.80	65535.00
407.16	65535.00
407.52	65535.00
407.88	65535.00
408.24	65535.00
408.60	65535.00
408.96	65535.00
409.32	65535.00
409.68	65535.00
410.04	65535.00
410.40	65535.00
410.76	65535.00
411.13	65535.00
411.49	65535.00
411.85	65535.00
412.21	65535.00
412.57	65535.00
412.93	65535.00
413.29	65535.00
413.65	65535.00
414.01	65535.00
414.37	65535.00
414.73	65535.00
415.09	65535.00
415.45	65535.00
415.81	65535.00
416.17	65535.00
416.53	65535.00
416.89	65243.48
417.25	63991.54
417.61	62554.29
417.97	61801.76
418.33	60531.74
418.69	59736.28
419.05	58687.72
419.41	57399.62
419.77	57132.96
420.12	54642.63
420.48	53049.45
420.84	52141.00
421.20	49573.84
421.56	47662.02
421.92	47103.85
422.28	44270.02
422.64	42340.13
423.00	40188.77
423.36	38756.04
423.72	36399.04
424.08	34014.92
424.44	32170.91
424.80	30932.52
425.16	30015.03
425.51	28044.46
425.87	27334.87
426.23	24971.09
426.59	23895.42
426.95	23400.51
427.31	21807.34
427.67	21438.98
428.03	19857.10
428.39	19497.79
428.74	17692.19
429.10	16684.31
429.46	16022.18
429.82	15050.45
430.18	14537.47
430.54	14198.50
430.90	13714.89
431.26	13050.50
431.61	12180.47
431.97	12001.94
432.33	11436.99
432.69	11495.74
433.05	10530.80
433.41	10144.37
433.76	9974.88
434.12	9737.60
434.48	9156.82
434.84	8677.74
435.20	8605.42
435.55	8203.17
435.91	7918.44
436.27	7611.10
436.63	7315.06
436.99	7046.14
437.34	6817.90
437.70	6641.63
438.06	6393.05
438.42	5803.24
438.78	5848.43
439.13	5861.99
439.49	5597.59
439.85	5385.17
440.21	5127.55
440.56	4892.53
440.92	4842.81
441.28	4612.31
441.64	4431.52
441.99	4347.91
442.35	4234.92
442.71	4060.91
443.07	3993.12
443.42	3814.59
443.78	3825.89
444.14	3730.98
444.50	3599.91
444.85	3441.72
445.21	3482.39
445.57	3441.72
445.93	3281.27
446.28	3136.64
446.64	3179.58
447.00	3147.94
447.35	3073.37
447.71	3050.77
448.07	3089.18
448.42	2845.12
448.78	2802.19
449.14	2761.51
449.49	2659.82
449.85	2625.92
450.21	2592.02
450.56	2469.99
450.92	2418.02
451.28	2305.02
451.63	2497.11
451.99	2363.78
452.35	2262.09
452.70	2327.62
453.06	2284.69
453.42	2232.71
453.77	2192.03
454.13	2110.68
454.49	2115.20
454.84	2027.07
455.20	2013.51
455.55	1902.77
455.91	2033.84
456.27	1963.79
456.62	1997.69
456.98	1828.20
457.33	1886.96
457.69	1834.98
458.05	1812.38
458.40	1744.59
458.76	1742.33
459.11	1703.91
459.47	1701.65
459.83	1721.99
460.18	1746.85
460.54	1710.69
460.89	1717.47
461.25	1733.29
461.60	1681.31
461.96	1701.65
462.31	1645.15
462.67	1622.56
463.03	1622.56
463.38	1658.71
463.74	1568.32
464.09	1609.00
464.45	1552.50
464.80	1507.30
465.16	1572.84
465.51	1536.68
465.87	1527.64
466.22	1590.92
466.58	1511.82
466.93	1434.99
467.29	1459.85
467.64	1529.90
468.00	1486.97
468.35	1468.89
468.71	1529.90
469.06	1477.93
469.42	1459.85
469.77	1489.23
470.13	1416.91
470.48	1387.53
470.84	1464.37
471.19	1410.13
471.54	1446.29
471.90	1477.93
472.25	1394.31
472.61	1428.21
472.96	1428.21
473.32	1430.47
473.67	1387.53
474.03	1471.15
474.38	1437.25
474.73	1412.39
475.09	1480.19
475.44	1401.09
475.80	1401.09
476.15	1394.31
476.50	1423.69
476.86	1394.31
477.21	1398.83
477.57	1398.83
477.92	1444.03
478.27	1410.13
478.63	1425.95
478.98	1376.24
479.34	1353.64
479.69	1376.24
480.04	1396.57
480.40	1407.87
480.75	1315.22
481.10	1396.57
481.46	1389.79
481.81	1353.64
482.16	1405.61
482.52	1353.64
482.87	1401.09
483.22	1371.72
483.58	1337.82
483.93	1360.42
484.28	1317.48
484.64	1326.52
484.99	1371.72
485.34	1419.17
485.70	1439.51
486.05	1324.26
486.40	1367.20
486.76	1333.30
487.11	1351.38
487.46	1331.04
487.81	1340.08
488.17	1312.96
488.52	1344.60
488.87	1358.16
489.23	1380.75
489.58	1351.38
489.93	1355.90
490.28	1340.08
490.64	1335.56
490.99	1355.90
491.34	1315.22
491.69	1297.14
492.05	1292.62
492.40	1358.16
492.75	1251.94
493.10	1335.56
493.46	1331.04
493.81	1279.06
494.16	1260.98
494.51	1387.53
494.86	1308.44
495.22	1333.30
495.57	1315.22
495.92	1308.44
496.27	1344.60
496.62	1349.12
496.98	1308.44
497.33	1337.82
497.68	1369.46
498.03	1383.01
498.38	1389.79
498.74	1310.70
499.09	1326.52
499.44	1360.42
499.79	1247.42
500.14	1396.57
500.49	1407.87
500.85	1254.20
501.20	1303.92
501.55	1389.79
501.90	1389.79
502.25	1328.78
502.60	1369.46
502.95	1328.78
503.30	1419.17
503.66	1405.61
504.01	1398.83
504.36	1450.81
504.71	1351.38
505.06	1432.73
505.41	1410.13
505.76	1303.92
506.11	1310.70
506.46	1405.61
506.82	1398.83
507.17	1385.27
507.52	1407.87
507.87	1432.73
508.22	1480.19
508.57	1405.61
508.92	1430.47
509.27	1398.83
509.62	1439.51
509.97	1484.71
510.32	1491.49
510.67	1464.37
511.02	1507.30
511.37	1468.89
511.72	1500.53
512.07	1480.19
512.42	1441.77
512.77	1579.62
513.12	1597.70
513.47	1511.82
513.82	1640.63
514.17	1568.32
514.52	1590.92
514.87	1629.34
515.22	1629.34
515.57	1579.62
515.92	1676.79
516.27	1654.19
516.62	1742.33
516.97	1631.60
517.32	1681.31
517.67	1681.31
518.02	1762.67
518.37	1640.63
518.72	1660.97
519.07	1744.59
519.42	1679.05
519.77	1778.48
520.12	1753.63
520.47	1816.90
520.82	1816.90
521.17	1839.50
521.52	1855.32
521.87	1864.36
522.22	1783.00
522.56	1834.98
522.91	1798.82
523.26	1914.07
523.61	1805.60
523.96	1950.23
524.31	1868.88
524.66	1816.90
525.01	2004.47
525.36	1961.53
525.71	1957.01
526.05	1963.79
526.40	1977.35
526.75	1907.29
527.10	1966.05
527.45	1999.95
527.80	1929.89
528.15	1889.22
528.49	1988.65
528.84	2024.81
529.19	2038.36
529.54	1929.89
529.89	1990.91
530.24	2054.18
530.58	1993.17
530.93	2024.81
531.28	2045.14
531.63	1981.87
531.98	2033.84
532.33	2117.46
532.67	2054.18
533.02	1970.57
533.37	1925.37
533.72	1972.83
534.07	2020.29
534.41	2047.40
534.76	2008.99
535.11	2072.26
535.46	2027.07
535.80	2029.33
536.15	2033.84
536.50	2074.52
536.85	2002.21
537.19	2092.60
537.54	2054.18
537.89	2011.25
538.24	1997.69
538.58	2112.94
538.93	2092.60
539.28	2081.30
539.63	2094.86
539.97	2058.70
540.32	2058.70
540.67	2110.68
541.01	2072.26
541.36	2047.40
541.71	2108.42
542.06	2090.34
542.40	2029.33
542.75	2056.44
543.10	2008.99
543.44	2027.07
543.79	2054.18
544.14	2013.51
544.48	1938.93
544.83	2088.08
545.18	2038.36
545.52	1954.75
545.87	2018.03
546.22	2063.22
546.56	1993.17
546.91	1999.95
547.25	2018.03
547.60	1943.45
547.95	1929.89
548.29	1966.05
548.64	2036.10
548.99	1977.35
549.33	1981.87
549.68	1963.79
550.02	1963.79
550.37	1959.27
550.72	2013.51
551.06	1961.53
551.41	1938.93
551.75	2015.77
552.10	1936.67
552.45	1997.69
552.79	1936.67
553.14	1968.31
553.48	1961.53
553.83	1963.79
554.17	2002.21
554.52	1966.05
554.87	2018.03
555.21	2024.81
555.56	1907.29
555.90	1902.77
556.25	1938.93
556.59	1907.29
556.94	1900.52
557.28	1866.62
557.63	1882.44
557.97	1909.55
558.32	1871.14
558.66	1925.37
559.01	1925.37
559.35	1907.29
559.70	1988.65
560.04	1905.03
560.39	1902.77
560.73	1932.15
561.08	1819.16
561.42	1938.93
561.77	1819.16
562.11	1880.18
562.46	1857.58
562.80	1855.32
563.14	1816.90
563.49	1880.18
563.83	1941.19
564.18	1880.18
564.52	1816.90
564.87	1783.00
565.21	1805.60
565.56	1803.34
565.90	1862.10
566.24	1830.46
566.59	1819.16
566.93	1830.46
567.28	1830.46
567.62	1875.66
567.96	1929.89
568.31	1758.15
568.65	1780.74
569.00	1855.32
569.34	1733.29
569.68	1853.06
570.03	1798.82
570.37	1832.72
570.71	1848.54
571.06	1746.85
571.40	1735.55
571.74	1880.18
572.09	1789.78
572.43	1719.73
572.78	1760.41
573.12	1749.11
573.46	1783.00
573.80	1742.33
574.15	1787.52
574.49	1697.13
574.83	1816.90
575.18	1740.07
575.52	1679.05
575.86	1742.33
576.21	1719.73
576.55	1703.91
576.89	1760.41
577.24	1735.55
577.58	1801.08
577.92	1665.49
578.26	1676.79
578.61	1703.91
578.95	1694.87
579.29	1724.25
579.63	1733.29
579.98	1715.21
580.32	1731.03
580.66	1753.63
581.00	1712.95
581.35	1627.08
581.69	1688.09
582.03	1690.35
582.37	1636.12
582.72	1645.15
583.06	1667.75
583.40	1638.38
583.74	1688.09
584.08	1631.60
584.43	1670.01
584.77	1699.39
585.11	1645.15
585.45	1647.41
585.79	1676.79
586.13	1593.18
586.48	1665.49
586.82	1636.12
587.16	1575.10
587.50	1593.18
587.84	1577.36
588.18	1651.93
588.53	1699.39
588.87	1647.41
589.21	1642.89
589.55	1649.67
589.89	1595.44
590.23	1581.88
590.57	1606.74
590.92	1631.60
591.26	1566.06
591.60	1595.44
591.94	1627.08
592.28	1554.76
592.62	1566.06
592.96	1613.52
593.30	1536.68
593.64	1611.26
593.98	1523.12
594.32	1520.86
594.67	1520.86
595.01	1577.36
595.35	1577.36
595.69	1631.60
596.03	1579.62
596.37	1514.08
596.71	1613.52
597.05	1516.34
597.39	1511.82
597.73	1505.05
598.07	1493.75
598.41	1550.24
598.75	1547.98
599.09	1462.11
599.43	1450.81
599.77	1514.08
600.11	1577.36
600.45	1496.01
600.79	1498.27
601.13	1527.64
601.47	1514.08
601.81	1523.12
602.15	1455.33
602.49	1401.09
602.83	1462.11
603.17	1534.42
603.51	1407.87
603.85	1484.71
604.19	1477.93
604.53	1496.01
604.87	1430.47
605.21	1466.63
605.55	1464.37
605.89	1430.47
606.23	1425.95
606.56	1457.59
606.90	1387.53
607.24	1425.95
607.58	1466.63
607.92	1491.49
608.26	1428.21
608.60	1437.25
608.94	1419.17
609.28	1480.19
609.62	1392.05
609.95	1430.47
610.29	1423.69
610.63	1419.17
610.97	1477.93
611.31	1419.17
611.65	1428.21
611.99	1360.42
612.33	1462.11
612.66	1403.35
613.00	1405.61
613.34	1355.90
613.68	1419.17
614.02	1491.49
614.36	1403.35
614.69	1369.46
615.03	1428.21
615.37	1407.87
615.71	1441.77
616.05	1389.79
616.38	1337.82
616.72	1419.17
617.06	1342.34
617.40	1344.60
617.74	1439.51
618.07	1398.83
618.41	1448.55
618.75	1457.59
619.09	1380.75
619.42	1373.98
619.76	1315.22
620.10	1392.05
620.44	1389.79
620.77	1430.47
621.11	1351.38
621.45	1383.01
621.79	1405.61
622.12	1396.57
622.46	1398.83
622.80	1274.54
623.13	1301.66
623.47	1310.70
623.81	1342.34
624.15	1331.04
624.48	1303.92
624.82	1344.60
625.16	1294.88
625.49	1337.82
625.83	1326.52
626.17	1317.48
626.50	1405.61
626.84	1324.26
627.18	1373.98
627.51	1398.83
627.85	1317.48
628.19	1344.60
628.52	1349.12
628.86	1319.74
629.20	1274.54
629.53	1335.56
629.87	1328.78
630.20	1308.44
630.54	1342.34
630.88	1319.74
631.21	1416.91
631.55	1283.58
631.89	1360.42
632.22	1297.14
632.56	1331.04
632.89	1272.28
633.23	1322.00
633.56	1299.40
633.90	1245.16
634.24	1303.92
634.57	1369.46
634.91	1270.02
635.24	1346.86
635.58	1340.08
635.91	1245.16
636.25	1288.10
636.58	1247.42
636.92	1335.56
637.26	1254.20
637.59	1344.60
637.93	1292.62
638.26	1229.35
638.60	1290.36
638.93	1290.36
639.27	1315.22
639.60	1256.46
639.94	1310.70
640.27	1328.78
640.61	1276.80
640.94	1358.16
641.28	1315.22
641.61	1224.83
641.94	1258.72
642.28	1274.54
642.61	1310.70
642.95	1254.20
643.28	1292.62
643.62	1324.26
643.95	1276.80
644.29	1256.46
644.62	1267.76
644.95	1297.14
645.29	1285.84
645.62	1229.35
645.96	1297.14
646.29	1258.72
646.63	1290.36
646.96	1276.80
647.29	1299.40
647.63	1238.39
647.96	1206.75
648.29	1263.24
648.63	1249.68
648.96	1249.68
649.30	1204.49
649.63	1233.87
649.96	1292.62
650.30	1270.02
650.63	1220.31
650.96	1265.50
651.30	1245.16
651.63	1270.02
651.96	1249.68
652.30	1319.74
652.63	1263.24
652.96	1215.79
653.30	1301.66
653.63	1231.61
653.96	1308.44
654.30	1220.31
654.63	1310.70
654.96	1260.98
655.29	1220.31
655.63	1202.23
655.96	1292.62
656.29	1292.62
656.63	1229.35
656.96	1204.49
657.29	1249.68
657.62	1163.81
657.96	1265.50
658.29	1218.05
658.62	1186.41
658.95	1240.65
659.29	1288.10
659.62	1213.53
659.95	1215.79
660.28	1299.40
660.61	1312.96
660.95	1206.75
661.28	1199.97
661.61	1272.28
661.94	1229.35
662.27	1218.05
662.61	1218.05
662.94	1209.01
663.27	1206.75
663.60	1222.57
663.93	1211.27
664.27	1199.97
664.60	1242.91
664.93	1218.05
665.26	1233.87
665.59	1193.19
665.92	1256.46
666.25	1218.05
666.59	1242.91
666.92	1179.63
667.25	1206.75
667.58	1206.75
667.91	1236.13
668.24	1145.73
668.57	1220.31
668.90	1138.95
669.23	1218.05
669.57	1211.27
669.90	1227.09
670.23	1256.46
670.56	1193.19
670.89	1195.45
671.22	1288.10
671.55	1272.28
671.88	1206.75
672.21	1215.79
672.54	1272.28
672.87	1240.65
673.20	1213.53
673.53	1215.79
673.86	1213.53
674.19	1170.59
674.52	1233.87
674.85	1211.27
675.18	1188.67
675.51	1168.33
675.84	1143.47
676.17	1218.05
676.50	1163.81
676.83	1181.89
677.16	1206.75
677.49	1184.15
677.82	1193.19
678.15	1166.07
678.48	1220.31
678.81	1229.35
679.14	1202.23
679.47	1168.33
679.80	1168.33
680.13	1220.31
680.46	1166.07
680.79	1175.11
681.12	1209.01
681.45	1184.15
681.78	1179.63
682.11	1236.13
682.44	1256.46
682.77	1249.68
683.09	1161.55
683.42	1170.59
683.75	1193.19
684.08	1145.73
684.41	1195.45
684.74	1168.33
685.07	1166.07
685.40	1220.31
685.72	1204.49
686.05	1193.19
686.38	1168.33
686.71	1213.53
687.04	1249.68
687.37	1190.93
687.70	1202.23
688.02	1184.15
688.35	1229.35
688.68	1120.87
689.01	1215.79
689.34	1247.42
689.67	1138.95
689.99	1143.47
690.32	1161.55
690.65	1186.41
690.98	1193.19
691.30	1211.27
691.63	1150.25
691.96	1181.89
692.29	1220.31
692.62	1179.63
692.94	1215.79
693.27	1218.05
693.60	1168.33
693.93	1188.67
694.25	1206.75
694.58	1218.05
694.91	1209.01
695.24	1184.15
695.56	1213.53
695.89	1134.43
696.22	1213.53
696.54	1179.63
696.87	1168.33
697.20	1236.13
697.53	1190.93
697.85	1233.87
698.18	1204.49
698.51	1224.83
698.83	1227.09
699.16	1154.77
699.49	1157.03
699.81	1188.67
700.14	1118.61
700.47	1172.85
700.79	1134.43
701.12	1215.79
701.45	1143.47
701.77	1132.17
702.10	1181.89
702.42	1242.91
702.75	1157.03
703.08	1190.93
703.40	1157.03
703.73	1195.45
704.05	1168.33
704.38	1161.55
704.71	1161.55
705.03	1134.43
705.36	1188.67
705.68	1190.93
706.01	1141.21
706.34	1175.11
706.66	1222.57
706.99	1193.19
707.31	1127.65
707.64	1136.69
707.96	1179.63
708.29	1247.42
708.61	1177.37
708.94	1190.93
709.26	1177.37
709.59	1175.11
709.92	1129.91
710.24	1195.45
710.57	1190.93
710.89	1184.15
711.22	1206.75
711.54	1138.95
711.87	1177.37
712.19	1186.41
712.51	1233.87
712.84	1197.71
713.16	1141.21
713.49	1157.03
713.81	1170.59
714.14	1186.41
714.46	1218.05
714.79	1152.51
715.11	1179.63
715.44	1211.27
715.76	1188.67
716.08	1218.05
716.41	1114.10
716.73	1125.39
717.06	1147.99
717.38	1199.97
717.70	1242.91
718.03	1163.81
718.35	1152.51
718.68	1209.01
719.00	1172.85
719.32	1172.85
719.65	1229.35
719.97	1143.47
720.29	1195.45
720.62	1166.07
720.94	1145.73
721.27	1159.29
721.59	1166.07
721.91	1152.51
722.24	1179.63
722.56	1170.59
722.88	1195.45
723.21	1161.55
723.53	1170.59
723.85	1161.55
724.17	1179.63
724.50	1199.97
724.82	1193.19
725.14	1204.49
725.47	1163.81
725.79	1159.29
726.11	1163.81
726.43	1157.03
726.76	1093.76
727.08	1127.65
727.40	1181.89
727.72	1190.93
728.05	1175.11
728.37	1154.77
728.69	1147.99
729.01	1161.55
729.34	1209.01
729.66	1177.37
729.98	1147.99
730.30	1179.63
730.62	1170.59
730.95	1222.57
731.27	1154.77
731.59	1195.45
731.91	1175.11
732.23	1134.43
732.56	1166.07
732.88	1190.93
733.20	1193.19
733.52	1177.37
733.84	1188.67
734.16	1168.33
734.49	1123.13
734.81	1193.19
735.13	1204.49
735.45	1166.07
735.77	1138.95
736.09	1159.29
736.41	1204.49
736.73	1082.46
737.06	1111.84
737.38	1120.87
737.70	1150.25
738.02	1132.17
738.34	1093.76
738.66	1129.91
738.98	1177.37
739.30	1132.17
739.62	1177.37
739.94	1138.95
740.26	1177.37
740.58	1172.85
740.90	1184.15
741.23	1134.43
741.55	1179.63
741.87	1175.11
742.19	1163.81
742.51	1211.27
742.83	1161.55
743.15	1238.39
743.47	1229.35
743.79	1127.65
744.11	1136.69
744.43	1143.47
744.75	1114.10
745.07	1188.67
745.39	1118.61
745.71	1204.49
746.03	1161.55
746.35	1186.41
746.67	1170.59
746.98	1175.11
747.30	1150.25
747.62	1141.21
747.94	1134.43
748.26	1154.77
748.58	1211.27
748.90	1218.05
749.22	1202.23
749.54	1179.63
749.86	1172.85
750.18	1129.91
750.50	1249.68
750.82	1172.85
751.13	1136.69
751.45	1179.63
751.77	1193.19
752.09	1134.43
752.41	1251.94
752.73	1179.63
753.05	1150.25
753.36	1159.29
753.68	1154.77
754.00	1129.91
754.32	1163.81
754.64	1154.77
754.96	1177.37
755.28	1154.77
755.59	1168.33
755.91	1193.19
756.23	1175.11
756.55	1062.12
756.87	1197.71
757.18	1152.51
757.50	1170.59
757.82	1093.76
758.14	1091.50
758.45	1163.81
758.77	1186.41
759.09	1166.07
759.41	1143.47
759.73	1184.15
760.04	1258.72
760.36	1152.51
760.68	1145.73
760.99	1154.77
761.31	1136.69
761.63	1181.89
761.95	1206.75
762.26	1150.25
762.58	1123.13
762.90	1163.81
763.21	1175.11
763.53	1190.93
763.85	1154.77
764.17	1150.25
764.48	1188.67
764.80	1091.50
765.12	1168.33
765.43	1136.69
765.75	1168.33
766.07	1157.03
766.38	1179.63
766.70	1116.35
767.01	1134.43
767.33	1163.81
767.65	1168.33
767.96	1188.67
768.28	1159.29
768.60	1141.21
768.91	1150.25
769.23	1091.50
769.54	1109.58
769.86	1080.20
770.18	1186.41
770.49	1215.79
770.81	1168.33
771.12	1141.21
771.44	1231.61
771.75	1145.73
772.07	1181.89
772.38	1209.01
772.70	1105.06
773.02	1150.25
773.33	1157.03
773.65	1170.59
773.96	1111.84
774.28	1224.83
774.59	1181.89
774.91	1120.87
775.22	1163.81
775.54	1168.33
775.85	1170.59
776.17	1091.50
776.48	1175.11
776.80	1166.07
777.11	1175.11
777.43	1177.37
777.74	1147.99
778.05	1222.57
778.37	1138.95
778.68	1157.03
779.00	1175.11
779.31	1213.53
779.63	1195.45
779.94	1132.17
780.26	1132.17
780.57	1199.97
780.88	1161.55
781.20	1204.49
781.51	1224.83
781.83	1136.69
782.14	1120.87
782.45	1222.57
782.77	1163.81
783.08	1109.58
783.39	1102.80
783.71	1123.13
784.02	1136.69
784.34	1197.71
784.65	1195.45
784.96	1227.09
785.28	1154.77
785.59	1211.27
785.90	1179.63
786.22	1202.23
786.53	1093.76
786.84	1179.63
787.15	1138.95
787.47	1132.17
787.78	1127.65
788.09	1170.59
788.41	1161.55
788.72	1116.35
789.03	1107.32
789.35	1227.09
789.66	1186.41
789.97	1150.25
790.28	1188.67
790.60	1190.93
790.91	1096.02
791.22	1147.99
791.53	1100.54
791.84	1082.46
792.16	1199.97
792.47	1202.23
792.78	1168.33
793.09	1202.23
793.41	1138.95
793.72	1102.80
794.03	1107.32
794.34	1125.39
794.65	1190.93
794.96	1116.35
795.28	1166.07
795.59	1118.61
795.90	1143.47
796.21	1125.39
796.52	1220.31
796.83	1206.75
797.15	1199.97
797.46	1209.01
797.77	1150.25
798.08	1197.71
798.39	1204.49
798.70	1238.39
799.01	1163.81
799.32	1150.25
799.63	1118.61
799.95	1143.47
800.26	1098.28
800.57	1199.97
800.88	1245.16
801.19	1181.89
801.50	1129.91
801.81	1109.58
802.12	1132.17
802.43	1181.89
802.74	1157.03
803.05	1123.13
803.36	1145.73
803.67	1202.23
803.98	1159.29
804.29	1154.77
804.60	1179.63
804.91	1077.94
805.22	1202.23
805.53	1197.71
805.84	1161.55
806.15	1123.13
806.46	1127.65
806.77	1179.63
807.08	1136.69
807.39	1166.07
807.70	1195.45
808.01	1177.37
808.32	1190.93
808.63	1218.05
808.94	1157.03
809.25	1143.47
809.56	1152.51
809.87	1206.75
810.18	1145.73
810.49	1141.21
810.79	1161.55
811.10	1190.93
811.41	1188.67
811.72	1143.47
812.03	1186.41
812.34	1125.39
812.65	1123.13
812.96	1111.84
813.27	1209.01
813.57	1206.75
813.88	1107.32
814.19	1193.19
814.50	1147.99
814.81	1159.29
815.12	1209.01
815.42	1186.41
815.73	1109.58
816.04	1195.45
816.35	1213.53
816.66	1166.07
816.97	1224.83
817.27	1168.33
817.58	1197.71
817.89	1163.81
818.20	1152.51
818.50	1116.35
818.81	1147.99
819.12	1150.25
819.43	1199.97
819.73	1195.45
820.04	1116.35
820.35	1127.65
820.66	1111.84
820.96	1190.93
821.27	1231.61
821.58	1186.41
821.89	1157.03
822.19	1157.03
822.50	1141.21
822.81	1193.19
823.11	1154.77
823.42	1141.21
823.73	1143.47
824.03	1102.80
824.34	1147.99
824.65	1204.49
824.95	1138.95
825.26	1143.47
825.57	1163.81
825.87	1213.53
826.18	1179.63
826.49	1170.59
826.79	1186.41
827.10	1222.57
827.40	1188.67
827.71	1132.17
828.02	1179.63
828.32	1186.41
828.63	1100.54
828.93	1150.25
829.24	1175.11
829.55	1177.37
829.85	1184.15
830.16	1143.47
830.46	1109.58
830.77	1166.07
831.07	1163.81
831.38	1125.39
831.69	1209.01
831.99	1107.32
832.30	1179.63
832.60	1075.68
832.91	1057.60
833.21	1161.55
833.52	1163.81
833.82	1179.63
834.13	1120.87
834.43	1114.10
834.74	1184.15
835.04	1193.19
835.35	1190.93
835.65	1188.67
835.96	1123.13
836.26	1213.53
836.56	1129.91
836.87	1222.57
837.17	1132.17
837.48	1188.67
837.78	1186.41
838.09	1197.71
838.39	1145.73
838.69	1150.25
839.00	1177.37
839.30	1170.59
839.61	1172.85
839.91	1245.16
840.21	1141.21
840.52	1168.33
840.82	1152.51
841.13	1179.63
841.43	1206.75
841.73	1080.20
842.04	1125.39
842.34	1177.37
842.64	1177.37
842.95	1193.19
843.25	1157.03
843.55	1199.97
843.86	1154.77
844.16	1152.51
844.46	1111.84
844.77	1118.61
845.07	1157.03
845.37	1218.05
845.68	1168.33
845.98	1134.43
846.28	1193.19
846.58	1154.77
846.89	1172.85
847.19	1143.47
847.49	1143.47
847.79	1184.15
848.10	1186.41
848.40	1150.25
848.70	1197.71
849.00	1118.61
849.31	1093.76
849.61	1089.24
849.91	1145.73
850.21	1170.59
850.51	1213.53
850.82	1199.97
851.12	1177.37
851.42	1114.10
851.72	1175.11
852.02	1118.61
852.32	1125.39
852.63	1190.93
852.93	1193.19
853.23	1066.64
853.53	1157.03
853.83	1066.64
854.13	1138.95
854.43	1209.01
854.74	1170.59
855.04	1199.97
855.34	1168.33
855.64	1147.99
855.94	1184.15
856.24	1147.99
856.54	1195.45
856.84	1166.07
857.14	1161.55
857.44	1159.29
857.74	1100.54
858.05	1168.33
858.35	1197.71
858.65	1129.91
858.95	1093.76
859.25	1129.91
859.55	1188.67
859.85	1141.21
860.15	1159.29
860.45	1213.53
860.75	1116.35
861.05	1147.99
861.35	1134.43
861.65	1129.91
861.95	1186.41
862.25	1175.11
862.55	1098.28
862.85	1157.03
863.15	1186.41
863.45	1114.10
863.75	1177.37
864.05	1154.77
864.35	1197.71
864.64	1145.73
864.94	1147.99
865.24	1145.73
865.54	1166.07
865.84	1154.77
866.14	1172.85
866.44	1168.33
866.74	1177.37
867.04	1080.20
867.34	1177.37
867.64	1118.61
867.93	1170.59
868.23	1145.73
868.53	1132.17
868.83	1098.28
869.13	1168.33
869.43	1172.85
869.73	1125.39
870.02	1147.99
870.32	1091.50
870.62	1161.55
870.92	1159.29
871.22	1134.43
871.51	1089.24
871.81	1145.73
872.11	1238.39
872.41	1096.02
872.71	1150.25
873.00	1129.91
873.30	1118.61
873.60	1107.32
873.90	1116.35
874.19	1132.17
874.49	1188.67
874.79	1145.73
875.09	1175.11
875.38	1157.03
875.68	1222.57
875.98	1136.69
876.28	1188.67
876.57	1150.25
876.87	1150.25
877.17	1150.25
