174.03	795.46
174.41	795.46
174.78	795.46
175.16	741.22
175.54	777.38
175.92	768.34
176.30	766.08
176.67	743.48
177.05	779.64
177.43	849.70
177.81	849.70
178.19	822.58
178.56	890.37
178.94	867.77
179.32	908.45
179.70	935.57
180.08	926.53
180.45	971.73
180.83	1003.36
181.21	1019.18
181.59	1030.48
181.96	1037.26
182.34	998.84
182.72	1035.00
183.10	1075.68
183.48	1071.16
183.85	1066.64
184.23	1170.59
184.61	1138.95
184.99	1145.73
185.36	1145.73
185.74	1152.51
186.12	1236.13
186.50	1161.55
186.87	1150.25
187.25	1068.90
187.63	1170.59
188.01	1206.75
188.38	1163.81
188.76	1116.35
189.14	1188.67
189.52	1141.21
189.89	1213.53
190.27	1129.91
190.65	1190.93
191.02	1166.07
191.40	1141.21
191.78	1213.53
192.16	1247.42
192.53	1206.75
192.91	1143.47
193.29	1199.97
193.66	1218.05
194.04	1143.47
194.42	1147.99
194.79	1157.03
195.17	1138.95
195.55	1186.41
195.93	1195.45
196.30	1098.28
196.68	1152.51
197.06	1179.63
197.43	1114.10
197.81	1157.03
198.19	1209.01
198.56	1082.46
198.94	1141.21
199.32	1105.06
199.69	1150.25
200.07	1190.93
200.45	1197.71
200.82	1136.69
201.20	1150.25
201.58	1154.77
201.95	1154.77
202.33	1098.28
202.71	1138.95
203.08	1134.43
203.46	1109.58
203.84	1141.21
204.21	1102.80
204.59	1181.89
204.96	1114.10
205.34	1127.65
205.72	1114.10
206.09	1190.93
206.47	1177.37
206.85	1181.89
207.22	1114.10
207.60	1161.55
207.97	1147.99
208.35	1120.87
208.73	1105.06
209.10	1096.02
209.48	1175.11
209.85	1190.93
210.23	1157.03
210.61	1111.84
210.98	1138.95
211.36	1202.23
211.73	1186.41
212.11	1143.47
212.49	1123.13
212.86	1100.54
213.24	1152.51
213.61	1190.93
213.99	1152.51
214.37	1179.63
214.74	1184.15
215.12	1179.63
215.49	1150.25
215.87	1080.20
216.24	1179.63
216.62	1199.97
216.99	1184.15
217.37	1218.05
217.75	1197.71
218.12	1161.55
218.50	1177.37
218.87	1157.03
219.25	1127.65
219.62	1206.75
220.00	1222.57
220.37	1177.37
220.75	1154.77
221.12	1143.47
221.50	1213.53
221.87	1204.49
222.25	1168.33
222.63	1197.71
223.00	1204.49
223.38	1159.29
223.75	1157.03
224.13	1204.49
224.50	1154.77
224.88	1134.43
225.25	1116.35
225.63	1197.71
226.00	1190.93
226.38	1193.19
226.75	1202.23
227.13	1166.07
227.50	1163.81
227.88	1220.31
228.25	1188.67
228.63	1190.93
229.00	1251.94
229.37	1175.11
229.75	1179.63
230.12	1127.65
230.50	1127.65
230.87	1179.63
231.25	1211.27
231.62	1260.98
232.00	1199.97
232.37	1159.29
232.75	1181.89
233.12	1186.41
233.50	1147.99
233.87	1132.17
234.24	1211.27
234.62	1263.24
234.99	1195.45
235.37	1224.83
235.74	1245.16
236.12	1166.07
236.49	1204.49
236.86	1204.49
237.24	1227.09
237.61	1150.25
237.99	1215.79
238.36	1195.45
238.74	1233.87
239.11	1249.68
239.48	1213.53
239.86	1181.89
240.23	1213.53
240.61	1209.01
240.98	1188.67
241.35	1177.37
241.73	1211.27
242.10	1179.63
242.48	1159.29
242.85	1188.67
243.22	1215.79
243.60	1224.83
243.97	1247.42
244.34	1206.75
244.72	1229.35
245.09	1157.03
245.47	1190.93
245.84	1141.21
246.21	1138.95
246.59	1199.97
246.96	1231.61
247.33	1204.49
247.71	1190.93
248.08	1242.91
248.45	1209.01
248.83	1227.09
249.20	1179.63
249.57	1190.93
249.95	1161.55
250.32	1161.55
250.69	1172.85
251.07	1132.17
251.44	1170.59
251.81	1107.32
252.19	1091.50
252.56	1227.09
252.93	1175.11
253.31	1233.87
253.68	1175.11
254.05	1177.37
254.43	1190.93
254.80	1209.01
255.17	1145.73
255.55	1129.91
255.92	1186.41
256.29	1218.05
256.66	1206.75
257.04	1274.54
257.41	1159.29
257.78	1247.42
258.16	1188.67
258.53	1231.61
258.90	1233.87
259.27	1152.51
259.65	1254.20
260.02	1152.51
260.39	1175.11
260.76	1202.23
261.14	1215.79
261.51	1215.79
261.88	1172.85
262.25	1247.42
262.63	1297.14
263.00	1184.15
263.37	1204.49
263.74	1170.59
264.12	1215.79
264.49	1222.57
264.86	1215.79
265.23	1215.79
265.61	1213.53
265.98	1129.91
266.35	1224.83
266.72	1147.99
267.09	1220.31
267.47	1179.63
267.84	1188.67
268.21	1143.47
268.58	1211.27
268.95	1202.23
269.33	1209.01
269.70	1297.14
270.07	1188.67
270.44	1220.31
270.81	1292.62
271.19	1218.05
271.56	1175.11
271.93	1222.57
272.30	1233.87
272.67	1190.93
273.05	1202.23
273.42	1233.87
273.79	1227.09
274.16	1276.80
274.53	1236.13
274.90	1260.98
275.28	1229.35
275.65	1209.01
276.02	1245.16
276.39	1199.97
276.76	1215.79
277.13	1166.07
277.50	1175.11
277.88	1175.11
278.25	1181.89
278.62	1220.31
278.99	1141.21
279.36	1272.28
279.73	1168.33
280.10	1215.79
280.47	1251.94
280.85	1213.53
281.22	1215.79
281.59	1220.31
281.96	1272.28
282.33	1206.75
282.70	1270.02
283.07	1288.10
283.44	1168.33
283.81	1195.45
284.18	1222.57
284.56	1265.50
284.93	1263.24
285.30	1195.45
285.67	1251.94
286.04	1251.94
286.41	1195.45
286.78	1211.27
287.15	1218.05
287.52	1184.15
287.89	1175.11
288.26	1233.87
288.63	1170.59
289.00	1315.22
289.37	1175.11
289.75	1202.23
290.12	1220.31
290.49	1256.46
290.86	1247.42
291.23	1213.53
291.60	1204.49
291.97	1238.39
292.34	1197.71
292.71	1224.83
293.08	1251.94
293.45	1211.27
293.82	1236.13
294.19	1213.53
294.56	1195.45
294.93	1233.87
295.30	1292.62
295.67	1308.44
296.04	1224.83
296.41	1190.93
296.78	1233.87
297.15	1233.87
297.52	1240.65
297.89	1242.91
298.26	1247.42
298.63	1315.22
299.00	1299.40
299.37	1258.72
299.74	1181.89
300.11	1258.72
300.48	1263.24
300.85	1224.83
301.22	1220.31
301.59	1179.63
301.96	1206.75
302.33	1247.42
302.70	1265.50
303.07	1213.53
303.43	1254.20
303.80	1258.72
304.17	1229.35
304.54	1211.27
304.91	1231.61
305.28	1251.94
305.65	1272.28
306.02	1163.81
306.39	1218.05
306.76	1281.32
307.13	1245.16
307.50	1310.70
307.87	1292.62
308.24	1306.18
308.60	1251.94
308.97	1254.20
309.34	1254.20
309.71	1301.66
310.08	1233.87
310.45	1310.70
310.82	1204.49
311.19	1258.72
311.56	1260.98
311.92	1299.40
312.29	1236.13
312.66	1276.80
313.03	1229.35
313.40	1283.58
313.77	1231.61
314.14	1312.96
314.51	1265.50
314.87	1229.35
315.24	1290.36
315.61	1294.88
315.98	1251.94
316.35	1279.06
316.72	1308.44
317.09	1283.58
317.45	1211.27
317.82	1218.05
318.19	1247.42
318.56	1315.22
318.93	1238.39
319.30	1315.22
319.66	1229.35
320.03	1249.68
320.40	1242.91
320.77	1224.83
321.14	1211.27
321.50	1276.80
321.87	1322.00
322.24	1279.06
322.61	1288.10
322.98	1260.98
323.34	1310.70
323.71	1279.06
324.08	1294.88
324.45	1242.91
324.82	1247.42
325.18	1297.14
325.55	1274.54
325.92	1285.84
326.29	1276.80
326.65	1227.09
327.02	1333.30
327.39	1279.06
327.76	1258.72
328.12	1265.50
328.49	1297.14
328.86	1342.34
329.23	1254.20
329.59	1303.92
329.96	1297.14
330.33	1215.79
330.70	1315.22
331.06	1238.39
331.43	1274.54
331.80	1328.78
332.17	1229.35
332.53	1369.46
332.90	1303.92
333.27	1324.26
333.63	1279.06
334.00	1310.70
334.37	1279.06
334.74	1236.13
335.10	1292.62
335.47	1319.74
335.84	1342.34
336.20	1312.96
336.57	1328.78
336.94	1308.44
337.30	1340.08
337.67	1299.40
338.04	1315.22
338.40	1258.72
338.77	1340.08
339.14	1369.46
339.50	1335.56
339.87	1254.20
340.24	1362.68
340.60	1328.78
340.97	1355.90
341.34	1380.75
341.70	1351.38
342.07	1358.16
342.44	1403.35
342.80	1308.44
343.17	1337.82
343.53	1294.88
343.90	1373.98
344.27	1317.48
344.63	1322.00
345.00	1308.44
345.37	1383.01
345.73	1355.90
346.10	1299.40
346.46	1276.80
346.83	1369.46
347.20	1358.16
347.56	1371.72
347.93	1351.38
348.29	1369.46
348.66	1392.05
349.03	1310.70
349.39	1378.49
349.76	1432.73
350.12	1333.30
350.49	1369.46
350.85	1373.98
351.22	1337.82
351.59	1346.86
351.95	1340.08
352.32	1358.16
352.68	1351.38
353.05	1335.56
353.41	1432.73
353.78	1322.00
354.14	1376.24
354.51	1412.39
354.88	1364.94
355.24	1396.57
355.61	1405.61
355.97	1405.61
356.34	1355.90
356.70	1373.98
357.07	1444.03
357.43	1412.39
357.80	1437.25
358.16	1450.81
358.53	1385.27
358.89	1387.53
359.26	1466.63
359.62	1434.99
359.99	1430.47
360.35	1385.27
360.72	1430.47
361.08	1446.29
361.45	1484.71
361.81	1428.21
362.18	1502.79
362.54	1466.63
362.91	1468.89
363.27	1441.77
363.63	1545.72
364.00	1520.86
364.36	1459.85
364.73	1425.95
365.09	1516.34
365.46	1466.63
365.82	1532.16
366.19	1545.72
366.55	1561.54
366.91	1529.90
367.28	1516.34
367.64	1502.79
368.01	1502.79
368.37	1579.62
368.74	1502.79
369.10	1579.62
369.46	1547.98
369.83	1545.72
370.19	1588.66
370.56	1665.49
370.92	1622.56
371.28	1593.18
371.65	1629.34
372.01	1665.49
372.38	1685.83
372.74	1694.87
373.10	1658.71
373.47	1746.85
373.83	1767.19
374.19	1726.51
374.56	1794.30
374.92	1780.74
375.29	1733.29
375.65	1819.16
376.01	1864.36
376.38	1850.80
376.74	1816.90
377.10	1909.55
377.47	1934.41
377.83	1979.61
378.19	1966.05
378.56	2103.90
378.92	2128.76
379.28	2158.14
379.65	2280.17
380.01	2377.34
380.37	2393.16
380.74	2544.57
381.10	2596.54
381.46	2693.71
381.83	2804.45
382.19	2860.94
382.55	3127.60
382.91	3312.91
383.28	3428.16
383.64	3742.27
384.00	4002.15
384.37	4173.90
384.73	4530.95
385.09	4585.19
385.45	5012.30
385.82	5493.64
386.18	5834.87
386.54	6356.90
386.91	6829.20
387.27	7640.48
387.63	8345.54
387.99	8562.49
388.36	9703.70
388.72	10429.10
389.08	11477.66
389.44	12284.42
389.80	13360.10
390.17	14266.29
390.53	16076.41
390.89	17567.90
391.25	18763.35
391.62	19947.50
391.98	22544.04
392.34	24738.33
392.70	26021.91
393.06	28577.78
393.43	30668.12
393.79	32367.51
394.15	34145.99
394.51	37045.35
394.87	39332.30
395.24	42710.74
395.60	45860.94
395.96	48782.90
396.32	51318.42
396.68	53614.41
397.04	56800.77
397.41	59092.23
397.77	60909.13
398.13	62902.30
398.49	64192.66
398.85	65535.00
399.21	65535.00
399.58	65535.00
399.94	65535.00
400.30	65535.00
400.66	65535.00
401.02	65535.00
401.38	65535.00
401.74	65535.00
402.11	65535.00
402.47	65535.00
402.83	65535.00
403.19	65535.00
403.55	65535.00
403.91	65535.00
404.27	65535.00
404.63	65535.00
404.99	65535.00
405.35	65535.00
405.72	65535.00
406.08	65535.00
406.44	65535.00
406.80	65535.00
407.16	65535.00
407.52	65535.00
407.88	65535.00
408.24	65535.00
408.60	65535.00
408.96	65535.00
409.32	65535.00
409.68	65535.00
410.04	65535.00
410.40	65535.00
410.76	65535.00
411.13	65535.00
411.49	65535.00
411.85	65535.00
412.21	65535.00
412.57	65535.00
412.93	65535.00
413.29	65535.00
413.65	65535.00
414.01	65535.00
414.37	65535.00
414.73	65535.00
415.09	65535.00
415.45	65535.00
415.81	65535.00
416.17	65535.00
416.53	65535.00
416.89	64579.09
417.25	63385.90
417.61	61878.60
417.97	61410.81
418.33	59991.64
418.69	59187.14
419.05	57819.95
419.41	56848.22
419.77	56421.12
420.12	53937.56
420.48	52272.07
420.84	51280.01
421.20	48859.73
421.56	46455.28
421.92	46340.02
422.28	43458.74
422.64	41219.26
423.00	39443.03
423.36	37345.91
423.72	35208.11
424.08	33510.98
424.44	31456.80
424.80	30480.55
425.16	28891.90
425.51	27319.06
425.87	26781.22
426.23	24182.42
426.59	23172.27
426.95	22663.81
427.31	21461.58
427.67	21179.10
428.03	19197.24
428.39	19100.06
428.74	17364.52
429.10	16408.61
429.46	15775.86
429.82	14621.08
430.18	14483.24
430.54	13852.74
430.90	13656.14
431.26	12589.50
431.61	12026.80
431.97	11592.92
432.33	11389.53
432.69	11140.95
433.05	10648.31
433.41	10035.89
433.76	9552.29
434.12	9353.43
434.48	8919.54
434.84	8496.95
435.20	8478.87
435.55	8110.52
435.91	7751.21
436.27	7461.95
436.63	7168.17
436.99	6878.92
437.34	6548.98
437.70	6492.48
438.06	6160.29
438.42	5868.77
438.78	5721.88
439.13	5584.03
439.49	5407.77
439.85	5278.96
440.21	5041.68
440.56	4908.35
440.92	4763.72
441.28	4553.55
441.64	4442.82
441.99	4203.28
442.35	4185.20
442.71	3941.14
443.07	3988.60
443.42	3789.73
443.78	3712.90
444.14	3697.08
444.50	3543.41
444.85	3584.09
445.21	3333.25
445.57	3306.13
445.93	3220.25
446.28	3073.37
446.64	3105.00
447.00	3025.91
447.35	3107.26
447.71	2946.82
448.07	3025.91
448.42	2910.66
448.78	2716.31
449.14	2607.84
449.49	2567.16
449.85	2614.62
450.21	2592.02
450.56	2442.87
450.92	2366.04
451.28	2467.73
451.63	2354.74
451.99	2406.72
452.35	2366.04
452.70	2241.75
453.06	2248.53
453.42	2223.67
453.77	2072.26
454.13	2110.68
454.49	2083.56
454.84	2047.40
455.20	1977.35
455.55	1975.09
455.91	2101.64
456.27	1970.57
456.62	1927.63
456.98	1871.14
457.33	1871.14
457.69	1796.56
458.05	1758.15
458.40	1764.93
458.76	1816.90
459.11	1787.52
459.47	1724.25
459.83	1667.75
460.18	1733.29
460.54	1746.85
460.89	1647.41
461.25	1692.61
461.60	1649.67
461.96	1595.44
462.31	1636.12
462.67	1638.38
463.03	1656.45
463.38	1656.45
463.74	1633.86
464.09	1572.84
464.45	1581.88
464.80	1577.36
465.16	1590.92
465.51	1493.75
465.87	1577.36
466.22	1579.62
466.58	1500.53
466.93	1477.93
467.29	1430.47
467.64	1545.72
468.00	1464.37
468.35	1444.03
468.71	1518.60
469.06	1493.75
469.42	1457.59
469.77	1432.73
470.13	1448.55
470.48	1416.91
470.84	1416.91
471.19	1416.91
471.54	1446.29
471.90	1387.53
472.25	1457.59
472.61	1457.59
472.96	1394.31
473.32	1432.73
473.67	1342.34
474.03	1439.51
474.38	1410.13
474.73	1362.68
475.09	1362.68
475.44	1410.13
475.80	1371.72
476.15	1475.67
476.50	1439.51
476.86	1419.17
477.21	1475.67
477.57	1328.78
477.92	1360.42
478.27	1398.83
478.63	1387.53
478.98	1364.94
479.34	1340.08
479.69	1369.46
480.04	1353.64
480.40	1324.26
480.75	1319.74
481.10	1335.56
481.46	1412.39
481.81	1371.72
482.16	1367.20
482.52	1335.56
482.87	1387.53
483.22	1396.57
483.58	1355.90
483.93	1364.94
484.28	1355.90
484.64	1364.94
484.99	1351.38
485.34	1364.94
485.70	1387.53
486.05	1322.00
486.40	1376.24
486.76	1315.22
487.11	1333.30
487.46	1401.09
487.81	1290.36
488.17	1324.26
488.52	1383.01
488.87	1369.46
489.23	1328.78
489.58	1324.26
489.93	1337.82
490.28	1414.65
490.64	1281.32
490.99	1231.61
491.34	1276.80
491.69	1306.18
492.05	1281.32
492.40	1344.60
492.75	1333.30
493.10	1319.74
493.46	1387.53
493.81	1331.04
494.16	1310.70
494.51	1337.82
494.86	1335.56
495.22	1306.18
495.57	1283.58
495.92	1358.16
496.27	1315.22
496.62	1297.14
496.98	1333.30
497.33	1312.96
497.68	1344.60
498.03	1328.78
498.38	1342.34
498.74	1362.68
499.09	1312.96
499.44	1315.22
499.79	1383.01
500.14	1353.64
500.49	1367.20
500.85	1405.61
501.20	1328.78
501.55	1394.31
501.90	1398.83
502.25	1473.41
502.60	1308.44
502.95	1358.16
503.30	1364.94
503.66	1353.64
504.01	1410.13
504.36	1493.75
504.71	1437.25
505.06	1373.98
505.41	1432.73
505.76	1414.65
506.11	1471.15
506.46	1466.63
506.82	1346.86
507.17	1477.93
507.52	1394.31
507.87	1500.53
508.22	1437.25
508.57	1502.79
508.92	1502.79
509.27	1511.82
509.62	1477.93
509.97	1498.27
510.32	1509.56
510.67	1509.56
511.02	1543.46
511.37	1534.42
511.72	1498.27
512.07	1523.12
512.42	1527.64
512.77	1577.36
513.12	1527.64
513.47	1584.14
513.82	1581.88
514.17	1532.16
514.52	1622.56
514.87	1667.75
515.22	1645.15
515.57	1624.82
515.92	1633.86
516.27	1672.27
516.62	1746.85
516.97	1706.17
517.32	1721.99
517.67	1726.51
518.02	1773.96
518.37	1789.78
518.72	1783.00
519.07	1807.86
519.42	1816.90
519.77	1848.54
520.12	1733.29
520.47	1911.81
520.82	1834.98
521.17	1871.14
521.52	1889.22
521.87	1871.14
522.22	1918.59
522.56	1880.18
522.91	1823.68
523.26	1950.23
523.61	2013.51
523.96	1954.75
524.31	1866.62
524.66	1952.49
525.01	1963.79
525.36	2018.03
525.71	2004.47
526.05	1999.95
526.40	2031.58
526.75	2015.77
527.10	2081.30
527.45	2054.18
527.80	2117.46
528.15	2008.99
528.49	2054.18
528.84	2024.81
529.19	2063.22
529.54	2067.74
529.89	2101.64
530.24	2173.95
530.58	2094.86
530.93	2103.90
531.28	2108.42
531.63	2110.68
531.98	2171.69
532.33	2121.98
532.67	2115.20
533.02	2182.99
533.37	2169.43
533.72	2137.80
534.07	2112.94
534.41	2173.95
534.76	2158.14
535.11	2176.21
535.46	2124.24
535.80	2201.07
536.15	2198.81
536.50	2237.23
536.85	2167.17
537.19	2101.64
537.54	2216.89
537.89	2117.46
538.24	2146.84
538.58	2083.56
538.93	2151.36
539.28	2216.89
539.63	2121.98
539.97	2112.94
540.32	2085.82
540.67	2185.25
541.01	2131.02
541.36	2194.29
541.71	2176.21
542.06	2158.14
542.40	2097.12
542.75	2158.14
543.10	2121.98
543.44	2126.50
543.79	2088.08
544.14	2164.91
544.48	2094.86
544.83	2097.12
545.18	2124.24
545.52	2144.58
545.87	2169.43
546.22	2065.48
546.56	2137.80
546.91	2088.08
547.25	2060.96
547.60	2106.16
547.95	2133.28
548.29	2067.74
548.64	2063.22
548.99	2074.52
549.33	2162.66
549.68	2063.22
550.02	2124.24
550.37	2008.99
550.72	2040.62
551.06	2070.00
551.41	2144.58
551.75	1984.13
552.10	2051.92
552.45	1972.83
552.79	2058.70
553.14	1936.67
553.48	2085.82
553.83	2033.84
554.17	2040.62
554.52	2008.99
554.87	2011.25
555.21	2036.10
555.56	1990.91
555.90	2054.18
556.25	2011.25
556.59	2040.62
556.94	1979.61
557.28	2076.78
557.63	2004.47
557.97	1963.79
558.32	1972.83
558.66	1950.23
559.01	1975.09
559.35	1968.31
559.70	1966.05
560.04	1963.79
560.39	1938.93
560.73	1975.09
561.08	1857.58
561.42	1997.69
561.77	1920.85
562.11	1896.00
562.46	1959.27
562.80	2002.21
563.14	1954.75
563.49	1954.75
563.83	1934.41
564.18	1963.79
564.52	1923.11
564.87	1938.93
565.21	1859.84
565.56	1905.03
565.90	1853.06
566.24	1914.07
566.59	1902.77
566.93	1947.97
567.28	1909.55
567.62	1916.33
567.96	1882.44
568.31	1900.52
568.65	1855.32
569.00	1848.54
569.34	1844.02
569.68	1880.18
570.03	1927.63
570.37	1891.48
570.71	1916.33
571.06	1873.40
571.40	1825.94
571.74	1927.63
572.09	1850.80
572.43	1857.58
572.78	1884.70
573.12	1862.10
573.46	1794.30
573.80	1859.84
574.15	1821.42
574.49	1819.16
574.83	1773.96
575.18	1787.52
575.52	1798.82
575.86	1667.75
576.21	1830.46
576.55	1785.26
576.89	1796.56
577.24	1767.19
577.58	1740.07
577.92	1814.64
578.26	1794.30
578.61	1816.90
578.95	1792.04
579.29	1825.94
579.63	1728.77
579.98	1764.93
580.32	1762.67
580.66	1760.41
581.00	1767.19
581.35	1735.55
581.69	1728.77
582.03	1789.78
582.37	1706.17
582.72	1690.35
583.06	1676.79
583.40	1715.21
583.74	1690.35
584.08	1679.05
584.43	1683.57
584.77	1771.70
585.11	1683.57
585.45	1654.19
585.79	1717.47
586.13	1647.41
586.48	1670.01
586.82	1654.19
587.16	1667.75
587.50	1703.91
587.84	1627.08
588.18	1706.17
588.53	1620.30
588.87	1672.27
589.21	1651.93
589.55	1642.89
589.89	1649.67
590.23	1642.89
590.57	1656.45
590.92	1658.71
591.26	1663.23
591.60	1676.79
591.94	1645.15
592.28	1606.74
592.62	1636.12
592.96	1613.52
593.30	1618.04
593.64	1618.04
593.98	1649.67
594.32	1638.38
594.67	1633.86
595.01	1618.04
595.35	1611.26
595.69	1645.15
596.03	1561.54
596.37	1618.04
596.71	1579.62
597.05	1516.34
597.39	1575.10
597.73	1584.14
598.07	1550.24
598.41	1563.80
598.75	1588.66
599.09	1520.86
599.43	1473.41
599.77	1509.56
600.11	1523.12
600.45	1525.38
600.79	1516.34
601.13	1529.90
601.47	1505.05
601.81	1538.94
602.15	1586.40
602.49	1577.36
602.83	1557.02
603.17	1541.20
603.51	1532.16
603.85	1496.01
604.19	1480.19
604.53	1568.32
604.87	1446.29
605.21	1523.12
605.55	1493.75
605.89	1514.08
606.23	1577.36
606.56	1473.41
606.90	1491.49
607.24	1473.41
607.58	1471.15
607.92	1455.33
608.26	1430.47
608.60	1505.05
608.94	1437.25
609.28	1464.37
609.62	1511.82
609.95	1410.13
610.29	1459.85
610.63	1444.03
610.97	1450.81
611.31	1423.69
611.65	1484.71
611.99	1462.11
612.33	1407.87
612.66	1457.59
613.00	1430.47
613.34	1367.20
613.68	1450.81
614.02	1380.75
614.36	1448.55
614.69	1484.71
615.03	1439.51
615.37	1387.53
615.71	1414.65
616.05	1430.47
616.38	1346.86
616.72	1412.39
617.06	1414.65
617.40	1288.10
617.74	1403.35
618.07	1423.69
618.41	1414.65
618.75	1349.12
619.09	1351.38
619.42	1364.94
619.76	1423.69
620.10	1376.24
620.44	1457.59
620.77	1364.94
621.11	1455.33
621.45	1419.17
621.79	1333.30
622.12	1308.44
622.46	1373.98
622.80	1306.18
623.13	1335.56
623.47	1360.42
623.81	1362.68
624.15	1464.37
624.48	1288.10
624.82	1428.21
625.16	1383.01
625.49	1392.05
625.83	1385.27
626.17	1378.49
626.50	1335.56
626.84	1376.24
627.18	1412.39
627.51	1342.34
627.85	1385.27
628.19	1335.56
628.52	1285.84
628.86	1310.70
629.20	1394.31
629.53	1432.73
629.87	1401.09
630.20	1340.08
630.54	1369.46
630.88	1297.14
631.21	1396.57
631.55	1340.08
631.89	1270.02
632.22	1326.52
632.56	1292.62
632.89	1326.52
633.23	1337.82
633.56	1301.66
633.90	1369.46
634.24	1260.98
634.57	1358.16
634.91	1333.30
635.24	1283.58
635.58	1328.78
635.91	1342.34
636.25	1290.36
636.58	1240.65
636.92	1333.30
637.26	1303.92
637.59	1299.40
637.93	1270.02
638.26	1290.36
638.60	1301.66
638.93	1301.66
639.27	1308.44
639.60	1281.32
639.94	1270.02
640.27	1236.13
640.61	1306.18
640.94	1303.92
641.28	1279.06
641.61	1322.00
641.94	1292.62
642.28	1317.48
642.61	1272.28
642.95	1272.28
643.28	1236.13
643.62	1267.76
643.95	1236.13
644.29	1281.32
644.62	1290.36
644.95	1288.10
645.29	1263.24
645.62	1265.50
645.96	1218.05
646.29	1270.02
646.63	1358.16
646.96	1274.54
647.29	1283.58
647.63	1211.27
647.96	1199.97
648.29	1301.66
648.63	1272.28
648.96	1242.91
649.30	1251.94
649.63	1267.76
649.96	1245.16
650.30	1227.09
650.63	1303.92
650.96	1256.46
651.30	1233.87
651.63	1274.54
651.96	1308.44
652.30	1211.27
652.63	1301.66
652.96	1233.87
653.30	1288.10
653.63	1220.31
653.96	1306.18
654.30	1292.62
654.63	1211.27
654.96	1303.92
655.29	1240.65
655.63	1224.83
655.96	1272.28
656.29	1260.98
656.63	1213.53
656.96	1274.54
657.29	1281.32
657.62	1303.92
657.96	1249.68
658.29	1238.39
658.62	1274.54
658.95	1233.87
659.29	1258.72
659.62	1251.94
659.95	1231.61
660.28	1272.28
660.61	1299.40
660.95	1279.06
661.28	1247.42
661.61	1231.61
661.94	1202.23
662.27	1233.87
662.61	1222.57
662.94	1254.20
663.27	1270.02
663.60	1215.79
663.93	1193.19
664.27	1193.19
664.60	1227.09
664.93	1181.89
665.26	1150.25
665.59	1170.59
665.92	1245.16
666.25	1251.94
666.59	1181.89
666.92	1197.71
667.25	1240.65
667.58	1229.35
667.91	1306.18
668.24	1161.55
668.57	1181.89
668.90	1154.77
669.23	1213.53
669.57	1159.29
669.90	1294.88
670.23	1197.71
670.56	1195.45
670.89	1220.31
671.22	1231.61
671.55	1184.15
671.88	1213.53
672.21	1242.91
672.54	1215.79
672.87	1265.50
673.20	1236.13
673.53	1222.57
673.86	1193.19
674.19	1224.83
674.52	1242.91
674.85	1285.84
675.18	1220.31
675.51	1132.17
675.84	1265.50
676.17	1193.19
676.50	1220.31
676.83	1270.02
677.16	1120.87
677.49	1161.55
677.82	1193.19
678.15	1202.23
678.48	1215.79
678.81	1222.57
679.14	1163.81
679.47	1195.45
679.80	1231.61
680.13	1240.65
680.46	1233.87
680.79	1190.93
681.12	1172.85
681.45	1224.83
681.78	1242.91
682.11	1204.49
682.44	1222.57
682.77	1224.83
683.09	1143.47
683.42	1202.23
683.75	1211.27
684.08	1224.83
684.41	1150.25
684.74	1188.67
685.07	1202.23
685.40	1199.97
685.72	1227.09
686.05	1197.71
686.38	1186.41
686.71	1159.29
687.04	1161.55
687.37	1184.15
687.70	1224.83
688.02	1190.93
688.35	1227.09
688.68	1181.89
689.01	1215.79
689.34	1199.97
689.67	1186.41
689.99	1134.43
690.32	1179.63
690.65	1224.83
690.98	1218.05
691.30	1152.51
691.63	1285.84
691.96	1186.41
692.29	1190.93
692.62	1195.45
692.94	1132.17
693.27	1170.59
693.60	1215.79
693.93	1147.99
694.25	1272.28
694.58	1166.07
694.91	1199.97
695.24	1159.29
695.56	1175.11
695.89	1175.11
696.22	1236.13
696.54	1172.85
696.87	1166.07
697.20	1082.46
697.53	1161.55
697.85	1168.33
698.18	1143.47
698.51	1220.31
698.83	1177.37
699.16	1179.63
699.49	1220.31
699.81	1211.27
700.14	1199.97
700.47	1242.91
700.79	1168.33
701.12	1199.97
701.45	1138.95
701.77	1181.89
702.10	1184.15
702.42	1152.51
702.75	1236.13
703.08	1181.89
703.40	1159.29
703.73	1193.19
704.05	1211.27
704.38	1138.95
704.71	1141.21
705.03	1195.45
705.36	1168.33
705.68	1231.61
706.01	1186.41
706.34	1152.51
706.66	1159.29
706.99	1161.55
707.31	1184.15
707.64	1222.57
707.96	1120.87
708.29	1082.46
708.61	1170.59
708.94	1240.65
709.26	1224.83
709.59	1211.27
709.92	1091.50
710.24	1157.03
710.57	1199.97
710.89	1170.59
711.22	1161.55
711.54	1188.67
711.87	1211.27
712.19	1197.71
712.51	1204.49
712.84	1213.53
713.16	1159.29
713.49	1166.07
713.81	1129.91
714.14	1211.27
714.46	1186.41
714.79	1186.41
715.11	1145.73
715.44	1157.03
715.76	1211.27
716.08	1166.07
716.41	1157.03
716.73	1166.07
717.06	1129.91
717.38	1163.81
717.70	1197.71
718.03	1157.03
718.35	1209.01
718.68	1166.07
719.00	1179.63
719.32	1163.81
719.65	1195.45
719.97	1166.07
720.29	1166.07
720.62	1181.89
720.94	1154.77
721.27	1111.84
721.59	1161.55
721.91	1172.85
722.24	1166.07
722.56	1084.72
722.88	1132.17
723.21	1186.41
723.53	1175.11
723.85	1197.71
724.17	1175.11
724.50	1159.29
724.82	1132.17
725.14	1102.80
725.47	1181.89
725.79	1236.13
726.11	1147.99
726.43	1145.73
726.76	1046.30
727.08	1168.33
727.40	1166.07
727.72	1190.93
728.05	1152.51
728.37	1170.59
728.69	1132.17
729.01	1161.55
729.34	1190.93
729.66	1159.29
729.98	1186.41
730.30	1179.63
730.62	1134.43
730.95	1161.55
731.27	1213.53
731.59	1152.51
731.91	1193.19
732.23	1168.33
732.56	1170.59
732.88	1159.29
733.20	1109.58
733.52	1188.67
733.84	1177.37
734.16	1145.73
734.49	1240.65
734.81	1170.59
735.13	1181.89
735.45	1159.29
735.77	1199.97
736.09	1150.25
736.41	1150.25
736.73	1222.57
737.06	1186.41
737.38	1159.29
737.70	1186.41
738.02	1159.29
738.34	1127.65
738.66	1179.63
738.98	1154.77
739.30	1197.71
739.62	1145.73
739.94	1190.93
740.26	1204.49
740.58	1181.89
740.90	1186.41
741.23	1188.67
741.55	1188.67
741.87	1170.59
742.19	1163.81
742.51	1102.80
742.83	1159.29
743.15	1141.21
743.47	1170.59
743.79	1199.97
744.11	1147.99
744.43	1188.67
744.75	1147.99
745.07	1186.41
745.39	1154.77
745.71	1154.77
746.03	1227.09
746.35	1141.21
746.67	1202.23
746.98	1143.47
747.30	1193.19
747.62	1202.23
747.94	1132.17
748.26	1129.91
748.58	1175.11
748.90	1125.39
749.22	1154.77
749.54	1111.84
749.86	1136.69
750.18	1147.99
750.50	1195.45
750.82	1206.75
751.13	1143.47
751.45	1136.69
751.77	1084.72
752.09	1125.39
752.41	1202.23
752.73	1276.80
753.05	1138.95
753.36	1168.33
753.68	1098.28
754.00	1204.49
754.32	1150.25
754.64	1199.97
754.96	1215.79
755.28	1154.77
755.59	1179.63
755.91	1152.51
756.23	1154.77
756.55	1166.07
756.87	1181.89
757.18	1150.25
757.50	1157.03
757.82	1134.43
758.14	1206.75
758.45	1172.85
758.77	1138.95
759.09	1206.75
759.41	1218.05
759.73	1125.39
760.04	1168.33
760.36	1157.03
760.68	1202.23
760.99	1199.97
761.31	1102.80
761.63	1193.19
761.95	1199.97
762.26	1145.73
762.58	1170.59
762.90	1159.29
763.21	1170.59
763.53	1179.63
763.85	1145.73
764.17	1172.85
764.48	1199.97
764.80	1177.37
765.12	1181.89
765.43	1181.89
765.75	1150.25
766.07	1181.89
766.38	1193.19
766.70	1154.77
767.01	1179.63
767.33	1163.81
767.65	1141.21
767.96	1181.89
768.28	1127.65
768.60	1147.99
768.91	1141.21
769.23	1120.87
769.54	1213.53
769.86	1175.11
770.18	1172.85
770.49	1127.65
770.81	1213.53
771.12	1152.51
771.44	1138.95
771.75	1141.21
772.07	1193.19
772.38	1197.71
772.70	1102.80
773.02	1186.41
773.33	1188.67
773.65	1161.55
773.96	1157.03
774.28	1168.33
774.59	1177.37
774.91	1089.24
775.22	1175.11
775.54	1123.13
775.85	1111.84
776.17	1190.93
776.48	1175.11
776.80	1116.35
777.11	1163.81
777.43	1123.13
777.74	1134.43
778.05	1159.29
778.37	1127.65
778.68	1175.11
779.00	1127.65
779.31	1195.45
779.63	1163.81
779.94	1136.69
780.26	1202.23
780.57	1116.35
780.88	1132.17
781.20	1096.02
781.51	1197.71
781.83	1136.69
782.14	1184.15
782.45	1150.25
782.77	1172.85
783.08	1102.80
783.39	1175.11
783.71	1116.35
784.02	1082.46
784.34	1161.55
784.65	1161.55
784.96	1186.41
785.28	1102.80
785.59	1227.09
785.90	1086.98
786.22	1141.21
786.53	1179.63
786.84	1251.94
787.15	1116.35
787.47	1181.89
787.78	1145.73
788.09	1134.43
788.41	1143.47
788.72	1188.67
789.03	1170.59
789.35	1107.32
789.66	1190.93
789.97	1188.67
790.28	1116.35
790.60	1159.29
790.91	1127.65
791.22	1195.45
791.53	1168.33
791.84	1166.07
792.16	1172.85
792.47	1179.63
792.78	1136.69
793.09	1166.07
793.41	1127.65
793.72	1129.91
794.03	1190.93
794.34	1213.53
794.65	1181.89
794.96	1068.90
795.28	1089.24
795.59	1132.17
795.90	1184.15
796.21	1105.06
796.52	1123.13
796.83	1161.55
797.15	1127.65
797.46	1150.25
797.77	1150.25
798.08	1150.25
798.39	1168.33
798.70	1143.47
799.01	1159.29
799.32	1154.77
799.63	1184.15
799.95	1179.63
800.26	1150.25
800.57	1251.94
800.88	1220.31
801.19	1147.99
801.50	1105.06
801.81	1170.59
802.12	1166.07
802.43	1195.45
802.74	1154.77
803.05	1188.67
803.36	1107.32
803.67	1147.99
803.98	1143.47
804.29	1145.73
804.60	1152.51
804.91	1215.79
805.22	1166.07
805.53	1098.28
805.84	1086.98
806.15	1145.73
806.46	1152.51
806.77	1170.59
807.08	1147.99
807.39	1224.83
807.70	1116.35
808.01	1152.51
808.32	1170.59
808.63	1157.03
808.94	1166.07
809.25	1197.71
809.56	1145.73
809.87	1118.61
810.18	1150.25
810.49	1157.03
810.79	1159.29
811.10	1175.11
811.41	1145.73
811.72	1141.21
812.03	1116.35
812.34	1206.75
812.65	1150.25
812.96	1157.03
813.27	1134.43
813.57	1127.65
813.88	1179.63
814.19	1168.33
814.50	1204.49
814.81	1188.67
815.12	1138.95
815.42	1125.39
815.73	1152.51
816.04	1125.39
816.35	1127.65
816.66	1193.19
816.97	1157.03
817.27	1186.41
817.58	1190.93
817.89	1161.55
818.20	1163.81
818.50	1157.03
818.81	1134.43
819.12	1111.84
819.43	1163.81
819.73	1109.58
820.04	1129.91
820.35	1152.51
820.66	1179.63
820.96	1179.63
821.27	1141.21
821.58	1127.65
821.89	1231.61
822.19	1143.47
822.50	1177.37
822.81	1199.97
823.11	1186.41
823.42	1186.41
823.73	1218.05
824.03	1136.69
824.34	1227.09
824.65	1071.16
824.95	1134.43
825.26	1186.41
825.57	1150.25
825.87	1190.93
826.18	1159.29
826.49	1082.46
826.79	1147.99
827.10	1172.85
827.40	1098.28
827.71	1190.93
828.02	1186.41
828.32	1138.95
828.63	1100.54
828.93	1141.21
829.24	1111.84
829.55	1120.87
829.85	1138.95
830.16	1136.69
830.46	1197.71
830.77	1145.73
831.07	1170.59
831.38	1193.19
831.69	1199.97
831.99	1145.73
832.30	1186.41
832.60	1190.93
832.91	1170.59
833.21	1159.29
833.52	1161.55
833.82	1147.99
834.13	1166.07
834.43	1136.69
834.74	1202.23
835.04	1218.05
835.35	1242.91
835.65	1224.83
835.96	1184.15
836.26	1231.61
836.56	1177.37
836.87	1199.97
837.17	1209.01
837.48	1145.73
837.78	1147.99
838.09	1136.69
838.39	1170.59
838.69	1127.65
839.00	1175.11
839.30	1170.59
839.61	1197.71
839.91	1186.41
840.21	1184.15
840.52	1109.58
840.82	1152.51
841.13	1127.65
841.43	1141.21
841.73	1197.71
842.04	1145.73
842.34	1224.83
842.64	1084.72
842.95	1071.16
843.25	1177.37
843.55	1218.05
843.86	1240.65
844.16	1179.63
844.46	1202.23
844.77	1138.95
845.07	1109.58
845.37	1147.99
845.68	1138.95
845.98	1193.19
846.28	1166.07
846.58	1123.13
846.89	1138.95
847.19	1096.02
847.49	1166.07
847.79	1129.91
848.10	1166.07
848.40	1188.67
848.70	1159.29
849.00	1197.71
849.31	1154.77
849.61	1150.25
849.91	1179.63
850.21	1166.07
850.51	1175.11
850.82	1157.03
851.12	1163.81
851.42	1150.25
851.72	1245.16
852.02	1127.65
852.32	1213.53
852.63	1091.50
852.93	1114.10
853.23	1150.25
853.53	1157.03
853.83	1218.05
854.13	1096.02
854.43	1172.85
854.74	1172.85
855.04	1170.59
855.34	1161.55
855.64	1206.75
855.94	1168.33
856.24	1125.39
856.54	1152.51
856.84	1147.99
857.14	1195.45
857.44	1227.09
857.74	1195.45
858.05	1204.49
858.35	1177.37
858.65	1159.29
858.95	1193.19
859.25	1190.93
859.55	1150.25
859.85	1157.03
860.15	1147.99
860.45	1154.77
860.75	1127.65
861.05	1175.11
861.35	1145.73
861.65	1190.93
861.95	1168.33
862.25	1152.51
862.55	1154.77
862.85	1209.01
863.15	1143.47
863.45	1136.69
863.75	1238.39
864.05	1136.69
864.35	1161.55
864.64	1147.99
864.94	1048.56
865.24	1168.33
865.54	1147.99
865.84	1202.23
866.14	1141.21
866.44	1132.17
866.74	1147.99
867.04	1132.17
867.34	1132.17
867.64	1177.37
867.93	1161.55
868.23	1111.84
868.53	1129.91
868.83	1161.55
869.13	1157.03
869.43	1168.33
869.73	1229.35
870.02	1116.35
870.32	1197.71
870.62	1138.95
870.92	1161.55
871.22	1222.57
871.51	1125.39
871.81	1154.77
872.11	1136.69
872.41	1154.77
872.71	1154.77
873.00	1147.99
873.30	1197.71
873.60	1147.99
873.90	1138.95
874.19	1184.15
874.49	1204.49
874.79	1186.41
875.09	1172.85
875.38	1161.55
875.68	1161.55
875.98	1143.47
876.28	1116.35
876.57	1116.35
876.87	1116.35
877.17	1116.35
