174.03	757.04
174.41	757.04
174.78	757.04
175.16	662.13
175.54	736.70
175.92	759.30
176.30	799.98
176.67	790.94
177.05	741.22
177.43	797.72
177.81	854.21
178.19	809.02
178.56	872.29
178.94	885.85
179.32	903.93
179.70	903.93
180.08	933.31
180.45	949.13
180.83	958.17
181.21	955.91
181.59	987.54
181.96	1005.62
182.34	1082.46
182.72	1039.52
183.10	1053.08
183.48	1138.95
183.85	1064.38
184.23	1154.77
184.61	1105.06
184.99	1166.07
185.36	1077.94
185.74	1157.03
186.12	1134.43
186.50	1184.15
186.87	1152.51
187.25	1211.27
187.63	1111.84
188.01	1152.51
188.38	1193.19
188.76	1172.85
189.14	1154.77
189.52	1206.75
189.89	1175.11
190.27	1138.95
190.65	1136.69
191.02	1209.01
191.40	1170.59
191.78	1150.25
192.16	1123.13
192.53	1127.65
192.91	1256.46
193.29	1238.39
193.66	1159.29
194.04	1154.77
194.42	1114.10
194.79	1186.41
195.17	1143.47
195.55	1168.33
195.93	1125.39
196.30	1184.15
196.68	1154.77
197.06	1213.53
197.43	1163.81
197.81	1209.01
198.19	1111.84
198.56	1136.69
198.94	1213.53
199.32	1172.85
199.69	1150.25
200.07	1141.21
200.45	1143.47
200.82	1157.03
201.20	1204.49
201.58	1159.29
201.95	1138.95
202.33	1168.33
202.71	1157.03
203.08	1120.87
203.46	1188.67
203.84	1159.29
204.21	1109.58
204.59	1096.02
204.96	1098.28
205.34	1111.84
205.72	1170.59
206.09	1161.55
206.47	1150.25
206.85	1172.85
207.22	1150.25
207.60	1175.11
207.97	1163.81
208.35	1129.91
208.73	1170.59
209.10	1118.61
209.48	1166.07
209.85	1136.69
210.23	1166.07
210.61	1145.73
210.98	1150.25
211.36	1127.65
211.73	1154.77
212.11	1175.11
212.49	1127.65
212.86	1143.47
213.24	1181.89
213.61	1068.90
213.99	1179.63
214.37	1086.98
214.74	1202.23
215.12	1136.69
215.49	1150.25
215.87	1141.21
216.24	1107.32
216.62	1154.77
216.99	1213.53
217.37	1224.83
217.75	1157.03
218.12	1175.11
218.50	1127.65
218.87	1186.41
219.25	1132.17
219.62	1204.49
220.00	1186.41
220.37	1093.76
220.75	1181.89
221.12	1114.10
221.50	1172.85
221.87	1136.69
222.25	1093.76
222.63	1098.28
223.00	1114.10
223.38	1152.51
223.75	1143.47
224.13	1157.03
224.50	1159.29
224.88	1154.77
225.25	1163.81
225.63	1159.29
226.00	1161.55
226.38	1256.46
226.75	1175.11
227.13	1147.99
227.50	1197.71
227.88	1240.65
228.25	1245.16
228.63	1150.25
229.00	1143.47
229.37	1152.51
229.75	1202.23
230.12	1184.15
230.50	1134.43
230.87	1134.43
231.25	1181.89
231.62	1188.67
232.00	1222.57
232.37	1224.83
232.75	1125.39
233.12	1170.59
233.50	1179.63
233.87	1202.23
234.24	1161.55
234.62	1186.41
234.99	1150.25
235.37	1209.01
235.74	1199.97
236.12	1231.61
236.49	1231.61
236.86	1184.15
237.24	1195.45
237.61	1188.67
237.99	1175.11
238.36	1202.23
238.74	1166.07
239.11	1213.53
239.48	1193.19
239.86	1184.15
240.23	1116.35
240.61	1181.89
240.98	1188.67
241.35	1161.55
241.73	1125.39
242.10	1186.41
242.48	1175.11
242.85	1224.83
243.22	1161.55
243.60	1084.72
243.97	1202.23
244.34	1166.07
244.72	1193.19
245.09	1163.81
245.47	1179.63
245.84	1204.49
246.21	1102.80
246.59	1177.37
246.96	1206.75
247.33	1229.35
247.71	1211.27
248.08	1186.41
248.45	1209.01
248.83	1181.89
249.20	1197.71
249.57	1132.17
249.95	1193.19
250.32	1204.49
250.69	1177.37
251.07	1240.65
251.44	1179.63
251.81	1177.37
252.19	1163.81
252.56	1102.80
252.93	1195.45
253.31	1242.91
253.68	1177.37
254.05	1227.09
254.43	1274.54
254.80	1190.93
255.17	1188.67
255.55	1120.87
255.92	1240.65
256.29	1123.13
256.66	1179.63
257.04	1186.41
257.41	1195.45
257.78	1147.99
258.16	1245.16
258.53	1175.11
258.90	1166.07
259.27	1170.59
259.65	1215.79
260.02	1245.16
260.39	1175.11
260.76	1227.09
261.14	1190.93
261.51	1190.93
261.88	1177.37
262.25	1172.85
262.63	1172.85
263.00	1222.57
263.37	1222.57
263.74	1211.27
264.12	1114.10
264.49	1231.61
264.86	1195.45
265.23	1129.91
265.61	1215.79
265.98	1161.55
266.35	1190.93
266.72	1240.65
267.09	1231.61
267.47	1188.67
267.84	1227.09
268.21	1211.27
268.58	1229.35
268.95	1177.37
269.33	1199.97
269.70	1240.65
270.07	1157.03
270.44	1213.53
270.81	1274.54
271.19	1197.71
271.56	1143.47
271.93	1145.73
272.30	1256.46
272.67	1272.28
273.05	1263.24
273.42	1199.97
273.79	1154.77
274.16	1168.33
274.53	1256.46
274.90	1218.05
275.28	1249.68
275.65	1199.97
276.02	1204.49
276.39	1136.69
276.76	1193.19
277.13	1242.91
277.50	1152.51
277.88	1204.49
278.25	1195.45
278.62	1270.02
278.99	1206.75
279.36	1199.97
279.73	1199.97
280.10	1254.20
280.47	1195.45
280.85	1242.91
281.22	1184.15
281.59	1190.93
281.96	1129.91
282.33	1166.07
282.70	1218.05
283.07	1211.27
283.44	1290.36
283.81	1213.53
284.18	1186.41
284.56	1236.13
284.93	1143.47
285.30	1179.63
285.67	1184.15
286.04	1166.07
286.41	1211.27
286.78	1159.29
287.15	1204.49
287.52	1195.45
287.89	1175.11
288.26	1188.67
288.63	1193.19
289.00	1249.68
289.37	1233.87
289.75	1279.06
290.12	1240.65
290.49	1172.85
290.86	1227.09
291.23	1177.37
291.60	1249.68
291.97	1202.23
292.34	1206.75
292.71	1288.10
293.08	1204.49
293.45	1168.33
293.82	1195.45
294.19	1181.89
294.56	1240.65
294.93	1233.87
295.30	1263.24
295.67	1195.45
296.04	1145.73
296.41	1202.23
296.78	1245.16
297.15	1209.01
297.52	1233.87
297.89	1227.09
298.26	1143.47
298.63	1154.77
299.00	1233.87
299.37	1206.75
299.74	1209.01
300.11	1181.89
300.48	1152.51
300.85	1218.05
301.22	1251.94
301.59	1161.55
301.96	1224.83
302.33	1258.72
302.70	1254.20
303.07	1240.65
303.43	1249.68
303.80	1242.91
304.17	1297.14
304.54	1251.94
304.91	1292.62
305.28	1222.57
305.65	1251.94
306.02	1215.79
306.39	1265.50
306.76	1227.09
307.13	1218.05
307.50	1186.41
307.87	1290.36
308.24	1242.91
308.60	1251.94
308.97	1249.68
309.34	1222.57
309.71	1222.57
310.08	1222.57
310.45	1218.05
310.82	1231.61
311.19	1326.52
311.56	1340.08
311.92	1272.28
312.29	1240.65
312.66	1242.91
313.03	1190.93
313.40	1322.00
313.77	1227.09
314.14	1229.35
314.51	1231.61
314.87	1206.75
315.24	1281.32
315.61	1199.97
315.98	1265.50
316.35	1274.54
316.72	1206.75
317.09	1265.50
317.45	1238.39
317.82	1270.02
318.19	1211.27
318.56	1297.14
318.93	1301.66
319.30	1267.76
319.66	1276.80
320.03	1263.24
320.40	1267.76
320.77	1283.58
321.14	1258.72
321.50	1263.24
321.87	1285.84
322.24	1333.30
322.61	1270.02
322.98	1227.09
323.34	1317.48
323.71	1199.97
324.08	1240.65
324.45	1270.02
324.82	1297.14
325.18	1260.98
325.55	1190.93
325.92	1279.06
326.29	1175.11
326.65	1260.98
327.02	1245.16
327.39	1288.10
327.76	1310.70
328.12	1276.80
328.49	1249.68
328.86	1267.76
329.23	1276.80
329.59	1236.13
329.96	1270.02
330.33	1229.35
330.70	1220.31
331.06	1267.76
331.43	1306.18
331.80	1274.54
332.17	1249.68
332.53	1306.18
332.90	1340.08
333.27	1231.61
333.63	1206.75
334.00	1279.06
334.37	1290.36
334.74	1288.10
335.10	1380.75
335.47	1279.06
335.84	1272.28
336.20	1310.70
336.57	1331.04
336.94	1220.31
337.30	1213.53
337.67	1283.58
338.04	1340.08
338.40	1322.00
338.77	1344.60
339.14	1308.44
339.50	1299.40
339.87	1387.53
340.24	1331.04
340.60	1326.52
340.97	1308.44
341.34	1288.10
341.70	1297.14
342.07	1351.38
342.44	1387.53
342.80	1260.98
343.17	1346.86
343.53	1306.18
343.90	1218.05
344.27	1283.58
344.63	1315.22
345.00	1344.60
345.37	1310.70
345.73	1326.52
346.10	1281.32
346.46	1288.10
346.83	1396.57
347.20	1360.42
347.56	1344.60
347.93	1394.31
348.29	1335.56
348.66	1364.94
349.03	1351.38
349.39	1383.01
349.76	1401.09
350.12	1324.26
350.49	1342.34
350.85	1392.05
351.22	1364.94
351.59	1335.56
351.95	1270.02
352.32	1349.12
352.68	1337.82
353.05	1344.60
353.41	1410.13
353.78	1360.42
354.14	1274.54
354.51	1335.56
354.88	1369.46
355.24	1367.20
355.61	1398.83
355.97	1355.90
356.34	1398.83
356.70	1337.82
357.07	1389.79
357.43	1421.43
357.80	1430.47
358.16	1360.42
358.53	1355.90
358.89	1369.46
359.26	1439.51
359.62	1401.09
359.99	1446.29
360.35	1462.11
360.72	1434.99
361.08	1453.07
361.45	1385.27
361.81	1387.53
362.18	1450.81
362.54	1484.71
362.91	1432.73
363.27	1484.71
363.63	1448.55
364.00	1432.73
364.36	1516.34
364.73	1482.45
365.09	1538.94
365.46	1500.53
365.82	1466.63
366.19	1446.29
366.55	1552.50
366.91	1493.75
367.28	1547.98
367.64	1441.77
368.01	1511.82
368.37	1491.49
368.74	1502.79
369.10	1538.94
369.46	1541.20
369.83	1572.84
370.19	1459.85
370.56	1595.44
370.92	1550.24
371.28	1536.68
371.65	1552.50
372.01	1559.28
372.38	1622.56
372.74	1588.66
373.10	1674.53
373.47	1717.47
373.83	1602.22
374.19	1801.08
374.56	1681.31
374.92	1651.93
375.29	1769.44
375.65	1821.42
376.01	1807.86
376.38	1762.67
376.74	1902.77
377.10	1832.72
377.47	1850.80
377.83	1968.31
378.19	2011.25
378.56	1938.93
378.92	2054.18
379.28	2112.94
379.65	2219.15
380.01	2250.79
380.37	2332.14
380.74	2361.52
381.10	2533.27
381.46	2549.09
381.83	2829.30
382.19	2879.02
382.55	2942.30
382.91	3136.64
383.28	3285.79
383.64	3527.59
384.00	3814.59
384.37	3993.12
384.73	4316.27
385.09	4533.21
385.45	4840.55
385.82	5224.72
386.18	5613.41
386.54	6250.68
386.91	6616.78
387.27	7190.77
387.63	7855.16
387.99	8331.98
388.36	9263.03
388.72	10076.57
389.08	10926.27
389.44	11809.86
389.80	12858.42
390.17	13665.18
390.53	15294.51
390.89	17224.41
391.25	18085.40
391.62	19233.39
391.98	21692.08
392.34	24042.31
392.70	24846.80
393.06	27296.46
393.43	29375.50
393.79	30663.60
394.15	32774.28
394.51	35049.93
394.87	37619.35
395.24	40819.27
395.60	43890.37
395.96	46477.87
396.32	49942.19
396.68	52113.88
397.04	55169.17
397.41	57908.08
397.77	59745.32
398.13	61614.20
398.49	62906.82
398.85	64671.75
399.21	65535.00
399.58	65535.00
399.94	65535.00
400.30	65535.00
400.66	65535.00
401.02	65535.00
401.38	65535.00
401.74	65535.00
402.11	65535.00
402.47	65535.00
402.83	65535.00
403.19	65535.00
403.55	65535.00
403.91	65535.00
404.27	65535.00
404.63	65535.00
404.99	65535.00
405.35	65535.00
405.72	65535.00
406.08	65535.00
406.44	65535.00
406.80	65535.00
407.16	65535.00
407.52	65535.00
407.88	65535.00
408.24	65535.00
408.60	65535.00
408.96	65535.00
409.32	65535.00
409.68	65535.00
410.04	65535.00
410.40	65535.00
410.76	65535.00
411.13	65535.00
411.49	65535.00
411.85	65535.00
412.21	65535.00
412.57	65535.00
412.93	65535.00
413.29	65535.00
413.65	65535.00
414.01	65535.00
414.37	65535.00
414.73	65535.00
415.09	65535.00
415.45	65535.00
415.81	65535.00
416.17	65311.28
416.53	64362.15
416.89	63193.82
417.25	61914.76
417.61	60276.38
417.97	59607.47
418.33	58238.02
418.69	57130.70
419.05	55989.49
419.41	54949.97
419.77	54414.39
420.12	51774.91
420.48	49693.61
420.84	49112.83
421.20	46371.66
421.56	44159.29
421.92	43479.08
422.28	40774.07
422.64	38670.17
423.00	37282.64
423.36	35565.17
423.72	33007.04
424.08	31248.90
424.44	29653.46
424.80	28279.48
425.16	27113.41
425.51	25798.19
425.87	24957.54
426.23	22928.21
426.59	21258.20
426.95	21020.92
427.31	19920.38
427.67	19811.91
428.03	17983.71
428.39	17626.66
428.74	16236.86
429.10	15296.77
429.46	14842.55
429.82	14001.89
430.18	13421.12
430.54	12881.02
430.90	12469.73
431.26	12022.28
431.61	11272.02
431.97	10964.68
432.33	10738.70
432.69	10444.92
433.05	9911.60
433.41	9409.92
433.76	8953.44
434.12	8770.39
434.48	8350.06
434.84	7904.88
435.20	7900.36
435.55	7751.21
435.91	7172.69
436.27	7037.10
436.63	6779.48
436.99	6503.78
437.34	6243.90
437.70	6056.34
438.06	5769.34
438.42	5489.12
438.78	5330.93
439.13	5294.78
439.49	5132.07
439.85	4892.53
440.21	4781.80
440.56	4515.14
440.92	4368.25
441.28	4293.67
441.64	4237.18
441.99	3945.66
442.35	3848.49
442.71	3789.73
443.07	3785.21
443.42	3627.02
443.78	3419.12
444.14	3453.02
444.50	3317.43
444.85	3256.41
445.21	3229.29
445.57	3116.30
445.93	3084.66
446.28	2874.50
446.64	2890.32
447.00	2806.71
447.35	2908.40
447.71	2860.94
448.07	2761.51
448.42	2657.56
448.78	2666.60
449.14	2558.12
449.49	2524.23
449.85	2460.95
450.21	2454.17
450.56	2277.91
450.92	2232.71
451.28	2318.58
451.63	2257.57
451.99	2146.84
452.35	2253.05
452.70	2164.91
453.06	2196.55
453.42	2085.82
453.77	2040.62
454.13	2015.77
454.49	1999.95
454.84	2004.47
455.20	1938.93
455.55	1896.00
455.91	1943.45
456.27	1837.24
456.62	1798.82
456.98	1830.46
457.33	1740.07
457.69	1735.55
458.05	1672.27
458.40	1681.31
458.76	1638.38
459.11	1633.86
459.47	1645.15
459.83	1676.79
460.18	1624.82
460.54	1703.91
460.89	1595.44
461.25	1627.08
461.60	1597.70
461.96	1572.84
462.31	1597.70
462.67	1590.92
463.03	1547.98
463.38	1595.44
463.74	1581.88
464.09	1516.34
464.45	1523.12
464.80	1557.02
465.16	1527.64
465.51	1482.45
465.87	1466.63
466.22	1434.99
466.58	1541.20
466.93	1405.61
467.29	1516.34
467.64	1498.27
468.00	1496.01
468.35	1405.61
468.71	1471.15
469.06	1419.17
469.42	1459.85
469.77	1439.51
470.13	1416.91
470.48	1344.60
470.84	1367.20
471.19	1410.13
471.54	1360.42
471.90	1401.09
472.25	1405.61
472.61	1360.42
472.96	1410.13
473.32	1439.51
473.67	1367.20
474.03	1480.19
474.38	1367.20
474.73	1342.34
475.09	1360.42
475.44	1317.48
475.80	1353.64
476.15	1380.75
476.50	1407.87
476.86	1358.16
477.21	1312.96
477.57	1358.16
477.92	1364.94
478.27	1355.90
478.63	1385.27
478.98	1362.68
479.34	1380.75
479.69	1360.42
480.04	1344.60
480.40	1333.30
480.75	1326.52
481.10	1312.96
481.46	1342.34
481.81	1373.98
482.16	1328.78
482.52	1335.56
482.87	1322.00
483.22	1373.98
483.58	1263.24
483.93	1294.88
484.28	1335.56
484.64	1317.48
484.99	1333.30
485.34	1315.22
485.70	1306.18
486.05	1279.06
486.40	1312.96
486.76	1308.44
487.11	1258.72
487.46	1349.12
487.81	1279.06
488.17	1319.74
488.52	1333.30
488.87	1308.44
489.23	1292.62
489.58	1342.34
489.93	1283.58
490.28	1315.22
490.64	1310.70
490.99	1310.70
491.34	1260.98
491.69	1224.83
492.05	1308.44
492.40	1213.53
492.75	1349.12
493.10	1206.75
493.46	1272.28
493.81	1254.20
494.16	1297.14
494.51	1265.50
494.86	1303.92
495.22	1251.94
495.57	1285.84
495.92	1251.94
496.27	1236.13
496.62	1179.63
496.98	1195.45
497.33	1251.94
497.68	1256.46
498.03	1306.18
498.38	1303.92
498.74	1211.27
499.09	1312.96
499.44	1224.83
499.79	1231.61
500.14	1170.59
500.49	1224.83
500.85	1249.68
501.20	1238.39
501.55	1283.58
501.90	1231.61
502.25	1215.79
502.60	1220.31
502.95	1256.46
503.30	1260.98
503.66	1283.58
504.01	1267.76
504.36	1308.44
504.71	1254.20
505.06	1285.84
505.41	1270.02
505.76	1184.15
506.11	1272.28
506.46	1215.79
506.82	1274.54
507.17	1260.98
507.52	1247.42
507.87	1285.84
508.22	1274.54
508.57	1229.35
508.92	1256.46
509.27	1177.37
509.62	1263.24
509.97	1276.80
510.32	1251.94
510.67	1263.24
511.02	1265.50
511.37	1186.41
511.72	1256.46
512.07	1247.42
512.42	1247.42
512.77	1263.24
513.12	1218.05
513.47	1186.41
513.82	1231.61
514.17	1229.35
514.52	1236.13
514.87	1233.87
515.22	1276.80
515.57	1279.06
515.92	1272.28
516.27	1215.79
516.62	1294.88
516.97	1290.36
517.32	1245.16
517.67	1186.41
518.02	1270.02
518.37	1193.19
518.72	1170.59
519.07	1256.46
519.42	1242.91
519.77	1170.59
520.12	1265.50
520.47	1315.22
520.82	1267.76
521.17	1247.42
521.52	1328.78
521.87	1197.71
522.22	1242.91
522.56	1254.20
522.91	1256.46
523.26	1209.01
523.61	1260.98
523.96	1258.72
524.31	1247.42
524.66	1260.98
525.01	1263.24
525.36	1240.65
525.71	1265.50
526.05	1272.28
526.40	1263.24
526.75	1240.65
527.10	1242.91
527.45	1245.16
527.80	1281.32
528.15	1236.13
528.49	1272.28
528.84	1281.32
529.19	1181.89
529.54	1199.97
529.89	1247.42
530.24	1197.71
530.58	1193.19
530.93	1204.49
531.28	1249.68
531.63	1197.71
531.98	1209.01
532.33	1233.87
532.67	1283.58
533.02	1242.91
533.37	1276.80
533.72	1245.16
534.07	1245.16
534.41	1242.91
534.76	1202.23
535.11	1238.39
535.46	1256.46
535.80	1206.75
536.15	1166.07
536.50	1172.85
536.85	1193.19
537.19	1211.27
537.54	1238.39
537.89	1256.46
538.24	1242.91
538.58	1254.20
538.93	1206.75
539.28	1222.57
539.63	1181.89
539.97	1154.77
540.32	1186.41
540.67	1202.23
541.01	1132.17
541.36	1186.41
541.71	1256.46
542.06	1222.57
542.40	1256.46
542.75	1209.01
543.10	1263.24
543.44	1267.76
543.79	1218.05
544.14	1276.80
544.48	1247.42
544.83	1247.42
545.18	1249.68
545.52	1168.33
545.87	1240.65
546.22	1197.71
546.56	1206.75
546.91	1215.79
547.25	1179.63
547.60	1193.19
547.95	1145.73
548.29	1211.27
548.64	1188.67
548.99	1281.32
549.33	1181.89
549.68	1272.28
550.02	1245.16
550.37	1222.57
550.72	1154.77
551.06	1190.93
551.41	1229.35
551.75	1195.45
552.10	1227.09
552.45	1161.55
552.79	1215.79
553.14	1190.93
553.48	1184.15
553.83	1209.01
554.17	1209.01
554.52	1288.10
554.87	1202.23
555.21	1206.75
555.56	1199.97
555.90	1143.47
556.25	1211.27
556.59	1258.72
556.94	1247.42
557.28	1195.45
557.63	1170.59
557.97	1197.71
558.32	1150.25
558.66	1143.47
559.01	1233.87
559.35	1204.49
559.70	1209.01
560.04	1204.49
560.39	1233.87
560.73	1218.05
561.08	1172.85
561.42	1272.28
561.77	1116.35
562.11	1222.57
562.46	1242.91
562.80	1136.69
563.14	1242.91
563.49	1231.61
563.83	1138.95
564.18	1195.45
564.52	1184.15
564.87	1227.09
565.21	1177.37
565.56	1236.13
565.90	1199.97
566.24	1177.37
566.59	1204.49
566.93	1105.06
567.28	1240.65
567.62	1197.71
567.96	1190.93
568.31	1166.07
568.65	1267.76
569.00	1175.11
569.34	1179.63
569.68	1193.19
570.03	1186.41
570.37	1202.23
570.71	1220.31
571.06	1224.83
571.40	1202.23
571.74	1231.61
572.09	1236.13
572.43	1145.73
572.78	1184.15
573.12	1186.41
573.46	1179.63
573.80	1260.98
574.15	1181.89
574.49	1211.27
574.83	1159.29
575.18	1211.27
575.52	1256.46
575.86	1211.27
576.21	1206.75
576.55	1204.49
576.89	1172.85
577.24	1220.31
577.58	1166.07
577.92	1190.93
578.26	1211.27
578.61	1197.71
578.95	1181.89
579.29	1157.03
579.63	1188.67
579.98	1154.77
580.32	1220.31
580.66	1152.51
581.00	1209.01
581.35	1220.31
581.69	1181.89
582.03	1170.59
582.37	1190.93
582.72	1256.46
583.06	1238.39
583.40	1211.27
583.74	1195.45
584.08	1195.45
584.43	1184.15
584.77	1209.01
585.11	1188.67
585.45	1186.41
585.79	1163.81
586.13	1166.07
586.48	1211.27
586.82	1114.10
587.16	1161.55
587.50	1168.33
587.84	1143.47
588.18	1175.11
588.53	1197.71
588.87	1206.75
589.21	1231.61
589.55	1168.33
589.89	1159.29
590.23	1172.85
590.57	1199.97
590.92	1270.02
591.26	1197.71
591.60	1127.65
591.94	1157.03
592.28	1116.35
592.62	1256.46
592.96	1163.81
593.30	1143.47
593.64	1136.69
593.98	1157.03
594.32	1175.11
594.67	1150.25
595.01	1215.79
595.35	1168.33
595.69	1138.95
596.03	1215.79
596.37	1213.53
596.71	1181.89
597.05	1163.81
597.39	1184.15
597.73	1152.51
598.07	1175.11
598.41	1145.73
598.75	1213.53
599.09	1204.49
599.43	1163.81
599.77	1150.25
600.11	1179.63
600.45	1181.89
600.79	1188.67
601.13	1202.23
601.47	1168.33
601.81	1143.47
602.15	1141.21
602.49	1170.59
602.83	1147.99
603.17	1209.01
603.51	1163.81
603.85	1157.03
604.19	1186.41
604.53	1179.63
604.87	1179.63
605.21	1236.13
605.55	1129.91
605.89	1220.31
606.23	1179.63
606.56	1161.55
606.90	1206.75
607.24	1147.99
607.58	1138.95
607.92	1227.09
608.26	1163.81
608.60	1170.59
608.94	1125.39
609.28	1206.75
609.62	1211.27
609.95	1172.85
610.29	1227.09
610.63	1197.71
610.97	1125.39
611.31	1209.01
611.65	1168.33
611.99	1150.25
612.33	1175.11
612.66	1222.57
613.00	1136.69
613.34	1127.65
613.68	1093.76
614.02	1154.77
614.36	1218.05
614.69	1159.29
615.03	1125.39
615.37	1152.51
615.71	1132.17
616.05	1204.49
616.38	1138.95
616.72	1157.03
617.06	1138.95
617.40	1188.67
617.74	1211.27
618.07	1170.59
618.41	1159.29
618.75	1215.79
619.09	1143.47
619.42	1206.75
619.76	1154.77
620.10	1193.19
620.44	1256.46
620.77	1147.99
621.11	1236.13
621.45	1161.55
621.79	1175.11
622.12	1138.95
622.46	1080.20
622.80	1166.07
623.13	1193.19
623.47	1163.81
623.81	1152.51
624.15	1138.95
624.48	1154.77
624.82	1157.03
625.16	1218.05
625.49	1202.23
625.83	1204.49
626.17	1218.05
626.50	1172.85
626.84	1177.37
627.18	1184.15
627.51	1190.93
627.85	1197.71
628.19	1224.83
628.52	1147.99
628.86	1179.63
629.20	1120.87
629.53	1168.33
629.87	1150.25
630.20	1127.65
630.54	1118.61
630.88	1209.01
631.21	1136.69
631.55	1159.29
631.89	1242.91
632.22	1168.33
632.56	1157.03
632.89	1152.51
633.23	1181.89
633.56	1175.11
633.90	1177.37
634.24	1132.17
634.57	1172.85
634.91	1143.47
635.24	1170.59
635.58	1136.69
635.91	1141.21
636.25	1143.47
636.58	1202.23
636.92	1152.51
637.26	1177.37
637.59	1132.17
637.93	1132.17
638.26	1197.71
638.60	1143.47
638.93	1157.03
639.27	1138.95
639.60	1141.21
639.94	1134.43
640.27	1147.99
640.61	1125.39
640.94	1231.61
641.28	1150.25
641.61	1152.51
641.94	1145.73
642.28	1159.29
642.61	1231.61
642.95	1179.63
643.28	1190.93
643.62	1145.73
643.95	1150.25
644.29	1197.71
644.62	1127.65
644.95	1150.25
645.29	1206.75
645.62	1213.53
645.96	1141.21
646.29	1170.59
646.63	1168.33
646.96	1129.91
647.29	1211.27
647.63	1227.09
647.96	1129.91
648.29	1199.97
648.63	1170.59
648.96	1202.23
649.30	1211.27
649.63	1175.11
649.96	1179.63
650.30	1175.11
650.63	1093.76
650.96	1159.29
651.30	1190.93
651.63	1147.99
651.96	1143.47
652.30	1157.03
652.63	1152.51
652.96	1166.07
653.30	1134.43
653.63	1159.29
653.96	1179.63
654.30	1186.41
654.63	1159.29
654.96	1157.03
655.29	1220.31
655.63	1145.73
655.96	1177.37
656.29	1159.29
656.63	1141.21
656.96	1181.89
657.29	1145.73
657.62	1116.35
657.96	1145.73
658.29	1224.83
658.62	1276.80
658.95	1123.13
659.29	1181.89
659.62	1168.33
659.95	1172.85
660.28	1213.53
660.61	1118.61
660.95	1154.77
661.28	1145.73
661.61	1193.19
661.94	1220.31
662.27	1211.27
662.61	1163.81
662.94	1141.21
663.27	1188.67
663.60	1118.61
663.93	1159.29
664.27	1123.13
664.60	1188.67
664.93	1147.99
665.26	1170.59
665.59	1082.46
665.92	1143.47
666.25	1206.75
666.59	1193.19
666.92	1152.51
667.25	1206.75
667.58	1136.69
667.91	1089.24
668.24	1179.63
668.57	1179.63
668.90	1138.95
669.23	1193.19
669.57	1163.81
669.90	1141.21
670.23	1181.89
670.56	1184.15
670.89	1170.59
671.22	1145.73
671.55	1116.35
671.88	1159.29
672.21	1141.21
672.54	1202.23
672.87	1111.84
673.20	1136.69
673.53	1204.49
673.86	1152.51
674.19	1163.81
674.52	1177.37
674.85	1147.99
675.18	1116.35
675.51	1145.73
675.84	1147.99
676.17	1222.57
676.50	1093.76
676.83	1161.55
677.16	1218.05
677.49	1157.03
677.82	1141.21
678.15	1154.77
678.48	1157.03
678.81	1116.35
679.14	1211.27
679.47	1080.20
679.80	1175.11
680.13	1125.39
680.46	1251.94
680.79	1141.21
681.12	1179.63
681.45	1093.76
681.78	1179.63
682.11	1166.07
682.44	1186.41
682.77	1157.03
683.09	1114.10
683.42	1073.42
683.75	1109.58
684.08	1154.77
684.41	1179.63
684.74	1181.89
685.07	1175.11
685.40	1170.59
685.72	1143.47
686.05	1197.71
686.38	1213.53
686.71	1175.11
687.04	1147.99
687.37	1161.55
687.70	1188.67
688.02	1157.03
688.35	1091.50
688.68	1159.29
689.01	1168.33
689.34	1186.41
689.67	1143.47
689.99	1125.39
690.32	1193.19
690.65	1157.03
690.98	1150.25
691.30	1116.35
691.63	1114.10
691.96	1157.03
692.29	1233.87
692.62	1202.23
692.94	1159.29
693.27	1161.55
693.60	1141.21
693.93	1116.35
694.25	1132.17
694.58	1102.80
694.91	1163.81
695.24	1118.61
695.56	1181.89
695.89	1161.55
696.22	1213.53
696.54	1166.07
696.87	1141.21
697.20	1224.83
697.53	1195.45
697.85	1175.11
698.18	1152.51
698.51	1184.15
698.83	1127.65
699.16	1179.63
699.49	1075.68
699.81	1152.51
700.14	1111.84
700.47	1125.39
700.79	1177.37
701.12	1154.77
701.45	1107.32
701.77	1163.81
702.10	1170.59
702.42	1150.25
702.75	1150.25
703.08	1202.23
703.40	1181.89
703.73	1129.91
704.05	1184.15
704.38	1116.35
704.71	1111.84
705.03	1116.35
705.36	1143.47
705.68	1195.45
706.01	1138.95
706.34	1163.81
706.66	1170.59
706.99	1170.59
707.31	1161.55
707.64	1127.65
707.96	1172.85
708.29	1157.03
708.61	1120.87
708.94	1147.99
709.26	1136.69
709.59	1170.59
709.92	1168.33
710.24	1134.43
710.57	1096.02
710.89	1154.77
711.22	1136.69
711.54	1161.55
711.87	1175.11
712.19	1245.16
712.51	1154.77
712.84	1143.47
713.16	1147.99
713.49	1177.37
713.81	1127.65
714.14	1118.61
714.46	1168.33
714.79	1147.99
715.11	1107.32
715.44	1132.17
715.76	1114.10
716.08	1118.61
716.41	1143.47
716.73	1125.39
717.06	1145.73
717.38	1184.15
717.70	1157.03
718.03	1163.81
718.35	1170.59
718.68	1147.99
719.00	1120.87
719.32	1166.07
719.65	1179.63
719.97	1179.63
720.29	1107.32
720.62	1145.73
720.94	1177.37
721.27	1138.95
721.59	1150.25
721.91	1132.17
722.24	1145.73
722.56	1211.27
722.88	1170.59
723.21	1175.11
723.53	1145.73
723.85	1143.47
724.17	1195.45
724.50	1184.15
724.82	1163.81
725.14	1161.55
725.47	1143.47
725.79	1166.07
726.11	1177.37
726.43	1175.11
726.76	1166.07
727.08	1145.73
727.40	1177.37
727.72	1152.51
728.05	1172.85
728.37	1179.63
728.69	1175.11
729.01	1125.39
729.34	1247.42
729.66	1138.95
729.98	1123.13
730.30	1157.03
730.62	1138.95
730.95	1129.91
731.27	1082.46
731.59	1166.07
731.91	1190.93
732.23	1132.17
732.56	1150.25
732.88	1163.81
733.20	1170.59
733.52	1123.13
733.84	1184.15
734.16	1152.51
734.49	1159.29
734.81	1091.50
735.13	1179.63
735.45	1132.17
735.77	1111.84
736.09	1125.39
736.41	1152.51
736.73	1193.19
737.06	1141.21
737.38	1168.33
737.70	1175.11
738.02	1181.89
738.34	1145.73
738.66	1166.07
738.98	1186.41
739.30	1163.81
739.62	1145.73
739.94	1143.47
740.26	1195.45
740.58	1184.15
740.90	1202.23
741.23	1145.73
741.55	1184.15
741.87	1157.03
742.19	1172.85
742.51	1197.71
742.83	1199.97
743.15	1150.25
743.47	1109.58
743.79	1159.29
744.11	1193.19
744.43	1120.87
744.75	1209.01
745.07	1150.25
745.39	1209.01
745.71	1105.06
746.03	1141.21
746.35	1125.39
746.67	1127.65
746.98	1206.75
747.30	1136.69
747.62	1186.41
747.94	1116.35
748.26	1170.59
748.58	1175.11
748.90	1154.77
749.22	1175.11
749.54	1143.47
749.86	1166.07
750.18	1184.15
750.50	1179.63
750.82	1145.73
751.13	1136.69
751.45	1098.28
751.77	1150.25
752.09	1143.47
752.41	1161.55
752.73	1159.29
753.05	1127.65
753.36	1209.01
753.68	1125.39
754.00	1172.85
754.32	1096.02
754.64	1116.35
754.96	1109.58
755.28	1143.47
755.59	1145.73
755.91	1166.07
756.23	1138.95
756.55	1109.58
756.87	1118.61
757.18	1197.71
757.50	1172.85
757.82	1129.91
758.14	1181.89
758.45	1152.51
758.77	1161.55
759.09	1179.63
759.41	1138.95
759.73	1152.51
760.04	1147.99
760.36	1120.87
760.68	1159.29
760.99	1114.10
761.31	1138.95
761.63	1136.69
761.95	1175.11
762.26	1166.07
762.58	1145.73
762.90	1157.03
763.21	1152.51
763.53	1118.61
763.85	1193.19
764.17	1161.55
764.48	1111.84
764.80	1199.97
765.12	1172.85
765.43	1105.06
765.75	1152.51
766.07	1161.55
766.38	1190.93
766.70	1184.15
767.01	1077.94
767.33	1138.95
767.65	1125.39
767.96	1188.67
768.28	1172.85
768.60	1109.58
768.91	1159.29
769.23	1193.19
769.54	1147.99
769.86	1154.77
770.18	1209.01
770.49	1154.77
770.81	1132.17
771.12	1125.39
771.44	1114.10
771.75	1145.73
772.07	1125.39
772.38	1188.67
772.70	1154.77
773.02	1159.29
773.33	1163.81
773.65	1096.02
773.96	1193.19
774.28	1181.89
774.59	1150.25
774.91	1172.85
775.22	1166.07
775.54	1134.43
775.85	1100.54
776.17	1127.65
776.48	1159.29
776.80	1161.55
777.11	1089.24
777.43	1188.67
777.74	1136.69
778.05	1157.03
778.37	1211.27
778.68	1170.59
779.00	1134.43
779.31	1089.24
779.63	1138.95
779.94	1136.69
780.26	1154.77
780.57	1159.29
780.88	1145.73
781.20	1138.95
781.51	1168.33
781.83	1154.77
782.14	1190.93
782.45	1154.77
782.77	1202.23
783.08	1177.37
783.39	1082.46
783.71	1154.77
784.02	1154.77
784.34	1193.19
784.65	1154.77
784.96	1098.28
785.28	1175.11
785.59	1197.71
785.90	1166.07
786.22	1170.59
786.53	1125.39
786.84	1132.17
787.15	1157.03
787.47	1091.50
787.78	1138.95
788.09	1118.61
788.41	1125.39
788.72	1134.43
789.03	1125.39
789.35	1096.02
789.66	1152.51
789.97	1179.63
790.28	1136.69
790.60	1132.17
790.91	1143.47
791.22	1132.17
791.53	1179.63
791.84	1152.51
792.16	1166.07
792.47	1170.59
792.78	1147.99
793.09	1132.17
793.41	1154.77
793.72	1111.84
794.03	1093.76
794.34	1145.73
794.65	1143.47
794.96	1184.15
795.28	1132.17
795.59	1172.85
795.90	1195.45
796.21	1163.81
796.52	1138.95
796.83	1190.93
797.15	1188.67
797.46	1129.91
797.77	1105.06
798.08	1152.51
798.39	1077.94
798.70	1157.03
799.01	1082.46
799.32	1127.65
799.63	1080.20
799.95	1138.95
800.26	1166.07
800.57	1136.69
800.88	1186.41
801.19	1125.39
801.50	1195.45
801.81	1163.81
802.12	1125.39
802.43	1166.07
802.74	1141.21
803.05	1184.15
803.36	1154.77
803.67	1145.73
803.98	1138.95
804.29	1138.95
804.60	1086.98
804.91	1166.07
805.22	1193.19
805.53	1109.58
805.84	1141.21
806.15	1181.89
806.46	1193.19
806.77	1143.47
807.08	1172.85
807.39	1186.41
807.70	1177.37
808.01	1120.87
808.32	1127.65
808.63	1141.21
808.94	1231.61
809.25	1186.41
809.56	1093.76
809.87	1136.69
810.18	1150.25
810.49	1136.69
810.79	1218.05
811.10	1107.32
811.41	1145.73
811.72	1123.13
812.03	1157.03
812.34	1132.17
812.65	1129.91
812.96	1129.91
813.27	1145.73
813.57	1141.21
813.88	1175.11
814.19	1209.01
814.50	1147.99
814.81	1123.13
815.12	1147.99
815.42	1152.51
815.73	1175.11
816.04	1143.47
816.35	1161.55
816.66	1188.67
816.97	1132.17
817.27	1150.25
817.58	1184.15
817.89	1091.50
818.20	1168.33
818.50	1157.03
818.81	1123.13
819.12	1186.41
819.43	1102.80
819.73	1073.42
820.04	1168.33
820.35	1125.39
820.66	1154.77
820.96	1120.87
821.27	1075.68
821.58	1075.68
821.89	1082.46
822.19	1111.84
822.50	1138.95
822.81	1118.61
823.11	1175.11
823.42	1145.73
823.73	1118.61
824.03	1161.55
824.34	1143.47
824.65	1120.87
824.95	1093.76
825.26	1086.98
825.57	1145.73
825.87	1175.11
826.18	1193.19
826.49	1186.41
826.79	1145.73
827.10	1109.58
827.40	1147.99
827.71	1091.50
828.02	1138.95
828.32	1222.57
828.63	1150.25
828.93	1143.47
829.24	1150.25
829.55	1166.07
829.85	1179.63
830.16	1111.84
830.46	1150.25
830.77	1125.39
831.07	1147.99
831.38	1175.11
831.69	1107.32
831.99	1143.47
832.30	1154.77
832.60	1125.39
832.91	1197.71
833.21	1166.07
833.52	1143.47
833.82	1096.02
834.13	1188.67
834.43	1138.95
834.74	1147.99
835.04	1125.39
835.35	1152.51
835.65	1168.33
835.96	1127.65
836.26	1120.87
836.56	1143.47
836.87	1129.91
837.17	1100.54
837.48	1123.13
837.78	1120.87
838.09	1159.29
838.39	1159.29
838.69	1138.95
839.00	1186.41
839.30	1154.77
839.61	1102.80
839.91	1143.47
840.21	1175.11
840.52	1147.99
840.82	1086.98
841.13	1082.46
841.43	1098.28
841.73	1096.02
842.04	1170.59
842.34	1159.29
842.64	1157.03
842.95	1177.37
843.25	1109.58
843.55	1147.99
843.86	1159.29
844.16	1120.87
844.46	1114.10
844.77	1105.06
845.07	1138.95
845.37	1147.99
845.68	1136.69
845.98	1220.31
846.28	1188.67
846.58	1123.13
846.89	1134.43
847.19	1077.94
847.49	1163.81
847.79	1199.97
848.10	1143.47
848.40	1129.91
848.70	1132.17
849.00	1159.29
849.31	1064.38
849.61	1145.73
849.91	1186.41
850.21	1150.25
850.51	1134.43
850.82	1068.90
851.12	1075.68
851.42	1170.59
851.72	1163.81
852.02	1141.21
852.32	1159.29
852.63	1184.15
852.93	1177.37
853.23	1145.73
853.53	1150.25
853.83	1181.89
854.13	1181.89
854.43	1188.67
854.74	1138.95
855.04	1118.61
855.34	1166.07
855.64	1093.76
855.94	1157.03
856.24	1163.81
856.54	1093.76
856.84	1147.99
857.14	1206.75
857.44	1152.51
857.74	1132.17
858.05	1181.89
858.35	1172.85
858.65	1195.45
858.95	1127.65
859.25	1118.61
859.55	1152.51
859.85	1170.59
860.15	1098.28
860.45	1152.51
860.75	1116.35
861.05	1080.20
861.35	1132.17
861.65	1123.13
861.95	1202.23
862.25	1111.84
862.55	1256.46
862.85	1154.77
863.15	1143.47
863.45	1109.58
863.75	1157.03
864.05	1143.47
864.35	1150.25
864.64	1184.15
864.94	1114.10
865.24	1059.86
865.54	1150.25
865.84	1195.45
866.14	1091.50
866.44	1136.69
866.74	1138.95
867.04	1197.71
867.34	1195.45
867.64	1086.98
867.93	1242.91
868.23	1222.57
868.53	1181.89
868.83	1132.17
869.13	1152.51
869.43	1245.16
869.73	1102.80
870.02	1236.13
870.32	1181.89
870.62	1114.10
870.92	1134.43
871.22	1132.17
871.51	1141.21
871.81	1093.76
872.11	1141.21
872.41	1170.59
872.71	1096.02
873.00	1197.71
873.30	1177.37
873.60	1163.81
873.90	1161.55
874.19	1154.77
874.49	1102.80
874.79	1068.90
875.09	1127.65
875.38	1172.85
875.68	1143.47
875.98	1141.21
876.28	1195.45
876.57	1136.69
876.87	1136.69
877.17	1136.69
