174.03	759.30
174.41	759.30
174.78	759.30
175.16	729.92
175.54	732.18
175.92	790.94
176.30	793.20
176.67	738.96
177.05	777.38
177.43	761.56
177.81	822.58
178.19	786.42
178.56	879.07
178.94	870.03
179.32	901.67
179.70	867.77
180.08	910.71
180.45	917.49
180.83	885.85
181.21	973.99
181.59	996.58
181.96	1057.60
182.34	1012.40
182.72	1057.60
183.10	1035.00
183.48	1136.69
183.85	1105.06
184.23	1125.39
184.61	1044.04
184.99	1082.46
185.36	1152.51
185.74	1102.80
186.12	1188.67
186.50	1109.58
186.87	1161.55
187.25	1143.47
187.63	1141.21
188.01	1114.10
188.38	1111.84
188.76	1161.55
189.14	1161.55
189.52	1120.87
189.89	1175.11
190.27	1181.89
190.65	1109.58
191.02	1195.45
191.40	1116.35
191.78	1222.57
192.16	1132.17
192.53	1179.63
192.91	1170.59
193.29	1086.98
193.66	1186.41
194.04	1141.21
194.42	1204.49
194.79	1100.54
195.17	1123.13
195.55	1195.45
195.93	1172.85
196.30	1206.75
196.68	1163.81
197.06	1136.69
197.43	1147.99
197.81	1111.84
198.19	1098.28
198.56	1089.24
198.94	1179.63
199.32	1141.21
199.69	1096.02
200.07	1143.47
200.45	1116.35
200.82	1147.99
201.20	1172.85
201.58	1109.58
201.95	1109.58
202.33	1168.33
202.71	1105.06
203.08	1141.21
203.46	1136.69
203.84	1132.17
204.21	1157.03
204.59	1163.81
204.96	1175.11
205.34	1091.50
205.72	1145.73
206.09	1197.71
206.47	1145.73
206.85	1188.67
207.22	1118.61
207.60	1125.39
207.97	1141.21
208.35	1204.49
208.73	1127.65
209.10	1150.25
209.48	1166.07
209.85	1154.77
210.23	1154.77
210.61	1123.13
210.98	1150.25
211.36	1138.95
211.73	1157.03
212.11	1190.93
212.49	1190.93
212.86	1147.99
213.24	1152.51
213.61	1161.55
213.99	1145.73
214.37	1147.99
214.74	1145.73
215.12	1190.93
215.49	1152.51
215.87	1181.89
216.24	1213.53
216.62	1199.97
216.99	1161.55
217.37	1204.49
217.75	1125.39
218.12	1111.84
218.50	1163.81
218.87	1132.17
219.25	1188.67
219.62	1157.03
220.00	1202.23
220.37	1152.51
220.75	1172.85
221.12	1138.95
221.50	1166.07
221.87	1188.67
222.25	1172.85
222.63	1080.20
223.00	1120.87
223.38	1175.11
223.75	1188.67
224.13	1077.94
224.50	1199.97
224.88	1190.93
225.25	1206.75
225.63	1161.55
226.00	1150.25
226.38	1195.45
226.75	1240.65
227.13	1163.81
227.50	1157.03
227.88	1161.55
228.25	1143.47
228.63	1132.17
229.00	1120.87
229.37	1197.71
229.75	1107.32
230.12	1152.51
230.50	1215.79
230.87	1218.05
231.25	1186.41
231.62	1141.21
232.00	1120.87
232.37	1193.19
232.75	1181.89
233.12	1186.41
233.50	1199.97
233.87	1107.32
234.24	1159.29
234.62	1129.91
234.99	1141.21
235.37	1129.91
235.74	1147.99
236.12	1098.28
236.49	1209.01
236.86	1143.47
237.24	1188.67
237.61	1154.77
237.99	1197.71
238.36	1168.33
238.74	1163.81
239.11	1157.03
239.48	1170.59
239.86	1161.55
240.23	1224.83
240.61	1188.67
240.98	1204.49
241.35	1258.72
241.73	1145.73
242.10	1193.19
242.48	1163.81
242.85	1181.89
243.22	1218.05
243.60	1141.21
243.97	1100.54
244.34	1077.94
244.72	1193.19
245.09	1157.03
245.47	1159.29
245.84	1179.63
246.21	1163.81
246.59	1177.37
246.96	1209.01
247.33	1147.99
247.71	1186.41
248.08	1163.81
248.45	1197.71
248.83	1197.71
249.20	1206.75
249.57	1186.41
249.95	1109.58
250.32	1152.51
250.69	1152.51
251.07	1163.81
251.44	1177.37
251.81	1163.81
252.19	1143.47
252.56	1206.75
252.93	1220.31
253.31	1170.59
253.68	1227.09
254.05	1145.73
254.43	1190.93
254.80	1209.01
255.17	1202.23
255.55	1177.37
255.92	1199.97
256.29	1145.73
256.66	1247.42
257.04	1120.87
257.41	1179.63
257.78	1179.63
258.16	1102.80
258.53	1220.31
258.90	1161.55
259.27	1195.45
259.65	1238.39
260.02	1181.89
260.39	1209.01
260.76	1215.79
261.14	1159.29
261.51	1222.57
261.88	1143.47
262.25	1166.07
262.63	1170.59
263.00	1202.23
263.37	1170.59
263.74	1118.61
264.12	1213.53
264.49	1193.19
264.86	1143.47
265.23	1147.99
265.61	1143.47
265.98	1175.11
266.35	1188.67
266.72	1159.29
267.09	1220.31
267.47	1188.67
267.84	1190.93
268.21	1236.13
268.58	1181.89
268.95	1166.07
269.33	1204.49
269.70	1190.93
270.07	1172.85
270.44	1170.59
270.81	1184.15
271.19	1218.05
271.56	1211.27
271.93	1240.65
272.30	1161.55
272.67	1154.77
273.05	1195.45
273.42	1118.61
273.79	1179.63
274.16	1143.47
274.53	1163.81
274.90	1175.11
275.28	1206.75
275.65	1161.55
276.02	1238.39
276.39	1154.77
276.76	1231.61
277.13	1204.49
277.50	1263.24
277.88	1227.09
278.25	1177.37
278.62	1181.89
278.99	1177.37
279.36	1206.75
279.73	1211.27
280.10	1154.77
280.47	1157.03
280.85	1179.63
281.22	1190.93
281.59	1220.31
281.96	1102.80
282.33	1297.14
282.70	1179.63
283.07	1181.89
283.44	1238.39
283.81	1227.09
284.18	1175.11
284.56	1224.83
284.93	1206.75
285.30	1186.41
285.67	1263.24
286.04	1242.91
286.41	1211.27
286.78	1265.50
287.15	1197.71
287.52	1274.54
287.89	1270.02
288.26	1175.11
288.63	1231.61
289.00	1247.42
289.37	1161.55
289.75	1206.75
290.12	1181.89
290.49	1211.27
290.86	1279.06
291.23	1190.93
291.60	1177.37
291.97	1166.07
292.34	1209.01
292.71	1249.68
293.08	1177.37
293.45	1197.71
293.82	1220.31
294.19	1247.42
294.56	1263.24
294.93	1260.98
295.30	1227.09
295.67	1254.20
296.04	1233.87
296.41	1186.41
296.78	1220.31
297.15	1236.13
297.52	1220.31
297.89	1240.65
298.26	1209.01
298.63	1240.65
299.00	1292.62
299.37	1172.85
299.74	1260.98
300.11	1222.57
300.48	1193.19
300.85	1215.79
301.22	1227.09
301.59	1197.71
301.96	1213.53
302.33	1272.28
302.70	1181.89
303.07	1141.21
303.43	1206.75
303.80	1270.02
304.17	1220.31
304.54	1222.57
304.91	1251.94
305.28	1229.35
305.65	1202.23
306.02	1181.89
306.39	1242.91
306.76	1231.61
307.13	1249.68
307.50	1179.63
307.87	1204.49
308.24	1337.82
308.60	1229.35
308.97	1224.83
309.34	1254.20
309.71	1258.72
310.08	1297.14
310.45	1233.87
310.82	1310.70
311.19	1236.13
311.56	1170.59
311.92	1274.54
312.29	1172.85
312.66	1245.16
313.03	1236.13
313.40	1231.61
313.77	1256.46
314.14	1251.94
314.51	1218.05
314.87	1258.72
315.24	1260.98
315.61	1240.65
315.98	1263.24
316.35	1211.27
316.72	1315.22
317.09	1224.83
317.45	1195.45
317.82	1249.68
318.19	1215.79
318.56	1272.28
318.93	1260.98
319.30	1218.05
319.66	1199.97
320.03	1292.62
320.40	1276.80
320.77	1218.05
321.14	1236.13
321.50	1236.13
321.87	1224.83
322.24	1260.98
322.61	1177.37
322.98	1285.84
323.34	1249.68
323.71	1233.87
324.08	1260.98
324.45	1258.72
324.82	1263.24
325.18	1272.28
325.55	1220.31
325.92	1274.54
326.29	1283.58
326.65	1213.53
327.02	1209.01
327.39	1297.14
327.76	1233.87
328.12	1272.28
328.49	1197.71
328.86	1285.84
329.23	1256.46
329.59	1294.88
329.96	1285.84
330.33	1297.14
330.70	1263.24
331.06	1310.70
331.43	1254.20
331.80	1238.39
332.17	1292.62
332.53	1405.61
332.90	1285.84
333.27	1213.53
333.63	1215.79
334.00	1292.62
334.37	1240.65
334.74	1233.87
335.10	1256.46
335.47	1351.38
335.84	1326.52
336.20	1285.84
336.57	1335.56
336.94	1276.80
337.30	1260.98
337.67	1281.32
338.04	1355.90
338.40	1328.78
338.77	1290.36
339.14	1240.65
339.50	1315.22
339.87	1290.36
340.24	1333.30
340.60	1297.14
340.97	1292.62
341.34	1267.76
341.70	1326.52
342.07	1290.36
342.44	1308.44
342.80	1335.56
343.17	1312.96
343.53	1233.87
343.90	1290.36
344.27	1351.38
344.63	1376.24
345.00	1285.84
345.37	1335.56
345.73	1335.56
346.10	1340.08
346.46	1331.04
346.83	1294.88
347.20	1292.62
347.56	1288.10
347.93	1326.52
348.29	1299.40
348.66	1331.04
349.03	1401.09
349.39	1333.30
349.76	1340.08
350.12	1333.30
350.49	1351.38
350.85	1324.26
351.22	1335.56
351.59	1331.04
351.95	1308.44
352.32	1407.87
352.68	1346.86
353.05	1394.31
353.41	1416.91
353.78	1371.72
354.14	1387.53
354.51	1385.27
354.88	1333.30
355.24	1301.66
355.61	1394.31
355.97	1371.72
356.34	1392.05
356.70	1423.69
357.07	1414.65
357.43	1410.13
357.80	1333.30
358.16	1328.78
358.53	1360.42
358.89	1489.23
359.26	1410.13
359.62	1360.42
359.99	1403.35
360.35	1371.72
360.72	1385.27
361.08	1392.05
361.45	1340.08
361.81	1455.33
362.18	1444.03
362.54	1459.85
362.91	1505.05
363.27	1392.05
363.63	1441.77
364.00	1543.46
364.36	1405.61
364.73	1534.42
365.09	1459.85
365.46	1383.01
365.82	1444.03
366.19	1473.41
366.55	1498.27
366.91	1403.35
367.28	1518.60
367.64	1568.32
368.01	1498.27
368.37	1468.89
368.74	1491.49
369.10	1557.02
369.46	1520.86
369.83	1597.70
370.19	1552.50
370.56	1572.84
370.92	1599.96
371.28	1609.00
371.65	1611.26
372.01	1624.82
372.38	1636.12
372.74	1604.48
373.10	1645.15
373.47	1654.19
373.83	1649.67
374.19	1712.95
374.56	1737.81
374.92	1717.47
375.29	1679.05
375.65	1787.52
376.01	1819.16
376.38	1787.52
376.74	1882.44
377.10	1841.76
377.47	1834.98
377.83	1981.87
378.19	1970.57
378.56	2011.25
378.92	2155.88
379.28	2079.04
379.65	2169.43
380.01	2212.37
380.37	2329.88
380.74	2411.24
381.10	2573.94
381.46	2623.66
381.83	2772.81
382.19	2946.82
382.55	2994.27
382.91	3163.76
383.28	3312.91
383.64	3516.29
384.00	3753.57
384.37	3988.60
384.73	4286.89
385.09	4530.95
385.45	4822.47
385.82	5292.52
386.18	5611.15
386.54	6072.16
386.91	6682.31
387.27	7100.38
387.63	8081.14
387.99	8424.64
388.36	9181.68
388.72	10024.60
389.08	10813.28
389.44	11696.87
389.80	12994.01
390.17	13857.26
390.53	15491.12
390.89	17201.81
391.25	17893.31
391.62	19251.47
391.98	21357.63
392.34	23667.17
392.70	25090.87
393.06	27163.13
393.43	29307.70
393.79	31138.16
394.15	32690.67
394.51	34900.78
394.87	37499.58
395.24	40283.69
395.60	43994.32
395.96	46721.94
396.32	49845.02
396.68	52075.47
397.04	55137.53
397.41	57731.82
397.77	59474.14
398.13	61849.22
398.49	63055.97
398.85	64750.84
399.21	65535.00
399.58	65535.00
399.94	65535.00
400.30	65535.00
400.66	65535.00
401.02	65535.00
401.38	65535.00
401.74	65535.00
402.11	65535.00
402.47	65535.00
402.83	65535.00
403.19	65535.00
403.55	65535.00
403.91	65535.00
404.27	65535.00
404.63	65535.00
404.99	65535.00
405.35	65535.00
405.72	65535.00
406.08	65535.00
406.44	65535.00
406.80	65535.00
407.16	65535.00
407.52	65535.00
407.88	65535.00
408.24	65535.00
408.60	65535.00
408.96	65535.00
409.32	65535.00
409.68	65535.00
410.04	65535.00
410.40	65535.00
410.76	65535.00
411.13	65535.00
411.49	65535.00
411.85	65535.00
412.21	65535.00
412.57	65535.00
412.93	65535.00
413.29	65535.00
413.65	65535.00
414.01	65535.00
414.37	65535.00
414.73	65535.00
415.09	65535.00
415.45	65535.00
415.81	65535.00
416.17	65306.76
416.53	64199.44
416.89	63103.43
417.25	61973.51
417.61	60226.66
417.97	59582.61
418.33	58271.91
418.69	57243.69
419.05	56039.20
419.41	54891.21
419.77	54093.49
420.12	51960.22
420.48	49591.92
420.84	48489.12
421.20	46385.22
421.56	43858.73
421.92	43537.84
422.28	40656.56
422.64	38475.82
423.00	36568.53
423.36	35741.43
423.72	33133.59
424.08	31208.22
424.44	29483.97
424.80	28094.18
425.16	27239.96
425.51	26012.88
425.87	25165.44
426.23	22747.42
426.59	21701.12
426.95	20962.16
427.31	19870.66
427.67	19411.92
428.03	17985.97
428.39	17778.06
428.74	16047.04
429.10	15416.54
429.46	14736.34
429.82	13974.77
430.18	13274.23
430.54	12978.19
430.90	12700.23
431.26	12004.20
431.61	11256.20
431.97	10811.02
432.33	10630.23
432.69	10463.00
433.05	9798.61
433.41	9434.78
433.76	9055.13
434.12	8912.76
434.48	8268.71
434.84	8108.26
435.20	7760.25
435.55	7455.17
435.91	7188.51
436.27	7104.90
436.63	6637.11
436.99	6562.54
437.34	6291.36
437.70	6191.93
438.06	5848.43
438.42	5608.89
438.78	5333.19
439.13	5364.83
439.49	4930.94
439.85	4802.13
440.21	4723.04
440.56	4476.72
440.92	4438.30
441.28	4295.93
441.64	4151.30
441.99	3995.38
442.35	3909.50
442.71	3728.72
443.07	3697.08
443.42	3615.72
443.78	3495.95
444.14	3471.10
444.50	3249.63
444.85	3337.77
445.21	3089.18
445.57	3170.54
445.93	2969.41
446.28	2949.08
446.64	2917.44
447.00	2881.28
447.35	2840.60
447.71	2818.00
448.07	2955.85
448.42	2695.97
448.78	2512.93
449.14	2592.02
449.49	2456.43
449.85	2555.86
450.21	2474.51
450.56	2318.58
450.92	2370.56
451.28	2259.83
451.63	2291.47
451.99	2210.11
452.35	2248.53
452.70	2112.94
453.06	2099.38
453.42	2072.26
453.77	2058.70
454.13	2013.51
454.49	1970.57
454.84	1963.79
455.20	1927.63
455.55	1893.74
455.91	1909.55
456.27	1864.36
456.62	1868.88
456.98	1819.16
457.33	1783.00
457.69	1710.69
458.05	1767.19
458.40	1746.85
458.76	1629.34
459.11	1656.45
459.47	1712.95
459.83	1529.90
460.18	1604.48
460.54	1645.15
460.89	1642.89
461.25	1554.76
461.60	1656.45
461.96	1561.54
462.31	1505.05
462.67	1509.56
463.03	1507.30
463.38	1588.66
463.74	1532.16
464.09	1480.19
464.45	1480.19
464.80	1466.63
465.16	1480.19
465.51	1532.16
465.87	1552.50
466.22	1475.67
466.58	1559.28
466.93	1457.59
467.29	1511.82
467.64	1416.91
468.00	1421.43
468.35	1430.47
468.71	1491.49
469.06	1428.21
469.42	1405.61
469.77	1342.34
470.13	1430.47
470.48	1333.30
470.84	1407.87
471.19	1450.81
471.54	1421.43
471.90	1462.11
472.25	1301.66
472.61	1419.17
472.96	1432.73
473.32	1401.09
473.67	1414.65
474.03	1371.72
474.38	1355.90
474.73	1358.16
475.09	1362.68
475.44	1340.08
475.80	1385.27
476.15	1337.82
476.50	1387.53
476.86	1378.49
477.21	1367.20
477.57	1355.90
477.92	1351.38
478.27	1308.44
478.63	1312.96
478.98	1308.44
479.34	1360.42
479.69	1265.50
480.04	1308.44
480.40	1416.91
480.75	1342.34
481.10	1274.54
481.46	1319.74
481.81	1337.82
482.16	1315.22
482.52	1360.42
482.87	1326.52
483.22	1274.54
483.58	1344.60
483.93	1387.53
484.28	1303.92
484.64	1294.88
484.99	1324.26
485.34	1281.32
485.70	1380.75
486.05	1299.40
486.40	1333.30
486.76	1312.96
487.11	1249.68
487.46	1233.87
487.81	1319.74
488.17	1267.76
488.52	1353.64
488.87	1324.26
489.23	1247.42
489.58	1276.80
489.93	1308.44
490.28	1326.52
490.64	1258.72
490.99	1281.32
491.34	1315.22
491.69	1267.76
492.05	1326.52
492.40	1290.36
492.75	1276.80
493.10	1254.20
493.46	1188.67
493.81	1236.13
494.16	1227.09
494.51	1260.98
494.86	1283.58
495.22	1256.46
495.57	1209.01
495.92	1254.20
496.27	1265.50
496.62	1231.61
496.98	1245.16
497.33	1301.66
497.68	1272.28
498.03	1247.42
498.38	1249.68
498.74	1227.09
499.09	1315.22
499.44	1238.39
499.79	1260.98
500.14	1211.27
500.49	1308.44
500.85	1197.71
501.20	1285.84
501.55	1236.13
501.90	1283.58
502.25	1299.40
502.60	1256.46
502.95	1231.61
503.30	1303.92
503.66	1242.91
504.01	1238.39
504.36	1233.87
504.71	1258.72
505.06	1276.80
505.41	1222.57
505.76	1233.87
506.11	1251.94
506.46	1199.97
506.82	1251.94
507.17	1251.94
507.52	1231.61
507.87	1209.01
508.22	1190.93
508.57	1172.85
508.92	1249.68
509.27	1249.68
509.62	1195.45
509.97	1195.45
510.32	1186.41
510.67	1283.58
511.02	1249.68
511.37	1236.13
511.72	1177.37
512.07	1224.83
512.42	1195.45
512.77	1220.31
513.12	1249.68
513.47	1236.13
513.82	1209.01
514.17	1202.23
514.52	1247.42
514.87	1247.42
515.22	1213.53
515.57	1272.28
515.92	1310.70
516.27	1215.79
516.62	1312.96
516.97	1249.68
517.32	1267.76
517.67	1267.76
518.02	1227.09
518.37	1202.23
518.72	1265.50
519.07	1240.65
519.42	1229.35
519.77	1281.32
520.12	1222.57
520.47	1276.80
520.82	1303.92
521.17	1281.32
521.52	1242.91
521.87	1263.24
522.22	1308.44
522.56	1265.50
522.91	1260.98
523.26	1272.28
523.61	1276.80
523.96	1227.09
524.31	1204.49
524.66	1260.98
525.01	1279.06
525.36	1229.35
525.71	1211.27
526.05	1285.84
526.40	1308.44
526.75	1279.06
527.10	1231.61
527.45	1215.79
527.80	1254.20
528.15	1288.10
528.49	1270.02
528.84	1260.98
529.19	1202.23
529.54	1267.76
529.89	1233.87
530.24	1218.05
530.58	1263.24
530.93	1249.68
531.28	1272.28
531.63	1231.61
531.98	1326.52
532.33	1272.28
532.67	1306.18
533.02	1254.20
533.37	1229.35
533.72	1222.57
534.07	1331.04
534.41	1218.05
534.76	1213.53
535.11	1215.79
535.46	1233.87
535.80	1204.49
536.15	1258.72
536.50	1247.42
536.85	1222.57
537.19	1209.01
537.54	1224.83
537.89	1170.59
538.24	1281.32
538.58	1222.57
538.93	1245.16
539.28	1177.37
539.63	1211.27
539.97	1222.57
540.32	1199.97
540.67	1240.65
541.01	1206.75
541.36	1215.79
541.71	1285.84
542.06	1193.19
542.40	1181.89
542.75	1159.29
543.10	1209.01
543.44	1181.89
543.79	1199.97
544.14	1297.14
544.48	1134.43
544.83	1222.57
545.18	1224.83
545.52	1231.61
545.87	1145.73
546.22	1206.75
546.56	1274.54
546.91	1209.01
547.25	1224.83
547.60	1204.49
547.95	1168.33
548.29	1233.87
548.64	1179.63
548.99	1138.95
549.33	1166.07
549.68	1222.57
550.02	1134.43
550.37	1190.93
550.72	1220.31
551.06	1184.15
551.41	1218.05
551.75	1159.29
552.10	1177.37
552.45	1206.75
552.79	1177.37
553.14	1186.41
553.48	1222.57
553.83	1109.58
554.17	1224.83
554.52	1116.35
554.87	1202.23
555.21	1215.79
555.56	1179.63
555.90	1172.85
556.25	1242.91
556.59	1184.15
556.94	1204.49
557.28	1206.75
557.63	1247.42
557.97	1145.73
558.32	1136.69
558.66	1136.69
559.01	1236.13
559.35	1157.03
559.70	1222.57
560.04	1177.37
560.39	1236.13
560.73	1199.97
561.08	1141.21
561.42	1168.33
561.77	1168.33
562.11	1220.31
562.46	1170.59
562.80	1163.81
563.14	1197.71
563.49	1184.15
563.83	1175.11
564.18	1279.06
564.52	1238.39
564.87	1249.68
565.21	1245.16
565.56	1114.10
565.90	1152.51
566.24	1229.35
566.59	1175.11
566.93	1227.09
567.28	1209.01
567.62	1168.33
567.96	1181.89
568.31	1179.63
568.65	1224.83
569.00	1233.87
569.34	1177.37
569.68	1276.80
570.03	1211.27
570.37	1168.33
570.71	1215.79
571.06	1116.35
571.40	1199.97
571.74	1161.55
572.09	1175.11
572.43	1172.85
572.78	1220.31
573.12	1143.47
573.46	1163.81
573.80	1202.23
574.15	1197.71
574.49	1224.83
574.83	1098.28
575.18	1202.23
575.52	1170.59
575.86	1157.03
576.21	1181.89
576.55	1186.41
576.89	1150.25
577.24	1175.11
577.58	1211.27
577.92	1114.10
578.26	1123.13
578.61	1157.03
578.95	1199.97
579.29	1206.75
579.63	1163.81
579.98	1233.87
580.32	1211.27
580.66	1163.81
581.00	1166.07
581.35	1143.47
581.69	1190.93
582.03	1143.47
582.37	1177.37
582.72	1202.23
583.06	1145.73
583.40	1281.32
583.74	1145.73
584.08	1143.47
584.43	1136.69
584.77	1204.49
585.11	1233.87
585.45	1181.89
585.79	1188.67
586.13	1181.89
586.48	1181.89
586.82	1184.15
587.16	1166.07
587.50	1222.57
587.84	1195.45
588.18	1251.94
588.53	1154.77
588.87	1213.53
589.21	1159.29
589.55	1233.87
589.89	1105.06
590.23	1166.07
590.57	1220.31
590.92	1181.89
591.26	1129.91
591.60	1213.53
591.94	1190.93
592.28	1159.29
592.62	1136.69
592.96	1170.59
593.30	1168.33
593.64	1161.55
593.98	1157.03
594.32	1134.43
594.67	1157.03
595.01	1147.99
595.35	1145.73
595.69	1202.23
596.03	1190.93
596.37	1213.53
596.71	1134.43
597.05	1170.59
597.39	1177.37
597.73	1247.42
598.07	1209.01
598.41	1143.47
598.75	1206.75
599.09	1190.93
599.43	1231.61
599.77	1204.49
600.11	1215.79
600.45	1123.13
600.79	1172.85
601.13	1188.67
601.47	1136.69
601.81	1152.51
602.15	1199.97
602.49	1159.29
602.83	1134.43
603.17	1190.93
603.51	1177.37
603.85	1170.59
604.19	1163.81
604.53	1181.89
604.87	1127.65
605.21	1157.03
605.55	1157.03
605.89	1166.07
606.23	1231.61
606.56	1132.17
606.90	1161.55
607.24	1170.59
607.58	1163.81
607.92	1118.61
608.26	1123.13
608.60	1143.47
608.94	1204.49
609.28	1118.61
609.62	1129.91
609.95	1141.21
610.29	1159.29
610.63	1163.81
610.97	1150.25
611.31	1186.41
611.65	1204.49
611.99	1136.69
612.33	1154.77
612.66	1218.05
613.00	1163.81
613.34	1150.25
613.68	1159.29
614.02	1118.61
614.36	1157.03
614.69	1134.43
615.03	1166.07
615.37	1145.73
615.71	1127.65
616.05	1184.15
616.38	1175.11
616.72	1152.51
617.06	1224.83
617.40	1177.37
617.74	1220.31
618.07	1134.43
618.41	1161.55
618.75	1195.45
619.09	1161.55
619.42	1159.29
619.76	1215.79
620.10	1116.35
620.44	1120.87
620.77	1132.17
621.11	1145.73
621.45	1177.37
621.79	1157.03
622.12	1159.29
622.46	1161.55
622.80	1157.03
623.13	1170.59
623.47	1245.16
623.81	1152.51
624.15	1181.89
624.48	1175.11
624.82	1242.91
625.16	1116.35
625.49	1105.06
625.83	1123.13
626.17	1152.51
626.50	1147.99
626.84	1190.93
627.18	1145.73
627.51	1229.35
627.85	1157.03
628.19	1172.85
628.52	1120.87
628.86	1163.81
629.20	1161.55
629.53	1170.59
629.87	1265.50
630.20	1157.03
630.54	1179.63
630.88	1129.91
631.21	1170.59
631.55	1166.07
631.89	1152.51
632.22	1114.10
632.56	1129.91
632.89	1123.13
633.23	1168.33
633.56	1105.06
633.90	1193.19
634.24	1181.89
634.57	1154.77
634.91	1129.91
635.24	1177.37
635.58	1123.13
635.91	1263.24
636.25	1145.73
636.58	1195.45
636.92	1129.91
637.26	1134.43
637.59	1154.77
637.93	1152.51
638.26	1136.69
638.60	1202.23
638.93	1163.81
639.27	1206.75
639.60	1175.11
639.94	1247.42
640.27	1145.73
640.61	1163.81
640.94	1118.61
641.28	1184.15
641.61	1138.95
641.94	1163.81
642.28	1190.93
642.61	1132.17
642.95	1150.25
643.28	1179.63
643.62	1161.55
643.95	1177.37
644.29	1107.32
644.62	1134.43
644.95	1195.45
645.29	1177.37
645.62	1123.13
645.96	1118.61
646.29	1150.25
646.63	1245.16
646.96	1204.49
647.29	1170.59
647.63	1175.11
647.96	1152.51
648.29	1143.47
648.63	1127.65
648.96	1145.73
649.30	1222.57
649.63	1116.35
649.96	1188.67
650.30	1150.25
650.63	1179.63
650.96	1125.39
651.30	1166.07
651.63	1181.89
651.96	1154.77
652.30	1197.71
652.63	1215.79
652.96	1107.32
653.30	1202.23
653.63	1170.59
653.96	1114.10
654.30	1111.84
654.63	1127.65
654.96	1150.25
655.29	1177.37
655.63	1127.65
655.96	1186.41
656.29	1172.85
656.63	1154.77
656.96	1181.89
657.29	1163.81
657.62	1082.46
657.96	1166.07
658.29	1206.75
658.62	1170.59
658.95	1105.06
659.29	1143.47
659.62	1179.63
659.95	1188.67
660.28	1172.85
660.61	1186.41
660.95	1175.11
661.28	1186.41
661.61	1199.97
661.94	1145.73
662.27	1181.89
662.61	1202.23
662.94	1091.50
663.27	1157.03
663.60	1213.53
663.93	1204.49
664.27	1179.63
664.60	1138.95
664.93	1154.77
665.26	1096.02
665.59	1197.71
665.92	1145.73
666.25	1073.42
666.59	1138.95
666.92	1188.67
667.25	1064.38
667.58	1116.35
667.91	1209.01
668.24	1166.07
668.57	1197.71
668.90	1195.45
669.23	1141.21
669.57	1202.23
669.90	1116.35
670.23	1202.23
670.56	1107.32
670.89	1123.13
671.22	1147.99
671.55	1138.95
671.88	1170.59
672.21	1125.39
672.54	1163.81
672.87	1172.85
673.20	1175.11
673.53	1136.69
673.86	1150.25
674.19	1105.06
674.52	1199.97
674.85	1175.11
675.18	1134.43
675.51	1143.47
675.84	1114.10
676.17	1159.29
676.50	1138.95
676.83	1188.67
677.16	1179.63
677.49	1132.17
677.82	1134.43
678.15	1123.13
678.48	1166.07
678.81	1168.33
679.14	1190.93
679.47	1136.69
679.80	1154.77
680.13	1132.17
680.46	1159.29
680.79	1159.29
681.12	1093.76
681.45	1170.59
681.78	1134.43
682.11	1123.13
682.44	1138.95
682.77	1132.17
683.09	1141.21
683.42	1118.61
683.75	1224.83
684.08	1154.77
684.41	1120.87
684.74	1138.95
685.07	1177.37
685.40	1127.65
685.72	1157.03
686.05	1199.97
686.38	1175.11
686.71	1179.63
687.04	1141.21
687.37	1141.21
687.70	1175.11
688.02	1184.15
688.35	1177.37
688.68	1150.25
689.01	1166.07
689.34	1197.71
689.67	1170.59
689.99	1175.11
690.32	1154.77
690.65	1213.53
690.98	1163.81
691.30	1136.69
691.63	1215.79
691.96	1172.85
692.29	1143.47
692.62	1168.33
692.94	1134.43
693.27	1166.07
693.60	1152.51
693.93	1132.17
694.25	1129.91
694.58	1157.03
694.91	1181.89
695.24	1138.95
695.56	1129.91
695.89	1132.17
696.22	1105.06
696.54	1129.91
696.87	1098.28
697.20	1077.94
697.53	1120.87
697.85	1175.11
698.18	1175.11
698.51	1193.19
698.83	1125.39
699.16	1114.10
699.49	1136.69
699.81	1102.80
700.14	1127.65
700.47	1150.25
700.79	1152.51
701.12	1096.02
701.45	1238.39
701.77	1129.91
702.10	1195.45
702.42	1109.58
702.75	1193.19
703.08	1138.95
703.40	1152.51
703.73	1175.11
704.05	1222.57
704.38	1105.06
704.71	1195.45
705.03	1141.21
705.36	1166.07
705.68	1195.45
706.01	1134.43
706.34	1116.35
706.66	1166.07
706.99	1204.49
707.31	1116.35
707.64	1172.85
707.96	1118.61
708.29	1157.03
708.61	1150.25
708.94	1123.13
709.26	1152.51
709.59	1159.29
709.92	1134.43
710.24	1118.61
710.57	1091.50
710.89	1123.13
711.22	1120.87
711.54	1159.29
711.87	1161.55
712.19	1118.61
712.51	1129.91
712.84	1168.33
713.16	1145.73
713.49	1152.51
713.81	1188.67
714.14	1147.99
714.46	1163.81
714.79	1168.33
715.11	1242.91
715.44	1172.85
715.76	1143.47
716.08	1118.61
716.41	1143.47
716.73	1175.11
717.06	1188.67
717.38	1152.51
717.70	1181.89
718.03	1179.63
718.35	1129.91
718.68	1145.73
719.00	1127.65
719.32	1138.95
719.65	1175.11
719.97	1170.59
720.29	1134.43
720.62	1147.99
720.94	1209.01
721.27	1107.32
721.59	1125.39
721.91	1136.69
722.24	1157.03
722.56	1134.43
722.88	1168.33
723.21	1213.53
723.53	1080.20
723.85	1109.58
724.17	1197.71
724.50	1184.15
724.82	1227.09
725.14	1082.46
725.47	1129.91
725.79	1107.32
726.11	1073.42
726.43	1093.76
726.76	1143.47
727.08	1166.07
727.40	1179.63
727.72	1197.71
728.05	1157.03
728.37	1197.71
728.69	1096.02
729.01	1136.69
729.34	1132.17
729.66	1136.69
729.98	1247.42
730.30	1179.63
730.62	1134.43
730.95	1166.07
731.27	1190.93
731.59	1177.37
731.91	1093.76
732.23	1184.15
732.56	1188.67
732.88	1161.55
733.20	1120.87
733.52	1125.39
733.84	1141.21
734.16	1116.35
734.49	1100.54
734.81	1177.37
735.13	1145.73
735.45	1181.89
735.77	1170.59
736.09	1172.85
736.41	1109.58
736.73	1134.43
737.06	1152.51
737.38	1197.71
737.70	1177.37
738.02	1138.95
738.34	1209.01
738.66	1150.25
738.98	1136.69
739.30	1186.41
739.62	1193.19
739.94	1136.69
740.26	1147.99
740.58	1129.91
740.90	1175.11
741.23	1251.94
741.55	1109.58
741.87	1159.29
742.19	1116.35
742.51	1143.47
742.83	1204.49
743.15	1138.95
743.47	1152.51
743.79	1157.03
744.11	1172.85
744.43	1141.21
744.75	1129.91
745.07	1138.95
745.39	1186.41
745.71	1123.13
746.03	1141.21
746.35	1186.41
746.67	1150.25
746.98	1134.43
747.30	1181.89
747.62	1136.69
747.94	1107.32
748.26	1159.29
748.58	1118.61
748.90	1152.51
749.22	1141.21
749.54	1136.69
749.86	1150.25
750.18	1157.03
750.50	1109.58
750.82	1132.17
751.13	1143.47
751.45	1202.23
751.77	1120.87
752.09	1157.03
752.41	1179.63
752.73	1166.07
753.05	1125.39
753.36	1086.98
753.68	1105.06
754.00	1181.89
754.32	1132.17
754.64	1089.24
754.96	1127.65
755.28	1177.37
755.59	1179.63
755.91	1132.17
756.23	1159.29
756.55	1102.80
756.87	1125.39
757.18	1102.80
757.50	1093.76
757.82	1105.06
758.14	1114.10
758.45	1107.32
758.77	1114.10
759.09	1138.95
759.41	1168.33
759.73	1177.37
760.04	1075.68
760.36	1195.45
760.68	1107.32
760.99	1154.77
761.31	1066.64
761.63	1172.85
761.95	1152.51
762.26	1129.91
762.58	1123.13
762.90	1105.06
763.21	1150.25
763.53	1145.73
763.85	1109.58
764.17	1157.03
764.48	1215.79
764.80	1199.97
765.12	1152.51
765.43	1157.03
765.75	1175.11
766.07	1107.32
766.38	1168.33
766.70	1123.13
767.01	1166.07
767.33	1197.71
767.65	1120.87
767.96	1188.67
768.28	1125.39
768.60	1127.65
768.91	1107.32
769.23	1105.06
769.54	1107.32
769.86	1159.29
770.18	1143.47
770.49	1150.25
770.81	1147.99
771.12	1152.51
771.44	1150.25
771.75	1138.95
772.07	1134.43
772.38	1129.91
772.70	1138.95
773.02	1147.99
773.33	1184.15
773.65	1240.65
773.96	1157.03
774.28	1080.20
774.59	1166.07
774.91	1109.58
775.22	1175.11
775.54	1199.97
775.85	1141.21
776.17	1120.87
776.48	1125.39
776.80	1186.41
777.11	1107.32
777.43	1168.33
777.74	1120.87
778.05	1123.13
778.37	1211.27
778.68	1143.47
779.00	1193.19
779.31	1127.65
779.63	1179.63
779.94	1077.94
780.26	1059.86
780.57	1170.59
780.88	1143.47
781.20	1127.65
781.51	1134.43
781.83	1209.01
782.14	1062.12
782.45	1170.59
782.77	1168.33
783.08	1218.05
783.39	1116.35
783.71	1082.46
784.02	1145.73
784.34	1163.81
784.65	1136.69
784.96	1193.19
785.28	1109.58
785.59	1170.59
785.90	1145.73
786.22	1077.94
786.53	1161.55
786.84	1107.32
787.15	1181.89
787.47	1120.87
787.78	1204.49
788.09	1082.46
788.41	1168.33
788.72	1152.51
789.03	1077.94
789.35	1145.73
789.66	1136.69
789.97	1145.73
790.28	1127.65
790.60	1186.41
790.91	1157.03
791.22	1141.21
791.53	1236.13
791.84	1163.81
792.16	1116.35
792.47	1127.65
792.78	1111.84
793.09	1147.99
793.41	1143.47
793.72	1120.87
794.03	1114.10
794.34	1143.47
794.65	1107.32
794.96	1086.98
795.28	1168.33
795.59	1177.37
795.90	1204.49
796.21	1107.32
796.52	1181.89
796.83	1143.47
797.15	1093.76
797.46	1186.41
797.77	1141.21
798.08	1114.10
798.39	1138.95
798.70	1100.54
799.01	1166.07
799.32	1150.25
799.63	1172.85
799.95	1102.80
800.26	1102.80
800.57	1181.89
800.88	1206.75
801.19	1123.13
801.50	1132.17
801.81	1116.35
802.12	1159.29
802.43	1166.07
802.74	1227.09
803.05	1172.85
803.36	1120.87
803.67	1202.23
803.98	1172.85
804.29	1143.47
804.60	1125.39
804.91	1166.07
805.22	1132.17
805.53	1136.69
805.84	1195.45
806.15	1199.97
806.46	1143.47
806.77	1066.64
807.08	1143.47
807.39	1134.43
807.70	1159.29
808.01	1147.99
808.32	1120.87
808.63	1136.69
808.94	1138.95
809.25	1143.47
809.56	1172.85
809.87	1138.95
810.18	1100.54
810.49	1107.32
810.79	1152.51
811.10	1161.55
811.41	1206.75
811.72	1161.55
812.03	1145.73
812.34	1163.81
812.65	1111.84
812.96	1166.07
813.27	1127.65
813.57	1134.43
813.88	1134.43
814.19	1134.43
814.50	1109.58
814.81	1138.95
815.12	1170.59
815.42	1107.32
815.73	1175.11
816.04	1109.58
816.35	1141.21
816.66	1138.95
816.97	1134.43
817.27	1213.53
817.58	1111.84
817.89	1127.65
818.20	1147.99
818.50	1206.75
818.81	1197.71
819.12	1109.58
819.43	1141.21
819.73	1175.11
820.04	1132.17
820.35	1098.28
820.66	1184.15
820.96	1161.55
821.27	1093.76
821.58	1159.29
821.89	1186.41
822.19	1193.19
822.50	1129.91
822.81	1188.67
823.11	1127.65
823.42	1157.03
823.73	1136.69
824.03	1154.77
824.34	1154.77
824.65	1111.84
824.95	1134.43
825.26	1177.37
825.57	1118.61
825.87	1089.24
826.18	1150.25
826.49	1181.89
826.79	1116.35
827.10	1188.67
827.40	1143.47
827.71	1150.25
828.02	1145.73
828.32	1166.07
828.63	1150.25
828.93	1154.77
829.24	1152.51
829.55	1136.69
829.85	1168.33
830.16	1118.61
830.46	1147.99
830.77	1138.95
831.07	1129.91
831.38	1213.53
831.69	1143.47
831.99	1109.58
832.30	1190.93
832.60	1199.97
832.91	1152.51
833.21	1170.59
833.52	1102.80
833.82	1145.73
834.13	1111.84
834.43	1150.25
834.74	1089.24
835.04	1179.63
835.35	1186.41
835.65	1229.35
835.96	1213.53
836.26	1107.32
836.56	1177.37
836.87	1053.08
837.17	1100.54
837.48	1179.63
837.78	1195.45
838.09	1120.87
838.39	1114.10
838.69	1138.95
839.00	1111.84
839.30	1105.06
839.61	1175.11
839.91	1107.32
840.21	1184.15
840.52	1186.41
840.82	1159.29
841.13	1150.25
841.43	1136.69
841.73	1107.32
842.04	1154.77
842.34	1136.69
842.64	1125.39
842.95	1206.75
843.25	1161.55
843.55	1157.03
843.86	1188.67
844.16	1145.73
844.46	1179.63
844.77	1152.51
845.07	1138.95
845.37	1138.95
845.68	1181.89
845.98	1111.84
846.28	1154.77
846.58	1150.25
846.89	1141.21
847.19	1188.67
847.49	1170.59
847.79	1157.03
848.10	1188.67
848.40	1166.07
848.70	1118.61
849.00	1125.39
849.31	1091.50
849.61	1141.21
849.91	1184.15
850.21	1125.39
850.51	1229.35
850.82	1096.02
851.12	1114.10
851.42	1181.89
851.72	1172.85
852.02	1107.32
852.32	1163.81
852.63	1068.90
852.93	1134.43
853.23	1279.06
853.53	1091.50
853.83	1188.67
854.13	1132.17
854.43	1150.25
854.74	1118.61
855.04	1123.13
855.34	1143.47
855.64	1215.79
855.94	1190.93
856.24	1136.69
856.54	1163.81
856.84	1145.73
857.14	1114.10
857.44	1089.24
857.74	1188.67
858.05	1195.45
858.35	1186.41
858.65	1114.10
858.95	1111.84
859.25	1143.47
859.55	1195.45
859.85	1118.61
860.15	1161.55
860.45	1141.21
860.75	1163.81
861.05	1127.65
861.35	1168.33
861.65	1096.02
861.95	1150.25
862.25	1100.54
862.55	1166.07
862.85	1077.94
863.15	1188.67
863.45	1107.32
863.75	1127.65
864.05	1150.25
864.35	1184.15
864.64	1206.75
864.94	1161.55
865.24	1143.47
865.54	1098.28
865.84	1179.63
866.14	1098.28
866.44	1037.26
866.74	1152.51
867.04	1199.97
867.34	1159.29
867.64	1152.51
867.93	1170.59
868.23	1102.80
868.53	1134.43
868.83	1188.67
869.13	1107.32
869.43	1120.87
869.73	1163.81
870.02	1147.99
870.32	1143.47
870.62	1181.89
870.92	1175.11
871.22	1102.80
871.51	1116.35
871.81	1197.71
872.11	1152.51
872.41	1129.91
872.71	1247.42
873.00	1138.95
873.30	1129.91
873.60	1132.17
873.90	1123.13
874.19	1138.95
874.49	1132.17
874.79	1114.10
875.09	1163.81
875.38	1125.39
875.68	1145.73
875.98	1145.73
876.28	1125.39
876.57	1107.32
876.87	1107.32
877.17	1107.32
