300.47	2605.00
301.26	2608.00
302.04	2608.00
302.82	2613.00
303.60	2606.00
304.38	2611.00
305.17	2609.00
305.95	2603.00
306.73	2609.00
307.51	2609.00
308.29	2608.00
309.08	2609.00
309.86	2605.00
310.64	2610.00
311.42	2613.00
312.20	2612.00
312.98	2609.00
313.76	2611.00
314.55	2609.00
315.33	2611.00
316.11	2611.00
316.89	2609.00
317.67	2613.00
318.45	2608.00
319.23	2616.00
320.01	2612.00
320.79	2609.00
321.57	2608.00
322.35	2613.00
323.13	2612.00
323.91	2617.00
324.69	2612.00
325.47	2609.00
326.25	2615.00
327.03	2612.00
327.81	2610.00
328.59	2617.00
329.37	2616.00
330.15	2616.00
330.93	2613.00
331.71	2609.00
332.49	2619.00
333.27	2617.00
334.05	2618.00
334.83	2617.00
335.61	2617.00
336.39	2617.00
337.17	2620.00
337.95	2614.00
338.73	2622.00
339.51	2622.00
340.29	2626.00
341.07	2628.00
341.84	2626.00
342.62	2627.00
343.40	2632.00
344.18	2632.00
344.96	2633.00
345.74	2633.00
346.52	2640.00
347.29	2640.00
348.07	2645.00
348.85	2640.00
349.63	2650.00
350.41	2651.00
351.18	2655.00
351.96	2656.00
352.74	2659.00
353.52	2661.00
354.30	2671.00
355.07	2666.00
355.85	2681.00
356.63	2679.00
357.41	2686.00
358.18	2689.00
358.96	2695.00
359.74	2706.00
360.52	2701.00
361.29	2707.00
362.07	2712.00
362.85	2720.00
363.62	2729.00
364.40	2733.00
365.18	2739.00
365.95	2748.00
366.73	2750.00
367.51	2766.00
368.28	2771.00
369.06	2780.00
369.84	2784.00
370.61	2799.00
371.39	2810.00
372.17	2813.00
372.94	2820.00
373.72	2834.00
374.49	2840.00
375.27	2857.00
376.05	2870.00
376.82	2880.00
377.60	2892.00
378.37	2903.00
379.15	2919.00
379.92	2925.00
380.70	2944.00
381.47	2951.00
382.25	2964.00
383.02	2992.00
383.80	3000.00
384.58	3028.00
385.35	3035.00
386.13	3055.00
386.90	3073.00
387.67	3088.00
388.45	3097.00
389.22	3128.00
390.00	3136.00
390.77	3167.00
391.55	3172.00
392.32	3204.00
393.10	3207.00
393.87	3238.00
394.65	3269.00
395.42	3279.00
396.19	3299.00
396.97	3325.00
397.74	3342.00
398.52	3366.00
399.29	3384.00
400.06	3411.00
400.84	3432.00
401.61	3467.00
402.38	3477.00
403.16	3517.00
403.93	3522.00
404.70	3557.00
405.48	3567.00
406.25	3608.00
407.02	3626.00
407.80	3656.00
408.57	3691.00
409.34	3713.00
410.12	3727.00
410.89	3757.00
411.66	3771.00
412.43	3815.00
413.21	3839.00
413.98	3869.00
414.75	3882.00
415.52	3909.00
416.30	3970.00
417.07	3984.00
417.84	4015.00
418.61	4053.00
419.39	4075.00
420.16	4107.00
420.93	4130.00
421.70	4156.00
422.47	4204.00
423.24	4233.00
424.02	4282.00
424.79	4310.00
425.56	4347.00
426.33	4385.00
427.10	4440.00
427.87	4449.00
428.64	4510.00
429.42	4545.00
430.19	4580.00
430.96	4601.00
431.73	4672.00
432.50	4714.00
433.27	4764.00
434.04	4813.00
434.81	4850.00
435.58	4915.00
436.35	4954.00
437.12	5018.00
437.89	5039.00
438.67	5102.00
439.44	5149.00
440.21	5231.00
440.98	5278.00
441.75	5333.00
442.52	5363.00
443.29	5417.00
444.06	5513.00
444.83	5574.00
445.60	5630.00
446.37	5719.00
447.13	5744.00
447.90	5826.00
448.67	5877.00
449.44	5963.00
450.21	6048.00
450.98	6102.00
451.75	6192.00
452.52	6224.00
453.29	6293.00
454.06	6413.00
454.83	6499.00
455.60	6564.00
456.37	6635.00
457.13	6701.00
457.90	6801.00
458.67	6892.00
459.44	6961.00
460.21	7059.00
460.98	7137.00
461.75	7215.00
462.51	7328.00
463.28	7403.00
464.05	7509.00
464.82	7613.00
465.59	7677.00
466.35	7807.00
467.12	7862.00
467.89	7989.00
468.66	8068.00
469.43	8217.00
470.19	8299.00
470.96	8396.00
471.73	8464.00
472.50	8628.00
473.26	8755.00
474.03	8849.00
474.80	8939.00
475.56	9048.00
476.33	9203.00
477.10	9277.00
477.87	9394.00
478.63	9518.00
479.40	9630.00
480.17	9775.00
480.93	9832.00
481.70	9935.00
482.47	10078.00
483.23	10241.00
484.00	10358.00
484.76	10506.00
485.53	10625.00
486.30	10710.00
487.06	10856.00
487.83	11018.00
488.60	11180.00
489.36	11323.00
490.13	11391.00
490.89	11567.00
491.66	11664.00
492.42	11828.00
493.19	11990.00
493.96	12106.00
494.72	12276.00
495.49	12368.00
496.25	12552.00
497.02	12683.00
497.78	12848.00
498.55	12948.00
499.31	13100.00
500.08	13262.00
500.84	13438.00
501.61	13569.00
502.37	13711.00
503.14	13846.00
503.90	14011.00
504.67	14153.00
505.43	14332.00
506.20	14512.00
506.96	14619.00
507.72	14814.00
508.49	14938.00
509.25	15126.00
510.02	15294.00
510.78	15503.00
511.54	15656.00
512.31	15904.00
513.07	15998.00
513.84	16167.00
514.60	16336.00
515.36	16534.00
516.13	16720.00
516.89	16806.00
517.65	16924.00
518.42	17048.00
519.18	17234.00
519.94	17390.00
520.71	17563.00
521.47	17772.00
522.23	17887.00
523.00	18086.00
523.76	18277.00
524.52	18517.00
525.28	18627.00
526.05	18854.00
526.81	18960.00
527.57	19214.00
528.33	19361.00
529.10	19532.00
529.86	19718.00
530.62	19945.00
531.38	20092.00
532.15	20276.00
532.91	20496.00
533.67	20594.00
534.43	20749.00
535.19	20922.00
535.96	21101.00
536.72	21299.00
537.48	21445.00
538.24	21582.00
539.00	21779.00
539.76	22071.00
540.53	22343.00
541.29	22496.00
542.05	22676.00
542.81	22833.00
543.57	23049.00
544.33	23202.00
545.09	23432.00
545.85	23603.00
546.61	23727.00
547.38	23908.00
548.14	24057.00
548.90	24317.00
549.66	24531.00
550.42	24760.00
551.18	24976.00
551.94	25146.00
552.70	25265.00
553.46	25514.00
554.22	25671.00
554.98	25841.00
555.74	25985.00
556.50	26130.00
557.26	26400.00
558.02	26639.00
558.78	26879.00
559.54	27038.00
560.30	27306.00
561.06	27485.00
561.82	27606.00
562.58	27952.00
563.34	28182.00
564.10	28304.00
564.86	28502.00
565.61	28621.00
566.37	28884.00
567.13	29084.00
567.89	29299.00
568.65	29504.00
569.41	29658.00
570.17	29842.00
570.93	30003.00
571.69	30168.00
572.44	30412.00
573.20	30547.00
573.96	30728.00
574.72	30937.00
575.48	31152.00
576.24	31363.00
576.99	31578.00
577.75	31802.00
578.51	31986.00
579.27	32212.00
580.03	32391.00
580.78	32591.00
581.54	32895.00
582.30	33080.00
583.06	33210.00
583.82	33416.00
584.57	33698.00
585.33	33854.00
586.09	34002.00
586.84	34113.00
587.60	34169.00
588.36	34274.00
589.12	34456.00
589.87	34691.00
590.63	34896.00
591.39	35029.00
592.14	35246.00
592.90	35444.00
593.66	35727.00
594.41	36003.00
595.17	36243.00
595.93	36309.00
596.68	36315.00
597.44	36503.00
598.20	36721.00
598.95	37003.00
599.71	37152.00
600.46	37323.00
601.22	37441.00
601.98	37594.00
602.73	38004.00
603.49	38242.00
604.24	38526.00
605.00	38672.00
605.76	38947.00
606.51	39140.00
607.27	39270.00
608.02	39512.00
608.78	39737.00
609.53	39939.00
610.29	40153.00
611.04	40461.00
611.80	40718.00
612.55	40850.00
613.31	41178.00
614.06	41411.00
614.82	41633.00
615.57	41897.00
616.33	42019.00
617.08	42298.00
617.84	42393.00
618.59	42392.00
619.35	42479.00
620.10	42522.00
620.85	42556.00
621.61	42624.00
622.36	42738.00
623.12	42676.00
623.87	42880.00
624.62	42962.00
625.38	43219.00
626.13	43264.00
626.89	43556.00
627.64	43731.00
628.39	43731.00
629.15	43867.00
629.90	43818.00
630.65	43854.00
631.41	43810.00
632.16	43948.00
632.91	43803.00
633.67	43817.00
634.42	43742.00
635.17	43997.00
635.92	44404.00
636.68	44799.00
637.43	45447.00
638.18	45967.00
638.94	46409.00
639.69	46842.00
640.44	47180.00
641.19	47655.00
641.95	47980.00
642.70	48333.00
643.45	48582.00
644.20	48815.00
644.95	49003.00
645.71	49098.00
646.46	49264.00
647.21	49464.00
647.96	49531.00
648.71	49711.00
649.47	49941.00
650.22	49881.00
650.97	50010.00
651.72	50089.00
652.47	50190.00
653.22	50385.00
653.97	50537.00
654.73	50710.00
655.48	50850.00
656.23	51011.00
656.98	51254.00
657.73	51512.00
658.48	51499.00
659.23	51531.00
659.98	51562.00
660.73	51629.00
661.48	51760.00
662.23	51908.00
662.99	51837.00
663.74	51960.00
664.49	52194.00
665.24	52632.00
665.99	53118.00
666.74	53210.00
667.49	53307.00
668.24	53288.00
668.99	53509.00
669.74	53716.00
670.49	53778.00
671.24	54016.00
671.99	54141.00
672.74	54277.00
673.48	54434.00
674.23	54560.00
674.98	54589.00
675.73	54654.00
676.48	54757.00
677.23	54898.00
677.98	54841.00
678.73	54957.00
679.48	54959.00
680.23	55052.00
680.98	55144.00
681.73	55114.00
682.47	55248.00
683.22	55181.00
683.97	55203.00
684.72	55280.00
685.47	55396.00
686.22	55568.00
686.97	55697.00
687.71	55926.00
688.46	56176.00
689.21	56283.00
689.96	56298.00
690.71	56299.00
691.45	56362.00
692.20	56589.00
692.95	56525.00
693.70	56626.00
694.44	56541.00
695.19	56603.00
695.94	56769.00
696.69	56829.00
697.43	56893.00
698.18	56998.00
698.93	57110.00
699.68	57119.00
700.42	57139.00
701.17	57119.00
701.92	57237.00
702.66	57388.00
703.41	57432.00
704.16	57449.00
704.90	57446.00
705.65	57437.00
706.40	57460.00
707.14	57545.00
707.89	57521.00
708.64	57622.00
709.38	57646.00
710.13	57547.00
710.88	57665.00
711.62	57672.00
712.37	57767.00
713.11	57867.00
713.86	57903.00
714.61	57943.00
715.35	57816.00
716.10	57700.00
716.84	57557.00
717.59	57525.00
718.33	57275.00
719.08	57141.00
719.83	57043.00
720.57	56971.00
721.32	56877.00
722.06	56853.00
722.81	56750.00
723.55	56814.00
724.30	56798.00
725.04	56959.00
725.79	56939.00
726.53	56993.00
727.28	56935.00
728.02	56847.00
728.76	56968.00
729.51	56916.00
730.25	57129.00
731.00	57077.00
731.74	56953.00
732.49	56994.00
733.23	56955.00
733.97	56974.00
734.72	56918.00
735.46	56993.00
736.21	56986.00
736.95	56829.00
737.69	56849.00
738.44	56974.00
739.18	57012.00
739.92	56954.00
740.67	57040.00
741.41	57061.00
742.15	57105.00
742.90	57332.00
743.64	57399.00
744.38	57475.00
745.13	57283.00
745.87	57286.00
746.61	57399.00
747.36	57508.00
748.10	57530.00
748.84	57301.00
749.58	57224.00
750.33	57212.00
751.07	57206.00
751.81	57232.00
752.55	57202.00
753.30	57133.00
754.04	57017.00
754.78	56808.00
755.52	56571.00
756.27	56404.00
757.01	56461.00
757.75	56379.00
758.49	56409.00
759.23	56195.00
759.97	56094.00
760.72	56104.00
761.46	56056.00
762.20	56048.00
762.94	55972.00
763.68	55819.00
764.42	55726.00
765.16	55781.00
765.91	55742.00
766.65	55720.00
767.39	55742.00
768.13	55667.00
768.87	55633.00
769.61	55668.00
770.35	55664.00
771.09	55528.00
771.83	55397.00
772.57	55495.00
773.31	55440.00
774.05	55572.00
774.80	55530.00
775.54	55508.00
776.28	55330.00
777.02	55242.00
777.76	55059.00
778.50	54995.00
779.24	54769.00
779.98	54529.00
780.72	54461.00
781.46	54321.00
782.20	54421.00
782.93	54511.00
783.67	54419.00
784.41	54327.00
785.15	54266.00
785.89	53862.00
786.63	53809.00
787.37	53662.00
788.11	53366.00
788.85	53228.00
789.59	53000.00
790.33	53085.00
791.07	52929.00
791.81	52809.00
792.54	52580.00
793.28	52315.00
794.02	52194.00
794.76	51873.00
795.50	51714.00
796.24	51550.00
796.97	51371.00
797.71	51187.00
798.45	51103.00
799.19	51084.00
799.93	50931.00
800.67	50807.00
801.40	50812.00
802.14	50748.00
802.88	50775.00
803.62	50841.00
804.35	50811.00
805.09	50617.00
805.83	50496.00
806.57	50443.00
807.30	50610.00
808.04	50650.00
808.78	50612.00
809.52	50524.00
810.25	50404.00
810.99	50255.00
811.73	50180.00
812.46	50038.00
813.20	49965.00
813.94	49785.00
814.68	49672.00
815.41	49608.00
816.15	49395.00
816.88	49375.00
817.62	49290.00
818.36	49016.00
819.09	48838.00
819.83	48635.00
820.57	48578.00
821.30	48438.00
822.04	48343.00
822.77	48145.00
823.51	48013.00
824.25	47962.00
824.98	47914.00
825.72	47811.00
826.45	47869.00
827.19	47577.00
827.92	47587.00
828.66	47373.00
829.40	47260.00
830.13	47189.00
830.87	47101.00
831.60	47149.00
832.34	46851.00
833.07	46751.00
833.81	46721.00
834.54	46799.00
835.28	46771.00
836.01	46812.00
836.75	46552.00
837.48	46266.00
838.22	46106.00
838.95	45961.00
839.68	45897.00
840.42	45940.00
841.15	45809.00
841.89	45813.00
842.62	45568.00
843.36	45469.00
844.09	45411.00
844.82	45492.00
845.56	45524.00
846.29	45315.00
847.02	45211.00
847.76	44904.00
848.49	44967.00
849.23	45162.00
849.96	45330.00
850.69	45308.00
851.43	45112.00
852.16	44957.00
852.89	44659.00
853.63	44595.00
854.36	44519.00
855.09	44517.00
855.82	44502.00
856.56	44404.00
857.29	44132.00
858.02	44136.00
858.76	43998.00
859.49	44035.00
860.22	44051.00
860.95	43964.00
861.69	43760.00
862.42	43489.00
863.15	43350.00
863.88	43330.00
864.61	43278.00
865.35	43218.00
866.08	43133.00
866.81	42900.00
867.54	42507.00
868.27	42317.00
869.01	42165.00
869.74	42253.00
870.47	42322.00
871.20	42237.00
871.93	42101.00
872.66	41904.00
873.40	41860.00
874.13	41721.00
874.86	41564.00
875.59	41468.00
876.32	41339.00
877.05	41183.00
877.78	41102.00
878.51	40878.00
879.24	40716.00
879.97	40527.00
880.71	40436.00
881.44	40214.00
882.17	40058.00
882.90	39842.00
883.63	39623.00
884.36	39572.00
885.09	39526.00
885.82	39632.00
886.55	39729.00
887.28	39708.00
888.01	39652.00
888.74	39552.00
889.47	39468.00
890.20	39155.00
890.93	38864.00
891.66	38772.00
892.39	38820.00
893.12	38830.00
893.85	38894.00
894.57	38838.00
895.30	38765.00
896.03	38815.00
896.76	38676.00
897.49	38496.00
898.22	38318.00
898.95	38045.00
899.68	37957.00
900.41	37728.00
901.14	37515.00
901.86	37462.00
902.59	37418.00
903.32	37394.00
904.05	37469.00
904.78	37279.00
905.51	37016.00
906.24	36952.00
906.96	36846.00
907.69	36658.00
908.42	36387.00
909.15	36178.00
909.88	35938.00
910.60	35896.00
911.33	35781.00
912.06	35665.00
912.79	35515.00
913.52	35437.00
914.24	35352.00
914.97	35201.00
915.70	35172.00
916.42	34992.00
917.15	34900.00
917.88	34667.00
918.61	34386.00
919.33	34221.00
920.06	33953.00
920.79	33706.00
921.51	33505.00
922.24	33459.00
922.97	33227.00
923.69	33030.00
924.42	32930.00
925.15	32663.00
925.87	32369.00
926.60	32183.00
927.33	31891.00
928.05	31617.00
928.78	31343.00
929.51	31115.00
930.23	30796.00
930.96	30451.00
931.68	30043.00
932.41	29718.00
933.14	29381.00
933.86	29112.00
934.59	28768.00
935.31	28412.00
936.04	27850.00
936.76	27419.00
937.49	26888.00
938.21	26372.00
938.94	25859.00
939.66	25375.00
940.39	24992.00
941.11	24589.00
941.84	24175.00
942.56	23896.00
943.29	23695.00
944.01	23492.00
944.74	23464.00
945.46	23433.00
946.19	23391.00
946.91	23481.00
947.64	23531.00
948.36	23691.00
949.09	23701.00
949.81	23808.00
950.53	23796.00
951.26	23852.00
951.98	23860.00
952.71	23899.00
953.43	23873.00
954.15	24007.00
954.88	24093.00
955.60	24247.00
956.33	24294.00
957.05	24318.00
957.77	24447.00
958.50	24532.00
959.22	24648.00
959.94	24639.00
960.67	24553.00
961.39	24464.00
962.11	24497.00
962.84	24541.00
963.56	24438.00
964.28	24404.00
965.00	24266.00
965.73	24025.00
966.45	23825.00
967.17	23721.00
967.89	23539.00
968.62	23375.00
969.34	23085.00
970.06	22948.00
970.78	22911.00
971.51	22829.00
972.23	22744.00
972.95	22631.00
973.67	22572.00
974.40	22540.00
975.12	22397.00
975.84	22199.00
976.56	22087.00
977.28	21835.00
978.00	21686.00
978.73	21619.00
979.45	21436.00
980.17	21338.00
980.89	21188.00
981.61	21110.00
982.33	20968.00
983.05	20912.00
983.77	20842.00
984.50	20710.00
985.22	20667.00
985.94	20577.00
986.66	20511.00
987.38	20409.00
988.10	20393.00
988.82	20348.00
989.54	20301.00
990.26	20267.00
990.98	20224.00
991.70	20030.00
992.42	19897.00
993.14	19801.00
993.86	19617.00
994.58	19462.00
995.30	19297.00
996.02	19135.00
996.74	19033.00
997.46	18956.00
998.18	18942.00
998.90	18812.00
999.62	18781.00
1000.34	18744.00
1001.06	18666.00
1001.78	18571.00
1002.50	18349.00
1003.22	18160.00
1003.94	17899.00
1004.66	17753.00
1005.38	17561.00
1006.09	17397.00
1006.81	17201.00
1007.53	17077.00
1008.25	16829.00
1008.97	16693.00
1009.69	16564.00
1010.41	16429.00
1011.13	16293.00
1011.84	16147.00
1012.56	15952.00
1013.28	15834.00
1014.00	15752.00
1014.72	15599.00
1015.44	15507.00
1016.15	15295.00
1016.87	15080.00
1017.59	14935.00
1018.31	14808.00
1019.03	14698.00
1019.74	14599.00
1020.46	14472.00
1021.18	14317.00
1021.90	14196.00
1022.61	14033.00
1023.33	13877.00
1024.05	13779.00
1024.76	13577.00
1025.48	13389.00
1026.20	13212.00
1026.92	13066.00
1027.63	12889.00
1028.35	12744.00
1029.07	12589.00
1029.78	12452.00
1030.50	12263.00
1031.22	12089.00
1031.93	11958.00
1032.65	11802.00
1033.37	11683.00
1034.08	11558.00
1034.80	11488.00
1035.52	11355.00
1036.23	11320.00
1036.95	11186.00
1037.66	11117.00
1038.38	11011.00
1039.10	10824.00
1039.81	10675.00
1040.53	10494.00
1041.24	10377.00
1041.96	10202.00
1042.67	10093.00
1043.39	9990.00
1044.10	9844.00
1044.82	9726.00
1045.54	9621.00
1046.25	9508.00
1046.97	9386.00
1047.68	9226.00
1048.40	9097.00
1049.11	8955.00
1049.83	8793.00
1050.54	8683.00
1051.26	8589.00
1051.97	8486.00
1052.68	8389.00
1053.40	8261.00
1054.11	8135.00
1054.83	7960.00
1055.54	7847.00
1056.26	7710.00
1056.97	7608.00
1057.69	7477.00
1058.40	7391.00
1059.11	7287.00
1059.83	7159.00
1060.54	7007.00
1061.25	6855.00
1061.97	6751.00
1062.68	6605.00
1063.40	6489.00
1064.11	6370.00
1064.82	6246.00
1065.54	6111.00
1066.25	2557.00
1066.96	2559.00
1067.68	2556.00
1068.39	2557.00
1069.10	2609.00
1069.82	2611.00
1070.53	2606.00
1071.24	2613.00
1071.95	2610.00
1072.67	2610.00
1073.38	5971.00
1074.09	5852.00
1074.80	5733.00
1075.52	5621.00
1076.23	5492.00
1076.94	5384.00
1077.65	2616.00
1078.37	2611.00
1079.08	2617.00
1079.79	2622.00
