300.47	2610.00
301.26	2607.00
302.04	2610.00
302.82	2610.00
303.60	2609.00
304.38	2611.00
305.17	2611.00
305.95	2610.00
306.73	2611.00
307.51	2612.00
308.29	2612.00
309.08	2607.00
309.86	2614.00
310.64	2615.00
311.42	2612.00
312.20	2615.00
312.98	2611.00
313.76	2609.00
314.55	2612.00
315.33	2605.00
316.11	2607.00
316.89	2610.00
317.67	2608.00
318.45	2613.00
319.23	2614.00
320.01	2612.00
320.79	2610.00
321.57	2610.00
322.35	2612.00
323.13	2613.00
323.91	2613.00
324.69	2610.00
325.47	2612.00
326.25	2613.00
327.03	2612.00
327.81	2609.00
328.59	2617.00
329.37	2616.00
330.15	2615.00
330.93	2618.00
331.71	2616.00
332.49	2624.00
333.27	2617.00
334.05	2612.00
334.83	2619.00
335.61	2620.00
336.39	2621.00
337.17	2622.00
337.95	2619.00
338.73	2621.00
339.51	2619.00
340.29	2625.00
341.07	2624.00
341.84	2624.00
342.62	2628.00
343.40	2630.00
344.18	2639.00
344.96	2633.00
345.74	2638.00
346.52	2634.00
347.29	2642.00
348.07	2644.00
348.85	2648.00
349.63	2651.00
350.41	2652.00
351.18	2656.00
351.96	2656.00
352.74	2665.00
353.52	2669.00
354.30	2666.00
355.07	2673.00
355.85	2679.00
356.63	2678.00
357.41	2686.00
358.18	2683.00
358.96	2698.00
359.74	2700.00
360.52	2704.00
361.29	2712.00
362.07	2718.00
362.85	2728.00
363.62	2734.00
364.40	2744.00
365.18	2740.00
365.95	2745.00
366.73	2755.00
367.51	2760.00
368.28	2775.00
369.06	2782.00
369.84	2787.00
370.61	2794.00
371.39	2807.00
372.17	2808.00
372.94	2823.00
373.72	2830.00
374.49	2845.00
375.27	2860.00
376.05	2865.00
376.82	2872.00
377.60	2892.00
378.37	2904.00
379.15	2909.00
379.92	2925.00
380.70	2941.00
381.47	2960.00
382.25	2979.00
383.02	2991.00
383.80	2998.00
384.58	3022.00
385.35	3034.00
386.13	3062.00
386.90	3063.00
387.67	3087.00
388.45	3108.00
389.22	3124.00
390.00	3142.00
390.77	3165.00
391.55	3183.00
392.32	3203.00
393.10	3214.00
393.87	3242.00
394.65	3265.00
395.42	3289.00
396.19	3296.00
396.97	3318.00
397.74	3343.00
398.52	3355.00
399.29	3399.00
400.06	3409.00
400.84	3426.00
401.61	3458.00
402.38	3486.00
403.16	3497.00
403.93	3528.00
404.70	3549.00
405.48	3583.00
406.25	3604.00
407.02	3624.00
407.80	3642.00
408.57	3665.00
409.34	3705.00
410.12	3742.00
410.89	3754.00
411.66	3773.00
412.43	3825.00
413.21	3842.00
413.98	3862.00
414.75	3893.00
415.52	3928.00
416.30	3953.00
417.07	3988.00
417.84	4017.00
418.61	4034.00
419.39	4077.00
420.16	4109.00
420.93	4138.00
421.70	4167.00
422.47	4219.00
423.24	4251.00
424.02	4295.00
424.79	4315.00
425.56	4349.00
426.33	4379.00
427.10	4400.00
427.87	4460.00
428.64	4507.00
429.42	4548.00
430.19	4573.00
430.96	4635.00
431.73	4670.00
432.50	4716.00
433.27	4753.00
434.04	4791.00
434.81	4870.00
435.58	4911.00
436.35	4962.00
437.12	4993.00
437.89	5057.00
438.67	5102.00
439.44	5172.00
440.21	5218.00
440.98	5268.00
441.75	5315.00
442.52	5400.00
443.29	5419.00
444.06	5489.00
444.83	5565.00
445.60	5623.00
446.37	5669.00
447.13	5752.00
447.90	5811.00
448.67	5898.00
449.44	5951.00
450.21	6045.00
450.98	6094.00
451.75	6151.00
452.52	6220.00
453.29	6322.00
454.06	6422.00
454.83	6479.00
455.60	6559.00
456.37	6621.00
457.13	6728.00
457.90	6813.00
458.67	6893.00
459.44	6953.00
460.21	7071.00
460.98	7145.00
461.75	7213.00
462.51	7352.00
463.28	7393.00
464.05	7501.00
464.82	7598.00
465.59	7695.00
466.35	7805.00
467.12	7895.00
467.89	7988.00
468.66	8123.00
469.43	8208.00
470.19	8318.00
470.96	8376.00
471.73	8501.00
472.50	8613.00
473.26	8717.00
474.03	8842.00
474.80	8930.00
475.56	9068.00
476.33	9145.00
477.10	9263.00
477.87	9389.00
478.63	9462.00
479.40	9622.00
480.17	9749.00
480.93	9861.00
481.70	9968.00
482.47	10081.00
483.23	10240.00
484.00	10413.00
484.76	10504.00
485.53	10622.00
486.30	10740.00
487.06	10919.00
487.83	11045.00
488.60	11148.00
489.36	11306.00
490.13	11422.00
490.89	11565.00
491.66	11691.00
492.42	11814.00
493.19	11965.00
493.96	12066.00
494.72	12227.00
495.49	12357.00
496.25	12547.00
497.02	12678.00
497.78	12841.00
498.55	12978.00
499.31	13134.00
500.08	13255.00
500.84	13396.00
501.61	13564.00
502.37	13711.00
503.14	13862.00
503.90	13997.00
504.67	14167.00
505.43	14348.00
506.20	14495.00
506.96	14613.00
507.72	14786.00
508.49	14995.00
509.25	15109.00
510.02	15299.00
510.78	15461.00
511.54	15673.00
512.31	15885.00
513.07	15993.00
513.84	16180.00
514.60	16273.00
515.36	16552.00
516.13	16639.00
516.89	16823.00
517.65	16915.00
518.42	17043.00
519.18	17189.00
519.94	17384.00
520.71	17608.00
521.47	17732.00
522.23	17949.00
523.00	18092.00
523.76	18281.00
524.52	18472.00
525.28	18678.00
526.05	18820.00
526.81	19021.00
527.57	19224.00
528.33	19408.00
529.10	19550.00
529.86	19747.00
530.62	19941.00
531.38	20125.00
532.15	20272.00
532.91	20434.00
533.67	20545.00
534.43	20752.00
535.19	20937.00
535.96	21098.00
536.72	21317.00
537.48	21469.00
538.24	21582.00
539.00	21784.00
539.76	22008.00
540.53	22314.00
541.29	22473.00
542.05	22629.00
542.81	22821.00
543.57	23029.00
544.33	23237.00
545.09	23452.00
545.85	23620.00
546.61	23762.00
547.38	23852.00
548.14	24081.00
548.90	24297.00
549.66	24507.00
550.42	24764.00
551.18	24975.00
551.94	25128.00
552.70	25295.00
553.46	25519.00
554.22	25697.00
554.98	25863.00
555.74	26044.00
556.50	26106.00
557.26	26389.00
558.02	26624.00
558.78	26905.00
559.54	27087.00
560.30	27203.00
561.06	27476.00
561.82	27708.00
562.58	27940.00
563.34	28115.00
564.10	28238.00
564.86	28447.00
565.61	28704.00
566.37	28857.00
567.13	29122.00
567.89	29246.00
568.65	29499.00
569.41	29648.00
570.17	29854.00
570.93	29969.00
571.69	30225.00
572.44	30371.00
573.20	30566.00
573.96	30772.00
574.72	30959.00
575.48	31207.00
576.24	31408.00
576.99	31588.00
577.75	31733.00
578.51	32061.00
579.27	32226.00
580.03	32384.00
580.78	32603.00
581.54	32918.00
582.30	33045.00
583.06	33167.00
583.82	33398.00
584.57	33594.00
585.33	33778.00
586.09	34030.00
586.84	34143.00
587.60	34216.00
588.36	34288.00
589.12	34497.00
589.87	34729.00
590.63	34949.00
591.39	35071.00
592.14	35223.00
592.90	35440.00
593.66	35750.00
594.41	35960.00
595.17	36245.00
595.93	36235.00
596.68	36368.00
597.44	36508.00
598.20	36756.00
598.95	37028.00
599.71	37274.00
600.46	37234.00
601.22	37342.00
601.98	37575.00
602.73	38001.00
603.49	38306.00
604.24	38535.00
605.00	38745.00
605.76	38908.00
606.51	39076.00
607.27	39214.00
608.02	39577.00
608.78	39748.00
609.53	39981.00
610.29	40110.00
611.04	40372.00
611.80	40676.00
612.55	40928.00
613.31	41156.00
614.06	41442.00
614.82	41623.00
615.57	41833.00
616.33	42086.00
617.08	42299.00
617.84	42355.00
618.59	42447.00
619.35	42468.00
620.10	42474.00
620.85	42513.00
621.61	42700.00
622.36	42713.00
623.12	42797.00
623.87	42798.00
624.62	42966.00
625.38	43135.00
626.13	43372.00
626.89	43537.00
627.64	43656.00
628.39	43714.00
629.15	43788.00
629.90	43792.00
630.65	43971.00
631.41	43866.00
632.16	43952.00
632.91	43723.00
633.67	43770.00
634.42	43843.00
635.17	44017.00
635.92	44354.00
636.68	44810.00
637.43	45388.00
638.18	45867.00
638.94	46428.00
639.69	46815.00
640.44	47173.00
641.19	47571.00
641.95	47948.00
642.70	48266.00
643.45	48575.00
644.20	48819.00
644.95	48927.00
645.71	49096.00
646.46	49348.00
647.21	49534.00
647.96	49569.00
648.71	49675.00
649.47	49836.00
650.22	49924.00
650.97	49885.00
651.72	50196.00
652.47	50281.00
653.22	50342.00
653.97	50566.00
654.73	50730.00
655.48	50835.00
656.23	51081.00
656.98	51328.00
657.73	51544.00
658.48	51532.00
659.23	51529.00
659.98	51518.00
660.73	51484.00
661.48	51763.00
662.23	51953.00
662.99	51890.00
663.74	52017.00
664.49	52205.00
665.24	52605.00
665.99	53063.00
666.74	53245.00
667.49	53406.00
668.24	53427.00
668.99	53535.00
669.74	53640.00
670.49	53949.00
671.24	53968.00
671.99	54209.00
672.74	54385.00
673.48	54445.00
674.23	54471.00
674.98	54549.00
675.73	54552.00
676.48	54783.00
677.23	54887.00
677.98	54895.00
678.73	54900.00
679.48	54982.00
680.23	55119.00
680.98	55125.00
681.73	55327.00
682.47	55210.00
683.22	55177.00
683.97	55181.00
684.72	55275.00
685.47	55481.00
686.22	55515.00
686.97	55760.00
687.71	55914.00
688.46	56173.00
689.21	56289.00
689.96	56239.00
690.71	56409.00
691.45	56412.00
692.20	56543.00
692.95	56437.00
693.70	56563.00
694.44	56512.00
695.19	56663.00
695.94	56747.00
696.69	56873.00
697.43	56940.00
698.18	56943.00
698.93	57115.00
699.68	57124.00
700.42	57161.00
701.17	57115.00
701.92	57276.00
702.66	57371.00
703.41	57405.00
704.16	57394.00
704.90	57460.00
705.65	57536.00
706.40	57482.00
707.14	57515.00
707.89	57698.00
708.64	57614.00
709.38	57524.00
710.13	57626.00
710.88	57622.00
711.62	57665.00
712.37	57746.00
713.11	57751.00
713.86	57906.00
714.61	57895.00
715.35	57816.00
716.10	57758.00
716.84	57600.00
717.59	57465.00
718.33	57230.00
719.08	57153.00
719.83	57091.00
720.57	56944.00
721.32	56905.00
722.06	56792.00
722.81	56739.00
723.55	56692.00
724.30	56839.00
725.04	56942.00
725.79	56889.00
726.53	56949.00
727.28	56969.00
728.02	57007.00
728.76	56908.00
729.51	56928.00
730.25	57072.00
731.00	57067.00
731.74	57013.00
732.49	56986.00
733.23	56938.00
733.97	56983.00
734.72	56963.00
735.46	56955.00
736.21	56918.00
736.95	56804.00
737.69	56801.00
738.44	56815.00
739.18	56954.00
739.92	57028.00
740.67	57001.00
741.41	57043.00
742.15	57156.00
742.90	57227.00
743.64	57388.00
744.38	57453.00
745.13	57302.00
745.87	57211.00
746.61	57362.00
747.36	57446.00
748.10	57524.00
748.84	57360.00
749.58	57238.00
750.33	57154.00
751.07	57173.00
751.81	57118.00
752.55	57082.00
753.30	57143.00
754.04	57138.00
754.78	56756.00
755.52	56540.00
756.27	56355.00
757.01	56473.00
757.75	56397.00
758.49	56282.00
759.23	56278.00
759.97	56111.00
760.72	56095.00
761.46	56077.00
762.20	55967.00
762.94	56028.00
763.68	55821.00
764.42	55725.00
765.16	55736.00
765.91	55797.00
766.65	55730.00
767.39	55683.00
768.13	55652.00
768.87	55645.00
769.61	55600.00
770.35	55606.00
771.09	55504.00
771.83	55500.00
772.57	55432.00
773.31	55500.00
774.05	55567.00
774.80	55610.00
775.54	55487.00
776.28	55366.00
777.02	55297.00
777.76	55162.00
778.50	54961.00
779.24	54778.00
779.98	54541.00
780.72	54464.00
781.46	54396.00
782.20	54394.00
782.93	54412.00
783.67	54439.00
784.41	54290.00
785.15	54143.00
785.89	53978.00
786.63	53737.00
787.37	53610.00
788.11	53328.00
788.85	53217.00
789.59	53122.00
790.33	53074.00
791.07	52915.00
791.81	52816.00
792.54	52594.00
793.28	52433.00
794.02	52099.00
794.76	51935.00
795.50	51808.00
796.24	51589.00
796.97	51507.00
797.71	51193.00
798.45	51020.00
799.19	51035.00
799.93	50928.00
800.67	50829.00
801.40	50784.00
802.14	50743.00
802.88	50849.00
803.62	50802.00
804.35	50775.00
805.09	50597.00
805.83	50556.00
806.57	50444.00
807.30	50600.00
808.04	50628.00
808.78	50601.00
809.52	50543.00
810.25	50385.00
810.99	50309.00
811.73	50185.00
812.46	50007.00
813.20	49979.00
813.94	49785.00
814.68	49599.00
815.41	49461.00
816.15	49387.00
816.88	49410.00
817.62	49263.00
818.36	48963.00
819.09	48797.00
819.83	48623.00
820.57	48542.00
821.30	48399.00
822.04	48365.00
822.77	48141.00
823.51	48022.00
824.25	47925.00
824.98	47855.00
825.72	47888.00
826.45	47751.00
827.19	47629.00
827.92	47521.00
828.66	47311.00
829.40	47247.00
830.13	47226.00
830.87	47063.00
831.60	46997.00
832.34	46924.00
833.07	46722.00
833.81	46811.00
834.54	46813.00
835.28	46821.00
836.01	46800.00
836.75	46528.00
837.48	46317.00
838.22	46198.00
838.95	46019.00
839.68	45895.00
840.42	45928.00
841.15	45907.00
841.89	45798.00
842.62	45631.00
843.36	45402.00
844.09	45455.00
844.82	45553.00
845.56	45566.00
846.29	45407.00
847.02	45108.00
847.76	44944.00
848.49	44983.00
849.23	45161.00
849.96	45355.00
850.69	45361.00
851.43	45137.00
852.16	44870.00
852.89	44637.00
853.63	44625.00
854.36	44466.00
855.09	44505.00
855.82	44457.00
856.56	44345.00
857.29	44248.00
858.02	44127.00
858.76	44071.00
859.49	44059.00
860.22	44082.00
860.95	43920.00
861.69	43799.00
862.42	43549.00
863.15	43403.00
863.88	43242.00
864.61	43194.00
865.35	43213.00
866.08	43153.00
866.81	42865.00
867.54	42640.00
868.27	42381.00
869.01	42256.00
869.74	42290.00
870.47	42308.00
871.20	42245.00
871.93	42116.00
872.66	41960.00
873.40	41805.00
874.13	41655.00
874.86	41532.00
875.59	41506.00
876.32	41340.00
877.05	41252.00
877.78	41085.00
878.51	40925.00
879.24	40772.00
879.97	40494.00
880.71	40414.00
881.44	40253.00
882.17	40130.00
882.90	39779.00
883.63	39624.00
884.36	39628.00
885.09	39625.00
885.82	39660.00
886.55	39682.00
887.28	39720.00
888.01	39636.00
888.74	39501.00
889.47	39356.00
890.20	39203.00
890.93	38904.00
891.66	38869.00
892.39	38752.00
893.12	38872.00
893.85	38828.00
894.57	38873.00
895.30	38775.00
896.03	38789.00
896.76	38677.00
897.49	38528.00
898.22	38306.00
898.95	38108.00
899.68	37941.00
900.41	37692.00
901.14	37573.00
901.86	37380.00
902.59	37405.00
903.32	37420.00
904.05	37417.00
904.78	37297.00
905.51	37064.00
906.24	36990.00
906.96	36752.00
907.69	36552.00
908.42	36416.00
909.15	36178.00
909.88	36018.00
910.60	35937.00
911.33	35694.00
912.06	35680.00
912.79	35486.00
913.52	35329.00
914.24	35330.00
914.97	35155.00
915.70	35176.00
916.42	35047.00
917.15	34896.00
917.88	34693.00
918.61	34363.00
919.33	34210.00
920.06	33960.00
920.79	33660.00
921.51	33521.00
922.24	33501.00
922.97	33221.00
923.69	33033.00
924.42	32897.00
925.15	32657.00
925.87	32434.00
926.60	32207.00
927.33	31885.00
928.05	31591.00
928.78	31337.00
929.51	31097.00
930.23	30745.00
930.96	30479.00
931.68	30092.00
932.41	29773.00
933.14	29408.00
933.86	29156.00
934.59	28783.00
935.31	28305.00
936.04	27796.00
936.76	27402.00
937.49	26926.00
938.21	26378.00
938.94	25885.00
939.66	25384.00
940.39	24989.00
941.11	24554.00
941.84	24216.00
942.56	23866.00
943.29	23736.00
944.01	23538.00
944.74	23382.00
945.46	23493.00
946.19	23399.00
946.91	23522.00
947.64	23587.00
948.36	23706.00
949.09	23689.00
949.81	23805.00
950.53	23821.00
951.26	23891.00
951.98	23877.00
952.71	23854.00
953.43	23825.00
954.15	23992.00
954.88	24114.00
955.60	24156.00
956.33	24293.00
957.05	24328.00
957.77	24411.00
958.50	24633.00
959.22	24608.00
959.94	24647.00
960.67	24514.00
961.39	24509.00
962.11	24471.00
962.84	24505.00
963.56	24503.00
964.28	24377.00
965.00	24273.00
965.73	24031.00
966.45	23873.00
967.17	23735.00
967.89	23503.00
968.62	23371.00
969.34	23087.00
970.06	22974.00
970.78	22911.00
971.51	22814.00
972.23	22770.00
972.95	22631.00
973.67	22530.00
974.40	22488.00
975.12	22382.00
975.84	22297.00
976.56	22043.00
977.28	21859.00
978.00	21709.00
978.73	21620.00
979.45	21474.00
980.17	21301.00
980.89	21214.00
981.61	21090.00
982.33	20966.00
983.05	20959.00
983.77	20850.00
984.50	20751.00
985.22	20689.00
985.94	20559.00
986.66	20564.00
987.38	20453.00
988.10	20369.00
988.82	20417.00
989.54	20340.00
990.26	20297.00
990.98	20222.00
991.70	20004.00
992.42	19937.00
993.14	19808.00
993.86	19634.00
994.58	19433.00
995.30	19307.00
996.02	19150.00
996.74	19055.00
997.46	19014.00
998.18	18890.00
998.90	18857.00
999.62	18737.00
1000.34	18649.00
1001.06	18692.00
1001.78	18564.00
1002.50	18388.00
1003.22	18148.00
1003.94	17947.00
1004.66	17732.00
1005.38	17523.00
1006.09	17423.00
1006.81	17202.00
1007.53	16980.00
1008.25	16851.00
1008.97	16687.00
1009.69	16535.00
1010.41	16454.00
1011.13	16297.00
1011.84	16182.00
1012.56	16012.00
1013.28	15800.00
1014.00	15738.00
1014.72	15638.00
1015.44	15474.00
1016.15	15248.00
1016.87	15117.00
1017.59	14958.00
1018.31	14764.00
1019.03	14672.00
1019.74	14609.00
1020.46	14450.00
1021.18	14308.00
1021.90	14175.00
1022.61	14065.00
1023.33	13881.00
1024.05	13738.00
1024.76	13569.00
1025.48	13464.00
1026.20	13235.00
1026.92	13023.00
1027.63	12908.00
1028.35	12742.00
1029.07	12626.00
1029.78	12458.00
1030.50	12285.00
1031.22	12110.00
1031.93	11971.00
1032.65	11789.00
1033.37	11684.00
1034.08	11528.00
1034.80	11445.00
1035.52	11330.00
1036.23	11280.00
1036.95	11189.00
1037.66	11097.00
1038.38	10994.00
1039.10	10845.00
1039.81	10675.00
1040.53	10497.00
1041.24	10341.00
1041.96	10199.00
1042.67	10059.00
1043.39	9953.00
1044.10	9880.00
1044.82	9740.00
1045.54	9632.00
1046.25	9506.00
1046.97	9344.00
1047.68	9250.00
1048.40	9084.00
1049.11	8929.00
1049.83	8839.00
1050.54	8729.00
1051.26	8575.00
1051.97	8507.00
1052.68	8389.00
1053.40	8253.00
1054.11	8103.00
1054.83	7960.00
1055.54	7815.00
1056.26	7734.00
1056.97	7608.00
1057.69	7485.00
1058.40	7407.00
1059.11	7284.00
1059.83	7146.00
1060.54	7015.00
1061.25	6877.00
1061.97	6741.00
1062.68	6614.00
1063.40	6494.00
1064.11	6352.00
1064.82	6245.00
1065.54	6122.00
1066.25	2561.00
1066.96	2557.00
1067.68	2555.00
1068.39	2556.00
1069.10	2609.00
1069.82	2612.00
1070.53	2612.00
1071.24	2608.00
1071.95	2613.00
1072.67	2611.00
1073.38	5999.00
1074.09	5842.00
1074.80	5726.00
1075.52	5614.00
1076.23	5486.00
1076.94	5376.00
1077.65	2613.00
1078.37	2611.00
1079.08	2613.00
1079.79	2624.00
