300.47	2613.00
301.26	2614.00
302.04	2617.00
302.82	2612.00
303.60	2615.00
304.38	2620.00
305.17	2611.00
305.95	2612.00
306.73	2614.00
307.51	2612.00
308.29	2614.00
309.08	2612.00
309.86	2613.00
310.64	2611.00
311.42	2611.00
312.20	2615.00
312.98	2613.00
313.76	2616.00
314.55	2614.00
315.33	2615.00
316.11	2608.00
316.89	2614.00
317.67	2613.00
318.45	2612.00
319.23	2609.00
320.01	2612.00
320.79	2611.00
321.57	2614.00
322.35	2615.00
323.13	2619.00
323.91	2616.00
324.69	2617.00
325.47	2615.00
326.25	2617.00
327.03	2616.00
327.81	2618.00
328.59	2617.00
329.37	2619.00
330.15	2618.00
330.93	2621.00
331.71	2619.00
332.49	2620.00
333.27	2616.00
334.05	2623.00
334.83	2624.00
335.61	2626.00
336.39	2622.00
337.17	2624.00
337.95	2622.00
338.73	2625.00
339.51	2627.00
340.29	2629.00
341.07	2626.00
341.84	2631.00
342.62	2630.00
343.40	2631.00
344.18	2635.00
344.96	2639.00
345.74	2638.00
346.52	2641.00
347.29	2638.00
348.07	2653.00
348.85	2649.00
349.63	2654.00
350.41	2652.00
351.18	2658.00
351.96	2659.00
352.74	2669.00
353.52	2666.00
354.30	2671.00
355.07	2677.00
355.85	2673.00
356.63	2682.00
357.41	2689.00
358.18	2694.00
358.96	2697.00
359.74	2699.00
360.52	2704.00
361.29	2717.00
362.07	2718.00
362.85	2722.00
363.62	2728.00
364.40	2736.00
365.18	2746.00
365.95	2754.00
366.73	2753.00
367.51	2773.00
368.28	2774.00
369.06	2778.00
369.84	2793.00
370.61	2800.00
371.39	2810.00
372.17	2817.00
372.94	2828.00
373.72	2828.00
374.49	2848.00
375.27	2856.00
376.05	2872.00
376.82	2876.00
377.60	2884.00
378.37	2901.00
379.15	2915.00
379.92	2925.00
380.70	2937.00
381.47	2963.00
382.25	2980.00
383.02	2989.00
383.80	3009.00
384.58	3018.00
385.35	3028.00
386.13	3045.00
386.90	3068.00
387.67	3079.00
388.45	3109.00
389.22	3127.00
390.00	3145.00
390.77	3160.00
391.55	3189.00
392.32	3201.00
393.10	3214.00
393.87	3243.00
394.65	3265.00
395.42	3285.00
396.19	3311.00
396.97	3326.00
397.74	3347.00
398.52	3360.00
399.29	3393.00
400.06	3412.00
400.84	3438.00
401.61	3465.00
402.38	3472.00
403.16	3511.00
403.93	3532.00
404.70	3563.00
405.48	3566.00
406.25	3602.00
407.02	3635.00
407.80	3660.00
408.57	3679.00
409.34	3709.00
410.12	3729.00
410.89	3764.00
411.66	3782.00
412.43	3810.00
413.21	3835.00
413.98	3871.00
414.75	3890.00
415.52	3922.00
416.30	3946.00
417.07	3985.00
417.84	4013.00
418.61	4055.00
419.39	4086.00
420.16	4117.00
420.93	4138.00
421.70	4180.00
422.47	4204.00
423.24	4236.00
424.02	4274.00
424.79	4308.00
425.56	4350.00
426.33	4381.00
427.10	4426.00
427.87	4461.00
428.64	4517.00
429.42	4530.00
430.19	4581.00
430.96	4609.00
431.73	4686.00
432.50	4736.00
433.27	4759.00
434.04	4831.00
434.81	4863.00
435.58	4901.00
436.35	4952.00
437.12	5004.00
437.89	5062.00
438.67	5106.00
439.44	5157.00
440.21	5224.00
440.98	5270.00
441.75	5340.00
442.52	5380.00
443.29	5448.00
444.06	5494.00
444.83	5574.00
445.60	5667.00
446.37	5690.00
447.13	5760.00
447.90	5834.00
448.67	5906.00
449.44	5932.00
450.21	6042.00
450.98	6107.00
451.75	6159.00
452.52	6233.00
453.29	6323.00
454.06	6402.00
454.83	6472.00
455.60	6542.00
456.37	6644.00
457.13	6723.00
457.90	6799.00
458.67	6887.00
459.44	6964.00
460.21	7070.00
460.98	7151.00
461.75	7220.00
462.51	7305.00
463.28	7419.00
464.05	7527.00
464.82	7620.00
465.59	7691.00
466.35	7786.00
467.12	7877.00
467.89	7970.00
468.66	8092.00
469.43	8181.00
470.19	8287.00
470.96	8416.00
471.73	8496.00
472.50	8610.00
473.26	8732.00
474.03	8834.00
474.80	8928.00
475.56	9049.00
476.33	9164.00
477.10	9247.00
477.87	9363.00
478.63	9494.00
479.40	9600.00
480.17	9753.00
480.93	9877.00
481.70	9981.00
482.47	10078.00
483.23	10222.00
484.00	10350.00
484.76	10468.00
485.53	10649.00
486.30	10744.00
487.06	10904.00
487.83	11013.00
488.60	11174.00
489.36	11332.00
490.13	11441.00
490.89	11585.00
491.66	11722.00
492.42	11821.00
493.19	12035.00
493.96	12126.00
494.72	12272.00
495.49	12382.00
496.25	12566.00
497.02	12656.00
497.78	12787.00
498.55	13019.00
499.31	13113.00
500.08	13261.00
500.84	13390.00
501.61	13529.00
502.37	13691.00
503.14	13851.00
503.90	14009.00
504.67	14152.00
505.43	14365.00
506.20	14461.00
506.96	14658.00
507.72	14769.00
508.49	14987.00
509.25	15117.00
510.02	15323.00
510.78	15458.00
511.54	15672.00
512.31	15833.00
513.07	16002.00
513.84	16155.00
514.60	16338.00
515.36	16528.00
516.13	16636.00
516.89	16805.00
517.65	16946.00
518.42	17059.00
519.18	17265.00
519.94	17372.00
520.71	17658.00
521.47	17759.00
522.23	17909.00
523.00	18081.00
523.76	18259.00
524.52	18485.00
525.28	18681.00
526.05	18840.00
526.81	19041.00
527.57	19215.00
528.33	19372.00
529.10	19555.00
529.86	19747.00
530.62	19911.00
531.38	20099.00
532.15	20238.00
532.91	20420.00
533.67	20557.00
534.43	20742.00
535.19	20931.00
535.96	21105.00
536.72	21252.00
537.48	21445.00
538.24	21563.00
539.00	21785.00
539.76	22037.00
540.53	22291.00
541.29	22544.00
542.05	22681.00
542.81	22808.00
543.57	23085.00
544.33	23252.00
545.09	23391.00
545.85	23607.00
546.61	23689.00
547.38	23865.00
548.14	24076.00
548.90	24318.00
549.66	24568.00
550.42	24747.00
551.18	24928.00
551.94	25153.00
552.70	25254.00
553.46	25471.00
554.22	25635.00
554.98	25857.00
555.74	25942.00
556.50	26155.00
557.26	26423.00
558.02	26677.00
558.78	26856.00
559.54	27006.00
560.30	27291.00
561.06	27481.00
561.82	27678.00
562.58	27919.00
563.34	28102.00
564.10	28316.00
564.86	28523.00
565.61	28666.00
566.37	28919.00
567.13	29048.00
567.89	29360.00
568.65	29514.00
569.41	29674.00
570.17	29777.00
570.93	30021.00
571.69	30189.00
572.44	30390.00
573.20	30566.00
573.96	30772.00
574.72	30926.00
575.48	31216.00
576.24	31336.00
576.99	31657.00
577.75	31776.00
578.51	31961.00
579.27	32139.00
580.03	32332.00
580.78	32580.00
581.54	32886.00
582.30	33054.00
583.06	33242.00
583.82	33409.00
584.57	33660.00
585.33	33879.00
586.09	34043.00
586.84	34072.00
587.60	34276.00
588.36	34283.00
589.12	34432.00
589.87	34719.00
590.63	34888.00
591.39	35043.00
592.14	35277.00
592.90	35459.00
593.66	35736.00
594.41	35941.00
595.17	36177.00
595.93	36278.00
596.68	36319.00
597.44	36514.00
598.20	36712.00
598.95	37029.00
599.71	37240.00
600.46	37285.00
601.22	37473.00
601.98	37667.00
602.73	37920.00
603.49	38323.00
604.24	38538.00
605.00	38687.00
605.76	38864.00
606.51	39066.00
607.27	39321.00
608.02	39560.00
608.78	39757.00
609.53	39966.00
610.29	40137.00
611.04	40419.00
611.80	40670.00
612.55	40909.00
613.31	41175.00
614.06	41436.00
614.82	41579.00
615.57	41841.00
616.33	42089.00
617.08	42315.00
617.84	42387.00
618.59	42506.00
619.35	42513.00
620.10	42424.00
620.85	42631.00
621.61	42675.00
622.36	42777.00
623.12	42815.00
623.87	42913.00
624.62	42995.00
625.38	43127.00
626.13	43372.00
626.89	43591.00
627.64	43703.00
628.39	43867.00
629.15	43769.00
629.90	43846.00
630.65	43932.00
631.41	43876.00
632.16	43864.00
632.91	43831.00
633.67	43773.00
634.42	43815.00
635.17	43933.00
635.92	44399.00
636.68	44829.00
637.43	45441.00
638.18	45975.00
638.94	46388.00
639.69	46881.00
640.44	47184.00
641.19	47647.00
641.95	47996.00
642.70	48311.00
643.45	48525.00
644.20	48843.00
644.95	49008.00
645.71	49191.00
646.46	49368.00
647.21	49422.00
647.96	49546.00
648.71	49669.00
649.47	49800.00
650.22	49886.00
650.97	50011.00
651.72	50194.00
652.47	50346.00
653.22	50441.00
653.97	50618.00
654.73	50699.00
655.48	50856.00
656.23	51078.00
656.98	51383.00
657.73	51543.00
658.48	51493.00
659.23	51587.00
659.98	51554.00
660.73	51656.00
661.48	51724.00
662.23	51872.00
662.99	51841.00
663.74	52009.00
664.49	52164.00
665.24	52666.00
665.99	53106.00
666.74	53268.00
667.49	53342.00
668.24	53309.00
668.99	53498.00
669.74	53679.00
670.49	53782.00
671.24	53954.00
671.99	54186.00
672.74	54361.00
673.48	54629.00
674.23	54584.00
674.98	54729.00
675.73	54673.00
676.48	54789.00
677.23	54821.00
677.98	54901.00
678.73	55091.00
679.48	54958.00
680.23	55087.00
680.98	55182.00
681.73	55221.00
682.47	55157.00
683.22	55154.00
683.97	55296.00
684.72	55335.00
685.47	55393.00
686.22	55578.00
686.97	55660.00
687.71	55972.00
688.46	56079.00
689.21	56254.00
689.96	56321.00
690.71	56367.00
691.45	56418.00
692.20	56491.00
692.95	56612.00
693.70	56600.00
694.44	56561.00
695.19	56586.00
695.94	56680.00
696.69	56899.00
697.43	56879.00
698.18	56997.00
698.93	57083.00
699.68	57059.00
700.42	57088.00
701.17	57047.00
701.92	57304.00
702.66	57454.00
703.41	57471.00
704.16	57501.00
704.90	57425.00
705.65	57536.00
706.40	57492.00
707.14	57464.00
707.89	57633.00
708.64	57620.00
709.38	57619.00
710.13	57585.00
710.88	57750.00
711.62	57745.00
712.37	57803.00
713.11	57800.00
713.86	57882.00
714.61	57833.00
715.35	57825.00
716.10	57676.00
716.84	57646.00
717.59	57535.00
718.33	57167.00
719.08	57228.00
719.83	57094.00
720.57	56985.00
721.32	56872.00
722.06	56849.00
722.81	56753.00
723.55	56759.00
724.30	56919.00
725.04	56931.00
725.79	56918.00
726.53	56987.00
727.28	56887.00
728.02	56946.00
728.76	56941.00
729.51	56936.00
730.25	57078.00
731.00	57036.00
731.74	57026.00
732.49	57017.00
733.23	56975.00
733.97	56943.00
734.72	57056.00
735.46	56941.00
736.21	56984.00
736.95	56887.00
737.69	56894.00
738.44	56904.00
739.18	57011.00
739.92	57040.00
740.67	56925.00
741.41	57090.00
742.15	57192.00
742.90	57298.00
743.64	57467.00
744.38	57506.00
745.13	57290.00
745.87	57457.00
746.61	57424.00
747.36	57508.00
748.10	57516.00
748.84	57388.00
749.58	57305.00
750.33	57190.00
751.07	57261.00
751.81	57226.00
752.55	57119.00
753.30	57135.00
754.04	56981.00
754.78	56724.00
755.52	56594.00
756.27	56520.00
757.01	56402.00
757.75	56403.00
758.49	56389.00
759.23	56315.00
759.97	56081.00
760.72	56110.00
761.46	56090.00
762.20	56033.00
762.94	55956.00
763.68	55914.00
764.42	55735.00
765.16	55789.00
765.91	55865.00
766.65	55719.00
767.39	55664.00
768.13	55693.00
768.87	55646.00
769.61	55685.00
770.35	55682.00
771.09	55589.00
771.83	55464.00
772.57	55397.00
773.31	55459.00
774.05	55488.00
774.80	55571.00
775.54	55436.00
776.28	55369.00
777.02	55255.00
777.76	55229.00
778.50	54950.00
779.24	54748.00
779.98	54567.00
780.72	54459.00
781.46	54431.00
782.20	54451.00
782.93	54483.00
783.67	54416.00
784.41	54357.00
785.15	54168.00
785.89	54055.00
786.63	53776.00
787.37	53675.00
788.11	53363.00
788.85	53123.00
789.59	53118.00
790.33	53057.00
791.07	52992.00
791.81	52831.00
792.54	52614.00
793.28	52371.00
794.02	52264.00
794.76	51963.00
795.50	51757.00
796.24	51594.00
796.97	51518.00
797.71	51173.00
798.45	51081.00
799.19	50978.00
799.93	51036.00
800.67	50878.00
801.40	50897.00
802.14	50845.00
802.88	50845.00
803.62	50785.00
804.35	50698.00
805.09	50639.00
805.83	50490.00
806.57	50539.00
807.30	50558.00
808.04	50608.00
808.78	50643.00
809.52	50435.00
810.25	50289.00
810.99	50288.00
811.73	50190.00
812.46	49998.00
813.20	49979.00
813.94	49888.00
814.68	49620.00
815.41	49486.00
816.15	49393.00
816.88	49433.00
817.62	49224.00
818.36	49014.00
819.09	48762.00
819.83	48568.00
820.57	48506.00
821.30	48418.00
822.04	48315.00
822.77	48157.00
823.51	48034.00
824.25	47894.00
824.98	47921.00
825.72	47779.00
826.45	47791.00
827.19	47606.00
827.92	47549.00
828.66	47399.00
829.40	47246.00
830.13	47243.00
830.87	47114.00
831.60	47012.00
832.34	46881.00
833.07	46817.00
833.81	46633.00
834.54	46693.00
835.28	46884.00
836.01	46850.00
836.75	46620.00
837.48	46402.00
838.22	46197.00
838.95	45918.00
839.68	45876.00
840.42	45944.00
841.15	45960.00
841.89	45824.00
842.62	45538.00
843.36	45417.00
844.09	45372.00
844.82	45505.00
845.56	45501.00
846.29	45407.00
847.02	45109.00
847.76	45070.00
848.49	44916.00
849.23	45093.00
849.96	45327.00
850.69	45368.00
851.43	45205.00
852.16	44919.00
852.89	44703.00
853.63	44581.00
854.36	44499.00
855.09	44538.00
855.82	44518.00
856.56	44388.00
857.29	44237.00
858.02	44092.00
858.76	44061.00
859.49	44035.00
860.22	44055.00
860.95	43884.00
861.69	43837.00
862.42	43584.00
863.15	43398.00
863.88	43255.00
864.61	43308.00
865.35	43274.00
866.08	43129.00
866.81	42835.00
867.54	42454.00
868.27	42313.00
869.01	42224.00
869.74	42295.00
870.47	42375.00
871.20	42285.00
871.93	42092.00
872.66	41992.00
873.40	41809.00
874.13	41682.00
874.86	41541.00
875.59	41422.00
876.32	41388.00
877.05	41229.00
877.78	41076.00
878.51	40907.00
879.24	40728.00
879.97	40566.00
880.71	40442.00
881.44	40281.00
882.17	40062.00
882.90	39834.00
883.63	39596.00
884.36	39543.00
885.09	39640.00
885.82	39607.00
886.55	39766.00
887.28	39751.00
888.01	39675.00
888.74	39571.00
889.47	39488.00
890.20	39236.00
890.93	39014.00
891.66	38804.00
892.39	38793.00
893.12	38817.00
893.85	38913.00
894.57	38960.00
895.30	38892.00
896.03	38880.00
896.76	38699.00
897.49	38444.00
898.22	38281.00
898.95	38104.00
899.68	37880.00
900.41	37764.00
901.14	37618.00
901.86	37390.00
902.59	37360.00
903.32	37354.00
904.05	37442.00
904.78	37310.00
905.51	37005.00
906.24	36940.00
906.96	36756.00
907.69	36615.00
908.42	36329.00
909.15	36244.00
909.88	35996.00
910.60	35913.00
911.33	35755.00
912.06	35662.00
912.79	35491.00
913.52	35356.00
914.24	35259.00
914.97	35229.00
915.70	35157.00
916.42	35063.00
917.15	34901.00
917.88	34669.00
918.61	34477.00
919.33	34230.00
920.06	33903.00
920.79	33747.00
921.51	33610.00
922.24	33424.00
922.97	33158.00
923.69	32947.00
924.42	32903.00
925.15	32728.00
925.87	32469.00
926.60	32239.00
927.33	31945.00
928.05	31618.00
928.78	31396.00
929.51	31080.00
930.23	30793.00
930.96	30408.00
931.68	30095.00
932.41	29761.00
933.14	29476.00
933.86	29118.00
934.59	28735.00
935.31	28399.00
936.04	27901.00
936.76	27385.00
937.49	26904.00
938.21	26405.00
938.94	25879.00
939.66	25379.00
940.39	24894.00
941.11	24543.00
941.84	24163.00
942.56	23855.00
943.29	23729.00
944.01	23545.00
944.74	23433.00
945.46	23344.00
946.19	23413.00
946.91	23527.00
947.64	23588.00
948.36	23721.00
949.09	23701.00
949.81	23774.00
950.53	23807.00
951.26	23865.00
951.98	23832.00
952.71	23892.00
953.43	23932.00
954.15	24034.00
954.88	24113.00
955.60	24153.00
956.33	24270.00
957.05	24345.00
957.77	24455.00
958.50	24516.00
959.22	24644.00
959.94	24579.00
960.67	24565.00
961.39	24535.00
962.11	24534.00
962.84	24534.00
963.56	24470.00
964.28	24412.00
965.00	24272.00
965.73	23976.00
966.45	23859.00
967.17	23737.00
967.89	23508.00
968.62	23349.00
969.34	23192.00
970.06	23009.00
970.78	22884.00
971.51	22893.00
972.23	22760.00
972.95	22613.00
973.67	22589.00
974.40	22473.00
975.12	22368.00
975.84	22290.00
976.56	22011.00
977.28	21884.00
978.00	21714.00
978.73	21656.00
979.45	21500.00
980.17	21370.00
980.89	21205.00
981.61	21165.00
982.33	21021.00
983.05	20906.00
983.77	20891.00
984.50	20822.00
985.22	20717.00
985.94	20556.00
986.66	20475.00
987.38	20432.00
988.10	20439.00
988.82	20372.00
989.54	20353.00
990.26	20250.00
990.98	20191.00
991.70	20039.00
992.42	19955.00
993.14	19831.00
993.86	19636.00
994.58	19432.00
995.30	19298.00
996.02	19147.00
996.74	19103.00
997.46	19029.00
998.18	18914.00
998.90	18823.00
999.62	18773.00
1000.34	18689.00
1001.06	18675.00
1001.78	18501.00
1002.50	18369.00
1003.22	18143.00
1003.94	17975.00
1004.66	17781.00
1005.38	17578.00
1006.09	17416.00
1006.81	17237.00
1007.53	17043.00
1008.25	16823.00
1008.97	16697.00
1009.69	16589.00
1010.41	16495.00
1011.13	16278.00
1011.84	16186.00
1012.56	15992.00
1013.28	15825.00
1014.00	15750.00
1014.72	15694.00
1015.44	15506.00
1016.15	15332.00
1016.87	15073.00
1017.59	14920.00
1018.31	14804.00
1019.03	14662.00
1019.74	14614.00
1020.46	14493.00
1021.18	14357.00
1021.90	14206.00
1022.61	14080.00
1023.33	13908.00
1024.05	13773.00
1024.76	13576.00
1025.48	13413.00
1026.20	13224.00
1026.92	13026.00
1027.63	12925.00
1028.35	12748.00
1029.07	12602.00
1029.78	12439.00
1030.50	12302.00
1031.22	12110.00
1031.93	11951.00
1032.65	11840.00
1033.37	11697.00
1034.08	11569.00
1034.80	11431.00
1035.52	11393.00
1036.23	11248.00
1036.95	11200.00
1037.66	11103.00
1038.38	10988.00
1039.10	10849.00
1039.81	10665.00
1040.53	10527.00
1041.24	10383.00
1041.96	10252.00
1042.67	10103.00
1043.39	9964.00
1044.10	9854.00
1044.82	9747.00
1045.54	9632.00
1046.25	9509.00
1046.97	9379.00
1047.68	9241.00
1048.40	9102.00
1049.11	8951.00
1049.83	8781.00
1050.54	8695.00
1051.26	8616.00
1051.97	8522.00
1052.68	8367.00
1053.40	8271.00
1054.11	8100.00
1054.83	7978.00
1055.54	7848.00
1056.26	7716.00
1056.97	7631.00
1057.69	7524.00
1058.40	7381.00
1059.11	7296.00
1059.83	7181.00
1060.54	7007.00
1061.25	6874.00
1061.97	6738.00
1062.68	6592.00
1063.40	6469.00
1064.11	6366.00
1064.82	6258.00
1065.54	6126.00
1066.25	2564.00
1066.96	2564.00
1067.68	2558.00
1068.39	2561.00
1069.10	2610.00
1069.82	2610.00
1070.53	2616.00
1071.24	2613.00
1071.95	2612.00
1072.67	2615.00
1073.38	6003.00
1074.09	5844.00
1074.80	5756.00
1075.52	5600.00
1076.23	5497.00
1076.94	5390.00
1077.65	2614.00
1078.37	2608.00
1079.08	2613.00
1079.79	2626.00
