300.47	2616.00
301.26	2619.00
302.04	2614.00
302.82	2609.00
303.60	2612.00
304.38	2615.00
305.17	2613.00
305.95	2614.00
306.73	2616.00
307.51	2617.00
308.29	2610.00
309.08	2613.00
309.86	2618.00
310.64	2614.00
311.42	2608.00
312.20	2616.00
312.98	2616.00
313.76	2611.00
314.55	2607.00
315.33	2611.00
316.11	2614.00
316.89	2614.00
317.67	2615.00
318.45	2610.00
319.23	2611.00
320.01	2613.00
320.79	2612.00
321.57	2620.00
322.35	2618.00
323.13	2612.00
323.91	2616.00
324.69	2613.00
325.47	2617.00
326.25	2616.00
327.03	2610.00
327.81	2616.00
328.59	2620.00
329.37	2615.00
330.15	2617.00
330.93	2620.00
331.71	2624.00
332.49	2616.00
333.27	2622.00
334.05	2620.00
334.83	2622.00
335.61	2620.00
336.39	2622.00
337.17	2623.00
337.95	2626.00
338.73	2626.00
339.51	2623.00
340.29	2627.00
341.07	2634.00
341.84	2634.00
342.62	2626.00
343.40	2633.00
344.18	2632.00
344.96	2637.00
345.74	2635.00
346.52	2642.00
347.29	2643.00
348.07	2644.00
348.85	2651.00
349.63	2650.00
350.41	2654.00
351.18	2662.00
351.96	2659.00
352.74	2668.00
353.52	2667.00
354.30	2670.00
355.07	2676.00
355.85	2678.00
356.63	2680.00
357.41	2683.00
358.18	2689.00
358.96	2696.00
359.74	2693.00
360.52	2706.00
361.29	2717.00
362.07	2714.00
362.85	2729.00
363.62	2731.00
364.40	2739.00
365.18	2738.00
365.95	2752.00
366.73	2756.00
367.51	2766.00
368.28	2772.00
369.06	2785.00
369.84	2791.00
370.61	2799.00
371.39	2806.00
372.17	2817.00
372.94	2835.00
373.72	2838.00
374.49	2843.00
375.27	2852.00
376.05	2865.00
376.82	2872.00
377.60	2887.00
378.37	2898.00
379.15	2911.00
379.92	2925.00
380.70	2938.00
381.47	2954.00
382.25	2967.00
383.02	2987.00
383.80	3013.00
384.58	3023.00
385.35	3030.00
386.13	3043.00
386.90	3061.00
387.67	3099.00
388.45	3098.00
389.22	3125.00
390.00	3137.00
390.77	3161.00
391.55	3177.00
392.32	3204.00
393.10	3212.00
393.87	3236.00
394.65	3259.00
395.42	3289.00
396.19	3313.00
396.97	3325.00
397.74	3341.00
398.52	3360.00
399.29	3390.00
400.06	3419.00
400.84	3429.00
401.61	3468.00
402.38	3485.00
403.16	3502.00
403.93	3532.00
404.70	3565.00
405.48	3575.00
406.25	3591.00
407.02	3632.00
407.80	3660.00
408.57	3670.00
409.34	3695.00
410.12	3745.00
410.89	3762.00
411.66	3791.00
412.43	3815.00
413.21	3845.00
413.98	3863.00
414.75	3892.00
415.52	3936.00
416.30	3951.00
417.07	3995.00
417.84	4009.00
418.61	4050.00
419.39	4092.00
420.16	4115.00
420.93	4126.00
421.70	4166.00
422.47	4213.00
423.24	4251.00
424.02	4287.00
424.79	4303.00
425.56	4358.00
426.33	4385.00
427.10	4412.00
427.87	4453.00
428.64	4492.00
429.42	4539.00
430.19	4568.00
430.96	4617.00
431.73	4658.00
432.50	4705.00
433.27	4744.00
434.04	4791.00
434.81	4849.00
435.58	4897.00
436.35	4961.00
437.12	4993.00
437.89	5036.00
438.67	5101.00
439.44	5159.00
440.21	5199.00
440.98	5267.00
441.75	5307.00
442.52	5369.00
443.29	5418.00
444.06	5488.00
444.83	5551.00
445.60	5629.00
446.37	5692.00
447.13	5738.00
447.90	5820.00
448.67	5869.00
449.44	5948.00
450.21	6007.00
450.98	6074.00
451.75	6157.00
452.52	6206.00
453.29	6303.00
454.06	6396.00
454.83	6482.00
455.60	6564.00
456.37	6619.00
457.13	6720.00
457.90	6782.00
458.67	6869.00
459.44	6947.00
460.21	7061.00
460.98	7107.00
461.75	7217.00
462.51	7289.00
463.28	7390.00
464.05	7497.00
464.82	7573.00
465.59	7703.00
466.35	7751.00
467.12	7874.00
467.89	7962.00
468.66	8097.00
469.43	8164.00
470.19	8266.00
470.96	8364.00
471.73	8481.00
472.50	8600.00
473.26	8714.00
474.03	8815.00
474.80	8943.00
475.56	9018.00
476.33	9157.00
477.10	9251.00
477.87	9338.00
478.63	9480.00
479.40	9605.00
480.17	9754.00
480.93	9840.00
481.70	9980.00
482.47	10089.00
483.23	10211.00
484.00	10374.00
484.76	10476.00
485.53	10613.00
486.30	10722.00
487.06	10851.00
487.83	11002.00
488.60	11144.00
489.36	11268.00
490.13	11409.00
490.89	11546.00
491.66	11647.00
492.42	11797.00
493.19	11916.00
493.96	12124.00
494.72	12214.00
495.49	12358.00
496.25	12495.00
497.02	12667.00
497.78	12823.00
498.55	12973.00
499.31	13087.00
500.08	13218.00
500.84	13370.00
501.61	13542.00
502.37	13708.00
503.14	13820.00
503.90	14000.00
504.67	14127.00
505.43	14283.00
506.20	14470.00
506.96	14603.00
507.72	14739.00
508.49	14989.00
509.25	15095.00
510.02	15281.00
510.78	15488.00
511.54	15662.00
512.31	15850.00
513.07	16008.00
513.84	16156.00
514.60	16357.00
515.36	16484.00
516.13	16629.00
516.89	16717.00
517.65	16893.00
518.42	17024.00
519.18	17191.00
519.94	17376.00
520.71	17546.00
521.47	17700.00
522.23	17867.00
523.00	18034.00
523.76	18232.00
524.52	18453.00
525.28	18657.00
526.05	18822.00
526.81	18998.00
527.57	19172.00
528.33	19331.00
529.10	19527.00
529.86	19689.00
530.62	19856.00
531.38	20047.00
532.15	20228.00
532.91	20376.00
533.67	20554.00
534.43	20664.00
535.19	20954.00
535.96	21138.00
536.72	21230.00
537.48	21404.00
538.24	21521.00
539.00	21765.00
539.76	22018.00
540.53	22311.00
541.29	22406.00
542.05	22592.00
542.81	22795.00
543.57	23027.00
544.33	23188.00
545.09	23397.00
545.85	23542.00
546.61	23661.00
547.38	23846.00
548.14	23984.00
548.90	24252.00
549.66	24464.00
550.42	24793.00
551.18	24903.00
551.94	25008.00
552.70	25198.00
553.46	25415.00
554.22	25639.00
554.98	25792.00
555.74	25906.00
556.50	26097.00
557.26	26382.00
558.02	26572.00
558.78	26871.00
559.54	27050.00
560.30	27207.00
561.06	27435.00
561.82	27670.00
562.58	27868.00
563.34	28064.00
564.10	28263.00
564.86	28395.00
565.61	28576.00
566.37	28752.00
567.13	29034.00
567.89	29232.00
568.65	29457.00
569.41	29547.00
570.17	29742.00
570.93	29953.00
571.69	30080.00
572.44	30255.00
573.20	30548.00
573.96	30697.00
574.72	30894.00
575.48	31036.00
576.24	31327.00
576.99	31487.00
577.75	31650.00
578.51	31899.00
579.27	32152.00
580.03	32311.00
580.78	32571.00
581.54	32724.00
582.30	32956.00
583.06	33173.00
583.82	33375.00
584.57	33578.00
585.33	33789.00
586.09	33924.00
586.84	33996.00
587.60	34099.00
588.36	34245.00
589.12	34461.00
589.87	34605.00
590.63	34906.00
591.39	34967.00
592.14	35112.00
592.90	35321.00
593.66	35654.00
594.41	35920.00
595.17	36099.00
595.93	36241.00
596.68	36223.00
597.44	36485.00
598.20	36626.00
598.95	36903.00
599.71	37101.00
600.46	37165.00
601.22	37351.00
601.98	37536.00
602.73	37854.00
603.49	38235.00
604.24	38486.00
605.00	38648.00
605.76	38727.00
606.51	39053.00
607.27	39148.00
608.02	39471.00
608.78	39636.00
609.53	39878.00
610.29	40036.00
611.04	40353.00
611.80	40648.00
612.55	40767.00
613.31	41112.00
614.06	41402.00
614.82	41454.00
615.57	41846.00
616.33	41999.00
617.08	42111.00
617.84	42302.00
618.59	42420.00
619.35	42450.00
620.10	42465.00
620.85	42436.00
621.61	42579.00
622.36	42653.00
623.12	42640.00
623.87	42710.00
624.62	42872.00
625.38	43011.00
626.13	43200.00
626.89	43469.00
627.64	43637.00
628.39	43685.00
629.15	43687.00
629.90	43697.00
630.65	43799.00
631.41	43693.00
632.16	43800.00
632.91	43681.00
633.67	43745.00
634.42	43727.00
635.17	43913.00
635.92	44272.00
636.68	44777.00
637.43	45344.00
638.18	45916.00
638.94	46338.00
639.69	46621.00
640.44	47113.00
641.19	47572.00
641.95	47941.00
642.70	48183.00
643.45	48497.00
644.20	48675.00
644.95	48843.00
645.71	49119.00
646.46	49191.00
647.21	49316.00
647.96	49362.00
648.71	49591.00
649.47	49629.00
650.22	49796.00
650.97	49777.00
651.72	50009.00
652.47	50217.00
653.22	50345.00
653.97	50556.00
654.73	50516.00
655.48	50738.00
656.23	50964.00
656.98	51156.00
657.73	51308.00
658.48	51468.00
659.23	51429.00
659.98	51368.00
660.73	51486.00
661.48	51640.00
662.23	51831.00
662.99	51763.00
663.74	51857.00
664.49	52096.00
665.24	52556.00
665.99	52910.00
666.74	53166.00
667.49	53244.00
668.24	53241.00
668.99	53390.00
669.74	53525.00
670.49	53747.00
671.24	53871.00
671.99	53995.00
672.74	54217.00
673.48	54325.00
674.23	54357.00
674.98	54512.00
675.73	54427.00
676.48	54693.00
677.23	54762.00
677.98	54845.00
678.73	54818.00
679.48	54879.00
680.23	54991.00
680.98	54962.00
681.73	55089.00
682.47	55081.00
683.22	54953.00
683.97	55159.00
684.72	55270.00
685.47	55281.00
686.22	55358.00
686.97	55520.00
687.71	55813.00
688.46	55943.00
689.21	56061.00
689.96	56184.00
690.71	56146.00
691.45	56264.00
692.20	56329.00
692.95	56385.00
693.70	56304.00
694.44	56473.00
695.19	56493.00
695.94	56567.00
696.69	56715.00
697.43	56832.00
698.18	56788.00
698.93	56902.00
699.68	56955.00
700.42	56912.00
701.17	57026.00
701.92	57092.00
702.66	57270.00
703.41	57366.00
704.16	57324.00
704.90	57290.00
705.65	57349.00
706.40	57402.00
707.14	57463.00
707.89	57547.00
708.64	57512.00
709.38	57406.00
710.13	57523.00
710.88	57510.00
711.62	57593.00
712.37	57646.00
713.11	57743.00
713.86	57718.00
714.61	57821.00
715.35	57754.00
716.10	57609.00
716.84	57540.00
717.59	57343.00
718.33	57176.00
719.08	57044.00
719.83	56957.00
720.57	56842.00
721.32	56783.00
722.06	56735.00
722.81	56676.00
723.55	56597.00
724.30	56647.00
725.04	56891.00
725.79	56854.00
726.53	56799.00
727.28	56895.00
728.02	56775.00
728.76	56811.00
729.51	56940.00
730.25	56942.00
731.00	56888.00
731.74	56919.00
732.49	56904.00
733.23	56956.00
733.97	56857.00
734.72	56936.00
735.46	56983.00
736.21	56750.00
736.95	56776.00
737.69	56713.00
738.44	56756.00
739.18	56857.00
739.92	56877.00
740.67	56939.00
741.41	56999.00
742.15	57082.00
742.90	57109.00
743.64	57243.00
744.38	57370.00
745.13	57281.00
745.87	57316.00
746.61	57279.00
747.36	57420.00
748.10	57434.00
748.84	57273.00
749.58	57066.00
750.33	57051.00
751.07	57174.00
751.81	57081.00
752.55	57061.00
753.30	57057.00
754.04	56916.00
754.78	56665.00
755.52	56533.00
756.27	56342.00
757.01	56357.00
757.75	56297.00
758.49	56326.00
759.23	56150.00
759.97	56090.00
760.72	56027.00
761.46	55980.00
762.20	55951.00
762.94	55936.00
763.68	55783.00
764.42	55680.00
765.16	55681.00
765.91	55716.00
766.65	55709.00
767.39	55605.00
768.13	55492.00
768.87	55517.00
769.61	55626.00
770.35	55581.00
771.09	55405.00
771.83	55297.00
772.57	55381.00
773.31	55373.00
774.05	55369.00
774.80	55486.00
775.54	55343.00
776.28	55302.00
777.02	55189.00
777.76	55021.00
778.50	54944.00
779.24	54687.00
779.98	54513.00
780.72	54410.00
781.46	54338.00
782.20	54275.00
782.93	54405.00
783.67	54375.00
784.41	54214.00
785.15	53952.00
785.89	53899.00
786.63	53672.00
787.37	53474.00
788.11	53312.00
788.85	53098.00
789.59	53018.00
790.33	52962.00
791.07	52847.00
791.81	52629.00
792.54	52523.00
793.28	52318.00
794.02	52037.00
794.76	51880.00
795.50	51705.00
796.24	51494.00
796.97	51313.00
797.71	51025.00
798.45	50989.00
799.19	50830.00
799.93	50953.00
800.67	50788.00
801.40	50737.00
802.14	50699.00
802.88	50729.00
803.62	50722.00
804.35	50590.00
805.09	50572.00
805.83	50308.00
806.57	50479.00
807.30	50555.00
808.04	50629.00
808.78	50516.00
809.52	50392.00
810.25	50249.00
810.99	50155.00
811.73	50031.00
812.46	49959.00
813.20	49909.00
813.94	49743.00
814.68	49511.00
815.41	49398.00
816.15	49368.00
816.88	49272.00
817.62	49132.00
818.36	48987.00
819.09	48693.00
819.83	48521.00
820.57	48479.00
821.30	48318.00
822.04	48219.00
822.77	48064.00
823.51	47932.00
824.25	47883.00
824.98	47810.00
825.72	47743.00
826.45	47647.00
827.19	47629.00
827.92	47512.00
828.66	47280.00
829.40	47153.00
830.13	47168.00
830.87	47099.00
831.60	46907.00
832.34	46849.00
833.07	46688.00
833.81	46661.00
834.54	46807.00
835.28	46796.00
836.01	46757.00
836.75	46520.00
837.48	46261.00
838.22	46064.00
838.95	45891.00
839.68	45815.00
840.42	45917.00
841.15	45855.00
841.89	45726.00
842.62	45507.00
843.36	45400.00
844.09	45269.00
844.82	45459.00
845.56	45468.00
846.29	45278.00
847.02	45005.00
847.76	44811.00
848.49	44887.00
849.23	45116.00
849.96	45283.00
850.69	45285.00
851.43	45114.00
852.16	44796.00
852.89	44610.00
853.63	44554.00
854.36	44480.00
855.09	44458.00
855.82	44415.00
856.56	44288.00
857.29	44085.00
858.02	44027.00
858.76	44044.00
859.49	43990.00
860.22	43944.00
860.95	43880.00
861.69	43745.00
862.42	43547.00
863.15	43347.00
863.88	43154.00
864.61	43233.00
865.35	43185.00
866.08	43083.00
866.81	42773.00
867.54	42416.00
868.27	42269.00
869.01	42248.00
869.74	42173.00
870.47	42217.00
871.20	42210.00
871.93	42032.00
872.66	41807.00
873.40	41729.00
874.13	41659.00
874.86	41513.00
875.59	41339.00
876.32	41314.00
877.05	41250.00
877.78	41032.00
878.51	40817.00
879.24	40686.00
879.97	40376.00
880.71	40361.00
881.44	40229.00
882.17	39956.00
882.90	39704.00
883.63	39582.00
884.36	39420.00
885.09	39508.00
885.82	39556.00
886.55	39631.00
887.28	39638.00
888.01	39599.00
888.74	39529.00
889.47	39277.00
890.20	39124.00
890.93	38954.00
891.66	38721.00
892.39	38757.00
893.12	38718.00
893.85	38797.00
894.57	38811.00
895.30	38729.00
896.03	38803.00
896.76	38552.00
897.49	38417.00
898.22	38248.00
898.95	37991.00
899.68	37851.00
900.41	37760.00
901.14	37460.00
901.86	37379.00
902.59	37390.00
903.32	37409.00
904.05	37338.00
904.78	37182.00
905.51	36952.00
906.24	36883.00
906.96	36707.00
907.69	36534.00
908.42	36392.00
909.15	36113.00
909.88	35932.00
910.60	35910.00
911.33	35738.00
912.06	35610.00
912.79	35411.00
913.52	35281.00
914.24	35213.00
914.97	35161.00
915.70	34998.00
916.42	34988.00
917.15	34850.00
917.88	34606.00
918.61	34392.00
919.33	34076.00
920.06	33842.00
920.79	33642.00
921.51	33518.00
922.24	33363.00
922.97	33150.00
923.69	33020.00
924.42	32855.00
925.15	32636.00
925.87	32409.00
926.60	32071.00
927.33	31979.00
928.05	31541.00
928.78	31317.00
929.51	30984.00
930.23	30699.00
930.96	30462.00
931.68	30066.00
932.41	29722.00
933.14	29370.00
933.86	29031.00
934.59	28735.00
935.31	28330.00
936.04	27833.00
936.76	27311.00
937.49	26852.00
938.21	26382.00
938.94	25814.00
939.66	25301.00
940.39	24929.00
941.11	24482.00
941.84	24132.00
942.56	23857.00
943.29	23660.00
944.01	23460.00
944.74	23351.00
945.46	23394.00
946.19	23374.00
946.91	23498.00
947.64	23521.00
948.36	23611.00
949.09	23692.00
949.81	23743.00
950.53	23733.00
951.26	23843.00
951.98	23839.00
952.71	23858.00
953.43	23840.00
954.15	23924.00
954.88	24029.00
955.60	24156.00
956.33	24205.00
957.05	24349.00
957.77	24416.00
958.50	24560.00
959.22	24600.00
959.94	24578.00
960.67	24553.00
961.39	24513.00
962.11	24485.00
962.84	24520.00
963.56	24448.00
964.28	24390.00
965.00	24201.00
965.73	24028.00
966.45	23785.00
967.17	23731.00
967.89	23419.00
968.62	23335.00
969.34	23140.00
970.06	23003.00
970.78	22865.00
971.51	22806.00
972.23	22714.00
972.95	22589.00
973.67	22533.00
974.40	22504.00
975.12	22361.00
975.84	22210.00
976.56	21985.00
977.28	21833.00
978.00	21707.00
978.73	21573.00
979.45	21413.00
980.17	21307.00
980.89	21132.00
981.61	21104.00
982.33	20912.00
983.05	20917.00
983.77	20799.00
984.50	20743.00
985.22	20622.00
985.94	20541.00
986.66	20475.00
987.38	20393.00
988.10	20334.00
988.82	20335.00
989.54	20295.00
990.26	20203.00
990.98	20189.00
991.70	20044.00
992.42	19942.00
993.14	19795.00
993.86	19596.00
994.58	19411.00
995.30	19269.00
996.02	19113.00
996.74	19036.00
997.46	18993.00
998.18	18884.00
998.90	18808.00
999.62	18711.00
1000.34	18670.00
1001.06	18621.00
1001.78	18493.00
1002.50	18382.00
1003.22	18096.00
1003.94	17886.00
1004.66	17722.00
1005.38	17562.00
1006.09	17399.00
1006.81	17206.00
1007.53	16934.00
1008.25	16814.00
1008.97	16679.00
1009.69	16568.00
1010.41	16444.00
1011.13	16312.00
1011.84	16068.00
1012.56	15984.00
1013.28	15844.00
1014.00	15733.00
1014.72	15613.00
1015.44	15419.00
1016.15	15240.00
1016.87	15052.00
1017.59	14885.00
1018.31	14806.00
1019.03	14645.00
1019.74	14565.00
1020.46	14407.00
1021.18	14279.00
1021.90	14175.00
1022.61	14028.00
1023.33	13929.00
1024.05	13766.00
1024.76	13567.00
1025.48	13406.00
1026.20	13198.00
1026.92	12999.00
1027.63	12865.00
1028.35	12723.00
1029.07	12610.00
1029.78	12447.00
1030.50	12262.00
1031.22	12101.00
1031.93	11956.00
1032.65	11792.00
1033.37	11631.00
1034.08	11551.00
1034.80	11461.00
1035.52	11359.00
1036.23	11302.00
1036.95	11176.00
1037.66	11055.00
1038.38	10980.00
1039.10	10819.00
1039.81	10680.00
1040.53	10466.00
1041.24	10323.00
1041.96	10205.00
1042.67	10077.00
1043.39	9972.00
1044.10	9879.00
1044.82	9724.00
1045.54	9602.00
1046.25	9490.00
1046.97	9382.00
1047.68	9235.00
1048.40	9080.00
1049.11	8970.00
1049.83	8807.00
1050.54	8695.00
1051.26	8601.00
1051.97	8513.00
1052.68	8390.00
1053.40	8287.00
1054.11	8149.00
1054.83	7953.00
1055.54	7832.00
1056.26	7696.00
1056.97	7604.00
1057.69	7505.00
1058.40	7394.00
1059.11	7291.00
1059.83	7147.00
1060.54	6993.00
1061.25	6890.00
1061.97	6737.00
1062.68	6625.00
1063.40	6490.00
1064.11	6361.00
1064.82	6262.00
1065.54	6098.00
1066.25	2562.00
1066.96	2559.00
1067.68	2562.00
1068.39	2561.00
1069.10	2612.00
1069.82	2606.00
1070.53	2615.00
1071.24	2612.00
1071.95	2610.00
1072.67	2615.00
1073.38	5962.00
1074.09	5854.00
1074.80	5720.00
1075.52	5603.00
1076.23	5497.00
1076.94	5380.00
1077.65	2616.00
1078.37	2614.00
1079.08	2612.00
1079.79	2625.00
