300.47	2609.00
301.26	2614.00
302.04	2611.00
302.82	2616.00
303.60	2609.00
304.38	2614.00
305.17	2613.00
305.95	2611.00
306.73	2610.00
307.51	2614.00
308.29	2613.00
309.08	2613.00
309.86	2612.00
310.64	2613.00
311.42	2612.00
312.20	2612.00
312.98	2618.00
313.76	2612.00
314.55	2614.00
315.33	2614.00
316.11	2614.00
316.89	2613.00
317.67	2613.00
318.45	2612.00
319.23	2616.00
320.01	2613.00
320.79	2613.00
321.57	2612.00
322.35	2617.00
323.13	2615.00
323.91	2614.00
324.69	2613.00
325.47	2618.00
326.25	2615.00
327.03	2619.00
327.81	2613.00
328.59	2624.00
329.37	2612.00
330.15	2619.00
330.93	2621.00
331.71	2616.00
332.49	2619.00
333.27	2622.00
334.05	2622.00
334.83	2622.00
335.61	2624.00
336.39	2625.00
337.17	2623.00
337.95	2630.00
338.73	2625.00
339.51	2622.00
340.29	2625.00
341.07	2632.00
341.84	2632.00
342.62	2634.00
343.40	2633.00
344.18	2634.00
344.96	2633.00
345.74	2639.00
346.52	2635.00
347.29	2647.00
348.07	2645.00
348.85	2652.00
349.63	2653.00
350.41	2652.00
351.18	2650.00
351.96	2660.00
352.74	2663.00
353.52	2668.00
354.30	2671.00
355.07	2677.00
355.85	2682.00
356.63	2684.00
357.41	2688.00
358.18	2694.00
358.96	2699.00
359.74	2702.00
360.52	2705.00
361.29	2717.00
362.07	2716.00
362.85	2723.00
363.62	2720.00
364.40	2737.00
365.18	2740.00
365.95	2752.00
366.73	2755.00
367.51	2765.00
368.28	2769.00
369.06	2784.00
369.84	2792.00
370.61	2798.00
371.39	2810.00
372.17	2815.00
372.94	2827.00
373.72	2841.00
374.49	2847.00
375.27	2857.00
376.05	2864.00
376.82	2883.00
377.60	2885.00
378.37	2903.00
379.15	2917.00
379.92	2922.00
380.70	2944.00
381.47	2944.00
382.25	2969.00
383.02	2983.00
383.80	2999.00
384.58	3021.00
385.35	3038.00
386.13	3053.00
386.90	3061.00
387.67	3092.00
388.45	3097.00
389.22	3116.00
390.00	3144.00
390.77	3166.00
391.55	3168.00
392.32	3191.00
393.10	3216.00
393.87	3234.00
394.65	3261.00
395.42	3284.00
396.19	3302.00
396.97	3334.00
397.74	3350.00
398.52	3367.00
399.29	3397.00
400.06	3417.00
400.84	3413.00
401.61	3461.00
402.38	3480.00
403.16	3514.00
403.93	3526.00
404.70	3553.00
405.48	3574.00
406.25	3603.00
407.02	3627.00
407.80	3658.00
408.57	3684.00
409.34	3705.00
410.12	3717.00
410.89	3761.00
411.66	3792.00
412.43	3808.00
413.21	3840.00
413.98	3877.00
414.75	3907.00
415.52	3943.00
416.30	3965.00
417.07	3982.00
417.84	4015.00
418.61	4044.00
419.39	4079.00
420.16	4116.00
420.93	4129.00
421.70	4187.00
422.47	4197.00
423.24	4248.00
424.02	4288.00
424.79	4308.00
425.56	4338.00
426.33	4381.00
427.10	4415.00
427.87	4457.00
428.64	4515.00
429.42	4544.00
430.19	4596.00
430.96	4617.00
431.73	4681.00
432.50	4725.00
433.27	4758.00
434.04	4797.00
434.81	4859.00
435.58	4895.00
436.35	4949.00
437.12	5006.00
437.89	5054.00
438.67	5131.00
439.44	5165.00
440.21	5208.00
440.98	5268.00
441.75	5327.00
442.52	5372.00
443.29	5437.00
444.06	5503.00
444.83	5580.00
445.60	5612.00
446.37	5723.00
447.13	5756.00
447.90	5806.00
448.67	5874.00
449.44	5977.00
450.21	6014.00
450.98	6091.00
451.75	6160.00
452.52	6229.00
453.29	6318.00
454.06	6424.00
454.83	6471.00
455.60	6566.00
456.37	6634.00
457.13	6708.00
457.90	6794.00
458.67	6878.00
459.44	6971.00
460.21	7056.00
460.98	7124.00
461.75	7250.00
462.51	7334.00
463.28	7427.00
464.05	7508.00
464.82	7595.00
465.59	7706.00
466.35	7782.00
467.12	7881.00
467.89	7989.00
468.66	8097.00
469.43	8167.00
470.19	8292.00
470.96	8403.00
471.73	8524.00
472.50	8611.00
473.26	8717.00
474.03	8846.00
474.80	8953.00
475.56	9037.00
476.33	9161.00
477.10	9271.00
477.87	9397.00
478.63	9510.00
479.40	9622.00
480.17	9753.00
480.93	9812.00
481.70	9979.00
482.47	10074.00
483.23	10204.00
484.00	10351.00
484.76	10489.00
485.53	10651.00
486.30	10738.00
487.06	10873.00
487.83	11032.00
488.60	11159.00
489.36	11291.00
490.13	11407.00
490.89	11529.00
491.66	11681.00
492.42	11823.00
493.19	11961.00
493.96	12127.00
494.72	12257.00
495.49	12419.00
496.25	12551.00
497.02	12709.00
497.78	12819.00
498.55	12975.00
499.31	13088.00
500.08	13252.00
500.84	13399.00
501.61	13498.00
502.37	13695.00
503.14	13843.00
503.90	13985.00
504.67	14199.00
505.43	14288.00
506.20	14446.00
506.96	14650.00
507.72	14804.00
508.49	14960.00
509.25	15165.00
510.02	15317.00
510.78	15540.00
511.54	15676.00
512.31	15889.00
513.07	15975.00
513.84	16211.00
514.60	16338.00
515.36	16543.00
516.13	16621.00
516.89	16756.00
517.65	16893.00
518.42	17044.00
519.18	17271.00
519.94	17415.00
520.71	17589.00
521.47	17721.00
522.23	17883.00
523.00	18100.00
523.76	18289.00
524.52	18492.00
525.28	18683.00
526.05	18782.00
526.81	18993.00
527.57	19136.00
528.33	19361.00
529.10	19561.00
529.86	19734.00
530.62	19851.00
531.38	20054.00
532.15	20293.00
532.91	20402.00
533.67	20605.00
534.43	20728.00
535.19	20946.00
535.96	21117.00
536.72	21268.00
537.48	21447.00
538.24	21705.00
539.00	21797.00
539.76	22000.00
540.53	22287.00
541.29	22511.00
542.05	22626.00
542.81	22863.00
543.57	23040.00
544.33	23260.00
545.09	23421.00
545.85	23634.00
546.61	23734.00
547.38	23969.00
548.14	24102.00
548.90	24300.00
549.66	24522.00
550.42	24763.00
551.18	24925.00
551.94	25082.00
552.70	25284.00
553.46	25494.00
554.22	25708.00
554.98	25838.00
555.74	25914.00
556.50	26197.00
557.26	26398.00
558.02	26647.00
558.78	26867.00
559.54	27059.00
560.30	27222.00
561.06	27519.00
561.82	27715.00
562.58	27917.00
563.34	28145.00
564.10	28312.00
564.86	28498.00
565.61	28693.00
566.37	28852.00
567.13	29115.00
567.89	29289.00
568.65	29451.00
569.41	29555.00
570.17	29816.00
570.93	29952.00
571.69	30164.00
572.44	30359.00
573.20	30612.00
573.96	30710.00
574.72	30998.00
575.48	31154.00
576.24	31406.00
576.99	31572.00
577.75	31765.00
578.51	32043.00
579.27	32215.00
580.03	32352.00
580.78	32587.00
581.54	32849.00
582.30	33082.00
583.06	33253.00
583.82	33411.00
584.57	33635.00
585.33	33856.00
586.09	34009.00
586.84	34092.00
587.60	34145.00
588.36	34295.00
589.12	34459.00
589.87	34675.00
590.63	34934.00
591.39	35048.00
592.14	35215.00
592.90	35461.00
593.66	35675.00
594.41	35985.00
595.17	36209.00
595.93	36236.00
596.68	36383.00
597.44	36531.00
598.20	36716.00
598.95	37006.00
599.71	37189.00
600.46	37349.00
601.22	37423.00
601.98	37608.00
602.73	37938.00
603.49	38264.00
604.24	38519.00
605.00	38667.00
605.76	38918.00
606.51	39068.00
607.27	39288.00
608.02	39530.00
608.78	39746.00
609.53	39964.00
610.29	40147.00
611.04	40382.00
611.80	40665.00
612.55	40960.00
613.31	41190.00
614.06	41437.00
614.82	41690.00
615.57	41864.00
616.33	42042.00
617.08	42190.00
617.84	42364.00
618.59	42464.00
619.35	42484.00
620.10	42441.00
620.85	42537.00
621.61	42634.00
622.36	42813.00
623.12	42763.00
623.87	42797.00
624.62	43057.00
625.38	43210.00
626.13	43299.00
626.89	43553.00
627.64	43666.00
628.39	43697.00
629.15	43755.00
629.90	43860.00
630.65	43891.00
631.41	43908.00
632.16	43888.00
632.91	43797.00
633.67	43813.00
634.42	43746.00
635.17	44028.00
635.92	44306.00
636.68	44874.00
637.43	45442.00
638.18	46065.00
638.94	46374.00
639.69	46791.00
640.44	47192.00
641.19	47620.00
641.95	48000.00
642.70	48292.00
643.45	48586.00
644.20	48826.00
644.95	48969.00
645.71	49079.00
646.46	49339.00
647.21	49471.00
647.96	49484.00
648.71	49625.00
649.47	49859.00
650.22	49964.00
650.97	50086.00
651.72	50186.00
652.47	50290.00
653.22	50443.00
653.97	50503.00
654.73	50722.00
655.48	50903.00
656.23	51136.00
656.98	51316.00
657.73	51488.00
658.48	51506.00
659.23	51516.00
659.98	51608.00
660.73	51567.00
661.48	51765.00
662.23	51771.00
662.99	51786.00
663.74	51843.00
664.49	52141.00
665.24	52663.00
665.99	52974.00
666.74	53373.00
667.49	53301.00
668.24	53298.00
668.99	53483.00
669.74	53697.00
670.49	53854.00
671.24	53990.00
671.99	54121.00
672.74	54388.00
673.48	54424.00
674.23	54567.00
674.98	54585.00
675.73	54674.00
676.48	54811.00
677.23	54814.00
677.98	54863.00
678.73	54924.00
679.48	54965.00
680.23	55057.00
680.98	55150.00
681.73	55150.00
682.47	55164.00
683.22	55183.00
683.97	55240.00
684.72	55333.00
685.47	55369.00
686.22	55589.00
686.97	55666.00
687.71	55908.00
688.46	56107.00
689.21	56213.00
689.96	56294.00
690.71	56281.00
691.45	56376.00
692.20	56473.00
692.95	56589.00
693.70	56495.00
694.44	56574.00
695.19	56610.00
695.94	56745.00
696.69	56925.00
697.43	56888.00
698.18	56944.00
698.93	57151.00
699.68	57114.00
700.42	57129.00
701.17	57110.00
701.92	57280.00
702.66	57336.00
703.41	57538.00
704.16	57383.00
704.90	57378.00
705.65	57371.00
706.40	57469.00
707.14	57571.00
707.89	57641.00
708.64	57581.00
709.38	57607.00
710.13	57612.00
710.88	57746.00
711.62	57718.00
712.37	57837.00
713.11	57823.00
713.86	57873.00
714.61	57945.00
715.35	57839.00
716.10	57750.00
716.84	57548.00
717.59	57535.00
718.33	57213.00
719.08	57084.00
719.83	57144.00
720.57	56943.00
721.32	56976.00
722.06	56770.00
722.81	56753.00
723.55	56795.00
724.30	56829.00
725.04	56918.00
725.79	56977.00
726.53	57023.00
727.28	56930.00
728.02	56948.00
728.76	56987.00
729.51	56898.00
730.25	57113.00
731.00	57122.00
731.74	57023.00
732.49	57044.00
733.23	56933.00
733.97	56993.00
734.72	56981.00
735.46	56975.00
736.21	56886.00
736.95	56844.00
737.69	56784.00
738.44	56927.00
739.18	57067.00
739.92	57061.00
740.67	57053.00
741.41	57109.00
742.15	57211.00
742.90	57305.00
743.64	57386.00
744.38	57393.00
745.13	57269.00
745.87	57277.00
746.61	57396.00
747.36	57583.00
748.10	57499.00
748.84	57466.00
749.58	57301.00
750.33	57106.00
751.07	57196.00
751.81	57119.00
752.55	57151.00
753.30	57171.00
754.04	57016.00
754.78	56817.00
755.52	56630.00
756.27	56588.00
757.01	56280.00
757.75	56335.00
758.49	56292.00
759.23	56261.00
759.97	56098.00
760.72	56114.00
761.46	56053.00
762.20	55978.00
762.94	55972.00
763.68	55860.00
764.42	55750.00
765.16	55849.00
765.91	55846.00
766.65	55754.00
767.39	55648.00
768.13	55713.00
768.87	55703.00
769.61	55683.00
770.35	55676.00
771.09	55555.00
771.83	55399.00
772.57	55413.00
773.31	55390.00
774.05	55542.00
774.80	55609.00
775.54	55443.00
776.28	55416.00
777.02	55244.00
777.76	55181.00
778.50	55001.00
779.24	54738.00
779.98	54687.00
780.72	54498.00
781.46	54381.00
782.20	54428.00
782.93	54508.00
783.67	54425.00
784.41	54305.00
785.15	54155.00
785.89	53998.00
786.63	53842.00
787.37	53654.00
788.11	53405.00
788.85	53194.00
789.59	53067.00
790.33	52998.00
791.07	52947.00
791.81	52826.00
792.54	52725.00
793.28	52472.00
794.02	52218.00
794.76	52002.00
795.50	51743.00
796.24	51563.00
796.97	51369.00
797.71	51210.00
798.45	51049.00
799.19	50933.00
799.93	50922.00
800.67	50904.00
801.40	50867.00
802.14	50796.00
802.88	50804.00
803.62	50729.00
804.35	50728.00
805.09	50690.00
805.83	50457.00
806.57	50531.00
807.30	50599.00
808.04	50724.00
808.78	50599.00
809.52	50479.00
810.25	50398.00
810.99	50304.00
811.73	50178.00
812.46	50099.00
813.20	49992.00
813.94	49919.00
814.68	49652.00
815.41	49586.00
816.15	49431.00
816.88	49417.00
817.62	49248.00
818.36	48996.00
819.09	48779.00
819.83	48654.00
820.57	48496.00
821.30	48396.00
822.04	48299.00
822.77	48084.00
823.51	47935.00
824.25	47939.00
824.98	47843.00
825.72	47831.00
826.45	47783.00
827.19	47608.00
827.92	47580.00
828.66	47381.00
829.40	47263.00
830.13	47124.00
830.87	47177.00
831.60	47053.00
832.34	46880.00
833.07	46733.00
833.81	46701.00
834.54	46864.00
835.28	46799.00
836.01	46896.00
836.75	46630.00
837.48	46313.00
838.22	46137.00
838.95	45952.00
839.68	45921.00
840.42	46031.00
841.15	45975.00
841.89	45753.00
842.62	45553.00
843.36	45407.00
844.09	45385.00
844.82	45523.00
845.56	45494.00
846.29	45453.00
847.02	45142.00
847.76	44982.00
848.49	44909.00
849.23	45069.00
849.96	45343.00
850.69	45317.00
851.43	45274.00
852.16	44882.00
852.89	44715.00
853.63	44513.00
854.36	44535.00
855.09	44539.00
855.82	44492.00
856.56	44341.00
857.29	44225.00
858.02	44115.00
858.76	44055.00
859.49	44006.00
860.22	44011.00
860.95	43984.00
861.69	43817.00
862.42	43561.00
863.15	43331.00
863.88	43180.00
864.61	43324.00
865.35	43275.00
866.08	43147.00
866.81	42825.00
867.54	42573.00
868.27	42335.00
869.01	42289.00
869.74	42247.00
870.47	42316.00
871.20	42229.00
871.93	42103.00
872.66	41954.00
873.40	41808.00
874.13	41664.00
874.86	41599.00
875.59	41345.00
876.32	41391.00
877.05	41184.00
877.78	41087.00
878.51	40976.00
879.24	40774.00
879.97	40547.00
880.71	40344.00
881.44	40217.00
882.17	40106.00
882.90	39840.00
883.63	39533.00
884.36	39556.00
885.09	39644.00
885.82	39636.00
886.55	39707.00
887.28	39733.00
888.01	39689.00
888.74	39471.00
889.47	39389.00
890.20	39186.00
890.93	38995.00
891.66	38826.00
892.39	38823.00
893.12	38890.00
893.85	38900.00
894.57	38849.00
895.30	38898.00
896.03	38797.00
896.76	38699.00
897.49	38491.00
898.22	38223.00
898.95	38109.00
899.68	37912.00
900.41	37704.00
901.14	37569.00
901.86	37452.00
902.59	37385.00
903.32	37406.00
904.05	37388.00
904.78	37266.00
905.51	37080.00
906.24	36845.00
906.96	36832.00
907.69	36635.00
908.42	36407.00
909.15	36224.00
909.88	36034.00
910.60	35862.00
911.33	35763.00
912.06	35635.00
912.79	35477.00
913.52	35407.00
914.24	35278.00
914.97	35258.00
915.70	35135.00
916.42	35085.00
917.15	34841.00
917.88	34668.00
918.61	34516.00
919.33	34202.00
920.06	33874.00
920.79	33711.00
921.51	33524.00
922.24	33390.00
922.97	33250.00
923.69	33018.00
924.42	32865.00
925.15	32707.00
925.87	32455.00
926.60	32204.00
927.33	31951.00
928.05	31581.00
928.78	31347.00
929.51	31109.00
930.23	30769.00
930.96	30375.00
931.68	30122.00
932.41	29800.00
933.14	29402.00
933.86	29115.00
934.59	28706.00
935.31	28362.00
936.04	27838.00
936.76	27430.00
937.49	26922.00
938.21	26433.00
938.94	25850.00
939.66	25446.00
940.39	24967.00
941.11	24547.00
941.84	24203.00
942.56	23932.00
943.29	23671.00
944.01	23463.00
944.74	23393.00
945.46	23435.00
946.19	23377.00
946.91	23488.00
947.64	23590.00
948.36	23666.00
949.09	23722.00
949.81	23759.00
950.53	23820.00
951.26	23873.00
951.98	23887.00
952.71	23892.00
953.43	23876.00
954.15	23986.00
954.88	24075.00
955.60	24196.00
956.33	24241.00
957.05	24364.00
957.77	24473.00
958.50	24543.00
959.22	24649.00
959.94	24651.00
960.67	24566.00
961.39	24486.00
962.11	24494.00
962.84	24505.00
963.56	24419.00
964.28	24372.00
965.00	24287.00
965.73	24071.00
966.45	23855.00
967.17	23690.00
967.89	23560.00
968.62	23358.00
969.34	23262.00
970.06	23025.00
970.78	22918.00
971.51	22770.00
972.23	22779.00
972.95	22639.00
973.67	22579.00
974.40	22485.00
975.12	22405.00
975.84	22268.00
976.56	22010.00
977.28	21888.00
978.00	21758.00
978.73	21653.00
979.45	21444.00
980.17	21340.00
980.89	21196.00
981.61	21117.00
982.33	21022.00
983.05	20917.00
983.77	20872.00
984.50	20719.00
985.22	20695.00
985.94	20654.00
986.66	20506.00
987.38	20440.00
988.10	20394.00
988.82	20407.00
989.54	20310.00
990.26	20214.00
990.98	20180.00
991.70	20065.00
992.42	19978.00
993.14	19834.00
993.86	19661.00
994.58	19507.00
995.30	19302.00
996.02	19165.00
996.74	19083.00
997.46	19067.00
998.18	18943.00
998.90	18794.00
999.62	18771.00
1000.34	18684.00
1001.06	18626.00
1001.78	18518.00
1002.50	18370.00
1003.22	18139.00
1003.94	17928.00
1004.66	17775.00
1005.38	17601.00
1006.09	17420.00
1006.81	17250.00
1007.53	17053.00
1008.25	16809.00
1008.97	16738.00
1009.69	16550.00
1010.41	16493.00
1011.13	16299.00
1011.84	16160.00
1012.56	16012.00
1013.28	15831.00
1014.00	15711.00
1014.72	15615.00
1015.44	15501.00
1016.15	15307.00
1016.87	15081.00
1017.59	14901.00
1018.31	14817.00
1019.03	14709.00
1019.74	14548.00
1020.46	14445.00
1021.18	14343.00
1021.90	14155.00
1022.61	14035.00
1023.33	13904.00
1024.05	13763.00
1024.76	13609.00
1025.48	13394.00
1026.20	13219.00
1026.92	13031.00
1027.63	12891.00
1028.35	12714.00
1029.07	12620.00
1029.78	12469.00
1030.50	12289.00
1031.22	12105.00
1031.93	11967.00
1032.65	11823.00
1033.37	11656.00
1034.08	11547.00
1034.80	11478.00
1035.52	11395.00
1036.23	11277.00
1036.95	11180.00
1037.66	11101.00
1038.38	11018.00
1039.10	10856.00
1039.81	10681.00
1040.53	10532.00
1041.24	10321.00
1041.96	10250.00
1042.67	10095.00
1043.39	9964.00
1044.10	9868.00
1044.82	9732.00
1045.54	9589.00
1046.25	9475.00
1046.97	9341.00
1047.68	9275.00
1048.40	9084.00
1049.11	8936.00
1049.83	8811.00
1050.54	8697.00
1051.26	8581.00
1051.97	8477.00
1052.68	8379.00
1053.40	8230.00
1054.11	8108.00
1054.83	7967.00
1055.54	7850.00
1056.26	7723.00
1056.97	7605.00
1057.69	7529.00
1058.40	7421.00
1059.11	7294.00
1059.83	7146.00
1060.54	7015.00
1061.25	6872.00
1061.97	6725.00
1062.68	6623.00
1063.40	6501.00
1064.11	6377.00
1064.82	6244.00
1065.54	6125.00
1066.25	2561.00
1066.96	2558.00
1067.68	2557.00
1068.39	2559.00
1069.10	2609.00
1069.82	2611.00
1070.53	2615.00
1071.24	2617.00
1071.95	2613.00
1072.67	2613.00
1073.38	5985.00
1074.09	5830.00
1074.80	5739.00
1075.52	5607.00
1076.23	5508.00
1076.94	5396.00
1077.65	2615.00
1078.37	2609.00
1079.08	2610.00
1079.79	2626.00
