300.47	2610.00
301.26	2608.00
302.04	2610.00
302.82	2607.00
303.60	2605.00
304.38	2612.00
305.17	2610.00
305.95	2610.00
306.73	2605.00
307.51	2609.00
308.29	2611.00
309.08	2607.00
309.86	2611.00
310.64	2613.00
311.42	2606.00
312.20	2610.00
312.98	2611.00
313.76	2608.00
314.55	2613.00
315.33	2613.00
316.11	2608.00
316.89	2609.00
317.67	2607.00
318.45	2613.00
319.23	2606.00
320.01	2610.00
320.79	2612.00
321.57	2612.00
322.35	2607.00
323.13	2611.00
323.91	2613.00
324.69	2610.00
325.47	2609.00
326.25	2614.00
327.03	2615.00
327.81	2612.00
328.59	2614.00
329.37	2611.00
330.15	2618.00
330.93	2612.00
331.71	2616.00
332.49	2613.00
333.27	2614.00
334.05	2614.00
334.83	2615.00
335.61	2615.00
336.39	2618.00
337.17	2623.00
337.95	2617.00
338.73	2620.00
339.51	2626.00
340.29	2625.00
341.07	2625.00
341.84	2626.00
342.62	2626.00
343.40	2629.00
344.18	2629.00
344.96	2633.00
345.74	2631.00
346.52	2637.00
347.29	2639.00
348.07	2644.00
348.85	2646.00
349.63	2650.00
350.41	2656.00
351.18	2656.00
351.96	2659.00
352.74	2661.00
353.52	2664.00
354.30	2668.00
355.07	2672.00
355.85	2672.00
356.63	2681.00
357.41	2685.00
358.18	2686.00
358.96	2699.00
359.74	2702.00
360.52	2702.00
361.29	2713.00
362.07	2713.00
362.85	2720.00
363.62	2724.00
364.40	2733.00
365.18	2736.00
365.95	2738.00
366.73	2755.00
367.51	2765.00
368.28	2769.00
369.06	2777.00
369.84	2788.00
370.61	2800.00
371.39	2800.00
372.17	2811.00
372.94	2818.00
373.72	2831.00
374.49	2837.00
375.27	2846.00
376.05	2862.00
376.82	2876.00
377.60	2888.00
378.37	2900.00
379.15	2911.00
379.92	2931.00
380.70	2937.00
381.47	2956.00
382.25	2977.00
383.02	2988.00
383.80	2995.00
384.58	3011.00
385.35	3033.00
386.13	3051.00
386.90	3064.00
387.67	3085.00
388.45	3109.00
389.22	3126.00
390.00	3133.00
390.77	3164.00
391.55	3172.00
392.32	3193.00
393.10	3216.00
393.87	3229.00
394.65	3257.00
395.42	3288.00
396.19	3283.00
396.97	3315.00
397.74	3338.00
398.52	3364.00
399.29	3376.00
400.06	3413.00
400.84	3430.00
401.61	3448.00
402.38	3479.00
403.16	3511.00
403.93	3515.00
404.70	3556.00
405.48	3577.00
406.25	3596.00
407.02	3613.00
407.80	3652.00
408.57	3683.00
409.34	3719.00
410.12	3730.00
410.89	3748.00
411.66	3781.00
412.43	3797.00
413.21	3836.00
413.98	3868.00
414.75	3893.00
415.52	3924.00
416.30	3946.00
417.07	3990.00
417.84	4007.00
418.61	4039.00
419.39	4070.00
420.16	4103.00
420.93	4133.00
421.70	4178.00
422.47	4201.00
423.24	4242.00
424.02	4271.00
424.79	4315.00
425.56	4345.00
426.33	4361.00
427.10	4406.00
427.87	4457.00
428.64	4491.00
429.42	4543.00
430.19	4588.00
430.96	4605.00
431.73	4643.00
432.50	4705.00
433.27	4744.00
434.04	4786.00
434.81	4858.00
435.58	4907.00
436.35	4939.00
437.12	4988.00
437.89	5027.00
438.67	5110.00
439.44	5157.00
440.21	5210.00
440.98	5252.00
441.75	5335.00
442.52	5385.00
443.29	5442.00
444.06	5480.00
444.83	5527.00
445.60	5635.00
446.37	5681.00
447.13	5733.00
447.90	5792.00
448.67	5877.00
449.44	5962.00
450.21	6031.00
450.98	6074.00
451.75	6152.00
452.52	6229.00
453.29	6297.00
454.06	6413.00
454.83	6466.00
455.60	6531.00
456.37	6612.00
457.13	6705.00
457.90	6789.00
458.67	6880.00
459.44	6953.00
460.21	7050.00
460.98	7098.00
461.75	7206.00
462.51	7313.00
463.28	7406.00
464.05	7485.00
464.82	7599.00
465.59	7675.00
466.35	7790.00
467.12	7873.00
467.89	7979.00
468.66	8086.00
469.43	8169.00
470.19	8285.00
470.96	8386.00
471.73	8495.00
472.50	8555.00
473.26	8699.00
474.03	8794.00
474.80	8936.00
475.56	9033.00
476.33	9145.00
477.10	9229.00
477.87	9351.00
478.63	9460.00
479.40	9604.00
480.17	9733.00
480.93	9825.00
481.70	9937.00
482.47	10083.00
483.23	10189.00
484.00	10337.00
484.76	10475.00
485.53	10603.00
486.30	10769.00
487.06	10838.00
487.83	10989.00
488.60	11118.00
489.36	11302.00
490.13	11392.00
490.89	11494.00
491.66	11668.00
492.42	11821.00
493.19	11971.00
493.96	12095.00
494.72	12238.00
495.49	12379.00
496.25	12527.00
497.02	12657.00
497.78	12771.00
498.55	12963.00
499.31	13058.00
500.08	13222.00
500.84	13356.00
501.61	13516.00
502.37	13663.00
503.14	13755.00
503.90	13991.00
504.67	14103.00
505.43	14294.00
506.20	14469.00
506.96	14586.00
507.72	14795.00
508.49	14964.00
509.25	15110.00
510.02	15240.00
510.78	15461.00
511.54	15640.00
512.31	15776.00
513.07	15974.00
513.84	16101.00
514.60	16341.00
515.36	16462.00
516.13	16639.00
516.89	16743.00
517.65	16847.00
518.42	16997.00
519.18	17196.00
519.94	17410.00
520.71	17521.00
521.47	17670.00
522.23	17845.00
523.00	18054.00
523.76	18273.00
524.52	18471.00
525.28	18627.00
526.05	18788.00
526.81	18946.00
527.57	19184.00
528.33	19341.00
529.10	19501.00
529.86	19653.00
530.62	19888.00
531.38	20033.00
532.15	20186.00
532.91	20311.00
533.67	20471.00
534.43	20691.00
535.19	20889.00
535.96	21075.00
536.72	21179.00
537.48	21403.00
538.24	21559.00
539.00	21756.00
539.76	21993.00
540.53	22255.00
541.29	22438.00
542.05	22585.00
542.81	22829.00
543.57	23001.00
544.33	23223.00
545.09	23409.00
545.85	23571.00
546.61	23702.00
547.38	23829.00
548.14	23982.00
548.90	24266.00
549.66	24484.00
550.42	24761.00
551.18	24860.00
551.94	25045.00
552.70	25212.00
553.46	25397.00
554.22	25589.00
554.98	25781.00
555.74	25875.00
556.50	26025.00
557.26	26349.00
558.02	26614.00
558.78	26837.00
559.54	27026.00
560.30	27156.00
561.06	27406.00
561.82	27621.00
562.58	27840.00
563.34	28039.00
564.10	28198.00
564.86	28437.00
565.61	28590.00
566.37	28723.00
567.13	29033.00
567.89	29197.00
568.65	29395.00
569.41	29539.00
570.17	29780.00
570.93	29887.00
571.69	30063.00
572.44	30256.00
573.20	30455.00
573.96	30678.00
574.72	30913.00
575.48	31054.00
576.24	31268.00
576.99	31522.00
577.75	31714.00
578.51	31874.00
579.27	32081.00
580.03	32272.00
580.78	32546.00
581.54	32770.00
582.30	32964.00
583.06	33116.00
583.82	33325.00
584.57	33561.00
585.33	33798.00
586.09	33871.00
586.84	34015.00
587.60	34123.00
588.36	34192.00
589.12	34361.00
589.87	34677.00
590.63	34826.00
591.39	35001.00
592.14	35165.00
592.90	35416.00
593.66	35628.00
594.41	35896.00
595.17	35973.00
595.93	36189.00
596.68	36223.00
597.44	36396.00
598.20	36620.00
598.95	36869.00
599.71	37073.00
600.46	37207.00
601.22	37350.00
601.98	37449.00
602.73	37818.00
603.49	38193.00
604.24	38468.00
605.00	38631.00
605.76	38809.00
606.51	38964.00
607.27	39262.00
608.02	39389.00
608.78	39649.00
609.53	39873.00
610.29	40076.00
611.04	40278.00
611.80	40589.00
612.55	40862.00
613.31	41079.00
614.06	41329.00
614.82	41589.00
615.57	41786.00
616.33	41976.00
617.08	42126.00
617.84	42276.00
618.59	42404.00
619.35	42374.00
620.10	42380.00
620.85	42393.00
621.61	42510.00
622.36	42608.00
623.12	42665.00
623.87	42825.00
624.62	42903.00
625.38	43027.00
626.13	43202.00
626.89	43438.00
627.64	43622.00
628.39	43642.00
629.15	43623.00
629.90	43753.00
630.65	43737.00
631.41	43658.00
632.16	43765.00
632.91	43684.00
633.67	43640.00
634.42	43707.00
635.17	43849.00
635.92	44251.00
636.68	44705.00
637.43	45316.00
638.18	45792.00
638.94	46323.00
639.69	46697.00
640.44	46986.00
641.19	47459.00
641.95	47859.00
642.70	48127.00
643.45	48397.00
644.20	48545.00
644.95	48838.00
645.71	49100.00
646.46	49178.00
647.21	49346.00
647.96	49398.00
648.71	49532.00
649.47	49710.00
650.22	49765.00
650.97	49948.00
651.72	49960.00
652.47	50210.00
653.22	50274.00
653.97	50432.00
654.73	50632.00
655.48	50754.00
656.23	50957.00
656.98	51152.00
657.73	51295.00
658.48	51406.00
659.23	51337.00
659.98	51421.00
660.73	51537.00
661.48	51620.00
662.23	51678.00
662.99	51654.00
663.74	51765.00
664.49	52042.00
665.24	52546.00
665.99	52942.00
666.74	53080.00
667.49	53202.00
668.24	53238.00
668.99	53369.00
669.74	53491.00
670.49	53694.00
671.24	53833.00
671.99	54006.00
672.74	54191.00
673.48	54356.00
674.23	54321.00
674.98	54460.00
675.73	54477.00
676.48	54632.00
677.23	54721.00
677.98	54745.00
678.73	54793.00
679.48	54768.00
680.23	54919.00
680.98	55005.00
681.73	55089.00
682.47	54965.00
683.22	55057.00
683.97	55016.00
684.72	55305.00
685.47	55306.00
686.22	55470.00
686.97	55496.00
687.71	55718.00
688.46	56065.00
689.21	56122.00
689.96	56097.00
690.71	56167.00
691.45	56205.00
692.20	56445.00
692.95	56462.00
693.70	56367.00
694.44	56436.00
695.19	56481.00
695.94	56547.00
696.69	56600.00
697.43	56743.00
698.18	56825.00
698.93	56947.00
699.68	56975.00
700.42	56891.00
701.17	57018.00
701.92	57131.00
702.66	57217.00
703.41	57342.00
704.16	57323.00
704.90	57273.00
705.65	57355.00
706.40	57331.00
707.14	57346.00
707.89	57516.00
708.64	57501.00
709.38	57449.00
710.13	57447.00
710.88	57566.00
711.62	57636.00
712.37	57674.00
713.11	57759.00
713.86	57732.00
714.61	57795.00
715.35	57696.00
716.10	57626.00
716.84	57500.00
717.59	57343.00
718.33	57126.00
719.08	56968.00
719.83	56888.00
720.57	56809.00
721.32	56693.00
722.06	56670.00
722.81	56706.00
723.55	56661.00
724.30	56697.00
725.04	56780.00
725.79	56821.00
726.53	56840.00
727.28	56863.00
728.02	56809.00
728.76	56788.00
729.51	56822.00
730.25	56878.00
731.00	56937.00
731.74	56849.00
732.49	56955.00
733.23	56850.00
733.97	56833.00
734.72	56808.00
735.46	56773.00
736.21	56774.00
736.95	56655.00
737.69	56687.00
738.44	56769.00
739.18	56837.00
739.92	56884.00
740.67	56835.00
741.41	56911.00
742.15	57022.00
742.90	57119.00
743.64	57336.00
744.38	57284.00
745.13	57219.00
745.87	57257.00
746.61	57400.00
747.36	57336.00
748.10	57385.00
748.84	57255.00
749.58	57129.00
750.33	57146.00
751.07	57068.00
751.81	57025.00
752.55	57112.00
753.30	57038.00
754.04	56801.00
754.78	56624.00
755.52	56507.00
756.27	56327.00
757.01	56243.00
757.75	56291.00
758.49	56211.00
759.23	56130.00
759.97	56051.00
760.72	55982.00
761.46	55915.00
762.20	55988.00
762.94	55858.00
763.68	55764.00
764.42	55645.00
765.16	55669.00
765.91	55674.00
766.65	55704.00
767.39	55554.00
768.13	55509.00
768.87	55505.00
769.61	55522.00
770.35	55524.00
771.09	55465.00
771.83	55259.00
772.57	55182.00
773.31	55403.00
774.05	55423.00
774.80	55371.00
775.54	55410.00
776.28	55259.00
777.02	55186.00
777.76	55096.00
778.50	54830.00
779.24	54656.00
779.98	54514.00
780.72	54373.00
781.46	54302.00
782.20	54351.00
782.93	54298.00
783.67	54198.00
784.41	54186.00
785.15	54081.00
785.89	53909.00
786.63	53684.00
787.37	53424.00
788.11	53304.00
788.85	53051.00
789.59	53027.00
790.33	52947.00
791.07	52769.00
791.81	52726.00
792.54	52512.00
793.28	52368.00
794.02	51949.00
794.76	51930.00
795.50	51636.00
796.24	51475.00
796.97	51340.00
797.71	51101.00
798.45	50968.00
799.19	50904.00
799.93	50815.00
800.67	50834.00
801.40	50629.00
802.14	50697.00
802.88	50723.00
803.62	50711.00
804.35	50623.00
805.09	50480.00
805.83	50472.00
806.57	50413.00
807.30	50423.00
808.04	50627.00
808.78	50563.00
809.52	50358.00
810.25	50357.00
810.99	50147.00
811.73	50031.00
812.46	49991.00
813.20	49814.00
813.94	49764.00
814.68	49496.00
815.41	49372.00
816.15	49310.00
816.88	49309.00
817.62	49080.00
818.36	48911.00
819.09	48799.00
819.83	48522.00
820.57	48357.00
821.30	48388.00
822.04	48219.00
822.77	48089.00
823.51	47898.00
824.25	47862.00
824.98	47731.00
825.72	47789.00
826.45	47669.00
827.19	47479.00
827.92	47418.00
828.66	47205.00
829.40	47221.00
830.13	47075.00
830.87	47083.00
831.60	46961.00
832.34	46759.00
833.07	46761.00
833.81	46590.00
834.54	46704.00
835.28	46778.00
836.01	46660.00
836.75	46509.00
837.48	46175.00
838.22	46025.00
838.95	45893.00
839.68	45814.00
840.42	45800.00
841.15	45867.00
841.89	45650.00
842.62	45540.00
843.36	45388.00
844.09	45277.00
844.82	45434.00
845.56	45474.00
846.29	45257.00
847.02	45050.00
847.76	44835.00
848.49	45007.00
849.23	44984.00
849.96	45226.00
850.69	45299.00
851.43	45059.00
852.16	44877.00
852.89	44651.00
853.63	44488.00
854.36	44340.00
855.09	44348.00
855.82	44493.00
856.56	44308.00
857.29	44129.00
858.02	43989.00
858.76	43988.00
859.49	44042.00
860.22	43921.00
860.95	43814.00
861.69	43700.00
862.42	43491.00
863.15	43248.00
863.88	43196.00
864.61	43170.00
865.35	43202.00
866.08	43079.00
866.81	42811.00
867.54	42427.00
868.27	42199.00
869.01	42107.00
869.74	42120.00
870.47	42260.00
871.20	42141.00
871.93	42012.00
872.66	41834.00
873.40	41721.00
874.13	41659.00
874.86	41492.00
875.59	41357.00
876.32	41275.00
877.05	41183.00
877.78	41044.00
878.51	40874.00
879.24	40701.00
879.97	40509.00
880.71	40360.00
881.44	40251.00
882.17	40050.00
882.90	39773.00
883.63	39607.00
884.36	39495.00
885.09	39466.00
885.82	39630.00
886.55	39620.00
887.28	39615.00
888.01	39499.00
888.74	39533.00
889.47	39439.00
890.20	39097.00
890.93	38891.00
891.66	38891.00
892.39	38756.00
893.12	38812.00
893.85	38854.00
894.57	38806.00
895.30	38808.00
896.03	38813.00
896.76	38676.00
897.49	38468.00
898.22	38249.00
898.95	37968.00
899.68	37887.00
900.41	37721.00
901.14	37543.00
901.86	37423.00
902.59	37357.00
903.32	37332.00
904.05	37253.00
904.78	37278.00
905.51	37019.00
906.24	36855.00
906.96	36701.00
907.69	36569.00
908.42	36269.00
909.15	36219.00
909.88	36037.00
910.60	35898.00
911.33	35757.00
912.06	35579.00
912.79	35440.00
913.52	35311.00
914.24	35245.00
914.97	35205.00
915.70	35074.00
916.42	35048.00
917.15	34794.00
917.88	34608.00
918.61	34356.00
919.33	34106.00
920.06	33859.00
920.79	33576.00
921.51	33440.00
922.24	33424.00
922.97	33162.00
923.69	33023.00
924.42	32758.00
925.15	32611.00
925.87	32378.00
926.60	32185.00
927.33	31901.00
928.05	31563.00
928.78	31389.00
929.51	31040.00
930.23	30720.00
930.96	30461.00
931.68	30056.00
932.41	29723.00
933.14	29314.00
933.86	29065.00
934.59	28667.00
935.31	28307.00
936.04	27759.00
936.76	27345.00
937.49	26824.00
938.21	26306.00
938.94	25859.00
939.66	25325.00
940.39	24957.00
941.11	24531.00
941.84	24169.00
942.56	23842.00
943.29	23698.00
944.01	23507.00
944.74	23375.00
945.46	23395.00
946.19	23388.00
946.91	23426.00
947.64	23548.00
948.36	23645.00
949.09	23722.00
949.81	23708.00
950.53	23785.00
951.26	23840.00
951.98	23828.00
952.71	23882.00
953.43	23897.00
954.15	23978.00
954.88	24143.00
955.60	24141.00
956.33	24222.00
957.05	24280.00
957.77	24442.00
958.50	24455.00
959.22	24602.00
959.94	24600.00
960.67	24486.00
961.39	24461.00
962.11	24479.00
962.84	24456.00
963.56	24487.00
964.28	24337.00
965.00	24219.00
965.73	24022.00
966.45	23820.00
967.17	23678.00
967.89	23533.00
968.62	23317.00
969.34	23138.00
970.06	22959.00
970.78	22826.00
971.51	22761.00
972.23	22693.00
972.95	22529.00
973.67	22524.00
974.40	22399.00
975.12	22366.00
975.84	22177.00
976.56	22059.00
977.28	21849.00
978.00	21726.00
978.73	21583.00
979.45	21435.00
980.17	21245.00
980.89	21202.00
981.61	21039.00
982.33	20989.00
983.05	20855.00
983.77	20853.00
984.50	20736.00
985.22	20657.00
985.94	20569.00
986.66	20468.00
987.38	20443.00
988.10	20378.00
988.82	20326.00
989.54	20268.00
990.26	20245.00
990.98	20124.00
991.70	20062.00
992.42	19931.00
993.14	19784.00
993.86	19643.00
994.58	19473.00
995.30	19261.00
996.02	19099.00
996.74	19061.00
997.46	18999.00
998.18	18943.00
998.90	18811.00
999.62	18728.00
1000.34	18630.00
1001.06	18589.00
1001.78	18500.00
1002.50	18344.00
1003.22	18161.00
1003.94	17900.00
1004.66	17717.00
1005.38	17605.00
1006.09	17362.00
1006.81	17157.00
1007.53	16999.00
1008.25	16788.00
1008.97	16667.00
1009.69	16582.00
1010.41	16467.00
1011.13	16299.00
1011.84	16121.00
1012.56	15945.00
1013.28	15810.00
1014.00	15727.00
1014.72	15581.00
1015.44	15476.00
1016.15	15254.00
1016.87	15082.00
1017.59	14894.00
1018.31	14797.00
1019.03	14699.00
1019.74	14571.00
1020.46	14448.00
1021.18	14300.00
1021.90	14210.00
1022.61	14012.00
1023.33	13890.00
1024.05	13760.00
1024.76	13555.00
1025.48	13371.00
1026.20	13187.00
1026.92	13030.00
1027.63	12856.00
1028.35	12729.00
1029.07	12587.00
1029.78	12422.00
1030.50	12242.00
1031.22	12079.00
1031.93	11978.00
1032.65	11829.00
1033.37	11683.00
1034.08	11536.00
1034.80	11452.00
1035.52	11375.00
1036.23	11270.00
1036.95	11178.00
1037.66	11088.00
1038.38	10951.00
1039.10	10821.00
1039.81	10648.00
1040.53	10516.00
1041.24	10346.00
1041.96	10200.00
1042.67	10116.00
1043.39	9966.00
1044.10	9833.00
1044.82	9755.00
1045.54	9593.00
1046.25	9491.00
1046.97	9350.00
1047.68	9229.00
1048.40	9065.00
1049.11	8929.00
1049.83	8789.00
1050.54	8703.00
1051.26	8585.00
1051.97	8475.00
1052.68	8409.00
1053.40	8277.00
1054.11	8099.00
1054.83	7966.00
1055.54	7855.00
1056.26	7738.00
1056.97	7628.00
1057.69	7494.00
1058.40	7406.00
1059.11	7268.00
1059.83	7135.00
1060.54	7031.00
1061.25	6872.00
1061.97	6724.00
1062.68	6609.00
1063.40	6490.00
1064.11	6372.00
1064.82	6247.00
1065.54	6112.00
1066.25	2560.00
1066.96	2555.00
1067.68	2554.00
1068.39	2560.00
1069.10	2608.00
1069.82	2604.00
1070.53	2605.00
1071.24	2612.00
1071.95	2607.00
1072.67	2608.00
1073.38	5976.00
1074.09	5868.00
1074.80	5715.00
1075.52	5592.00
1076.23	5484.00
1076.94	5369.00
1077.65	2613.00
1078.37	2604.00
1079.08	2608.00
1079.79	2626.00
