300.47	2613.00
301.26	2615.00
302.04	2617.00
302.82	2610.00
303.60	2611.00
304.38	2613.00
305.17	2614.00
305.95	2609.00
306.73	2611.00
307.51	2610.00
308.29	2612.00
309.08	2607.00
309.86	2614.00
310.64	2614.00
311.42	2609.00
312.20	2615.00
312.98	2609.00
313.76	2611.00
314.55	2611.00
315.33	2611.00
316.11	2612.00
316.89	2608.00
317.67	2611.00
318.45	2612.00
319.23	2618.00
320.01	2610.00
320.79	2614.00
321.57	2612.00
322.35	2616.00
323.13	2615.00
323.91	2616.00
324.69	2616.00
325.47	2615.00
326.25	2618.00
327.03	2615.00
327.81	2617.00
328.59	2616.00
329.37	2619.00
330.15	2616.00
330.93	2617.00
331.71	2616.00
332.49	2621.00
333.27	2618.00
334.05	2616.00
334.83	2620.00
335.61	2622.00
336.39	2623.00
337.17	2619.00
337.95	2623.00
338.73	2626.00
339.51	2627.00
340.29	2630.00
341.07	2629.00
341.84	2628.00
342.62	2633.00
343.40	2633.00
344.18	2634.00
344.96	2641.00
345.74	2635.00
346.52	2638.00
347.29	2644.00
348.07	2643.00
348.85	2647.00
349.63	2654.00
350.41	2657.00
351.18	2654.00
351.96	2662.00
352.74	2663.00
353.52	2668.00
354.30	2670.00
355.07	2677.00
355.85	2681.00
356.63	2682.00
357.41	2687.00
358.18	2689.00
358.96	2696.00
359.74	2704.00
360.52	2708.00
361.29	2715.00
362.07	2713.00
362.85	2723.00
363.62	2731.00
364.40	2733.00
365.18	2740.00
365.95	2752.00
366.73	2755.00
367.51	2768.00
368.28	2767.00
369.06	2780.00
369.84	2789.00
370.61	2797.00
371.39	2811.00
372.17	2820.00
372.94	2826.00
373.72	2833.00
374.49	2848.00
375.27	2846.00
376.05	2871.00
376.82	2876.00
377.60	2890.00
378.37	2910.00
379.15	2915.00
379.92	2925.00
380.70	2942.00
381.47	2950.00
382.25	2971.00
383.02	2992.00
383.80	3006.00
384.58	3019.00
385.35	3040.00
386.13	3051.00
386.90	3073.00
387.67	3082.00
388.45	3102.00
389.22	3125.00
390.00	3140.00
390.77	3161.00
391.55	3166.00
392.32	3191.00
393.10	3225.00
393.87	3230.00
394.65	3255.00
395.42	3270.00
396.19	3304.00
396.97	3325.00
397.74	3347.00
398.52	3368.00
399.29	3389.00
400.06	3411.00
400.84	3445.00
401.61	3459.00
402.38	3488.00
403.16	3501.00
403.93	3521.00
404.70	3540.00
405.48	3578.00
406.25	3600.00
407.02	3625.00
407.80	3643.00
408.57	3677.00
409.34	3707.00
410.12	3751.00
410.89	3753.00
411.66	3782.00
412.43	3801.00
413.21	3845.00
413.98	3863.00
414.75	3888.00
415.52	3919.00
416.30	3960.00
417.07	3965.00
417.84	4009.00
418.61	4040.00
419.39	4062.00
420.16	4092.00
420.93	4121.00
421.70	4165.00
422.47	4193.00
423.24	4233.00
424.02	4281.00
424.79	4311.00
425.56	4331.00
426.33	4383.00
427.10	4432.00
427.87	4452.00
428.64	4494.00
429.42	4521.00
430.19	4578.00
430.96	4631.00
431.73	4677.00
432.50	4723.00
433.27	4735.00
434.04	4784.00
434.81	4859.00
435.58	4911.00
436.35	4946.00
437.12	4995.00
437.89	5049.00
438.67	5117.00
439.44	5157.00
440.21	5196.00
440.98	5254.00
441.75	5325.00
442.52	5393.00
443.29	5425.00
444.06	5504.00
444.83	5571.00
445.60	5623.00
446.37	5671.00
447.13	5724.00
447.90	5796.00
448.67	5870.00
449.44	5946.00
450.21	6009.00
450.98	6083.00
451.75	6157.00
452.52	6223.00
453.29	6322.00
454.06	6387.00
454.83	6472.00
455.60	6548.00
456.37	6619.00
457.13	6690.00
457.90	6783.00
458.67	6851.00
459.44	6958.00
460.21	7027.00
460.98	7106.00
461.75	7213.00
462.51	7290.00
463.28	7414.00
464.05	7493.00
464.82	7599.00
465.59	7667.00
466.35	7794.00
467.12	7881.00
467.89	7973.00
468.66	8075.00
469.43	8179.00
470.19	8280.00
470.96	8377.00
471.73	8474.00
472.50	8603.00
473.26	8709.00
474.03	8851.00
474.80	8934.00
475.56	9038.00
476.33	9140.00
477.10	9248.00
477.87	9347.00
478.63	9501.00
479.40	9604.00
480.17	9715.00
480.93	9837.00
481.70	9947.00
482.47	10063.00
483.23	10194.00
484.00	10394.00
484.76	10454.00
485.53	10628.00
486.30	10730.00
487.06	10851.00
487.83	11004.00
488.60	11143.00
489.36	11298.00
490.13	11410.00
490.89	11509.00
491.66	11642.00
492.42	11775.00
493.19	11931.00
493.96	12103.00
494.72	12214.00
495.49	12350.00
496.25	12504.00
497.02	12665.00
497.78	12858.00
498.55	12931.00
499.31	13078.00
500.08	13201.00
500.84	13395.00
501.61	13517.00
502.37	13644.00
503.14	13800.00
503.90	13993.00
504.67	14082.00
505.43	14277.00
506.20	14438.00
506.96	14595.00
507.72	14775.00
508.49	14930.00
509.25	15096.00
510.02	15308.00
510.78	15482.00
511.54	15619.00
512.31	15799.00
513.07	15941.00
513.84	16144.00
514.60	16291.00
515.36	16457.00
516.13	16617.00
516.89	16745.00
517.65	16869.00
518.42	17043.00
519.18	17208.00
519.94	17388.00
520.71	17535.00
521.47	17681.00
522.23	17805.00
523.00	18079.00
523.76	18219.00
524.52	18485.00
525.28	18642.00
526.05	18789.00
526.81	19002.00
527.57	19142.00
528.33	19342.00
529.10	19471.00
529.86	19733.00
530.62	19841.00
531.38	20047.00
532.15	20201.00
532.91	20356.00
533.67	20527.00
534.43	20685.00
535.19	20933.00
535.96	21109.00
536.72	21248.00
537.48	21343.00
538.24	21492.00
539.00	21691.00
539.76	22019.00
540.53	22238.00
541.29	22450.00
542.05	22572.00
542.81	22805.00
543.57	23007.00
544.33	23140.00
545.09	23412.00
545.85	23561.00
546.61	23678.00
547.38	23829.00
548.14	24021.00
548.90	24212.00
549.66	24486.00
550.42	24727.00
551.18	24867.00
551.94	25071.00
552.70	25262.00
553.46	25438.00
554.22	25623.00
554.98	25789.00
555.74	25884.00
556.50	26038.00
557.26	26311.00
558.02	26602.00
558.78	26830.00
559.54	27001.00
560.30	27127.00
561.06	27391.00
561.82	27603.00
562.58	27821.00
563.34	28076.00
564.10	28261.00
564.86	28405.00
565.61	28593.00
566.37	28763.00
567.13	28966.00
567.89	29208.00
568.65	29403.00
569.41	29562.00
570.17	29695.00
570.93	29871.00
571.69	30045.00
572.44	30282.00
573.20	30410.00
573.96	30604.00
574.72	30890.00
575.48	31018.00
576.24	31239.00
576.99	31502.00
577.75	31713.00
578.51	31896.00
579.27	32104.00
580.03	32260.00
580.78	32480.00
581.54	32738.00
582.30	32979.00
583.06	33177.00
583.82	33255.00
584.57	33541.00
585.33	33738.00
586.09	33964.00
586.84	34061.00
587.60	34144.00
588.36	34132.00
589.12	34353.00
589.87	34638.00
590.63	34832.00
591.39	34974.00
592.14	35090.00
592.90	35399.00
593.66	35703.00
594.41	35844.00
595.17	36133.00
595.93	36224.00
596.68	36169.00
597.44	36401.00
598.20	36702.00
598.95	36850.00
599.71	37115.00
600.46	37160.00
601.22	37309.00
601.98	37556.00
602.73	37808.00
603.49	38190.00
604.24	38511.00
605.00	38598.00
605.76	38763.00
606.51	39013.00
607.27	39186.00
608.02	39439.00
608.78	39675.00
609.53	39872.00
610.29	40013.00
611.04	40226.00
611.80	40535.00
612.55	40803.00
613.31	41059.00
614.06	41323.00
614.82	41520.00
615.57	41724.00
616.33	42048.00
617.08	42126.00
617.84	42265.00
618.59	42348.00
619.35	42416.00
620.10	42404.00
620.85	42412.00
621.61	42394.00
622.36	42604.00
623.12	42576.00
623.87	42700.00
624.62	42815.00
625.38	43017.00
626.13	43326.00
626.89	43423.00
627.64	43506.00
628.39	43562.00
629.15	43643.00
629.90	43678.00
630.65	43791.00
631.41	43752.00
632.16	43776.00
632.91	43675.00
633.67	43785.00
634.42	43695.00
635.17	43951.00
635.92	44219.00
636.68	44761.00
637.43	45379.00
638.18	45872.00
638.94	46223.00
639.69	46641.00
640.44	46984.00
641.19	47427.00
641.95	47828.00
642.70	48183.00
643.45	48373.00
644.20	48663.00
644.95	48822.00
645.71	49014.00
646.46	49131.00
647.21	49380.00
647.96	49382.00
648.71	49620.00
649.47	49712.00
650.22	49810.00
650.97	49860.00
651.72	49985.00
652.47	50143.00
653.22	50261.00
653.97	50390.00
654.73	50588.00
655.48	50743.00
656.23	51025.00
656.98	51121.00
657.73	51293.00
658.48	51340.00
659.23	51420.00
659.98	51357.00
660.73	51319.00
661.48	51555.00
662.23	51707.00
662.99	51758.00
663.74	51802.00
664.49	51946.00
665.24	52518.00
665.99	52932.00
666.74	53029.00
667.49	53192.00
668.24	53219.00
668.99	53326.00
669.74	53540.00
670.49	53753.00
671.24	53807.00
671.99	54039.00
672.74	54265.00
673.48	54299.00
674.23	54388.00
674.98	54426.00
675.73	54522.00
676.48	54643.00
677.23	54750.00
677.98	54820.00
678.73	54772.00
679.48	54789.00
680.23	54876.00
680.98	55064.00
681.73	54981.00
682.47	55023.00
683.22	55005.00
683.97	55089.00
684.72	55219.00
685.47	55256.00
686.22	55394.00
686.97	55581.00
687.71	55722.00
688.46	55985.00
689.21	56181.00
689.96	56138.00
690.71	56284.00
691.45	56266.00
692.20	56312.00
692.95	56444.00
693.70	56414.00
694.44	56382.00
695.19	56569.00
695.94	56561.00
696.69	56651.00
697.43	56732.00
698.18	56720.00
698.93	56886.00
699.68	56915.00
700.42	56967.00
701.17	57018.00
701.92	57042.00
702.66	57307.00
703.41	57341.00
704.16	57271.00
704.90	57283.00
705.65	57379.00
706.40	57344.00
707.14	57417.00
707.89	57431.00
708.64	57516.00
709.38	57429.00
710.13	57434.00
710.88	57526.00
711.62	57577.00
712.37	57568.00
713.11	57608.00
713.86	57713.00
714.61	57641.00
715.35	57661.00
716.10	57528.00
716.84	57473.00
717.59	57350.00
718.33	57074.00
719.08	57003.00
719.83	56807.00
720.57	56776.00
721.32	56786.00
722.06	56665.00
722.81	56588.00
723.55	56621.00
724.30	56754.00
725.04	56749.00
725.79	56773.00
726.53	56776.00
727.28	56775.00
728.02	56731.00
728.76	56795.00
729.51	56874.00
730.25	56974.00
731.00	56868.00
731.74	56889.00
732.49	56850.00
733.23	56830.00
733.97	56891.00
734.72	56842.00
735.46	56913.00
736.21	56710.00
736.95	56652.00
737.69	56641.00
738.44	56773.00
739.18	56882.00
739.92	56836.00
740.67	56761.00
741.41	56985.00
742.15	57064.00
742.90	57150.00
743.64	57278.00
744.38	57317.00
745.13	57184.00
745.87	57199.00
746.61	57276.00
747.36	57386.00
748.10	57355.00
748.84	57253.00
749.58	57163.00
750.33	57041.00
751.07	57102.00
751.81	57039.00
752.55	57073.00
753.30	57021.00
754.04	56835.00
754.78	56687.00
755.52	56519.00
756.27	56323.00
757.01	56250.00
757.75	56250.00
758.49	56204.00
759.23	56164.00
759.97	56036.00
760.72	55983.00
761.46	55966.00
762.20	55944.00
762.94	55863.00
763.68	55721.00
764.42	55593.00
765.16	55580.00
765.91	55661.00
766.65	55604.00
767.39	55619.00
768.13	55599.00
768.87	55462.00
769.61	55451.00
770.35	55511.00
771.09	55448.00
771.83	55384.00
772.57	55297.00
773.31	55383.00
774.05	55427.00
774.80	55479.00
775.54	55311.00
776.28	55268.00
777.02	55056.00
777.76	55006.00
778.50	54830.00
779.24	54652.00
779.98	54434.00
780.72	54336.00
781.46	54292.00
782.20	54223.00
782.93	54334.00
783.67	54201.00
784.41	54212.00
785.15	54123.00
785.89	53864.00
786.63	53588.00
787.37	53415.00
788.11	53240.00
788.85	53033.00
789.59	52935.00
790.33	52865.00
791.07	52831.00
791.81	52634.00
792.54	52477.00
793.28	52332.00
794.02	52190.00
794.76	51818.00
795.50	51613.00
796.24	51449.00
796.97	51344.00
797.71	51100.00
798.45	50940.00
799.19	50938.00
799.93	50845.00
800.67	50763.00
801.40	50641.00
802.14	50705.00
802.88	50766.00
803.62	50651.00
804.35	50670.00
805.09	50546.00
805.83	50356.00
806.57	50317.00
807.30	50429.00
808.04	50580.00
808.78	50639.00
809.52	50263.00
810.25	50269.00
810.99	50111.00
811.73	50028.00
812.46	49873.00
813.20	49821.00
813.94	49769.00
814.68	49579.00
815.41	49214.00
816.15	49287.00
816.88	49300.00
817.62	49207.00
818.36	49014.00
819.09	48687.00
819.83	48528.00
820.57	48355.00
821.30	48283.00
822.04	48114.00
822.77	48092.00
823.51	47929.00
824.25	47745.00
824.98	47808.00
825.72	47697.00
826.45	47704.00
827.19	47429.00
827.92	47468.00
828.66	47200.00
829.40	47197.00
830.13	47056.00
830.87	47119.00
831.60	46941.00
832.34	46796.00
833.07	46622.00
833.81	46705.00
834.54	46705.00
835.28	46769.00
836.01	46739.00
836.75	46454.00
837.48	46222.00
838.22	46007.00
838.95	45862.00
839.68	45769.00
840.42	45874.00
841.15	45818.00
841.89	45675.00
842.62	45432.00
843.36	45309.00
844.09	45335.00
844.82	45335.00
845.56	45483.00
846.29	45298.00
847.02	45009.00
847.76	44851.00
848.49	44933.00
849.23	45127.00
849.96	45272.00
850.69	45240.00
851.43	45091.00
852.16	44803.00
852.89	44577.00
853.63	44428.00
854.36	44365.00
855.09	44380.00
855.82	44313.00
856.56	44289.00
857.29	44129.00
858.02	44043.00
858.76	43957.00
859.49	43989.00
860.22	43944.00
860.95	43851.00
861.69	43726.00
862.42	43469.00
863.15	43224.00
863.88	43153.00
864.61	43121.00
865.35	43230.00
866.08	42994.00
866.81	42714.00
867.54	42496.00
868.27	42287.00
869.01	42118.00
869.74	42195.00
870.47	42274.00
871.20	42203.00
871.93	42028.00
872.66	41865.00
873.40	41783.00
874.13	41601.00
874.86	41527.00
875.59	41304.00
876.32	41288.00
877.05	41090.00
877.78	41009.00
878.51	40785.00
879.24	40654.00
879.97	40566.00
880.71	40317.00
881.44	40186.00
882.17	40011.00
882.90	39778.00
883.63	39470.00
884.36	39515.00
885.09	39477.00
885.82	39551.00
886.55	39661.00
887.28	39590.00
888.01	39625.00
888.74	39487.00
889.47	39412.00
890.20	39124.00
890.93	38918.00
891.66	38805.00
892.39	38745.00
893.12	38779.00
893.85	38729.00
894.57	38800.00
895.30	38753.00
896.03	38777.00
896.76	38569.00
897.49	38493.00
898.22	38162.00
898.95	37985.00
899.68	37872.00
900.41	37659.00
901.14	37446.00
901.86	37410.00
902.59	37338.00
903.32	37336.00
904.05	37347.00
904.78	37178.00
905.51	36969.00
906.24	36881.00
906.96	36783.00
907.69	36493.00
908.42	36288.00
909.15	36126.00
909.88	35884.00
910.60	35860.00
911.33	35712.00
912.06	35509.00
912.79	35429.00
913.52	35281.00
914.24	35255.00
914.97	35190.00
915.70	35043.00
916.42	34967.00
917.15	34872.00
917.88	34585.00
918.61	34425.00
919.33	34102.00
920.06	33844.00
920.79	33698.00
921.51	33505.00
922.24	33376.00
922.97	33147.00
923.69	33064.00
924.42	32792.00
925.15	32576.00
925.87	32381.00
926.60	32225.00
927.33	31877.00
928.05	31553.00
928.78	31346.00
929.51	31073.00
930.23	30785.00
930.96	30450.00
931.68	30038.00
932.41	29689.00
933.14	29411.00
933.86	29024.00
934.59	28643.00
935.31	28332.00
936.04	27823.00
936.76	27332.00
937.49	26827.00
938.21	26360.00
938.94	25825.00
939.66	25358.00
940.39	24935.00
941.11	24495.00
941.84	24118.00
942.56	23814.00
943.29	23585.00
944.01	23459.00
944.74	23413.00
945.46	23412.00
946.19	23435.00
946.91	23439.00
947.64	23545.00
948.36	23639.00
949.09	23723.00
949.81	23742.00
950.53	23841.00
951.26	23851.00
951.98	23826.00
952.71	23814.00
953.43	23853.00
954.15	23898.00
954.88	24041.00
955.60	24164.00
956.33	24197.00
957.05	24374.00
957.77	24379.00
958.50	24547.00
959.22	24589.00
959.94	24598.00
960.67	24488.00
961.39	24421.00
962.11	24461.00
962.84	24537.00
963.56	24475.00
964.28	24306.00
965.00	24211.00
965.73	23986.00
966.45	23866.00
967.17	23671.00
967.89	23453.00
968.62	23333.00
969.34	23100.00
970.06	23056.00
970.78	22869.00
971.51	22844.00
972.23	22751.00
972.95	22613.00
973.67	22516.00
974.40	22487.00
975.12	22362.00
975.84	22213.00
976.56	22066.00
977.28	21775.00
978.00	21671.00
978.73	21581.00
979.45	21430.00
980.17	21356.00
980.89	21175.00
981.61	21094.00
982.33	20959.00
983.05	20904.00
983.77	20822.00
984.50	20730.00
985.22	20597.00
985.94	20601.00
986.66	20450.00
987.38	20383.00
988.10	20374.00
988.82	20337.00
989.54	20313.00
990.26	20228.00
990.98	20175.00
991.70	19996.00
992.42	19874.00
993.14	19785.00
993.86	19607.00
994.58	19450.00
995.30	19286.00
996.02	19157.00
996.74	19022.00
997.46	18968.00
998.18	18889.00
998.90	18822.00
999.62	18768.00
1000.34	18645.00
1001.06	18622.00
1001.78	18537.00
1002.50	18382.00
1003.22	18082.00
1003.94	17893.00
1004.66	17737.00
1005.38	17557.00
1006.09	17389.00
1006.81	17187.00
1007.53	16978.00
1008.25	16787.00
1008.97	16629.00
1009.69	16561.00
1010.41	16441.00
1011.13	16330.00
1011.84	16096.00
1012.56	15941.00
1013.28	15872.00
1014.00	15739.00
1014.72	15554.00
1015.44	15484.00
1016.15	15253.00
1016.87	15034.00
1017.59	14922.00
1018.31	14776.00
1019.03	14682.00
1019.74	14569.00
1020.46	14453.00
1021.18	14312.00
1021.90	14175.00
1022.61	14005.00
1023.33	13860.00
1024.05	13736.00
1024.76	13567.00
1025.48	13437.00
1026.20	13180.00
1026.92	13015.00
1027.63	12899.00
1028.35	12715.00
1029.07	12586.00
1029.78	12453.00
1030.50	12261.00
1031.22	12139.00
1031.93	11970.00
1032.65	11783.00
1033.37	11706.00
1034.08	11548.00
1034.80	11472.00
1035.52	11335.00
1036.23	11273.00
1036.95	11170.00
1037.66	11037.00
1038.38	10950.00
1039.10	10843.00
1039.81	10643.00
1040.53	10511.00
1041.24	10318.00
1041.96	10190.00
1042.67	10072.00
1043.39	9957.00
1044.10	9821.00
1044.82	9729.00
1045.54	9577.00
1046.25	9445.00
1046.97	9376.00
1047.68	9269.00
1048.40	9085.00
1049.11	8925.00
1049.83	8795.00
1050.54	8708.00
1051.26	8617.00
1051.97	8528.00
1052.68	8404.00
1053.40	8245.00
1054.11	8100.00
1054.83	7957.00
1055.54	7826.00
1056.26	7690.00
1056.97	7592.00
1057.69	7489.00
1058.40	7382.00
1059.11	7290.00
1059.83	7144.00
1060.54	7016.00
1061.25	6861.00
1061.97	6733.00
1062.68	6603.00
1063.40	6496.00
1064.11	6370.00
1064.82	6266.00
1065.54	6107.00
1066.25	2559.00
1066.96	2559.00
1067.68	2558.00
1068.39	2562.00
1069.10	2615.00
1069.82	2613.00
1070.53	2611.00
1071.24	2611.00
1071.95	2614.00
1072.67	2611.00
1073.38	5987.00
1074.09	5858.00
1074.80	5726.00
1075.52	5602.00
1076.23	5473.00
1076.94	5382.00
1077.65	2615.00
1078.37	2612.00
1079.08	2608.00
1079.79	2625.00
